%!PS-Adobe-2.0 EPSF-2.0
%%Title: n_alphabet_size_1000.recall.eps
%%Creator: gnuplot 4.4 patchlevel 3
%%CreationDate: Tue Jun  4 12:58:03 2013
%%DocumentFonts: (atend)
%%BoundingBox: 50 50 410 302
%%EndComments
%%BeginProlog
/gnudict 256 dict def
gnudict begin
%
% The following true/false flags may be edited by hand if desired.
% The unit line width and grayscale image gamma correction may also be changed.
%
/Color true def
/Blacktext false def
/Solid false def
/Dashlength 1 def
/Landscape false def
/Level1 false def
/Rounded false def
/ClipToBoundingBox false def
/TransparentPatterns false def
/gnulinewidth 5.000 def
/userlinewidth gnulinewidth def
/Gamma 1.0 def
%
/vshift -83 def
/dl1 {
  10.0 Dashlength mul mul
  Rounded { currentlinewidth 0.75 mul sub dup 0 le { pop 0.01 } if } if
} def
/dl2 {
  10.0 Dashlength mul mul
  Rounded { currentlinewidth 0.75 mul add } if
} def
/hpt_ 31.5 def
/vpt_ 31.5 def
/hpt hpt_ def
/vpt vpt_ def
Level1 {} {
/SDict 10 dict def
systemdict /pdfmark known not {
  userdict /pdfmark systemdict /cleartomark get put
} if
SDict begin [
  /Title (n_alphabet_size_1000.recall.eps)
  /Subject (gnuplot plot)
  /Creator (gnuplot 4.4 patchlevel 3)
  /Author (xjia)
%  /Producer (gnuplot)
%  /Keywords ()
  /CreationDate (Tue Jun  4 12:58:03 2013)
  /DOCINFO pdfmark
end
} ifelse
/doclip {
  ClipToBoundingBox {
    newpath 50 50 moveto 410 50 lineto 410 302 lineto 50 302 lineto closepath
    clip
  } if
} def
%
% Gnuplot Prolog Version 4.4 (August 2010)
%
%/SuppressPDFMark true def
%
/M {moveto} bind def
/L {lineto} bind def
/R {rmoveto} bind def
/V {rlineto} bind def
/N {newpath moveto} bind def
/Z {closepath} bind def
/C {setrgbcolor} bind def
/f {rlineto fill} bind def
/g {setgray} bind def
/Gshow {show} def   % May be redefined later in the file to support UTF-8
/vpt2 vpt 2 mul def
/hpt2 hpt 2 mul def
/Lshow {currentpoint stroke M 0 vshift R 
	Blacktext {gsave 0 setgray show grestore} {show} ifelse} def
/Rshow {currentpoint stroke M dup stringwidth pop neg vshift R
	Blacktext {gsave 0 setgray show grestore} {show} ifelse} def
/Cshow {currentpoint stroke M dup stringwidth pop -2 div vshift R 
	Blacktext {gsave 0 setgray show grestore} {show} ifelse} def
/UP {dup vpt_ mul /vpt exch def hpt_ mul /hpt exch def
  /hpt2 hpt 2 mul def /vpt2 vpt 2 mul def} def
/DL {Color {setrgbcolor Solid {pop []} if 0 setdash}
 {pop pop pop 0 setgray Solid {pop []} if 0 setdash} ifelse} def
/BL {stroke userlinewidth 2 mul setlinewidth
	Rounded {1 setlinejoin 1 setlinecap} if} def
/AL {stroke userlinewidth 2 div setlinewidth
	Rounded {1 setlinejoin 1 setlinecap} if} def
/UL {dup gnulinewidth mul /userlinewidth exch def
	dup 1 lt {pop 1} if 10 mul /udl exch def} def
/PL {stroke userlinewidth setlinewidth
	Rounded {1 setlinejoin 1 setlinecap} if} def
3.8 setmiterlimit
% Default Line colors
/LCw {1 1 1} def
/LCb {0 0 0} def
/LCa {0 0 0} def
/LC0 {1 0 0} def
/LC1 {0 1 0} def
/LC2 {0 0 1} def
/LC3 {1 0 1} def
/LC4 {0 1 1} def
/LC5 {1 1 0} def
/LC6 {0 0 0} def
/LC7 {1 0.3 0} def
/LC8 {0.5 0.5 0.5} def
% Default Line Types
/LTw {PL [] 1 setgray} def
/LTb {BL [] LCb DL} def
/LTa {AL [1 udl mul 2 udl mul] 0 setdash LCa setrgbcolor} def
/LT0 {PL [] LC0 DL} def
/LT1 {PL [4 dl1 2 dl2] LC1 DL} def
/LT2 {PL [2 dl1 3 dl2] LC2 DL} def
/LT3 {PL [1 dl1 1.5 dl2] LC3 DL} def
/LT4 {PL [6 dl1 2 dl2 1 dl1 2 dl2] LC4 DL} def
/LT5 {PL [3 dl1 3 dl2 1 dl1 3 dl2] LC5 DL} def
/LT6 {PL [2 dl1 2 dl2 2 dl1 6 dl2] LC6 DL} def
/LT7 {PL [1 dl1 2 dl2 6 dl1 2 dl2 1 dl1 2 dl2] LC7 DL} def
/LT8 {PL [2 dl1 2 dl2 2 dl1 2 dl2 2 dl1 2 dl2 2 dl1 4 dl2] LC8 DL} def
/Pnt {stroke [] 0 setdash gsave 1 setlinecap M 0 0 V stroke grestore} def
/Dia {stroke [] 0 setdash 2 copy vpt add M
  hpt neg vpt neg V hpt vpt neg V
  hpt vpt V hpt neg vpt V closepath stroke
  Pnt} def
/Pls {stroke [] 0 setdash vpt sub M 0 vpt2 V
  currentpoint stroke M
  hpt neg vpt neg R hpt2 0 V stroke
 } def
/Box {stroke [] 0 setdash 2 copy exch hpt sub exch vpt add M
  0 vpt2 neg V hpt2 0 V 0 vpt2 V
  hpt2 neg 0 V closepath stroke
  Pnt} def
/Crs {stroke [] 0 setdash exch hpt sub exch vpt add M
  hpt2 vpt2 neg V currentpoint stroke M
  hpt2 neg 0 R hpt2 vpt2 V stroke} def
/TriU {stroke [] 0 setdash 2 copy vpt 1.12 mul add M
  hpt neg vpt -1.62 mul V
  hpt 2 mul 0 V
  hpt neg vpt 1.62 mul V closepath stroke
  Pnt} def
/Star {2 copy Pls Crs} def
/BoxF {stroke [] 0 setdash exch hpt sub exch vpt add M
  0 vpt2 neg V hpt2 0 V 0 vpt2 V
  hpt2 neg 0 V closepath fill} def
/TriUF {stroke [] 0 setdash vpt 1.12 mul add M
  hpt neg vpt -1.62 mul V
  hpt 2 mul 0 V
  hpt neg vpt 1.62 mul V closepath fill} def
/TriD {stroke [] 0 setdash 2 copy vpt 1.12 mul sub M
  hpt neg vpt 1.62 mul V
  hpt 2 mul 0 V
  hpt neg vpt -1.62 mul V closepath stroke
  Pnt} def
/TriDF {stroke [] 0 setdash vpt 1.12 mul sub M
  hpt neg vpt 1.62 mul V
  hpt 2 mul 0 V
  hpt neg vpt -1.62 mul V closepath fill} def
/DiaF {stroke [] 0 setdash vpt add M
  hpt neg vpt neg V hpt vpt neg V
  hpt vpt V hpt neg vpt V closepath fill} def
/Pent {stroke [] 0 setdash 2 copy gsave
  translate 0 hpt M 4 {72 rotate 0 hpt L} repeat
  closepath stroke grestore Pnt} def
/PentF {stroke [] 0 setdash gsave
  translate 0 hpt M 4 {72 rotate 0 hpt L} repeat
  closepath fill grestore} def
/Circle {stroke [] 0 setdash 2 copy
  hpt 0 360 arc stroke Pnt} def
/CircleF {stroke [] 0 setdash hpt 0 360 arc fill} def
/C0 {BL [] 0 setdash 2 copy moveto vpt 90 450 arc} bind def
/C1 {BL [] 0 setdash 2 copy moveto
	2 copy vpt 0 90 arc closepath fill
	vpt 0 360 arc closepath} bind def
/C2 {BL [] 0 setdash 2 copy moveto
	2 copy vpt 90 180 arc closepath fill
	vpt 0 360 arc closepath} bind def
/C3 {BL [] 0 setdash 2 copy moveto
	2 copy vpt 0 180 arc closepath fill
	vpt 0 360 arc closepath} bind def
/C4 {BL [] 0 setdash 2 copy moveto
	2 copy vpt 180 270 arc closepath fill
	vpt 0 360 arc closepath} bind def
/C5 {BL [] 0 setdash 2 copy moveto
	2 copy vpt 0 90 arc
	2 copy moveto
	2 copy vpt 180 270 arc closepath fill
	vpt 0 360 arc} bind def
/C6 {BL [] 0 setdash 2 copy moveto
	2 copy vpt 90 270 arc closepath fill
	vpt 0 360 arc closepath} bind def
/C7 {BL [] 0 setdash 2 copy moveto
	2 copy vpt 0 270 arc closepath fill
	vpt 0 360 arc closepath} bind def
/C8 {BL [] 0 setdash 2 copy moveto
	2 copy vpt 270 360 arc closepath fill
	vpt 0 360 arc closepath} bind def
/C9 {BL [] 0 setdash 2 copy moveto
	2 copy vpt 270 450 arc closepath fill
	vpt 0 360 arc closepath} bind def
/C10 {BL [] 0 setdash 2 copy 2 copy moveto vpt 270 360 arc closepath fill
	2 copy moveto
	2 copy vpt 90 180 arc closepath fill
	vpt 0 360 arc closepath} bind def
/C11 {BL [] 0 setdash 2 copy moveto
	2 copy vpt 0 180 arc closepath fill
	2 copy moveto
	2 copy vpt 270 360 arc closepath fill
	vpt 0 360 arc closepath} bind def
/C12 {BL [] 0 setdash 2 copy moveto
	2 copy vpt 180 360 arc closepath fill
	vpt 0 360 arc closepath} bind def
/C13 {BL [] 0 setdash 2 copy moveto
	2 copy vpt 0 90 arc closepath fill
	2 copy moveto
	2 copy vpt 180 360 arc closepath fill
	vpt 0 360 arc closepath} bind def
/C14 {BL [] 0 setdash 2 copy moveto
	2 copy vpt 90 360 arc closepath fill
	vpt 0 360 arc} bind def
/C15 {BL [] 0 setdash 2 copy vpt 0 360 arc closepath fill
	vpt 0 360 arc closepath} bind def
/Rec {newpath 4 2 roll moveto 1 index 0 rlineto 0 exch rlineto
	neg 0 rlineto closepath} bind def
/Square {dup Rec} bind def
/Bsquare {vpt sub exch vpt sub exch vpt2 Square} bind def
/S0 {BL [] 0 setdash 2 copy moveto 0 vpt rlineto BL Bsquare} bind def
/S1 {BL [] 0 setdash 2 copy vpt Square fill Bsquare} bind def
/S2 {BL [] 0 setdash 2 copy exch vpt sub exch vpt Square fill Bsquare} bind def
/S3 {BL [] 0 setdash 2 copy exch vpt sub exch vpt2 vpt Rec fill Bsquare} bind def
/S4 {BL [] 0 setdash 2 copy exch vpt sub exch vpt sub vpt Square fill Bsquare} bind def
/S5 {BL [] 0 setdash 2 copy 2 copy vpt Square fill
	exch vpt sub exch vpt sub vpt Square fill Bsquare} bind def
/S6 {BL [] 0 setdash 2 copy exch vpt sub exch vpt sub vpt vpt2 Rec fill Bsquare} bind def
/S7 {BL [] 0 setdash 2 copy exch vpt sub exch vpt sub vpt vpt2 Rec fill
	2 copy vpt Square fill Bsquare} bind def
/S8 {BL [] 0 setdash 2 copy vpt sub vpt Square fill Bsquare} bind def
/S9 {BL [] 0 setdash 2 copy vpt sub vpt vpt2 Rec fill Bsquare} bind def
/S10 {BL [] 0 setdash 2 copy vpt sub vpt Square fill 2 copy exch vpt sub exch vpt Square fill
	Bsquare} bind def
/S11 {BL [] 0 setdash 2 copy vpt sub vpt Square fill 2 copy exch vpt sub exch vpt2 vpt Rec fill
	Bsquare} bind def
/S12 {BL [] 0 setdash 2 copy exch vpt sub exch vpt sub vpt2 vpt Rec fill Bsquare} bind def
/S13 {BL [] 0 setdash 2 copy exch vpt sub exch vpt sub vpt2 vpt Rec fill
	2 copy vpt Square fill Bsquare} bind def
/S14 {BL [] 0 setdash 2 copy exch vpt sub exch vpt sub vpt2 vpt Rec fill
	2 copy exch vpt sub exch vpt Square fill Bsquare} bind def
/S15 {BL [] 0 setdash 2 copy Bsquare fill Bsquare} bind def
/D0 {gsave translate 45 rotate 0 0 S0 stroke grestore} bind def
/D1 {gsave translate 45 rotate 0 0 S1 stroke grestore} bind def
/D2 {gsave translate 45 rotate 0 0 S2 stroke grestore} bind def
/D3 {gsave translate 45 rotate 0 0 S3 stroke grestore} bind def
/D4 {gsave translate 45 rotate 0 0 S4 stroke grestore} bind def
/D5 {gsave translate 45 rotate 0 0 S5 stroke grestore} bind def
/D6 {gsave translate 45 rotate 0 0 S6 stroke grestore} bind def
/D7 {gsave translate 45 rotate 0 0 S7 stroke grestore} bind def
/D8 {gsave translate 45 rotate 0 0 S8 stroke grestore} bind def
/D9 {gsave translate 45 rotate 0 0 S9 stroke grestore} bind def
/D10 {gsave translate 45 rotate 0 0 S10 stroke grestore} bind def
/D11 {gsave translate 45 rotate 0 0 S11 stroke grestore} bind def
/D12 {gsave translate 45 rotate 0 0 S12 stroke grestore} bind def
/D13 {gsave translate 45 rotate 0 0 S13 stroke grestore} bind def
/D14 {gsave translate 45 rotate 0 0 S14 stroke grestore} bind def
/D15 {gsave translate 45 rotate 0 0 S15 stroke grestore} bind def
/DiaE {stroke [] 0 setdash vpt add M
  hpt neg vpt neg V hpt vpt neg V
  hpt vpt V hpt neg vpt V closepath stroke} def
/BoxE {stroke [] 0 setdash exch hpt sub exch vpt add M
  0 vpt2 neg V hpt2 0 V 0 vpt2 V
  hpt2 neg 0 V closepath stroke} def
/TriUE {stroke [] 0 setdash vpt 1.12 mul add M
  hpt neg vpt -1.62 mul V
  hpt 2 mul 0 V
  hpt neg vpt 1.62 mul V closepath stroke} def
/TriDE {stroke [] 0 setdash vpt 1.12 mul sub M
  hpt neg vpt 1.62 mul V
  hpt 2 mul 0 V
  hpt neg vpt -1.62 mul V closepath stroke} def
/PentE {stroke [] 0 setdash gsave
  translate 0 hpt M 4 {72 rotate 0 hpt L} repeat
  closepath stroke grestore} def
/CircE {stroke [] 0 setdash 
  hpt 0 360 arc stroke} def
/Opaque {gsave closepath 1 setgray fill grestore 0 setgray closepath} def
/DiaW {stroke [] 0 setdash vpt add M
  hpt neg vpt neg V hpt vpt neg V
  hpt vpt V hpt neg vpt V Opaque stroke} def
/BoxW {stroke [] 0 setdash exch hpt sub exch vpt add M
  0 vpt2 neg V hpt2 0 V 0 vpt2 V
  hpt2 neg 0 V Opaque stroke} def
/TriUW {stroke [] 0 setdash vpt 1.12 mul add M
  hpt neg vpt -1.62 mul V
  hpt 2 mul 0 V
  hpt neg vpt 1.62 mul V Opaque stroke} def
/TriDW {stroke [] 0 setdash vpt 1.12 mul sub M
  hpt neg vpt 1.62 mul V
  hpt 2 mul 0 V
  hpt neg vpt -1.62 mul V Opaque stroke} def
/PentW {stroke [] 0 setdash gsave
  translate 0 hpt M 4 {72 rotate 0 hpt L} repeat
  Opaque stroke grestore} def
/CircW {stroke [] 0 setdash 
  hpt 0 360 arc Opaque stroke} def
/BoxFill {gsave Rec 1 setgray fill grestore} def
/Density {
  /Fillden exch def
  currentrgbcolor
  /ColB exch def /ColG exch def /ColR exch def
  /ColR ColR Fillden mul Fillden sub 1 add def
  /ColG ColG Fillden mul Fillden sub 1 add def
  /ColB ColB Fillden mul Fillden sub 1 add def
  ColR ColG ColB setrgbcolor} def
/BoxColFill {gsave Rec PolyFill} def
/PolyFill {gsave Density fill grestore grestore} def
/h {rlineto rlineto rlineto gsave closepath fill grestore} bind def
%
% PostScript Level 1 Pattern Fill routine for rectangles
% Usage: x y w h s a XX PatternFill
%	x,y = lower left corner of box to be filled
%	w,h = width and height of box
%	  a = angle in degrees between lines and x-axis
%	 XX = 0/1 for no/yes cross-hatch
%
/PatternFill {gsave /PFa [ 9 2 roll ] def
  PFa 0 get PFa 2 get 2 div add PFa 1 get PFa 3 get 2 div add translate
  PFa 2 get -2 div PFa 3 get -2 div PFa 2 get PFa 3 get Rec
  gsave 1 setgray fill grestore clip
  currentlinewidth 0.5 mul setlinewidth
  /PFs PFa 2 get dup mul PFa 3 get dup mul add sqrt def
  0 0 M PFa 5 get rotate PFs -2 div dup translate
  0 1 PFs PFa 4 get div 1 add floor cvi
	{PFa 4 get mul 0 M 0 PFs V} for
  0 PFa 6 get ne {
	0 1 PFs PFa 4 get div 1 add floor cvi
	{PFa 4 get mul 0 2 1 roll M PFs 0 V} for
 } if
  stroke grestore} def
%
/languagelevel where
 {pop languagelevel} {1} ifelse
 2 lt
	{/InterpretLevel1 true def}
	{/InterpretLevel1 Level1 def}
 ifelse
%
% PostScript level 2 pattern fill definitions
%
/Level2PatternFill {
/Tile8x8 {/PaintType 2 /PatternType 1 /TilingType 1 /BBox [0 0 8 8] /XStep 8 /YStep 8}
	bind def
/KeepColor {currentrgbcolor [/Pattern /DeviceRGB] setcolorspace} bind def
<< Tile8x8
 /PaintProc {0.5 setlinewidth pop 0 0 M 8 8 L 0 8 M 8 0 L stroke} 
>> matrix makepattern
/Pat1 exch def
<< Tile8x8
 /PaintProc {0.5 setlinewidth pop 0 0 M 8 8 L 0 8 M 8 0 L stroke
	0 4 M 4 8 L 8 4 L 4 0 L 0 4 L stroke}
>> matrix makepattern
/Pat2 exch def
<< Tile8x8
 /PaintProc {0.5 setlinewidth pop 0 0 M 0 8 L
	8 8 L 8 0 L 0 0 L fill}
>> matrix makepattern
/Pat3 exch def
<< Tile8x8
 /PaintProc {0.5 setlinewidth pop -4 8 M 8 -4 L
	0 12 M 12 0 L stroke}
>> matrix makepattern
/Pat4 exch def
<< Tile8x8
 /PaintProc {0.5 setlinewidth pop -4 0 M 8 12 L
	0 -4 M 12 8 L stroke}
>> matrix makepattern
/Pat5 exch def
<< Tile8x8
 /PaintProc {0.5 setlinewidth pop -2 8 M 4 -4 L
	0 12 M 8 -4 L 4 12 M 10 0 L stroke}
>> matrix makepattern
/Pat6 exch def
<< Tile8x8
 /PaintProc {0.5 setlinewidth pop -2 0 M 4 12 L
	0 -4 M 8 12 L 4 -4 M 10 8 L stroke}
>> matrix makepattern
/Pat7 exch def
<< Tile8x8
 /PaintProc {0.5 setlinewidth pop 8 -2 M -4 4 L
	12 0 M -4 8 L 12 4 M 0 10 L stroke}
>> matrix makepattern
/Pat8 exch def
<< Tile8x8
 /PaintProc {0.5 setlinewidth pop 0 -2 M 12 4 L
	-4 0 M 12 8 L -4 4 M 8 10 L stroke}
>> matrix makepattern
/Pat9 exch def
/Pattern1 {PatternBgnd KeepColor Pat1 setpattern} bind def
/Pattern2 {PatternBgnd KeepColor Pat2 setpattern} bind def
/Pattern3 {PatternBgnd KeepColor Pat3 setpattern} bind def
/Pattern4 {PatternBgnd KeepColor Landscape {Pat5} {Pat4} ifelse setpattern} bind def
/Pattern5 {PatternBgnd KeepColor Landscape {Pat4} {Pat5} ifelse setpattern} bind def
/Pattern6 {PatternBgnd KeepColor Landscape {Pat9} {Pat6} ifelse setpattern} bind def
/Pattern7 {PatternBgnd KeepColor Landscape {Pat8} {Pat7} ifelse setpattern} bind def
} def
%
%
%End of PostScript Level 2 code
%
/PatternBgnd {
  TransparentPatterns {} {gsave 1 setgray fill grestore} ifelse
} def
%
% Substitute for Level 2 pattern fill codes with
% grayscale if Level 2 support is not selected.
%
/Level1PatternFill {
/Pattern1 {0.250 Density} bind def
/Pattern2 {0.500 Density} bind def
/Pattern3 {0.750 Density} bind def
/Pattern4 {0.125 Density} bind def
/Pattern5 {0.375 Density} bind def
/Pattern6 {0.625 Density} bind def
/Pattern7 {0.875 Density} bind def
} def
%
% Now test for support of Level 2 code
%
Level1 {Level1PatternFill} {Level2PatternFill} ifelse
%
/Symbol-Oblique /Symbol findfont [1 0 .167 1 0 0] makefont
dup length dict begin {1 index /FID eq {pop pop} {def} ifelse} forall
currentdict end definefont pop
/MFshow {
   { dup 5 get 3 ge
     { 5 get 3 eq {gsave} {grestore} ifelse }
     {dup dup 0 get findfont exch 1 get scalefont setfont
     [ currentpoint ] exch dup 2 get 0 exch R dup 5 get 2 ne {dup dup 6
     get exch 4 get {Gshow} {stringwidth pop 0 R} ifelse }if dup 5 get 0 eq
     {dup 3 get {2 get neg 0 exch R pop} {pop aload pop M} ifelse} {dup 5
     get 1 eq {dup 2 get exch dup 3 get exch 6 get stringwidth pop -2 div
     dup 0 R} {dup 6 get stringwidth pop -2 div 0 R 6 get
     show 2 index {aload pop M neg 3 -1 roll neg R pop pop} {pop pop pop
     pop aload pop M} ifelse }ifelse }ifelse }
     ifelse }
   forall} def
/Gswidth {dup type /stringtype eq {stringwidth} {pop (n) stringwidth} ifelse} def
/MFwidth {0 exch { dup 5 get 3 ge { 5 get 3 eq { 0 } { pop } ifelse }
 {dup 3 get{dup dup 0 get findfont exch 1 get scalefont setfont
     6 get Gswidth pop add} {pop} ifelse} ifelse} forall} def
/MLshow { currentpoint stroke M
  0 exch R
  Blacktext {gsave 0 setgray MFshow grestore} {MFshow} ifelse } bind def
/MRshow { currentpoint stroke M
  exch dup MFwidth neg 3 -1 roll R
  Blacktext {gsave 0 setgray MFshow grestore} {MFshow} ifelse } bind def
/MCshow { currentpoint stroke M
  exch dup MFwidth -2 div 3 -1 roll R
  Blacktext {gsave 0 setgray MFshow grestore} {MFshow} ifelse } bind def
/XYsave    { [( ) 1 2 true false 3 ()] } bind def
/XYrestore { [( ) 1 2 true false 4 ()] } bind def
end
%%EndProlog
gnudict begin
gsave
doclip
50 50 translate
0.050 0.050 scale
0 setgray
newpath
(Helvetica) findfont 250 scalefont setfont
1.000 UL
LTb
1225 800 M
63 0 V
5461 0 R
-63 0 V
stroke
1075 800 M
[ [(Helvetica) 250.0 0.0 true true 0 ( 0)]
] -83.3 MRshow
1.000 UL
LTb
1225 1238 M
63 0 V
5461 0 R
-63 0 V
stroke
1075 1238 M
[ [(Helvetica) 250.0 0.0 true true 0 ( 0.1)]
] -83.3 MRshow
1.000 UL
LTb
1225 1675 M
63 0 V
5461 0 R
-63 0 V
stroke
1075 1675 M
[ [(Helvetica) 250.0 0.0 true true 0 ( 0.2)]
] -83.3 MRshow
1.000 UL
LTb
1225 2113 M
63 0 V
5461 0 R
-63 0 V
stroke
1075 2113 M
[ [(Helvetica) 250.0 0.0 true true 0 ( 0.3)]
] -83.3 MRshow
1.000 UL
LTb
1225 2551 M
63 0 V
5461 0 R
-63 0 V
stroke
1075 2551 M
[ [(Helvetica) 250.0 0.0 true true 0 ( 0.4)]
] -83.3 MRshow
1.000 UL
LTb
1225 2988 M
63 0 V
5461 0 R
-63 0 V
stroke
1075 2988 M
[ [(Helvetica) 250.0 0.0 true true 0 ( 0.5)]
] -83.3 MRshow
1.000 UL
LTb
1225 3426 M
63 0 V
5461 0 R
-63 0 V
stroke
1075 3426 M
[ [(Helvetica) 250.0 0.0 true true 0 ( 0.6)]
] -83.3 MRshow
1.000 UL
LTb
1225 3864 M
63 0 V
5461 0 R
-63 0 V
stroke
1075 3864 M
[ [(Helvetica) 250.0 0.0 true true 0 ( 0.7)]
] -83.3 MRshow
1.000 UL
LTb
1225 4301 M
63 0 V
5461 0 R
-63 0 V
stroke
1075 4301 M
[ [(Helvetica) 250.0 0.0 true true 0 ( 0.8)]
] -83.3 MRshow
1.000 UL
LTb
1225 4739 M
63 0 V
5461 0 R
-63 0 V
stroke
1075 4739 M
[ [(Helvetica) 250.0 0.0 true true 0 ( 0.9)]
] -83.3 MRshow
1.000 UL
LTb
1225 800 M
0 63 V
0 3876 R
0 -63 V
stroke
1225 550 M
[ [(Helvetica) 250.0 0.0 true true 0 ( 1000)]
] -83.3 MCshow
1.000 UL
LTb
1916 800 M
0 63 V
0 3876 R
0 -63 V
stroke
1916 550 M
[ [(Helvetica) 250.0 0.0 true true 0 ( 2000)]
] -83.3 MCshow
1.000 UL
LTb
2606 800 M
0 63 V
0 3876 R
0 -63 V
stroke
2606 550 M
[ [(Helvetica) 250.0 0.0 true true 0 ( 3000)]
] -83.3 MCshow
1.000 UL
LTb
3297 800 M
0 63 V
0 3876 R
0 -63 V
stroke
3297 550 M
[ [(Helvetica) 250.0 0.0 true true 0 ( 4000)]
] -83.3 MCshow
1.000 UL
LTb
3987 800 M
0 63 V
0 3876 R
0 -63 V
stroke
3987 550 M
[ [(Helvetica) 250.0 0.0 true true 0 ( 5000)]
] -83.3 MCshow
1.000 UL
LTb
4678 800 M
0 63 V
0 3876 R
0 -63 V
stroke
4678 550 M
[ [(Helvetica) 250.0 0.0 true true 0 ( 6000)]
] -83.3 MCshow
1.000 UL
LTb
5368 800 M
0 63 V
0 3876 R
0 -63 V
stroke
5368 550 M
[ [(Helvetica) 250.0 0.0 true true 0 ( 7000)]
] -83.3 MCshow
1.000 UL
LTb
6059 800 M
0 63 V
0 3876 R
0 -63 V
stroke
6059 550 M
[ [(Helvetica) 250.0 0.0 true true 0 ( 8000)]
] -83.3 MCshow
1.000 UL
LTb
6749 800 M
0 63 V
0 3876 R
0 -63 V
stroke
6749 550 M
[ [(Helvetica) 250.0 0.0 true true 0 ( 9000)]
] -83.3 MCshow
1.000 UL
LTb
1.000 UL
LTb
1225 4739 N
0 -3939 V
5524 0 V
0 3939 V
-5524 0 V
Z stroke
LCb setrgbcolor
200 2769 M
currentpoint gsave translate -270 rotate 0 0 moveto
[ [(Helvetica) 250.0 0.0 true true 0 (Recall)]
] -83.3 MCshow
grestore
LTb
LCb setrgbcolor
3987 175 M
[ [(Helvetica) 250.0 0.0 true true 0 (Alphabet Size)]
] -83.3 MCshow
LTb
1.000 UP
1.000 UL
LTb
% Begin plot #1
1.000 UP
1.000 UL
LT0
1225 3949 Pls
1225 2385 Pls
1225 1905 Pls
1225 1707 Pls
1225 3550 Pls
1225 2425 Pls
1225 1980 Pls
1225 1698 Pls
1225 3243 Pls
1225 2304 Pls
1225 2143 Pls
1225 1784 Pls
1225 3111 Pls
1225 1944 Pls
1225 1708 Pls
1225 1494 Pls
1225 2507 Pls
1225 1763 Pls
1225 1548 Pls
1225 1309 Pls
1225 1894 Pls
1225 1238 Pls
1225 1050 Pls
1225 1053 Pls
1225 1785 Pls
1225 1140 Pls
1225 1394 Pls
1225 1169 Pls
1225 2441 Pls
1225 1384 Pls
1225 1269 Pls
1225 1284 Pls
1225 2770 Pls
1225 1821 Pls
1225 1363 Pls
1225 1238 Pls
1225 2879 Pls
1225 2113 Pls
1225 1769 Pls
1225 1468 Pls
1225 3798 Pls
1225 2955 Pls
1225 2040 Pls
1225 1944 Pls
1225 3756 Pls
1225 2838 Pls
1225 2024 Pls
1225 1840 Pls
1225 4028 Pls
1225 2563 Pls
1225 1920 Pls
1225 1674 Pls
1225 3610 Pls
1225 2250 Pls
1225 1996 Pls
1225 1529 Pls
1225 2463 Pls
1225 2312 Pls
1225 1647 Pls
1225 1480 Pls
1225 2113 Pls
1225 1238 Pls
1225 1175 Pls
1225 1215 Pls
1225 2332 Pls
1225 2016 Pls
1225 1582 Pls
1225 1330 Pls
1225 3098 Pls
1225 2064 Pls
1225 1550 Pls
1225 1376 Pls
1225 3207 Pls
1225 2356 Pls
1225 1894 Pls
1225 1744 Pls
1225 3754 Pls
1225 2016 Pls
1225 1707 Pls
1225 1675 Pls
1225 4333 Pls
1225 2618 Pls
1225 2642 Pls
1225 2151 Pls
1225 4364 Pls
1225 2780 Pls
1225 2307 Pls
1225 2067 Pls
1225 3756 Pls
1225 3093 Pls
1225 2255 Pls
1225 1799 Pls
1225 3957 Pls
1225 2646 Pls
1225 2160 Pls
1225 1875 Pls
1225 3398 Pls
1225 2524 Pls
1225 1629 Pls
1225 1519 Pls
1225 2441 Pls
1225 1627 Pls
1225 1363 Pls
1225 1169 Pls
1225 2879 Pls
1225 2016 Pls
1225 1456 Pls
1225 1468 Pls
1225 3645 Pls
1225 2113 Pls
1225 1582 Pls
1225 1376 Pls
1225 3754 Pls
1225 2162 Pls
1225 1988 Pls
1225 1422 Pls
1225 3973 Pls
1225 2356 Pls
1225 2050 Pls
1225 1491 Pls
1225 4086 Pls
1225 3032 Pls
1225 2769 Pls
1225 2097 Pls
1225 4677 Pls
1225 3055 Pls
1225 2633 Pls
1225 2142 Pls
1225 3466 Pls
1225 2887 Pls
1225 2293 Pls
1225 2165 Pls
1225 3923 Pls
1225 2588 Pls
1225 2247 Pls
1225 1896 Pls
1225 3645 Pls
1225 2810 Pls
1225 1852 Pls
1225 1750 Pls
1225 2879 Pls
1225 1724 Pls
1225 1425 Pls
1225 1261 Pls
1225 3098 Pls
1225 2162 Pls
1225 1675 Pls
1225 1399 Pls
1225 3207 Pls
1225 2259 Pls
1225 1925 Pls
1225 1560 Pls
1225 3426 Pls
1225 2648 Pls
1225 2113 Pls
1225 1537 Pls
1225 3426 Pls
1225 2891 Pls
1225 2144 Pls
1225 1883 Pls
1225 4282 Pls
1225 3171 Pls
1225 2327 Pls
1225 2012 Pls
1225 4313 Pls
1225 2802 Pls
1225 2335 Pls
1225 1837 Pls
1225 4270 Pls
1225 3074 Pls
1225 2399 Pls
1225 1983 Pls
1225 4425 Pls
1225 3117 Pls
1225 2588 Pls
1225 1902 Pls
1225 3770 Pls
1225 2663 Pls
1225 2221 Pls
1225 1976 Pls
1225 2988 Pls
1225 1773 Pls
1225 1832 Pls
1225 1422 Pls
1225 3426 Pls
1225 1870 Pls
1225 1988 Pls
1225 1675 Pls
1225 3535 Pls
1225 2453 Pls
1225 1644 Pls
1225 1445 Pls
1225 4192 Pls
1225 2842 Pls
1225 2050 Pls
1225 1906 Pls
1225 3754 Pls
1225 2940 Pls
1225 2238 Pls
1225 1906 Pls
1916 3771 Pls
1916 2171 Pls
1916 2137 Pls
1916 1728 Pls
1916 3374 Pls
1916 2586 Pls
1916 1938 Pls
1916 1470 Pls
1916 3298 Pls
1916 2537 Pls
1916 1849 Pls
1916 1707 Pls
1916 2907 Pls
1916 2109 Pls
1916 1530 Pls
1916 1442 Pls
1916 2915 Pls
1916 1791 Pls
1916 1708 Pls
1916 1326 Pls
1916 1457 Pls
1916 1092 Pls
1916 1019 Pls
1916 1007 Pls
1916 2332 Pls
1916 1335 Pls
1916 1081 Pls
1916 1169 Pls
1916 2770 Pls
1916 1578 Pls
1916 1238 Pls
1916 1192 Pls
1916 2988 Pls
1916 1675 Pls
1916 1613 Pls
1916 1284 Pls
1916 2551 Pls
1916 1821 Pls
1916 1394 Pls
1916 1192 Pls
1916 4306 Pls
1916 2678 Pls
1916 2568 Pls
1916 1904 Pls
1916 4042 Pls
1916 2551 Pls
1916 2481 Pls
1916 2191 Pls
1916 3846 Pls
1916 2870 Pls
1916 2323 Pls
1916 2006 Pls
1916 3654 Pls
1916 2547 Pls
1916 1946 Pls
1916 1750 Pls
1916 2763 Pls
1916 2088 Pls
1916 1676 Pls
1916 1472 Pls
1916 2332 Pls
1916 1724 Pls
1916 1206 Pls
1916 1030 Pls
1916 2004 Pls
1916 1675 Pls
1916 1457 Pls
1916 1261 Pls
1916 3207 Pls
1916 1627 Pls
1916 1550 Pls
1916 1307 Pls
1916 2551 Pls
1916 1870 Pls
1916 1863 Pls
1916 1422 Pls
1916 2879 Pls
1916 2356 Pls
1916 2019 Pls
1916 1284 Pls
1916 4288 Pls
1916 2989 Pls
1916 2530 Pls
1916 2038 Pls
1916 4376 Pls
1916 3057 Pls
1916 1972 Pls
1916 1954 Pls
1916 3799 Pls
1916 2445 Pls
1916 2285 Pls
1916 1889 Pls
1916 3515 Pls
1916 3122 Pls
1916 1603 Pls
1916 1893 Pls
1916 2863 Pls
1916 2291 Pls
1916 2075 Pls
1916 1711 Pls
1916 2441 Pls
1916 1384 Pls
1916 1300 Pls
1916 1169 Pls
1916 2879 Pls
1916 2064 Pls
1916 1550 Pls
1916 1422 Pls
1916 2660 Pls
1916 1918 Pls
1916 1769 Pls
1916 1514 Pls
1916 3207 Pls
1916 2259 Pls
1916 1519 Pls
1916 1629 Pls
1916 4083 Pls
1916 2405 Pls
1916 1925 Pls
1916 1675 Pls
1916 4076 Pls
1916 3156 Pls
1916 2335 Pls
1916 2050 Pls
1916 4065 Pls
1916 3062 Pls
1916 2695 Pls
1916 1954 Pls
1916 3779 Pls
1916 2714 Pls
1916 2543 Pls
1916 1954 Pls
1916 3452 Pls
1916 2774 Pls
1916 2453 Pls
1916 1928 Pls
1916 2836 Pls
1916 2335 Pls
1916 1823 Pls
1916 1748 Pls
1916 2551 Pls
1916 1481 Pls
1916 988 Pls
1916 1053 Pls
1916 3207 Pls
1916 1870 Pls
1916 1644 Pls
1916 1445 Pls
1916 3207 Pls
1916 2064 Pls
1916 1613 Pls
1916 1675 Pls
1916 4192 Pls
1916 2405 Pls
1916 1800 Pls
1916 1652 Pls
1916 4083 Pls
1916 2988 Pls
1916 1894 Pls
1916 1814 Pls
1916 4556 Pls
1916 3167 Pls
1916 2741 Pls
1916 2329 Pls
1916 4550 Pls
1916 3201 Pls
1916 2854 Pls
1916 2075 Pls
1916 4128 Pls
1916 2914 Pls
1916 2468 Pls
1916 2081 Pls
1916 3942 Pls
1916 2912 Pls
1916 2530 Pls
1916 2204 Pls
1916 3838 Pls
1916 2739 Pls
1916 1863 Pls
1916 1727 Pls
1916 3098 Pls
1916 1529 Pls
1916 1707 Pls
1916 1330 Pls
1916 2660 Pls
1916 2064 Pls
1916 1832 Pls
1916 1560 Pls
1916 2879 Pls
1916 2356 Pls
1916 1519 Pls
1916 1814 Pls
1916 4520 Pls
1916 2162 Pls
1916 1582 Pls
1916 1629 Pls
1916 4083 Pls
1916 2551 Pls
1916 1925 Pls
1916 1675 Pls
2606 3600 Pls
2606 3024 Pls
2606 2053 Pls
2606 1730 Pls
2606 3375 Pls
2606 2832 Pls
2606 2150 Pls
2606 1750 Pls
2606 3490 Pls
2606 1831 Pls
2606 1724 Pls
2606 1629 Pls
2606 3489 Pls
2606 2124 Pls
2606 1790 Pls
2606 1464 Pls
2606 2565 Pls
2606 1767 Pls
2606 1444 Pls
2606 1346 Pls
2606 1675 Pls
2606 1335 Pls
2606 1081 Pls
2606 1030 Pls
2606 2004 Pls
2606 1529 Pls
2606 1206 Pls
2606 1076 Pls
2606 2551 Pls
2606 1675 Pls
2606 1300 Pls
2606 1122 Pls
2606 2879 Pls
2606 1724 Pls
2606 1394 Pls
2606 1192 Pls
2606 2879 Pls
2606 2064 Pls
2606 1363 Pls
2606 1215 Pls
2606 4115 Pls
2606 3308 Pls
2606 2056 Pls
2606 2057 Pls
2606 3823 Pls
2606 3326 Pls
2606 2305 Pls
2606 1904 Pls
2606 3481 Pls
2606 2496 Pls
2606 2155 Pls
2606 1667 Pls
2606 3260 Pls
2606 2257 Pls
2606 1807 Pls
2606 1682 Pls
2606 2607 Pls
2606 2411 Pls
2606 1690 Pls
2606 1309 Pls
2606 2332 Pls
2606 1335 Pls
2606 1175 Pls
2606 1122 Pls
2606 2222 Pls
2606 1627 Pls
2606 1425 Pls
2606 1330 Pls
2606 2551 Pls
2606 2016 Pls
2606 1394 Pls
2606 1238 Pls
2606 3535 Pls
2606 2210 Pls
2606 1738 Pls
2606 1468 Pls
2606 3317 Pls
2606 1773 Pls
2606 1394 Pls
2606 1445 Pls
2606 4368 Pls
2606 3199 Pls
2606 2548 Pls
2606 1797 Pls
2606 4470 Pls
2606 2764 Pls
2606 2445 Pls
2606 1816 Pls
2606 3545 Pls
2606 2902 Pls
2606 2252 Pls
2606 1871 Pls
2606 4290 Pls
2606 2650 Pls
2606 2261 Pls
2606 1844 Pls
2606 2752 Pls
2606 2073 Pls
2606 1702 Pls
2606 1433 Pls
2606 2004 Pls
2606 1286 Pls
2606 1425 Pls
2606 1169 Pls
2606 3207 Pls
2606 1870 Pls
2606 1644 Pls
2606 1491 Pls
2606 3426 Pls
2606 1821 Pls
2606 1550 Pls
2606 1560 Pls
2606 3645 Pls
2606 2551 Pls
2606 1800 Pls
2606 1491 Pls
2606 3426 Pls
2606 2405 Pls
2606 1863 Pls
2606 1376 Pls
2606 4206 Pls
2606 2981 Pls
2606 2460 Pls
2606 2037 Pls
2606 3560 Pls
2606 3063 Pls
2606 2509 Pls
2606 2072 Pls
2606 4517 Pls
2606 3226 Pls
2606 2127 Pls
2606 1714 Pls
2606 3874 Pls
2606 2478 Pls
2606 2381 Pls
2606 2105 Pls
2606 3440 Pls
2606 2469 Pls
2606 1892 Pls
2606 1677 Pls
2606 2551 Pls
2606 1724 Pls
2606 1488 Pls
2606 1053 Pls
2606 2988 Pls
2606 1918 Pls
2606 1519 Pls
2606 1376 Pls
2606 3645 Pls
2606 2356 Pls
2606 1644 Pls
2606 1606 Pls
2606 3973 Pls
2606 2453 Pls
2606 1738 Pls
2606 1606 Pls
2606 3754 Pls
2606 2113 Pls
2606 2050 Pls
2606 1767 Pls
2606 4501 Pls
2606 3748 Pls
2606 2598 Pls
2606 2480 Pls
2606 4204 Pls
2606 3067 Pls
2606 2641 Pls
2606 2151 Pls
2606 3864 Pls
2606 3067 Pls
2606 2513 Pls
2606 2075 Pls
2606 3481 Pls
2606 2796 Pls
2606 2256 Pls
2606 2299 Pls
2606 3738 Pls
2606 2530 Pls
2606 2062 Pls
2606 1902 Pls
2606 2660 Pls
2606 2016 Pls
2606 1300 Pls
2606 1261 Pls
2606 3317 Pls
2606 2259 Pls
2606 1925 Pls
2606 1606 Pls
2606 3426 Pls
2606 2016 Pls
2606 1800 Pls
2606 1721 Pls
2606 4083 Pls
2606 2697 Pls
2606 1863 Pls
2606 1744 Pls
2606 3535 Pls
2606 2162 Pls
2606 1925 Pls
2606 1698 Pls
3297 3576 Pls
3297 2396 Pls
3297 1703 Pls
3297 1525 Pls
3297 3402 Pls
3297 2555 Pls
3297 1790 Pls
3297 1584 Pls
3297 3704 Pls
3297 1933 Pls
3297 1775 Pls
3297 1557 Pls
3297 2998 Pls
3297 2119 Pls
3297 1576 Pls
3297 1626 Pls
3297 2594 Pls
3297 1548 Pls
3297 1393 Pls
3297 1144 Pls
3297 1566 Pls
3297 1335 Pls
3297 1019 Pls
3297 984 Pls
3297 1894 Pls
3297 1335 Pls
3297 1113 Pls
3297 1215 Pls
3297 2441 Pls
3297 1627 Pls
3297 1363 Pls
3297 1099 Pls
3297 3098 Pls
3297 2210 Pls
3297 1488 Pls
3297 1169 Pls
3297 3317 Pls
3297 1481 Pls
3297 1425 Pls
3297 1238 Pls
3297 4134 Pls
3297 2879 Pls
3297 1868 Pls
3297 2074 Pls
3297 3904 Pls
3297 2902 Pls
3297 2097 Pls
3297 1785 Pls
3297 3524 Pls
3297 2586 Pls
3297 2001 Pls
3297 1820 Pls
3297 3242 Pls
3297 2010 Pls
3297 2080 Pls
3297 1836 Pls
3297 3459 Pls
3297 1841 Pls
3297 1986 Pls
3297 1377 Pls
3297 2004 Pls
3297 1529 Pls
3297 1269 Pls
3297 1007 Pls
3297 2551 Pls
3297 1773 Pls
3297 1363 Pls
3297 1261 Pls
3297 2660 Pls
3297 1627 Pls
3297 1738 Pls
3297 1422 Pls
3297 3864 Pls
3297 2064 Pls
3297 1519 Pls
3297 1468 Pls
3297 3098 Pls
3297 2453 Pls
3297 1675 Pls
3297 1606 Pls
3297 4067 Pls
3297 3176 Pls
3297 2379 Pls
3297 2275 Pls
3297 4254 Pls
3297 3306 Pls
3297 2009 Pls
3297 1975 Pls
3297 4443 Pls
3297 3026 Pls
3297 2318 Pls
3297 1943 Pls
3297 3574 Pls
3297 3071 Pls
3297 2040 Pls
3297 1600 Pls
3297 3631 Pls
3297 2115 Pls
3297 1737 Pls
3297 1529 Pls
3297 2441 Pls
3297 1432 Pls
3297 1331 Pls
3297 1192 Pls
3297 2660 Pls
3297 1481 Pls
3297 1425 Pls
3297 1307 Pls
3297 3645 Pls
3297 2502 Pls
3297 1550 Pls
3297 1514 Pls
3297 2879 Pls
3297 2259 Pls
3297 1832 Pls
3297 1560 Pls
3297 3645 Pls
3297 2113 Pls
3297 1988 Pls
3297 1583 Pls
3297 4273 Pls
3297 3599 Pls
3297 2186 Pls
3297 2296 Pls
3297 4370 Pls
3297 3221 Pls
3297 2742 Pls
3297 2052 Pls
3297 3907 Pls
3297 3245 Pls
3297 2169 Pls
3297 2232 Pls
3297 4274 Pls
3297 3045 Pls
3297 2031 Pls
3297 1837 Pls
3297 3567 Pls
3297 2188 Pls
3297 1954 Pls
3297 1729 Pls
3297 2770 Pls
3297 1627 Pls
3297 1300 Pls
3297 1376 Pls
3297 2988 Pls
3297 2016 Pls
3297 1613 Pls
3297 1606 Pls
3297 3207 Pls
3297 2162 Pls
3297 1675 Pls
3297 1491 Pls
3297 3864 Pls
3297 2113 Pls
3297 1707 Pls
3297 1837 Pls
3297 3098 Pls
3297 2648 Pls
3297 2113 Pls
3297 1698 Pls
3297 4581 Pls
3297 3306 Pls
3297 2502 Pls
3297 2344 Pls
3297 4485 Pls
3297 3202 Pls
3297 2356 Pls
3297 2195 Pls
3297 4043 Pls
3297 3502 Pls
3297 2636 Pls
3297 2040 Pls
3297 3739 Pls
3297 2951 Pls
3297 2322 Pls
3297 2077 Pls
3297 3801 Pls
3297 2831 Pls
3297 2088 Pls
3297 1880 Pls
3297 2332 Pls
3297 2016 Pls
3297 1488 Pls
3297 1284 Pls
3297 3207 Pls
3297 1578 Pls
3297 1394 Pls
3297 1169 Pls
3297 3645 Pls
3297 1918 Pls
3297 1707 Pls
3297 1629 Pls
3297 3645 Pls
3297 2551 Pls
3297 1988 Pls
3297 1468 Pls
3297 3426 Pls
3297 2210 Pls
3297 1863 Pls
3297 1721 Pls
3987 3341 Pls
3987 2351 Pls
3987 1769 Pls
3987 2045 Pls
3987 3818 Pls
3987 2679 Pls
3987 2096 Pls
3987 1717 Pls
3987 3688 Pls
3987 2118 Pls
3987 1967 Pls
3987 1593 Pls
3987 3253 Pls
3987 2032 Pls
3987 1653 Pls
3987 1550 Pls
3987 2740 Pls
3987 1624 Pls
3987 1471 Pls
3987 1366 Pls
3987 2004 Pls
3987 1189 Pls
3987 1113 Pls
3987 1030 Pls
3987 2441 Pls
3987 1529 Pls
3987 1238 Pls
3987 1007 Pls
3987 2441 Pls
3987 1189 Pls
3987 1457 Pls
3987 1307 Pls
3987 2551 Pls
3987 1578 Pls
3987 1425 Pls
3987 1422 Pls
3987 2332 Pls
3987 1773 Pls
3987 1582 Pls
3987 1353 Pls
3987 3490 Pls
3987 2958 Pls
3987 2302 Pls
3987 1797 Pls
3987 3823 Pls
3987 2731 Pls
3987 1996 Pls
3987 1960 Pls
3987 3933 Pls
3987 2385 Pls
3987 2060 Pls
3987 1742 Pls
3987 3259 Pls
3987 2506 Pls
3987 2093 Pls
3987 1741 Pls
3987 3011 Pls
3987 1793 Pls
3987 1777 Pls
3987 1492 Pls
3987 1675 Pls
3987 1578 Pls
3987 1175 Pls
3987 1076 Pls
3987 2332 Pls
3987 1627 Pls
3987 1144 Pls
3987 1261 Pls
3987 2660 Pls
3987 2113 Pls
3987 1644 Pls
3987 1445 Pls
3987 3098 Pls
3987 2113 Pls
3987 1519 Pls
3987 1422 Pls
3987 3098 Pls
3987 2259 Pls
3987 1456 Pls
3987 1307 Pls
3987 4337 Pls
3987 2825 Pls
3987 2369 Pls
3987 2129 Pls
3987 4090 Pls
3987 3117 Pls
3987 2285 Pls
3987 1971 Pls
3987 3856 Pls
3987 2960 Pls
3987 2097 Pls
3987 1901 Pls
3987 3799 Pls
3987 2544 Pls
3987 2056 Pls
3987 1899 Pls
3987 2925 Pls
3987 2072 Pls
3987 1655 Pls
3987 1513 Pls
3987 2660 Pls
3987 1529 Pls
3987 1363 Pls
3987 1330 Pls
3987 2770 Pls
3987 1675 Pls
3987 1550 Pls
3987 1307 Pls
3987 3207 Pls
3987 2113 Pls
3987 1644 Pls
3987 1330 Pls
3987 3098 Pls
3987 2162 Pls
3987 1925 Pls
3987 1514 Pls
3987 3973 Pls
3987 2648 Pls
3987 1832 Pls
3987 1284 Pls
3987 4301 Pls
3987 3455 Pls
3987 2411 Pls
3987 2362 Pls
3987 4033 Pls
3987 2640 Pls
3987 2772 Pls
3987 1946 Pls
3987 3226 Pls
3987 3071 Pls
3987 2251 Pls
3987 2068 Pls
3987 3948 Pls
3987 2739 Pls
3987 1927 Pls
3987 1867 Pls
3987 3515 Pls
3987 2300 Pls
3987 1716 Pls
3987 1671 Pls
3987 2332 Pls
3987 1627 Pls
3987 1269 Pls
3987 1353 Pls
3987 2879 Pls
3987 2113 Pls
3987 1613 Pls
3987 1422 Pls
3987 3645 Pls
3987 2648 Pls
3987 1644 Pls
3987 1376 Pls
3987 3645 Pls
3987 2405 Pls
3987 1800 Pls
3987 1445 Pls
3987 3864 Pls
3987 2502 Pls
3987 1738 Pls
3987 1652 Pls
3987 4292 Pls
3987 3344 Pls
3987 2593 Pls
3987 2115 Pls
3987 4474 Pls
3987 3546 Pls
3987 2730 Pls
3987 2246 Pls
3987 4229 Pls
3987 3372 Pls
3987 2493 Pls
3987 2047 Pls
3987 3951 Pls
3987 2790 Pls
3987 2434 Pls
3987 1937 Pls
3987 3600 Pls
3987 2502 Pls
3987 1919 Pls
3987 1623 Pls
3987 3317 Pls
3987 2162 Pls
3987 1582 Pls
3987 1122 Pls
3987 3207 Pls
3987 2453 Pls
3987 1582 Pls
3987 1353 Pls
3987 2879 Pls
3987 2259 Pls
3987 1582 Pls
3987 1514 Pls
3987 3207 Pls
3987 2308 Pls
3987 1769 Pls
3987 1606 Pls
3987 3645 Pls
3987 2502 Pls
3987 2144 Pls
3987 1675 Pls
4678 3917 Pls
4678 2730 Pls
4678 2056 Pls
4678 1902 Pls
4678 3210 Pls
4678 2686 Pls
4678 1762 Pls
4678 1674 Pls
4678 3076 Pls
4678 2528 Pls
4678 1682 Pls
4678 1734 Pls
4678 2717 Pls
4678 2068 Pls
4678 1724 Pls
4678 1383 Pls
4678 2346 Pls
4678 1667 Pls
4678 1384 Pls
4678 1269 Pls
4678 1785 Pls
4678 1140 Pls
4678 988 Pls
4678 938 Pls
4678 2113 Pls
4678 1529 Pls
4678 1113 Pls
4678 1030 Pls
4678 2660 Pls
4678 1481 Pls
4678 1331 Pls
4678 1169 Pls
4678 2441 Pls
4678 1432 Pls
4678 1331 Pls
4678 1215 Pls
4678 2551 Pls
4678 1967 Pls
4678 1269 Pls
4678 1053 Pls
4678 4398 Pls
4678 2597 Pls
4678 2535 Pls
4678 2017 Pls
4678 3817 Pls
4678 2821 Pls
4678 1927 Pls
4678 1731 Pls
4678 3940 Pls
4678 2489 Pls
4678 2014 Pls
4678 2016 Pls
4678 3574 Pls
4678 2474 Pls
4678 2086 Pls
4678 1935 Pls
4678 3687 Pls
4678 1735 Pls
4678 1639 Pls
4678 1414 Pls
4678 2004 Pls
4678 1384 Pls
4678 1300 Pls
4678 1146 Pls
4678 2988 Pls
4678 1675 Pls
4678 1331 Pls
4678 1215 Pls
4678 2660 Pls
4678 1870 Pls
4678 1238 Pls
4678 1330 Pls
4678 2988 Pls
4678 2113 Pls
4678 1550 Pls
4678 1583 Pls
4678 3098 Pls
4678 1967 Pls
4678 1707 Pls
4678 1422 Pls
4678 4137 Pls
4678 3206 Pls
4678 2553 Pls
4678 2073 Pls
4678 3572 Pls
4678 3156 Pls
4678 2507 Pls
4678 1783 Pls
4678 4348 Pls
4678 2728 Pls
4678 2076 Pls
4678 2201 Pls
4678 3734 Pls
4678 2519 Pls
4678 2148 Pls
4678 1731 Pls
4678 3222 Pls
4678 2323 Pls
4678 1555 Pls
4678 1741 Pls
4678 2879 Pls
4678 1870 Pls
4678 1175 Pls
4678 1353 Pls
4678 2332 Pls
4678 1870 Pls
4678 1394 Pls
4678 1307 Pls
4678 2660 Pls
4678 2113 Pls
4678 1769 Pls
4678 1399 Pls
4678 3535 Pls
4678 2599 Pls
4678 1738 Pls
4678 1353 Pls
4678 3426 Pls
4678 2405 Pls
4678 1957 Pls
4678 1560 Pls
4678 4101 Pls
4678 2721 Pls
4678 2489 Pls
4678 2195 Pls
4678 4525 Pls
4678 3081 Pls
4678 2547 Pls
4678 2362 Pls
4678 4207 Pls
4678 3300 Pls
4678 2705 Pls
4678 2159 Pls
4678 4051 Pls
4678 2832 Pls
4678 2428 Pls
4678 1881 Pls
4678 2907 Pls
4678 2754 Pls
4678 1878 Pls
4678 1419 Pls
4678 2660 Pls
4678 1870 Pls
4678 1488 Pls
4678 1307 Pls
4678 2879 Pls
4678 1870 Pls
4678 1613 Pls
4678 1399 Pls
4678 3426 Pls
4678 2162 Pls
4678 1613 Pls
4678 1399 Pls
4678 3317 Pls
4678 2356 Pls
4678 1863 Pls
4678 1353 Pls
4678 3426 Pls
4678 2016 Pls
4678 1863 Pls
4678 1445 Pls
4678 4313 Pls
4678 3678 Pls
4678 2906 Pls
4678 2206 Pls
4678 4470 Pls
4678 3050 Pls
4678 2873 Pls
4678 2177 Pls
4678 4026 Pls
4678 3275 Pls
4678 2606 Pls
4678 2178 Pls
4678 3957 Pls
4678 2658 Pls
4678 2192 Pls
4678 2210 Pls
4678 3868 Pls
4678 2949 Pls
4678 2126 Pls
4678 1803 Pls
4678 2441 Pls
4678 1724 Pls
4678 1331 Pls
4678 1284 Pls
4678 3207 Pls
4678 2064 Pls
4678 1738 Pls
4678 1376 Pls
4678 3645 Pls
4678 2356 Pls
4678 1863 Pls
4678 1514 Pls
4678 3207 Pls
4678 2210 Pls
4678 2019 Pls
4678 1537 Pls
4678 4520 Pls
4678 2502 Pls
4678 2144 Pls
4678 1468 Pls
5368 3965 Pls
5368 2408 Pls
5368 2276 Pls
5368 1762 Pls
5368 3224 Pls
5368 2243 Pls
5368 2039 Pls
5368 1788 Pls
5368 3206 Pls
5368 2009 Pls
5368 1665 Pls
5368 1682 Pls
5368 2922 Pls
5368 1844 Pls
5368 1851 Pls
5368 1428 Pls
5368 2405 Pls
5368 1858 Pls
5368 1504 Pls
5368 1267 Pls
5368 1566 Pls
5368 1140 Pls
5368 1050 Pls
5368 984 Pls
5368 2441 Pls
5368 1286 Pls
5368 1113 Pls
5368 1030 Pls
5368 2441 Pls
5368 1432 Pls
5368 1488 Pls
5368 1261 Pls
5368 2660 Pls
5368 1432 Pls
5368 1550 Pls
5368 1215 Pls
5368 2441 Pls
5368 1821 Pls
5368 1488 Pls
5368 1146 Pls
5368 4112 Pls
5368 2569 Pls
5368 2323 Pls
5368 1961 Pls
5368 4309 Pls
5368 2535 Pls
5368 2107 Pls
5368 1944 Pls
5368 3799 Pls
5368 2520 Pls
5368 1994 Pls
5368 2032 Pls
5368 3404 Pls
5368 2515 Pls
5368 2162 Pls
5368 1695 Pls
5368 3223 Pls
5368 1984 Pls
5368 1763 Pls
5368 1491 Pls
5368 1675 Pls
5368 1238 Pls
5368 1175 Pls
5368 1053 Pls
5368 2551 Pls
5368 1627 Pls
5368 1113 Pls
5368 1399 Pls
5368 3098 Pls
5368 1724 Pls
5368 1550 Pls
5368 1330 Pls
5368 3098 Pls
5368 2162 Pls
5368 1925 Pls
5368 1307 Pls
5368 3426 Pls
5368 1724 Pls
5368 1675 Pls
5368 1307 Pls
5368 4065 Pls
5368 3025 Pls
5368 2682 Pls
5368 2026 Pls
5368 4137 Pls
5368 2810 Pls
5368 2282 Pls
5368 2124 Pls
5368 4096 Pls
5368 2517 Pls
5368 1993 Pls
5368 1924 Pls
5368 3754 Pls
5368 2756 Pls
5368 2293 Pls
5368 1762 Pls
5368 3195 Pls
5368 2125 Pls
5368 1653 Pls
5368 1521 Pls
5368 2441 Pls
5368 1773 Pls
5368 1456 Pls
5368 1215 Pls
5368 2551 Pls
5368 2356 Pls
5368 1488 Pls
5368 1353 Pls
5368 3426 Pls
5368 1724 Pls
5368 1707 Pls
5368 1353 Pls
5368 3317 Pls
5368 1870 Pls
5368 1519 Pls
5368 1399 Pls
5368 3426 Pls
5368 2599 Pls
5368 1925 Pls
5368 1698 Pls
5368 4501 Pls
5368 3334 Pls
5368 2293 Pls
5368 2188 Pls
5368 4098 Pls
5368 3002 Pls
5368 2469 Pls
5368 2250 Pls
5368 3739 Pls
5368 3081 Pls
5368 2507 Pls
5368 2372 Pls
5368 3786 Pls
5368 2462 Pls
5368 2014 Pls
5368 1920 Pls
5368 3657 Pls
5368 2113 Pls
5368 1863 Pls
5368 1951 Pls
5368 2441 Pls
5368 1529 Pls
5368 1456 Pls
5368 1307 Pls
5368 3317 Pls
5368 2064 Pls
5368 1457 Pls
5368 1284 Pls
5368 3426 Pls
5368 2453 Pls
5368 1644 Pls
5368 1606 Pls
5368 3535 Pls
5368 2502 Pls
5368 1738 Pls
5368 1468 Pls
5368 3535 Pls
5368 2453 Pls
5368 2082 Pls
5368 1606 Pls
5368 4535 Pls
5368 3112 Pls
5368 2680 Pls
5368 2319 Pls
5368 4118 Pls
5368 3505 Pls
5368 2822 Pls
5368 2115 Pls
5368 4310 Pls
5368 3320 Pls
5368 2498 Pls
5368 1731 Pls
5368 3499 Pls
5368 3179 Pls
5368 2704 Pls
5368 1983 Pls
5368 3762 Pls
5368 2301 Pls
5368 2149 Pls
5368 1782 Pls
5368 3098 Pls
5368 1675 Pls
5368 1363 Pls
5368 1307 Pls
5368 3098 Pls
5368 2064 Pls
5368 1800 Pls
5368 1491 Pls
5368 3535 Pls
5368 2356 Pls
5368 1707 Pls
5368 1675 Pls
5368 3317 Pls
5368 2259 Pls
5368 1550 Pls
5368 1491 Pls
5368 3973 Pls
5368 2113 Pls
5368 1863 Pls
5368 1814 Pls
6059 3753 Pls
6059 2465 Pls
6059 2151 Pls
6059 1648 Pls
6059 3019 Pls
6059 2401 Pls
6059 2186 Pls
6059 1758 Pls
6059 3700 Pls
6059 1997 Pls
6059 1795 Pls
6059 1637 Pls
6059 2986 Pls
6059 1878 Pls
6059 1532 Pls
6059 1550 Pls
6059 2740 Pls
6059 1739 Pls
6059 1703 Pls
6059 1265 Pls
6059 1785 Pls
6059 1043 Pls
6059 1019 Pls
6059 1007 Pls
6059 2332 Pls
6059 1238 Pls
6059 1238 Pls
6059 1076 Pls
6059 2551 Pls
6059 1675 Pls
6059 1238 Pls
6059 1122 Pls
6059 2551 Pls
6059 1627 Pls
6059 1457 Pls
6059 1307 Pls
6059 2551 Pls
6059 1870 Pls
6059 1488 Pls
6059 1468 Pls
6059 3817 Pls
6059 2223 Pls
6059 2263 Pls
6059 1738 Pls
6059 4090 Pls
6059 2264 Pls
6059 1961 Pls
6059 1894 Pls
6059 4030 Pls
6059 2764 Pls
6059 2321 Pls
6059 1943 Pls
6059 3337 Pls
6059 2108 Pls
6059 2095 Pls
6059 1637 Pls
6059 2667 Pls
6059 2349 Pls
6059 1629 Pls
6059 1556 Pls
6059 2332 Pls
6059 1481 Pls
6059 988 Pls
6059 984 Pls
6059 2441 Pls
6059 1627 Pls
6059 1331 Pls
6059 1192 Pls
6059 2113 Pls
6059 1627 Pls
6059 1644 Pls
6059 1353 Pls
6059 3207 Pls
6059 1675 Pls
6059 1550 Pls
6059 1399 Pls
6059 3754 Pls
6059 1967 Pls
6059 1613 Pls
6059 1330 Pls
6059 3899 Pls
6059 3334 Pls
6059 2451 Pls
6059 2171 Pls
6059 4509 Pls
6059 2797 Pls
6059 2304 Pls
6059 2030 Pls
6059 4129 Pls
6059 3008 Pls
6059 2379 Pls
6059 1566 Pls
6059 4057 Pls
6059 2277 Pls
6059 2030 Pls
6059 1921 Pls
6059 3192 Pls
6059 2033 Pls
6059 1929 Pls
6059 1659 Pls
6059 2332 Pls
6059 1432 Pls
6059 1394 Pls
6059 1215 Pls
6059 2441 Pls
6059 1481 Pls
6059 1519 Pls
6059 1169 Pls
6059 3098 Pls
6059 2308 Pls
6059 1707 Pls
6059 1307 Pls
6059 3864 Pls
6059 2453 Pls
6059 1550 Pls
6059 1514 Pls
6059 3973 Pls
6059 2745 Pls
6059 1644 Pls
6059 1583 Pls
6059 4028 Pls
6059 3205 Pls
6059 2476 Pls
6059 2279 Pls
6059 4087 Pls
6059 3164 Pls
6059 2150 Pls
6059 2054 Pls
6059 4190 Pls
6059 3168 Pls
6059 2146 Pls
6059 2047 Pls
6059 4043 Pls
6059 2927 Pls
6059 2056 Pls
6059 1765 Pls
6059 3085 Pls
6059 2522 Pls
6059 1923 Pls
6059 1716 Pls
6059 2332 Pls
6059 1578 Pls
6059 1582 Pls
6059 1261 Pls
6059 3535 Pls
6059 2064 Pls
6059 1675 Pls
6059 1284 Pls
6059 3535 Pls
6059 2259 Pls
6059 1675 Pls
6059 1399 Pls
6059 3973 Pls
6059 2210 Pls
6059 1613 Pls
6059 1837 Pls
6059 3535 Pls
6059 2502 Pls
6059 1675 Pls
6059 1767 Pls
6059 4401 Pls
6059 2911 Pls
6059 2542 Pls
6059 1877 Pls
6059 4239 Pls
6059 3419 Pls
6059 2544 Pls
6059 2051 Pls
6059 4026 Pls
6059 3047 Pls
6059 2360 Pls
6059 2121 Pls
6059 3654 Pls
6059 3078 Pls
6059 2192 Pls
6059 2124 Pls
6059 3923 Pls
6059 2236 Pls
6059 1905 Pls
6059 1708 Pls
6059 2988 Pls
6059 1773 Pls
6059 1175 Pls
6059 1353 Pls
6059 3207 Pls
6059 2016 Pls
6059 1863 Pls
6059 1468 Pls
6059 3426 Pls
6059 1918 Pls
6059 1488 Pls
6059 1560 Pls
6059 3645 Pls
6059 2599 Pls
6059 1863 Pls
6059 1491 Pls
6059 3973 Pls
6059 2162 Pls
6059 1957 Pls
6059 1744 Pls
6749 3183 Pls
6749 2647 Pls
6749 2127 Pls
6749 1692 Pls
6749 3342 Pls
6749 2309 Pls
6749 2026 Pls
6749 1806 Pls
6749 3592 Pls
6749 2502 Pls
6749 2088 Pls
6749 1528 Pls
6749 2703 Pls
6749 2124 Pls
6749 1577 Pls
6749 1338 Pls
6749 2405 Pls
6749 1926 Pls
6749 1280 Pls
6749 1346 Pls
6749 1785 Pls
6749 1140 Pls
6749 988 Pls
6749 938 Pls
6749 2113 Pls
6749 1238 Pls
6749 1175 Pls
6749 1192 Pls
6749 2441 Pls
6749 1627 Pls
6749 1144 Pls
6749 1261 Pls
6749 2660 Pls
6749 1529 Pls
6749 1488 Pls
6749 1284 Pls
6749 2441 Pls
6749 1821 Pls
6749 1488 Pls
6749 1215 Pls
6749 4176 Pls
6749 2780 Pls
6749 2196 Pls
6749 2102 Pls
6749 4022 Pls
6749 2808 Pls
6749 2150 Pls
6749 1912 Pls
6749 3310 Pls
6749 2659 Pls
6749 2401 Pls
6749 1492 Pls
6749 3637 Pls
6749 2543 Pls
6749 1915 Pls
6749 1680 Pls
6749 2957 Pls
6749 1968 Pls
6749 1833 Pls
6749 1489 Pls
6749 2113 Pls
6749 1286 Pls
6749 1269 Pls
6749 1053 Pls
6749 2551 Pls
6749 1432 Pls
6749 1425 Pls
6749 1261 Pls
6749 2332 Pls
6749 1967 Pls
6749 1519 Pls
6749 1353 Pls
6749 3317 Pls
6749 1773 Pls
6749 1769 Pls
6749 1376 Pls
6749 3207 Pls
6749 2113 Pls
6749 1644 Pls
6749 1376 Pls
6749 4278 Pls
6749 2671 Pls
6749 2327 Pls
6749 2299 Pls
6749 4081 Pls
6749 2993 Pls
6749 2756 Pls
6749 1899 Pls
6749 4184 Pls
6749 2963 Pls
6749 2364 Pls
6749 1908 Pls
6749 3585 Pls
6749 2740 Pls
6749 1971 Pls
6749 2015 Pls
6749 3556 Pls
6749 2301 Pls
6749 1584 Pls
6749 1660 Pls
6749 2004 Pls
6749 1675 Pls
6749 1394 Pls
6749 1238 Pls
6749 3207 Pls
6749 2210 Pls
6749 1738 Pls
6749 1284 Pls
6749 3864 Pls
6749 2210 Pls
6749 1582 Pls
6749 1353 Pls
6749 3317 Pls
6749 2064 Pls
6749 1582 Pls
6749 1445 Pls
6749 3317 Pls
6749 2308 Pls
6749 1769 Pls
6749 1560 Pls
6749 4276 Pls
6749 3097 Pls
6749 2405 Pls
6749 2056 Pls
6749 4142 Pls
6749 2993 Pls
6749 2558 Pls
6749 2357 Pls
6749 4298 Pls
6749 2524 Pls
6749 2247 Pls
6749 2140 Pls
6749 3825 Pls
6749 2694 Pls
6749 2140 Pls
6749 1714 Pls
6749 3848 Pls
6749 2539 Pls
6749 1942 Pls
6749 1716 Pls
6749 3098 Pls
6749 1529 Pls
6749 1206 Pls
6749 1284 Pls
6749 3207 Pls
6749 2113 Pls
6749 1456 Pls
6749 1399 Pls
6749 3754 Pls
6749 2405 Pls
6749 1519 Pls
6749 1606 Pls
6749 3317 Pls
6749 2405 Pls
6749 1707 Pls
6749 1583 Pls
6749 3754 Pls
6749 2551 Pls
6749 1988 Pls
6749 1514 Pls
6749 4654 Pls
6749 3657 Pls
6749 2724 Pls
6749 2227 Pls
6749 4315 Pls
6749 3324 Pls
6749 2447 Pls
6749 2194 Pls
6749 4007 Pls
6749 3272 Pls
6749 2256 Pls
6749 2093 Pls
6749 4193 Pls
6749 2950 Pls
6749 2243 Pls
6749 1819 Pls
6749 4050 Pls
6749 2107 Pls
6749 2229 Pls
6749 1654 Pls
6749 2551 Pls
6749 1627 Pls
6749 1425 Pls
6749 1376 Pls
6749 3426 Pls
6749 1918 Pls
6749 1644 Pls
6749 1445 Pls
6749 3754 Pls
6749 2648 Pls
6749 1738 Pls
6749 1353 Pls
6749 4411 Pls
6749 1967 Pls
6749 1488 Pls
6749 1560 Pls
6749 3098 Pls
6749 2599 Pls
6749 1863 Pls
6749 1560 Pls
% End plot #1
% Begin plot #2
1.000 UL
LT1
LCb setrgbcolor
5636 4551 M
[ [(Helvetica) 250.0 0.0 true true 0 (Average)]
] -83.3 MRshow
LT1
5786 4551 M
663 0 V
1225 2336 M
691 -44 V
690 3 V
691 -5 V
690 -19 V
691 14 V
690 -11 V
691 -11 V
690 20 V
% End plot #2
% Begin plot #3
stroke
LT2
LCb setrgbcolor
5636 4301 M
[ [(Helvetica) 250.0 0.0 true true 0 (Min)]
] -83.3 MRshow
LT2
5786 4301 M
663 0 V
1225 1050 M
691 -62 V
690 42 V
691 -46 V
690 23 V
691 -69 V
690 46 V
691 0 V
690 -46 V
% End plot #3
% Begin plot #4
stroke
LT3
LCb setrgbcolor
5636 4051 M
[ [(Helvetica) 250.0 0.0 true true 0 (Max)]
] -83.3 MRshow
LT3
5786 4051 M
663 0 V
1225 4677 M
691 -121 V
690 -39 V
691 64 V
690 -107 V
691 51 V
690 10 V
691 -26 V
690 145 V
% End plot #4
stroke
LTb
1225 4739 N
0 -3939 V
5524 0 V
0 3939 V
-5524 0 V
Z stroke
1.000 UP
1.000 UL
LTb
stroke
grestore
end
showpage
%%Trailer
%%DocumentFonts: Helvetica
