%!PS-Adobe-2.0 EPSF-2.0
%%Title: n_alphabet_size_100.precision.eps
%%Creator: gnuplot 4.4 patchlevel 3
%%CreationDate: Tue Jun  4 12:58:03 2013
%%DocumentFonts: (atend)
%%BoundingBox: 50 50 410 302
%%EndComments
%%BeginProlog
/gnudict 256 dict def
gnudict begin
%
% The following true/false flags may be edited by hand if desired.
% The unit line width and grayscale image gamma correction may also be changed.
%
/Color true def
/Blacktext false def
/Solid false def
/Dashlength 1 def
/Landscape false def
/Level1 false def
/Rounded false def
/ClipToBoundingBox false def
/TransparentPatterns false def
/gnulinewidth 5.000 def
/userlinewidth gnulinewidth def
/Gamma 1.0 def
%
/vshift -83 def
/dl1 {
  10.0 Dashlength mul mul
  Rounded { currentlinewidth 0.75 mul sub dup 0 le { pop 0.01 } if } if
} def
/dl2 {
  10.0 Dashlength mul mul
  Rounded { currentlinewidth 0.75 mul add } if
} def
/hpt_ 31.5 def
/vpt_ 31.5 def
/hpt hpt_ def
/vpt vpt_ def
Level1 {} {
/SDict 10 dict def
systemdict /pdfmark known not {
  userdict /pdfmark systemdict /cleartomark get put
} if
SDict begin [
  /Title (n_alphabet_size_100.precision.eps)
  /Subject (gnuplot plot)
  /Creator (gnuplot 4.4 patchlevel 3)
  /Author (xjia)
%  /Producer (gnuplot)
%  /Keywords ()
  /CreationDate (Tue Jun  4 12:58:03 2013)
  /DOCINFO pdfmark
end
} ifelse
/doclip {
  ClipToBoundingBox {
    newpath 50 50 moveto 410 50 lineto 410 302 lineto 50 302 lineto closepath
    clip
  } if
} def
%
% Gnuplot Prolog Version 4.4 (August 2010)
%
%/SuppressPDFMark true def
%
/M {moveto} bind def
/L {lineto} bind def
/R {rmoveto} bind def
/V {rlineto} bind def
/N {newpath moveto} bind def
/Z {closepath} bind def
/C {setrgbcolor} bind def
/f {rlineto fill} bind def
/g {setgray} bind def
/Gshow {show} def   % May be redefined later in the file to support UTF-8
/vpt2 vpt 2 mul def
/hpt2 hpt 2 mul def
/Lshow {currentpoint stroke M 0 vshift R 
	Blacktext {gsave 0 setgray show grestore} {show} ifelse} def
/Rshow {currentpoint stroke M dup stringwidth pop neg vshift R
	Blacktext {gsave 0 setgray show grestore} {show} ifelse} def
/Cshow {currentpoint stroke M dup stringwidth pop -2 div vshift R 
	Blacktext {gsave 0 setgray show grestore} {show} ifelse} def
/UP {dup vpt_ mul /vpt exch def hpt_ mul /hpt exch def
  /hpt2 hpt 2 mul def /vpt2 vpt 2 mul def} def
/DL {Color {setrgbcolor Solid {pop []} if 0 setdash}
 {pop pop pop 0 setgray Solid {pop []} if 0 setdash} ifelse} def
/BL {stroke userlinewidth 2 mul setlinewidth
	Rounded {1 setlinejoin 1 setlinecap} if} def
/AL {stroke userlinewidth 2 div setlinewidth
	Rounded {1 setlinejoin 1 setlinecap} if} def
/UL {dup gnulinewidth mul /userlinewidth exch def
	dup 1 lt {pop 1} if 10 mul /udl exch def} def
/PL {stroke userlinewidth setlinewidth
	Rounded {1 setlinejoin 1 setlinecap} if} def
3.8 setmiterlimit
% Default Line colors
/LCw {1 1 1} def
/LCb {0 0 0} def
/LCa {0 0 0} def
/LC0 {1 0 0} def
/LC1 {0 1 0} def
/LC2 {0 0 1} def
/LC3 {1 0 1} def
/LC4 {0 1 1} def
/LC5 {1 1 0} def
/LC6 {0 0 0} def
/LC7 {1 0.3 0} def
/LC8 {0.5 0.5 0.5} def
% Default Line Types
/LTw {PL [] 1 setgray} def
/LTb {BL [] LCb DL} def
/LTa {AL [1 udl mul 2 udl mul] 0 setdash LCa setrgbcolor} def
/LT0 {PL [] LC0 DL} def
/LT1 {PL [4 dl1 2 dl2] LC1 DL} def
/LT2 {PL [2 dl1 3 dl2] LC2 DL} def
/LT3 {PL [1 dl1 1.5 dl2] LC3 DL} def
/LT4 {PL [6 dl1 2 dl2 1 dl1 2 dl2] LC4 DL} def
/LT5 {PL [3 dl1 3 dl2 1 dl1 3 dl2] LC5 DL} def
/LT6 {PL [2 dl1 2 dl2 2 dl1 6 dl2] LC6 DL} def
/LT7 {PL [1 dl1 2 dl2 6 dl1 2 dl2 1 dl1 2 dl2] LC7 DL} def
/LT8 {PL [2 dl1 2 dl2 2 dl1 2 dl2 2 dl1 2 dl2 2 dl1 4 dl2] LC8 DL} def
/Pnt {stroke [] 0 setdash gsave 1 setlinecap M 0 0 V stroke grestore} def
/Dia {stroke [] 0 setdash 2 copy vpt add M
  hpt neg vpt neg V hpt vpt neg V
  hpt vpt V hpt neg vpt V closepath stroke
  Pnt} def
/Pls {stroke [] 0 setdash vpt sub M 0 vpt2 V
  currentpoint stroke M
  hpt neg vpt neg R hpt2 0 V stroke
 } def
/Box {stroke [] 0 setdash 2 copy exch hpt sub exch vpt add M
  0 vpt2 neg V hpt2 0 V 0 vpt2 V
  hpt2 neg 0 V closepath stroke
  Pnt} def
/Crs {stroke [] 0 setdash exch hpt sub exch vpt add M
  hpt2 vpt2 neg V currentpoint stroke M
  hpt2 neg 0 R hpt2 vpt2 V stroke} def
/TriU {stroke [] 0 setdash 2 copy vpt 1.12 mul add M
  hpt neg vpt -1.62 mul V
  hpt 2 mul 0 V
  hpt neg vpt 1.62 mul V closepath stroke
  Pnt} def
/Star {2 copy Pls Crs} def
/BoxF {stroke [] 0 setdash exch hpt sub exch vpt add M
  0 vpt2 neg V hpt2 0 V 0 vpt2 V
  hpt2 neg 0 V closepath fill} def
/TriUF {stroke [] 0 setdash vpt 1.12 mul add M
  hpt neg vpt -1.62 mul V
  hpt 2 mul 0 V
  hpt neg vpt 1.62 mul V closepath fill} def
/TriD {stroke [] 0 setdash 2 copy vpt 1.12 mul sub M
  hpt neg vpt 1.62 mul V
  hpt 2 mul 0 V
  hpt neg vpt -1.62 mul V closepath stroke
  Pnt} def
/TriDF {stroke [] 0 setdash vpt 1.12 mul sub M
  hpt neg vpt 1.62 mul V
  hpt 2 mul 0 V
  hpt neg vpt -1.62 mul V closepath fill} def
/DiaF {stroke [] 0 setdash vpt add M
  hpt neg vpt neg V hpt vpt neg V
  hpt vpt V hpt neg vpt V closepath fill} def
/Pent {stroke [] 0 setdash 2 copy gsave
  translate 0 hpt M 4 {72 rotate 0 hpt L} repeat
  closepath stroke grestore Pnt} def
/PentF {stroke [] 0 setdash gsave
  translate 0 hpt M 4 {72 rotate 0 hpt L} repeat
  closepath fill grestore} def
/Circle {stroke [] 0 setdash 2 copy
  hpt 0 360 arc stroke Pnt} def
/CircleF {stroke [] 0 setdash hpt 0 360 arc fill} def
/C0 {BL [] 0 setdash 2 copy moveto vpt 90 450 arc} bind def
/C1 {BL [] 0 setdash 2 copy moveto
	2 copy vpt 0 90 arc closepath fill
	vpt 0 360 arc closepath} bind def
/C2 {BL [] 0 setdash 2 copy moveto
	2 copy vpt 90 180 arc closepath fill
	vpt 0 360 arc closepath} bind def
/C3 {BL [] 0 setdash 2 copy moveto
	2 copy vpt 0 180 arc closepath fill
	vpt 0 360 arc closepath} bind def
/C4 {BL [] 0 setdash 2 copy moveto
	2 copy vpt 180 270 arc closepath fill
	vpt 0 360 arc closepath} bind def
/C5 {BL [] 0 setdash 2 copy moveto
	2 copy vpt 0 90 arc
	2 copy moveto
	2 copy vpt 180 270 arc closepath fill
	vpt 0 360 arc} bind def
/C6 {BL [] 0 setdash 2 copy moveto
	2 copy vpt 90 270 arc closepath fill
	vpt 0 360 arc closepath} bind def
/C7 {BL [] 0 setdash 2 copy moveto
	2 copy vpt 0 270 arc closepath fill
	vpt 0 360 arc closepath} bind def
/C8 {BL [] 0 setdash 2 copy moveto
	2 copy vpt 270 360 arc closepath fill
	vpt 0 360 arc closepath} bind def
/C9 {BL [] 0 setdash 2 copy moveto
	2 copy vpt 270 450 arc closepath fill
	vpt 0 360 arc closepath} bind def
/C10 {BL [] 0 setdash 2 copy 2 copy moveto vpt 270 360 arc closepath fill
	2 copy moveto
	2 copy vpt 90 180 arc closepath fill
	vpt 0 360 arc closepath} bind def
/C11 {BL [] 0 setdash 2 copy moveto
	2 copy vpt 0 180 arc closepath fill
	2 copy moveto
	2 copy vpt 270 360 arc closepath fill
	vpt 0 360 arc closepath} bind def
/C12 {BL [] 0 setdash 2 copy moveto
	2 copy vpt 180 360 arc closepath fill
	vpt 0 360 arc closepath} bind def
/C13 {BL [] 0 setdash 2 copy moveto
	2 copy vpt 0 90 arc closepath fill
	2 copy moveto
	2 copy vpt 180 360 arc closepath fill
	vpt 0 360 arc closepath} bind def
/C14 {BL [] 0 setdash 2 copy moveto
	2 copy vpt 90 360 arc closepath fill
	vpt 0 360 arc} bind def
/C15 {BL [] 0 setdash 2 copy vpt 0 360 arc closepath fill
	vpt 0 360 arc closepath} bind def
/Rec {newpath 4 2 roll moveto 1 index 0 rlineto 0 exch rlineto
	neg 0 rlineto closepath} bind def
/Square {dup Rec} bind def
/Bsquare {vpt sub exch vpt sub exch vpt2 Square} bind def
/S0 {BL [] 0 setdash 2 copy moveto 0 vpt rlineto BL Bsquare} bind def
/S1 {BL [] 0 setdash 2 copy vpt Square fill Bsquare} bind def
/S2 {BL [] 0 setdash 2 copy exch vpt sub exch vpt Square fill Bsquare} bind def
/S3 {BL [] 0 setdash 2 copy exch vpt sub exch vpt2 vpt Rec fill Bsquare} bind def
/S4 {BL [] 0 setdash 2 copy exch vpt sub exch vpt sub vpt Square fill Bsquare} bind def
/S5 {BL [] 0 setdash 2 copy 2 copy vpt Square fill
	exch vpt sub exch vpt sub vpt Square fill Bsquare} bind def
/S6 {BL [] 0 setdash 2 copy exch vpt sub exch vpt sub vpt vpt2 Rec fill Bsquare} bind def
/S7 {BL [] 0 setdash 2 copy exch vpt sub exch vpt sub vpt vpt2 Rec fill
	2 copy vpt Square fill Bsquare} bind def
/S8 {BL [] 0 setdash 2 copy vpt sub vpt Square fill Bsquare} bind def
/S9 {BL [] 0 setdash 2 copy vpt sub vpt vpt2 Rec fill Bsquare} bind def
/S10 {BL [] 0 setdash 2 copy vpt sub vpt Square fill 2 copy exch vpt sub exch vpt Square fill
	Bsquare} bind def
/S11 {BL [] 0 setdash 2 copy vpt sub vpt Square fill 2 copy exch vpt sub exch vpt2 vpt Rec fill
	Bsquare} bind def
/S12 {BL [] 0 setdash 2 copy exch vpt sub exch vpt sub vpt2 vpt Rec fill Bsquare} bind def
/S13 {BL [] 0 setdash 2 copy exch vpt sub exch vpt sub vpt2 vpt Rec fill
	2 copy vpt Square fill Bsquare} bind def
/S14 {BL [] 0 setdash 2 copy exch vpt sub exch vpt sub vpt2 vpt Rec fill
	2 copy exch vpt sub exch vpt Square fill Bsquare} bind def
/S15 {BL [] 0 setdash 2 copy Bsquare fill Bsquare} bind def
/D0 {gsave translate 45 rotate 0 0 S0 stroke grestore} bind def
/D1 {gsave translate 45 rotate 0 0 S1 stroke grestore} bind def
/D2 {gsave translate 45 rotate 0 0 S2 stroke grestore} bind def
/D3 {gsave translate 45 rotate 0 0 S3 stroke grestore} bind def
/D4 {gsave translate 45 rotate 0 0 S4 stroke grestore} bind def
/D5 {gsave translate 45 rotate 0 0 S5 stroke grestore} bind def
/D6 {gsave translate 45 rotate 0 0 S6 stroke grestore} bind def
/D7 {gsave translate 45 rotate 0 0 S7 stroke grestore} bind def
/D8 {gsave translate 45 rotate 0 0 S8 stroke grestore} bind def
/D9 {gsave translate 45 rotate 0 0 S9 stroke grestore} bind def
/D10 {gsave translate 45 rotate 0 0 S10 stroke grestore} bind def
/D11 {gsave translate 45 rotate 0 0 S11 stroke grestore} bind def
/D12 {gsave translate 45 rotate 0 0 S12 stroke grestore} bind def
/D13 {gsave translate 45 rotate 0 0 S13 stroke grestore} bind def
/D14 {gsave translate 45 rotate 0 0 S14 stroke grestore} bind def
/D15 {gsave translate 45 rotate 0 0 S15 stroke grestore} bind def
/DiaE {stroke [] 0 setdash vpt add M
  hpt neg vpt neg V hpt vpt neg V
  hpt vpt V hpt neg vpt V closepath stroke} def
/BoxE {stroke [] 0 setdash exch hpt sub exch vpt add M
  0 vpt2 neg V hpt2 0 V 0 vpt2 V
  hpt2 neg 0 V closepath stroke} def
/TriUE {stroke [] 0 setdash vpt 1.12 mul add M
  hpt neg vpt -1.62 mul V
  hpt 2 mul 0 V
  hpt neg vpt 1.62 mul V closepath stroke} def
/TriDE {stroke [] 0 setdash vpt 1.12 mul sub M
  hpt neg vpt 1.62 mul V
  hpt 2 mul 0 V
  hpt neg vpt -1.62 mul V closepath stroke} def
/PentE {stroke [] 0 setdash gsave
  translate 0 hpt M 4 {72 rotate 0 hpt L} repeat
  closepath stroke grestore} def
/CircE {stroke [] 0 setdash 
  hpt 0 360 arc stroke} def
/Opaque {gsave closepath 1 setgray fill grestore 0 setgray closepath} def
/DiaW {stroke [] 0 setdash vpt add M
  hpt neg vpt neg V hpt vpt neg V
  hpt vpt V hpt neg vpt V Opaque stroke} def
/BoxW {stroke [] 0 setdash exch hpt sub exch vpt add M
  0 vpt2 neg V hpt2 0 V 0 vpt2 V
  hpt2 neg 0 V Opaque stroke} def
/TriUW {stroke [] 0 setdash vpt 1.12 mul add M
  hpt neg vpt -1.62 mul V
  hpt 2 mul 0 V
  hpt neg vpt 1.62 mul V Opaque stroke} def
/TriDW {stroke [] 0 setdash vpt 1.12 mul sub M
  hpt neg vpt 1.62 mul V
  hpt 2 mul 0 V
  hpt neg vpt -1.62 mul V Opaque stroke} def
/PentW {stroke [] 0 setdash gsave
  translate 0 hpt M 4 {72 rotate 0 hpt L} repeat
  Opaque stroke grestore} def
/CircW {stroke [] 0 setdash 
  hpt 0 360 arc Opaque stroke} def
/BoxFill {gsave Rec 1 setgray fill grestore} def
/Density {
  /Fillden exch def
  currentrgbcolor
  /ColB exch def /ColG exch def /ColR exch def
  /ColR ColR Fillden mul Fillden sub 1 add def
  /ColG ColG Fillden mul Fillden sub 1 add def
  /ColB ColB Fillden mul Fillden sub 1 add def
  ColR ColG ColB setrgbcolor} def
/BoxColFill {gsave Rec PolyFill} def
/PolyFill {gsave Density fill grestore grestore} def
/h {rlineto rlineto rlineto gsave closepath fill grestore} bind def
%
% PostScript Level 1 Pattern Fill routine for rectangles
% Usage: x y w h s a XX PatternFill
%	x,y = lower left corner of box to be filled
%	w,h = width and height of box
%	  a = angle in degrees between lines and x-axis
%	 XX = 0/1 for no/yes cross-hatch
%
/PatternFill {gsave /PFa [ 9 2 roll ] def
  PFa 0 get PFa 2 get 2 div add PFa 1 get PFa 3 get 2 div add translate
  PFa 2 get -2 div PFa 3 get -2 div PFa 2 get PFa 3 get Rec
  gsave 1 setgray fill grestore clip
  currentlinewidth 0.5 mul setlinewidth
  /PFs PFa 2 get dup mul PFa 3 get dup mul add sqrt def
  0 0 M PFa 5 get rotate PFs -2 div dup translate
  0 1 PFs PFa 4 get div 1 add floor cvi
	{PFa 4 get mul 0 M 0 PFs V} for
  0 PFa 6 get ne {
	0 1 PFs PFa 4 get div 1 add floor cvi
	{PFa 4 get mul 0 2 1 roll M PFs 0 V} for
 } if
  stroke grestore} def
%
/languagelevel where
 {pop languagelevel} {1} ifelse
 2 lt
	{/InterpretLevel1 true def}
	{/InterpretLevel1 Level1 def}
 ifelse
%
% PostScript level 2 pattern fill definitions
%
/Level2PatternFill {
/Tile8x8 {/PaintType 2 /PatternType 1 /TilingType 1 /BBox [0 0 8 8] /XStep 8 /YStep 8}
	bind def
/KeepColor {currentrgbcolor [/Pattern /DeviceRGB] setcolorspace} bind def
<< Tile8x8
 /PaintProc {0.5 setlinewidth pop 0 0 M 8 8 L 0 8 M 8 0 L stroke} 
>> matrix makepattern
/Pat1 exch def
<< Tile8x8
 /PaintProc {0.5 setlinewidth pop 0 0 M 8 8 L 0 8 M 8 0 L stroke
	0 4 M 4 8 L 8 4 L 4 0 L 0 4 L stroke}
>> matrix makepattern
/Pat2 exch def
<< Tile8x8
 /PaintProc {0.5 setlinewidth pop 0 0 M 0 8 L
	8 8 L 8 0 L 0 0 L fill}
>> matrix makepattern
/Pat3 exch def
<< Tile8x8
 /PaintProc {0.5 setlinewidth pop -4 8 M 8 -4 L
	0 12 M 12 0 L stroke}
>> matrix makepattern
/Pat4 exch def
<< Tile8x8
 /PaintProc {0.5 setlinewidth pop -4 0 M 8 12 L
	0 -4 M 12 8 L stroke}
>> matrix makepattern
/Pat5 exch def
<< Tile8x8
 /PaintProc {0.5 setlinewidth pop -2 8 M 4 -4 L
	0 12 M 8 -4 L 4 12 M 10 0 L stroke}
>> matrix makepattern
/Pat6 exch def
<< Tile8x8
 /PaintProc {0.5 setlinewidth pop -2 0 M 4 12 L
	0 -4 M 8 12 L 4 -4 M 10 8 L stroke}
>> matrix makepattern
/Pat7 exch def
<< Tile8x8
 /PaintProc {0.5 setlinewidth pop 8 -2 M -4 4 L
	12 0 M -4 8 L 12 4 M 0 10 L stroke}
>> matrix makepattern
/Pat8 exch def
<< Tile8x8
 /PaintProc {0.5 setlinewidth pop 0 -2 M 12 4 L
	-4 0 M 12 8 L -4 4 M 8 10 L stroke}
>> matrix makepattern
/Pat9 exch def
/Pattern1 {PatternBgnd KeepColor Pat1 setpattern} bind def
/Pattern2 {PatternBgnd KeepColor Pat2 setpattern} bind def
/Pattern3 {PatternBgnd KeepColor Pat3 setpattern} bind def
/Pattern4 {PatternBgnd KeepColor Landscape {Pat5} {Pat4} ifelse setpattern} bind def
/Pattern5 {PatternBgnd KeepColor Landscape {Pat4} {Pat5} ifelse setpattern} bind def
/Pattern6 {PatternBgnd KeepColor Landscape {Pat9} {Pat6} ifelse setpattern} bind def
/Pattern7 {PatternBgnd KeepColor Landscape {Pat8} {Pat7} ifelse setpattern} bind def
} def
%
%
%End of PostScript Level 2 code
%
/PatternBgnd {
  TransparentPatterns {} {gsave 1 setgray fill grestore} ifelse
} def
%
% Substitute for Level 2 pattern fill codes with
% grayscale if Level 2 support is not selected.
%
/Level1PatternFill {
/Pattern1 {0.250 Density} bind def
/Pattern2 {0.500 Density} bind def
/Pattern3 {0.750 Density} bind def
/Pattern4 {0.125 Density} bind def
/Pattern5 {0.375 Density} bind def
/Pattern6 {0.625 Density} bind def
/Pattern7 {0.875 Density} bind def
} def
%
% Now test for support of Level 2 code
%
Level1 {Level1PatternFill} {Level2PatternFill} ifelse
%
/Symbol-Oblique /Symbol findfont [1 0 .167 1 0 0] makefont
dup length dict begin {1 index /FID eq {pop pop} {def} ifelse} forall
currentdict end definefont pop
/MFshow {
   { dup 5 get 3 ge
     { 5 get 3 eq {gsave} {grestore} ifelse }
     {dup dup 0 get findfont exch 1 get scalefont setfont
     [ currentpoint ] exch dup 2 get 0 exch R dup 5 get 2 ne {dup dup 6
     get exch 4 get {Gshow} {stringwidth pop 0 R} ifelse }if dup 5 get 0 eq
     {dup 3 get {2 get neg 0 exch R pop} {pop aload pop M} ifelse} {dup 5
     get 1 eq {dup 2 get exch dup 3 get exch 6 get stringwidth pop -2 div
     dup 0 R} {dup 6 get stringwidth pop -2 div 0 R 6 get
     show 2 index {aload pop M neg 3 -1 roll neg R pop pop} {pop pop pop
     pop aload pop M} ifelse }ifelse }ifelse }
     ifelse }
   forall} def
/Gswidth {dup type /stringtype eq {stringwidth} {pop (n) stringwidth} ifelse} def
/MFwidth {0 exch { dup 5 get 3 ge { 5 get 3 eq { 0 } { pop } ifelse }
 {dup 3 get{dup dup 0 get findfont exch 1 get scalefont setfont
     6 get Gswidth pop add} {pop} ifelse} ifelse} forall} def
/MLshow { currentpoint stroke M
  0 exch R
  Blacktext {gsave 0 setgray MFshow grestore} {MFshow} ifelse } bind def
/MRshow { currentpoint stroke M
  exch dup MFwidth neg 3 -1 roll R
  Blacktext {gsave 0 setgray MFshow grestore} {MFshow} ifelse } bind def
/MCshow { currentpoint stroke M
  exch dup MFwidth -2 div 3 -1 roll R
  Blacktext {gsave 0 setgray MFshow grestore} {MFshow} ifelse } bind def
/XYsave    { [( ) 1 2 true false 3 ()] } bind def
/XYrestore { [( ) 1 2 true false 4 ()] } bind def
end
%%EndProlog
gnudict begin
gsave
doclip
50 50 translate
0.050 0.050 scale
0 setgray
newpath
(Helvetica) findfont 250 scalefont setfont
1.000 UL
LTb
1225 800 M
63 0 V
5461 0 R
-63 0 V
stroke
1075 800 M
[ [(Helvetica) 250.0 0.0 true true 0 ( 0)]
] -83.3 MRshow
1.000 UL
LTb
1225 1194 M
63 0 V
5461 0 R
-63 0 V
stroke
1075 1194 M
[ [(Helvetica) 250.0 0.0 true true 0 ( 0.1)]
] -83.3 MRshow
1.000 UL
LTb
1225 1588 M
63 0 V
5461 0 R
-63 0 V
stroke
1075 1588 M
[ [(Helvetica) 250.0 0.0 true true 0 ( 0.2)]
] -83.3 MRshow
1.000 UL
LTb
1225 1982 M
63 0 V
5461 0 R
-63 0 V
stroke
1075 1982 M
[ [(Helvetica) 250.0 0.0 true true 0 ( 0.3)]
] -83.3 MRshow
1.000 UL
LTb
1225 2376 M
63 0 V
5461 0 R
-63 0 V
stroke
1075 2376 M
[ [(Helvetica) 250.0 0.0 true true 0 ( 0.4)]
] -83.3 MRshow
1.000 UL
LTb
1225 2770 M
63 0 V
5461 0 R
-63 0 V
stroke
1075 2770 M
[ [(Helvetica) 250.0 0.0 true true 0 ( 0.5)]
] -83.3 MRshow
1.000 UL
LTb
1225 3163 M
63 0 V
5461 0 R
-63 0 V
stroke
1075 3163 M
[ [(Helvetica) 250.0 0.0 true true 0 ( 0.6)]
] -83.3 MRshow
1.000 UL
LTb
1225 3557 M
63 0 V
5461 0 R
-63 0 V
stroke
1075 3557 M
[ [(Helvetica) 250.0 0.0 true true 0 ( 0.7)]
] -83.3 MRshow
1.000 UL
LTb
1225 3951 M
63 0 V
5461 0 R
-63 0 V
stroke
1075 3951 M
[ [(Helvetica) 250.0 0.0 true true 0 ( 0.8)]
] -83.3 MRshow
1.000 UL
LTb
1225 4345 M
63 0 V
5461 0 R
-63 0 V
stroke
1075 4345 M
[ [(Helvetica) 250.0 0.0 true true 0 ( 0.9)]
] -83.3 MRshow
1.000 UL
LTb
1225 4739 M
63 0 V
5461 0 R
-63 0 V
stroke
1075 4739 M
[ [(Helvetica) 250.0 0.0 true true 0 ( 1)]
] -83.3 MRshow
1.000 UL
LTb
1225 800 M
0 63 V
0 3876 R
0 -63 V
stroke
1225 550 M
[ [(Helvetica) 250.0 0.0 true true 0 ( 100)]
] -83.3 MCshow
1.000 UL
LTb
1916 800 M
0 63 V
0 3876 R
0 -63 V
stroke
1916 550 M
[ [(Helvetica) 250.0 0.0 true true 0 ( 200)]
] -83.3 MCshow
1.000 UL
LTb
2606 800 M
0 63 V
0 3876 R
0 -63 V
stroke
2606 550 M
[ [(Helvetica) 250.0 0.0 true true 0 ( 300)]
] -83.3 MCshow
1.000 UL
LTb
3297 800 M
0 63 V
0 3876 R
0 -63 V
stroke
3297 550 M
[ [(Helvetica) 250.0 0.0 true true 0 ( 400)]
] -83.3 MCshow
1.000 UL
LTb
3987 800 M
0 63 V
0 3876 R
0 -63 V
stroke
3987 550 M
[ [(Helvetica) 250.0 0.0 true true 0 ( 500)]
] -83.3 MCshow
1.000 UL
LTb
4678 800 M
0 63 V
0 3876 R
0 -63 V
stroke
4678 550 M
[ [(Helvetica) 250.0 0.0 true true 0 ( 600)]
] -83.3 MCshow
1.000 UL
LTb
5368 800 M
0 63 V
0 3876 R
0 -63 V
stroke
5368 550 M
[ [(Helvetica) 250.0 0.0 true true 0 ( 700)]
] -83.3 MCshow
1.000 UL
LTb
6059 800 M
0 63 V
0 3876 R
0 -63 V
stroke
6059 550 M
[ [(Helvetica) 250.0 0.0 true true 0 ( 800)]
] -83.3 MCshow
1.000 UL
LTb
6749 800 M
0 63 V
0 3876 R
0 -63 V
stroke
6749 550 M
[ [(Helvetica) 250.0 0.0 true true 0 ( 900)]
] -83.3 MCshow
1.000 UL
LTb
1.000 UL
LTb
1225 4739 N
0 -3939 V
5524 0 V
0 3939 V
-5524 0 V
Z stroke
LCb setrgbcolor
200 2769 M
currentpoint gsave translate -270 rotate 0 0 moveto
[ [(Helvetica) 250.0 0.0 true true 0 (Precision)]
] -83.3 MCshow
grestore
LTb
LCb setrgbcolor
3987 175 M
[ [(Helvetica) 250.0 0.0 true true 0 (Alphabet Size)]
] -83.3 MCshow
LTb
1.000 UP
1.000 UL
LTb
% Begin plot #1
1.000 UP
1.000 UL
LT0
1225 4581 Pls
1225 4494 Pls
1225 4739 Pls
1225 4641 Pls
1225 4660 Pls
1225 4739 Pls
1225 4594 Pls
1225 4683 Pls
1225 4739 Pls
1225 4739 Pls
1225 4739 Pls
1225 4581 Pls
1225 4542 Pls
1225 4739 Pls
1225 4739 Pls
1225 4739 Pls
1225 4673 Pls
1225 4739 Pls
1225 4739 Pls
1225 4739 Pls
1225 3459 Pls
1225 4279 Pls
1225 4312 Pls
1225 4739 Pls
1225 2885 Pls
1225 3846 Pls
1225 4345 Pls
1225 4739 Pls
1225 2998 Pls
1225 3984 Pls
1225 4143 Pls
1225 4739 Pls
1225 3095 Pls
1225 2441 Pls
1225 3920 Pls
1225 4739 Pls
1225 3177 Pls
1225 3887 Pls
1225 4129 Pls
1225 4739 Pls
1225 4586 Pls
1225 4618 Pls
1225 4551 Pls
1225 4621 Pls
1225 4739 Pls
1225 4651 Pls
1225 4739 Pls
1225 4711 Pls
1225 4596 Pls
1225 4595 Pls
1225 4739 Pls
1225 4470 Pls
1225 4683 Pls
1225 4739 Pls
1225 4667 Pls
1225 4683 Pls
1225 4581 Pls
1225 4739 Pls
1225 4739 Pls
1225 4641 Pls
1225 2879 Pls
1225 2572 Pls
1225 3229 Pls
1225 3635 Pls
1225 1915 Pls
1225 2570 Pls
1225 2679 Pls
1225 3067 Pls
1225 2127 Pls
1225 2573 Pls
1225 2733 Pls
1225 3349 Pls
1225 1598 Pls
1225 2319 Pls
1225 2545 Pls
1225 3093 Pls
1225 1702 Pls
1225 2100 Pls
1225 2921 Pls
1225 3042 Pls
1225 4673 Pls
1225 4422 Pls
1225 4596 Pls
1225 4560 Pls
1225 4739 Pls
1225 4660 Pls
1225 4660 Pls
1225 4421 Pls
1225 4478 Pls
1225 4310 Pls
1225 4580 Pls
1225 4626 Pls
1225 4626 Pls
1225 4660 Pls
1225 4570 Pls
1225 4739 Pls
1225 4739 Pls
1225 4739 Pls
1225 4651 Pls
1225 4577 Pls
1225 2273 Pls
1225 2230 Pls
1225 2276 Pls
1225 2638 Pls
1225 1565 Pls
1225 1715 Pls
1225 2287 Pls
1225 2301 Pls
1225 1307 Pls
1225 1870 Pls
1225 2040 Pls
1225 2603 Pls
1225 1404 Pls
1225 1631 Pls
1225 2015 Pls
1225 2210 Pls
1225 1223 Pls
1225 1586 Pls
1225 1999 Pls
1225 2329 Pls
1225 4621 Pls
1225 4222 Pls
1225 4678 Pls
1225 4498 Pls
1225 4510 Pls
1225 4296 Pls
1225 4581 Pls
1225 4564 Pls
1225 4595 Pls
1225 4392 Pls
1225 4600 Pls
1225 4667 Pls
1225 4580 Pls
1225 4739 Pls
1225 4596 Pls
1225 4564 Pls
1225 4529 Pls
1225 4690 Pls
1225 4581 Pls
1225 4651 Pls
1225 1556 Pls
1225 1728 Pls
1225 1972 Pls
1225 2023 Pls
1225 1309 Pls
1225 1688 Pls
1225 1818 Pls
1225 1982 Pls
1225 1176 Pls
1225 1400 Pls
1225 1810 Pls
1225 1864 Pls
1225 1124 Pls
1225 1369 Pls
1225 1661 Pls
1225 1782 Pls
1225 1101 Pls
1225 1382 Pls
1225 1506 Pls
1225 1954 Pls
1225 4499 Pls
1225 4497 Pls
1225 3930 Pls
1225 4739 Pls
1225 4739 Pls
1225 4412 Pls
1225 4505 Pls
1225 4618 Pls
1225 4739 Pls
1225 4739 Pls
1225 4739 Pls
1225 4512 Pls
1225 4739 Pls
1225 4739 Pls
1225 4651 Pls
1225 4739 Pls
1225 4581 Pls
1225 4739 Pls
1225 4739 Pls
1225 4524 Pls
1225 1184 Pls
1225 1912 Pls
1225 1529 Pls
1225 1887 Pls
1225 1178 Pls
1225 1400 Pls
1225 1590 Pls
1225 1738 Pls
1225 1136 Pls
1225 1299 Pls
1225 1557 Pls
1225 1563 Pls
1225 1000 Pls
1225 1291 Pls
1225 1399 Pls
1225 1632 Pls
1225 1036 Pls
1225 1231 Pls
1225 1395 Pls
1225 1565 Pls
1916 4739 Pls
1916 4739 Pls
1916 4529 Pls
1916 4608 Pls
1916 4673 Pls
1916 4739 Pls
1916 4739 Pls
1916 4690 Pls
1916 4739 Pls
1916 4626 Pls
1916 4739 Pls
1916 4739 Pls
1916 4739 Pls
1916 4739 Pls
1916 4608 Pls
1916 4739 Pls
1916 4739 Pls
1916 4739 Pls
1916 4739 Pls
1916 4739 Pls
1916 3689 Pls
1916 4188 Pls
1916 4463 Pls
1916 4739 Pls
1916 4444 Pls
1916 4148 Pls
1916 4542 Pls
1916 4739 Pls
1916 3807 Pls
1916 3879 Pls
1916 4272 Pls
1916 4739 Pls
1916 3564 Pls
1916 3721 Pls
1916 4148 Pls
1916 4739 Pls
1916 3259 Pls
1916 4037 Pls
1916 4542 Pls
1916 4739 Pls
1916 4561 Pls
1916 4739 Pls
1916 4700 Pls
1916 4450 Pls
1916 4739 Pls
1916 4520 Pls
1916 4667 Pls
1916 4739 Pls
1916 4739 Pls
1916 4739 Pls
1916 4739 Pls
1916 4739 Pls
1916 4626 Pls
1916 4739 Pls
1916 4739 Pls
1916 4581 Pls
1916 4739 Pls
1916 4739 Pls
1916 4739 Pls
1916 4739 Pls
1916 3991 Pls
1916 2875 Pls
1916 3899 Pls
1916 4153 Pls
1916 3683 Pls
1916 2491 Pls
1916 3351 Pls
1916 3576 Pls
1916 2211 Pls
1916 2737 Pls
1916 2378 Pls
1916 3489 Pls
1916 2286 Pls
1916 2819 Pls
1916 2887 Pls
1916 3786 Pls
1916 1956 Pls
1916 2160 Pls
1916 2567 Pls
1916 3490 Pls
1916 4667 Pls
1916 4690 Pls
1916 4739 Pls
1916 4651 Pls
1916 4564 Pls
1916 4454 Pls
1916 4739 Pls
1916 4624 Pls
1916 4667 Pls
1916 4660 Pls
1916 4651 Pls
1916 4602 Pls
1916 4739 Pls
1916 4739 Pls
1916 4575 Pls
1916 4703 Pls
1916 4739 Pls
1916 4581 Pls
1916 4581 Pls
1916 4739 Pls
1916 2552 Pls
1916 2507 Pls
1916 3623 Pls
1916 2794 Pls
1916 2079 Pls
1916 2385 Pls
1916 2509 Pls
1916 2730 Pls
1916 1439 Pls
1916 2296 Pls
1916 2311 Pls
1916 2781 Pls
1916 1580 Pls
1916 2056 Pls
1916 2001 Pls
1916 2687 Pls
1916 1475 Pls
1916 1838 Pls
1916 2296 Pls
1916 2577 Pls
1916 4374 Pls
1916 4641 Pls
1916 4553 Pls
1916 4497 Pls
1916 4739 Pls
1916 4650 Pls
1916 4567 Pls
1916 4485 Pls
1916 4673 Pls
1916 4589 Pls
1916 4595 Pls
1916 4739 Pls
1916 4626 Pls
1916 4641 Pls
1916 4621 Pls
1916 4739 Pls
1916 4667 Pls
1916 4739 Pls
1916 4739 Pls
1916 4739 Pls
1916 1758 Pls
1916 1999 Pls
1916 1917 Pls
1916 2066 Pls
1916 1466 Pls
1916 1939 Pls
1916 1959 Pls
1916 2599 Pls
1916 1213 Pls
1916 1477 Pls
1916 1918 Pls
1916 1894 Pls
1916 1388 Pls
1916 1547 Pls
1916 1815 Pls
1916 2243 Pls
1916 1263 Pls
1916 1323 Pls
1916 1838 Pls
1916 1919 Pls
1916 4667 Pls
1916 4644 Pls
1916 4656 Pls
1916 4580 Pls
1916 4608 Pls
1916 4570 Pls
1916 4739 Pls
1916 4564 Pls
1916 4469 Pls
1916 4739 Pls
1916 4510 Pls
1916 4711 Pls
1916 4739 Pls
1916 4596 Pls
1916 4530 Pls
1916 4651 Pls
1916 4739 Pls
1916 4739 Pls
1916 4739 Pls
1916 4598 Pls
1916 1543 Pls
1916 1826 Pls
1916 1677 Pls
1916 2533 Pls
1916 1351 Pls
1916 1723 Pls
1916 1654 Pls
1916 2257 Pls
1916 1250 Pls
1916 1487 Pls
1916 1626 Pls
1916 1689 Pls
1916 1087 Pls
1916 1397 Pls
1916 1557 Pls
1916 1719 Pls
1916 1140 Pls
1916 1270 Pls
1916 1501 Pls
1916 1735 Pls
2606 4739 Pls
2606 4739 Pls
2606 4739 Pls
2606 4739 Pls
2606 4739 Pls
2606 4739 Pls
2606 4739 Pls
2606 4739 Pls
2606 4739 Pls
2606 4739 Pls
2606 4739 Pls
2606 4739 Pls
2606 4739 Pls
2606 4641 Pls
2606 4739 Pls
2606 4739 Pls
2606 4739 Pls
2606 4739 Pls
2606 4739 Pls
2606 4739 Pls
2606 4476 Pls
2606 4411 Pls
2606 4444 Pls
2606 4739 Pls
2606 4122 Pls
2606 4056 Pls
2606 4739 Pls
2606 4739 Pls
2606 4214 Pls
2606 4148 Pls
2606 4542 Pls
2606 4739 Pls
2606 3630 Pls
2606 4258 Pls
2606 4608 Pls
2606 4739 Pls
2606 3754 Pls
2606 4312 Pls
2606 4319 Pls
2606 4739 Pls
2606 4739 Pls
2606 4626 Pls
2606 4739 Pls
2606 4739 Pls
2606 4667 Pls
2606 4739 Pls
2606 4739 Pls
2606 4555 Pls
2606 4739 Pls
2606 4739 Pls
2606 4667 Pls
2606 4626 Pls
2606 4739 Pls
2606 4739 Pls
2606 4739 Pls
2606 4739 Pls
2606 4739 Pls
2606 4739 Pls
2606 4739 Pls
2606 4739 Pls
2606 3032 Pls
2606 3262 Pls
2606 3859 Pls
2606 4581 Pls
2606 3285 Pls
2606 3721 Pls
2606 3951 Pls
2606 3689 Pls
2606 2697 Pls
2606 3236 Pls
2606 3513 Pls
2606 3476 Pls
2606 2807 Pls
2606 3544 Pls
2606 3282 Pls
2606 3677 Pls
2606 2165 Pls
2606 2937 Pls
2606 3290 Pls
2606 3458 Pls
2606 4739 Pls
2606 4591 Pls
2606 4608 Pls
2606 4539 Pls
2606 4739 Pls
2606 4651 Pls
2606 4554 Pls
2606 4667 Pls
2606 4539 Pls
2606 4739 Pls
2606 4667 Pls
2606 4706 Pls
2606 4739 Pls
2606 4739 Pls
2606 4739 Pls
2606 4700 Pls
2606 4739 Pls
2606 4739 Pls
2606 4739 Pls
2606 4651 Pls
2606 3124 Pls
2606 2861 Pls
2606 3025 Pls
2606 3610 Pls
2606 1998 Pls
2606 1800 Pls
2606 2350 Pls
2606 2926 Pls
2606 2127 Pls
2606 1968 Pls
2606 2342 Pls
2606 2827 Pls
2606 1830 Pls
2606 2149 Pls
2606 2731 Pls
2606 2690 Pls
2606 1606 Pls
2606 1828 Pls
2606 2232 Pls
2606 2790 Pls
2606 4739 Pls
2606 4608 Pls
2606 4739 Pls
2606 4636 Pls
2606 4739 Pls
2606 4673 Pls
2606 4651 Pls
2606 4739 Pls
2606 4651 Pls
2606 4580 Pls
2606 4651 Pls
2606 4713 Pls
2606 4395 Pls
2606 4739 Pls
2606 4660 Pls
2606 4739 Pls
2606 4739 Pls
2606 4690 Pls
2606 4739 Pls
2606 4596 Pls
2606 2152 Pls
2606 2494 Pls
2606 2902 Pls
2606 3131 Pls
2606 1741 Pls
2606 1829 Pls
2606 2475 Pls
2606 2299 Pls
2606 1707 Pls
2606 2112 Pls
2606 2169 Pls
2606 2106 Pls
2606 1479 Pls
2606 1717 Pls
2606 2010 Pls
2606 2079 Pls
2606 1499 Pls
2606 1885 Pls
2606 1901 Pls
2606 2041 Pls
2606 4474 Pls
2606 4595 Pls
2606 4421 Pls
2606 4739 Pls
2606 4608 Pls
2606 4464 Pls
2606 4739 Pls
2606 4739 Pls
2606 4651 Pls
2606 4739 Pls
2606 4739 Pls
2606 4586 Pls
2606 4739 Pls
2606 4739 Pls
2606 4619 Pls
2606 4356 Pls
2606 4739 Pls
2606 4739 Pls
2606 4739 Pls
2606 4739 Pls
2606 1564 Pls
2606 2391 Pls
2606 1657 Pls
2606 2203 Pls
2606 1414 Pls
2606 1672 Pls
2606 2212 Pls
2606 2091 Pls
2606 1291 Pls
2606 1593 Pls
2606 1747 Pls
2606 1983 Pls
2606 1287 Pls
2606 1564 Pls
2606 1646 Pls
2606 1896 Pls
2606 1249 Pls
2606 1367 Pls
2606 1608 Pls
2606 1731 Pls
3297 4739 Pls
3297 4673 Pls
3297 4739 Pls
3297 4739 Pls
3297 4739 Pls
3297 4739 Pls
3297 4739 Pls
3297 4739 Pls
3297 4673 Pls
3297 4739 Pls
3297 4739 Pls
3297 4739 Pls
3297 4345 Pls
3297 4345 Pls
3297 4739 Pls
3297 4739 Pls
3297 4739 Pls
3297 4739 Pls
3297 4739 Pls
3297 4739 Pls
3297 4476 Pls
3297 4542 Pls
3297 4739 Pls
3297 4739 Pls
3297 3745 Pls
3297 4542 Pls
3297 4739 Pls
3297 4739 Pls
3297 4122 Pls
3297 4109 Pls
3297 4148 Pls
3297 4739 Pls
3297 4251 Pls
3297 4188 Pls
3297 4739 Pls
3297 4739 Pls
3297 3623 Pls
3297 3886 Pls
3297 4345 Pls
3297 4739 Pls
3297 4739 Pls
3297 4626 Pls
3297 4706 Pls
3297 4667 Pls
3297 4739 Pls
3297 4739 Pls
3297 4739 Pls
3297 4596 Pls
3297 4739 Pls
3297 4739 Pls
3297 4739 Pls
3297 4739 Pls
3297 4739 Pls
3297 4739 Pls
3297 4651 Pls
3297 4739 Pls
3297 4739 Pls
3297 4739 Pls
3297 4739 Pls
3297 4739 Pls
3297 4148 Pls
3297 3347 Pls
3297 3925 Pls
3297 4082 Pls
3297 2846 Pls
3297 3657 Pls
3297 4591 Pls
3297 4495 Pls
3297 2513 Pls
3297 3694 Pls
3297 4012 Pls
3297 3940 Pls
3297 3488 Pls
3297 3137 Pls
3297 3981 Pls
3297 4161 Pls
3297 2875 Pls
3297 3337 Pls
3297 3415 Pls
3297 3933 Pls
3297 4616 Pls
3297 4424 Pls
3297 4739 Pls
3297 4739 Pls
3297 4739 Pls
3297 4739 Pls
3297 4739 Pls
3297 4739 Pls
3297 4581 Pls
3297 4739 Pls
3297 4651 Pls
3297 4667 Pls
3297 4739 Pls
3297 4739 Pls
3297 4739 Pls
3297 4695 Pls
3297 4739 Pls
3297 4626 Pls
3297 4739 Pls
3297 4739 Pls
3297 2786 Pls
3297 3253 Pls
3297 3424 Pls
3297 3597 Pls
3297 2588 Pls
3297 3255 Pls
3297 3075 Pls
3297 3028 Pls
3297 2353 Pls
3297 2198 Pls
3297 2724 Pls
3297 2925 Pls
3297 1934 Pls
3297 2822 Pls
3297 2495 Pls
3297 2775 Pls
3297 1732 Pls
3297 1904 Pls
3297 2699 Pls
3297 2725 Pls
3297 4739 Pls
3297 4683 Pls
3297 4539 Pls
3297 4553 Pls
3297 4739 Pls
3297 4370 Pls
3297 4349 Pls
3297 4610 Pls
3297 4739 Pls
3297 4690 Pls
3297 4739 Pls
3297 4667 Pls
3297 4739 Pls
3297 4678 Pls
3297 4739 Pls
3297 4626 Pls
3297 4651 Pls
3297 4551 Pls
3297 4739 Pls
3297 4611 Pls
3297 2479 Pls
3297 2258 Pls
3297 2794 Pls
3297 3076 Pls
3297 1894 Pls
3297 2282 Pls
3297 2411 Pls
3297 2646 Pls
3297 1722 Pls
3297 2312 Pls
3297 2100 Pls
3297 2302 Pls
3297 1486 Pls
3297 1758 Pls
3297 2146 Pls
3297 2203 Pls
3297 1656 Pls
3297 2247 Pls
3297 1979 Pls
3297 2132 Pls
3297 4739 Pls
3297 4646 Pls
3297 4686 Pls
3297 4636 Pls
3297 4739 Pls
3297 4683 Pls
3297 4686 Pls
3297 4693 Pls
3297 4673 Pls
3297 4683 Pls
3297 4596 Pls
3297 4596 Pls
3297 4739 Pls
3297 4739 Pls
3297 4739 Pls
3297 4739 Pls
3297 4739 Pls
3297 4476 Pls
3297 4739 Pls
3297 4739 Pls
3297 2212 Pls
3297 2446 Pls
3297 2433 Pls
3297 3034 Pls
3297 1522 Pls
3297 1954 Pls
3297 2266 Pls
3297 2061 Pls
3297 1493 Pls
3297 1661 Pls
3297 1999 Pls
3297 2236 Pls
3297 1298 Pls
3297 1723 Pls
3297 1927 Pls
3297 1938 Pls
3297 1264 Pls
3297 1555 Pls
3297 1912 Pls
3297 1767 Pls
3987 4739 Pls
3987 4739 Pls
3987 4739 Pls
3987 4739 Pls
3987 4739 Pls
3987 4739 Pls
3987 4739 Pls
3987 4739 Pls
3987 4739 Pls
3987 4739 Pls
3987 4651 Pls
3987 4739 Pls
3987 4739 Pls
3987 4739 Pls
3987 4739 Pls
3987 4739 Pls
3987 4739 Pls
3987 4739 Pls
3987 4739 Pls
3987 4739 Pls
3987 4345 Pls
3987 4739 Pls
3987 4739 Pls
3987 4739 Pls
3987 4148 Pls
3987 4608 Pls
3987 4739 Pls
3987 4739 Pls
3987 4739 Pls
3987 4739 Pls
3987 4739 Pls
3987 4739 Pls
3987 4444 Pls
3987 3853 Pls
3987 4312 Pls
3987 4739 Pls
3987 3892 Pls
3987 4345 Pls
3987 4739 Pls
3987 4739 Pls
3987 4739 Pls
3987 4739 Pls
3987 4739 Pls
3987 4683 Pls
3987 4739 Pls
3987 4739 Pls
3987 4690 Pls
3987 4739 Pls
3987 4651 Pls
3987 4739 Pls
3987 4739 Pls
3987 4739 Pls
3987 4739 Pls
3987 4641 Pls
3987 4690 Pls
3987 4739 Pls
3987 4739 Pls
3987 4739 Pls
3987 4739 Pls
3987 4739 Pls
3987 4608 Pls
3987 4279 Pls
3987 4345 Pls
3987 4181 Pls
3987 3410 Pls
3987 4115 Pls
3987 4285 Pls
3987 4154 Pls
3987 3163 Pls
3987 3318 Pls
3987 3679 Pls
3987 3698 Pls
3987 3295 Pls
3987 3881 Pls
3987 3497 Pls
3987 3773 Pls
3987 2890 Pls
3987 3133 Pls
3987 3379 Pls
3987 3569 Pls
3987 4739 Pls
3987 4739 Pls
3987 4667 Pls
3987 4739 Pls
3987 4739 Pls
3987 4510 Pls
3987 4686 Pls
3987 4645 Pls
3987 4739 Pls
3987 4678 Pls
3987 4608 Pls
3987 4739 Pls
3987 4739 Pls
3987 4739 Pls
3987 4739 Pls
3987 4739 Pls
3987 4739 Pls
3987 4739 Pls
3987 4667 Pls
3987 4739 Pls
3987 3610 Pls
3987 3362 Pls
3987 3308 Pls
3987 4469 Pls
3987 3174 Pls
3987 3652 Pls
3987 3315 Pls
3987 3042 Pls
3987 1894 Pls
3987 3243 Pls
3987 2911 Pls
3987 2901 Pls
3987 2568 Pls
3987 2652 Pls
3987 2622 Pls
3987 3465 Pls
3987 2445 Pls
3987 2586 Pls
3987 2752 Pls
3987 2589 Pls
3987 4739 Pls
3987 4667 Pls
3987 4739 Pls
3987 4739 Pls
3987 4673 Pls
3987 4739 Pls
3987 4739 Pls
3987 4646 Pls
3987 4641 Pls
3987 4739 Pls
3987 4667 Pls
3987 4739 Pls
3987 4739 Pls
3987 4580 Pls
3987 4640 Pls
3987 4739 Pls
3987 4739 Pls
3987 4739 Pls
3987 4739 Pls
3987 4739 Pls
3987 3032 Pls
3987 3252 Pls
3987 3124 Pls
3987 2547 Pls
3987 2071 Pls
3987 2492 Pls
3987 2148 Pls
3987 3080 Pls
3987 1760 Pls
3987 2259 Pls
3987 2609 Pls
3987 2867 Pls
3987 1808 Pls
3987 2030 Pls
3987 2195 Pls
3987 2525 Pls
3987 1588 Pls
3987 2133 Pls
3987 2060 Pls
3987 2266 Pls
3987 4739 Pls
3987 4739 Pls
3987 4621 Pls
3987 4535 Pls
3987 4739 Pls
3987 4739 Pls
3987 4739 Pls
3987 4739 Pls
3987 4739 Pls
3987 4739 Pls
3987 4646 Pls
3987 4739 Pls
3987 4660 Pls
3987 4678 Pls
3987 4739 Pls
3987 4739 Pls
3987 4608 Pls
3987 4739 Pls
3987 4739 Pls
3987 4739 Pls
3987 2113 Pls
3987 3170 Pls
3987 2857 Pls
3987 2362 Pls
3987 1522 Pls
3987 2377 Pls
3987 2211 Pls
3987 2659 Pls
3987 1611 Pls
3987 2019 Pls
3987 1923 Pls
3987 2300 Pls
3987 1427 Pls
3987 1799 Pls
3987 1765 Pls
3987 2004 Pls
3987 1279 Pls
3987 1716 Pls
3987 1846 Pls
3987 2087 Pls
4678 4739 Pls
4678 4739 Pls
4678 4739 Pls
4678 4739 Pls
4678 4739 Pls
4678 4739 Pls
4678 4739 Pls
4678 4739 Pls
4678 4739 Pls
4678 4739 Pls
4678 4739 Pls
4678 4739 Pls
4678 4739 Pls
4678 4739 Pls
4678 4739 Pls
4678 4739 Pls
4678 4739 Pls
4678 4739 Pls
4678 4739 Pls
4678 4739 Pls
4678 4542 Pls
4678 4739 Pls
4678 4739 Pls
4678 4739 Pls
4678 4739 Pls
4678 4739 Pls
4678 4739 Pls
4678 4739 Pls
4678 4660 Pls
4678 4641 Pls
4678 4739 Pls
4678 4739 Pls
4678 4608 Pls
4678 4641 Pls
4678 4739 Pls
4678 4739 Pls
4678 4148 Pls
4678 4286 Pls
4678 4345 Pls
4678 4739 Pls
4678 4739 Pls
4678 4739 Pls
4678 4739 Pls
4678 4706 Pls
4678 4583 Pls
4678 4524 Pls
4678 4739 Pls
4678 4739 Pls
4678 4739 Pls
4678 4739 Pls
4678 4651 Pls
4678 4739 Pls
4678 4739 Pls
4678 4739 Pls
4678 4739 Pls
4678 4739 Pls
4678 4739 Pls
4678 4739 Pls
4678 4739 Pls
4678 4739 Pls
4678 4056 Pls
4678 4542 Pls
4678 3925 Pls
4678 4220 Pls
4678 4641 Pls
4678 4082 Pls
4678 3689 Pls
4678 4017 Pls
4678 3646 Pls
4678 4089 Pls
4678 3869 Pls
4678 4420 Pls
4678 3820 Pls
4678 3155 Pls
4678 4509 Pls
4678 3931 Pls
4678 3214 Pls
4678 3218 Pls
4678 3602 Pls
4678 3783 Pls
4678 4651 Pls
4678 4739 Pls
4678 4739 Pls
4678 4559 Pls
4678 4739 Pls
4678 4625 Pls
4678 4739 Pls
4678 4739 Pls
4678 4739 Pls
4678 4739 Pls
4678 4739 Pls
4678 4739 Pls
4678 4739 Pls
4678 4739 Pls
4678 4739 Pls
4678 4739 Pls
4678 4739 Pls
4678 4626 Pls
4678 4739 Pls
4678 4739 Pls
4678 4069 Pls
4678 3131 Pls
4678 3879 Pls
4678 3984 Pls
4678 3050 Pls
4678 3155 Pls
4678 3345 Pls
4678 3225 Pls
4678 4054 Pls
4678 2498 Pls
4678 3615 Pls
4678 3117 Pls
4678 2486 Pls
4678 3107 Pls
4678 3440 Pls
4678 3150 Pls
4678 2035 Pls
4678 2312 Pls
4678 2656 Pls
4678 3170 Pls
4678 4660 Pls
4678 4559 Pls
4678 4739 Pls
4678 4739 Pls
4678 4739 Pls
4678 4739 Pls
4678 4739 Pls
4678 4739 Pls
4678 4739 Pls
4678 4678 Pls
4678 4739 Pls
4678 4739 Pls
4678 4739 Pls
4678 4739 Pls
4678 4678 Pls
4678 4686 Pls
4678 4739 Pls
4678 4739 Pls
4678 4739 Pls
4678 4739 Pls
4678 2912 Pls
4678 2879 Pls
4678 3204 Pls
4678 3912 Pls
4678 2493 Pls
4678 2796 Pls
4678 2794 Pls
4678 2890 Pls
4678 2320 Pls
4678 2540 Pls
4678 2342 Pls
4678 2699 Pls
4678 2428 Pls
4678 2037 Pls
4678 2686 Pls
4678 2793 Pls
4678 1802 Pls
4678 2139 Pls
4678 2251 Pls
4678 2377 Pls
4678 4739 Pls
4678 4739 Pls
4678 4651 Pls
4678 4651 Pls
4678 4739 Pls
4678 4739 Pls
4678 4739 Pls
4678 4650 Pls
4678 4673 Pls
4678 4667 Pls
4678 4739 Pls
4678 4739 Pls
4678 4739 Pls
4678 4651 Pls
4678 4739 Pls
4678 4646 Pls
4678 4739 Pls
4678 4739 Pls
4678 4739 Pls
4678 4678 Pls
4678 2389 Pls
4678 2722 Pls
4678 2724 Pls
4678 2966 Pls
4678 1945 Pls
4678 2268 Pls
4678 2210 Pls
4678 2789 Pls
4678 2055 Pls
4678 2057 Pls
4678 2171 Pls
4678 2641 Pls
4678 1632 Pls
4678 1981 Pls
4678 1650 Pls
4678 2294 Pls
4678 1609 Pls
4678 1995 Pls
4678 1999 Pls
4678 2349 Pls
5368 4739 Pls
5368 4739 Pls
5368 4706 Pls
5368 4739 Pls
5368 4673 Pls
5368 4739 Pls
5368 4700 Pls
5368 4739 Pls
5368 4739 Pls
5368 4739 Pls
5368 4739 Pls
5368 4739 Pls
5368 4739 Pls
5368 4739 Pls
5368 4739 Pls
5368 4739 Pls
5368 4739 Pls
5368 4739 Pls
5368 4739 Pls
5368 4739 Pls
5368 4608 Pls
5368 4345 Pls
5368 4739 Pls
5368 4739 Pls
5368 4050 Pls
5368 4739 Pls
5368 4542 Pls
5368 4739 Pls
5368 4450 Pls
5368 4608 Pls
5368 4739 Pls
5368 4739 Pls
5368 4739 Pls
5368 4739 Pls
5368 4188 Pls
5368 4739 Pls
5368 4188 Pls
5368 4383 Pls
5368 4148 Pls
5368 4739 Pls
5368 4651 Pls
5368 4686 Pls
5368 4739 Pls
5368 4739 Pls
5368 4739 Pls
5368 4739 Pls
5368 4739 Pls
5368 4739 Pls
5368 4739 Pls
5368 4739 Pls
5368 4739 Pls
5368 4739 Pls
5368 4739 Pls
5368 4739 Pls
5368 4739 Pls
5368 4739 Pls
5368 4739 Pls
5368 4739 Pls
5368 4739 Pls
5368 4739 Pls
5368 3794 Pls
5368 4279 Pls
5368 4542 Pls
5368 4214 Pls
5368 4345 Pls
5368 4476 Pls
5368 4056 Pls
5368 3872 Pls
5368 3273 Pls
5368 2754 Pls
5368 3962 Pls
5368 4739 Pls
5368 3557 Pls
5368 3107 Pls
5368 4082 Pls
5368 4089 Pls
5368 3518 Pls
5368 3523 Pls
5368 3323 Pls
5368 4237 Pls
5368 4739 Pls
5368 4714 Pls
5368 4739 Pls
5368 4678 Pls
5368 4739 Pls
5368 4739 Pls
5368 4739 Pls
5368 4706 Pls
5368 4739 Pls
5368 4739 Pls
5368 4739 Pls
5368 4667 Pls
5368 4739 Pls
5368 4739 Pls
5368 4739 Pls
5368 4476 Pls
5368 4739 Pls
5368 4739 Pls
5368 4739 Pls
5368 4739 Pls
5368 4082 Pls
5368 4188 Pls
5368 4109 Pls
5368 3636 Pls
5368 2927 Pls
5368 3689 Pls
5368 3354 Pls
5368 3019 Pls
5368 3279 Pls
5368 3247 Pls
5368 3762 Pls
5368 3477 Pls
5368 2803 Pls
5368 2834 Pls
5368 2979 Pls
5368 2538 Pls
5368 2383 Pls
5368 2331 Pls
5368 2675 Pls
5368 3109 Pls
5368 4739 Pls
5368 4706 Pls
5368 4739 Pls
5368 4678 Pls
5368 4651 Pls
5368 4739 Pls
5368 4673 Pls
5368 4739 Pls
5368 4632 Pls
5368 4739 Pls
5368 4739 Pls
5368 4678 Pls
5368 4739 Pls
5368 4739 Pls
5368 4739 Pls
5368 4739 Pls
5368 4739 Pls
5368 4739 Pls
5368 4739 Pls
5368 4739 Pls
5368 2577 Pls
5368 4056 Pls
5368 3331 Pls
5368 3658 Pls
5368 2733 Pls
5368 1980 Pls
5368 3088 Pls
5368 3560 Pls
5368 2294 Pls
5368 2185 Pls
5368 3021 Pls
5368 3128 Pls
5368 1967 Pls
5368 2329 Pls
5368 2178 Pls
5368 2861 Pls
5368 2038 Pls
5368 2223 Pls
5368 2378 Pls
5368 3014 Pls
5368 4739 Pls
5368 4739 Pls
5368 4678 Pls
5368 4739 Pls
5368 4660 Pls
5368 4549 Pls
5368 4739 Pls
5368 4607 Pls
5368 4667 Pls
5368 4700 Pls
5368 4739 Pls
5368 4739 Pls
5368 4739 Pls
5368 4739 Pls
5368 4651 Pls
5368 4739 Pls
5368 4641 Pls
5368 4739 Pls
5368 4651 Pls
5368 4739 Pls
5368 2840 Pls
5368 2656 Pls
5368 3451 Pls
5368 2619 Pls
5368 1944 Pls
5368 2166 Pls
5368 2184 Pls
5368 3067 Pls
5368 1822 Pls
5368 2182 Pls
5368 2256 Pls
5368 2435 Pls
5368 1701 Pls
5368 2033 Pls
5368 1831 Pls
5368 2322 Pls
5368 1467 Pls
5368 1934 Pls
5368 2004 Pls
5368 2500 Pls
6059 4739 Pls
6059 4739 Pls
6059 4739 Pls
6059 4739 Pls
6059 4739 Pls
6059 4739 Pls
6059 4739 Pls
6059 4739 Pls
6059 4739 Pls
6059 4739 Pls
6059 4739 Pls
6059 4739 Pls
6059 4739 Pls
6059 4739 Pls
6059 4739 Pls
6059 4739 Pls
6059 4739 Pls
6059 4739 Pls
6059 4739 Pls
6059 4739 Pls
6059 4739 Pls
6059 4739 Pls
6059 4739 Pls
6059 4739 Pls
6059 4345 Pls
6059 4542 Pls
6059 4542 Pls
6059 4739 Pls
6059 4476 Pls
6059 4581 Pls
6059 4739 Pls
6059 4739 Pls
6059 3984 Pls
6059 3951 Pls
6059 4739 Pls
6059 4739 Pls
6059 4739 Pls
6059 4135 Pls
6059 4617 Pls
6059 4739 Pls
6059 4739 Pls
6059 4739 Pls
6059 4739 Pls
6059 4651 Pls
6059 4739 Pls
6059 4739 Pls
6059 4651 Pls
6059 4739 Pls
6059 4739 Pls
6059 4739 Pls
6059 4739 Pls
6059 4667 Pls
6059 4739 Pls
6059 4739 Pls
6059 4739 Pls
6059 4739 Pls
6059 4739 Pls
6059 4739 Pls
6059 4739 Pls
6059 4739 Pls
6059 4542 Pls
6059 4739 Pls
6059 4542 Pls
6059 4739 Pls
6059 3721 Pls
6059 3224 Pls
6059 4345 Pls
6059 4570 Pls
6059 3131 Pls
6059 3859 Pls
6059 4050 Pls
6059 3794 Pls
6059 4010 Pls
6059 3947 Pls
6059 4185 Pls
6059 4148 Pls
6059 3997 Pls
6059 3937 Pls
6059 3756 Pls
6059 3646 Pls
6059 4739 Pls
6059 4739 Pls
6059 4739 Pls
6059 4667 Pls
6059 4739 Pls
6059 4651 Pls
6059 4626 Pls
6059 4678 Pls
6059 4739 Pls
6059 4739 Pls
6059 4739 Pls
6059 4651 Pls
6059 4739 Pls
6059 4739 Pls
6059 4739 Pls
6059 4739 Pls
6059 4739 Pls
6059 4739 Pls
6059 4739 Pls
6059 4739 Pls
6059 3767 Pls
6059 4122 Pls
6059 4214 Pls
6059 4476 Pls
6059 3205 Pls
6059 3329 Pls
6059 3556 Pls
6059 4174 Pls
6059 3065 Pls
6059 3235 Pls
6059 3239 Pls
6059 3533 Pls
6059 2610 Pls
6059 3129 Pls
6059 2973 Pls
6059 3177 Pls
6059 2841 Pls
6059 2582 Pls
6059 3064 Pls
6059 3170 Pls
6059 4609 Pls
6059 4739 Pls
6059 4678 Pls
6059 4739 Pls
6059 4739 Pls
6059 4690 Pls
6059 4739 Pls
6059 4695 Pls
6059 4739 Pls
6059 4651 Pls
6059 4739 Pls
6059 4539 Pls
6059 4739 Pls
6059 4739 Pls
6059 4739 Pls
6059 4739 Pls
6059 4739 Pls
6059 4739 Pls
6059 4667 Pls
6059 4739 Pls
6059 3489 Pls
6059 3345 Pls
6059 3096 Pls
6059 2960 Pls
6059 2707 Pls
6059 2899 Pls
6059 2920 Pls
6059 2938 Pls
6059 2305 Pls
6059 2481 Pls
6059 2469 Pls
6059 2961 Pls
6059 2116 Pls
6059 2582 Pls
6059 2570 Pls
6059 2668 Pls
6059 2025 Pls
6059 2478 Pls
6059 2647 Pls
6059 2570 Pls
6059 4673 Pls
6059 4597 Pls
6059 4678 Pls
6059 4695 Pls
6059 4667 Pls
6059 4739 Pls
6059 4739 Pls
6059 4686 Pls
6059 4739 Pls
6059 4739 Pls
6059 4739 Pls
6059 4678 Pls
6059 4739 Pls
6059 4739 Pls
6059 4739 Pls
6059 4739 Pls
6059 4739 Pls
6059 4739 Pls
6059 4739 Pls
6059 4739 Pls
6059 3407 Pls
6059 3062 Pls
6059 2515 Pls
6059 2399 Pls
6059 1851 Pls
6059 3257 Pls
6059 1918 Pls
6059 2700 Pls
6059 1907 Pls
6059 2276 Pls
6059 2302 Pls
6059 2151 Pls
6059 1674 Pls
6059 2210 Pls
6059 2555 Pls
6059 2220 Pls
6059 1601 Pls
6059 1546 Pls
6059 2176 Pls
6059 2516 Pls
6749 4739 Pls
6749 4739 Pls
6749 4695 Pls
6749 4739 Pls
6749 4739 Pls
6749 4739 Pls
6749 4739 Pls
6749 4739 Pls
6749 4739 Pls
6749 4739 Pls
6749 4626 Pls
6749 4739 Pls
6749 4739 Pls
6749 4739 Pls
6749 4542 Pls
6749 4739 Pls
6749 4739 Pls
6749 4739 Pls
6749 4739 Pls
6749 4739 Pls
6749 4476 Pls
6749 4739 Pls
6749 4739 Pls
6749 4739 Pls
6749 4739 Pls
6749 4739 Pls
6749 4739 Pls
6749 4739 Pls
6749 4608 Pls
6749 4444 Pls
6749 4542 Pls
6749 4739 Pls
6749 4227 Pls
6749 4214 Pls
6749 4739 Pls
6749 4739 Pls
6749 4739 Pls
6749 4739 Pls
6749 4542 Pls
6749 4739 Pls
6749 4667 Pls
6749 4739 Pls
6749 4686 Pls
6749 4739 Pls
6749 4695 Pls
6749 4683 Pls
6749 4739 Pls
6749 4739 Pls
6749 4651 Pls
6749 4739 Pls
6749 4667 Pls
6749 4739 Pls
6749 4739 Pls
6749 4739 Pls
6749 4739 Pls
6749 4739 Pls
6749 4739 Pls
6749 4660 Pls
6749 4739 Pls
6749 4739 Pls
6749 4476 Pls
6749 4319 Pls
6749 4279 Pls
6749 4739 Pls
6749 3886 Pls
6749 3833 Pls
6749 4188 Pls
6749 4043 Pls
6749 3991 Pls
6749 3991 Pls
6749 4424 Pls
6749 4312 Pls
6749 3767 Pls
6749 4088 Pls
6749 3538 Pls
6749 4279 Pls
6749 3288 Pls
6749 3492 Pls
6749 4045 Pls
6749 3786 Pls
6749 4739 Pls
6749 4739 Pls
6749 4739 Pls
6749 4739 Pls
6749 4739 Pls
6749 4739 Pls
6749 4667 Pls
6749 4739 Pls
6749 4739 Pls
6749 4739 Pls
6749 4651 Pls
6749 4673 Pls
6749 4739 Pls
6749 4739 Pls
6749 4739 Pls
6749 4739 Pls
6749 4739 Pls
6749 4739 Pls
6749 4739 Pls
6749 4739 Pls
6749 4384 Pls
6749 4319 Pls
6749 3767 Pls
6749 3820 Pls
6749 3468 Pls
6749 3584 Pls
6749 3679 Pls
6749 4129 Pls
6749 3216 Pls
6749 3796 Pls
6749 3835 Pls
6749 3557 Pls
6749 3140 Pls
6749 3248 Pls
6749 3617 Pls
6749 2892 Pls
6749 2468 Pls
6749 2680 Pls
6749 3290 Pls
6749 3849 Pls
6749 4739 Pls
6749 4739 Pls
6749 4739 Pls
6749 4637 Pls
6749 4660 Pls
6749 4700 Pls
6749 4739 Pls
6749 4739 Pls
6749 4739 Pls
6749 4739 Pls
6749 4739 Pls
6749 4739 Pls
6749 4739 Pls
6749 4739 Pls
6749 4739 Pls
6749 4739 Pls
6749 4739 Pls
6749 4739 Pls
6749 4739 Pls
6749 4739 Pls
6749 3229 Pls
6749 3728 Pls
6749 3907 Pls
6749 3792 Pls
6749 3053 Pls
6749 2714 Pls
6749 3352 Pls
6749 3183 Pls
6749 2827 Pls
6749 2621 Pls
6749 3070 Pls
6749 3343 Pls
6749 2448 Pls
6749 3050 Pls
6749 2866 Pls
6749 3219 Pls
6749 1764 Pls
6749 2215 Pls
6749 2549 Pls
6749 3191 Pls
6749 4626 Pls
6749 4678 Pls
6749 4651 Pls
6749 4739 Pls
6749 4648 Pls
6749 4667 Pls
6749 4739 Pls
6749 4739 Pls
6749 4667 Pls
6749 4739 Pls
6749 4686 Pls
6749 4739 Pls
6749 4667 Pls
6749 4626 Pls
6749 4739 Pls
6749 4739 Pls
6749 4739 Pls
6749 4739 Pls
6749 4739 Pls
6749 4739 Pls
6749 3267 Pls
6749 3144 Pls
6749 3158 Pls
6749 3364 Pls
6749 2088 Pls
6749 2199 Pls
6749 3448 Pls
6749 2870 Pls
6749 2294 Pls
6749 1987 Pls
6749 2427 Pls
6749 2793 Pls
6749 2015 Pls
6749 2311 Pls
6749 2010 Pls
6749 2516 Pls
6749 1865 Pls
6749 1759 Pls
6749 2064 Pls
6749 2374 Pls
% End plot #1
% Begin plot #2
1.000 UL
LT1
LCb setrgbcolor
5636 1488 M
[ [(Helvetica) 250.0 0.0 true true 0 (Average)]
] -83.3 MRshow
LT1
5786 1488 M
663 0 V
1225 3467 M
691 161 V
690 115 V
691 91 V
690 98 V
691 84 V
690 9 V
691 36 V
690 70 V
% End plot #2
% Begin plot #3
stroke
LT2
LCb setrgbcolor
5636 1238 M
[ [(Helvetica) 250.0 0.0 true true 0 (Min)]
] -83.3 MRshow
LT2
5786 1238 M
663 0 V
1225 1000 M
691 87 V
690 162 V
691 15 V
690 15 V
691 330 V
690 -142 V
691 79 V
690 213 V
% End plot #3
% Begin plot #4
stroke
LT3
LCb setrgbcolor
5636 988 M
[ [(Helvetica) 250.0 0.0 true true 0 (Max)]
] -83.3 MRshow
LT3
5786 988 M
663 0 V
1225 4739 M
691 0 V
690 0 V
691 0 V
690 0 V
691 0 V
690 0 V
691 0 V
690 0 V
% End plot #4
stroke
LTb
1225 4739 N
0 -3939 V
5524 0 V
0 3939 V
-5524 0 V
Z stroke
1.000 UP
1.000 UL
LTb
stroke
grestore
end
showpage
%%Trailer
%%DocumentFonts: Helvetica
