%!PS-Adobe-2.0 EPSF-2.0
%%Title: n_alphabet_size_1000.f1.eps
%%Creator: gnuplot 4.4 patchlevel 3
%%CreationDate: Tue Jun  4 12:58:03 2013
%%DocumentFonts: (atend)
%%BoundingBox: 50 50 410 302
%%EndComments
%%BeginProlog
/gnudict 256 dict def
gnudict begin
%
% The following true/false flags may be edited by hand if desired.
% The unit line width and grayscale image gamma correction may also be changed.
%
/Color true def
/Blacktext false def
/Solid false def
/Dashlength 1 def
/Landscape false def
/Level1 false def
/Rounded false def
/ClipToBoundingBox false def
/TransparentPatterns false def
/gnulinewidth 5.000 def
/userlinewidth gnulinewidth def
/Gamma 1.0 def
%
/vshift -83 def
/dl1 {
  10.0 Dashlength mul mul
  Rounded { currentlinewidth 0.75 mul sub dup 0 le { pop 0.01 } if } if
} def
/dl2 {
  10.0 Dashlength mul mul
  Rounded { currentlinewidth 0.75 mul add } if
} def
/hpt_ 31.5 def
/vpt_ 31.5 def
/hpt hpt_ def
/vpt vpt_ def
Level1 {} {
/SDict 10 dict def
systemdict /pdfmark known not {
  userdict /pdfmark systemdict /cleartomark get put
} if
SDict begin [
  /Title (n_alphabet_size_1000.f1.eps)
  /Subject (gnuplot plot)
  /Creator (gnuplot 4.4 patchlevel 3)
  /Author (xjia)
%  /Producer (gnuplot)
%  /Keywords ()
  /CreationDate (Tue Jun  4 12:58:03 2013)
  /DOCINFO pdfmark
end
} ifelse
/doclip {
  ClipToBoundingBox {
    newpath 50 50 moveto 410 50 lineto 410 302 lineto 50 302 lineto closepath
    clip
  } if
} def
%
% Gnuplot Prolog Version 4.4 (August 2010)
%
%/SuppressPDFMark true def
%
/M {moveto} bind def
/L {lineto} bind def
/R {rmoveto} bind def
/V {rlineto} bind def
/N {newpath moveto} bind def
/Z {closepath} bind def
/C {setrgbcolor} bind def
/f {rlineto fill} bind def
/g {setgray} bind def
/Gshow {show} def   % May be redefined later in the file to support UTF-8
/vpt2 vpt 2 mul def
/hpt2 hpt 2 mul def
/Lshow {currentpoint stroke M 0 vshift R 
	Blacktext {gsave 0 setgray show grestore} {show} ifelse} def
/Rshow {currentpoint stroke M dup stringwidth pop neg vshift R
	Blacktext {gsave 0 setgray show grestore} {show} ifelse} def
/Cshow {currentpoint stroke M dup stringwidth pop -2 div vshift R 
	Blacktext {gsave 0 setgray show grestore} {show} ifelse} def
/UP {dup vpt_ mul /vpt exch def hpt_ mul /hpt exch def
  /hpt2 hpt 2 mul def /vpt2 vpt 2 mul def} def
/DL {Color {setrgbcolor Solid {pop []} if 0 setdash}
 {pop pop pop 0 setgray Solid {pop []} if 0 setdash} ifelse} def
/BL {stroke userlinewidth 2 mul setlinewidth
	Rounded {1 setlinejoin 1 setlinecap} if} def
/AL {stroke userlinewidth 2 div setlinewidth
	Rounded {1 setlinejoin 1 setlinecap} if} def
/UL {dup gnulinewidth mul /userlinewidth exch def
	dup 1 lt {pop 1} if 10 mul /udl exch def} def
/PL {stroke userlinewidth setlinewidth
	Rounded {1 setlinejoin 1 setlinecap} if} def
3.8 setmiterlimit
% Default Line colors
/LCw {1 1 1} def
/LCb {0 0 0} def
/LCa {0 0 0} def
/LC0 {1 0 0} def
/LC1 {0 1 0} def
/LC2 {0 0 1} def
/LC3 {1 0 1} def
/LC4 {0 1 1} def
/LC5 {1 1 0} def
/LC6 {0 0 0} def
/LC7 {1 0.3 0} def
/LC8 {0.5 0.5 0.5} def
% Default Line Types
/LTw {PL [] 1 setgray} def
/LTb {BL [] LCb DL} def
/LTa {AL [1 udl mul 2 udl mul] 0 setdash LCa setrgbcolor} def
/LT0 {PL [] LC0 DL} def
/LT1 {PL [4 dl1 2 dl2] LC1 DL} def
/LT2 {PL [2 dl1 3 dl2] LC2 DL} def
/LT3 {PL [1 dl1 1.5 dl2] LC3 DL} def
/LT4 {PL [6 dl1 2 dl2 1 dl1 2 dl2] LC4 DL} def
/LT5 {PL [3 dl1 3 dl2 1 dl1 3 dl2] LC5 DL} def
/LT6 {PL [2 dl1 2 dl2 2 dl1 6 dl2] LC6 DL} def
/LT7 {PL [1 dl1 2 dl2 6 dl1 2 dl2 1 dl1 2 dl2] LC7 DL} def
/LT8 {PL [2 dl1 2 dl2 2 dl1 2 dl2 2 dl1 2 dl2 2 dl1 4 dl2] LC8 DL} def
/Pnt {stroke [] 0 setdash gsave 1 setlinecap M 0 0 V stroke grestore} def
/Dia {stroke [] 0 setdash 2 copy vpt add M
  hpt neg vpt neg V hpt vpt neg V
  hpt vpt V hpt neg vpt V closepath stroke
  Pnt} def
/Pls {stroke [] 0 setdash vpt sub M 0 vpt2 V
  currentpoint stroke M
  hpt neg vpt neg R hpt2 0 V stroke
 } def
/Box {stroke [] 0 setdash 2 copy exch hpt sub exch vpt add M
  0 vpt2 neg V hpt2 0 V 0 vpt2 V
  hpt2 neg 0 V closepath stroke
  Pnt} def
/Crs {stroke [] 0 setdash exch hpt sub exch vpt add M
  hpt2 vpt2 neg V currentpoint stroke M
  hpt2 neg 0 R hpt2 vpt2 V stroke} def
/TriU {stroke [] 0 setdash 2 copy vpt 1.12 mul add M
  hpt neg vpt -1.62 mul V
  hpt 2 mul 0 V
  hpt neg vpt 1.62 mul V closepath stroke
  Pnt} def
/Star {2 copy Pls Crs} def
/BoxF {stroke [] 0 setdash exch hpt sub exch vpt add M
  0 vpt2 neg V hpt2 0 V 0 vpt2 V
  hpt2 neg 0 V closepath fill} def
/TriUF {stroke [] 0 setdash vpt 1.12 mul add M
  hpt neg vpt -1.62 mul V
  hpt 2 mul 0 V
  hpt neg vpt 1.62 mul V closepath fill} def
/TriD {stroke [] 0 setdash 2 copy vpt 1.12 mul sub M
  hpt neg vpt 1.62 mul V
  hpt 2 mul 0 V
  hpt neg vpt -1.62 mul V closepath stroke
  Pnt} def
/TriDF {stroke [] 0 setdash vpt 1.12 mul sub M
  hpt neg vpt 1.62 mul V
  hpt 2 mul 0 V
  hpt neg vpt -1.62 mul V closepath fill} def
/DiaF {stroke [] 0 setdash vpt add M
  hpt neg vpt neg V hpt vpt neg V
  hpt vpt V hpt neg vpt V closepath fill} def
/Pent {stroke [] 0 setdash 2 copy gsave
  translate 0 hpt M 4 {72 rotate 0 hpt L} repeat
  closepath stroke grestore Pnt} def
/PentF {stroke [] 0 setdash gsave
  translate 0 hpt M 4 {72 rotate 0 hpt L} repeat
  closepath fill grestore} def
/Circle {stroke [] 0 setdash 2 copy
  hpt 0 360 arc stroke Pnt} def
/CircleF {stroke [] 0 setdash hpt 0 360 arc fill} def
/C0 {BL [] 0 setdash 2 copy moveto vpt 90 450 arc} bind def
/C1 {BL [] 0 setdash 2 copy moveto
	2 copy vpt 0 90 arc closepath fill
	vpt 0 360 arc closepath} bind def
/C2 {BL [] 0 setdash 2 copy moveto
	2 copy vpt 90 180 arc closepath fill
	vpt 0 360 arc closepath} bind def
/C3 {BL [] 0 setdash 2 copy moveto
	2 copy vpt 0 180 arc closepath fill
	vpt 0 360 arc closepath} bind def
/C4 {BL [] 0 setdash 2 copy moveto
	2 copy vpt 180 270 arc closepath fill
	vpt 0 360 arc closepath} bind def
/C5 {BL [] 0 setdash 2 copy moveto
	2 copy vpt 0 90 arc
	2 copy moveto
	2 copy vpt 180 270 arc closepath fill
	vpt 0 360 arc} bind def
/C6 {BL [] 0 setdash 2 copy moveto
	2 copy vpt 90 270 arc closepath fill
	vpt 0 360 arc closepath} bind def
/C7 {BL [] 0 setdash 2 copy moveto
	2 copy vpt 0 270 arc closepath fill
	vpt 0 360 arc closepath} bind def
/C8 {BL [] 0 setdash 2 copy moveto
	2 copy vpt 270 360 arc closepath fill
	vpt 0 360 arc closepath} bind def
/C9 {BL [] 0 setdash 2 copy moveto
	2 copy vpt 270 450 arc closepath fill
	vpt 0 360 arc closepath} bind def
/C10 {BL [] 0 setdash 2 copy 2 copy moveto vpt 270 360 arc closepath fill
	2 copy moveto
	2 copy vpt 90 180 arc closepath fill
	vpt 0 360 arc closepath} bind def
/C11 {BL [] 0 setdash 2 copy moveto
	2 copy vpt 0 180 arc closepath fill
	2 copy moveto
	2 copy vpt 270 360 arc closepath fill
	vpt 0 360 arc closepath} bind def
/C12 {BL [] 0 setdash 2 copy moveto
	2 copy vpt 180 360 arc closepath fill
	vpt 0 360 arc closepath} bind def
/C13 {BL [] 0 setdash 2 copy moveto
	2 copy vpt 0 90 arc closepath fill
	2 copy moveto
	2 copy vpt 180 360 arc closepath fill
	vpt 0 360 arc closepath} bind def
/C14 {BL [] 0 setdash 2 copy moveto
	2 copy vpt 90 360 arc closepath fill
	vpt 0 360 arc} bind def
/C15 {BL [] 0 setdash 2 copy vpt 0 360 arc closepath fill
	vpt 0 360 arc closepath} bind def
/Rec {newpath 4 2 roll moveto 1 index 0 rlineto 0 exch rlineto
	neg 0 rlineto closepath} bind def
/Square {dup Rec} bind def
/Bsquare {vpt sub exch vpt sub exch vpt2 Square} bind def
/S0 {BL [] 0 setdash 2 copy moveto 0 vpt rlineto BL Bsquare} bind def
/S1 {BL [] 0 setdash 2 copy vpt Square fill Bsquare} bind def
/S2 {BL [] 0 setdash 2 copy exch vpt sub exch vpt Square fill Bsquare} bind def
/S3 {BL [] 0 setdash 2 copy exch vpt sub exch vpt2 vpt Rec fill Bsquare} bind def
/S4 {BL [] 0 setdash 2 copy exch vpt sub exch vpt sub vpt Square fill Bsquare} bind def
/S5 {BL [] 0 setdash 2 copy 2 copy vpt Square fill
	exch vpt sub exch vpt sub vpt Square fill Bsquare} bind def
/S6 {BL [] 0 setdash 2 copy exch vpt sub exch vpt sub vpt vpt2 Rec fill Bsquare} bind def
/S7 {BL [] 0 setdash 2 copy exch vpt sub exch vpt sub vpt vpt2 Rec fill
	2 copy vpt Square fill Bsquare} bind def
/S8 {BL [] 0 setdash 2 copy vpt sub vpt Square fill Bsquare} bind def
/S9 {BL [] 0 setdash 2 copy vpt sub vpt vpt2 Rec fill Bsquare} bind def
/S10 {BL [] 0 setdash 2 copy vpt sub vpt Square fill 2 copy exch vpt sub exch vpt Square fill
	Bsquare} bind def
/S11 {BL [] 0 setdash 2 copy vpt sub vpt Square fill 2 copy exch vpt sub exch vpt2 vpt Rec fill
	Bsquare} bind def
/S12 {BL [] 0 setdash 2 copy exch vpt sub exch vpt sub vpt2 vpt Rec fill Bsquare} bind def
/S13 {BL [] 0 setdash 2 copy exch vpt sub exch vpt sub vpt2 vpt Rec fill
	2 copy vpt Square fill Bsquare} bind def
/S14 {BL [] 0 setdash 2 copy exch vpt sub exch vpt sub vpt2 vpt Rec fill
	2 copy exch vpt sub exch vpt Square fill Bsquare} bind def
/S15 {BL [] 0 setdash 2 copy Bsquare fill Bsquare} bind def
/D0 {gsave translate 45 rotate 0 0 S0 stroke grestore} bind def
/D1 {gsave translate 45 rotate 0 0 S1 stroke grestore} bind def
/D2 {gsave translate 45 rotate 0 0 S2 stroke grestore} bind def
/D3 {gsave translate 45 rotate 0 0 S3 stroke grestore} bind def
/D4 {gsave translate 45 rotate 0 0 S4 stroke grestore} bind def
/D5 {gsave translate 45 rotate 0 0 S5 stroke grestore} bind def
/D6 {gsave translate 45 rotate 0 0 S6 stroke grestore} bind def
/D7 {gsave translate 45 rotate 0 0 S7 stroke grestore} bind def
/D8 {gsave translate 45 rotate 0 0 S8 stroke grestore} bind def
/D9 {gsave translate 45 rotate 0 0 S9 stroke grestore} bind def
/D10 {gsave translate 45 rotate 0 0 S10 stroke grestore} bind def
/D11 {gsave translate 45 rotate 0 0 S11 stroke grestore} bind def
/D12 {gsave translate 45 rotate 0 0 S12 stroke grestore} bind def
/D13 {gsave translate 45 rotate 0 0 S13 stroke grestore} bind def
/D14 {gsave translate 45 rotate 0 0 S14 stroke grestore} bind def
/D15 {gsave translate 45 rotate 0 0 S15 stroke grestore} bind def
/DiaE {stroke [] 0 setdash vpt add M
  hpt neg vpt neg V hpt vpt neg V
  hpt vpt V hpt neg vpt V closepath stroke} def
/BoxE {stroke [] 0 setdash exch hpt sub exch vpt add M
  0 vpt2 neg V hpt2 0 V 0 vpt2 V
  hpt2 neg 0 V closepath stroke} def
/TriUE {stroke [] 0 setdash vpt 1.12 mul add M
  hpt neg vpt -1.62 mul V
  hpt 2 mul 0 V
  hpt neg vpt 1.62 mul V closepath stroke} def
/TriDE {stroke [] 0 setdash vpt 1.12 mul sub M
  hpt neg vpt 1.62 mul V
  hpt 2 mul 0 V
  hpt neg vpt -1.62 mul V closepath stroke} def
/PentE {stroke [] 0 setdash gsave
  translate 0 hpt M 4 {72 rotate 0 hpt L} repeat
  closepath stroke grestore} def
/CircE {stroke [] 0 setdash 
  hpt 0 360 arc stroke} def
/Opaque {gsave closepath 1 setgray fill grestore 0 setgray closepath} def
/DiaW {stroke [] 0 setdash vpt add M
  hpt neg vpt neg V hpt vpt neg V
  hpt vpt V hpt neg vpt V Opaque stroke} def
/BoxW {stroke [] 0 setdash exch hpt sub exch vpt add M
  0 vpt2 neg V hpt2 0 V 0 vpt2 V
  hpt2 neg 0 V Opaque stroke} def
/TriUW {stroke [] 0 setdash vpt 1.12 mul add M
  hpt neg vpt -1.62 mul V
  hpt 2 mul 0 V
  hpt neg vpt 1.62 mul V Opaque stroke} def
/TriDW {stroke [] 0 setdash vpt 1.12 mul sub M
  hpt neg vpt 1.62 mul V
  hpt 2 mul 0 V
  hpt neg vpt -1.62 mul V Opaque stroke} def
/PentW {stroke [] 0 setdash gsave
  translate 0 hpt M 4 {72 rotate 0 hpt L} repeat
  Opaque stroke grestore} def
/CircW {stroke [] 0 setdash 
  hpt 0 360 arc Opaque stroke} def
/BoxFill {gsave Rec 1 setgray fill grestore} def
/Density {
  /Fillden exch def
  currentrgbcolor
  /ColB exch def /ColG exch def /ColR exch def
  /ColR ColR Fillden mul Fillden sub 1 add def
  /ColG ColG Fillden mul Fillden sub 1 add def
  /ColB ColB Fillden mul Fillden sub 1 add def
  ColR ColG ColB setrgbcolor} def
/BoxColFill {gsave Rec PolyFill} def
/PolyFill {gsave Density fill grestore grestore} def
/h {rlineto rlineto rlineto gsave closepath fill grestore} bind def
%
% PostScript Level 1 Pattern Fill routine for rectangles
% Usage: x y w h s a XX PatternFill
%	x,y = lower left corner of box to be filled
%	w,h = width and height of box
%	  a = angle in degrees between lines and x-axis
%	 XX = 0/1 for no/yes cross-hatch
%
/PatternFill {gsave /PFa [ 9 2 roll ] def
  PFa 0 get PFa 2 get 2 div add PFa 1 get PFa 3 get 2 div add translate
  PFa 2 get -2 div PFa 3 get -2 div PFa 2 get PFa 3 get Rec
  gsave 1 setgray fill grestore clip
  currentlinewidth 0.5 mul setlinewidth
  /PFs PFa 2 get dup mul PFa 3 get dup mul add sqrt def
  0 0 M PFa 5 get rotate PFs -2 div dup translate
  0 1 PFs PFa 4 get div 1 add floor cvi
	{PFa 4 get mul 0 M 0 PFs V} for
  0 PFa 6 get ne {
	0 1 PFs PFa 4 get div 1 add floor cvi
	{PFa 4 get mul 0 2 1 roll M PFs 0 V} for
 } if
  stroke grestore} def
%
/languagelevel where
 {pop languagelevel} {1} ifelse
 2 lt
	{/InterpretLevel1 true def}
	{/InterpretLevel1 Level1 def}
 ifelse
%
% PostScript level 2 pattern fill definitions
%
/Level2PatternFill {
/Tile8x8 {/PaintType 2 /PatternType 1 /TilingType 1 /BBox [0 0 8 8] /XStep 8 /YStep 8}
	bind def
/KeepColor {currentrgbcolor [/Pattern /DeviceRGB] setcolorspace} bind def
<< Tile8x8
 /PaintProc {0.5 setlinewidth pop 0 0 M 8 8 L 0 8 M 8 0 L stroke} 
>> matrix makepattern
/Pat1 exch def
<< Tile8x8
 /PaintProc {0.5 setlinewidth pop 0 0 M 8 8 L 0 8 M 8 0 L stroke
	0 4 M 4 8 L 8 4 L 4 0 L 0 4 L stroke}
>> matrix makepattern
/Pat2 exch def
<< Tile8x8
 /PaintProc {0.5 setlinewidth pop 0 0 M 0 8 L
	8 8 L 8 0 L 0 0 L fill}
>> matrix makepattern
/Pat3 exch def
<< Tile8x8
 /PaintProc {0.5 setlinewidth pop -4 8 M 8 -4 L
	0 12 M 12 0 L stroke}
>> matrix makepattern
/Pat4 exch def
<< Tile8x8
 /PaintProc {0.5 setlinewidth pop -4 0 M 8 12 L
	0 -4 M 12 8 L stroke}
>> matrix makepattern
/Pat5 exch def
<< Tile8x8
 /PaintProc {0.5 setlinewidth pop -2 8 M 4 -4 L
	0 12 M 8 -4 L 4 12 M 10 0 L stroke}
>> matrix makepattern
/Pat6 exch def
<< Tile8x8
 /PaintProc {0.5 setlinewidth pop -2 0 M 4 12 L
	0 -4 M 8 12 L 4 -4 M 10 8 L stroke}
>> matrix makepattern
/Pat7 exch def
<< Tile8x8
 /PaintProc {0.5 setlinewidth pop 8 -2 M -4 4 L
	12 0 M -4 8 L 12 4 M 0 10 L stroke}
>> matrix makepattern
/Pat8 exch def
<< Tile8x8
 /PaintProc {0.5 setlinewidth pop 0 -2 M 12 4 L
	-4 0 M 12 8 L -4 4 M 8 10 L stroke}
>> matrix makepattern
/Pat9 exch def
/Pattern1 {PatternBgnd KeepColor Pat1 setpattern} bind def
/Pattern2 {PatternBgnd KeepColor Pat2 setpattern} bind def
/Pattern3 {PatternBgnd KeepColor Pat3 setpattern} bind def
/Pattern4 {PatternBgnd KeepColor Landscape {Pat5} {Pat4} ifelse setpattern} bind def
/Pattern5 {PatternBgnd KeepColor Landscape {Pat4} {Pat5} ifelse setpattern} bind def
/Pattern6 {PatternBgnd KeepColor Landscape {Pat9} {Pat6} ifelse setpattern} bind def
/Pattern7 {PatternBgnd KeepColor Landscape {Pat8} {Pat7} ifelse setpattern} bind def
} def
%
%
%End of PostScript Level 2 code
%
/PatternBgnd {
  TransparentPatterns {} {gsave 1 setgray fill grestore} ifelse
} def
%
% Substitute for Level 2 pattern fill codes with
% grayscale if Level 2 support is not selected.
%
/Level1PatternFill {
/Pattern1 {0.250 Density} bind def
/Pattern2 {0.500 Density} bind def
/Pattern3 {0.750 Density} bind def
/Pattern4 {0.125 Density} bind def
/Pattern5 {0.375 Density} bind def
/Pattern6 {0.625 Density} bind def
/Pattern7 {0.875 Density} bind def
} def
%
% Now test for support of Level 2 code
%
Level1 {Level1PatternFill} {Level2PatternFill} ifelse
%
/Symbol-Oblique /Symbol findfont [1 0 .167 1 0 0] makefont
dup length dict begin {1 index /FID eq {pop pop} {def} ifelse} forall
currentdict end definefont pop
/MFshow {
   { dup 5 get 3 ge
     { 5 get 3 eq {gsave} {grestore} ifelse }
     {dup dup 0 get findfont exch 1 get scalefont setfont
     [ currentpoint ] exch dup 2 get 0 exch R dup 5 get 2 ne {dup dup 6
     get exch 4 get {Gshow} {stringwidth pop 0 R} ifelse }if dup 5 get 0 eq
     {dup 3 get {2 get neg 0 exch R pop} {pop aload pop M} ifelse} {dup 5
     get 1 eq {dup 2 get exch dup 3 get exch 6 get stringwidth pop -2 div
     dup 0 R} {dup 6 get stringwidth pop -2 div 0 R 6 get
     show 2 index {aload pop M neg 3 -1 roll neg R pop pop} {pop pop pop
     pop aload pop M} ifelse }ifelse }ifelse }
     ifelse }
   forall} def
/Gswidth {dup type /stringtype eq {stringwidth} {pop (n) stringwidth} ifelse} def
/MFwidth {0 exch { dup 5 get 3 ge { 5 get 3 eq { 0 } { pop } ifelse }
 {dup 3 get{dup dup 0 get findfont exch 1 get scalefont setfont
     6 get Gswidth pop add} {pop} ifelse} ifelse} forall} def
/MLshow { currentpoint stroke M
  0 exch R
  Blacktext {gsave 0 setgray MFshow grestore} {MFshow} ifelse } bind def
/MRshow { currentpoint stroke M
  exch dup MFwidth neg 3 -1 roll R
  Blacktext {gsave 0 setgray MFshow grestore} {MFshow} ifelse } bind def
/MCshow { currentpoint stroke M
  exch dup MFwidth -2 div 3 -1 roll R
  Blacktext {gsave 0 setgray MFshow grestore} {MFshow} ifelse } bind def
/XYsave    { [( ) 1 2 true false 3 ()] } bind def
/XYrestore { [( ) 1 2 true false 4 ()] } bind def
end
%%EndProlog
gnudict begin
gsave
doclip
50 50 translate
0.050 0.050 scale
0 setgray
newpath
(Helvetica) findfont 250 scalefont setfont
1.000 UL
LTb
1225 800 M
63 0 V
5461 0 R
-63 0 V
stroke
1075 800 M
[ [(Helvetica) 250.0 0.0 true true 0 ( 0)]
] -83.3 MRshow
1.000 UL
LTb
1225 1194 M
63 0 V
5461 0 R
-63 0 V
stroke
1075 1194 M
[ [(Helvetica) 250.0 0.0 true true 0 ( 0.1)]
] -83.3 MRshow
1.000 UL
LTb
1225 1588 M
63 0 V
5461 0 R
-63 0 V
stroke
1075 1588 M
[ [(Helvetica) 250.0 0.0 true true 0 ( 0.2)]
] -83.3 MRshow
1.000 UL
LTb
1225 1982 M
63 0 V
5461 0 R
-63 0 V
stroke
1075 1982 M
[ [(Helvetica) 250.0 0.0 true true 0 ( 0.3)]
] -83.3 MRshow
1.000 UL
LTb
1225 2376 M
63 0 V
5461 0 R
-63 0 V
stroke
1075 2376 M
[ [(Helvetica) 250.0 0.0 true true 0 ( 0.4)]
] -83.3 MRshow
1.000 UL
LTb
1225 2770 M
63 0 V
5461 0 R
-63 0 V
stroke
1075 2770 M
[ [(Helvetica) 250.0 0.0 true true 0 ( 0.5)]
] -83.3 MRshow
1.000 UL
LTb
1225 3163 M
63 0 V
5461 0 R
-63 0 V
stroke
1075 3163 M
[ [(Helvetica) 250.0 0.0 true true 0 ( 0.6)]
] -83.3 MRshow
1.000 UL
LTb
1225 3557 M
63 0 V
5461 0 R
-63 0 V
stroke
1075 3557 M
[ [(Helvetica) 250.0 0.0 true true 0 ( 0.7)]
] -83.3 MRshow
1.000 UL
LTb
1225 3951 M
63 0 V
5461 0 R
-63 0 V
stroke
1075 3951 M
[ [(Helvetica) 250.0 0.0 true true 0 ( 0.8)]
] -83.3 MRshow
1.000 UL
LTb
1225 4345 M
63 0 V
5461 0 R
-63 0 V
stroke
1075 4345 M
[ [(Helvetica) 250.0 0.0 true true 0 ( 0.9)]
] -83.3 MRshow
1.000 UL
LTb
1225 4739 M
63 0 V
5461 0 R
-63 0 V
stroke
1075 4739 M
[ [(Helvetica) 250.0 0.0 true true 0 ( 1)]
] -83.3 MRshow
1.000 UL
LTb
1225 800 M
0 63 V
0 3876 R
0 -63 V
stroke
1225 550 M
[ [(Helvetica) 250.0 0.0 true true 0 ( 1000)]
] -83.3 MCshow
1.000 UL
LTb
1916 800 M
0 63 V
0 3876 R
0 -63 V
stroke
1916 550 M
[ [(Helvetica) 250.0 0.0 true true 0 ( 2000)]
] -83.3 MCshow
1.000 UL
LTb
2606 800 M
0 63 V
0 3876 R
0 -63 V
stroke
2606 550 M
[ [(Helvetica) 250.0 0.0 true true 0 ( 3000)]
] -83.3 MCshow
1.000 UL
LTb
3297 800 M
0 63 V
0 3876 R
0 -63 V
stroke
3297 550 M
[ [(Helvetica) 250.0 0.0 true true 0 ( 4000)]
] -83.3 MCshow
1.000 UL
LTb
3987 800 M
0 63 V
0 3876 R
0 -63 V
stroke
3987 550 M
[ [(Helvetica) 250.0 0.0 true true 0 ( 5000)]
] -83.3 MCshow
1.000 UL
LTb
4678 800 M
0 63 V
0 3876 R
0 -63 V
stroke
4678 550 M
[ [(Helvetica) 250.0 0.0 true true 0 ( 6000)]
] -83.3 MCshow
1.000 UL
LTb
5368 800 M
0 63 V
0 3876 R
0 -63 V
stroke
5368 550 M
[ [(Helvetica) 250.0 0.0 true true 0 ( 7000)]
] -83.3 MCshow
1.000 UL
LTb
6059 800 M
0 63 V
0 3876 R
0 -63 V
stroke
6059 550 M
[ [(Helvetica) 250.0 0.0 true true 0 ( 8000)]
] -83.3 MCshow
1.000 UL
LTb
6749 800 M
0 63 V
0 3876 R
0 -63 V
stroke
6749 550 M
[ [(Helvetica) 250.0 0.0 true true 0 ( 9000)]
] -83.3 MCshow
1.000 UL
LTb
1.000 UL
LTb
1225 4739 N
0 -3939 V
5524 0 V
0 3939 V
-5524 0 V
Z stroke
LCb setrgbcolor
200 2769 M
currentpoint gsave translate -270 rotate 0 0 moveto
[ [(Helvetica) 250.0 0.0 true true 0 (F1)]
] -83.3 MCshow
grestore
LTb
LCb setrgbcolor
3987 175 M
[ [(Helvetica) 250.0 0.0 true true 0 (Alphabet Size)]
] -83.3 MCshow
LTb
1.000 UP
1.000 UL
LTb
% Begin plot #1
1.000 UP
1.000 UL
LT0
1225 4026 Pls
1225 2826 Pls
1225 2311 Pls
1225 2112 Pls
1225 3737 Pls
1225 2910 Pls
1225 2383 Pls
1225 2105 Pls
1225 3568 Pls
1225 2752 Pls
1225 2598 Pls
1225 2224 Pls
1225 3437 Pls
1225 2335 Pls
1225 2117 Pls
1225 1853 Pls
1225 2976 Pls
1225 2189 Pls
1225 1938 Pls
1225 1610 Pls
1225 2271 Pls
1225 1482 Pls
1225 1208 Pls
1225 1209 Pls
1225 2060 Pls
1225 1298 Pls
1225 1711 Pls
1225 1395 Pls
1225 2803 Pls
1225 1670 Pls
1225 1550 Pls
1225 1554 Pls
1225 3148 Pls
1225 2226 Pls
1225 1645 Pls
1225 1508 Pls
1225 2957 Pls
1225 2474 Pls
1225 2175 Pls
1225 1808 Pls
1225 3892 Pls
1225 3341 Pls
1225 2496 Pls
1225 2393 Pls
1225 3767 Pls
1225 3216 Pls
1225 2489 Pls
1225 2269 Pls
1225 4122 Pls
1225 2973 Pls
1225 2378 Pls
1225 2084 Pls
1225 3796 Pls
1225 2725 Pls
1225 2444 Pls
1225 1892 Pls
1225 2888 Pls
1225 2793 Pls
1225 2053 Pls
1225 1836 Pls
1225 2398 Pls
1225 1480 Pls
1225 1371 Pls
1225 1464 Pls
1225 2616 Pls
1225 2390 Pls
1225 1953 Pls
1225 1629 Pls
1225 2971 Pls
1225 2354 Pls
1225 1880 Pls
1225 1675 Pls
1225 3047 Pls
1225 2550 Pls
1225 2215 Pls
1225 2116 Pls
1225 3453 Pls
1225 2200 Pls
1225 2034 Pls
1225 2038 Pls
1225 4292 Pls
1225 2956 Pls
1225 3060 Pls
1225 2604 Pls
1225 4302 Pls
1225 3183 Pls
1225 2774 Pls
1225 2519 Pls
1225 3888 Pls
1225 3455 Pls
1225 2682 Pls
1225 2209 Pls
1225 4004 Pls
1225 3075 Pls
1225 2582 Pls
1225 2314 Pls
1225 3593 Pls
1225 3003 Pls
1225 2001 Pls
1225 1860 Pls
1225 2528 Pls
1225 1893 Pls
1225 1644 Pls
1225 1378 Pls
1225 2844 Pls
1225 2242 Pls
1225 1694 Pls
1225 1740 Pls
1225 3141 Pls
1225 2325 Pls
1225 1902 Pls
1225 1640 Pls
1225 3111 Pls
1225 2380 Pls
1225 2252 Pls
1225 1657 Pls
1225 3217 Pls
1225 2423 Pls
1225 2335 Pls
1225 1716 Pls
1225 4084 Pls
1225 3344 Pls
1225 3189 Pls
1225 2574 Pls
1225 4489 Pls
1225 3404 Pls
1225 3086 Pls
1225 2537 Pls
1225 3639 Pls
1225 3267 Pls
1225 2738 Pls
1225 2610 Pls
1225 3958 Pls
1225 2955 Pls
1225 2701 Pls
1225 2317 Pls
1225 3773 Pls
1225 3244 Pls
1225 2263 Pls
1225 2184 Pls
1225 2731 Pls
1225 2078 Pls
1225 1720 Pls
1225 1488 Pls
1225 2623 Pls
1225 2436 Pls
1225 1895 Pls
1225 1653 Pls
1225 2503 Pls
1225 2330 Pls
1225 2142 Pls
1225 1765 Pls
1225 2543 Pls
1225 2587 Pls
1225 2298 Pls
1225 1724 Pls
1225 2458 Pls
1225 2572 Pls
1225 2068 Pls
1225 2112 Pls
1225 4195 Pls
1225 3487 Pls
1225 2747 Pls
1225 2482 Pls
1225 4270 Pls
1225 3174 Pls
1225 2779 Pls
1225 2260 Pls
1225 4204 Pls
1225 3430 Pls
1225 2868 Pls
1225 2449 Pls
1225 4361 Pls
1225 3484 Pls
1225 3039 Pls
1225 2332 Pls
1225 3943 Pls
1225 3121 Pls
1225 2702 Pls
1225 2417 Pls
1225 2995 Pls
1225 2089 Pls
1225 2114 Pls
1225 1661 Pls
1225 2798 Pls
1225 1900 Pls
1225 2167 Pls
1225 1933 Pls
1225 2944 Pls
1225 2390 Pls
1225 1770 Pls
1225 1654 Pls
1225 2417 Pls
1225 2297 Pls
1225 2003 Pls
1225 1986 Pls
1225 2129 Pls
1225 2434 Pls
1225 2261 Pls
1225 1990 Pls
1916 3887 Pls
1916 2626 Pls
1916 2597 Pls
1916 2152 Pls
1916 3606 Pls
1916 2997 Pls
1916 2390 Pls
1916 1816 Pls
1916 3588 Pls
1916 2995 Pls
1916 2304 Pls
1916 2122 Pls
1916 3323 Pls
1916 2523 Pls
1916 1886 Pls
1916 1799 Pls
1916 3312 Pls
1916 2208 Pls
1916 2136 Pls
1916 1630 Pls
1916 1745 Pls
1916 1258 Pls
1916 1161 Pls
1916 1151 Pls
1916 2683 Pls
1916 1595 Pls
1916 1266 Pls
1916 1395 Pls
1916 3130 Pls
1916 1898 Pls
1916 1485 Pls
1916 1440 Pls
1916 3330 Pls
1916 2057 Pls
1916 2017 Pls
1916 1566 Pls
1916 2976 Pls
1916 2221 Pls
1916 1685 Pls
1916 1427 Pls
1916 4295 Pls
1916 3062 Pls
1916 3002 Pls
1916 2367 Pls
1916 4099 Pls
1916 3035 Pls
1916 2964 Pls
1916 2635 Pls
1916 3971 Pls
1916 3281 Pls
1916 2760 Pls
1916 2477 Pls
1916 3756 Pls
1916 2998 Pls
1916 2415 Pls
1916 2177 Pls
1916 3084 Pls
1916 2551 Pls
1916 2057 Pls
1916 1811 Pls
1916 2668 Pls
1916 2136 Pls
1916 1438 Pls
1916 1183 Pls
1916 2278 Pls
1916 2065 Pls
1916 1793 Pls
1916 1528 Pls
1916 3300 Pls
1916 1962 Pls
1916 1886 Pls
1916 1596 Pls
1916 2803 Pls
1916 2188 Pls
1916 2224 Pls
1916 1719 Pls
1916 3085 Pls
1916 2774 Pls
1916 2416 Pls
1916 1551 Pls
1916 4233 Pls
1916 3414 Pls
1916 2994 Pls
1916 2478 Pls
1916 4312 Pls
1916 3400 Pls
1916 2421 Pls
1916 2423 Pls
1916 3902 Pls
1916 2836 Pls
1916 2750 Pls
1916 2323 Pls
1916 3685 Pls
1916 3515 Pls
1916 1990 Pls
1916 2355 Pls
1916 3215 Pls
1916 2703 Pls
1916 2550 Pls
1916 2120 Pls
1916 2655 Pls
1916 1649 Pls
1916 1588 Pls
1916 1396 Pls
1916 3115 Pls
1916 2345 Pls
1916 1886 Pls
1916 1727 Pls
1916 2784 Pls
1916 2234 Pls
1916 2097 Pls
1916 1856 Pls
1916 3185 Pls
1916 2389 Pls
1916 1826 Pls
1916 2023 Pls
1916 3592 Pls
1916 2577 Pls
1916 2251 Pls
1916 2014 Pls
1916 4063 Pls
1916 3518 Pls
1916 2779 Pls
1916 2515 Pls
1916 4089 Pls
1916 3458 Pls
1916 3148 Pls
1916 2423 Pls
1916 3947 Pls
1916 3104 Pls
1916 3005 Pls
1916 2423 Pls
1916 3750 Pls
1916 3188 Pls
1916 2864 Pls
1916 2352 Pls
1916 3253 Pls
1916 2815 Pls
1916 2262 Pls
1916 2183 Pls
1916 2733 Pls
1916 1770 Pls
1916 1090 Pls
1916 1218 Pls
1916 3176 Pls
1916 2132 Pls
1916 1941 Pls
1916 1724 Pls
1916 2965 Pls
1916 2303 Pls
1916 1884 Pls
1916 1971 Pls
1916 3256 Pls
1916 2479 Pls
1916 2084 Pls
1916 1948 Pls
1916 3048 Pls
1916 2922 Pls
1916 2212 Pls
1916 2120 Pls
1916 4384 Pls
1916 3489 Pls
1916 3183 Pls
1916 2775 Pls
1916 4423 Pls
1916 3495 Pls
1916 3300 Pls
1916 2561 Pls
1916 4151 Pls
1916 3260 Pls
1916 2936 Pls
1916 2526 Pls
1916 3932 Pls
1916 3305 Pls
1916 2977 Pls
1916 2684 Pls
1916 3981 Pls
1916 3170 Pls
1916 2253 Pls
1916 2143 Pls
1916 3038 Pls
1916 1756 Pls
1916 2037 Pls
1916 1616 Pls
1916 2552 Pls
1916 2304 Pls
1916 2226 Pls
1916 1845 Pls
1916 2460 Pls
1916 2543 Pls
1916 1733 Pls
1916 2082 Pls
1916 3396 Pls
1916 2218 Pls
1916 1784 Pls
1916 1927 Pls
1916 2897 Pls
1916 2503 Pls
1916 2039 Pls
1916 1932 Pls
2606 3803 Pls
2606 3412 Pls
2606 2463 Pls
2606 2152 Pls
2606 3649 Pls
2606 3214 Pls
2606 2603 Pls
2606 2174 Pls
2606 3728 Pls
2606 2203 Pls
2606 2135 Pls
2606 2004 Pls
2606 3778 Pls
2606 2599 Pls
2606 2232 Pls
2606 1776 Pls
2606 2968 Pls
2606 2197 Pls
2606 1798 Pls
2606 1651 Pls
2606 2008 Pls
2606 1638 Pls
2606 1253 Pls
2606 1183 Pls
2606 2376 Pls
2606 1885 Pls
2606 1451 Pls
2606 1234 Pls
2606 2871 Pls
2606 2068 Pls
2606 1578 Pls
2606 1313 Pls
2606 3047 Pls
2606 2117 Pls
2606 1696 Pls
2606 1403 Pls
2606 3158 Pls
2606 2443 Pls
2606 1682 Pls
2606 1457 Pls
2606 4161 Pls
2606 3636 Pls
2606 2509 Pls
2606 2514 Pls
2606 3986 Pls
2606 3668 Pls
2606 2772 Pls
2606 2298 Pls
2606 3686 Pls
2606 2942 Pls
2606 2638 Pls
2606 2061 Pls
2606 3503 Pls
2606 2711 Pls
2606 2220 Pls
2606 2103 Pls
2606 2995 Pls
2606 2860 Pls
2606 2106 Pls
2606 1580 Pls
2606 2691 Pls
2606 1609 Pls
2606 1386 Pls
2606 1333 Pls
2606 2608 Pls
2606 2014 Pls
2606 1729 Pls
2606 1623 Pls
2606 2726 Pls
2606 2372 Pls
2606 1691 Pls
2606 1505 Pls
2606 3687 Pls
2606 2585 Pls
2606 2079 Pls
2606 1785 Pls
2606 3452 Pls
2606 2146 Pls
2606 1700 Pls
2606 1795 Pls
2606 4296 Pls
2606 3527 Pls
2606 2991 Pls
2606 2203 Pls
2606 4378 Pls
2606 3211 Pls
2606 2909 Pls
2606 2261 Pls
2606 3695 Pls
2606 3326 Pls
2606 2706 Pls
2606 2309 Pls
2606 4252 Pls
2606 3053 Pls
2606 2740 Pls
2606 2283 Pls
2606 3095 Pls
2606 2527 Pls
2606 2112 Pls
2606 1761 Pls
2606 2346 Pls
2606 1559 Pls
2606 1769 Pls
2606 1398 Pls
2606 3283 Pls
2606 2239 Pls
2606 1998 Pls
2606 1835 Pls
2606 3537 Pls
2606 2160 Pls
2606 1905 Pls
2606 1925 Pls
2606 3621 Pls
2606 2889 Pls
2606 2190 Pls
2606 1818 Pls
2606 3009 Pls
2606 2760 Pls
2606 2243 Pls
2606 1644 Pls
2606 4204 Pls
2606 3315 Pls
2606 2922 Pls
2606 2505 Pls
2606 3724 Pls
2606 3399 Pls
2606 2952 Pls
2606 2525 Pls
2606 4387 Pls
2606 3562 Pls
2606 2575 Pls
2606 2145 Pls
2606 3964 Pls
2606 2954 Pls
2606 2844 Pls
2606 2572 Pls
2606 3625 Pls
2606 2935 Pls
2606 2314 Pls
2606 2098 Pls
2606 2823 Pls
2606 2102 Pls
2606 1817 Pls
2606 1216 Pls
2606 3068 Pls
2606 2299 Pls
2606 1834 Pls
2606 1682 Pls
2606 3018 Pls
2606 2490 Pls
2606 1957 Pls
2606 1949 Pls
2606 3651 Pls
2606 2812 Pls
2606 1998 Pls
2606 1904 Pls
2606 3281 Pls
2606 2220 Pls
2606 2284 Pls
2606 2138 Pls
2606 4378 Pls
2606 3935 Pls
2606 3008 Pls
2606 2953 Pls
2606 4191 Pls
2606 3419 Pls
2606 3091 Pls
2606 2639 Pls
2606 3998 Pls
2606 3399 Pls
2606 2983 Pls
2606 2542 Pls
2606 3667 Pls
2606 3173 Pls
2606 2710 Pls
2606 2754 Pls
2606 3868 Pls
2606 2935 Pls
2606 2529 Pls
2606 2333 Pls
2606 2841 Pls
2606 2365 Pls
2606 1552 Pls
2606 1489 Pls
2606 3272 Pls
2606 2544 Pls
2606 2212 Pls
2606 1916 Pls
2606 3133 Pls
2606 2247 Pls
2606 2151 Pls
2606 2030 Pls
2606 3472 Pls
2606 2707 Pls
2606 2158 Pls
2606 2049 Pls
2606 3001 Pls
2606 2285 Pls
2606 2149 Pls
2606 1957 Pls
3297 3777 Pls
3297 2771 Pls
3297 2077 Pls
3297 1890 Pls
3297 3651 Pls
3297 2994 Pls
3297 2208 Pls
3297 1972 Pls
3297 3857 Pls
3297 2364 Pls
3297 2173 Pls
3297 1955 Pls
3297 3308 Pls
3297 2526 Pls
3297 1940 Pls
3297 2031 Pls
3297 3038 Pls
3297 1909 Pls
3297 1715 Pls
3297 1365 Pls
3297 1850 Pls
3297 1638 Pls
3297 1155 Pls
3297 1108 Pls
3297 2271 Pls
3297 1638 Pls
3297 1312 Pls
3297 1466 Pls
3297 2736 Pls
3297 2000 Pls
3297 1654 Pls
3297 1279 Pls
3297 3381 Pls
3297 2665 Pls
3297 1833 Pls
3297 1398 Pls
3297 3524 Pls
3297 1784 Pls
3297 1774 Pls
3297 1486 Pls
3297 4123 Pls
3297 3226 Pls
3297 2283 Pls
3297 2560 Pls
3297 3987 Pls
3297 3326 Pls
3297 2550 Pls
3297 2230 Pls
3297 3727 Pls
3297 2997 Pls
3297 2411 Pls
3297 2263 Pls
3297 3463 Pls
3297 2385 Pls
3297 2514 Pls
3297 2284 Pls
3297 3698 Pls
3297 2222 Pls
3297 2426 Pls
3297 1697 Pls
3297 2280 Pls
3297 1859 Pls
3297 1544 Pls
3297 1140 Pls
3297 2664 Pls
3297 2156 Pls
3297 1670 Pls
3297 1540 Pls
3297 2923 Pls
3297 1963 Pls
3297 2156 Pls
3297 1763 Pls
3297 3870 Pls
3297 2443 Pls
3297 1828 Pls
3297 1833 Pls
3297 3396 Pls
3297 2802 Pls
3297 2021 Pls
3297 1994 Pls
3297 4101 Pls
3297 3523 Pls
3297 2839 Pls
3297 2765 Pls
3297 4246 Pls
3297 3618 Pls
3297 2454 Pls
3297 2373 Pls
3297 4371 Pls
3297 3392 Pls
3297 2802 Pls
3297 2417 Pls
3297 3776 Pls
3297 3431 Pls
3297 2494 Pls
3297 1989 Pls
3297 3820 Pls
3297 2583 Pls
3297 2133 Pls
3297 1900 Pls
3297 2841 Pls
3297 1745 Pls
3297 1641 Pls
3297 1440 Pls
3297 2963 Pls
3297 1760 Pls
3297 1733 Pls
3297 1580 Pls
3297 3424 Pls
3297 2832 Pls
3297 1905 Pls
3297 1835 Pls
3297 2958 Pls
3297 2730 Pls
3297 2205 Pls
3297 1896 Pls
3297 3658 Pls
3297 2392 Pls
3297 2402 Pls
3297 1967 Pls
3297 4200 Pls
3297 3841 Pls
3297 2593 Pls
3297 2767 Pls
3297 4309 Pls
3297 3591 Pls
3297 3198 Pls
3297 2483 Pls
3297 3987 Pls
3297 3599 Pls
3297 2587 Pls
3297 2722 Pls
3297 4280 Pls
3297 3433 Pls
3297 2444 Pls
3297 2289 Pls
3297 3829 Pls
3297 2631 Pls
3297 2403 Pls
3297 2156 Pls
3297 2888 Pls
3297 1938 Pls
3297 1575 Pls
3297 1685 Pls
3297 3213 Pls
3297 2382 Pls
3297 2014 Pls
3297 1985 Pls
3297 3322 Pls
3297 2456 Pls
3297 2032 Pls
3297 1815 Pls
3297 3867 Pls
3297 2410 Pls
3297 2057 Pls
3297 2217 Pls
3297 2843 Pls
3297 2848 Pls
3297 2399 Pls
3297 2056 Pls
3297 4423 Pls
3297 3530 Pls
3297 2879 Pls
3297 2810 Pls
3297 4364 Pls
3297 3550 Pls
3297 2835 Pls
3297 2617 Pls
3297 3988 Pls
3297 3727 Pls
3297 3071 Pls
3297 2501 Pls
3297 3912 Pls
3297 3353 Pls
3297 2765 Pls
3297 2496 Pls
3297 3960 Pls
3297 3217 Pls
3297 2528 Pls
3297 2268 Pls
3297 2616 Pls
3297 2416 Pls
3297 1800 Pls
3297 1530 Pls
3297 2944 Pls
3297 1681 Pls
3297 1637 Pls
3297 1374 Pls
3297 3258 Pls
3297 2203 Pls
3297 2029 Pls
3297 1987 Pls
3297 3064 Pls
3297 2579 Pls
3297 2364 Pls
3297 1767 Pls
3297 3120 Pls
3297 2179 Pls
3297 2107 Pls
3297 2082 Pls
3987 3574 Pls
3987 2799 Pls
3987 2153 Pls
3987 2531 Pls
3987 3876 Pls
3987 3097 Pls
3987 2573 Pls
3987 2112 Pls
3987 3851 Pls
3987 2525 Pls
3987 2405 Pls
3987 1969 Pls
3987 3551 Pls
3987 2457 Pls
3987 2027 Pls
3987 1932 Pls
3987 3137 Pls
3987 2006 Pls
3987 1832 Pls
3987 1685 Pls
3987 2376 Pls
3987 1394 Pls
3987 1306 Pls
3987 1190 Pls
3987 2818 Pls
3987 1874 Pls
3987 1502 Pls
3987 1140 Pls
3987 2901 Pls
3987 1387 Pls
3987 1787 Pls
3987 1612 Pls
3987 2818 Pls
3987 1914 Pls
3987 1774 Pls
3987 1742 Pls
3987 2631 Pls
3987 2211 Pls
3987 1933 Pls
3987 1674 Pls
3987 3684 Pls
3987 3364 Pls
3987 2769 Pls
3987 2227 Pls
3987 3942 Pls
3987 3094 Pls
3987 2443 Pls
3987 2410 Pls
3987 3998 Pls
3987 2826 Pls
3987 2517 Pls
3987 2163 Pls
3987 3489 Pls
3987 2926 Pls
3987 2569 Pls
3987 2160 Pls
3987 3317 Pls
3987 2191 Pls
3987 2192 Pls
3987 1852 Pls
3987 2008 Pls
3987 1899 Pls
3987 1399 Pls
3987 1254 Pls
3987 2713 Pls
3987 2003 Pls
3987 1358 Pls
3987 1538 Pls
3987 3028 Pls
3987 2408 Pls
3987 2034 Pls
3987 1795 Pls
3987 3399 Pls
3987 2529 Pls
3987 1832 Pls
3987 1742 Pls
3987 3129 Pls
3987 2606 Pls
3987 1777 Pls
3987 1573 Pls
3987 4272 Pls
3987 3242 Pls
3987 2837 Pls
3987 2606 Pls
3987 4082 Pls
3987 3510 Pls
3987 2750 Pls
3987 2420 Pls
3987 3941 Pls
3987 3362 Pls
3987 2550 Pls
3987 2358 Pls
3987 3973 Pls
3987 2943 Pls
3987 2509 Pls
3987 2371 Pls
3987 3242 Pls
3987 2492 Pls
3987 2058 Pls
3987 1880 Pls
3987 2850 Pls
3987 1861 Pls
3987 1682 Pls
3987 1644 Pls
3987 2993 Pls
3987 2015 Pls
3987 1903 Pls
3987 1593 Pls
3987 3425 Pls
3987 2493 Pls
3987 2020 Pls
3987 1614 Pls
3987 3143 Pls
3987 2508 Pls
3987 2329 Pls
3987 1853 Pls
3987 3709 Pls
3987 2999 Pls
3987 2185 Pls
3987 1542 Pls
3987 4255 Pls
3987 3701 Pls
3987 2859 Pls
3987 2848 Pls
3987 4003 Pls
3987 3093 Pls
3987 3175 Pls
3987 2336 Pls
3987 3452 Pls
3987 3477 Pls
3987 2692 Pls
3987 2519 Pls
3987 4012 Pls
3987 3170 Pls
3987 2383 Pls
3987 2303 Pls
3987 3736 Pls
3987 2710 Pls
3987 2105 Pls
3987 2050 Pls
3987 2685 Pls
3987 1978 Pls
3987 1523 Pls
3987 1671 Pls
3987 3094 Pls
3987 2493 Pls
3987 1981 Pls
3987 1719 Pls
3987 3576 Pls
3987 3067 Pls
3987 1977 Pls
3987 1677 Pls
3987 3502 Pls
3987 2707 Pls
3987 2172 Pls
3987 1767 Pls
3987 3381 Pls
3987 2714 Pls
3987 2014 Pls
3987 1961 Pls
3987 4254 Pls
3987 3581 Pls
3987 3064 Pls
3987 2547 Pls
3987 4367 Pls
3987 3794 Pls
3987 3191 Pls
3987 2717 Pls
3987 4218 Pls
3987 3645 Pls
3987 2944 Pls
3987 2482 Pls
3987 4001 Pls
3987 3224 Pls
3987 2909 Pls
3987 2401 Pls
3987 3803 Pls
3987 2917 Pls
3987 2346 Pls
3987 1960 Pls
3987 3490 Pls
3987 2593 Pls
3987 1983 Pls
3987 1310 Pls
3987 3134 Pls
3987 2686 Pls
3987 1884 Pls
3987 1655 Pls
3987 2887 Pls
3987 2570 Pls
3987 1828 Pls
3987 1817 Pls
3987 3001 Pls
3987 2594 Pls
3987 2065 Pls
3987 1928 Pls
3987 3210 Pls
3987 2783 Pls
3987 2410 Pls
3987 2010 Pls
4678 4033 Pls
4678 3151 Pls
4678 2509 Pls
4678 2381 Pls
4678 3501 Pls
4678 3143 Pls
4678 2199 Pls
4678 2084 Pls
4678 3450 Pls
4678 3014 Pls
4678 2091 Pls
4678 2168 Pls
4678 3113 Pls
4678 2513 Pls
4678 2132 Pls
4678 1711 Pls
4678 2743 Pls
4678 2066 Pls
4678 1701 Pls
4678 1555 Pls
4678 2166 Pls
4678 1337 Pls
4678 1115 Pls
4678 1033 Pls
4678 2362 Pls
4678 1846 Pls
4678 1312 Pls
4678 1183 Pls
4678 2998 Pls
4678 1791 Pls
4678 1630 Pls
4678 1382 Pls
4678 2694 Pls
4678 1727 Pls
4678 1625 Pls
4678 1469 Pls
4678 2811 Pls
4678 2305 Pls
4678 1543 Pls
4678 1226 Pls
4678 4324 Pls
4678 3009 Pls
4678 2962 Pls
4678 2457 Pls
4678 3983 Pls
4678 3215 Pls
4678 2378 Pls
4678 2130 Pls
4678 4064 Pls
4678 2899 Pls
4678 2463 Pls
4678 2485 Pls
4678 3768 Pls
4678 2896 Pls
4678 2551 Pls
4678 2382 Pls
4678 3908 Pls
4678 2159 Pls
4678 2038 Pls
4678 1744 Pls
4678 2428 Pls
4678 1692 Pls
4678 1589 Pls
4678 1354 Pls
4678 3336 Pls
4678 2049 Pls
4678 1596 Pls
4678 1463 Pls
4678 3043 Pls
4678 2224 Pls
4678 1502 Pls
4678 1624 Pls
4678 3283 Pls
4678 2581 Pls
4678 1907 Pls
4678 1957 Pls
4678 3328 Pls
4678 2350 Pls
4678 2066 Pls
4678 1753 Pls
4678 4159 Pls
4678 3531 Pls
4678 3027 Pls
4678 2486 Pls
4678 3687 Pls
4678 3518 Pls
4678 2979 Pls
4678 2171 Pls
4678 4315 Pls
4678 3140 Pls
4678 2511 Pls
4678 2666 Pls
4678 3816 Pls
4678 2963 Pls
4678 2614 Pls
4678 2157 Pls
4678 3534 Pls
4678 2780 Pls
4678 1928 Pls
4678 2150 Pls
4678 3038 Pls
4678 2295 Pls
4678 1399 Pls
4678 1661 Pls
4678 2612 Pls
4678 2261 Pls
4678 1716 Pls
4678 1554 Pls
4678 2861 Pls
4678 2466 Pls
4678 2173 Pls
4678 1730 Pls
4678 3375 Pls
4678 2929 Pls
4678 2114 Pls
4678 1665 Pls
4678 3564 Pls
4678 2837 Pls
4678 2423 Pls
4678 1907 Pls
4678 4155 Pls
4678 3186 Pls
4678 2905 Pls
4678 2648 Pls
4678 4407 Pls
4678 3479 Pls
4678 3014 Pls
4678 2848 Pls
4678 4207 Pls
4678 3598 Pls
4678 3148 Pls
4678 2578 Pls
4678 4109 Pls
4678 3239 Pls
4678 2910 Pls
4678 2301 Pls
4678 3253 Pls
4678 3134 Pls
4678 2289 Pls
4678 1754 Pls
4678 2867 Pls
4678 2280 Pls
4678 1823 Pls
4678 1596 Pls
4678 2991 Pls
4678 2195 Pls
4678 1982 Pls
4678 1697 Pls
4678 3432 Pls
4678 2530 Pls
4678 1962 Pls
4678 1720 Pls
4678 3214 Pls
4678 2679 Pls
4678 2252 Pls
4678 1615 Pls
4678 3265 Pls
4678 2362 Pls
4678 2147 Pls
4678 1767 Pls
4678 4246 Pls
4678 3902 Pls
4678 3326 Pls
4678 2687 Pls
4678 4292 Pls
4678 3429 Pls
4678 3300 Pls
4678 2658 Pls
4678 4112 Pls
4678 3593 Pls
4678 3066 Pls
4678 2665 Pls
4678 3977 Pls
4678 3065 Pls
4678 2613 Pls
4678 2685 Pls
4678 3936 Pls
4678 3362 Pls
4678 2578 Pls
4678 2241 Pls
4678 2691 Pls
4678 2086 Pls
4678 1580 Pls
4678 1560 Pls
4678 3064 Pls
4678 2429 Pls
4678 2072 Pls
4678 1671 Pls
4678 3305 Pls
4678 2714 Pls
4678 2306 Pls
4678 1838 Pls
4678 3046 Pls
4678 2595 Pls
4678 2304 Pls
4678 1860 Pls
4678 3624 Pls
4678 2760 Pls
4678 2448 Pls
4678 1776 Pls
5368 4016 Pls
5368 2879 Pls
5368 2751 Pls
5368 2188 Pls
5368 3540 Pls
5368 2704 Pls
5368 2489 Pls
5368 2201 Pls
5368 3483 Pls
5368 2436 Pls
5368 2080 Pls
5368 2072 Pls
5368 3297 Pls
5368 2232 Pls
5368 2299 Pls
5368 1749 Pls
5368 2841 Pls
5368 2301 Pls
5368 1877 Pls
5368 1542 Pls
5368 1850 Pls
5368 1337 Pls
5368 1214 Pls
5368 1111 Pls
5368 2871 Pls
5368 1531 Pls
5368 1307 Pls
5368 1179 Pls
5368 2736 Pls
5368 1767 Pls
5368 1823 Pls
5368 1530 Pls
5368 3051 Pls
5368 1708 Pls
5368 1922 Pls
5368 1466 Pls
5368 2728 Pls
5368 2246 Pls
5368 1797 Pls
5368 1365 Pls
5368 4162 Pls
5368 2967 Pls
5368 2787 Pls
5368 2415 Pls
5368 4276 Pls
5368 2919 Pls
5368 2572 Pls
5368 2393 Pls
5368 3965 Pls
5368 2916 Pls
5368 2441 Pls
5368 2500 Pls
5368 3660 Pls
5368 2984 Pls
5368 2591 Pls
5368 2089 Pls
5368 3559 Pls
5368 2384 Pls
5368 2184 Pls
5368 1837 Pls
5368 1955 Pls
5368 1480 Pls
5368 1389 Pls
5368 1215 Pls
5368 2762 Pls
5368 1945 Pls
5368 1300 Pls
5368 1726 Pls
5368 3422 Pls
5368 2111 Pls
5368 1909 Pls
5368 1622 Pls
5368 3358 Pls
5368 2588 Pls
5368 2363 Pls
5368 1591 Pls
5368 3572 Pls
5368 2020 Pls
5368 2091 Pls
5368 1589 Pls
5368 4085 Pls
5368 3427 Pls
5368 3098 Pls
5368 2480 Pls
5368 4197 Pls
5368 3202 Pls
5368 2732 Pls
5368 2618 Pls
5368 4147 Pls
5368 2901 Pls
5368 2411 Pls
5368 2355 Pls
5368 3884 Pls
5368 3173 Pls
5368 2765 Pls
5368 2161 Pls
5368 3485 Pls
5368 2568 Pls
5368 2046 Pls
5368 1867 Pls
5368 2746 Pls
5368 2203 Pls
5368 1755 Pls
5368 1459 Pls
5368 2796 Pls
5368 2826 Pls
5368 1820 Pls
5368 1647 Pls
5368 3584 Pls
5368 2048 Pls
5368 2108 Pls
5368 1635 Pls
5368 3555 Pls
5368 2226 Pls
5368 1833 Pls
5368 1712 Pls
5368 3178 Pls
5368 2977 Pls
5368 2351 Pls
5368 2080 Pls
5368 4378 Pls
5368 3644 Pls
5368 2738 Pls
5368 2646 Pls
5368 4079 Pls
5368 3315 Pls
5368 2940 Pls
5368 2664 Pls
5368 3932 Pls
5368 3449 Pls
5368 2979 Pls
5368 2871 Pls
5368 3964 Pls
5368 2879 Pls
5368 2467 Pls
5368 2385 Pls
5368 3846 Pls
5368 2502 Pls
5368 2269 Pls
5368 2416 Pls
5368 2700 Pls
5368 1791 Pls
5368 1786 Pls
5368 1576 Pls
5368 3546 Pls
5368 2454 Pls
5368 1782 Pls
5368 1554 Pls
5368 3479 Pls
5368 2827 Pls
5368 2004 Pls
5368 1989 Pls
5368 3216 Pls
5368 2897 Pls
5368 2110 Pls
5368 1782 Pls
5368 3382 Pls
5368 2855 Pls
5368 2491 Pls
5368 1950 Pls
5368 4413 Pls
5368 3492 Pls
5368 3074 Pls
5368 2709 Pls
5368 4124 Pls
5368 3757 Pls
5368 3204 Pls
5368 2596 Pls
5368 4266 Pls
5368 3577 Pls
5368 2957 Pls
5368 2130 Pls
5368 3672 Pls
5368 3487 Pls
5368 3145 Pls
5368 2394 Pls
5368 3899 Pls
5368 2727 Pls
5368 2588 Pls
5368 2224 Pls
5368 3370 Pls
5368 1973 Pls
5368 1671 Pls
5368 1581 Pls
5368 3102 Pls
5368 2398 Pls
5368 2230 Pls
5368 1847 Pls
5368 3422 Pls
5368 2673 Pls
5368 1979 Pls
5368 2035 Pls
5368 3402 Pls
5368 2548 Pls
5368 1859 Pls
5368 1775 Pls
5368 3094 Pls
5368 2537 Pls
5368 2177 Pls
5368 2184 Pls
6059 3947 Pls
6059 2951 Pls
6059 2587 Pls
6059 2034 Pls
6059 3321 Pls
6059 2759 Pls
6059 2674 Pls
6059 2176 Pls
6059 3921 Pls
6059 2395 Pls
6059 2209 Pls
6059 2037 Pls
6059 3347 Pls
6059 2304 Pls
6059 1896 Pls
6059 1916 Pls
6059 3156 Pls
6059 2144 Pls
6059 2143 Pls
6059 1542 Pls
6059 2113 Pls
6059 1194 Pls
6059 1161 Pls
6059 1151 Pls
6059 2743 Pls
6059 1480 Pls
6059 1492 Pls
6059 1258 Pls
6059 2841 Pls
6059 2032 Pls
6059 1496 Pls
6059 1326 Pls
6059 2976 Pls
6059 1973 Pls
6059 1786 Pls
6059 1600 Pls
6059 2953 Pls
6059 2310 Pls
6059 1842 Pls
6059 1825 Pls
6059 3924 Pls
6059 2687 Pls
6059 2730 Pls
6059 2146 Pls
6059 4141 Pls
6059 2696 Pls
6059 2388 Pls
6059 2335 Pls
6059 4088 Pls
6059 3211 Pls
6059 2805 Pls
6059 2394 Pls
6059 3636 Pls
6059 2506 Pls
6059 2575 Pls
6059 2037 Pls
6059 3085 Pls
6059 2819 Pls
6059 2016 Pls
6059 1939 Pls
6059 2691 Pls
6059 1821 Pls
6059 1109 Pls
6059 1108 Pls
6059 2766 Pls
6059 1945 Pls
6059 1641 Pls
6059 1440 Pls
6059 2481 Pls
6059 2003 Pls
6059 2020 Pls
6059 1642 Pls
6059 3259 Pls
6059 2050 Pls
6059 1912 Pls
6059 1726 Pls
6059 3781 Pls
6059 2355 Pls
6059 2014 Pls
6059 1616 Pls
6059 4034 Pls
6059 3624 Pls
6059 2903 Pls
6059 2643 Pls
6059 4387 Pls
6059 3207 Pls
6059 2786 Pls
6059 2482 Pls
6059 4180 Pls
6059 3397 Pls
6059 2791 Pls
6059 1941 Pls
6059 4127 Pls
6059 2706 Pls
6059 2494 Pls
6059 2377 Pls
6059 3465 Pls
6059 2426 Pls
6059 2358 Pls
6059 2071 Pls
6059 2661 Pls
6059 1743 Pls
6059 1723 Pls
6059 1459 Pls
6059 2717 Pls
6059 1807 Pls
6059 1857 Pls
6059 1378 Pls
6059 3261 Pls
6059 2719 Pls
6059 2062 Pls
6059 1577 Pls
6059 3876 Pls
6059 2793 Pls
6059 1854 Pls
6059 1880 Pls
6059 3942 Pls
6059 3085 Pls
6059 2005 Pls
6059 1927 Pls
6059 4008 Pls
6059 3515 Pls
6059 2934 Pls
6059 2768 Pls
6059 4141 Pls
6059 3529 Pls
6059 2625 Pls
6059 2536 Pls
6059 4148 Pls
6059 3514 Pls
6059 2616 Pls
6059 2516 Pls
6059 4131 Pls
6059 3258 Pls
6059 2509 Pls
6059 2197 Pls
6059 3417 Pls
6059 2971 Pls
6059 2392 Pls
6059 2141 Pls
6059 2593 Pls
6059 1964 Pls
6059 1946 Pls
6059 1499 Pls
6059 3752 Pls
6059 2461 Pls
6059 2024 Pls
6059 1573 Pls
6059 3572 Pls
6059 2607 Pls
6059 2086 Pls
6059 1690 Pls
6059 3694 Pls
6059 2483 Pls
6059 1922 Pls
6059 2247 Pls
6059 3418 Pls
6059 2882 Pls
6059 2056 Pls
6059 2116 Pls
6059 4292 Pls
6059 3285 Pls
6059 2911 Pls
6059 2317 Pls
6059 4174 Pls
6059 3662 Pls
6059 2977 Pls
6059 2481 Pls
6059 4090 Pls
6059 3422 Pls
6059 2816 Pls
6059 2576 Pls
6059 3814 Pls
6059 3458 Pls
6059 2613 Pls
6059 2619 Pls
6059 4055 Pls
6059 2721 Pls
6059 2315 Pls
6059 2114 Pls
6059 3115 Pls
6059 2144 Pls
6059 1378 Pls
6059 1639 Pls
6059 3323 Pls
6059 2380 Pls
6059 2230 Pls
6059 1794 Pls
6059 3351 Pls
6059 2204 Pls
6059 1764 Pls
6059 1907 Pls
6059 3366 Pls
6059 2762 Pls
6059 2254 Pls
6059 1772 Pls
6059 3599 Pls
6059 2509 Pls
6059 2359 Pls
6059 2092 Pls
6749 3426 Pls
6749 3076 Pls
6749 2585 Pls
6749 2109 Pls
6749 3618 Pls
6749 2803 Pls
6749 2461 Pls
6749 2232 Pls
6749 3791 Pls
6749 2959 Pls
6749 2556 Pls
6749 1887 Pls
6749 3071 Pls
6749 2599 Pls
6749 1948 Pls
6749 1632 Pls
6749 2841 Pls
6749 2362 Pls
6749 1561 Pls
6749 1651 Pls
6749 2218 Pls
6749 1337 Pls
6749 1109 Pls
6749 1033 Pls
6749 2481 Pls
6749 1480 Pls
6749 1411 Pls
6749 1440 Pls
6749 2818 Pls
6749 1969 Pls
6749 1341 Pls
6749 1526 Pls
6749 2950 Pls
6749 1899 Pls
6749 1803 Pls
6749 1557 Pls
6749 2736 Pls
6749 2227 Pls
6749 1845 Pls
6749 1466 Pls
6749 4195 Pls
6749 3179 Pls
6749 2641 Pls
6749 2568 Pls
6749 4045 Pls
6749 3175 Pls
6749 2625 Pls
6749 2361 Pls
6749 3543 Pls
6749 3004 Pls
6749 2855 Pls
6749 1852 Pls
6749 3810 Pls
6749 2956 Pls
6749 2337 Pls
6749 2064 Pls
6749 3283 Pls
6749 2420 Pls
6749 2273 Pls
6749 1836 Pls
6749 2346 Pls
6749 1523 Pls
6749 1531 Pls
6749 1215 Pls
6749 2871 Pls
6749 1648 Pls
6749 1733 Pls
6749 1534 Pls
6749 2691 Pls
6749 2303 Pls
6749 1879 Pls
6749 1668 Pls
6749 3490 Pls
6749 2169 Pls
6749 2194 Pls
6749 1697 Pls
6749 3274 Pls
6749 2519 Pls
6749 2016 Pls
6749 1675 Pls
6749 4272 Pls
6749 3084 Pls
6749 2790 Pls
6749 2783 Pls
6749 4076 Pls
6749 3326 Pls
6749 3189 Pls
6749 2343 Pls
6749 4151 Pls
6749 3382 Pls
6749 2797 Pls
6749 2357 Pls
6749 3726 Pls
6749 3187 Pls
6749 2372 Pls
6749 2489 Pls
6749 3803 Pls
6749 2727 Pls
6749 1962 Pls
6749 2070 Pls
6749 2376 Pls
6749 2052 Pls
6749 1682 Pls
6749 1498 Pls
6749 3464 Pls
6749 2611 Pls
6749 2148 Pls
6749 1536 Pls
6749 3674 Pls
6749 2600 Pls
6749 1929 Pls
6749 1620 Pls
6749 3349 Pls
6749 2441 Pls
6749 1914 Pls
6749 1766 Pls
6749 3467 Pls
6749 2750 Pls
6749 2145 Pls
6749 1938 Pls
6749 4239 Pls
6749 3466 Pls
6749 2865 Pls
6749 2504 Pls
6749 4190 Pls
6749 3384 Pls
6749 3031 Pls
6749 2839 Pls
6749 4217 Pls
6749 2986 Pls
6749 2666 Pls
6749 2582 Pls
6749 3982 Pls
6749 3137 Pls
6749 2596 Pls
6749 2145 Pls
6749 3937 Pls
6749 2919 Pls
6749 2413 Pls
6749 2134 Pls
6749 3441 Pls
6749 1833 Pls
6749 1439 Pls
6749 1548 Pls
6749 3349 Pls
6749 2500 Pls
6749 1790 Pls
6749 1716 Pls
6749 3837 Pls
6749 2696 Pls
6749 1830 Pls
6749 2012 Pls
6749 3304 Pls
6749 2713 Pls
6749 2065 Pls
6749 1952 Pls
6749 3865 Pls
6749 2866 Pls
6749 2397 Pls
6749 1863 Pls
6749 4462 Pls
6749 3865 Pls
6749 3165 Pls
6749 2710 Pls
6749 4283 Pls
6749 3636 Pls
6749 2880 Pls
6749 2669 Pls
6749 4104 Pls
6749 3624 Pls
6749 2705 Pls
6749 2586 Pls
6749 4158 Pls
6749 3356 Pls
6749 2730 Pls
6749 2268 Pls
6749 4093 Pls
6749 2537 Pls
6749 2704 Pls
6749 2022 Pls
6749 2751 Pls
6749 1965 Pls
6749 1724 Pls
6749 1672 Pls
6749 3539 Pls
6749 2277 Pls
6749 2042 Pls
6749 1778 Pls
6749 3818 Pls
6749 2744 Pls
6749 2140 Pls
6749 1637 Pls
6749 3962 Pls
6749 2407 Pls
6749 1816 Pls
6749 1890 Pls
6749 2838 Pls
6749 2919 Pls
6749 2193 Pls
6749 1898 Pls
% End plot #1
% Begin plot #2
1.000 UL
LT1
LCb setrgbcolor
5636 4551 M
[ [(Helvetica) 250.0 0.0 true true 0 (Average)]
] -83.3 MRshow
LT1
5786 4551 M
663 0 V
1225 2540 M
691 18 V
690 21 V
691 -2 V
690 -3 V
691 13 V
690 -7 V
691 -8 V
690 20 V
% End plot #2
% Begin plot #3
stroke
LT2
LCb setrgbcolor
5636 4301 M
[ [(Helvetica) 250.0 0.0 true true 0 (Min)]
] -83.3 MRshow
LT2
5786 4301 M
663 0 V
1225 1208 M
691 -118 V
690 93 V
691 -75 V
690 32 V
691 -107 V
690 78 V
691 -3 V
690 -75 V
% End plot #3
% Begin plot #4
stroke
LT3
LCb setrgbcolor
5636 4051 M
[ [(Helvetica) 250.0 0.0 true true 0 (Max)]
] -83.3 MRshow
LT3
5786 4051 M
663 0 V
1225 4489 M
691 -66 V
690 -36 V
691 36 V
690 -56 V
691 40 V
690 6 V
691 -26 V
690 75 V
% End plot #4
stroke
LTb
1225 4739 N
0 -3939 V
5524 0 V
0 3939 V
-5524 0 V
Z stroke
1.000 UP
1.000 UL
LTb
stroke
grestore
end
showpage
%%Trailer
%%DocumentFonts: Helvetica
