%!PS-Adobe-2.0 EPSF-2.0
%%Title: n_alphabet_size_100.time.eps
%%Creator: gnuplot 4.4 patchlevel 3
%%CreationDate: Tue Jun  4 12:58:03 2013
%%DocumentFonts: (atend)
%%BoundingBox: 50 50 410 302
%%EndComments
%%BeginProlog
/gnudict 256 dict def
gnudict begin
%
% The following true/false flags may be edited by hand if desired.
% The unit line width and grayscale image gamma correction may also be changed.
%
/Color true def
/Blacktext false def
/Solid false def
/Dashlength 1 def
/Landscape false def
/Level1 false def
/Rounded false def
/ClipToBoundingBox false def
/TransparentPatterns false def
/gnulinewidth 5.000 def
/userlinewidth gnulinewidth def
/Gamma 1.0 def
%
/vshift -83 def
/dl1 {
  10.0 Dashlength mul mul
  Rounded { currentlinewidth 0.75 mul sub dup 0 le { pop 0.01 } if } if
} def
/dl2 {
  10.0 Dashlength mul mul
  Rounded { currentlinewidth 0.75 mul add } if
} def
/hpt_ 31.5 def
/vpt_ 31.5 def
/hpt hpt_ def
/vpt vpt_ def
Level1 {} {
/SDict 10 dict def
systemdict /pdfmark known not {
  userdict /pdfmark systemdict /cleartomark get put
} if
SDict begin [
  /Title (n_alphabet_size_100.time.eps)
  /Subject (gnuplot plot)
  /Creator (gnuplot 4.4 patchlevel 3)
  /Author (xjia)
%  /Producer (gnuplot)
%  /Keywords ()
  /CreationDate (Tue Jun  4 12:58:03 2013)
  /DOCINFO pdfmark
end
} ifelse
/doclip {
  ClipToBoundingBox {
    newpath 50 50 moveto 410 50 lineto 410 302 lineto 50 302 lineto closepath
    clip
  } if
} def
%
% Gnuplot Prolog Version 4.4 (August 2010)
%
%/SuppressPDFMark true def
%
/M {moveto} bind def
/L {lineto} bind def
/R {rmoveto} bind def
/V {rlineto} bind def
/N {newpath moveto} bind def
/Z {closepath} bind def
/C {setrgbcolor} bind def
/f {rlineto fill} bind def
/g {setgray} bind def
/Gshow {show} def   % May be redefined later in the file to support UTF-8
/vpt2 vpt 2 mul def
/hpt2 hpt 2 mul def
/Lshow {currentpoint stroke M 0 vshift R 
	Blacktext {gsave 0 setgray show grestore} {show} ifelse} def
/Rshow {currentpoint stroke M dup stringwidth pop neg vshift R
	Blacktext {gsave 0 setgray show grestore} {show} ifelse} def
/Cshow {currentpoint stroke M dup stringwidth pop -2 div vshift R 
	Blacktext {gsave 0 setgray show grestore} {show} ifelse} def
/UP {dup vpt_ mul /vpt exch def hpt_ mul /hpt exch def
  /hpt2 hpt 2 mul def /vpt2 vpt 2 mul def} def
/DL {Color {setrgbcolor Solid {pop []} if 0 setdash}
 {pop pop pop 0 setgray Solid {pop []} if 0 setdash} ifelse} def
/BL {stroke userlinewidth 2 mul setlinewidth
	Rounded {1 setlinejoin 1 setlinecap} if} def
/AL {stroke userlinewidth 2 div setlinewidth
	Rounded {1 setlinejoin 1 setlinecap} if} def
/UL {dup gnulinewidth mul /userlinewidth exch def
	dup 1 lt {pop 1} if 10 mul /udl exch def} def
/PL {stroke userlinewidth setlinewidth
	Rounded {1 setlinejoin 1 setlinecap} if} def
3.8 setmiterlimit
% Default Line colors
/LCw {1 1 1} def
/LCb {0 0 0} def
/LCa {0 0 0} def
/LC0 {1 0 0} def
/LC1 {0 1 0} def
/LC2 {0 0 1} def
/LC3 {1 0 1} def
/LC4 {0 1 1} def
/LC5 {1 1 0} def
/LC6 {0 0 0} def
/LC7 {1 0.3 0} def
/LC8 {0.5 0.5 0.5} def
% Default Line Types
/LTw {PL [] 1 setgray} def
/LTb {BL [] LCb DL} def
/LTa {AL [1 udl mul 2 udl mul] 0 setdash LCa setrgbcolor} def
/LT0 {PL [] LC0 DL} def
/LT1 {PL [4 dl1 2 dl2] LC1 DL} def
/LT2 {PL [2 dl1 3 dl2] LC2 DL} def
/LT3 {PL [1 dl1 1.5 dl2] LC3 DL} def
/LT4 {PL [6 dl1 2 dl2 1 dl1 2 dl2] LC4 DL} def
/LT5 {PL [3 dl1 3 dl2 1 dl1 3 dl2] LC5 DL} def
/LT6 {PL [2 dl1 2 dl2 2 dl1 6 dl2] LC6 DL} def
/LT7 {PL [1 dl1 2 dl2 6 dl1 2 dl2 1 dl1 2 dl2] LC7 DL} def
/LT8 {PL [2 dl1 2 dl2 2 dl1 2 dl2 2 dl1 2 dl2 2 dl1 4 dl2] LC8 DL} def
/Pnt {stroke [] 0 setdash gsave 1 setlinecap M 0 0 V stroke grestore} def
/Dia {stroke [] 0 setdash 2 copy vpt add M
  hpt neg vpt neg V hpt vpt neg V
  hpt vpt V hpt neg vpt V closepath stroke
  Pnt} def
/Pls {stroke [] 0 setdash vpt sub M 0 vpt2 V
  currentpoint stroke M
  hpt neg vpt neg R hpt2 0 V stroke
 } def
/Box {stroke [] 0 setdash 2 copy exch hpt sub exch vpt add M
  0 vpt2 neg V hpt2 0 V 0 vpt2 V
  hpt2 neg 0 V closepath stroke
  Pnt} def
/Crs {stroke [] 0 setdash exch hpt sub exch vpt add M
  hpt2 vpt2 neg V currentpoint stroke M
  hpt2 neg 0 R hpt2 vpt2 V stroke} def
/TriU {stroke [] 0 setdash 2 copy vpt 1.12 mul add M
  hpt neg vpt -1.62 mul V
  hpt 2 mul 0 V
  hpt neg vpt 1.62 mul V closepath stroke
  Pnt} def
/Star {2 copy Pls Crs} def
/BoxF {stroke [] 0 setdash exch hpt sub exch vpt add M
  0 vpt2 neg V hpt2 0 V 0 vpt2 V
  hpt2 neg 0 V closepath fill} def
/TriUF {stroke [] 0 setdash vpt 1.12 mul add M
  hpt neg vpt -1.62 mul V
  hpt 2 mul 0 V
  hpt neg vpt 1.62 mul V closepath fill} def
/TriD {stroke [] 0 setdash 2 copy vpt 1.12 mul sub M
  hpt neg vpt 1.62 mul V
  hpt 2 mul 0 V
  hpt neg vpt -1.62 mul V closepath stroke
  Pnt} def
/TriDF {stroke [] 0 setdash vpt 1.12 mul sub M
  hpt neg vpt 1.62 mul V
  hpt 2 mul 0 V
  hpt neg vpt -1.62 mul V closepath fill} def
/DiaF {stroke [] 0 setdash vpt add M
  hpt neg vpt neg V hpt vpt neg V
  hpt vpt V hpt neg vpt V closepath fill} def
/Pent {stroke [] 0 setdash 2 copy gsave
  translate 0 hpt M 4 {72 rotate 0 hpt L} repeat
  closepath stroke grestore Pnt} def
/PentF {stroke [] 0 setdash gsave
  translate 0 hpt M 4 {72 rotate 0 hpt L} repeat
  closepath fill grestore} def
/Circle {stroke [] 0 setdash 2 copy
  hpt 0 360 arc stroke Pnt} def
/CircleF {stroke [] 0 setdash hpt 0 360 arc fill} def
/C0 {BL [] 0 setdash 2 copy moveto vpt 90 450 arc} bind def
/C1 {BL [] 0 setdash 2 copy moveto
	2 copy vpt 0 90 arc closepath fill
	vpt 0 360 arc closepath} bind def
/C2 {BL [] 0 setdash 2 copy moveto
	2 copy vpt 90 180 arc closepath fill
	vpt 0 360 arc closepath} bind def
/C3 {BL [] 0 setdash 2 copy moveto
	2 copy vpt 0 180 arc closepath fill
	vpt 0 360 arc closepath} bind def
/C4 {BL [] 0 setdash 2 copy moveto
	2 copy vpt 180 270 arc closepath fill
	vpt 0 360 arc closepath} bind def
/C5 {BL [] 0 setdash 2 copy moveto
	2 copy vpt 0 90 arc
	2 copy moveto
	2 copy vpt 180 270 arc closepath fill
	vpt 0 360 arc} bind def
/C6 {BL [] 0 setdash 2 copy moveto
	2 copy vpt 90 270 arc closepath fill
	vpt 0 360 arc closepath} bind def
/C7 {BL [] 0 setdash 2 copy moveto
	2 copy vpt 0 270 arc closepath fill
	vpt 0 360 arc closepath} bind def
/C8 {BL [] 0 setdash 2 copy moveto
	2 copy vpt 270 360 arc closepath fill
	vpt 0 360 arc closepath} bind def
/C9 {BL [] 0 setdash 2 copy moveto
	2 copy vpt 270 450 arc closepath fill
	vpt 0 360 arc closepath} bind def
/C10 {BL [] 0 setdash 2 copy 2 copy moveto vpt 270 360 arc closepath fill
	2 copy moveto
	2 copy vpt 90 180 arc closepath fill
	vpt 0 360 arc closepath} bind def
/C11 {BL [] 0 setdash 2 copy moveto
	2 copy vpt 0 180 arc closepath fill
	2 copy moveto
	2 copy vpt 270 360 arc closepath fill
	vpt 0 360 arc closepath} bind def
/C12 {BL [] 0 setdash 2 copy moveto
	2 copy vpt 180 360 arc closepath fill
	vpt 0 360 arc closepath} bind def
/C13 {BL [] 0 setdash 2 copy moveto
	2 copy vpt 0 90 arc closepath fill
	2 copy moveto
	2 copy vpt 180 360 arc closepath fill
	vpt 0 360 arc closepath} bind def
/C14 {BL [] 0 setdash 2 copy moveto
	2 copy vpt 90 360 arc closepath fill
	vpt 0 360 arc} bind def
/C15 {BL [] 0 setdash 2 copy vpt 0 360 arc closepath fill
	vpt 0 360 arc closepath} bind def
/Rec {newpath 4 2 roll moveto 1 index 0 rlineto 0 exch rlineto
	neg 0 rlineto closepath} bind def
/Square {dup Rec} bind def
/Bsquare {vpt sub exch vpt sub exch vpt2 Square} bind def
/S0 {BL [] 0 setdash 2 copy moveto 0 vpt rlineto BL Bsquare} bind def
/S1 {BL [] 0 setdash 2 copy vpt Square fill Bsquare} bind def
/S2 {BL [] 0 setdash 2 copy exch vpt sub exch vpt Square fill Bsquare} bind def
/S3 {BL [] 0 setdash 2 copy exch vpt sub exch vpt2 vpt Rec fill Bsquare} bind def
/S4 {BL [] 0 setdash 2 copy exch vpt sub exch vpt sub vpt Square fill Bsquare} bind def
/S5 {BL [] 0 setdash 2 copy 2 copy vpt Square fill
	exch vpt sub exch vpt sub vpt Square fill Bsquare} bind def
/S6 {BL [] 0 setdash 2 copy exch vpt sub exch vpt sub vpt vpt2 Rec fill Bsquare} bind def
/S7 {BL [] 0 setdash 2 copy exch vpt sub exch vpt sub vpt vpt2 Rec fill
	2 copy vpt Square fill Bsquare} bind def
/S8 {BL [] 0 setdash 2 copy vpt sub vpt Square fill Bsquare} bind def
/S9 {BL [] 0 setdash 2 copy vpt sub vpt vpt2 Rec fill Bsquare} bind def
/S10 {BL [] 0 setdash 2 copy vpt sub vpt Square fill 2 copy exch vpt sub exch vpt Square fill
	Bsquare} bind def
/S11 {BL [] 0 setdash 2 copy vpt sub vpt Square fill 2 copy exch vpt sub exch vpt2 vpt Rec fill
	Bsquare} bind def
/S12 {BL [] 0 setdash 2 copy exch vpt sub exch vpt sub vpt2 vpt Rec fill Bsquare} bind def
/S13 {BL [] 0 setdash 2 copy exch vpt sub exch vpt sub vpt2 vpt Rec fill
	2 copy vpt Square fill Bsquare} bind def
/S14 {BL [] 0 setdash 2 copy exch vpt sub exch vpt sub vpt2 vpt Rec fill
	2 copy exch vpt sub exch vpt Square fill Bsquare} bind def
/S15 {BL [] 0 setdash 2 copy Bsquare fill Bsquare} bind def
/D0 {gsave translate 45 rotate 0 0 S0 stroke grestore} bind def
/D1 {gsave translate 45 rotate 0 0 S1 stroke grestore} bind def
/D2 {gsave translate 45 rotate 0 0 S2 stroke grestore} bind def
/D3 {gsave translate 45 rotate 0 0 S3 stroke grestore} bind def
/D4 {gsave translate 45 rotate 0 0 S4 stroke grestore} bind def
/D5 {gsave translate 45 rotate 0 0 S5 stroke grestore} bind def
/D6 {gsave translate 45 rotate 0 0 S6 stroke grestore} bind def
/D7 {gsave translate 45 rotate 0 0 S7 stroke grestore} bind def
/D8 {gsave translate 45 rotate 0 0 S8 stroke grestore} bind def
/D9 {gsave translate 45 rotate 0 0 S9 stroke grestore} bind def
/D10 {gsave translate 45 rotate 0 0 S10 stroke grestore} bind def
/D11 {gsave translate 45 rotate 0 0 S11 stroke grestore} bind def
/D12 {gsave translate 45 rotate 0 0 S12 stroke grestore} bind def
/D13 {gsave translate 45 rotate 0 0 S13 stroke grestore} bind def
/D14 {gsave translate 45 rotate 0 0 S14 stroke grestore} bind def
/D15 {gsave translate 45 rotate 0 0 S15 stroke grestore} bind def
/DiaE {stroke [] 0 setdash vpt add M
  hpt neg vpt neg V hpt vpt neg V
  hpt vpt V hpt neg vpt V closepath stroke} def
/BoxE {stroke [] 0 setdash exch hpt sub exch vpt add M
  0 vpt2 neg V hpt2 0 V 0 vpt2 V
  hpt2 neg 0 V closepath stroke} def
/TriUE {stroke [] 0 setdash vpt 1.12 mul add M
  hpt neg vpt -1.62 mul V
  hpt 2 mul 0 V
  hpt neg vpt 1.62 mul V closepath stroke} def
/TriDE {stroke [] 0 setdash vpt 1.12 mul sub M
  hpt neg vpt 1.62 mul V
  hpt 2 mul 0 V
  hpt neg vpt -1.62 mul V closepath stroke} def
/PentE {stroke [] 0 setdash gsave
  translate 0 hpt M 4 {72 rotate 0 hpt L} repeat
  closepath stroke grestore} def
/CircE {stroke [] 0 setdash 
  hpt 0 360 arc stroke} def
/Opaque {gsave closepath 1 setgray fill grestore 0 setgray closepath} def
/DiaW {stroke [] 0 setdash vpt add M
  hpt neg vpt neg V hpt vpt neg V
  hpt vpt V hpt neg vpt V Opaque stroke} def
/BoxW {stroke [] 0 setdash exch hpt sub exch vpt add M
  0 vpt2 neg V hpt2 0 V 0 vpt2 V
  hpt2 neg 0 V Opaque stroke} def
/TriUW {stroke [] 0 setdash vpt 1.12 mul add M
  hpt neg vpt -1.62 mul V
  hpt 2 mul 0 V
  hpt neg vpt 1.62 mul V Opaque stroke} def
/TriDW {stroke [] 0 setdash vpt 1.12 mul sub M
  hpt neg vpt 1.62 mul V
  hpt 2 mul 0 V
  hpt neg vpt -1.62 mul V Opaque stroke} def
/PentW {stroke [] 0 setdash gsave
  translate 0 hpt M 4 {72 rotate 0 hpt L} repeat
  Opaque stroke grestore} def
/CircW {stroke [] 0 setdash 
  hpt 0 360 arc Opaque stroke} def
/BoxFill {gsave Rec 1 setgray fill grestore} def
/Density {
  /Fillden exch def
  currentrgbcolor
  /ColB exch def /ColG exch def /ColR exch def
  /ColR ColR Fillden mul Fillden sub 1 add def
  /ColG ColG Fillden mul Fillden sub 1 add def
  /ColB ColB Fillden mul Fillden sub 1 add def
  ColR ColG ColB setrgbcolor} def
/BoxColFill {gsave Rec PolyFill} def
/PolyFill {gsave Density fill grestore grestore} def
/h {rlineto rlineto rlineto gsave closepath fill grestore} bind def
%
% PostScript Level 1 Pattern Fill routine for rectangles
% Usage: x y w h s a XX PatternFill
%	x,y = lower left corner of box to be filled
%	w,h = width and height of box
%	  a = angle in degrees between lines and x-axis
%	 XX = 0/1 for no/yes cross-hatch
%
/PatternFill {gsave /PFa [ 9 2 roll ] def
  PFa 0 get PFa 2 get 2 div add PFa 1 get PFa 3 get 2 div add translate
  PFa 2 get -2 div PFa 3 get -2 div PFa 2 get PFa 3 get Rec
  gsave 1 setgray fill grestore clip
  currentlinewidth 0.5 mul setlinewidth
  /PFs PFa 2 get dup mul PFa 3 get dup mul add sqrt def
  0 0 M PFa 5 get rotate PFs -2 div dup translate
  0 1 PFs PFa 4 get div 1 add floor cvi
	{PFa 4 get mul 0 M 0 PFs V} for
  0 PFa 6 get ne {
	0 1 PFs PFa 4 get div 1 add floor cvi
	{PFa 4 get mul 0 2 1 roll M PFs 0 V} for
 } if
  stroke grestore} def
%
/languagelevel where
 {pop languagelevel} {1} ifelse
 2 lt
	{/InterpretLevel1 true def}
	{/InterpretLevel1 Level1 def}
 ifelse
%
% PostScript level 2 pattern fill definitions
%
/Level2PatternFill {
/Tile8x8 {/PaintType 2 /PatternType 1 /TilingType 1 /BBox [0 0 8 8] /XStep 8 /YStep 8}
	bind def
/KeepColor {currentrgbcolor [/Pattern /DeviceRGB] setcolorspace} bind def
<< Tile8x8
 /PaintProc {0.5 setlinewidth pop 0 0 M 8 8 L 0 8 M 8 0 L stroke} 
>> matrix makepattern
/Pat1 exch def
<< Tile8x8
 /PaintProc {0.5 setlinewidth pop 0 0 M 8 8 L 0 8 M 8 0 L stroke
	0 4 M 4 8 L 8 4 L 4 0 L 0 4 L stroke}
>> matrix makepattern
/Pat2 exch def
<< Tile8x8
 /PaintProc {0.5 setlinewidth pop 0 0 M 0 8 L
	8 8 L 8 0 L 0 0 L fill}
>> matrix makepattern
/Pat3 exch def
<< Tile8x8
 /PaintProc {0.5 setlinewidth pop -4 8 M 8 -4 L
	0 12 M 12 0 L stroke}
>> matrix makepattern
/Pat4 exch def
<< Tile8x8
 /PaintProc {0.5 setlinewidth pop -4 0 M 8 12 L
	0 -4 M 12 8 L stroke}
>> matrix makepattern
/Pat5 exch def
<< Tile8x8
 /PaintProc {0.5 setlinewidth pop -2 8 M 4 -4 L
	0 12 M 8 -4 L 4 12 M 10 0 L stroke}
>> matrix makepattern
/Pat6 exch def
<< Tile8x8
 /PaintProc {0.5 setlinewidth pop -2 0 M 4 12 L
	0 -4 M 8 12 L 4 -4 M 10 8 L stroke}
>> matrix makepattern
/Pat7 exch def
<< Tile8x8
 /PaintProc {0.5 setlinewidth pop 8 -2 M -4 4 L
	12 0 M -4 8 L 12 4 M 0 10 L stroke}
>> matrix makepattern
/Pat8 exch def
<< Tile8x8
 /PaintProc {0.5 setlinewidth pop 0 -2 M 12 4 L
	-4 0 M 12 8 L -4 4 M 8 10 L stroke}
>> matrix makepattern
/Pat9 exch def
/Pattern1 {PatternBgnd KeepColor Pat1 setpattern} bind def
/Pattern2 {PatternBgnd KeepColor Pat2 setpattern} bind def
/Pattern3 {PatternBgnd KeepColor Pat3 setpattern} bind def
/Pattern4 {PatternBgnd KeepColor Landscape {Pat5} {Pat4} ifelse setpattern} bind def
/Pattern5 {PatternBgnd KeepColor Landscape {Pat4} {Pat5} ifelse setpattern} bind def
/Pattern6 {PatternBgnd KeepColor Landscape {Pat9} {Pat6} ifelse setpattern} bind def
/Pattern7 {PatternBgnd KeepColor Landscape {Pat8} {Pat7} ifelse setpattern} bind def
} def
%
%
%End of PostScript Level 2 code
%
/PatternBgnd {
  TransparentPatterns {} {gsave 1 setgray fill grestore} ifelse
} def
%
% Substitute for Level 2 pattern fill codes with
% grayscale if Level 2 support is not selected.
%
/Level1PatternFill {
/Pattern1 {0.250 Density} bind def
/Pattern2 {0.500 Density} bind def
/Pattern3 {0.750 Density} bind def
/Pattern4 {0.125 Density} bind def
/Pattern5 {0.375 Density} bind def
/Pattern6 {0.625 Density} bind def
/Pattern7 {0.875 Density} bind def
} def
%
% Now test for support of Level 2 code
%
Level1 {Level1PatternFill} {Level2PatternFill} ifelse
%
/Symbol-Oblique /Symbol findfont [1 0 .167 1 0 0] makefont
dup length dict begin {1 index /FID eq {pop pop} {def} ifelse} forall
currentdict end definefont pop
/MFshow {
   { dup 5 get 3 ge
     { 5 get 3 eq {gsave} {grestore} ifelse }
     {dup dup 0 get findfont exch 1 get scalefont setfont
     [ currentpoint ] exch dup 2 get 0 exch R dup 5 get 2 ne {dup dup 6
     get exch 4 get {Gshow} {stringwidth pop 0 R} ifelse }if dup 5 get 0 eq
     {dup 3 get {2 get neg 0 exch R pop} {pop aload pop M} ifelse} {dup 5
     get 1 eq {dup 2 get exch dup 3 get exch 6 get stringwidth pop -2 div
     dup 0 R} {dup 6 get stringwidth pop -2 div 0 R 6 get
     show 2 index {aload pop M neg 3 -1 roll neg R pop pop} {pop pop pop
     pop aload pop M} ifelse }ifelse }ifelse }
     ifelse }
   forall} def
/Gswidth {dup type /stringtype eq {stringwidth} {pop (n) stringwidth} ifelse} def
/MFwidth {0 exch { dup 5 get 3 ge { 5 get 3 eq { 0 } { pop } ifelse }
 {dup 3 get{dup dup 0 get findfont exch 1 get scalefont setfont
     6 get Gswidth pop add} {pop} ifelse} ifelse} forall} def
/MLshow { currentpoint stroke M
  0 exch R
  Blacktext {gsave 0 setgray MFshow grestore} {MFshow} ifelse } bind def
/MRshow { currentpoint stroke M
  exch dup MFwidth neg 3 -1 roll R
  Blacktext {gsave 0 setgray MFshow grestore} {MFshow} ifelse } bind def
/MCshow { currentpoint stroke M
  exch dup MFwidth -2 div 3 -1 roll R
  Blacktext {gsave 0 setgray MFshow grestore} {MFshow} ifelse } bind def
/XYsave    { [( ) 1 2 true false 3 ()] } bind def
/XYrestore { [( ) 1 2 true false 4 ()] } bind def
end
%%EndProlog
gnudict begin
gsave
doclip
50 50 translate
0.050 0.050 scale
0 setgray
newpath
(Helvetica) findfont 250 scalefont setfont
1.000 UL
LTb
1225 800 M
63 0 V
5461 0 R
-63 0 V
stroke
1075 800 M
[ [(Helvetica) 250.0 0.0 true true 0 ( 0)]
] -83.3 MRshow
1.000 UL
LTb
1225 1588 M
63 0 V
5461 0 R
-63 0 V
stroke
1075 1588 M
[ [(Helvetica) 250.0 0.0 true true 0 ( 0.5)]
] -83.3 MRshow
1.000 UL
LTb
1225 2376 M
63 0 V
5461 0 R
-63 0 V
stroke
1075 2376 M
[ [(Helvetica) 250.0 0.0 true true 0 ( 1)]
] -83.3 MRshow
1.000 UL
LTb
1225 3163 M
63 0 V
5461 0 R
-63 0 V
stroke
1075 3163 M
[ [(Helvetica) 250.0 0.0 true true 0 ( 1.5)]
] -83.3 MRshow
1.000 UL
LTb
1225 3951 M
63 0 V
5461 0 R
-63 0 V
stroke
1075 3951 M
[ [(Helvetica) 250.0 0.0 true true 0 ( 2)]
] -83.3 MRshow
1.000 UL
LTb
1225 4739 M
63 0 V
5461 0 R
-63 0 V
stroke
1075 4739 M
[ [(Helvetica) 250.0 0.0 true true 0 ( 2.5)]
] -83.3 MRshow
1.000 UL
LTb
1225 800 M
0 63 V
0 3876 R
0 -63 V
stroke
1225 550 M
[ [(Helvetica) 250.0 0.0 true true 0 ( 100)]
] -83.3 MCshow
1.000 UL
LTb
1916 800 M
0 63 V
0 3876 R
0 -63 V
stroke
1916 550 M
[ [(Helvetica) 250.0 0.0 true true 0 ( 200)]
] -83.3 MCshow
1.000 UL
LTb
2606 800 M
0 63 V
0 3876 R
0 -63 V
stroke
2606 550 M
[ [(Helvetica) 250.0 0.0 true true 0 ( 300)]
] -83.3 MCshow
1.000 UL
LTb
3297 800 M
0 63 V
0 3876 R
0 -63 V
stroke
3297 550 M
[ [(Helvetica) 250.0 0.0 true true 0 ( 400)]
] -83.3 MCshow
1.000 UL
LTb
3987 800 M
0 63 V
0 3876 R
0 -63 V
stroke
3987 550 M
[ [(Helvetica) 250.0 0.0 true true 0 ( 500)]
] -83.3 MCshow
1.000 UL
LTb
4678 800 M
0 63 V
0 3876 R
0 -63 V
stroke
4678 550 M
[ [(Helvetica) 250.0 0.0 true true 0 ( 600)]
] -83.3 MCshow
1.000 UL
LTb
5368 800 M
0 63 V
0 3876 R
0 -63 V
stroke
5368 550 M
[ [(Helvetica) 250.0 0.0 true true 0 ( 700)]
] -83.3 MCshow
1.000 UL
LTb
6059 800 M
0 63 V
0 3876 R
0 -63 V
stroke
6059 550 M
[ [(Helvetica) 250.0 0.0 true true 0 ( 800)]
] -83.3 MCshow
1.000 UL
LTb
6749 800 M
0 63 V
0 3876 R
0 -63 V
stroke
6749 550 M
[ [(Helvetica) 250.0 0.0 true true 0 ( 900)]
] -83.3 MCshow
1.000 UL
LTb
1.000 UL
LTb
1225 4739 N
0 -3939 V
5524 0 V
0 3939 V
-5524 0 V
Z stroke
LCb setrgbcolor
200 2769 M
currentpoint gsave translate -270 rotate 0 0 moveto
[ [(Helvetica) 250.0 0.0 true true 0 (Time \(sec\))]
] -83.3 MCshow
grestore
LTb
LCb setrgbcolor
3987 175 M
[ [(Helvetica) 250.0 0.0 true true 0 (Alphabet Size)]
] -83.3 MCshow
LTb
1.000 UP
1.000 UL
LTb
% Begin plot #1
1.000 UP
1.000 UL
LT0
1225 801 Pls
1225 802 Pls
1225 802 Pls
1225 802 Pls
1225 801 Pls
1225 801 Pls
1225 802 Pls
1225 802 Pls
1225 801 Pls
1225 801 Pls
1225 801 Pls
1225 801 Pls
1225 801 Pls
1225 801 Pls
1225 801 Pls
1225 801 Pls
1225 800 Pls
1225 800 Pls
1225 800 Pls
1225 800 Pls
1225 801 Pls
1225 801 Pls
1225 801 Pls
1225 801 Pls
1225 801 Pls
1225 801 Pls
1225 801 Pls
1225 801 Pls
1225 801 Pls
1225 801 Pls
1225 802 Pls
1225 802 Pls
1225 802 Pls
1225 802 Pls
1225 802 Pls
1225 802 Pls
1225 802 Pls
1225 803 Pls
1225 803 Pls
1225 803 Pls
1225 813 Pls
1225 813 Pls
1225 817 Pls
1225 818 Pls
1225 809 Pls
1225 812 Pls
1225 811 Pls
1225 815 Pls
1225 808 Pls
1225 811 Pls
1225 807 Pls
1225 809 Pls
1225 807 Pls
1225 806 Pls
1225 808 Pls
1225 807 Pls
1225 804 Pls
1225 805 Pls
1225 804 Pls
1225 804 Pls
1225 809 Pls
1225 809 Pls
1225 809 Pls
1225 811 Pls
1225 813 Pls
1225 815 Pls
1225 817 Pls
1225 818 Pls
1225 823 Pls
1225 823 Pls
1225 825 Pls
1225 827 Pls
1225 829 Pls
1225 832 Pls
1225 832 Pls
1225 834 Pls
1225 840 Pls
1225 839 Pls
1225 844 Pls
1225 844 Pls
1225 852 Pls
1225 856 Pls
1225 862 Pls
1225 853 Pls
1225 837 Pls
1225 836 Pls
1225 841 Pls
1225 838 Pls
1225 826 Pls
1225 841 Pls
1225 837 Pls
1225 827 Pls
1225 823 Pls
1225 828 Pls
1225 829 Pls
1225 820 Pls
1225 813 Pls
1225 818 Pls
1225 818 Pls
1225 820 Pls
1225 845 Pls
1225 843 Pls
1225 849 Pls
1225 854 Pls
1225 880 Pls
1225 874 Pls
1225 880 Pls
1225 883 Pls
1225 911 Pls
1225 911 Pls
1225 925 Pls
1225 916 Pls
1225 962 Pls
1225 965 Pls
1225 967 Pls
1225 970 Pls
1225 986 Pls
1225 995 Pls
1225 984 Pls
1225 1026 Pls
1225 918 Pls
1225 979 Pls
1225 1005 Pls
1225 1003 Pls
1225 936 Pls
1225 937 Pls
1225 928 Pls
1225 948 Pls
1225 864 Pls
1225 902 Pls
1225 916 Pls
1225 929 Pls
1225 865 Pls
1225 873 Pls
1225 870 Pls
1225 870 Pls
1225 840 Pls
1225 840 Pls
1225 833 Pls
1225 858 Pls
1225 962 Pls
1225 952 Pls
1225 963 Pls
1225 946 Pls
1225 1084 Pls
1225 1092 Pls
1225 1078 Pls
1225 1089 Pls
1225 1183 Pls
1225 1237 Pls
1225 1192 Pls
1225 1281 Pls
1225 1399 Pls
1225 1350 Pls
1225 1355 Pls
1225 1454 Pls
1225 1447 Pls
1225 1553 Pls
1225 1615 Pls
1225 1469 Pls
1225 1073 Pls
1225 1164 Pls
1225 1225 Pls
1225 1190 Pls
1225 1013 Pls
1225 1105 Pls
1225 1086 Pls
1225 1129 Pls
1225 979 Pls
1225 1028 Pls
1225 1100 Pls
1225 1036 Pls
1225 1027 Pls
1225 934 Pls
1225 1013 Pls
1225 1009 Pls
1225 894 Pls
1225 948 Pls
1225 907 Pls
1225 905 Pls
1225 1346 Pls
1225 1332 Pls
1225 1430 Pls
1225 1347 Pls
1225 1712 Pls
1225 1804 Pls
1225 1838 Pls
1225 1965 Pls
1225 2077 Pls
1225 2612 Pls
1225 2374 Pls
1225 2693 Pls
1225 3413 Pls
1225 3318 Pls
1225 3232 Pls
1225 3097 Pls
1225 3769 Pls
1225 4080 Pls
1225 4198 Pls
1225 4330 Pls
1916 801 Pls
1916 801 Pls
1916 802 Pls
1916 802 Pls
1916 801 Pls
1916 801 Pls
1916 802 Pls
1916 802 Pls
1916 801 Pls
1916 801 Pls
1916 801 Pls
1916 801 Pls
1916 800 Pls
1916 801 Pls
1916 801 Pls
1916 801 Pls
1916 800 Pls
1916 800 Pls
1916 800 Pls
1916 800 Pls
1916 801 Pls
1916 801 Pls
1916 801 Pls
1916 801 Pls
1916 801 Pls
1916 801 Pls
1916 801 Pls
1916 801 Pls
1916 801 Pls
1916 802 Pls
1916 802 Pls
1916 802 Pls
1916 802 Pls
1916 802 Pls
1916 802 Pls
1916 802 Pls
1916 802 Pls
1916 802 Pls
1916 803 Pls
1916 803 Pls
1916 815 Pls
1916 814 Pls
1916 811 Pls
1916 819 Pls
1916 810 Pls
1916 812 Pls
1916 813 Pls
1916 810 Pls
1916 809 Pls
1916 808 Pls
1916 810 Pls
1916 811 Pls
1916 808 Pls
1916 806 Pls
1916 805 Pls
1916 807 Pls
1916 805 Pls
1916 804 Pls
1916 805 Pls
1916 806 Pls
1916 809 Pls
1916 809 Pls
1916 811 Pls
1916 811 Pls
1916 815 Pls
1916 818 Pls
1916 818 Pls
1916 820 Pls
1916 825 Pls
1916 826 Pls
1916 824 Pls
1916 826 Pls
1916 827 Pls
1916 832 Pls
1916 834 Pls
1916 837 Pls
1916 838 Pls
1916 842 Pls
1916 844 Pls
1916 845 Pls
1916 852 Pls
1916 848 Pls
1916 860 Pls
1916 869 Pls
1916 839 Pls
1916 843 Pls
1916 842 Pls
1916 853 Pls
1916 829 Pls
1916 837 Pls
1916 827 Pls
1916 840 Pls
1916 824 Pls
1916 824 Pls
1916 830 Pls
1916 832 Pls
1916 815 Pls
1916 819 Pls
1916 822 Pls
1916 817 Pls
1916 837 Pls
1916 842 Pls
1916 847 Pls
1916 849 Pls
1916 867 Pls
1916 881 Pls
1916 870 Pls
1916 885 Pls
1916 917 Pls
1916 908 Pls
1916 916 Pls
1916 928 Pls
1916 943 Pls
1916 943 Pls
1916 972 Pls
1916 960 Pls
1916 980 Pls
1916 992 Pls
1916 990 Pls
1916 1026 Pls
1916 932 Pls
1916 939 Pls
1916 976 Pls
1916 974 Pls
1916 900 Pls
1916 937 Pls
1916 923 Pls
1916 949 Pls
1916 879 Pls
1916 895 Pls
1916 902 Pls
1916 912 Pls
1916 875 Pls
1916 863 Pls
1916 880 Pls
1916 884 Pls
1916 847 Pls
1916 849 Pls
1916 840 Pls
1916 841 Pls
1916 940 Pls
1916 975 Pls
1916 965 Pls
1916 972 Pls
1916 1063 Pls
1916 1094 Pls
1916 1101 Pls
1916 1113 Pls
1916 1213 Pls
1916 1226 Pls
1916 1212 Pls
1916 1258 Pls
1916 1324 Pls
1916 1399 Pls
1916 1436 Pls
1916 1378 Pls
1916 1592 Pls
1916 1625 Pls
1916 1560 Pls
1916 1517 Pls
1916 1126 Pls
1916 1091 Pls
1916 1121 Pls
1916 1253 Pls
1916 1020 Pls
1916 1047 Pls
1916 1130 Pls
1916 1122 Pls
1916 1005 Pls
1916 1033 Pls
1916 1059 Pls
1916 1096 Pls
1916 978 Pls
1916 967 Pls
1916 956 Pls
1916 1058 Pls
1916 900 Pls
1916 943 Pls
1916 922 Pls
1916 942 Pls
1916 1378 Pls
1916 1429 Pls
1916 1450 Pls
1916 1399 Pls
1916 2101 Pls
1916 1928 Pls
1916 2039 Pls
1916 1995 Pls
1916 2618 Pls
1916 2463 Pls
1916 2491 Pls
1916 2504 Pls
1916 3541 Pls
1916 3002 Pls
1916 3043 Pls
1916 3476 Pls
1916 3354 Pls
1916 3923 Pls
1916 4037 Pls
1916 4104 Pls
2606 803 Pls
2606 801 Pls
2606 801 Pls
2606 802 Pls
2606 801 Pls
2606 801 Pls
2606 802 Pls
2606 801 Pls
2606 801 Pls
2606 801 Pls
2606 801 Pls
2606 801 Pls
2606 801 Pls
2606 801 Pls
2606 801 Pls
2606 801 Pls
2606 800 Pls
2606 800 Pls
2606 800 Pls
2606 800 Pls
2606 801 Pls
2606 801 Pls
2606 801 Pls
2606 801 Pls
2606 801 Pls
2606 801 Pls
2606 801 Pls
2606 801 Pls
2606 801 Pls
2606 801 Pls
2606 802 Pls
2606 802 Pls
2606 802 Pls
2606 802 Pls
2606 802 Pls
2606 802 Pls
2606 802 Pls
2606 802 Pls
2606 802 Pls
2606 803 Pls
2606 813 Pls
2606 814 Pls
2606 817 Pls
2606 819 Pls
2606 809 Pls
2606 811 Pls
2606 810 Pls
2606 815 Pls
2606 808 Pls
2606 809 Pls
2606 810 Pls
2606 812 Pls
2606 805 Pls
2606 806 Pls
2606 806 Pls
2606 808 Pls
2606 805 Pls
2606 805 Pls
2606 804 Pls
2606 805 Pls
2606 809 Pls
2606 809 Pls
2606 809 Pls
2606 811 Pls
2606 816 Pls
2606 817 Pls
2606 818 Pls
2606 819 Pls
2606 823 Pls
2606 828 Pls
2606 824 Pls
2606 827 Pls
2606 830 Pls
2606 832 Pls
2606 835 Pls
2606 833 Pls
2606 843 Pls
2606 845 Pls
2606 844 Pls
2606 842 Pls
2606 840 Pls
2606 853 Pls
2606 854 Pls
2606 866 Pls
2606 835 Pls
2606 845 Pls
2606 844 Pls
2606 847 Pls
2606 834 Pls
2606 832 Pls
2606 844 Pls
2606 831 Pls
2606 829 Pls
2606 819 Pls
2606 827 Pls
2606 834 Pls
2606 816 Pls
2606 818 Pls
2606 815 Pls
2606 817 Pls
2606 844 Pls
2606 848 Pls
2606 853 Pls
2606 845 Pls
2606 882 Pls
2606 883 Pls
2606 882 Pls
2606 886 Pls
2606 912 Pls
2606 919 Pls
2606 917 Pls
2606 915 Pls
2606 971 Pls
2606 962 Pls
2606 951 Pls
2606 973 Pls
2606 991 Pls
2606 996 Pls
2606 1001 Pls
2606 1027 Pls
2606 952 Pls
2606 946 Pls
2606 988 Pls
2606 978 Pls
2606 925 Pls
2606 926 Pls
2606 927 Pls
2606 956 Pls
2606 872 Pls
2606 894 Pls
2606 913 Pls
2606 902 Pls
2606 865 Pls
2606 883 Pls
2606 867 Pls
2606 861 Pls
2606 847 Pls
2606 844 Pls
2606 854 Pls
2606 864 Pls
2606 961 Pls
2606 952 Pls
2606 953 Pls
2606 958 Pls
2606 1099 Pls
2606 1080 Pls
2606 1050 Pls
2606 1111 Pls
2606 1202 Pls
2606 1198 Pls
2606 1197 Pls
2606 1265 Pls
2606 1334 Pls
2606 1400 Pls
2606 1404 Pls
2606 1462 Pls
2606 1457 Pls
2606 1449 Pls
2606 1583 Pls
2606 1593 Pls
2606 1120 Pls
2606 1112 Pls
2606 1208 Pls
2606 1225 Pls
2606 1037 Pls
2606 1190 Pls
2606 1129 Pls
2606 1234 Pls
2606 981 Pls
2606 1040 Pls
2606 1011 Pls
2606 1111 Pls
2606 952 Pls
2606 973 Pls
2606 960 Pls
2606 983 Pls
2606 898 Pls
2606 920 Pls
2606 902 Pls
2606 911 Pls
2606 1419 Pls
2606 1282 Pls
2606 1464 Pls
2606 1435 Pls
2606 1867 Pls
2606 1938 Pls
2606 1838 Pls
2606 2101 Pls
2606 2385 Pls
2606 2399 Pls
2606 2731 Pls
2606 2708 Pls
2606 3278 Pls
2606 3041 Pls
2606 3232 Pls
2606 3489 Pls
2606 3790 Pls
2606 3962 Pls
2606 3500 Pls
2606 3923 Pls
3297 801 Pls
3297 801 Pls
3297 802 Pls
3297 802 Pls
3297 801 Pls
3297 801 Pls
3297 801 Pls
3297 801 Pls
3297 801 Pls
3297 801 Pls
3297 801 Pls
3297 801 Pls
3297 800 Pls
3297 801 Pls
3297 801 Pls
3297 801 Pls
3297 800 Pls
3297 800 Pls
3297 800 Pls
3297 800 Pls
3297 801 Pls
3297 801 Pls
3297 801 Pls
3297 801 Pls
3297 801 Pls
3297 801 Pls
3297 801 Pls
3297 801 Pls
3297 801 Pls
3297 802 Pls
3297 802 Pls
3297 802 Pls
3297 802 Pls
3297 802 Pls
3297 802 Pls
3297 802 Pls
3297 802 Pls
3297 803 Pls
3297 803 Pls
3297 803 Pls
3297 816 Pls
3297 811 Pls
3297 816 Pls
3297 817 Pls
3297 811 Pls
3297 811 Pls
3297 816 Pls
3297 813 Pls
3297 808 Pls
3297 808 Pls
3297 808 Pls
3297 810 Pls
3297 807 Pls
3297 805 Pls
3297 809 Pls
3297 807 Pls
3297 805 Pls
3297 805 Pls
3297 803 Pls
3297 805 Pls
3297 809 Pls
3297 809 Pls
3297 810 Pls
3297 812 Pls
3297 816 Pls
3297 816 Pls
3297 818 Pls
3297 820 Pls
3297 820 Pls
3297 823 Pls
3297 827 Pls
3297 828 Pls
3297 832 Pls
3297 833 Pls
3297 834 Pls
3297 835 Pls
3297 837 Pls
3297 838 Pls
3297 842 Pls
3297 844 Pls
3297 847 Pls
3297 851 Pls
3297 847 Pls
3297 865 Pls
3297 839 Pls
3297 840 Pls
3297 842 Pls
3297 841 Pls
3297 831 Pls
3297 831 Pls
3297 824 Pls
3297 838 Pls
3297 829 Pls
3297 824 Pls
3297 829 Pls
3297 823 Pls
3297 813 Pls
3297 817 Pls
3297 821 Pls
3297 818 Pls
3297 846 Pls
3297 845 Pls
3297 843 Pls
3297 846 Pls
3297 884 Pls
3297 878 Pls
3297 883 Pls
3297 874 Pls
3297 926 Pls
3297 922 Pls
3297 913 Pls
3297 921 Pls
3297 945 Pls
3297 954 Pls
3297 958 Pls
3297 970 Pls
3297 1014 Pls
3297 1010 Pls
3297 983 Pls
3297 1001 Pls
3297 958 Pls
3297 1004 Pls
3297 953 Pls
3297 978 Pls
3297 906 Pls
3297 940 Pls
3297 933 Pls
3297 950 Pls
3297 883 Pls
3297 911 Pls
3297 940 Pls
3297 908 Pls
3297 863 Pls
3297 880 Pls
3297 889 Pls
3297 852 Pls
3297 844 Pls
3297 851 Pls
3297 866 Pls
3297 870 Pls
3297 937 Pls
3297 958 Pls
3297 958 Pls
3297 962 Pls
3297 1066 Pls
3297 1099 Pls
3297 1092 Pls
3297 1099 Pls
3297 1200 Pls
3297 1202 Pls
3297 1241 Pls
3297 1256 Pls
3297 1502 Pls
3297 1316 Pls
3297 1293 Pls
3297 1390 Pls
3297 1603 Pls
3297 1472 Pls
3297 1556 Pls
3297 1599 Pls
3297 1123 Pls
3297 1109 Pls
3297 1249 Pls
3297 1162 Pls
3297 1079 Pls
3297 1060 Pls
3297 1123 Pls
3297 1077 Pls
3297 958 Pls
3297 1052 Pls
3297 1046 Pls
3297 1082 Pls
3297 938 Pls
3297 966 Pls
3297 972 Pls
3297 973 Pls
3297 908 Pls
3297 887 Pls
3297 902 Pls
3297 927 Pls
3297 1297 Pls
3297 1350 Pls
3297 1435 Pls
3297 1418 Pls
3297 1888 Pls
3297 2023 Pls
3297 1859 Pls
3297 2096 Pls
3297 2485 Pls
3297 2769 Pls
3297 2486 Pls
3297 2680 Pls
3297 2856 Pls
3297 3026 Pls
3297 3213 Pls
3297 3468 Pls
3297 3942 Pls
3297 3755 Pls
3297 4056 Pls
3297 4025 Pls
3987 801 Pls
3987 801 Pls
3987 802 Pls
3987 802 Pls
3987 801 Pls
3987 801 Pls
3987 801 Pls
3987 802 Pls
3987 801 Pls
3987 801 Pls
3987 801 Pls
3987 801 Pls
3987 801 Pls
3987 801 Pls
3987 801 Pls
3987 801 Pls
3987 800 Pls
3987 801 Pls
3987 800 Pls
3987 801 Pls
3987 801 Pls
3987 801 Pls
3987 801 Pls
3987 801 Pls
3987 801 Pls
3987 801 Pls
3987 801 Pls
3987 801 Pls
3987 801 Pls
3987 802 Pls
3987 802 Pls
3987 802 Pls
3987 802 Pls
3987 802 Pls
3987 803 Pls
3987 802 Pls
3987 802 Pls
3987 803 Pls
3987 803 Pls
3987 803 Pls
3987 814 Pls
3987 818 Pls
3987 814 Pls
3987 818 Pls
3987 809 Pls
3987 812 Pls
3987 811 Pls
3987 813 Pls
3987 809 Pls
3987 809 Pls
3987 810 Pls
3987 811 Pls
3987 807 Pls
3987 807 Pls
3987 808 Pls
3987 808 Pls
3987 805 Pls
3987 805 Pls
3987 805 Pls
3987 805 Pls
3987 809 Pls
3987 810 Pls
3987 810 Pls
3987 812 Pls
3987 816 Pls
3987 814 Pls
3987 817 Pls
3987 817 Pls
3987 824 Pls
3987 827 Pls
3987 824 Pls
3987 826 Pls
3987 829 Pls
3987 835 Pls
3987 832 Pls
3987 838 Pls
3987 836 Pls
3987 841 Pls
3987 842 Pls
3987 845 Pls
3987 840 Pls
3987 845 Pls
3987 854 Pls
3987 869 Pls
3987 831 Pls
3987 836 Pls
3987 850 Pls
3987 854 Pls
3987 827 Pls
3987 839 Pls
3987 829 Pls
3987 843 Pls
3987 825 Pls
3987 820 Pls
3987 830 Pls
3987 829 Pls
3987 817 Pls
3987 819 Pls
3987 815 Pls
3987 820 Pls
3987 844 Pls
3987 847 Pls
3987 851 Pls
3987 848 Pls
3987 875 Pls
3987 884 Pls
3987 886 Pls
3987 880 Pls
3987 918 Pls
3987 904 Pls
3987 935 Pls
3987 916 Pls
3987 946 Pls
3987 958 Pls
3987 962 Pls
3987 956 Pls
3987 963 Pls
3987 988 Pls
3987 1005 Pls
3987 1028 Pls
3987 943 Pls
3987 975 Pls
3987 968 Pls
3987 958 Pls
3987 908 Pls
3987 947 Pls
3987 952 Pls
3987 963 Pls
3987 884 Pls
3987 913 Pls
3987 897 Pls
3987 905 Pls
3987 872 Pls
3987 872 Pls
3987 873 Pls
3987 873 Pls
3987 847 Pls
3987 849 Pls
3987 853 Pls
3987 850 Pls
3987 969 Pls
3987 964 Pls
3987 968 Pls
3987 948 Pls
3987 1098 Pls
3987 1054 Pls
3987 1125 Pls
3987 1086 Pls
3987 1215 Pls
3987 1199 Pls
3987 1247 Pls
3987 1232 Pls
3987 1350 Pls
3987 1371 Pls
3987 1410 Pls
3987 1377 Pls
3987 1598 Pls
3987 1566 Pls
3987 1523 Pls
3987 1566 Pls
3987 1078 Pls
3987 1057 Pls
3987 1216 Pls
3987 1190 Pls
3987 1050 Pls
3987 1063 Pls
3987 1133 Pls
3987 1090 Pls
3987 981 Pls
3987 998 Pls
3987 1042 Pls
3987 1075 Pls
3987 954 Pls
3987 955 Pls
3987 967 Pls
3987 962 Pls
3987 919 Pls
3987 890 Pls
3987 917 Pls
3987 919 Pls
3987 1339 Pls
3987 1344 Pls
3987 1379 Pls
3987 1460 Pls
3987 2046 Pls
3987 1880 Pls
3987 2124 Pls
3987 1914 Pls
3987 2489 Pls
3987 2480 Pls
3987 2633 Pls
3987 2594 Pls
3987 3326 Pls
3987 3283 Pls
3987 3312 Pls
3987 3424 Pls
3987 3881 Pls
3987 4134 Pls
3987 3544 Pls
3987 4084 Pls
4678 801 Pls
4678 801 Pls
4678 801 Pls
4678 802 Pls
4678 801 Pls
4678 801 Pls
4678 801 Pls
4678 802 Pls
4678 801 Pls
4678 801 Pls
4678 801 Pls
4678 801 Pls
4678 801 Pls
4678 801 Pls
4678 801 Pls
4678 801 Pls
4678 800 Pls
4678 800 Pls
4678 800 Pls
4678 801 Pls
4678 801 Pls
4678 801 Pls
4678 801 Pls
4678 801 Pls
4678 801 Pls
4678 801 Pls
4678 801 Pls
4678 801 Pls
4678 801 Pls
4678 802 Pls
4678 802 Pls
4678 802 Pls
4678 802 Pls
4678 802 Pls
4678 802 Pls
4678 802 Pls
4678 802 Pls
4678 803 Pls
4678 803 Pls
4678 803 Pls
4678 814 Pls
4678 816 Pls
4678 815 Pls
4678 820 Pls
4678 813 Pls
4678 809 Pls
4678 814 Pls
4678 814 Pls
4678 809 Pls
4678 809 Pls
4678 809 Pls
4678 811 Pls
4678 807 Pls
4678 808 Pls
4678 809 Pls
4678 806 Pls
4678 805 Pls
4678 805 Pls
4678 805 Pls
4678 805 Pls
4678 807 Pls
4678 810 Pls
4678 810 Pls
4678 811 Pls
4678 816 Pls
4678 816 Pls
4678 816 Pls
4678 820 Pls
4678 824 Pls
4678 826 Pls
4678 827 Pls
4678 826 Pls
4678 831 Pls
4678 833 Pls
4678 831 Pls
4678 837 Pls
4678 841 Pls
4678 840 Pls
4678 843 Pls
4678 847 Pls
4678 842 Pls
4678 860 Pls
4678 842 Pls
4678 864 Pls
4678 844 Pls
4678 843 Pls
4678 846 Pls
4678 854 Pls
4678 836 Pls
4678 831 Pls
4678 833 Pls
4678 841 Pls
4678 818 Pls
4678 820 Pls
4678 822 Pls
4678 827 Pls
4678 816 Pls
4678 818 Pls
4678 817 Pls
4678 822 Pls
4678 843 Pls
4678 852 Pls
4678 845 Pls
4678 849 Pls
4678 874 Pls
4678 875 Pls
4678 883 Pls
4678 888 Pls
4678 905 Pls
4678 914 Pls
4678 909 Pls
4678 925 Pls
4678 957 Pls
4678 951 Pls
4678 957 Pls
4678 981 Pls
4678 989 Pls
4678 1005 Pls
4678 1005 Pls
4678 1022 Pls
4678 932 Pls
4678 959 Pls
4678 965 Pls
4678 987 Pls
4678 957 Pls
4678 917 Pls
4678 939 Pls
4678 936 Pls
4678 875 Pls
4678 887 Pls
4678 914 Pls
4678 905 Pls
4678 869 Pls
4678 883 Pls
4678 863 Pls
4678 873 Pls
4678 841 Pls
4678 845 Pls
4678 850 Pls
4678 859 Pls
4678 933 Pls
4678 961 Pls
4678 944 Pls
4678 955 Pls
4678 1078 Pls
4678 1085 Pls
4678 1086 Pls
4678 1113 Pls
4678 1243 Pls
4678 1266 Pls
4678 1303 Pls
4678 1246 Pls
4678 1336 Pls
4678 1387 Pls
4678 1466 Pls
4678 1351 Pls
4678 1499 Pls
4678 1661 Pls
4678 1591 Pls
4678 1653 Pls
4678 1111 Pls
4678 1054 Pls
4678 1057 Pls
4678 1160 Pls
4678 1027 Pls
4678 1066 Pls
4678 1139 Pls
4678 1152 Pls
4678 996 Pls
4678 1018 Pls
4678 1023 Pls
4678 1059 Pls
4678 950 Pls
4678 992 Pls
4678 1008 Pls
4678 995 Pls
4678 875 Pls
4678 921 Pls
4678 911 Pls
4678 936 Pls
4678 1326 Pls
4678 1320 Pls
4678 1400 Pls
4678 1434 Pls
4678 1889 Pls
4678 1931 Pls
4678 2049 Pls
4678 2008 Pls
4678 2427 Pls
4678 2336 Pls
4678 2485 Pls
4678 2353 Pls
4678 3027 Pls
4678 3241 Pls
4678 3583 Pls
4678 3038 Pls
4678 3170 Pls
4678 4056 Pls
4678 4245 Pls
4678 3986 Pls
5368 802 Pls
5368 801 Pls
5368 802 Pls
5368 802 Pls
5368 801 Pls
5368 801 Pls
5368 802 Pls
5368 802 Pls
5368 801 Pls
5368 801 Pls
5368 801 Pls
5368 801 Pls
5368 800 Pls
5368 801 Pls
5368 801 Pls
5368 801 Pls
5368 800 Pls
5368 800 Pls
5368 801 Pls
5368 800 Pls
5368 801 Pls
5368 801 Pls
5368 801 Pls
5368 801 Pls
5368 801 Pls
5368 801 Pls
5368 801 Pls
5368 801 Pls
5368 801 Pls
5368 802 Pls
5368 802 Pls
5368 802 Pls
5368 802 Pls
5368 802 Pls
5368 802 Pls
5368 802 Pls
5368 802 Pls
5368 803 Pls
5368 803 Pls
5368 803 Pls
5368 813 Pls
5368 815 Pls
5368 815 Pls
5368 816 Pls
5368 809 Pls
5368 812 Pls
5368 814 Pls
5368 814 Pls
5368 807 Pls
5368 809 Pls
5368 808 Pls
5368 813 Pls
5368 806 Pls
5368 806 Pls
5368 806 Pls
5368 810 Pls
5368 804 Pls
5368 804 Pls
5368 805 Pls
5368 804 Pls
5368 808 Pls
5368 810 Pls
5368 812 Pls
5368 810 Pls
5368 815 Pls
5368 816 Pls
5368 819 Pls
5368 817 Pls
5368 824 Pls
5368 825 Pls
5368 825 Pls
5368 827 Pls
5368 831 Pls
5368 833 Pls
5368 834 Pls
5368 835 Pls
5368 834 Pls
5368 839 Pls
5368 843 Pls
5368 843 Pls
5368 850 Pls
5368 851 Pls
5368 868 Pls
5368 884 Pls
5368 830 Pls
5368 843 Pls
5368 848 Pls
5368 848 Pls
5368 820 Pls
5368 838 Pls
5368 840 Pls
5368 837 Pls
5368 825 Pls
5368 827 Pls
5368 823 Pls
5368 829 Pls
5368 819 Pls
5368 818 Pls
5368 822 Pls
5368 816 Pls
5368 837 Pls
5368 846 Pls
5368 847 Pls
5368 850 Pls
5368 876 Pls
5368 880 Pls
5368 886 Pls
5368 873 Pls
5368 907 Pls
5368 921 Pls
5368 915 Pls
5368 924 Pls
5368 947 Pls
5368 964 Pls
5368 974 Pls
5368 959 Pls
5368 1000 Pls
5368 1008 Pls
5368 1006 Pls
5368 1025 Pls
5368 937 Pls
5368 965 Pls
5368 1010 Pls
5368 982 Pls
5368 936 Pls
5368 920 Pls
5368 933 Pls
5368 944 Pls
5368 883 Pls
5368 894 Pls
5368 887 Pls
5368 909 Pls
5368 870 Pls
5368 857 Pls
5368 857 Pls
5368 884 Pls
5368 848 Pls
5368 846 Pls
5368 848 Pls
5368 848 Pls
5368 944 Pls
5368 950 Pls
5368 962 Pls
5368 952 Pls
5368 1081 Pls
5368 1105 Pls
5368 1094 Pls
5368 1105 Pls
5368 1225 Pls
5368 1242 Pls
5368 1211 Pls
5368 1268 Pls
5368 1399 Pls
5368 1459 Pls
5368 1398 Pls
5368 1390 Pls
5368 1560 Pls
5368 1534 Pls
5368 1583 Pls
5368 1586 Pls
5368 1079 Pls
5368 1222 Pls
5368 1156 Pls
5368 1198 Pls
5368 1018 Pls
5368 1059 Pls
5368 1181 Pls
5368 1144 Pls
5368 977 Pls
5368 1010 Pls
5368 1055 Pls
5368 1101 Pls
5368 935 Pls
5368 985 Pls
5368 989 Pls
5368 963 Pls
5368 895 Pls
5368 912 Pls
5368 954 Pls
5368 940 Pls
5368 1428 Pls
5368 1433 Pls
5368 1443 Pls
5368 1375 Pls
5368 1913 Pls
5368 1842 Pls
5368 1955 Pls
5368 1826 Pls
5368 2246 Pls
5368 2256 Pls
5368 2424 Pls
5368 2625 Pls
5368 3303 Pls
5368 3362 Pls
5368 3456 Pls
5368 3231 Pls
5368 4100 Pls
5368 3822 Pls
5368 3801 Pls
5368 4215 Pls
6059 802 Pls
6059 801 Pls
6059 802 Pls
6059 802 Pls
6059 801 Pls
6059 801 Pls
6059 802 Pls
6059 802 Pls
6059 801 Pls
6059 801 Pls
6059 801 Pls
6059 801 Pls
6059 801 Pls
6059 801 Pls
6059 801 Pls
6059 801 Pls
6059 800 Pls
6059 800 Pls
6059 801 Pls
6059 800 Pls
6059 801 Pls
6059 801 Pls
6059 801 Pls
6059 801 Pls
6059 801 Pls
6059 801 Pls
6059 801 Pls
6059 801 Pls
6059 801 Pls
6059 802 Pls
6059 802 Pls
6059 802 Pls
6059 802 Pls
6059 802 Pls
6059 802 Pls
6059 802 Pls
6059 802 Pls
6059 802 Pls
6059 803 Pls
6059 803 Pls
6059 811 Pls
6059 813 Pls
6059 818 Pls
6059 816 Pls
6059 810 Pls
6059 811 Pls
6059 813 Pls
6059 816 Pls
6059 809 Pls
6059 809 Pls
6059 809 Pls
6059 810 Pls
6059 806 Pls
6059 807 Pls
6059 806 Pls
6059 807 Pls
6059 804 Pls
6059 805 Pls
6059 804 Pls
6059 805 Pls
6059 809 Pls
6059 809 Pls
6059 810 Pls
6059 811 Pls
6059 817 Pls
6059 819 Pls
6059 817 Pls
6059 820 Pls
6059 826 Pls
6059 825 Pls
6059 827 Pls
6059 829 Pls
6059 825 Pls
6059 834 Pls
6059 834 Pls
6059 837 Pls
6059 839 Pls
6059 844 Pls
6059 840 Pls
6059 844 Pls
6059 859 Pls
6059 848 Pls
6059 847 Pls
6059 864 Pls
6059 840 Pls
6059 842 Pls
6059 840 Pls
6059 851 Pls
6059 831 Pls
6059 826 Pls
6059 828 Pls
6059 841 Pls
6059 824 Pls
6059 824 Pls
6059 829 Pls
6059 823 Pls
6059 813 Pls
6059 820 Pls
6059 822 Pls
6059 819 Pls
6059 840 Pls
6059 838 Pls
6059 846 Pls
6059 849 Pls
6059 873 Pls
6059 880 Pls
6059 886 Pls
6059 886 Pls
6059 914 Pls
6059 907 Pls
6059 915 Pls
6059 920 Pls
6059 949 Pls
6059 971 Pls
6059 962 Pls
6059 970 Pls
6059 985 Pls
6059 1001 Pls
6059 1024 Pls
6059 1012 Pls
6059 930 Pls
6059 952 Pls
6059 1008 Pls
6059 982 Pls
6059 916 Pls
6059 940 Pls
6059 936 Pls
6059 944 Pls
6059 896 Pls
6059 885 Pls
6059 918 Pls
6059 923 Pls
6059 855 Pls
6059 863 Pls
6059 869 Pls
6059 874 Pls
6059 839 Pls
6059 851 Pls
6059 882 Pls
6059 852 Pls
6059 946 Pls
6059 941 Pls
6059 954 Pls
6059 945 Pls
6059 1083 Pls
6059 1077 Pls
6059 1065 Pls
6059 1111 Pls
6059 1207 Pls
6059 1231 Pls
6059 1225 Pls
6059 1255 Pls
6059 1384 Pls
6059 1434 Pls
6059 1385 Pls
6059 1413 Pls
6059 1534 Pls
6059 1527 Pls
6059 1593 Pls
6059 1546 Pls
6059 1138 Pls
6059 1072 Pls
6059 1161 Pls
6059 1217 Pls
6059 1050 Pls
6059 1081 Pls
6059 1110 Pls
6059 1190 Pls
6059 975 Pls
6059 1073 Pls
6059 1066 Pls
6059 1066 Pls
6059 968 Pls
6059 966 Pls
6059 957 Pls
6059 1010 Pls
6059 883 Pls
6059 898 Pls
6059 935 Pls
6059 978 Pls
6059 1399 Pls
6059 1425 Pls
6059 1363 Pls
6059 1410 Pls
6059 1908 Pls
6059 1837 Pls
6059 2043 Pls
6059 1943 Pls
6059 2533 Pls
6059 2659 Pls
6059 2722 Pls
6059 2779 Pls
6059 3138 Pls
6059 3297 Pls
6059 3208 Pls
6059 3479 Pls
6059 3980 Pls
6059 4080 Pls
6059 3822 Pls
6059 3736 Pls
6749 803 Pls
6749 801 Pls
6749 802 Pls
6749 802 Pls
6749 801 Pls
6749 801 Pls
6749 801 Pls
6749 801 Pls
6749 801 Pls
6749 801 Pls
6749 801 Pls
6749 801 Pls
6749 800 Pls
6749 801 Pls
6749 801 Pls
6749 801 Pls
6749 800 Pls
6749 800 Pls
6749 800 Pls
6749 801 Pls
6749 801 Pls
6749 801 Pls
6749 801 Pls
6749 801 Pls
6749 801 Pls
6749 801 Pls
6749 801 Pls
6749 801 Pls
6749 801 Pls
6749 802 Pls
6749 802 Pls
6749 802 Pls
6749 802 Pls
6749 802 Pls
6749 802 Pls
6749 802 Pls
6749 802 Pls
6749 803 Pls
6749 803 Pls
6749 803 Pls
6749 812 Pls
6749 814 Pls
6749 814 Pls
6749 814 Pls
6749 809 Pls
6749 810 Pls
6749 811 Pls
6749 813 Pls
6749 810 Pls
6749 809 Pls
6749 809 Pls
6749 809 Pls
6749 806 Pls
6749 807 Pls
6749 808 Pls
6749 807 Pls
6749 804 Pls
6749 804 Pls
6749 805 Pls
6749 805 Pls
6749 810 Pls
6749 810 Pls
6749 811 Pls
6749 812 Pls
6749 815 Pls
6749 817 Pls
6749 818 Pls
6749 820 Pls
6749 824 Pls
6749 824 Pls
6749 825 Pls
6749 827 Pls
6749 831 Pls
6749 834 Pls
6749 835 Pls
6749 834 Pls
6749 834 Pls
6749 842 Pls
6749 843 Pls
6749 844 Pls
6749 840 Pls
6749 847 Pls
6749 860 Pls
6749 866 Pls
6749 828 Pls
6749 846 Pls
6749 856 Pls
6749 847 Pls
6749 822 Pls
6749 834 Pls
6749 822 Pls
6749 844 Pls
6749 820 Pls
6749 828 Pls
6749 824 Pls
6749 827 Pls
6749 817 Pls
6749 819 Pls
6749 815 Pls
6749 822 Pls
6749 841 Pls
6749 850 Pls
6749 848 Pls
6749 854 Pls
6749 868 Pls
6749 878 Pls
6749 885 Pls
6749 890 Pls
6749 903 Pls
6749 924 Pls
6749 914 Pls
6749 931 Pls
6749 938 Pls
6749 952 Pls
6749 943 Pls
6749 954 Pls
6749 991 Pls
6749 1003 Pls
6749 1002 Pls
6749 1013 Pls
6749 958 Pls
6749 984 Pls
6749 1003 Pls
6749 1008 Pls
6749 923 Pls
6749 944 Pls
6749 927 Pls
6749 956 Pls
6749 879 Pls
6749 904 Pls
6749 899 Pls
6749 903 Pls
6749 861 Pls
6749 850 Pls
6749 865 Pls
6749 899 Pls
6749 854 Pls
6749 844 Pls
6749 850 Pls
6749 841 Pls
6749 962 Pls
6749 949 Pls
6749 968 Pls
6749 953 Pls
6749 1082 Pls
6749 1061 Pls
6749 1068 Pls
6749 1123 Pls
6749 1206 Pls
6749 1261 Pls
6749 1243 Pls
6749 1260 Pls
6749 1418 Pls
6749 1369 Pls
6749 1442 Pls
6749 1382 Pls
6749 1585 Pls
6749 1569 Pls
6749 1554 Pls
6749 1565 Pls
6749 1089 Pls
6749 1122 Pls
6749 1215 Pls
6749 1117 Pls
6749 1076 Pls
6749 1122 Pls
6749 1091 Pls
6749 1073 Pls
6749 1041 Pls
6749 1003 Pls
6749 1057 Pls
6749 1110 Pls
6749 941 Pls
6749 983 Pls
6749 1012 Pls
6749 1012 Pls
6749 918 Pls
6749 916 Pls
6749 934 Pls
6749 989 Pls
6749 1368 Pls
6749 1369 Pls
6749 1422 Pls
6749 1413 Pls
6749 2028 Pls
6749 1965 Pls
6749 1800 Pls
6749 1806 Pls
6749 2465 Pls
6749 2664 Pls
6749 2664 Pls
6749 2798 Pls
6749 3290 Pls
6749 3295 Pls
6749 3695 Pls
6749 3294 Pls
6749 3823 Pls
6749 3776 Pls
6749 3602 Pls
6749 4091 Pls
% End plot #1
% Begin plot #2
1.000 UL
LT1
LCb setrgbcolor
5636 4551 M
[ [(Helvetica) 250.0 0.0 true true 0 (Average)]
] -83.3 MRshow
LT1
5786 4551 M
663 0 V
1225 1077 M
691 2 V
690 -2 V
691 1 V
690 2 V
691 -6 V
690 5 V
691 3 V
690 0 V
% End plot #2
% Begin plot #3
stroke
LT2
LCb setrgbcolor
5636 4301 M
[ [(Helvetica) 250.0 0.0 true true 0 (Min)]
] -83.3 MRshow
LT2
5786 4301 M
663 0 V
1225 800 M
691 0 V
690 0 V
691 0 V
690 0 V
691 0 V
690 0 V
691 0 V
690 0 V
% End plot #3
% Begin plot #4
stroke
LT3
LCb setrgbcolor
5636 4051 M
[ [(Helvetica) 250.0 0.0 true true 0 (Max)]
] -83.3 MRshow
LT3
5786 4051 M
663 0 V
1225 4330 M
691 -226 V
690 -142 V
691 94 V
690 78 V
691 111 V
690 -30 V
691 -135 V
690 11 V
% End plot #4
stroke
LTb
1225 4739 N
0 -3939 V
5524 0 V
0 3939 V
-5524 0 V
Z stroke
1.000 UP
1.000 UL
LTb
stroke
grestore
end
showpage
%%Trailer
%%DocumentFonts: Helvetica
