%!PS-Adobe-2.0 EPSF-2.0
%%Title: n_alphabet_size_1000.precision.eps
%%Creator: gnuplot 4.4 patchlevel 3
%%CreationDate: Tue Jun  4 12:58:03 2013
%%DocumentFonts: (atend)
%%BoundingBox: 50 50 410 302
%%EndComments
%%BeginProlog
/gnudict 256 dict def
gnudict begin
%
% The following true/false flags may be edited by hand if desired.
% The unit line width and grayscale image gamma correction may also be changed.
%
/Color true def
/Blacktext false def
/Solid false def
/Dashlength 1 def
/Landscape false def
/Level1 false def
/Rounded false def
/ClipToBoundingBox false def
/TransparentPatterns false def
/gnulinewidth 5.000 def
/userlinewidth gnulinewidth def
/Gamma 1.0 def
%
/vshift -83 def
/dl1 {
  10.0 Dashlength mul mul
  Rounded { currentlinewidth 0.75 mul sub dup 0 le { pop 0.01 } if } if
} def
/dl2 {
  10.0 Dashlength mul mul
  Rounded { currentlinewidth 0.75 mul add } if
} def
/hpt_ 31.5 def
/vpt_ 31.5 def
/hpt hpt_ def
/vpt vpt_ def
Level1 {} {
/SDict 10 dict def
systemdict /pdfmark known not {
  userdict /pdfmark systemdict /cleartomark get put
} if
SDict begin [
  /Title (n_alphabet_size_1000.precision.eps)
  /Subject (gnuplot plot)
  /Creator (gnuplot 4.4 patchlevel 3)
  /Author (xjia)
%  /Producer (gnuplot)
%  /Keywords ()
  /CreationDate (Tue Jun  4 12:58:03 2013)
  /DOCINFO pdfmark
end
} ifelse
/doclip {
  ClipToBoundingBox {
    newpath 50 50 moveto 410 50 lineto 410 302 lineto 50 302 lineto closepath
    clip
  } if
} def
%
% Gnuplot Prolog Version 4.4 (August 2010)
%
%/SuppressPDFMark true def
%
/M {moveto} bind def
/L {lineto} bind def
/R {rmoveto} bind def
/V {rlineto} bind def
/N {newpath moveto} bind def
/Z {closepath} bind def
/C {setrgbcolor} bind def
/f {rlineto fill} bind def
/g {setgray} bind def
/Gshow {show} def   % May be redefined later in the file to support UTF-8
/vpt2 vpt 2 mul def
/hpt2 hpt 2 mul def
/Lshow {currentpoint stroke M 0 vshift R 
	Blacktext {gsave 0 setgray show grestore} {show} ifelse} def
/Rshow {currentpoint stroke M dup stringwidth pop neg vshift R
	Blacktext {gsave 0 setgray show grestore} {show} ifelse} def
/Cshow {currentpoint stroke M dup stringwidth pop -2 div vshift R 
	Blacktext {gsave 0 setgray show grestore} {show} ifelse} def
/UP {dup vpt_ mul /vpt exch def hpt_ mul /hpt exch def
  /hpt2 hpt 2 mul def /vpt2 vpt 2 mul def} def
/DL {Color {setrgbcolor Solid {pop []} if 0 setdash}
 {pop pop pop 0 setgray Solid {pop []} if 0 setdash} ifelse} def
/BL {stroke userlinewidth 2 mul setlinewidth
	Rounded {1 setlinejoin 1 setlinecap} if} def
/AL {stroke userlinewidth 2 div setlinewidth
	Rounded {1 setlinejoin 1 setlinecap} if} def
/UL {dup gnulinewidth mul /userlinewidth exch def
	dup 1 lt {pop 1} if 10 mul /udl exch def} def
/PL {stroke userlinewidth setlinewidth
	Rounded {1 setlinejoin 1 setlinecap} if} def
3.8 setmiterlimit
% Default Line colors
/LCw {1 1 1} def
/LCb {0 0 0} def
/LCa {0 0 0} def
/LC0 {1 0 0} def
/LC1 {0 1 0} def
/LC2 {0 0 1} def
/LC3 {1 0 1} def
/LC4 {0 1 1} def
/LC5 {1 1 0} def
/LC6 {0 0 0} def
/LC7 {1 0.3 0} def
/LC8 {0.5 0.5 0.5} def
% Default Line Types
/LTw {PL [] 1 setgray} def
/LTb {BL [] LCb DL} def
/LTa {AL [1 udl mul 2 udl mul] 0 setdash LCa setrgbcolor} def
/LT0 {PL [] LC0 DL} def
/LT1 {PL [4 dl1 2 dl2] LC1 DL} def
/LT2 {PL [2 dl1 3 dl2] LC2 DL} def
/LT3 {PL [1 dl1 1.5 dl2] LC3 DL} def
/LT4 {PL [6 dl1 2 dl2 1 dl1 2 dl2] LC4 DL} def
/LT5 {PL [3 dl1 3 dl2 1 dl1 3 dl2] LC5 DL} def
/LT6 {PL [2 dl1 2 dl2 2 dl1 6 dl2] LC6 DL} def
/LT7 {PL [1 dl1 2 dl2 6 dl1 2 dl2 1 dl1 2 dl2] LC7 DL} def
/LT8 {PL [2 dl1 2 dl2 2 dl1 2 dl2 2 dl1 2 dl2 2 dl1 4 dl2] LC8 DL} def
/Pnt {stroke [] 0 setdash gsave 1 setlinecap M 0 0 V stroke grestore} def
/Dia {stroke [] 0 setdash 2 copy vpt add M
  hpt neg vpt neg V hpt vpt neg V
  hpt vpt V hpt neg vpt V closepath stroke
  Pnt} def
/Pls {stroke [] 0 setdash vpt sub M 0 vpt2 V
  currentpoint stroke M
  hpt neg vpt neg R hpt2 0 V stroke
 } def
/Box {stroke [] 0 setdash 2 copy exch hpt sub exch vpt add M
  0 vpt2 neg V hpt2 0 V 0 vpt2 V
  hpt2 neg 0 V closepath stroke
  Pnt} def
/Crs {stroke [] 0 setdash exch hpt sub exch vpt add M
  hpt2 vpt2 neg V currentpoint stroke M
  hpt2 neg 0 R hpt2 vpt2 V stroke} def
/TriU {stroke [] 0 setdash 2 copy vpt 1.12 mul add M
  hpt neg vpt -1.62 mul V
  hpt 2 mul 0 V
  hpt neg vpt 1.62 mul V closepath stroke
  Pnt} def
/Star {2 copy Pls Crs} def
/BoxF {stroke [] 0 setdash exch hpt sub exch vpt add M
  0 vpt2 neg V hpt2 0 V 0 vpt2 V
  hpt2 neg 0 V closepath fill} def
/TriUF {stroke [] 0 setdash vpt 1.12 mul add M
  hpt neg vpt -1.62 mul V
  hpt 2 mul 0 V
  hpt neg vpt 1.62 mul V closepath fill} def
/TriD {stroke [] 0 setdash 2 copy vpt 1.12 mul sub M
  hpt neg vpt 1.62 mul V
  hpt 2 mul 0 V
  hpt neg vpt -1.62 mul V closepath stroke
  Pnt} def
/TriDF {stroke [] 0 setdash vpt 1.12 mul sub M
  hpt neg vpt 1.62 mul V
  hpt 2 mul 0 V
  hpt neg vpt -1.62 mul V closepath fill} def
/DiaF {stroke [] 0 setdash vpt add M
  hpt neg vpt neg V hpt vpt neg V
  hpt vpt V hpt neg vpt V closepath fill} def
/Pent {stroke [] 0 setdash 2 copy gsave
  translate 0 hpt M 4 {72 rotate 0 hpt L} repeat
  closepath stroke grestore Pnt} def
/PentF {stroke [] 0 setdash gsave
  translate 0 hpt M 4 {72 rotate 0 hpt L} repeat
  closepath fill grestore} def
/Circle {stroke [] 0 setdash 2 copy
  hpt 0 360 arc stroke Pnt} def
/CircleF {stroke [] 0 setdash hpt 0 360 arc fill} def
/C0 {BL [] 0 setdash 2 copy moveto vpt 90 450 arc} bind def
/C1 {BL [] 0 setdash 2 copy moveto
	2 copy vpt 0 90 arc closepath fill
	vpt 0 360 arc closepath} bind def
/C2 {BL [] 0 setdash 2 copy moveto
	2 copy vpt 90 180 arc closepath fill
	vpt 0 360 arc closepath} bind def
/C3 {BL [] 0 setdash 2 copy moveto
	2 copy vpt 0 180 arc closepath fill
	vpt 0 360 arc closepath} bind def
/C4 {BL [] 0 setdash 2 copy moveto
	2 copy vpt 180 270 arc closepath fill
	vpt 0 360 arc closepath} bind def
/C5 {BL [] 0 setdash 2 copy moveto
	2 copy vpt 0 90 arc
	2 copy moveto
	2 copy vpt 180 270 arc closepath fill
	vpt 0 360 arc} bind def
/C6 {BL [] 0 setdash 2 copy moveto
	2 copy vpt 90 270 arc closepath fill
	vpt 0 360 arc closepath} bind def
/C7 {BL [] 0 setdash 2 copy moveto
	2 copy vpt 0 270 arc closepath fill
	vpt 0 360 arc closepath} bind def
/C8 {BL [] 0 setdash 2 copy moveto
	2 copy vpt 270 360 arc closepath fill
	vpt 0 360 arc closepath} bind def
/C9 {BL [] 0 setdash 2 copy moveto
	2 copy vpt 270 450 arc closepath fill
	vpt 0 360 arc closepath} bind def
/C10 {BL [] 0 setdash 2 copy 2 copy moveto vpt 270 360 arc closepath fill
	2 copy moveto
	2 copy vpt 90 180 arc closepath fill
	vpt 0 360 arc closepath} bind def
/C11 {BL [] 0 setdash 2 copy moveto
	2 copy vpt 0 180 arc closepath fill
	2 copy moveto
	2 copy vpt 270 360 arc closepath fill
	vpt 0 360 arc closepath} bind def
/C12 {BL [] 0 setdash 2 copy moveto
	2 copy vpt 180 360 arc closepath fill
	vpt 0 360 arc closepath} bind def
/C13 {BL [] 0 setdash 2 copy moveto
	2 copy vpt 0 90 arc closepath fill
	2 copy moveto
	2 copy vpt 180 360 arc closepath fill
	vpt 0 360 arc closepath} bind def
/C14 {BL [] 0 setdash 2 copy moveto
	2 copy vpt 90 360 arc closepath fill
	vpt 0 360 arc} bind def
/C15 {BL [] 0 setdash 2 copy vpt 0 360 arc closepath fill
	vpt 0 360 arc closepath} bind def
/Rec {newpath 4 2 roll moveto 1 index 0 rlineto 0 exch rlineto
	neg 0 rlineto closepath} bind def
/Square {dup Rec} bind def
/Bsquare {vpt sub exch vpt sub exch vpt2 Square} bind def
/S0 {BL [] 0 setdash 2 copy moveto 0 vpt rlineto BL Bsquare} bind def
/S1 {BL [] 0 setdash 2 copy vpt Square fill Bsquare} bind def
/S2 {BL [] 0 setdash 2 copy exch vpt sub exch vpt Square fill Bsquare} bind def
/S3 {BL [] 0 setdash 2 copy exch vpt sub exch vpt2 vpt Rec fill Bsquare} bind def
/S4 {BL [] 0 setdash 2 copy exch vpt sub exch vpt sub vpt Square fill Bsquare} bind def
/S5 {BL [] 0 setdash 2 copy 2 copy vpt Square fill
	exch vpt sub exch vpt sub vpt Square fill Bsquare} bind def
/S6 {BL [] 0 setdash 2 copy exch vpt sub exch vpt sub vpt vpt2 Rec fill Bsquare} bind def
/S7 {BL [] 0 setdash 2 copy exch vpt sub exch vpt sub vpt vpt2 Rec fill
	2 copy vpt Square fill Bsquare} bind def
/S8 {BL [] 0 setdash 2 copy vpt sub vpt Square fill Bsquare} bind def
/S9 {BL [] 0 setdash 2 copy vpt sub vpt vpt2 Rec fill Bsquare} bind def
/S10 {BL [] 0 setdash 2 copy vpt sub vpt Square fill 2 copy exch vpt sub exch vpt Square fill
	Bsquare} bind def
/S11 {BL [] 0 setdash 2 copy vpt sub vpt Square fill 2 copy exch vpt sub exch vpt2 vpt Rec fill
	Bsquare} bind def
/S12 {BL [] 0 setdash 2 copy exch vpt sub exch vpt sub vpt2 vpt Rec fill Bsquare} bind def
/S13 {BL [] 0 setdash 2 copy exch vpt sub exch vpt sub vpt2 vpt Rec fill
	2 copy vpt Square fill Bsquare} bind def
/S14 {BL [] 0 setdash 2 copy exch vpt sub exch vpt sub vpt2 vpt Rec fill
	2 copy exch vpt sub exch vpt Square fill Bsquare} bind def
/S15 {BL [] 0 setdash 2 copy Bsquare fill Bsquare} bind def
/D0 {gsave translate 45 rotate 0 0 S0 stroke grestore} bind def
/D1 {gsave translate 45 rotate 0 0 S1 stroke grestore} bind def
/D2 {gsave translate 45 rotate 0 0 S2 stroke grestore} bind def
/D3 {gsave translate 45 rotate 0 0 S3 stroke grestore} bind def
/D4 {gsave translate 45 rotate 0 0 S4 stroke grestore} bind def
/D5 {gsave translate 45 rotate 0 0 S5 stroke grestore} bind def
/D6 {gsave translate 45 rotate 0 0 S6 stroke grestore} bind def
/D7 {gsave translate 45 rotate 0 0 S7 stroke grestore} bind def
/D8 {gsave translate 45 rotate 0 0 S8 stroke grestore} bind def
/D9 {gsave translate 45 rotate 0 0 S9 stroke grestore} bind def
/D10 {gsave translate 45 rotate 0 0 S10 stroke grestore} bind def
/D11 {gsave translate 45 rotate 0 0 S11 stroke grestore} bind def
/D12 {gsave translate 45 rotate 0 0 S12 stroke grestore} bind def
/D13 {gsave translate 45 rotate 0 0 S13 stroke grestore} bind def
/D14 {gsave translate 45 rotate 0 0 S14 stroke grestore} bind def
/D15 {gsave translate 45 rotate 0 0 S15 stroke grestore} bind def
/DiaE {stroke [] 0 setdash vpt add M
  hpt neg vpt neg V hpt vpt neg V
  hpt vpt V hpt neg vpt V closepath stroke} def
/BoxE {stroke [] 0 setdash exch hpt sub exch vpt add M
  0 vpt2 neg V hpt2 0 V 0 vpt2 V
  hpt2 neg 0 V closepath stroke} def
/TriUE {stroke [] 0 setdash vpt 1.12 mul add M
  hpt neg vpt -1.62 mul V
  hpt 2 mul 0 V
  hpt neg vpt 1.62 mul V closepath stroke} def
/TriDE {stroke [] 0 setdash vpt 1.12 mul sub M
  hpt neg vpt 1.62 mul V
  hpt 2 mul 0 V
  hpt neg vpt -1.62 mul V closepath stroke} def
/PentE {stroke [] 0 setdash gsave
  translate 0 hpt M 4 {72 rotate 0 hpt L} repeat
  closepath stroke grestore} def
/CircE {stroke [] 0 setdash 
  hpt 0 360 arc stroke} def
/Opaque {gsave closepath 1 setgray fill grestore 0 setgray closepath} def
/DiaW {stroke [] 0 setdash vpt add M
  hpt neg vpt neg V hpt vpt neg V
  hpt vpt V hpt neg vpt V Opaque stroke} def
/BoxW {stroke [] 0 setdash exch hpt sub exch vpt add M
  0 vpt2 neg V hpt2 0 V 0 vpt2 V
  hpt2 neg 0 V Opaque stroke} def
/TriUW {stroke [] 0 setdash vpt 1.12 mul add M
  hpt neg vpt -1.62 mul V
  hpt 2 mul 0 V
  hpt neg vpt 1.62 mul V Opaque stroke} def
/TriDW {stroke [] 0 setdash vpt 1.12 mul sub M
  hpt neg vpt 1.62 mul V
  hpt 2 mul 0 V
  hpt neg vpt -1.62 mul V Opaque stroke} def
/PentW {stroke [] 0 setdash gsave
  translate 0 hpt M 4 {72 rotate 0 hpt L} repeat
  Opaque stroke grestore} def
/CircW {stroke [] 0 setdash 
  hpt 0 360 arc Opaque stroke} def
/BoxFill {gsave Rec 1 setgray fill grestore} def
/Density {
  /Fillden exch def
  currentrgbcolor
  /ColB exch def /ColG exch def /ColR exch def
  /ColR ColR Fillden mul Fillden sub 1 add def
  /ColG ColG Fillden mul Fillden sub 1 add def
  /ColB ColB Fillden mul Fillden sub 1 add def
  ColR ColG ColB setrgbcolor} def
/BoxColFill {gsave Rec PolyFill} def
/PolyFill {gsave Density fill grestore grestore} def
/h {rlineto rlineto rlineto gsave closepath fill grestore} bind def
%
% PostScript Level 1 Pattern Fill routine for rectangles
% Usage: x y w h s a XX PatternFill
%	x,y = lower left corner of box to be filled
%	w,h = width and height of box
%	  a = angle in degrees between lines and x-axis
%	 XX = 0/1 for no/yes cross-hatch
%
/PatternFill {gsave /PFa [ 9 2 roll ] def
  PFa 0 get PFa 2 get 2 div add PFa 1 get PFa 3 get 2 div add translate
  PFa 2 get -2 div PFa 3 get -2 div PFa 2 get PFa 3 get Rec
  gsave 1 setgray fill grestore clip
  currentlinewidth 0.5 mul setlinewidth
  /PFs PFa 2 get dup mul PFa 3 get dup mul add sqrt def
  0 0 M PFa 5 get rotate PFs -2 div dup translate
  0 1 PFs PFa 4 get div 1 add floor cvi
	{PFa 4 get mul 0 M 0 PFs V} for
  0 PFa 6 get ne {
	0 1 PFs PFa 4 get div 1 add floor cvi
	{PFa 4 get mul 0 2 1 roll M PFs 0 V} for
 } if
  stroke grestore} def
%
/languagelevel where
 {pop languagelevel} {1} ifelse
 2 lt
	{/InterpretLevel1 true def}
	{/InterpretLevel1 Level1 def}
 ifelse
%
% PostScript level 2 pattern fill definitions
%
/Level2PatternFill {
/Tile8x8 {/PaintType 2 /PatternType 1 /TilingType 1 /BBox [0 0 8 8] /XStep 8 /YStep 8}
	bind def
/KeepColor {currentrgbcolor [/Pattern /DeviceRGB] setcolorspace} bind def
<< Tile8x8
 /PaintProc {0.5 setlinewidth pop 0 0 M 8 8 L 0 8 M 8 0 L stroke} 
>> matrix makepattern
/Pat1 exch def
<< Tile8x8
 /PaintProc {0.5 setlinewidth pop 0 0 M 8 8 L 0 8 M 8 0 L stroke
	0 4 M 4 8 L 8 4 L 4 0 L 0 4 L stroke}
>> matrix makepattern
/Pat2 exch def
<< Tile8x8
 /PaintProc {0.5 setlinewidth pop 0 0 M 0 8 L
	8 8 L 8 0 L 0 0 L fill}
>> matrix makepattern
/Pat3 exch def
<< Tile8x8
 /PaintProc {0.5 setlinewidth pop -4 8 M 8 -4 L
	0 12 M 12 0 L stroke}
>> matrix makepattern
/Pat4 exch def
<< Tile8x8
 /PaintProc {0.5 setlinewidth pop -4 0 M 8 12 L
	0 -4 M 12 8 L stroke}
>> matrix makepattern
/Pat5 exch def
<< Tile8x8
 /PaintProc {0.5 setlinewidth pop -2 8 M 4 -4 L
	0 12 M 8 -4 L 4 12 M 10 0 L stroke}
>> matrix makepattern
/Pat6 exch def
<< Tile8x8
 /PaintProc {0.5 setlinewidth pop -2 0 M 4 12 L
	0 -4 M 8 12 L 4 -4 M 10 8 L stroke}
>> matrix makepattern
/Pat7 exch def
<< Tile8x8
 /PaintProc {0.5 setlinewidth pop 8 -2 M -4 4 L
	12 0 M -4 8 L 12 4 M 0 10 L stroke}
>> matrix makepattern
/Pat8 exch def
<< Tile8x8
 /PaintProc {0.5 setlinewidth pop 0 -2 M 12 4 L
	-4 0 M 12 8 L -4 4 M 8 10 L stroke}
>> matrix makepattern
/Pat9 exch def
/Pattern1 {PatternBgnd KeepColor Pat1 setpattern} bind def
/Pattern2 {PatternBgnd KeepColor Pat2 setpattern} bind def
/Pattern3 {PatternBgnd KeepColor Pat3 setpattern} bind def
/Pattern4 {PatternBgnd KeepColor Landscape {Pat5} {Pat4} ifelse setpattern} bind def
/Pattern5 {PatternBgnd KeepColor Landscape {Pat4} {Pat5} ifelse setpattern} bind def
/Pattern6 {PatternBgnd KeepColor Landscape {Pat9} {Pat6} ifelse setpattern} bind def
/Pattern7 {PatternBgnd KeepColor Landscape {Pat8} {Pat7} ifelse setpattern} bind def
} def
%
%
%End of PostScript Level 2 code
%
/PatternBgnd {
  TransparentPatterns {} {gsave 1 setgray fill grestore} ifelse
} def
%
% Substitute for Level 2 pattern fill codes with
% grayscale if Level 2 support is not selected.
%
/Level1PatternFill {
/Pattern1 {0.250 Density} bind def
/Pattern2 {0.500 Density} bind def
/Pattern3 {0.750 Density} bind def
/Pattern4 {0.125 Density} bind def
/Pattern5 {0.375 Density} bind def
/Pattern6 {0.625 Density} bind def
/Pattern7 {0.875 Density} bind def
} def
%
% Now test for support of Level 2 code
%
Level1 {Level1PatternFill} {Level2PatternFill} ifelse
%
/Symbol-Oblique /Symbol findfont [1 0 .167 1 0 0] makefont
dup length dict begin {1 index /FID eq {pop pop} {def} ifelse} forall
currentdict end definefont pop
/MFshow {
   { dup 5 get 3 ge
     { 5 get 3 eq {gsave} {grestore} ifelse }
     {dup dup 0 get findfont exch 1 get scalefont setfont
     [ currentpoint ] exch dup 2 get 0 exch R dup 5 get 2 ne {dup dup 6
     get exch 4 get {Gshow} {stringwidth pop 0 R} ifelse }if dup 5 get 0 eq
     {dup 3 get {2 get neg 0 exch R pop} {pop aload pop M} ifelse} {dup 5
     get 1 eq {dup 2 get exch dup 3 get exch 6 get stringwidth pop -2 div
     dup 0 R} {dup 6 get stringwidth pop -2 div 0 R 6 get
     show 2 index {aload pop M neg 3 -1 roll neg R pop pop} {pop pop pop
     pop aload pop M} ifelse }ifelse }ifelse }
     ifelse }
   forall} def
/Gswidth {dup type /stringtype eq {stringwidth} {pop (n) stringwidth} ifelse} def
/MFwidth {0 exch { dup 5 get 3 ge { 5 get 3 eq { 0 } { pop } ifelse }
 {dup 3 get{dup dup 0 get findfont exch 1 get scalefont setfont
     6 get Gswidth pop add} {pop} ifelse} ifelse} forall} def
/MLshow { currentpoint stroke M
  0 exch R
  Blacktext {gsave 0 setgray MFshow grestore} {MFshow} ifelse } bind def
/MRshow { currentpoint stroke M
  exch dup MFwidth neg 3 -1 roll R
  Blacktext {gsave 0 setgray MFshow grestore} {MFshow} ifelse } bind def
/MCshow { currentpoint stroke M
  exch dup MFwidth -2 div 3 -1 roll R
  Blacktext {gsave 0 setgray MFshow grestore} {MFshow} ifelse } bind def
/XYsave    { [( ) 1 2 true false 3 ()] } bind def
/XYrestore { [( ) 1 2 true false 4 ()] } bind def
end
%%EndProlog
gnudict begin
gsave
doclip
50 50 translate
0.050 0.050 scale
0 setgray
newpath
(Helvetica) findfont 250 scalefont setfont
1.000 UL
LTb
1225 800 M
63 0 V
5461 0 R
-63 0 V
stroke
1075 800 M
[ [(Helvetica) 250.0 0.0 true true 0 ( 0.2)]
] -83.3 MRshow
1.000 UL
LTb
1225 1292 M
63 0 V
5461 0 R
-63 0 V
stroke
1075 1292 M
[ [(Helvetica) 250.0 0.0 true true 0 ( 0.3)]
] -83.3 MRshow
1.000 UL
LTb
1225 1785 M
63 0 V
5461 0 R
-63 0 V
stroke
1075 1785 M
[ [(Helvetica) 250.0 0.0 true true 0 ( 0.4)]
] -83.3 MRshow
1.000 UL
LTb
1225 2277 M
63 0 V
5461 0 R
-63 0 V
stroke
1075 2277 M
[ [(Helvetica) 250.0 0.0 true true 0 ( 0.5)]
] -83.3 MRshow
1.000 UL
LTb
1225 2770 M
63 0 V
5461 0 R
-63 0 V
stroke
1075 2770 M
[ [(Helvetica) 250.0 0.0 true true 0 ( 0.6)]
] -83.3 MRshow
1.000 UL
LTb
1225 3262 M
63 0 V
5461 0 R
-63 0 V
stroke
1075 3262 M
[ [(Helvetica) 250.0 0.0 true true 0 ( 0.7)]
] -83.3 MRshow
1.000 UL
LTb
1225 3754 M
63 0 V
5461 0 R
-63 0 V
stroke
1075 3754 M
[ [(Helvetica) 250.0 0.0 true true 0 ( 0.8)]
] -83.3 MRshow
1.000 UL
LTb
1225 4247 M
63 0 V
5461 0 R
-63 0 V
stroke
1075 4247 M
[ [(Helvetica) 250.0 0.0 true true 0 ( 0.9)]
] -83.3 MRshow
1.000 UL
LTb
1225 4739 M
63 0 V
5461 0 R
-63 0 V
stroke
1075 4739 M
[ [(Helvetica) 250.0 0.0 true true 0 ( 1)]
] -83.3 MRshow
1.000 UL
LTb
1225 800 M
0 63 V
0 3876 R
0 -63 V
stroke
1225 550 M
[ [(Helvetica) 250.0 0.0 true true 0 ( 1000)]
] -83.3 MCshow
1.000 UL
LTb
1916 800 M
0 63 V
0 3876 R
0 -63 V
stroke
1916 550 M
[ [(Helvetica) 250.0 0.0 true true 0 ( 2000)]
] -83.3 MCshow
1.000 UL
LTb
2606 800 M
0 63 V
0 3876 R
0 -63 V
stroke
2606 550 M
[ [(Helvetica) 250.0 0.0 true true 0 ( 3000)]
] -83.3 MCshow
1.000 UL
LTb
3297 800 M
0 63 V
0 3876 R
0 -63 V
stroke
3297 550 M
[ [(Helvetica) 250.0 0.0 true true 0 ( 4000)]
] -83.3 MCshow
1.000 UL
LTb
3987 800 M
0 63 V
0 3876 R
0 -63 V
stroke
3987 550 M
[ [(Helvetica) 250.0 0.0 true true 0 ( 5000)]
] -83.3 MCshow
1.000 UL
LTb
4678 800 M
0 63 V
0 3876 R
0 -63 V
stroke
4678 550 M
[ [(Helvetica) 250.0 0.0 true true 0 ( 6000)]
] -83.3 MCshow
1.000 UL
LTb
5368 800 M
0 63 V
0 3876 R
0 -63 V
stroke
5368 550 M
[ [(Helvetica) 250.0 0.0 true true 0 ( 7000)]
] -83.3 MCshow
1.000 UL
LTb
6059 800 M
0 63 V
0 3876 R
0 -63 V
stroke
6059 550 M
[ [(Helvetica) 250.0 0.0 true true 0 ( 8000)]
] -83.3 MCshow
1.000 UL
LTb
6749 800 M
0 63 V
0 3876 R
0 -63 V
stroke
6749 550 M
[ [(Helvetica) 250.0 0.0 true true 0 ( 9000)]
] -83.3 MCshow
1.000 UL
LTb
1.000 UL
LTb
1225 4739 N
0 -3939 V
5524 0 V
0 3939 V
-5524 0 V
Z stroke
LCb setrgbcolor
200 2769 M
currentpoint gsave translate -270 rotate 0 0 moveto
[ [(Helvetica) 250.0 0.0 true true 0 (Precision)]
] -83.3 MCshow
grestore
LTb
LCb setrgbcolor
3987 175 M
[ [(Helvetica) 250.0 0.0 true true 0 (Alphabet Size)]
] -83.3 MCshow
LTb
1.000 UP
1.000 UL
LTb
% Begin plot #1
1.000 UP
1.000 UL
LT0
1225 4739 Pls
1225 4739 Pls
1225 4739 Pls
1225 4739 Pls
1225 4669 Pls
1225 4739 Pls
1225 4739 Pls
1225 4739 Pls
1225 4739 Pls
1225 4739 Pls
1225 4739 Pls
1225 4739 Pls
1225 4739 Pls
1225 4739 Pls
1225 4739 Pls
1225 4739 Pls
1225 4739 Pls
1225 4739 Pls
1225 4739 Pls
1225 4739 Pls
1225 4739 Pls
1225 4411 Pls
1225 4575 Pls
1225 4739 Pls
1225 4739 Pls
1225 4739 Pls
1225 4739 Pls
1225 4739 Pls
1225 4411 Pls
1225 4493 Pls
1225 4739 Pls
1225 4739 Pls
1225 4575 Pls
1225 4542 Pls
1225 4452 Pls
1225 4739 Pls
1225 4247 Pls
1225 3918 Pls
1225 4616 Pls
1225 4739 Pls
1225 4616 Pls
1225 4739 Pls
1225 4739 Pls
1225 4739 Pls
1225 4630 Pls
1225 4739 Pls
1225 4739 Pls
1225 4739 Pls
1225 4739 Pls
1225 4739 Pls
1225 4739 Pls
1225 4739 Pls
1225 4739 Pls
1225 4739 Pls
1225 4739 Pls
1225 4630 Pls
1225 4739 Pls
1225 4739 Pls
1225 4739 Pls
1225 4641 Pls
1225 4247 Pls
1225 4739 Pls
1225 4542 Pls
1225 4542 Pls
1225 4411 Pls
1225 4394 Pls
1225 4493 Pls
1225 4739 Pls
1225 3156 Pls
1225 3459 Pls
1225 3385 Pls
1225 4370 Pls
1225 3677 Pls
1225 3209 Pls
1225 3552 Pls
1225 4114 Pls
1225 3489 Pls
1225 2821 Pls
1225 4194 Pls
1225 3637 Pls
1225 4739 Pls
1225 4630 Pls
1225 4574 Pls
1225 4663 Pls
1225 4739 Pls
1225 4739 Pls
1225 4739 Pls
1225 4739 Pls
1225 4641 Pls
1225 4739 Pls
1225 4649 Pls
1225 4739 Pls
1225 4739 Pls
1225 4739 Pls
1225 4739 Pls
1225 4739 Pls
1225 4739 Pls
1225 4739 Pls
1225 4598 Pls
1225 4739 Pls
1225 4000 Pls
1225 4520 Pls
1225 3968 Pls
1225 3836 Pls
1225 3853 Pls
1225 3441 Pls
1225 3745 Pls
1225 3631 Pls
1225 2870 Pls
1225 3330 Pls
1225 4270 Pls
1225 2696 Pls
1225 2605 Pls
1225 2973 Pls
1225 2843 Pls
1225 2717 Pls
1225 2911 Pls
1225 2668 Pls
1225 3276 Pls
1225 2415 Pls
1225 4630 Pls
1225 4739 Pls
1225 4739 Pls
1225 4739 Pls
1225 4739 Pls
1225 4669 Pls
1225 4739 Pls
1225 4458 Pls
1225 4739 Pls
1225 4739 Pls
1225 4739 Pls
1225 4739 Pls
1225 4739 Pls
1225 4663 Pls
1225 4739 Pls
1225 4739 Pls
1225 4616 Pls
1225 4739 Pls
1225 4739 Pls
1225 4739 Pls
1225 2901 Pls
1225 3623 Pls
1225 3820 Pls
1225 3614 Pls
1225 2105 Pls
1225 3514 Pls
1225 2294 Pls
1225 2893 Pls
1225 1646 Pls
1225 2471 Pls
1225 2343 Pls
1225 2043 Pls
1225 1668 Pls
1225 2563 Pls
1225 2833 Pls
1225 1864 Pls
1225 1612 Pls
1225 2172 Pls
1225 1538 Pls
1225 2854 Pls
1225 4625 Pls
1225 4663 Pls
1225 4663 Pls
1225 4739 Pls
1225 4739 Pls
1225 4739 Pls
1225 4739 Pls
1225 4739 Pls
1225 4657 Pls
1225 4739 Pls
1225 4560 Pls
1225 4739 Pls
1225 4739 Pls
1225 4739 Pls
1225 4663 Pls
1225 4739 Pls
1225 4739 Pls
1225 4739 Pls
1225 4739 Pls
1225 4663 Pls
1225 3514 Pls
1225 3065 Pls
1225 3520 Pls
1225 2841 Pls
1225 2181 Pls
1225 1569 Pls
1225 2483 Pls
1225 2659 Pls
1225 2537 Pls
1225 2394 Pls
1225 1775 Pls
1225 2092 Pls
1225 1204 Pls
1225 1497 Pls
1225 1627 Pls
1225 1714 Pls
1225 944 Pls
1225 1782 Pls
1225 2039 Pls
1225 1818 Pls
1916 4739 Pls
1916 4739 Pls
1916 4739 Pls
1916 4739 Pls
1916 4739 Pls
1916 4739 Pls
1916 4739 Pls
1916 4739 Pls
1916 4739 Pls
1916 4739 Pls
1916 4739 Pls
1916 4739 Pls
1916 4739 Pls
1916 4739 Pls
1916 4739 Pls
1916 4739 Pls
1916 4739 Pls
1916 4739 Pls
1916 4739 Pls
1916 4739 Pls
1916 4739 Pls
1916 4739 Pls
1916 4739 Pls
1916 4739 Pls
1916 4739 Pls
1916 4739 Pls
1916 4739 Pls
1916 4739 Pls
1916 4493 Pls
1916 4493 Pls
1916 4739 Pls
1916 4739 Pls
1916 4493 Pls
1916 4739 Pls
1916 4739 Pls
1916 4739 Pls
1916 4739 Pls
1916 4739 Pls
1916 4493 Pls
1916 4739 Pls
1916 4739 Pls
1916 4739 Pls
1916 4739 Pls
1916 4739 Pls
1916 4739 Pls
1916 4739 Pls
1916 4739 Pls
1916 4739 Pls
1916 4739 Pls
1916 4739 Pls
1916 4739 Pls
1916 4739 Pls
1916 4739 Pls
1916 4739 Pls
1916 4739 Pls
1916 4739 Pls
1916 4739 Pls
1916 4739 Pls
1916 4739 Pls
1916 4739 Pls
1916 4411 Pls
1916 4739 Pls
1916 4247 Pls
1916 4739 Pls
1916 4411 Pls
1916 4411 Pls
1916 4739 Pls
1916 4296 Pls
1916 4099 Pls
1916 4493 Pls
1916 4352 Pls
1916 4165 Pls
1916 4082 Pls
1916 4200 Pls
1916 4260 Pls
1916 3738 Pls
1916 4050 Pls
1916 4616 Pls
1916 3886 Pls
1916 3918 Pls
1916 4641 Pls
1916 4739 Pls
1916 4739 Pls
1916 4663 Pls
1916 4739 Pls
1916 4739 Pls
1916 4739 Pls
1916 4739 Pls
1916 4739 Pls
1916 4739 Pls
1916 4739 Pls
1916 4739 Pls
1916 4739 Pls
1916 4739 Pls
1916 4739 Pls
1916 4739 Pls
1916 4739 Pls
1916 4739 Pls
1916 4739 Pls
1916 4630 Pls
1916 4165 Pls
1916 4739 Pls
1916 4411 Pls
1916 4493 Pls
1916 3918 Pls
1916 3745 Pls
1916 3705 Pls
1916 3588 Pls
1916 3631 Pls
1916 3139 Pls
1916 3220 Pls
1916 3771 Pls
1916 3524 Pls
1916 3360 Pls
1916 3391 Pls
1916 4493 Pls
1916 3719 Pls
1916 3074 Pls
1916 3626 Pls
1916 4229 Pls
1916 4739 Pls
1916 4739 Pls
1916 4739 Pls
1916 4649 Pls
1916 4739 Pls
1916 4739 Pls
1916 4739 Pls
1916 4739 Pls
1916 4739 Pls
1916 4739 Pls
1916 4739 Pls
1916 4739 Pls
1916 4739 Pls
1916 4739 Pls
1916 4663 Pls
1916 4739 Pls
1916 4739 Pls
1916 4739 Pls
1916 4739 Pls
1916 4739 Pls
1916 3385 Pls
1916 3754 Pls
1916 3918 Pls
1916 4411 Pls
1916 3328 Pls
1916 3399 Pls
1916 3983 Pls
1916 4028 Pls
1916 3065 Pls
1916 3138 Pls
1916 3728 Pls
1916 3316 Pls
1916 2607 Pls
1916 2762 Pls
1916 3054 Pls
1916 3006 Pls
1916 2971 Pls
1916 2773 Pls
1916 3143 Pls
1916 3761 Pls
1916 4641 Pls
1916 4739 Pls
1916 4739 Pls
1916 4663 Pls
1916 4739 Pls
1916 4698 Pls
1916 4739 Pls
1916 4739 Pls
1916 4739 Pls
1916 4630 Pls
1916 4739 Pls
1916 4739 Pls
1916 4657 Pls
1916 4739 Pls
1916 4739 Pls
1916 4739 Pls
1916 4739 Pls
1916 4739 Pls
1916 4630 Pls
1916 4739 Pls
1916 3803 Pls
1916 3543 Pls
1916 3464 Pls
1916 4050 Pls
1916 3229 Pls
1916 3766 Pls
1916 4401 Pls
1916 3097 Pls
1916 2566 Pls
1916 2999 Pls
1916 2519 Pls
1916 2691 Pls
1916 2626 Pls
1916 2307 Pls
1916 2762 Pls
1916 2908 Pls
1916 2285 Pls
1916 2172 Pls
1916 2211 Pls
1916 3002 Pls
2606 4739 Pls
2606 4739 Pls
2606 4739 Pls
2606 4739 Pls
2606 4739 Pls
2606 4630 Pls
2606 4739 Pls
2606 4739 Pls
2606 4739 Pls
2606 4739 Pls
2606 4739 Pls
2606 4739 Pls
2606 4739 Pls
2606 4739 Pls
2606 4739 Pls
2606 4739 Pls
2606 4739 Pls
2606 4739 Pls
2606 4739 Pls
2606 4739 Pls
2606 4739 Pls
2606 4739 Pls
2606 4739 Pls
2606 4739 Pls
2606 4739 Pls
2606 4739 Pls
2606 4739 Pls
2606 4739 Pls
2606 4739 Pls
2606 4739 Pls
2606 4575 Pls
2606 4739 Pls
2606 4739 Pls
2606 4739 Pls
2606 4739 Pls
2606 4739 Pls
2606 4329 Pls
2606 4739 Pls
2606 4739 Pls
2606 4739 Pls
2606 4739 Pls
2606 4739 Pls
2606 4739 Pls
2606 4739 Pls
2606 4739 Pls
2606 4739 Pls
2606 4739 Pls
2606 4739 Pls
2606 4739 Pls
2606 4739 Pls
2606 4739 Pls
2606 4739 Pls
2606 4739 Pls
2606 4739 Pls
2606 4739 Pls
2606 4739 Pls
2606 4739 Pls
2606 4739 Pls
2606 4739 Pls
2606 4575 Pls
2606 4739 Pls
2606 4739 Pls
2606 4493 Pls
2606 4739 Pls
2606 4739 Pls
2606 4739 Pls
2606 4575 Pls
2606 4493 Pls
2606 4493 Pls
2606 4352 Pls
2606 4000 Pls
2606 4575 Pls
2606 4493 Pls
2606 4493 Pls
2606 4575 Pls
2606 4178 Pls
2606 4214 Pls
2606 4296 Pls
2606 4411 Pls
2606 4739 Pls
2606 4739 Pls
2606 4649 Pls
2606 4669 Pls
2606 4739 Pls
2606 4739 Pls
2606 4739 Pls
2606 4739 Pls
2606 4739 Pls
2606 4739 Pls
2606 4739 Pls
2606 4630 Pls
2606 4739 Pls
2606 4739 Pls
2606 4739 Pls
2606 4739 Pls
2606 4739 Pls
2606 4739 Pls
2606 4739 Pls
2606 4739 Pls
2606 4739 Pls
2606 4739 Pls
2606 4739 Pls
2606 4739 Pls
2606 4739 Pls
2606 4739 Pls
2606 4066 Pls
2606 4129 Pls
2606 4411 Pls
2606 4165 Pls
2606 3574 Pls
2606 4082 Pls
2606 4411 Pls
2606 3918 Pls
2606 4434 Pls
2606 4050 Pls
2606 4229 Pls
2606 2545 Pls
2606 4173 Pls
2606 3819 Pls
2606 3540 Pls
2606 4739 Pls
2606 4739 Pls
2606 4739 Pls
2606 4690 Pls
2606 4739 Pls
2606 4509 Pls
2606 4589 Pls
2606 4630 Pls
2606 4739 Pls
2606 4739 Pls
2606 4739 Pls
2606 4739 Pls
2606 4739 Pls
2606 4739 Pls
2606 4739 Pls
2606 4739 Pls
2606 4739 Pls
2606 4739 Pls
2606 4739 Pls
2606 4739 Pls
2606 4345 Pls
2606 4739 Pls
2606 3959 Pls
2606 4165 Pls
2606 3426 Pls
2606 4296 Pls
2606 3968 Pls
2606 4247 Pls
2606 2852 Pls
2606 2913 Pls
2606 3426 Pls
2606 3449 Pls
2606 3951 Pls
2606 4050 Pls
2606 3000 Pls
2606 3426 Pls
2606 3065 Pls
2606 2426 Pls
2606 2891 Pls
2606 3883 Pls
2606 4739 Pls
2606 4739 Pls
2606 4600 Pls
2606 4630 Pls
2606 4739 Pls
2606 4739 Pls
2606 4739 Pls
2606 4739 Pls
2606 4739 Pls
2606 4739 Pls
2606 4739 Pls
2606 4739 Pls
2606 4739 Pls
2606 4739 Pls
2606 4739 Pls
2606 4739 Pls
2606 4739 Pls
2606 4739 Pls
2606 4739 Pls
2606 4739 Pls
2606 4411 Pls
2606 4411 Pls
2606 3968 Pls
2606 2975 Pls
2606 3689 Pls
2606 3581 Pls
2606 4183 Pls
2606 3631 Pls
2606 3352 Pls
2606 2863 Pls
2606 3689 Pls
2606 2989 Pls
2606 2952 Pls
2606 2755 Pls
2606 3579 Pls
2606 3365 Pls
2606 2779 Pls
2606 2446 Pls
2606 2639 Pls
2606 2799 Pls
3297 4739 Pls
3297 4739 Pls
3297 4739 Pls
3297 4739 Pls
3297 4739 Pls
3297 4739 Pls
3297 4739 Pls
3297 4739 Pls
3297 4669 Pls
3297 4739 Pls
3297 4739 Pls
3297 4739 Pls
3297 4739 Pls
3297 4739 Pls
3297 4739 Pls
3297 4739 Pls
3297 4739 Pls
3297 4739 Pls
3297 4739 Pls
3297 4739 Pls
3297 4739 Pls
3297 4739 Pls
3297 4247 Pls
3297 4739 Pls
3297 4739 Pls
3297 4739 Pls
3297 4247 Pls
3297 4739 Pls
3297 4739 Pls
3297 4739 Pls
3297 4739 Pls
3297 4739 Pls
3297 4739 Pls
3297 4739 Pls
3297 4739 Pls
3297 4739 Pls
3297 4739 Pls
3297 4575 Pls
3297 4739 Pls
3297 4739 Pls
3297 4739 Pls
3297 4739 Pls
3297 4739 Pls
3297 4739 Pls
3297 4739 Pls
3297 4739 Pls
3297 4739 Pls
3297 4739 Pls
3297 4739 Pls
3297 4739 Pls
3297 4739 Pls
3297 4739 Pls
3297 4739 Pls
3297 4739 Pls
3297 4649 Pls
3297 4739 Pls
3297 4739 Pls
3297 4739 Pls
3297 4739 Pls
3297 4739 Pls
3297 4493 Pls
3297 4575 Pls
3297 4739 Pls
3297 4739 Pls
3297 4575 Pls
3297 4739 Pls
3297 4411 Pls
3297 4575 Pls
3297 4411 Pls
3297 3886 Pls
3297 4739 Pls
3297 4739 Pls
3297 4444 Pls
3297 4083 Pls
3297 4616 Pls
3297 4739 Pls
3297 4542 Pls
3297 4452 Pls
3297 4301 Pls
3297 4378 Pls
3297 4739 Pls
3297 4739 Pls
3297 4739 Pls
3297 4739 Pls
3297 4739 Pls
3297 4739 Pls
3297 4739 Pls
3297 4739 Pls
3297 4739 Pls
3297 4739 Pls
3297 4739 Pls
3297 4739 Pls
3297 4739 Pls
3297 4739 Pls
3297 4739 Pls
3297 4739 Pls
3297 4739 Pls
3297 4739 Pls
3297 4739 Pls
3297 4739 Pls
3297 4739 Pls
3297 4493 Pls
3297 4739 Pls
3297 4739 Pls
3297 4493 Pls
3297 4411 Pls
3297 4296 Pls
3297 4378 Pls
3297 3487 Pls
3297 4188 Pls
3297 4214 Pls
3297 4475 Pls
3297 3399 Pls
3297 4739 Pls
3297 4378 Pls
3297 4255 Pls
3297 4211 Pls
3297 3478 Pls
3297 4264 Pls
3297 4669 Pls
3297 4739 Pls
3297 4701 Pls
3297 4739 Pls
3297 4698 Pls
3297 4739 Pls
3297 4739 Pls
3297 4739 Pls
3297 4739 Pls
3297 4739 Pls
3297 4739 Pls
3297 4739 Pls
3297 4739 Pls
3297 4739 Pls
3297 4739 Pls
3297 4739 Pls
3297 4739 Pls
3297 4739 Pls
3297 4739 Pls
3297 4739 Pls
3297 4739 Pls
3297 3968 Pls
3297 4083 Pls
3297 4542 Pls
3297 4598 Pls
3297 4041 Pls
3297 4165 Pls
3297 4739 Pls
3297 4352 Pls
3297 4641 Pls
3297 3522 Pls
3297 3886 Pls
3297 3927 Pls
3297 4296 Pls
3297 3604 Pls
3297 3886 Pls
3297 3918 Pls
3297 2704 Pls
3297 3771 Pls
3297 3466 Pls
3297 4348 Pls
3297 4739 Pls
3297 4739 Pls
3297 4739 Pls
3297 4739 Pls
3297 4739 Pls
3297 4739 Pls
3297 4739 Pls
3297 4739 Pls
3297 4641 Pls
3297 4635 Pls
3297 4739 Pls
3297 4739 Pls
3297 4739 Pls
3297 4739 Pls
3297 4739 Pls
3297 4739 Pls
3297 4739 Pls
3297 4657 Pls
3297 4739 Pls
3297 4739 Pls
3297 3918 Pls
3297 4411 Pls
3297 4050 Pls
3297 3574 Pls
3297 3032 Pls
3297 2346 Pls
3297 3959 Pls
3297 3754 Pls
3297 3112 Pls
3297 3264 Pls
3297 3306 Pls
3297 3964 Pls
3297 2578 Pls
3297 2514 Pls
3297 3954 Pls
3297 3581 Pls
3297 3458 Pls
3297 2500 Pls
3297 3434 Pls
3297 3698 Pls
3987 4739 Pls
3987 4739 Pls
3987 4739 Pls
3987 4739 Pls
3987 4739 Pls
3987 4739 Pls
3987 4739 Pls
3987 4739 Pls
3987 4739 Pls
3987 4739 Pls
3987 4739 Pls
3987 4739 Pls
3987 4739 Pls
3987 4739 Pls
3987 4739 Pls
3987 4739 Pls
3987 4739 Pls
3987 4739 Pls
3987 4739 Pls
3987 4739 Pls
3987 4739 Pls
3987 4493 Pls
3987 4739 Pls
3987 4739 Pls
3987 4739 Pls
3987 4739 Pls
3987 4739 Pls
3987 4739 Pls
3987 4739 Pls
3987 4739 Pls
3987 4739 Pls
3987 4739 Pls
3987 4542 Pls
3987 4739 Pls
3987 4739 Pls
3987 4739 Pls
3987 4739 Pls
3987 4739 Pls
3987 4739 Pls
3987 4739 Pls
3987 4739 Pls
3987 4739 Pls
3987 4739 Pls
3987 4739 Pls
3987 4739 Pls
3987 4739 Pls
3987 4739 Pls
3987 4739 Pls
3987 4739 Pls
3987 4739 Pls
3987 4739 Pls
3987 4739 Pls
3987 4739 Pls
3987 4739 Pls
3987 4739 Pls
3987 4739 Pls
3987 4739 Pls
3987 4739 Pls
3987 4739 Pls
3987 4739 Pls
3987 4739 Pls
3987 4739 Pls
3987 4739 Pls
3987 4739 Pls
3987 4739 Pls
3987 4739 Pls
3987 4739 Pls
3987 4739 Pls
3987 4739 Pls
3987 4050 Pls
3987 4394 Pls
3987 4739 Pls
3987 4616 Pls
3987 4247 Pls
3987 4641 Pls
3987 4739 Pls
3987 4419 Pls
3987 4542 Pls
3987 4411 Pls
3987 4739 Pls
3987 4739 Pls
3987 4739 Pls
3987 4739 Pls
3987 4739 Pls
3987 4739 Pls
3987 4739 Pls
3987 4739 Pls
3987 4739 Pls
3987 4739 Pls
3987 4739 Pls
3987 4739 Pls
3987 4739 Pls
3987 4739 Pls
3987 4739 Pls
3987 4739 Pls
3987 4739 Pls
3987 4739 Pls
3987 4739 Pls
3987 4739 Pls
3987 4739 Pls
3987 4493 Pls
3987 4411 Pls
3987 4739 Pls
3987 4739 Pls
3987 4165 Pls
3987 4739 Pls
3987 4329 Pls
3987 4739 Pls
3987 4616 Pls
3987 4542 Pls
3987 4296 Pls
3987 4099 Pls
3987 4000 Pls
3987 3631 Pls
3987 4237 Pls
3987 4296 Pls
3987 3970 Pls
3987 4370 Pls
3987 3653 Pls
3987 4296 Pls
3987 4739 Pls
3987 4739 Pls
3987 4739 Pls
3987 4739 Pls
3987 4739 Pls
3987 4739 Pls
3987 4739 Pls
3987 4739 Pls
3987 4649 Pls
3987 4739 Pls
3987 4739 Pls
3987 4739 Pls
3987 4739 Pls
3987 4739 Pls
3987 4739 Pls
3987 4649 Pls
3987 4739 Pls
3987 4739 Pls
3987 4739 Pls
3987 4739 Pls
3987 4165 Pls
3987 4739 Pls
3987 3886 Pls
3987 4739 Pls
3987 4000 Pls
3987 4542 Pls
3987 4493 Pls
3987 3984 Pls
3987 3754 Pls
3987 4739 Pls
3987 3631 Pls
3987 4345 Pls
3987 4097 Pls
3987 4032 Pls
3987 3771 Pls
3987 3853 Pls
3987 3196 Pls
3987 3307 Pls
3987 3336 Pls
3987 3345 Pls
3987 4739 Pls
3987 4663 Pls
3987 4739 Pls
3987 4739 Pls
3987 4739 Pls
3987 4739 Pls
3987 4739 Pls
3987 4739 Pls
3987 4739 Pls
3987 4673 Pls
3987 4739 Pls
3987 4739 Pls
3987 4739 Pls
3987 4739 Pls
3987 4739 Pls
3987 4739 Pls
3987 4739 Pls
3987 4739 Pls
3987 4739 Pls
3987 4739 Pls
3987 4739 Pls
3987 4739 Pls
3987 4739 Pls
3987 4296 Pls
3987 3930 Pls
3987 3203 Pls
3987 4151 Pls
3987 4197 Pls
3987 3309 Pls
3987 3745 Pls
3987 2977 Pls
3987 3589 Pls
3987 3040 Pls
3987 3639 Pls
3987 3723 Pls
3987 3725 Pls
3987 3016 Pls
3987 3886 Pls
3987 3254 Pls
3987 3377 Pls
4678 4739 Pls
4678 4739 Pls
4678 4739 Pls
4678 4739 Pls
4678 4739 Pls
4678 4739 Pls
4678 4739 Pls
4678 4739 Pls
4678 4739 Pls
4678 4739 Pls
4678 4739 Pls
4678 4739 Pls
4678 4739 Pls
4678 4739 Pls
4678 4739 Pls
4678 4739 Pls
4678 4739 Pls
4678 4739 Pls
4678 4739 Pls
4678 4739 Pls
4678 4739 Pls
4678 4739 Pls
4678 4739 Pls
4678 4739 Pls
4678 4493 Pls
4678 4739 Pls
4678 4739 Pls
4678 4739 Pls
4678 4739 Pls
4678 4739 Pls
4678 4739 Pls
4678 4739 Pls
4678 4616 Pls
4678 4739 Pls
4678 4739 Pls
4678 4739 Pls
4678 4739 Pls
4678 4739 Pls
4678 4739 Pls
4678 4739 Pls
4678 4739 Pls
4678 4739 Pls
4678 4739 Pls
4678 4739 Pls
4678 4739 Pls
4678 4739 Pls
4678 4739 Pls
4678 4739 Pls
4678 4739 Pls
4678 4739 Pls
4678 4739 Pls
4678 4739 Pls
4678 4739 Pls
4678 4739 Pls
4678 4739 Pls
4678 4739 Pls
4678 4739 Pls
4678 4739 Pls
4678 4739 Pls
4678 4739 Pls
4678 4739 Pls
4678 4739 Pls
4678 4739 Pls
4678 4739 Pls
4678 4739 Pls
4678 4739 Pls
4678 4739 Pls
4678 4739 Pls
4678 4575 Pls
4678 4616 Pls
4678 4739 Pls
4678 4575 Pls
4678 4739 Pls
4678 4739 Pls
4678 4616 Pls
4678 4739 Pls
4678 4411 Pls
4678 4739 Pls
4678 4739 Pls
4678 4493 Pls
4678 4739 Pls
4678 4739 Pls
4678 4739 Pls
4678 4739 Pls
4678 4739 Pls
4678 4739 Pls
4678 4739 Pls
4678 4739 Pls
4678 4739 Pls
4678 4739 Pls
4678 4739 Pls
4678 4739 Pls
4678 4739 Pls
4678 4739 Pls
4678 4739 Pls
4678 4739 Pls
4678 4739 Pls
4678 4739 Pls
4678 4739 Pls
4678 4739 Pls
4678 4165 Pls
4678 4616 Pls
4678 4739 Pls
4678 4739 Pls
4678 4739 Pls
4678 4411 Pls
4678 4739 Pls
4678 4493 Pls
4678 4493 Pls
4678 4288 Pls
4678 4214 Pls
4678 4739 Pls
4678 3508 Pls
4678 4114 Pls
4678 4155 Pls
4678 4739 Pls
4678 4197 Pls
4678 4739 Pls
4678 4739 Pls
4678 4422 Pls
4678 4739 Pls
4678 4739 Pls
4678 4739 Pls
4678 4598 Pls
4678 4739 Pls
4678 4739 Pls
4678 4739 Pls
4678 4739 Pls
4678 4739 Pls
4678 4673 Pls
4678 4739 Pls
4678 4663 Pls
4678 4739 Pls
4678 4739 Pls
4678 4739 Pls
4678 4739 Pls
4678 4739 Pls
4678 4739 Pls
4678 4739 Pls
4678 4739 Pls
4678 4739 Pls
4678 4739 Pls
4678 4739 Pls
4678 4493 Pls
4678 4542 Pls
4678 3792 Pls
4678 4458 Pls
4678 4739 Pls
4678 3968 Pls
4678 4575 Pls
4678 4542 Pls
4678 4214 Pls
4678 3598 Pls
4678 3709 Pls
4678 3886 Pls
4678 3016 Pls
4678 4099 Pls
4678 3836 Pls
4678 3426 Pls
4678 4000 Pls
4678 4630 Pls
4678 4739 Pls
4678 4739 Pls
4678 4739 Pls
4678 4500 Pls
4678 4739 Pls
4678 4739 Pls
4678 4739 Pls
4678 4739 Pls
4678 4739 Pls
4678 4739 Pls
4678 4739 Pls
4678 4739 Pls
4678 4739 Pls
4678 4739 Pls
4678 4669 Pls
4678 4739 Pls
4678 4739 Pls
4678 4739 Pls
4678 4739 Pls
4678 4411 Pls
4678 4458 Pls
4678 4000 Pls
4678 4165 Pls
4678 4132 Pls
4678 3836 Pls
4678 4269 Pls
4678 4411 Pls
4678 3555 Pls
4678 3787 Pls
4678 4739 Pls
4678 3557 Pls
4678 3440 Pls
4678 3836 Pls
4678 3310 Pls
4678 3854 Pls
4678 2997 Pls
4678 3651 Pls
4678 3780 Pls
4678 3853 Pls
5368 4739 Pls
5368 4739 Pls
5368 4739 Pls
5368 4739 Pls
5368 4739 Pls
5368 4739 Pls
5368 4739 Pls
5368 4739 Pls
5368 4739 Pls
5368 4739 Pls
5368 4739 Pls
5368 4739 Pls
5368 4739 Pls
5368 4739 Pls
5368 4739 Pls
5368 4739 Pls
5368 4739 Pls
5368 4739 Pls
5368 4739 Pls
5368 4739 Pls
5368 4739 Pls
5368 4739 Pls
5368 4739 Pls
5368 4739 Pls
5368 4739 Pls
5368 4247 Pls
5368 4739 Pls
5368 4739 Pls
5368 4739 Pls
5368 4739 Pls
5368 4739 Pls
5368 4739 Pls
5368 4739 Pls
5368 4739 Pls
5368 4739 Pls
5368 4739 Pls
5368 4575 Pls
5368 4739 Pls
5368 4739 Pls
5368 4739 Pls
5368 4739 Pls
5368 4739 Pls
5368 4739 Pls
5368 4739 Pls
5368 4739 Pls
5368 4739 Pls
5368 4739 Pls
5368 4739 Pls
5368 4739 Pls
5368 4739 Pls
5368 4739 Pls
5368 4739 Pls
5368 4739 Pls
5368 4739 Pls
5368 4739 Pls
5368 4739 Pls
5368 4739 Pls
5368 4739 Pls
5368 4739 Pls
5368 4739 Pls
5368 4739 Pls
5368 4739 Pls
5368 4739 Pls
5368 4739 Pls
5368 4247 Pls
5368 4247 Pls
5368 4739 Pls
5368 4739 Pls
5368 4739 Pls
5368 4739 Pls
5368 4739 Pls
5368 4739 Pls
5368 4739 Pls
5368 4542 Pls
5368 4476 Pls
5368 4739 Pls
5368 4542 Pls
5368 4411 Pls
5368 4739 Pls
5368 4411 Pls
5368 4739 Pls
5368 4739 Pls
5368 4663 Pls
5368 4739 Pls
5368 4739 Pls
5368 4739 Pls
5368 4739 Pls
5368 4739 Pls
5368 4739 Pls
5368 4739 Pls
5368 4739 Pls
5368 4739 Pls
5368 4739 Pls
5368 4739 Pls
5368 4739 Pls
5368 4739 Pls
5368 4739 Pls
5368 4739 Pls
5368 4739 Pls
5368 4739 Pls
5368 4616 Pls
5368 4739 Pls
5368 4598 Pls
5368 4739 Pls
5368 4411 Pls
5368 4739 Pls
5368 4739 Pls
5368 4575 Pls
5368 4411 Pls
5368 3836 Pls
5368 4598 Pls
5368 4444 Pls
5368 4493 Pls
5368 4739 Pls
5368 4616 Pls
5368 4296 Pls
5368 3965 Pls
5368 4739 Pls
5368 4542 Pls
5368 4434 Pls
5368 4739 Pls
5368 4739 Pls
5368 4739 Pls
5368 4739 Pls
5368 4739 Pls
5368 4739 Pls
5368 4739 Pls
5368 4663 Pls
5368 4739 Pls
5368 4739 Pls
5368 4739 Pls
5368 4739 Pls
5368 4739 Pls
5368 4739 Pls
5368 4739 Pls
5368 4739 Pls
5368 4739 Pls
5368 4739 Pls
5368 4739 Pls
5368 4739 Pls
5368 4493 Pls
5368 4165 Pls
5368 4739 Pls
5368 4411 Pls
5368 4542 Pls
5368 3836 Pls
5368 4493 Pls
5368 3853 Pls
5368 4082 Pls
5368 4378 Pls
5368 4247 Pls
5368 4575 Pls
5368 3483 Pls
5368 4558 Pls
5368 3984 Pls
5368 4129 Pls
5368 4033 Pls
5368 4575 Pls
5368 4269 Pls
5368 4083 Pls
5368 4739 Pls
5368 4739 Pls
5368 4739 Pls
5368 4739 Pls
5368 4657 Pls
5368 4739 Pls
5368 4739 Pls
5368 4739 Pls
5368 4739 Pls
5368 4739 Pls
5368 4739 Pls
5368 4739 Pls
5368 4739 Pls
5368 4739 Pls
5368 4739 Pls
5368 4739 Pls
5368 4739 Pls
5368 4739 Pls
5368 4739 Pls
5368 4739 Pls
5368 4493 Pls
5368 4148 Pls
5368 4493 Pls
5368 4017 Pls
5368 3771 Pls
5368 3883 Pls
5368 4542 Pls
5368 4247 Pls
5368 4329 Pls
5368 3595 Pls
5368 4438 Pls
5368 4166 Pls
5368 4296 Pls
5368 3860 Pls
5368 3309 Pls
5368 3449 Pls
5368 2883 Pls
5368 4739 Pls
5368 3451 Pls
5368 3817 Pls
6059 4739 Pls
6059 4739 Pls
6059 4739 Pls
6059 4739 Pls
6059 4739 Pls
6059 4739 Pls
6059 4739 Pls
6059 4739 Pls
6059 4739 Pls
6059 4739 Pls
6059 4739 Pls
6059 4739 Pls
6059 4739 Pls
6059 4739 Pls
6059 4739 Pls
6059 4739 Pls
6059 4739 Pls
6059 4739 Pls
6059 4739 Pls
6059 4739 Pls
6059 4739 Pls
6059 4739 Pls
6059 4739 Pls
6059 4739 Pls
6059 4739 Pls
6059 4739 Pls
6059 4739 Pls
6059 4739 Pls
6059 4739 Pls
6059 4739 Pls
6059 4739 Pls
6059 4739 Pls
6059 4739 Pls
6059 4739 Pls
6059 4739 Pls
6059 4739 Pls
6059 4739 Pls
6059 4739 Pls
6059 4739 Pls
6059 4739 Pls
6059 4739 Pls
6059 4739 Pls
6059 4739 Pls
6059 4739 Pls
6059 4739 Pls
6059 4739 Pls
6059 4739 Pls
6059 4739 Pls
6059 4739 Pls
6059 4739 Pls
6059 4739 Pls
6059 4739 Pls
6059 4739 Pls
6059 4739 Pls
6059 4739 Pls
6059 4739 Pls
6059 4739 Pls
6059 4739 Pls
6059 4739 Pls
6059 4739 Pls
6059 4739 Pls
6059 4739 Pls
6059 4739 Pls
6059 4739 Pls
6059 4739 Pls
6059 4739 Pls
6059 4739 Pls
6059 4739 Pls
6059 4739 Pls
6059 4739 Pls
6059 4739 Pls
6059 4739 Pls
6059 4000 Pls
6059 4411 Pls
6059 4542 Pls
6059 4739 Pls
6059 4296 Pls
6059 4129 Pls
6059 4739 Pls
6059 4493 Pls
6059 4739 Pls
6059 4739 Pls
6059 4739 Pls
6059 4739 Pls
6059 4739 Pls
6059 4739 Pls
6059 4739 Pls
6059 4739 Pls
6059 4739 Pls
6059 4739 Pls
6059 4739 Pls
6059 4739 Pls
6059 4739 Pls
6059 4739 Pls
6059 4739 Pls
6059 4739 Pls
6059 4739 Pls
6059 4739 Pls
6059 4739 Pls
6059 4739 Pls
6059 4739 Pls
6059 4411 Pls
6059 4739 Pls
6059 4739 Pls
6059 4739 Pls
6059 4411 Pls
6059 4739 Pls
6059 4641 Pls
6059 4247 Pls
6059 4739 Pls
6059 4352 Pls
6059 4739 Pls
6059 4739 Pls
6059 4188 Pls
6059 3689 Pls
6059 4739 Pls
6059 4329 Pls
6059 4444 Pls
6059 4444 Pls
6059 4739 Pls
6059 4657 Pls
6059 4739 Pls
6059 4663 Pls
6059 4739 Pls
6059 4739 Pls
6059 4739 Pls
6059 4739 Pls
6059 4739 Pls
6059 4641 Pls
6059 4739 Pls
6059 4739 Pls
6059 4739 Pls
6059 4739 Pls
6059 4739 Pls
6059 4739 Pls
6059 4739 Pls
6059 4739 Pls
6059 4739 Pls
6059 4739 Pls
6059 4739 Pls
6059 4575 Pls
6059 4739 Pls
6059 4575 Pls
6059 4739 Pls
6059 4739 Pls
6059 4165 Pls
6059 4493 Pls
6059 4411 Pls
6059 4378 Pls
6059 4247 Pls
6059 4739 Pls
6059 4069 Pls
6059 3607 Pls
6059 4219 Pls
6059 4050 Pls
6059 4193 Pls
6059 4378 Pls
6059 4155 Pls
6059 4434 Pls
6059 3827 Pls
6059 4657 Pls
6059 4739 Pls
6059 4739 Pls
6059 4739 Pls
6059 4739 Pls
6059 4739 Pls
6059 4739 Pls
6059 4739 Pls
6059 4739 Pls
6059 4739 Pls
6059 4739 Pls
6059 4739 Pls
6059 4739 Pls
6059 4739 Pls
6059 4739 Pls
6059 4739 Pls
6059 4739 Pls
6059 4739 Pls
6059 4739 Pls
6059 4739 Pls
6059 4214 Pls
6059 4082 Pls
6059 4000 Pls
6059 4493 Pls
6059 4296 Pls
6059 4329 Pls
6059 4630 Pls
6059 4542 Pls
6059 3639 Pls
6059 3639 Pls
6059 3639 Pls
6059 4247 Pls
6059 3303 Pls
6059 4387 Pls
6059 4237 Pls
6059 3376 Pls
6059 3438 Pls
6059 3696 Pls
6059 4616 Pls
6059 4039 Pls
6749 4739 Pls
6749 4739 Pls
6749 4739 Pls
6749 4739 Pls
6749 4739 Pls
6749 4739 Pls
6749 4739 Pls
6749 4739 Pls
6749 4739 Pls
6749 4739 Pls
6749 4739 Pls
6749 4739 Pls
6749 4739 Pls
6749 4739 Pls
6749 4739 Pls
6749 4739 Pls
6749 4739 Pls
6749 4739 Pls
6749 4739 Pls
6749 4739 Pls
6749 4739 Pls
6749 4739 Pls
6749 4739 Pls
6749 4739 Pls
6749 4739 Pls
6749 4739 Pls
6749 4739 Pls
6749 4739 Pls
6749 4739 Pls
6749 4616 Pls
6749 4739 Pls
6749 4739 Pls
6749 4739 Pls
6749 4739 Pls
6749 4739 Pls
6749 4739 Pls
6749 4739 Pls
6749 4739 Pls
6749 4739 Pls
6749 4739 Pls
6749 4739 Pls
6749 4739 Pls
6749 4739 Pls
6749 4739 Pls
6749 4739 Pls
6749 4739 Pls
6749 4739 Pls
6749 4739 Pls
6749 4739 Pls
6749 4739 Pls
6749 4739 Pls
6749 4739 Pls
6749 4739 Pls
6749 4739 Pls
6749 4739 Pls
6749 4739 Pls
6749 4739 Pls
6749 4739 Pls
6749 4739 Pls
6749 4739 Pls
6749 4739 Pls
6749 4493 Pls
6749 4739 Pls
6749 4739 Pls
6749 4542 Pls
6749 4419 Pls
6749 4493 Pls
6749 4739 Pls
6749 4739 Pls
6749 4247 Pls
6749 4411 Pls
6749 4739 Pls
6749 4247 Pls
6749 4575 Pls
6749 4739 Pls
6749 4411 Pls
6749 4165 Pls
6749 4394 Pls
6749 4542 Pls
6749 4739 Pls
6749 4739 Pls
6749 4739 Pls
6749 4739 Pls
6749 4739 Pls
6749 4739 Pls
6749 4739 Pls
6749 4739 Pls
6749 4739 Pls
6749 4739 Pls
6749 4739 Pls
6749 4739 Pls
6749 4739 Pls
6749 4739 Pls
6749 4739 Pls
6749 4739 Pls
6749 4739 Pls
6749 4739 Pls
6749 4739 Pls
6749 4739 Pls
6749 4739 Pls
6749 4739 Pls
6749 4739 Pls
6749 4542 Pls
6749 4739 Pls
6749 4739 Pls
6749 4165 Pls
6749 4739 Pls
6749 4493 Pls
6749 4378 Pls
6749 4739 Pls
6749 4739 Pls
6749 4641 Pls
6749 4296 Pls
6749 4378 Pls
6749 4739 Pls
6749 4411 Pls
6749 4542 Pls
6749 4739 Pls
6749 3869 Pls
6749 4739 Pls
6749 4739 Pls
6749 4739 Pls
6749 4739 Pls
6749 4739 Pls
6749 4739 Pls
6749 4739 Pls
6749 4739 Pls
6749 4739 Pls
6749 4641 Pls
6749 4739 Pls
6749 4649 Pls
6749 4739 Pls
6749 4739 Pls
6749 4739 Pls
6749 4739 Pls
6749 4739 Pls
6749 4739 Pls
6749 4739 Pls
6749 4739 Pls
6749 4630 Pls
6749 4739 Pls
6749 4493 Pls
6749 4493 Pls
6749 4296 Pls
6749 4493 Pls
6749 4017 Pls
6749 4542 Pls
6749 4165 Pls
6749 4493 Pls
6749 4116 Pls
6749 4270 Pls
6749 4739 Pls
6749 4099 Pls
6749 3877 Pls
6749 4050 Pls
6749 4493 Pls
6749 4739 Pls
6749 4296 Pls
6749 4211 Pls
6749 4083 Pls
6749 4739 Pls
6749 4739 Pls
6749 4739 Pls
6749 4739 Pls
6749 4739 Pls
6749 4739 Pls
6749 4739 Pls
6749 4739 Pls
6749 4739 Pls
6749 4739 Pls
6749 4739 Pls
6749 4739 Pls
6749 4739 Pls
6749 4739 Pls
6749 4739 Pls
6749 4739 Pls
6749 4739 Pls
6749 4739 Pls
6749 4739 Pls
6749 4739 Pls
6749 4083 Pls
6749 4739 Pls
6749 4411 Pls
6749 4165 Pls
6749 4050 Pls
6749 4352 Pls
6749 4247 Pls
6749 4411 Pls
6749 4493 Pls
6749 3745 Pls
6749 4370 Pls
6749 4411 Pls
6749 3968 Pls
6749 4739 Pls
6749 4124 Pls
6749 3744 Pls
6749 3139 Pls
6749 3868 Pls
6749 3749 Pls
6749 3672 Pls
% End plot #1
% Begin plot #2
1.000 UL
LT1
LCb setrgbcolor
5636 1488 M
[ [(Helvetica) 250.0 0.0 true true 0 (Average)]
] -83.3 MRshow
LT1
5786 1488 M
663 0 V
1225 4012 M
691 270 V
690 116 V
691 62 V
690 48 V
691 49 V
690 20 V
691 16 V
690 4 V
% End plot #2
% Begin plot #3
stroke
LT2
LCb setrgbcolor
5636 1238 M
[ [(Helvetica) 250.0 0.0 true true 0 (Min)]
] -83.3 MRshow
LT2
5786 1238 M
663 0 V
1225 944 M
691 1228 V
690 254 V
691 -80 V
690 631 V
691 20 V
690 -114 V
691 420 V
690 -164 V
% End plot #3
% Begin plot #4
stroke
LT3
LCb setrgbcolor
5636 988 M
[ [(Helvetica) 250.0 0.0 true true 0 (Max)]
] -83.3 MRshow
LT3
5786 988 M
663 0 V
1225 4739 M
691 0 V
690 0 V
691 0 V
690 0 V
691 0 V
690 0 V
691 0 V
690 0 V
% End plot #4
stroke
LTb
1225 4739 N
0 -3939 V
5524 0 V
0 3939 V
-5524 0 V
Z stroke
1.000 UP
1.000 UL
LTb
stroke
grestore
end
showpage
%%Trailer
%%DocumentFonts: Helvetica
