%!PS-Adobe-2.0 EPSF-2.0
%%Title: n_alphabet_size_100.recall.eps
%%Creator: gnuplot 4.4 patchlevel 3
%%CreationDate: Tue Jun  4 12:58:03 2013
%%DocumentFonts: (atend)
%%BoundingBox: 50 50 410 302
%%EndComments
%%BeginProlog
/gnudict 256 dict def
gnudict begin
%
% The following true/false flags may be edited by hand if desired.
% The unit line width and grayscale image gamma correction may also be changed.
%
/Color true def
/Blacktext false def
/Solid false def
/Dashlength 1 def
/Landscape false def
/Level1 false def
/Rounded false def
/ClipToBoundingBox false def
/TransparentPatterns false def
/gnulinewidth 5.000 def
/userlinewidth gnulinewidth def
/Gamma 1.0 def
%
/vshift -83 def
/dl1 {
  10.0 Dashlength mul mul
  Rounded { currentlinewidth 0.75 mul sub dup 0 le { pop 0.01 } if } if
} def
/dl2 {
  10.0 Dashlength mul mul
  Rounded { currentlinewidth 0.75 mul add } if
} def
/hpt_ 31.5 def
/vpt_ 31.5 def
/hpt hpt_ def
/vpt vpt_ def
Level1 {} {
/SDict 10 dict def
systemdict /pdfmark known not {
  userdict /pdfmark systemdict /cleartomark get put
} if
SDict begin [
  /Title (n_alphabet_size_100.recall.eps)
  /Subject (gnuplot plot)
  /Creator (gnuplot 4.4 patchlevel 3)
  /Author (xjia)
%  /Producer (gnuplot)
%  /Keywords ()
  /CreationDate (Tue Jun  4 12:58:03 2013)
  /DOCINFO pdfmark
end
} ifelse
/doclip {
  ClipToBoundingBox {
    newpath 50 50 moveto 410 50 lineto 410 302 lineto 50 302 lineto closepath
    clip
  } if
} def
%
% Gnuplot Prolog Version 4.4 (August 2010)
%
%/SuppressPDFMark true def
%
/M {moveto} bind def
/L {lineto} bind def
/R {rmoveto} bind def
/V {rlineto} bind def
/N {newpath moveto} bind def
/Z {closepath} bind def
/C {setrgbcolor} bind def
/f {rlineto fill} bind def
/g {setgray} bind def
/Gshow {show} def   % May be redefined later in the file to support UTF-8
/vpt2 vpt 2 mul def
/hpt2 hpt 2 mul def
/Lshow {currentpoint stroke M 0 vshift R 
	Blacktext {gsave 0 setgray show grestore} {show} ifelse} def
/Rshow {currentpoint stroke M dup stringwidth pop neg vshift R
	Blacktext {gsave 0 setgray show grestore} {show} ifelse} def
/Cshow {currentpoint stroke M dup stringwidth pop -2 div vshift R 
	Blacktext {gsave 0 setgray show grestore} {show} ifelse} def
/UP {dup vpt_ mul /vpt exch def hpt_ mul /hpt exch def
  /hpt2 hpt 2 mul def /vpt2 vpt 2 mul def} def
/DL {Color {setrgbcolor Solid {pop []} if 0 setdash}
 {pop pop pop 0 setgray Solid {pop []} if 0 setdash} ifelse} def
/BL {stroke userlinewidth 2 mul setlinewidth
	Rounded {1 setlinejoin 1 setlinecap} if} def
/AL {stroke userlinewidth 2 div setlinewidth
	Rounded {1 setlinejoin 1 setlinecap} if} def
/UL {dup gnulinewidth mul /userlinewidth exch def
	dup 1 lt {pop 1} if 10 mul /udl exch def} def
/PL {stroke userlinewidth setlinewidth
	Rounded {1 setlinejoin 1 setlinecap} if} def
3.8 setmiterlimit
% Default Line colors
/LCw {1 1 1} def
/LCb {0 0 0} def
/LCa {0 0 0} def
/LC0 {1 0 0} def
/LC1 {0 1 0} def
/LC2 {0 0 1} def
/LC3 {1 0 1} def
/LC4 {0 1 1} def
/LC5 {1 1 0} def
/LC6 {0 0 0} def
/LC7 {1 0.3 0} def
/LC8 {0.5 0.5 0.5} def
% Default Line Types
/LTw {PL [] 1 setgray} def
/LTb {BL [] LCb DL} def
/LTa {AL [1 udl mul 2 udl mul] 0 setdash LCa setrgbcolor} def
/LT0 {PL [] LC0 DL} def
/LT1 {PL [4 dl1 2 dl2] LC1 DL} def
/LT2 {PL [2 dl1 3 dl2] LC2 DL} def
/LT3 {PL [1 dl1 1.5 dl2] LC3 DL} def
/LT4 {PL [6 dl1 2 dl2 1 dl1 2 dl2] LC4 DL} def
/LT5 {PL [3 dl1 3 dl2 1 dl1 3 dl2] LC5 DL} def
/LT6 {PL [2 dl1 2 dl2 2 dl1 6 dl2] LC6 DL} def
/LT7 {PL [1 dl1 2 dl2 6 dl1 2 dl2 1 dl1 2 dl2] LC7 DL} def
/LT8 {PL [2 dl1 2 dl2 2 dl1 2 dl2 2 dl1 2 dl2 2 dl1 4 dl2] LC8 DL} def
/Pnt {stroke [] 0 setdash gsave 1 setlinecap M 0 0 V stroke grestore} def
/Dia {stroke [] 0 setdash 2 copy vpt add M
  hpt neg vpt neg V hpt vpt neg V
  hpt vpt V hpt neg vpt V closepath stroke
  Pnt} def
/Pls {stroke [] 0 setdash vpt sub M 0 vpt2 V
  currentpoint stroke M
  hpt neg vpt neg R hpt2 0 V stroke
 } def
/Box {stroke [] 0 setdash 2 copy exch hpt sub exch vpt add M
  0 vpt2 neg V hpt2 0 V 0 vpt2 V
  hpt2 neg 0 V closepath stroke
  Pnt} def
/Crs {stroke [] 0 setdash exch hpt sub exch vpt add M
  hpt2 vpt2 neg V currentpoint stroke M
  hpt2 neg 0 R hpt2 vpt2 V stroke} def
/TriU {stroke [] 0 setdash 2 copy vpt 1.12 mul add M
  hpt neg vpt -1.62 mul V
  hpt 2 mul 0 V
  hpt neg vpt 1.62 mul V closepath stroke
  Pnt} def
/Star {2 copy Pls Crs} def
/BoxF {stroke [] 0 setdash exch hpt sub exch vpt add M
  0 vpt2 neg V hpt2 0 V 0 vpt2 V
  hpt2 neg 0 V closepath fill} def
/TriUF {stroke [] 0 setdash vpt 1.12 mul add M
  hpt neg vpt -1.62 mul V
  hpt 2 mul 0 V
  hpt neg vpt 1.62 mul V closepath fill} def
/TriD {stroke [] 0 setdash 2 copy vpt 1.12 mul sub M
  hpt neg vpt 1.62 mul V
  hpt 2 mul 0 V
  hpt neg vpt -1.62 mul V closepath stroke
  Pnt} def
/TriDF {stroke [] 0 setdash vpt 1.12 mul sub M
  hpt neg vpt 1.62 mul V
  hpt 2 mul 0 V
  hpt neg vpt -1.62 mul V closepath fill} def
/DiaF {stroke [] 0 setdash vpt add M
  hpt neg vpt neg V hpt vpt neg V
  hpt vpt V hpt neg vpt V closepath fill} def
/Pent {stroke [] 0 setdash 2 copy gsave
  translate 0 hpt M 4 {72 rotate 0 hpt L} repeat
  closepath stroke grestore Pnt} def
/PentF {stroke [] 0 setdash gsave
  translate 0 hpt M 4 {72 rotate 0 hpt L} repeat
  closepath fill grestore} def
/Circle {stroke [] 0 setdash 2 copy
  hpt 0 360 arc stroke Pnt} def
/CircleF {stroke [] 0 setdash hpt 0 360 arc fill} def
/C0 {BL [] 0 setdash 2 copy moveto vpt 90 450 arc} bind def
/C1 {BL [] 0 setdash 2 copy moveto
	2 copy vpt 0 90 arc closepath fill
	vpt 0 360 arc closepath} bind def
/C2 {BL [] 0 setdash 2 copy moveto
	2 copy vpt 90 180 arc closepath fill
	vpt 0 360 arc closepath} bind def
/C3 {BL [] 0 setdash 2 copy moveto
	2 copy vpt 0 180 arc closepath fill
	vpt 0 360 arc closepath} bind def
/C4 {BL [] 0 setdash 2 copy moveto
	2 copy vpt 180 270 arc closepath fill
	vpt 0 360 arc closepath} bind def
/C5 {BL [] 0 setdash 2 copy moveto
	2 copy vpt 0 90 arc
	2 copy moveto
	2 copy vpt 180 270 arc closepath fill
	vpt 0 360 arc} bind def
/C6 {BL [] 0 setdash 2 copy moveto
	2 copy vpt 90 270 arc closepath fill
	vpt 0 360 arc closepath} bind def
/C7 {BL [] 0 setdash 2 copy moveto
	2 copy vpt 0 270 arc closepath fill
	vpt 0 360 arc closepath} bind def
/C8 {BL [] 0 setdash 2 copy moveto
	2 copy vpt 270 360 arc closepath fill
	vpt 0 360 arc closepath} bind def
/C9 {BL [] 0 setdash 2 copy moveto
	2 copy vpt 270 450 arc closepath fill
	vpt 0 360 arc closepath} bind def
/C10 {BL [] 0 setdash 2 copy 2 copy moveto vpt 270 360 arc closepath fill
	2 copy moveto
	2 copy vpt 90 180 arc closepath fill
	vpt 0 360 arc closepath} bind def
/C11 {BL [] 0 setdash 2 copy moveto
	2 copy vpt 0 180 arc closepath fill
	2 copy moveto
	2 copy vpt 270 360 arc closepath fill
	vpt 0 360 arc closepath} bind def
/C12 {BL [] 0 setdash 2 copy moveto
	2 copy vpt 180 360 arc closepath fill
	vpt 0 360 arc closepath} bind def
/C13 {BL [] 0 setdash 2 copy moveto
	2 copy vpt 0 90 arc closepath fill
	2 copy moveto
	2 copy vpt 180 360 arc closepath fill
	vpt 0 360 arc closepath} bind def
/C14 {BL [] 0 setdash 2 copy moveto
	2 copy vpt 90 360 arc closepath fill
	vpt 0 360 arc} bind def
/C15 {BL [] 0 setdash 2 copy vpt 0 360 arc closepath fill
	vpt 0 360 arc closepath} bind def
/Rec {newpath 4 2 roll moveto 1 index 0 rlineto 0 exch rlineto
	neg 0 rlineto closepath} bind def
/Square {dup Rec} bind def
/Bsquare {vpt sub exch vpt sub exch vpt2 Square} bind def
/S0 {BL [] 0 setdash 2 copy moveto 0 vpt rlineto BL Bsquare} bind def
/S1 {BL [] 0 setdash 2 copy vpt Square fill Bsquare} bind def
/S2 {BL [] 0 setdash 2 copy exch vpt sub exch vpt Square fill Bsquare} bind def
/S3 {BL [] 0 setdash 2 copy exch vpt sub exch vpt2 vpt Rec fill Bsquare} bind def
/S4 {BL [] 0 setdash 2 copy exch vpt sub exch vpt sub vpt Square fill Bsquare} bind def
/S5 {BL [] 0 setdash 2 copy 2 copy vpt Square fill
	exch vpt sub exch vpt sub vpt Square fill Bsquare} bind def
/S6 {BL [] 0 setdash 2 copy exch vpt sub exch vpt sub vpt vpt2 Rec fill Bsquare} bind def
/S7 {BL [] 0 setdash 2 copy exch vpt sub exch vpt sub vpt vpt2 Rec fill
	2 copy vpt Square fill Bsquare} bind def
/S8 {BL [] 0 setdash 2 copy vpt sub vpt Square fill Bsquare} bind def
/S9 {BL [] 0 setdash 2 copy vpt sub vpt vpt2 Rec fill Bsquare} bind def
/S10 {BL [] 0 setdash 2 copy vpt sub vpt Square fill 2 copy exch vpt sub exch vpt Square fill
	Bsquare} bind def
/S11 {BL [] 0 setdash 2 copy vpt sub vpt Square fill 2 copy exch vpt sub exch vpt2 vpt Rec fill
	Bsquare} bind def
/S12 {BL [] 0 setdash 2 copy exch vpt sub exch vpt sub vpt2 vpt Rec fill Bsquare} bind def
/S13 {BL [] 0 setdash 2 copy exch vpt sub exch vpt sub vpt2 vpt Rec fill
	2 copy vpt Square fill Bsquare} bind def
/S14 {BL [] 0 setdash 2 copy exch vpt sub exch vpt sub vpt2 vpt Rec fill
	2 copy exch vpt sub exch vpt Square fill Bsquare} bind def
/S15 {BL [] 0 setdash 2 copy Bsquare fill Bsquare} bind def
/D0 {gsave translate 45 rotate 0 0 S0 stroke grestore} bind def
/D1 {gsave translate 45 rotate 0 0 S1 stroke grestore} bind def
/D2 {gsave translate 45 rotate 0 0 S2 stroke grestore} bind def
/D3 {gsave translate 45 rotate 0 0 S3 stroke grestore} bind def
/D4 {gsave translate 45 rotate 0 0 S4 stroke grestore} bind def
/D5 {gsave translate 45 rotate 0 0 S5 stroke grestore} bind def
/D6 {gsave translate 45 rotate 0 0 S6 stroke grestore} bind def
/D7 {gsave translate 45 rotate 0 0 S7 stroke grestore} bind def
/D8 {gsave translate 45 rotate 0 0 S8 stroke grestore} bind def
/D9 {gsave translate 45 rotate 0 0 S9 stroke grestore} bind def
/D10 {gsave translate 45 rotate 0 0 S10 stroke grestore} bind def
/D11 {gsave translate 45 rotate 0 0 S11 stroke grestore} bind def
/D12 {gsave translate 45 rotate 0 0 S12 stroke grestore} bind def
/D13 {gsave translate 45 rotate 0 0 S13 stroke grestore} bind def
/D14 {gsave translate 45 rotate 0 0 S14 stroke grestore} bind def
/D15 {gsave translate 45 rotate 0 0 S15 stroke grestore} bind def
/DiaE {stroke [] 0 setdash vpt add M
  hpt neg vpt neg V hpt vpt neg V
  hpt vpt V hpt neg vpt V closepath stroke} def
/BoxE {stroke [] 0 setdash exch hpt sub exch vpt add M
  0 vpt2 neg V hpt2 0 V 0 vpt2 V
  hpt2 neg 0 V closepath stroke} def
/TriUE {stroke [] 0 setdash vpt 1.12 mul add M
  hpt neg vpt -1.62 mul V
  hpt 2 mul 0 V
  hpt neg vpt 1.62 mul V closepath stroke} def
/TriDE {stroke [] 0 setdash vpt 1.12 mul sub M
  hpt neg vpt 1.62 mul V
  hpt 2 mul 0 V
  hpt neg vpt -1.62 mul V closepath stroke} def
/PentE {stroke [] 0 setdash gsave
  translate 0 hpt M 4 {72 rotate 0 hpt L} repeat
  closepath stroke grestore} def
/CircE {stroke [] 0 setdash 
  hpt 0 360 arc stroke} def
/Opaque {gsave closepath 1 setgray fill grestore 0 setgray closepath} def
/DiaW {stroke [] 0 setdash vpt add M
  hpt neg vpt neg V hpt vpt neg V
  hpt vpt V hpt neg vpt V Opaque stroke} def
/BoxW {stroke [] 0 setdash exch hpt sub exch vpt add M
  0 vpt2 neg V hpt2 0 V 0 vpt2 V
  hpt2 neg 0 V Opaque stroke} def
/TriUW {stroke [] 0 setdash vpt 1.12 mul add M
  hpt neg vpt -1.62 mul V
  hpt 2 mul 0 V
  hpt neg vpt 1.62 mul V Opaque stroke} def
/TriDW {stroke [] 0 setdash vpt 1.12 mul sub M
  hpt neg vpt 1.62 mul V
  hpt 2 mul 0 V
  hpt neg vpt -1.62 mul V Opaque stroke} def
/PentW {stroke [] 0 setdash gsave
  translate 0 hpt M 4 {72 rotate 0 hpt L} repeat
  Opaque stroke grestore} def
/CircW {stroke [] 0 setdash 
  hpt 0 360 arc Opaque stroke} def
/BoxFill {gsave Rec 1 setgray fill grestore} def
/Density {
  /Fillden exch def
  currentrgbcolor
  /ColB exch def /ColG exch def /ColR exch def
  /ColR ColR Fillden mul Fillden sub 1 add def
  /ColG ColG Fillden mul Fillden sub 1 add def
  /ColB ColB Fillden mul Fillden sub 1 add def
  ColR ColG ColB setrgbcolor} def
/BoxColFill {gsave Rec PolyFill} def
/PolyFill {gsave Density fill grestore grestore} def
/h {rlineto rlineto rlineto gsave closepath fill grestore} bind def
%
% PostScript Level 1 Pattern Fill routine for rectangles
% Usage: x y w h s a XX PatternFill
%	x,y = lower left corner of box to be filled
%	w,h = width and height of box
%	  a = angle in degrees between lines and x-axis
%	 XX = 0/1 for no/yes cross-hatch
%
/PatternFill {gsave /PFa [ 9 2 roll ] def
  PFa 0 get PFa 2 get 2 div add PFa 1 get PFa 3 get 2 div add translate
  PFa 2 get -2 div PFa 3 get -2 div PFa 2 get PFa 3 get Rec
  gsave 1 setgray fill grestore clip
  currentlinewidth 0.5 mul setlinewidth
  /PFs PFa 2 get dup mul PFa 3 get dup mul add sqrt def
  0 0 M PFa 5 get rotate PFs -2 div dup translate
  0 1 PFs PFa 4 get div 1 add floor cvi
	{PFa 4 get mul 0 M 0 PFs V} for
  0 PFa 6 get ne {
	0 1 PFs PFa 4 get div 1 add floor cvi
	{PFa 4 get mul 0 2 1 roll M PFs 0 V} for
 } if
  stroke grestore} def
%
/languagelevel where
 {pop languagelevel} {1} ifelse
 2 lt
	{/InterpretLevel1 true def}
	{/InterpretLevel1 Level1 def}
 ifelse
%
% PostScript level 2 pattern fill definitions
%
/Level2PatternFill {
/Tile8x8 {/PaintType 2 /PatternType 1 /TilingType 1 /BBox [0 0 8 8] /XStep 8 /YStep 8}
	bind def
/KeepColor {currentrgbcolor [/Pattern /DeviceRGB] setcolorspace} bind def
<< Tile8x8
 /PaintProc {0.5 setlinewidth pop 0 0 M 8 8 L 0 8 M 8 0 L stroke} 
>> matrix makepattern
/Pat1 exch def
<< Tile8x8
 /PaintProc {0.5 setlinewidth pop 0 0 M 8 8 L 0 8 M 8 0 L stroke
	0 4 M 4 8 L 8 4 L 4 0 L 0 4 L stroke}
>> matrix makepattern
/Pat2 exch def
<< Tile8x8
 /PaintProc {0.5 setlinewidth pop 0 0 M 0 8 L
	8 8 L 8 0 L 0 0 L fill}
>> matrix makepattern
/Pat3 exch def
<< Tile8x8
 /PaintProc {0.5 setlinewidth pop -4 8 M 8 -4 L
	0 12 M 12 0 L stroke}
>> matrix makepattern
/Pat4 exch def
<< Tile8x8
 /PaintProc {0.5 setlinewidth pop -4 0 M 8 12 L
	0 -4 M 12 8 L stroke}
>> matrix makepattern
/Pat5 exch def
<< Tile8x8
 /PaintProc {0.5 setlinewidth pop -2 8 M 4 -4 L
	0 12 M 8 -4 L 4 12 M 10 0 L stroke}
>> matrix makepattern
/Pat6 exch def
<< Tile8x8
 /PaintProc {0.5 setlinewidth pop -2 0 M 4 12 L
	0 -4 M 8 12 L 4 -4 M 10 8 L stroke}
>> matrix makepattern
/Pat7 exch def
<< Tile8x8
 /PaintProc {0.5 setlinewidth pop 8 -2 M -4 4 L
	12 0 M -4 8 L 12 4 M 0 10 L stroke}
>> matrix makepattern
/Pat8 exch def
<< Tile8x8
 /PaintProc {0.5 setlinewidth pop 0 -2 M 12 4 L
	-4 0 M 12 8 L -4 4 M 8 10 L stroke}
>> matrix makepattern
/Pat9 exch def
/Pattern1 {PatternBgnd KeepColor Pat1 setpattern} bind def
/Pattern2 {PatternBgnd KeepColor Pat2 setpattern} bind def
/Pattern3 {PatternBgnd KeepColor Pat3 setpattern} bind def
/Pattern4 {PatternBgnd KeepColor Landscape {Pat5} {Pat4} ifelse setpattern} bind def
/Pattern5 {PatternBgnd KeepColor Landscape {Pat4} {Pat5} ifelse setpattern} bind def
/Pattern6 {PatternBgnd KeepColor Landscape {Pat9} {Pat6} ifelse setpattern} bind def
/Pattern7 {PatternBgnd KeepColor Landscape {Pat8} {Pat7} ifelse setpattern} bind def
} def
%
%
%End of PostScript Level 2 code
%
/PatternBgnd {
  TransparentPatterns {} {gsave 1 setgray fill grestore} ifelse
} def
%
% Substitute for Level 2 pattern fill codes with
% grayscale if Level 2 support is not selected.
%
/Level1PatternFill {
/Pattern1 {0.250 Density} bind def
/Pattern2 {0.500 Density} bind def
/Pattern3 {0.750 Density} bind def
/Pattern4 {0.125 Density} bind def
/Pattern5 {0.375 Density} bind def
/Pattern6 {0.625 Density} bind def
/Pattern7 {0.875 Density} bind def
} def
%
% Now test for support of Level 2 code
%
Level1 {Level1PatternFill} {Level2PatternFill} ifelse
%
/Symbol-Oblique /Symbol findfont [1 0 .167 1 0 0] makefont
dup length dict begin {1 index /FID eq {pop pop} {def} ifelse} forall
currentdict end definefont pop
/MFshow {
   { dup 5 get 3 ge
     { 5 get 3 eq {gsave} {grestore} ifelse }
     {dup dup 0 get findfont exch 1 get scalefont setfont
     [ currentpoint ] exch dup 2 get 0 exch R dup 5 get 2 ne {dup dup 6
     get exch 4 get {Gshow} {stringwidth pop 0 R} ifelse }if dup 5 get 0 eq
     {dup 3 get {2 get neg 0 exch R pop} {pop aload pop M} ifelse} {dup 5
     get 1 eq {dup 2 get exch dup 3 get exch 6 get stringwidth pop -2 div
     dup 0 R} {dup 6 get stringwidth pop -2 div 0 R 6 get
     show 2 index {aload pop M neg 3 -1 roll neg R pop pop} {pop pop pop
     pop aload pop M} ifelse }ifelse }ifelse }
     ifelse }
   forall} def
/Gswidth {dup type /stringtype eq {stringwidth} {pop (n) stringwidth} ifelse} def
/MFwidth {0 exch { dup 5 get 3 ge { 5 get 3 eq { 0 } { pop } ifelse }
 {dup 3 get{dup dup 0 get findfont exch 1 get scalefont setfont
     6 get Gswidth pop add} {pop} ifelse} ifelse} forall} def
/MLshow { currentpoint stroke M
  0 exch R
  Blacktext {gsave 0 setgray MFshow grestore} {MFshow} ifelse } bind def
/MRshow { currentpoint stroke M
  exch dup MFwidth neg 3 -1 roll R
  Blacktext {gsave 0 setgray MFshow grestore} {MFshow} ifelse } bind def
/MCshow { currentpoint stroke M
  exch dup MFwidth -2 div 3 -1 roll R
  Blacktext {gsave 0 setgray MFshow grestore} {MFshow} ifelse } bind def
/XYsave    { [( ) 1 2 true false 3 ()] } bind def
/XYrestore { [( ) 1 2 true false 4 ()] } bind def
end
%%EndProlog
gnudict begin
gsave
doclip
50 50 translate
0.050 0.050 scale
0 setgray
newpath
(Helvetica) findfont 250 scalefont setfont
1.000 UL
LTb
1225 800 M
63 0 V
5461 0 R
-63 0 V
stroke
1075 800 M
[ [(Helvetica) 250.0 0.0 true true 0 ( 0)]
] -83.3 MRshow
1.000 UL
LTb
1225 1194 M
63 0 V
5461 0 R
-63 0 V
stroke
1075 1194 M
[ [(Helvetica) 250.0 0.0 true true 0 ( 0.1)]
] -83.3 MRshow
1.000 UL
LTb
1225 1588 M
63 0 V
5461 0 R
-63 0 V
stroke
1075 1588 M
[ [(Helvetica) 250.0 0.0 true true 0 ( 0.2)]
] -83.3 MRshow
1.000 UL
LTb
1225 1982 M
63 0 V
5461 0 R
-63 0 V
stroke
1075 1982 M
[ [(Helvetica) 250.0 0.0 true true 0 ( 0.3)]
] -83.3 MRshow
1.000 UL
LTb
1225 2376 M
63 0 V
5461 0 R
-63 0 V
stroke
1075 2376 M
[ [(Helvetica) 250.0 0.0 true true 0 ( 0.4)]
] -83.3 MRshow
1.000 UL
LTb
1225 2770 M
63 0 V
5461 0 R
-63 0 V
stroke
1075 2770 M
[ [(Helvetica) 250.0 0.0 true true 0 ( 0.5)]
] -83.3 MRshow
1.000 UL
LTb
1225 3163 M
63 0 V
5461 0 R
-63 0 V
stroke
1075 3163 M
[ [(Helvetica) 250.0 0.0 true true 0 ( 0.6)]
] -83.3 MRshow
1.000 UL
LTb
1225 3557 M
63 0 V
5461 0 R
-63 0 V
stroke
1075 3557 M
[ [(Helvetica) 250.0 0.0 true true 0 ( 0.7)]
] -83.3 MRshow
1.000 UL
LTb
1225 3951 M
63 0 V
5461 0 R
-63 0 V
stroke
1075 3951 M
[ [(Helvetica) 250.0 0.0 true true 0 ( 0.8)]
] -83.3 MRshow
1.000 UL
LTb
1225 4345 M
63 0 V
5461 0 R
-63 0 V
stroke
1075 4345 M
[ [(Helvetica) 250.0 0.0 true true 0 ( 0.9)]
] -83.3 MRshow
1.000 UL
LTb
1225 4739 M
63 0 V
5461 0 R
-63 0 V
stroke
1075 4739 M
[ [(Helvetica) 250.0 0.0 true true 0 ( 1)]
] -83.3 MRshow
1.000 UL
LTb
1225 800 M
0 63 V
0 3876 R
0 -63 V
stroke
1225 550 M
[ [(Helvetica) 250.0 0.0 true true 0 ( 100)]
] -83.3 MCshow
1.000 UL
LTb
1916 800 M
0 63 V
0 3876 R
0 -63 V
stroke
1916 550 M
[ [(Helvetica) 250.0 0.0 true true 0 ( 200)]
] -83.3 MCshow
1.000 UL
LTb
2606 800 M
0 63 V
0 3876 R
0 -63 V
stroke
2606 550 M
[ [(Helvetica) 250.0 0.0 true true 0 ( 300)]
] -83.3 MCshow
1.000 UL
LTb
3297 800 M
0 63 V
0 3876 R
0 -63 V
stroke
3297 550 M
[ [(Helvetica) 250.0 0.0 true true 0 ( 400)]
] -83.3 MCshow
1.000 UL
LTb
3987 800 M
0 63 V
0 3876 R
0 -63 V
stroke
3987 550 M
[ [(Helvetica) 250.0 0.0 true true 0 ( 500)]
] -83.3 MCshow
1.000 UL
LTb
4678 800 M
0 63 V
0 3876 R
0 -63 V
stroke
4678 550 M
[ [(Helvetica) 250.0 0.0 true true 0 ( 600)]
] -83.3 MCshow
1.000 UL
LTb
5368 800 M
0 63 V
0 3876 R
0 -63 V
stroke
5368 550 M
[ [(Helvetica) 250.0 0.0 true true 0 ( 700)]
] -83.3 MCshow
1.000 UL
LTb
6059 800 M
0 63 V
0 3876 R
0 -63 V
stroke
6059 550 M
[ [(Helvetica) 250.0 0.0 true true 0 ( 800)]
] -83.3 MCshow
1.000 UL
LTb
6749 800 M
0 63 V
0 3876 R
0 -63 V
stroke
6749 550 M
[ [(Helvetica) 250.0 0.0 true true 0 ( 900)]
] -83.3 MCshow
1.000 UL
LTb
1.000 UL
LTb
1225 4739 N
0 -3939 V
5524 0 V
0 3939 V
-5524 0 V
Z stroke
LCb setrgbcolor
200 2769 M
currentpoint gsave translate -270 rotate 0 0 moveto
[ [(Helvetica) 250.0 0.0 true true 0 (Recall)]
] -83.3 MCshow
grestore
LTb
LCb setrgbcolor
3987 175 M
[ [(Helvetica) 250.0 0.0 true true 0 (Alphabet Size)]
] -83.3 MCshow
LTb
1.000 UP
1.000 UL
LTb
% Begin plot #1
1.000 UP
1.000 UL
LT0
1225 3388 Pls
1225 2391 Pls
1225 2015 Pls
1225 1700 Pls
1225 3367 Pls
1225 2174 Pls
1225 2383 Pls
1225 1764 Pls
1225 2878 Pls
1225 2194 Pls
1225 1717 Pls
1225 1649 Pls
1225 2776 Pls
1225 1931 Pls
1225 1617 Pls
1225 1595 Pls
1225 2428 Pls
1225 1684 Pls
1225 1452 Pls
1225 1146 Pls
1225 1489 Pls
1225 1544 Pls
1225 1194 Pls
1225 1111 Pls
1225 1883 Pls
1225 1369 Pls
1225 1588 Pls
1225 1215 Pls
1225 2770 Pls
1225 1500 Pls
1225 1728 Pls
1225 1629 Pls
1225 2868 Pls
1225 1675 Pls
1225 1560 Pls
1225 1816 Pls
1225 2966 Pls
1225 1982 Pls
1225 2010 Pls
1225 1774 Pls
1225 3860 Pls
1225 2797 Pls
1225 2348 Pls
1225 2024 Pls
1225 3702 Pls
1225 2344 Pls
1225 1977 Pls
1225 1760 Pls
1225 3823 Pls
1225 2621 Pls
1225 1761 Pls
1225 1759 Pls
1225 3054 Pls
1225 2168 Pls
1225 1856 Pls
1225 1656 Pls
1225 2753 Pls
1225 1716 Pls
1225 1531 Pls
1225 1356 Pls
1225 1686 Pls
1225 1894 Pls
1225 1532 Pls
1225 1318 Pls
1225 2770 Pls
1225 2244 Pls
1225 1616 Pls
1225 1733 Pls
1225 2966 Pls
1225 2551 Pls
1225 2151 Pls
1225 2023 Pls
1225 3360 Pls
1225 2770 Pls
1225 2460 Pls
1225 2417 Pls
1225 3853 Pls
1225 2813 Pls
1225 2488 Pls
1225 2645 Pls
1225 4189 Pls
1225 3080 Pls
1225 2174 Pls
1225 1875 Pls
1225 3200 Pls
1225 2595 Pls
1225 2225 Pls
1225 1853 Pls
1225 3553 Pls
1225 2862 Pls
1225 2270 Pls
1225 1426 Pls
1225 3495 Pls
1225 2842 Pls
1225 2110 Pls
1225 1483 Pls
1225 2930 Pls
1225 2154 Pls
1225 1991 Pls
1225 1765 Pls
1225 2770 Pls
1225 1763 Pls
1225 1672 Pls
1225 1671 Pls
1225 3557 Pls
1225 1982 Pls
1225 2122 Pls
1225 1878 Pls
1225 3262 Pls
1225 3207 Pls
1225 2573 Pls
1225 2707 Pls
1225 4345 Pls
1225 2945 Pls
1225 2966 Pls
1225 2438 Pls
1225 3853 Pls
1225 3207 Pls
1225 3192 Pls
1225 3101 Pls
1225 3786 Pls
1225 3180 Pls
1225 2353 Pls
1225 2043 Pls
1225 4061 Pls
1225 2811 Pls
1225 2202 Pls
1225 1877 Pls
1225 3550 Pls
1225 2904 Pls
1225 2154 Pls
1225 2077 Pls
1225 3829 Pls
1225 2749 Pls
1225 2171 Pls
1225 1736 Pls
1225 3327 Pls
1225 2189 Pls
1225 1653 Pls
1225 1859 Pls
1225 2966 Pls
1225 2201 Pls
1225 1672 Pls
1225 1567 Pls
1225 3459 Pls
1225 2507 Pls
1225 2235 Pls
1225 2168 Pls
1225 4050 Pls
1225 3120 Pls
1225 2995 Pls
1225 2438 Pls
1225 3853 Pls
1225 3295 Pls
1225 3079 Pls
1225 2894 Pls
1225 4148 Pls
1225 3557 Pls
1225 3023 Pls
1225 3433 Pls
1225 3786 Pls
1225 2864 Pls
1225 2578 Pls
1225 1864 Pls
1225 3477 Pls
1225 3097 Pls
1225 2544 Pls
1225 1942 Pls
1225 3710 Pls
1225 2915 Pls
1225 2301 Pls
1225 1818 Pls
1225 3626 Pls
1225 2055 Pls
1225 2296 Pls
1225 1841 Pls
1225 3346 Pls
1225 2525 Pls
1225 1900 Pls
1225 1446 Pls
1225 2770 Pls
1225 2244 Pls
1225 1728 Pls
1225 1961 Pls
1225 3951 Pls
1225 2945 Pls
1225 2516 Pls
1225 2521 Pls
1225 4444 Pls
1225 3338 Pls
1225 3163 Pls
1225 2624 Pls
1225 3557 Pls
1225 3864 Pls
1225 3360 Pls
1225 3184 Pls
1225 4641 Pls
1225 3907 Pls
1225 3388 Pls
1225 3371 Pls
1916 3017 Pls
1916 2447 Pls
1916 2114 Pls
1916 1520 Pls
1916 3180 Pls
1916 2246 Pls
1916 2077 Pls
1916 1765 Pls
1916 3234 Pls
1916 2347 Pls
1916 1734 Pls
1916 1756 Pls
1916 2421 Pls
1916 2177 Pls
1916 1568 Pls
1916 1475 Pls
1916 2468 Pls
1916 1749 Pls
1916 1547 Pls
1916 1162 Pls
1916 1785 Pls
1916 1281 Pls
1916 1278 Pls
1916 1152 Pls
1916 1686 Pls
1916 1456 Pls
1916 1335 Pls
1916 1256 Pls
1916 2277 Pls
1916 1719 Pls
1916 1560 Pls
1916 1277 Pls
1916 2868 Pls
1916 1588 Pls
1916 1278 Pls
1916 1318 Pls
1916 2770 Pls
1916 1763 Pls
1916 1475 Pls
1916 1671 Pls
1916 4140 Pls
1916 2506 Pls
1916 1921 Pls
1916 1988 Pls
1916 3653 Pls
1916 2748 Pls
1916 2122 Pls
1916 1649 Pls
1916 3480 Pls
1916 2525 Pls
1916 1770 Pls
1916 1659 Pls
1916 3280 Pls
1916 2485 Pls
1916 1686 Pls
1916 1442 Pls
1916 2846 Pls
1916 1969 Pls
1916 1571 Pls
1916 1498 Pls
1916 2573 Pls
1916 1325 Pls
1916 1250 Pls
1916 1194 Pls
1916 2573 Pls
1916 1719 Pls
1916 1616 Pls
1916 1526 Pls
1916 2966 Pls
1916 1894 Pls
1916 1785 Pls
1916 1712 Pls
1916 3065 Pls
1916 2419 Pls
1916 1982 Pls
1916 1816 Pls
1916 3262 Pls
1916 2201 Pls
1916 1785 Pls
1916 1857 Pls
1916 4045 Pls
1916 2983 Pls
1916 2078 Pls
1916 1973 Pls
1916 3751 Pls
1916 2779 Pls
1916 2053 Pls
1916 1846 Pls
1916 3654 Pls
1916 2874 Pls
1916 1965 Pls
1916 2008 Pls
1916 3298 Pls
1916 2576 Pls
1916 2203 Pls
1916 1902 Pls
1916 2844 Pls
1916 2423 Pls
1916 1717 Pls
1916 1493 Pls
1916 2474 Pls
1916 1675 Pls
1916 1644 Pls
1916 1298 Pls
1916 3557 Pls
1916 2419 Pls
1916 1841 Pls
1916 1816 Pls
1916 2573 Pls
1916 2507 Pls
1916 2038 Pls
1916 1961 Pls
1916 3656 Pls
1916 2901 Pls
1916 1954 Pls
1916 2272 Pls
1916 4050 Pls
1916 2813 Pls
1916 2854 Pls
1916 2334 Pls
1916 3782 Pls
1916 2999 Pls
1916 2322 Pls
1916 2101 Pls
1916 3816 Pls
1916 3054 Pls
1916 2247 Pls
1916 2131 Pls
1916 3865 Pls
1916 2788 Pls
1916 2219 Pls
1916 1927 Pls
1916 3860 Pls
1916 2694 Pls
1916 2309 Pls
1916 1854 Pls
1916 3096 Pls
1916 2153 Pls
1916 1775 Pls
1916 1393 Pls
1916 1883 Pls
1916 1675 Pls
1916 1306 Pls
1916 1256 Pls
1916 2868 Pls
1916 2201 Pls
1916 1785 Pls
1916 1940 Pls
1916 3065 Pls
1916 2201 Pls
1916 2122 Pls
1916 2085 Pls
1916 3951 Pls
1916 2901 Pls
1916 2404 Pls
1916 2645 Pls
1916 3360 Pls
1916 2376 Pls
1916 2910 Pls
1916 2562 Pls
1916 4022 Pls
1916 3187 Pls
1916 2341 Pls
1916 2266 Pls
1916 3845 Pls
1916 2864 Pls
1916 2298 Pls
1916 1887 Pls
1916 3885 Pls
1916 2799 Pls
1916 2488 Pls
1916 1899 Pls
1916 3772 Pls
1916 2400 Pls
1916 2206 Pls
1916 2232 Pls
1916 2844 Pls
1916 2568 Pls
1916 1787 Pls
1916 1717 Pls
1916 2770 Pls
1916 1894 Pls
1916 1588 Pls
1916 1857 Pls
1916 3360 Pls
1916 2769 Pls
1916 2038 Pls
1916 2479 Pls
1916 3360 Pls
1916 3120 Pls
1916 2629 Pls
1916 2230 Pls
1916 3262 Pls
1916 3295 Pls
1916 2713 Pls
1916 2707 Pls
1916 4345 Pls
1916 2813 Pls
1916 2938 Pls
1916 2998 Pls
2606 3422 Pls
2606 2231 Pls
2606 1834 Pls
2606 1609 Pls
2606 3075 Pls
2606 1920 Pls
2606 2035 Pls
2606 1703 Pls
2606 2997 Pls
2606 2060 Pls
2606 1546 Pls
2606 1499 Pls
2606 3045 Pls
2606 1998 Pls
2606 1533 Pls
2606 1425 Pls
2606 2310 Pls
2606 1606 Pls
2606 1327 Pls
2606 1329 Pls
2606 1489 Pls
2606 1194 Pls
2606 1194 Pls
2606 1070 Pls
2606 2474 Pls
2606 1588 Pls
2606 1194 Pls
2606 1215 Pls
2606 1982 Pls
2606 1763 Pls
2606 1447 Pls
2606 1277 Pls
2606 2573 Pls
2606 1544 Pls
2606 1503 Pls
2606 1526 Pls
2606 2573 Pls
2606 2025 Pls
2606 1616 Pls
2606 1546 Pls
2606 3730 Pls
2606 2573 Pls
2606 2241 Pls
2606 2026 Pls
2606 3534 Pls
2606 2442 Pls
2606 1950 Pls
2606 1727 Pls
2606 3619 Pls
2606 2413 Pls
2606 2205 Pls
2606 1665 Pls
2606 2779 Pls
2606 2299 Pls
2606 1792 Pls
2606 1558 Pls
2606 3055 Pls
2606 1927 Pls
2606 1510 Pls
2606 1390 Pls
2606 1785 Pls
2606 1456 Pls
2606 1278 Pls
2606 1235 Pls
2606 2573 Pls
2606 1938 Pls
2606 1419 Pls
2606 1422 Pls
2606 2376 Pls
2606 2025 Pls
2606 1700 Pls
2606 1463 Pls
2606 2770 Pls
2606 2332 Pls
2606 1672 Pls
2606 1940 Pls
2606 2966 Pls
2606 2507 Pls
2606 2010 Pls
2606 1795 Pls
2606 4154 Pls
2606 2823 Pls
2606 2295 Pls
2606 2106 Pls
2606 3663 Pls
2606 2829 Pls
2606 2472 Pls
2606 1852 Pls
2606 3962 Pls
2606 2540 Pls
2606 2232 Pls
2606 1681 Pls
2606 3488 Pls
2606 2646 Pls
2606 2033 Pls
2606 1750 Pls
2606 2983 Pls
2606 2001 Pls
2606 1735 Pls
2606 1576 Pls
2606 2573 Pls
2606 1413 Pls
2606 1475 Pls
2606 1152 Pls
2606 2966 Pls
2606 1544 Pls
2606 1588 Pls
2606 1505 Pls
2606 2966 Pls
2606 1938 Pls
2606 1841 Pls
2606 1878 Pls
2606 3065 Pls
2606 2332 Pls
2606 2179 Pls
2606 1857 Pls
2606 3163 Pls
2606 2157 Pls
2606 2432 Pls
2606 1982 Pls
2606 4047 Pls
2606 2738 Pls
2606 2432 Pls
2606 2078 Pls
2606 3779 Pls
2606 2999 Pls
2606 2125 Pls
2606 1916 Pls
2606 3909 Pls
2606 2801 Pls
2606 2302 Pls
2606 1978 Pls
2606 3556 Pls
2606 2514 Pls
2606 2071 Pls
2606 1538 Pls
2606 3436 Pls
2606 2288 Pls
2606 1746 Pls
2606 1590 Pls
2606 2277 Pls
2606 1763 Pls
2606 1672 Pls
2606 1256 Pls
2606 2671 Pls
2606 1807 Pls
2606 2010 Pls
2606 1609 Pls
2606 3459 Pls
2606 2813 Pls
2606 2066 Pls
2606 1774 Pls
2606 3557 Pls
2606 2638 Pls
2606 2404 Pls
2606 1961 Pls
2606 4148 Pls
2606 3032 Pls
2606 2544 Pls
2606 2251 Pls
2606 4047 Pls
2606 3133 Pls
2606 2265 Pls
2606 2143 Pls
2606 4405 Pls
2606 3217 Pls
2606 2224 Pls
2606 2215 Pls
2606 3614 Pls
2606 2739 Pls
2606 2256 Pls
2606 2261 Pls
2606 3314 Pls
2606 2855 Pls
2606 2082 Pls
2606 2127 Pls
2606 2914 Pls
2606 2218 Pls
2606 1860 Pls
2606 1584 Pls
2606 1982 Pls
2606 1894 Pls
2606 1278 Pls
2606 1443 Pls
2606 2573 Pls
2606 2157 Pls
2606 2207 Pls
2606 1671 Pls
2606 3163 Pls
2606 2682 Pls
2606 2094 Pls
2606 1899 Pls
2606 3557 Pls
2606 3251 Pls
2606 2460 Pls
2606 2189 Pls
2606 3951 Pls
2606 2857 Pls
2606 2629 Pls
2606 2376 Pls
3297 3707 Pls
3297 2048 Pls
3297 1926 Pls
3297 1750 Pls
3297 3166 Pls
3297 1986 Pls
3297 1901 Pls
3297 1347 Pls
3297 3194 Pls
3297 2117 Pls
3297 1808 Pls
3297 1570 Pls
3297 2499 Pls
3297 1795 Pls
3297 1723 Pls
3297 1438 Pls
3297 2651 Pls
3297 1785 Pls
3297 1328 Pls
3297 1145 Pls
3297 1785 Pls
3297 1369 Pls
3297 1222 Pls
3297 966 Pls
3297 1686 Pls
3297 1238 Pls
3297 1278 Pls
3297 966 Pls
3297 2474 Pls
3297 1719 Pls
3297 1363 Pls
3297 1339 Pls
3297 2376 Pls
3297 2113 Pls
3297 1475 Pls
3297 1256 Pls
3297 2671 Pls
3297 1544 Pls
3297 1363 Pls
3297 1380 Pls
3297 3515 Pls
3297 2701 Pls
3297 2435 Pls
3297 1816 Pls
3297 3115 Pls
3297 2498 Pls
3297 2237 Pls
3297 1928 Pls
3297 3235 Pls
3297 2582 Pls
3297 1931 Pls
3297 1778 Pls
3297 3076 Pls
3297 2170 Pls
3297 1958 Pls
3297 1831 Pls
3297 2941 Pls
3297 1895 Pls
3297 1409 Pls
3297 1407 Pls
3297 2179 Pls
3297 1369 Pls
3297 1166 Pls
3297 1111 Pls
3297 2376 Pls
3297 1675 Pls
3297 1419 Pls
3297 1505 Pls
3297 2573 Pls
3297 2201 Pls
3297 1700 Pls
3297 1318 Pls
3297 2573 Pls
3297 2025 Pls
3297 1869 Pls
3297 1505 Pls
3297 3557 Pls
3297 2288 Pls
3297 1869 Pls
3297 1691 Pls
3297 4003 Pls
3297 2908 Pls
3297 2051 Pls
3297 1925 Pls
3297 3505 Pls
3297 2690 Pls
3297 2005 Pls
3297 1902 Pls
3297 3644 Pls
3297 2610 Pls
3297 1848 Pls
3297 1890 Pls
3297 3760 Pls
3297 2450 Pls
3297 2042 Pls
3297 1544 Pls
3297 3442 Pls
3297 1887 Pls
3297 1731 Pls
3297 1389 Pls
3297 2179 Pls
3297 1807 Pls
3297 1616 Pls
3297 1194 Pls
3297 1982 Pls
3297 1938 Pls
3297 1532 Pls
3297 1650 Pls
3297 3065 Pls
3297 1807 Pls
3297 1925 Pls
3297 1671 Pls
3297 3656 Pls
3297 2988 Pls
3297 1869 Pls
3297 1422 Pls
3297 3459 Pls
3297 2025 Pls
3297 1982 Pls
3297 2023 Pls
3297 3786 Pls
3297 3092 Pls
3297 2103 Pls
3297 2083 Pls
3297 3971 Pls
3297 3174 Pls
3297 2329 Pls
3297 2226 Pls
3297 3744 Pls
3297 2865 Pls
3297 2477 Pls
3297 1826 Pls
3297 3733 Pls
3297 2836 Pls
3297 2188 Pls
3297 1712 Pls
3297 3286 Pls
3297 2601 Pls
3297 1987 Pls
3297 1864 Pls
3297 2573 Pls
3297 1588 Pls
3297 1419 Pls
3297 1277 Pls
3297 2966 Pls
3297 1807 Pls
3297 1560 Pls
3297 1671 Pls
3297 3459 Pls
3297 2376 Pls
3297 1897 Pls
3297 1899 Pls
3297 2868 Pls
3297 2376 Pls
3297 2179 Pls
3297 1629 Pls
3297 3557 Pls
3297 2857 Pls
3297 2263 Pls
3297 1982 Pls
3297 4062 Pls
3297 2621 Pls
3297 2632 Pls
3297 1947 Pls
3297 3746 Pls
3297 3015 Pls
3297 2656 Pls
3297 1798 Pls
3297 3736 Pls
3297 2977 Pls
3297 2241 Pls
3297 1996 Pls
3297 3675 Pls
3297 2513 Pls
3297 2226 Pls
3297 1802 Pls
3297 3310 Pls
3297 2158 Pls
3297 1665 Pls
3297 1655 Pls
3297 2868 Pls
3297 1894 Pls
3297 1391 Pls
3297 1422 Pls
3297 2966 Pls
3297 2113 Pls
3297 2151 Pls
3297 1401 Pls
3297 2966 Pls
3297 2157 Pls
3297 2038 Pls
3297 1899 Pls
3297 3459 Pls
3297 3120 Pls
3297 2460 Pls
3297 1920 Pls
3297 3656 Pls
3297 2988 Pls
3297 2769 Pls
3297 2044 Pls
3987 3179 Pls
3987 2264 Pls
3987 2042 Pls
3987 1499 Pls
3987 3315 Pls
3987 2255 Pls
3987 1790 Pls
3987 1673 Pls
3987 2529 Pls
3987 2504 Pls
3987 1880 Pls
3987 1534 Pls
3987 3154 Pls
3987 2022 Pls
3987 1552 Pls
3987 1163 Pls
3987 2060 Pls
3987 1785 Pls
3987 1427 Pls
3987 1332 Pls
3987 1292 Pls
3987 1106 Pls
3987 1081 Pls
3987 1070 Pls
3987 1785 Pls
3987 1413 Pls
3987 1222 Pls
3987 1173 Pls
3987 2966 Pls
3987 1369 Pls
3987 1138 Pls
3987 1256 Pls
3987 2671 Pls
3987 1544 Pls
3987 1363 Pls
3987 1298 Pls
3987 2868 Pls
3987 1938 Pls
3987 1475 Pls
3987 1215 Pls
3987 3566 Pls
3987 2686 Pls
3987 2148 Pls
3987 1829 Pls
3987 3460 Pls
3987 2206 Pls
3987 2205 Pls
3987 1764 Pls
3987 3678 Pls
3987 2351 Pls
3987 2045 Pls
3987 1692 Pls
3987 3387 Pls
3987 2296 Pls
3987 1806 Pls
3987 1653 Pls
3987 2606 Pls
3987 1983 Pls
3987 1640 Pls
3987 1463 Pls
3987 2080 Pls
3987 1369 Pls
3987 1081 Pls
3987 1173 Pls
3987 2474 Pls
3987 2244 Pls
3987 1532 Pls
3987 1360 Pls
3987 2671 Pls
3987 1938 Pls
3987 1391 Pls
3987 1380 Pls
3987 2966 Pls
3987 2157 Pls
3987 1785 Pls
3987 1422 Pls
3987 3262 Pls
3987 2069 Pls
3987 1785 Pls
3987 1733 Pls
3987 3584 Pls
3987 2717 Pls
3987 2468 Pls
3987 2069 Pls
3987 3913 Pls
3987 2714 Pls
3987 2186 Pls
3987 2135 Pls
3987 4101 Pls
3987 2857 Pls
3987 1991 Pls
3987 1920 Pls
3987 3151 Pls
3987 2392 Pls
3987 2331 Pls
3987 1850 Pls
3987 2692 Pls
3987 1908 Pls
3987 1695 Pls
3987 1504 Pls
3987 2671 Pls
3987 1807 Pls
3987 1278 Pls
3987 1194 Pls
3987 3163 Pls
3987 1850 Pls
3987 1363 Pls
3987 1546 Pls
3987 2277 Pls
3987 2113 Pls
3987 1644 Pls
3987 1588 Pls
3987 3557 Pls
3987 2332 Pls
3987 1925 Pls
3987 1837 Pls
3987 3360 Pls
3987 2507 Pls
3987 2263 Pls
3987 1650 Pls
3987 4101 Pls
3987 3183 Pls
3987 2355 Pls
3987 1899 Pls
3987 3619 Pls
3987 3114 Pls
3987 2317 Pls
3987 1985 Pls
3987 3874 Pls
3987 2686 Pls
3987 2020 Pls
3987 1757 Pls
3987 3857 Pls
3987 2614 Pls
3987 2288 Pls
3987 1957 Pls
3987 3647 Pls
3987 2282 Pls
3987 1827 Pls
3987 1697 Pls
3987 2770 Pls
3987 1588 Pls
3987 1475 Pls
3987 1173 Pls
3987 2868 Pls
3987 2288 Pls
3987 1532 Pls
3987 1380 Pls
3987 2966 Pls
3987 2376 Pls
3987 1813 Pls
3987 1795 Pls
3987 3754 Pls
3987 2201 Pls
3987 2151 Pls
3987 1899 Pls
3987 3262 Pls
3987 2594 Pls
3987 1954 Pls
3987 2023 Pls
3987 3501 Pls
3987 2559 Pls
3987 2332 Pls
3987 2011 Pls
3987 3914 Pls
3987 2655 Pls
3987 2436 Pls
3987 1755 Pls
3987 3899 Pls
3987 2536 Pls
3987 2460 Pls
3987 1999 Pls
3987 4221 Pls
3987 2912 Pls
3987 2116 Pls
3987 1682 Pls
3987 3627 Pls
3987 2150 Pls
3987 1880 Pls
3987 1579 Pls
3987 2573 Pls
3987 2113 Pls
3987 1363 Pls
3987 1318 Pls
3987 2474 Pls
3987 2069 Pls
3987 1700 Pls
3987 1671 Pls
3987 3360 Pls
3987 2157 Pls
3987 1954 Pls
3987 1837 Pls
3987 3262 Pls
3987 2463 Pls
3987 2066 Pls
3987 1754 Pls
3987 3459 Pls
3987 2813 Pls
3987 2601 Pls
3987 2313 Pls
4678 3080 Pls
4678 2194 Pls
4678 1855 Pls
4678 1714 Pls
4678 3485 Pls
4678 2237 Pls
4678 1696 Pls
4678 1681 Pls
4678 3665 Pls
4678 2251 Pls
4678 1635 Pls
4678 1642 Pls
4678 2948 Pls
4678 2131 Pls
4678 1527 Pls
4678 1284 Pls
4678 2454 Pls
4678 1749 Pls
4678 1379 Pls
4678 1332 Pls
4678 1883 Pls
4678 1150 Pls
4678 1109 Pls
4678 1111 Pls
4678 1883 Pls
4678 1238 Pls
4678 1194 Pls
4678 1152 Pls
4678 2966 Pls
4678 1850 Pls
4678 1335 Pls
4678 1629 Pls
4678 3163 Pls
4678 1719 Pls
4678 1306 Pls
4678 1277 Pls
4678 2868 Pls
4678 1850 Pls
4678 1475 Pls
4678 1463 Pls
4678 3788 Pls
4678 2817 Pls
4678 2252 Pls
4678 2002 Pls
4678 3578 Pls
4678 2316 Pls
4678 2229 Pls
4678 1870 Pls
4678 3720 Pls
4678 2731 Pls
4678 1945 Pls
4678 1886 Pls
4678 3003 Pls
4678 2429 Pls
4678 2050 Pls
4678 1561 Pls
4678 3080 Pls
4678 1735 Pls
4678 1671 Pls
4678 1541 Pls
4678 2376 Pls
4678 1544 Pls
4678 1278 Pls
4678 1090 Pls
4678 2671 Pls
4678 1456 Pls
4678 1363 Pls
4678 1215 Pls
4678 2868 Pls
4678 1982 Pls
4678 1532 Pls
4678 1505 Pls
4678 2376 Pls
4678 2113 Pls
4678 1785 Pls
4678 1609 Pls
4678 2671 Pls
4678 2069 Pls
4678 1700 Pls
4678 1774 Pls
4678 3733 Pls
4678 3123 Pls
4678 2195 Pls
4678 2242 Pls
4678 4110 Pls
4678 2731 Pls
4678 2157 Pls
4678 1900 Pls
4678 4045 Pls
4678 2589 Pls
4678 2049 Pls
4678 1860 Pls
4678 3129 Pls
4678 2591 Pls
4678 1897 Pls
4678 1707 Pls
4678 2987 Pls
4678 1923 Pls
4678 1499 Pls
4678 1597 Pls
4678 2376 Pls
4678 1456 Pls
4678 1278 Pls
4678 1215 Pls
4678 3163 Pls
4678 2025 Pls
4678 1447 Pls
4678 1256 Pls
4678 3557 Pls
4678 1982 Pls
4678 1813 Pls
4678 1505 Pls
4678 2770 Pls
4678 2376 Pls
4678 2038 Pls
4678 1691 Pls
4678 3557 Pls
4678 2244 Pls
4678 1588 Pls
4678 1712 Pls
4678 3878 Pls
4678 3138 Pls
4678 2087 Pls
4678 2051 Pls
4678 3964 Pls
4678 2698 Pls
4678 2175 Pls
4678 1845 Pls
4678 3781 Pls
4678 2629 Pls
4678 2344 Pls
4678 2010 Pls
4678 3505 Pls
4678 2928 Pls
4678 1839 Pls
4678 1813 Pls
4678 3205 Pls
4678 2323 Pls
4678 2265 Pls
4678 1625 Pls
4678 2376 Pls
4678 1632 Pls
4678 1363 Pls
4678 1235 Pls
4678 2868 Pls
4678 1850 Pls
4678 1475 Pls
4678 1505 Pls
4678 3065 Pls
4678 2069 Pls
4678 1841 Pls
4678 1567 Pls
4678 3656 Pls
4678 2463 Pls
4678 2066 Pls
4678 1650 Pls
4678 3754 Pls
4678 2726 Pls
4678 2038 Pls
4678 1650 Pls
4678 4090 Pls
4678 2865 Pls
4678 2478 Pls
4678 2018 Pls
4678 3706 Pls
4678 2835 Pls
4678 2414 Pls
4678 2268 Pls
4678 3958 Pls
4678 2916 Pls
4678 2367 Pls
4678 1865 Pls
4678 3719 Pls
4678 2607 Pls
4678 2170 Pls
4678 2166 Pls
4678 2868 Pls
4678 2347 Pls
4678 1922 Pls
4678 1646 Pls
4678 2277 Pls
4678 1807 Pls
4678 1306 Pls
4678 1277 Pls
4678 2671 Pls
4678 1982 Pls
4678 1588 Pls
4678 1609 Pls
4678 3656 Pls
4678 2638 Pls
4678 2235 Pls
4678 2127 Pls
4678 3754 Pls
4678 2770 Pls
4678 1672 Pls
4678 2002 Pls
4678 4345 Pls
4678 2769 Pls
4678 2291 Pls
4678 2168 Pls
5368 2927 Pls
5368 2102 Pls
5368 2277 Pls
5368 1639 Pls
5368 3263 Pls
5368 1927 Pls
5368 2158 Pls
5368 1593 Pls
5368 3274 Pls
5368 2278 Pls
5368 1981 Pls
5368 1441 Pls
5368 2593 Pls
5368 1742 Pls
5368 1745 Pls
5368 1459 Pls
5368 2638 Pls
5368 1810 Pls
5368 1330 Pls
5368 1257 Pls
5368 1785 Pls
5368 931 Pls
5368 997 Pls
5368 1049 Pls
5368 1982 Pls
5368 1238 Pls
5368 1335 Pls
5368 1132 Pls
5368 2573 Pls
5368 1675 Pls
5368 1278 Pls
5368 1215 Pls
5368 2080 Pls
5368 1632 Pls
5368 1391 Pls
5368 1194 Pls
5368 3557 Pls
5368 2069 Pls
5368 1475 Pls
5368 1401 Pls
5368 3643 Pls
5368 2857 Pls
5368 1968 Pls
5368 1815 Pls
5368 3466 Pls
5368 2338 Pls
5368 2207 Pls
5368 1800 Pls
5368 2803 Pls
5368 2388 Pls
5368 2086 Pls
5368 1697 Pls
5368 3562 Pls
5368 2090 Pls
5368 1682 Pls
5368 1735 Pls
5368 2905 Pls
5368 2098 Pls
5368 1624 Pls
5368 1350 Pls
5368 2179 Pls
5368 1325 Pls
5368 1222 Pls
5368 1070 Pls
5368 2868 Pls
5368 1544 Pls
5368 1335 Pls
5368 1380 Pls
5368 2474 Pls
5368 1719 Pls
5368 1588 Pls
5368 1277 Pls
5368 3065 Pls
5368 1894 Pls
5368 1560 Pls
5368 1401 Pls
5368 3557 Pls
5368 2069 Pls
5368 1841 Pls
5368 1671 Pls
5368 3719 Pls
5368 3054 Pls
5368 2353 Pls
5368 2146 Pls
5368 3427 Pls
5368 2762 Pls
5368 2294 Pls
5368 1959 Pls
5368 2953 Pls
5368 2858 Pls
5368 2359 Pls
5368 1797 Pls
5368 3762 Pls
5368 2690 Pls
5368 1929 Pls
5368 1828 Pls
5368 3208 Pls
5368 2061 Pls
5368 1892 Pls
5368 1444 Pls
5368 1982 Pls
5368 1325 Pls
5368 1363 Pls
5368 1194 Pls
5368 2770 Pls
5368 2025 Pls
5368 1532 Pls
5368 1360 Pls
5368 3459 Pls
5368 2201 Pls
5368 1728 Pls
5368 1754 Pls
5368 3360 Pls
5368 2069 Pls
5368 1728 Pls
5368 1505 Pls
5368 3065 Pls
5368 2157 Pls
5368 1925 Pls
5368 1733 Pls
5368 3844 Pls
5368 2852 Pls
5368 2494 Pls
5368 1890 Pls
5368 4052 Pls
5368 2763 Pls
5368 2469 Pls
5368 2160 Pls
5368 3788 Pls
5368 2614 Pls
5368 1981 Pls
5368 1978 Pls
5368 3698 Pls
5368 2279 Pls
5368 1734 Pls
5368 1786 Pls
5368 3241 Pls
5368 2126 Pls
5368 2005 Pls
5368 1751 Pls
5368 2376 Pls
5368 1894 Pls
5368 1419 Pls
5368 1215 Pls
5368 3262 Pls
5368 1544 Pls
5368 1785 Pls
5368 1609 Pls
5368 2966 Pls
5368 2157 Pls
5368 2038 Pls
5368 1816 Pls
5368 3459 Pls
5368 2419 Pls
5368 1841 Pls
5368 1961 Pls
5368 3656 Pls
5368 2507 Pls
5368 2038 Pls
5368 1940 Pls
5368 4103 Pls
5368 3398 Pls
5368 2440 Pls
5368 2059 Pls
5368 3471 Pls
5368 2986 Pls
5368 2659 Pls
5368 1984 Pls
5368 3453 Pls
5368 3031 Pls
5368 2097 Pls
5368 2301 Pls
5368 3453 Pls
5368 2531 Pls
5368 2287 Pls
5368 1562 Pls
5368 3510 Pls
5368 2294 Pls
5368 2057 Pls
5368 1669 Pls
5368 3262 Pls
5368 1632 Pls
5368 1447 Pls
5368 1256 Pls
5368 2573 Pls
5368 1938 Pls
5368 1391 Pls
5368 1609 Pls
5368 3557 Pls
5368 2507 Pls
5368 1954 Pls
5368 1754 Pls
5368 3459 Pls
5368 2813 Pls
5368 1869 Pls
5368 1940 Pls
5368 3262 Pls
5368 2551 Pls
5368 2179 Pls
5368 2106 Pls
6059 3080 Pls
6059 2320 Pls
6059 2008 Pls
6059 1622 Pls
6059 2716 Pls
6059 2530 Pls
6059 1783 Pls
6059 1701 Pls
6059 3304 Pls
6059 1935 Pls
6059 1540 Pls
6059 1551 Pls
6059 3065 Pls
6059 2142 Pls
6059 1575 Pls
6059 1545 Pls
6059 2362 Pls
6059 1620 Pls
6059 1397 Pls
6059 1163 Pls
6059 1883 Pls
6059 1281 Pls
6059 1109 Pls
6059 987 Pls
6059 1982 Pls
6059 1238 Pls
6059 1194 Pls
6059 1111 Pls
6059 2573 Pls
6059 1632 Pls
6059 1278 Pls
6059 1152 Pls
6059 2376 Pls
6059 1588 Pls
6059 1447 Pls
6059 1173 Pls
6059 2080 Pls
6059 1894 Pls
6059 1588 Pls
6059 1360 Pls
6059 3449 Pls
6059 2670 Pls
6059 2344 Pls
6059 1958 Pls
6059 3860 Pls
6059 2608 Pls
6059 2299 Pls
6059 1839 Pls
6059 3487 Pls
6059 2476 Pls
6059 2109 Pls
6059 1786 Pls
6059 3298 Pls
6059 2310 Pls
6059 1807 Pls
6059 1492 Pls
6059 2915 Pls
6059 2137 Pls
6059 1477 Pls
6059 1508 Pls
6059 1785 Pls
6059 1238 Pls
6059 1391 Pls
6059 1132 Pls
6059 1982 Pls
6059 1719 Pls
6059 1363 Pls
6059 1256 Pls
6059 2080 Pls
6059 1807 Pls
6059 1616 Pls
6059 1235 Pls
6059 3754 Pls
6059 2157 Pls
6059 1757 Pls
6059 1298 Pls
6059 2770 Pls
6059 2244 Pls
6059 1813 Pls
6059 1401 Pls
6059 3999 Pls
6059 2576 Pls
6059 2141 Pls
6059 2040 Pls
6059 3890 Pls
6059 2493 Pls
6059 2201 Pls
6059 2070 Pls
6059 3922 Pls
6059 2540 Pls
6059 2147 Pls
6059 2012 Pls
6059 3001 Pls
6059 2612 Pls
6059 1920 Pls
6059 1583 Pls
6059 2758 Pls
6059 2485 Pls
6059 1937 Pls
6059 1485 Pls
6059 2080 Pls
6059 1413 Pls
6059 1025 Pls
6059 1235 Pls
6059 3065 Pls
6059 1982 Pls
6059 1560 Pls
6059 1401 Pls
6059 3065 Pls
6059 1938 Pls
6059 1644 Pls
6059 1526 Pls
6059 3360 Pls
6059 2201 Pls
6059 1925 Pls
6059 1401 Pls
6059 3459 Pls
6059 2682 Pls
6059 1841 Pls
6059 1609 Pls
6059 3941 Pls
6059 2942 Pls
6059 2521 Pls
6059 2097 Pls
6059 3927 Pls
6059 3154 Pls
6059 2379 Pls
6059 1936 Pls
6059 3903 Pls
6059 2710 Pls
6059 2470 Pls
6059 1921 Pls
6059 3087 Pls
6059 2646 Pls
6059 2091 Pls
6059 1745 Pls
6059 3274 Pls
6059 2310 Pls
6059 2212 Pls
6059 1495 Pls
6059 2080 Pls
6059 1763 Pls
6059 1475 Pls
6059 1256 Pls
6059 2671 Pls
6059 2157 Pls
6059 1728 Pls
6059 1463 Pls
6059 2868 Pls
6059 2201 Pls
6059 1897 Pls
6059 1422 Pls
6059 3557 Pls
6059 2244 Pls
6059 1841 Pls
6059 1588 Pls
6059 3557 Pls
6059 2594 Pls
6059 2038 Pls
6059 1837 Pls
6059 4190 Pls
6059 3317 Pls
6059 2540 Pls
6059 2287 Pls
6059 3663 Pls
6059 3005 Pls
6059 2771 Pls
6059 2344 Pls
6059 3453 Pls
6059 2917 Pls
6059 2262 Pls
6059 1990 Pls
6059 3703 Pls
6059 2554 Pls
6059 2020 Pls
6059 1808 Pls
6059 3032 Pls
6059 2283 Pls
6059 1916 Pls
6059 1737 Pls
6059 2770 Pls
6059 1588 Pls
6059 1475 Pls
6059 1277 Pls
6059 3065 Pls
6059 2507 Pls
6059 1419 Pls
6059 1380 Pls
6059 3557 Pls
6059 2332 Pls
6059 1700 Pls
6059 1505 Pls
6059 2966 Pls
6059 2813 Pls
6059 2010 Pls
6059 1774 Pls
6059 3262 Pls
6059 2025 Pls
6059 2376 Pls
6059 2106 Pls
6749 3013 Pls
6749 2731 Pls
6749 2176 Pls
6749 1788 Pls
6749 3550 Pls
6749 2176 Pls
6749 1797 Pls
6749 1574 Pls
6749 3181 Pls
6749 2174 Pls
6749 1758 Pls
6749 1618 Pls
6749 2544 Pls
6749 2023 Pls
6749 1756 Pls
6749 1440 Pls
6749 2389 Pls
6749 1745 Pls
6749 1450 Pls
6749 1329 Pls
6749 1686 Pls
6749 1238 Pls
6749 969 Pls
6749 966 Pls
6749 2080 Pls
6749 1588 Pls
6749 1278 Pls
6749 1049 Pls
6749 2179 Pls
6749 1456 Pls
6749 1250 Pls
6749 1194 Pls
6749 2868 Pls
6749 1456 Pls
6749 1419 Pls
6749 1152 Pls
6749 2376 Pls
6749 1500 Pls
6749 1335 Pls
6749 1173 Pls
6749 3886 Pls
6749 2454 Pls
6749 2060 Pls
6749 1667 Pls
6749 3663 Pls
6749 2741 Pls
6749 1884 Pls
6749 1784 Pls
6749 3519 Pls
6749 2470 Pls
6749 2049 Pls
6749 1721 Pls
6749 2591 Pls
6749 2242 Pls
6749 1850 Pls
6749 1656 Pls
6749 2936 Pls
6749 1950 Pls
6749 1600 Pls
6749 1472 Pls
6749 1489 Pls
6749 1456 Pls
6749 1194 Pls
6749 1132 Pls
6749 2671 Pls
6749 1719 Pls
6749 1419 Pls
6749 1401 Pls
6749 2474 Pls
6749 1850 Pls
6749 1532 Pls
6749 1339 Pls
6749 3065 Pls
6749 2113 Pls
6749 1391 Pls
6749 1463 Pls
6749 3656 Pls
6749 2025 Pls
6749 1869 Pls
6749 1463 Pls
6749 3781 Pls
6749 2602 Pls
6749 2240 Pls
6749 1953 Pls
6749 3939 Pls
6749 2907 Pls
6749 2381 Pls
6749 1730 Pls
6749 3626 Pls
6749 2605 Pls
6749 1860 Pls
6749 2047 Pls
6749 2947 Pls
6749 2525 Pls
6749 1813 Pls
6749 1681 Pls
6749 2998 Pls
6749 2194 Pls
6749 1596 Pls
6749 1586 Pls
6749 2277 Pls
6749 1500 Pls
6749 1363 Pls
6749 1152 Pls
6749 3163 Pls
6749 1632 Pls
6749 1560 Pls
6749 1277 Pls
6749 2770 Pls
6749 2069 Pls
6749 1644 Pls
6749 1380 Pls
6749 2966 Pls
6749 2288 Pls
6749 2122 Pls
6749 1650 Pls
6749 2966 Pls
6749 2288 Pls
6749 1672 Pls
6749 1567 Pls
6749 3906 Pls
6749 2828 Pls
6749 2399 Pls
6749 2056 Pls
6749 3619 Pls
6749 3048 Pls
6749 2287 Pls
6749 1933 Pls
6749 3647 Pls
6749 2429 Pls
6749 1959 Pls
6749 1785 Pls
6749 3509 Pls
6749 1977 Pls
6749 1770 Pls
6749 1895 Pls
6749 3348 Pls
6749 2279 Pls
6749 1751 Pls
6749 1389 Pls
6749 2179 Pls
6749 1719 Pls
6749 1363 Pls
6749 1380 Pls
6749 2770 Pls
6749 1675 Pls
6749 1785 Pls
6749 1380 Pls
6749 3065 Pls
6749 1807 Pls
6749 1503 Pls
6749 1754 Pls
6749 2868 Pls
6749 2507 Pls
6749 1532 Pls
6749 1816 Pls
6749 3065 Pls
6749 2157 Pls
6749 1925 Pls
6749 1899 Pls
6749 3846 Pls
6749 2775 Pls
6749 2622 Pls
6749 2090 Pls
6749 4197 Pls
6749 3132 Pls
6749 2340 Pls
6749 1767 Pls
6749 4061 Pls
6749 2976 Pls
6749 2288 Pls
6749 2061 Pls
6749 3476 Pls
6749 2790 Pls
6749 2387 Pls
6749 1810 Pls
6749 3501 Pls
6749 2590 Pls
6749 1991 Pls
6749 1901 Pls
6749 2671 Pls
6749 1763 Pls
6749 1503 Pls
6749 1277 Pls
6749 2868 Pls
6749 1763 Pls
6749 1700 Pls
6749 1754 Pls
6749 3557 Pls
6749 1938 Pls
6749 1841 Pls
6749 1650 Pls
6749 3656 Pls
6749 2638 Pls
6749 1728 Pls
6749 1691 Pls
6749 3656 Pls
6749 2332 Pls
6749 2179 Pls
6749 1795 Pls
% End plot #1
% Begin plot #2
1.000 UL
LT1
LCb setrgbcolor
5636 4551 M
[ [(Helvetica) 250.0 0.0 true true 0 (Average)]
] -83.3 MRshow
LT1
5786 4551 M
663 0 V
1225 2520 M
691 -171 V
690 -86 V
691 -32 V
690 -15 V
691 19 V
690 -29 V
691 -14 V
690 -31 V
% End plot #2
% Begin plot #3
stroke
LT2
LCb setrgbcolor
5636 4301 M
[ [(Helvetica) 250.0 0.0 true true 0 (Min)]
] -83.3 MRshow
LT2
5786 4301 M
663 0 V
1225 1111 M
691 41 V
690 -82 V
3297 966 L
690 104 V
691 20 V
5368 931 L
691 56 V
690 -21 V
% End plot #3
% Begin plot #4
stroke
LT3
LCb setrgbcolor
5636 4051 M
[ [(Helvetica) 250.0 0.0 true true 0 (Max)]
] -83.3 MRshow
LT3
5786 4051 M
663 0 V
1225 4641 M
691 -296 V
690 60 V
691 -343 V
690 159 V
691 124 V
690 -242 V
691 87 V
690 7 V
% End plot #4
stroke
LTb
1225 4739 N
0 -3939 V
5524 0 V
0 3939 V
-5524 0 V
Z stroke
1.000 UP
1.000 UL
LTb
stroke
grestore
end
showpage
%%Trailer
%%DocumentFonts: Helvetica
