%!PS-Adobe-2.0 EPSF-2.0
%%Title: n_alphabet_size_100.f1.eps
%%Creator: gnuplot 4.4 patchlevel 3
%%CreationDate: Tue Jun  4 12:58:03 2013
%%DocumentFonts: (atend)
%%BoundingBox: 50 50 410 302
%%EndComments
%%BeginProlog
/gnudict 256 dict def
gnudict begin
%
% The following true/false flags may be edited by hand if desired.
% The unit line width and grayscale image gamma correction may also be changed.
%
/Color true def
/Blacktext false def
/Solid false def
/Dashlength 1 def
/Landscape false def
/Level1 false def
/Rounded false def
/ClipToBoundingBox false def
/TransparentPatterns false def
/gnulinewidth 5.000 def
/userlinewidth gnulinewidth def
/Gamma 1.0 def
%
/vshift -83 def
/dl1 {
  10.0 Dashlength mul mul
  Rounded { currentlinewidth 0.75 mul sub dup 0 le { pop 0.01 } if } if
} def
/dl2 {
  10.0 Dashlength mul mul
  Rounded { currentlinewidth 0.75 mul add } if
} def
/hpt_ 31.5 def
/vpt_ 31.5 def
/hpt hpt_ def
/vpt vpt_ def
Level1 {} {
/SDict 10 dict def
systemdict /pdfmark known not {
  userdict /pdfmark systemdict /cleartomark get put
} if
SDict begin [
  /Title (n_alphabet_size_100.f1.eps)
  /Subject (gnuplot plot)
  /Creator (gnuplot 4.4 patchlevel 3)
  /Author (xjia)
%  /Producer (gnuplot)
%  /Keywords ()
  /CreationDate (Tue Jun  4 12:58:03 2013)
  /DOCINFO pdfmark
end
} ifelse
/doclip {
  ClipToBoundingBox {
    newpath 50 50 moveto 410 50 lineto 410 302 lineto 50 302 lineto closepath
    clip
  } if
} def
%
% Gnuplot Prolog Version 4.4 (August 2010)
%
%/SuppressPDFMark true def
%
/M {moveto} bind def
/L {lineto} bind def
/R {rmoveto} bind def
/V {rlineto} bind def
/N {newpath moveto} bind def
/Z {closepath} bind def
/C {setrgbcolor} bind def
/f {rlineto fill} bind def
/g {setgray} bind def
/Gshow {show} def   % May be redefined later in the file to support UTF-8
/vpt2 vpt 2 mul def
/hpt2 hpt 2 mul def
/Lshow {currentpoint stroke M 0 vshift R 
	Blacktext {gsave 0 setgray show grestore} {show} ifelse} def
/Rshow {currentpoint stroke M dup stringwidth pop neg vshift R
	Blacktext {gsave 0 setgray show grestore} {show} ifelse} def
/Cshow {currentpoint stroke M dup stringwidth pop -2 div vshift R 
	Blacktext {gsave 0 setgray show grestore} {show} ifelse} def
/UP {dup vpt_ mul /vpt exch def hpt_ mul /hpt exch def
  /hpt2 hpt 2 mul def /vpt2 vpt 2 mul def} def
/DL {Color {setrgbcolor Solid {pop []} if 0 setdash}
 {pop pop pop 0 setgray Solid {pop []} if 0 setdash} ifelse} def
/BL {stroke userlinewidth 2 mul setlinewidth
	Rounded {1 setlinejoin 1 setlinecap} if} def
/AL {stroke userlinewidth 2 div setlinewidth
	Rounded {1 setlinejoin 1 setlinecap} if} def
/UL {dup gnulinewidth mul /userlinewidth exch def
	dup 1 lt {pop 1} if 10 mul /udl exch def} def
/PL {stroke userlinewidth setlinewidth
	Rounded {1 setlinejoin 1 setlinecap} if} def
3.8 setmiterlimit
% Default Line colors
/LCw {1 1 1} def
/LCb {0 0 0} def
/LCa {0 0 0} def
/LC0 {1 0 0} def
/LC1 {0 1 0} def
/LC2 {0 0 1} def
/LC3 {1 0 1} def
/LC4 {0 1 1} def
/LC5 {1 1 0} def
/LC6 {0 0 0} def
/LC7 {1 0.3 0} def
/LC8 {0.5 0.5 0.5} def
% Default Line Types
/LTw {PL [] 1 setgray} def
/LTb {BL [] LCb DL} def
/LTa {AL [1 udl mul 2 udl mul] 0 setdash LCa setrgbcolor} def
/LT0 {PL [] LC0 DL} def
/LT1 {PL [4 dl1 2 dl2] LC1 DL} def
/LT2 {PL [2 dl1 3 dl2] LC2 DL} def
/LT3 {PL [1 dl1 1.5 dl2] LC3 DL} def
/LT4 {PL [6 dl1 2 dl2 1 dl1 2 dl2] LC4 DL} def
/LT5 {PL [3 dl1 3 dl2 1 dl1 3 dl2] LC5 DL} def
/LT6 {PL [2 dl1 2 dl2 2 dl1 6 dl2] LC6 DL} def
/LT7 {PL [1 dl1 2 dl2 6 dl1 2 dl2 1 dl1 2 dl2] LC7 DL} def
/LT8 {PL [2 dl1 2 dl2 2 dl1 2 dl2 2 dl1 2 dl2 2 dl1 4 dl2] LC8 DL} def
/Pnt {stroke [] 0 setdash gsave 1 setlinecap M 0 0 V stroke grestore} def
/Dia {stroke [] 0 setdash 2 copy vpt add M
  hpt neg vpt neg V hpt vpt neg V
  hpt vpt V hpt neg vpt V closepath stroke
  Pnt} def
/Pls {stroke [] 0 setdash vpt sub M 0 vpt2 V
  currentpoint stroke M
  hpt neg vpt neg R hpt2 0 V stroke
 } def
/Box {stroke [] 0 setdash 2 copy exch hpt sub exch vpt add M
  0 vpt2 neg V hpt2 0 V 0 vpt2 V
  hpt2 neg 0 V closepath stroke
  Pnt} def
/Crs {stroke [] 0 setdash exch hpt sub exch vpt add M
  hpt2 vpt2 neg V currentpoint stroke M
  hpt2 neg 0 R hpt2 vpt2 V stroke} def
/TriU {stroke [] 0 setdash 2 copy vpt 1.12 mul add M
  hpt neg vpt -1.62 mul V
  hpt 2 mul 0 V
  hpt neg vpt 1.62 mul V closepath stroke
  Pnt} def
/Star {2 copy Pls Crs} def
/BoxF {stroke [] 0 setdash exch hpt sub exch vpt add M
  0 vpt2 neg V hpt2 0 V 0 vpt2 V
  hpt2 neg 0 V closepath fill} def
/TriUF {stroke [] 0 setdash vpt 1.12 mul add M
  hpt neg vpt -1.62 mul V
  hpt 2 mul 0 V
  hpt neg vpt 1.62 mul V closepath fill} def
/TriD {stroke [] 0 setdash 2 copy vpt 1.12 mul sub M
  hpt neg vpt 1.62 mul V
  hpt 2 mul 0 V
  hpt neg vpt -1.62 mul V closepath stroke
  Pnt} def
/TriDF {stroke [] 0 setdash vpt 1.12 mul sub M
  hpt neg vpt 1.62 mul V
  hpt 2 mul 0 V
  hpt neg vpt -1.62 mul V closepath fill} def
/DiaF {stroke [] 0 setdash vpt add M
  hpt neg vpt neg V hpt vpt neg V
  hpt vpt V hpt neg vpt V closepath fill} def
/Pent {stroke [] 0 setdash 2 copy gsave
  translate 0 hpt M 4 {72 rotate 0 hpt L} repeat
  closepath stroke grestore Pnt} def
/PentF {stroke [] 0 setdash gsave
  translate 0 hpt M 4 {72 rotate 0 hpt L} repeat
  closepath fill grestore} def
/Circle {stroke [] 0 setdash 2 copy
  hpt 0 360 arc stroke Pnt} def
/CircleF {stroke [] 0 setdash hpt 0 360 arc fill} def
/C0 {BL [] 0 setdash 2 copy moveto vpt 90 450 arc} bind def
/C1 {BL [] 0 setdash 2 copy moveto
	2 copy vpt 0 90 arc closepath fill
	vpt 0 360 arc closepath} bind def
/C2 {BL [] 0 setdash 2 copy moveto
	2 copy vpt 90 180 arc closepath fill
	vpt 0 360 arc closepath} bind def
/C3 {BL [] 0 setdash 2 copy moveto
	2 copy vpt 0 180 arc closepath fill
	vpt 0 360 arc closepath} bind def
/C4 {BL [] 0 setdash 2 copy moveto
	2 copy vpt 180 270 arc closepath fill
	vpt 0 360 arc closepath} bind def
/C5 {BL [] 0 setdash 2 copy moveto
	2 copy vpt 0 90 arc
	2 copy moveto
	2 copy vpt 180 270 arc closepath fill
	vpt 0 360 arc} bind def
/C6 {BL [] 0 setdash 2 copy moveto
	2 copy vpt 90 270 arc closepath fill
	vpt 0 360 arc closepath} bind def
/C7 {BL [] 0 setdash 2 copy moveto
	2 copy vpt 0 270 arc closepath fill
	vpt 0 360 arc closepath} bind def
/C8 {BL [] 0 setdash 2 copy moveto
	2 copy vpt 270 360 arc closepath fill
	vpt 0 360 arc closepath} bind def
/C9 {BL [] 0 setdash 2 copy moveto
	2 copy vpt 270 450 arc closepath fill
	vpt 0 360 arc closepath} bind def
/C10 {BL [] 0 setdash 2 copy 2 copy moveto vpt 270 360 arc closepath fill
	2 copy moveto
	2 copy vpt 90 180 arc closepath fill
	vpt 0 360 arc closepath} bind def
/C11 {BL [] 0 setdash 2 copy moveto
	2 copy vpt 0 180 arc closepath fill
	2 copy moveto
	2 copy vpt 270 360 arc closepath fill
	vpt 0 360 arc closepath} bind def
/C12 {BL [] 0 setdash 2 copy moveto
	2 copy vpt 180 360 arc closepath fill
	vpt 0 360 arc closepath} bind def
/C13 {BL [] 0 setdash 2 copy moveto
	2 copy vpt 0 90 arc closepath fill
	2 copy moveto
	2 copy vpt 180 360 arc closepath fill
	vpt 0 360 arc closepath} bind def
/C14 {BL [] 0 setdash 2 copy moveto
	2 copy vpt 90 360 arc closepath fill
	vpt 0 360 arc} bind def
/C15 {BL [] 0 setdash 2 copy vpt 0 360 arc closepath fill
	vpt 0 360 arc closepath} bind def
/Rec {newpath 4 2 roll moveto 1 index 0 rlineto 0 exch rlineto
	neg 0 rlineto closepath} bind def
/Square {dup Rec} bind def
/Bsquare {vpt sub exch vpt sub exch vpt2 Square} bind def
/S0 {BL [] 0 setdash 2 copy moveto 0 vpt rlineto BL Bsquare} bind def
/S1 {BL [] 0 setdash 2 copy vpt Square fill Bsquare} bind def
/S2 {BL [] 0 setdash 2 copy exch vpt sub exch vpt Square fill Bsquare} bind def
/S3 {BL [] 0 setdash 2 copy exch vpt sub exch vpt2 vpt Rec fill Bsquare} bind def
/S4 {BL [] 0 setdash 2 copy exch vpt sub exch vpt sub vpt Square fill Bsquare} bind def
/S5 {BL [] 0 setdash 2 copy 2 copy vpt Square fill
	exch vpt sub exch vpt sub vpt Square fill Bsquare} bind def
/S6 {BL [] 0 setdash 2 copy exch vpt sub exch vpt sub vpt vpt2 Rec fill Bsquare} bind def
/S7 {BL [] 0 setdash 2 copy exch vpt sub exch vpt sub vpt vpt2 Rec fill
	2 copy vpt Square fill Bsquare} bind def
/S8 {BL [] 0 setdash 2 copy vpt sub vpt Square fill Bsquare} bind def
/S9 {BL [] 0 setdash 2 copy vpt sub vpt vpt2 Rec fill Bsquare} bind def
/S10 {BL [] 0 setdash 2 copy vpt sub vpt Square fill 2 copy exch vpt sub exch vpt Square fill
	Bsquare} bind def
/S11 {BL [] 0 setdash 2 copy vpt sub vpt Square fill 2 copy exch vpt sub exch vpt2 vpt Rec fill
	Bsquare} bind def
/S12 {BL [] 0 setdash 2 copy exch vpt sub exch vpt sub vpt2 vpt Rec fill Bsquare} bind def
/S13 {BL [] 0 setdash 2 copy exch vpt sub exch vpt sub vpt2 vpt Rec fill
	2 copy vpt Square fill Bsquare} bind def
/S14 {BL [] 0 setdash 2 copy exch vpt sub exch vpt sub vpt2 vpt Rec fill
	2 copy exch vpt sub exch vpt Square fill Bsquare} bind def
/S15 {BL [] 0 setdash 2 copy Bsquare fill Bsquare} bind def
/D0 {gsave translate 45 rotate 0 0 S0 stroke grestore} bind def
/D1 {gsave translate 45 rotate 0 0 S1 stroke grestore} bind def
/D2 {gsave translate 45 rotate 0 0 S2 stroke grestore} bind def
/D3 {gsave translate 45 rotate 0 0 S3 stroke grestore} bind def
/D4 {gsave translate 45 rotate 0 0 S4 stroke grestore} bind def
/D5 {gsave translate 45 rotate 0 0 S5 stroke grestore} bind def
/D6 {gsave translate 45 rotate 0 0 S6 stroke grestore} bind def
/D7 {gsave translate 45 rotate 0 0 S7 stroke grestore} bind def
/D8 {gsave translate 45 rotate 0 0 S8 stroke grestore} bind def
/D9 {gsave translate 45 rotate 0 0 S9 stroke grestore} bind def
/D10 {gsave translate 45 rotate 0 0 S10 stroke grestore} bind def
/D11 {gsave translate 45 rotate 0 0 S11 stroke grestore} bind def
/D12 {gsave translate 45 rotate 0 0 S12 stroke grestore} bind def
/D13 {gsave translate 45 rotate 0 0 S13 stroke grestore} bind def
/D14 {gsave translate 45 rotate 0 0 S14 stroke grestore} bind def
/D15 {gsave translate 45 rotate 0 0 S15 stroke grestore} bind def
/DiaE {stroke [] 0 setdash vpt add M
  hpt neg vpt neg V hpt vpt neg V
  hpt vpt V hpt neg vpt V closepath stroke} def
/BoxE {stroke [] 0 setdash exch hpt sub exch vpt add M
  0 vpt2 neg V hpt2 0 V 0 vpt2 V
  hpt2 neg 0 V closepath stroke} def
/TriUE {stroke [] 0 setdash vpt 1.12 mul add M
  hpt neg vpt -1.62 mul V
  hpt 2 mul 0 V
  hpt neg vpt 1.62 mul V closepath stroke} def
/TriDE {stroke [] 0 setdash vpt 1.12 mul sub M
  hpt neg vpt 1.62 mul V
  hpt 2 mul 0 V
  hpt neg vpt -1.62 mul V closepath stroke} def
/PentE {stroke [] 0 setdash gsave
  translate 0 hpt M 4 {72 rotate 0 hpt L} repeat
  closepath stroke grestore} def
/CircE {stroke [] 0 setdash 
  hpt 0 360 arc stroke} def
/Opaque {gsave closepath 1 setgray fill grestore 0 setgray closepath} def
/DiaW {stroke [] 0 setdash vpt add M
  hpt neg vpt neg V hpt vpt neg V
  hpt vpt V hpt neg vpt V Opaque stroke} def
/BoxW {stroke [] 0 setdash exch hpt sub exch vpt add M
  0 vpt2 neg V hpt2 0 V 0 vpt2 V
  hpt2 neg 0 V Opaque stroke} def
/TriUW {stroke [] 0 setdash vpt 1.12 mul add M
  hpt neg vpt -1.62 mul V
  hpt 2 mul 0 V
  hpt neg vpt 1.62 mul V Opaque stroke} def
/TriDW {stroke [] 0 setdash vpt 1.12 mul sub M
  hpt neg vpt 1.62 mul V
  hpt 2 mul 0 V
  hpt neg vpt -1.62 mul V Opaque stroke} def
/PentW {stroke [] 0 setdash gsave
  translate 0 hpt M 4 {72 rotate 0 hpt L} repeat
  Opaque stroke grestore} def
/CircW {stroke [] 0 setdash 
  hpt 0 360 arc Opaque stroke} def
/BoxFill {gsave Rec 1 setgray fill grestore} def
/Density {
  /Fillden exch def
  currentrgbcolor
  /ColB exch def /ColG exch def /ColR exch def
  /ColR ColR Fillden mul Fillden sub 1 add def
  /ColG ColG Fillden mul Fillden sub 1 add def
  /ColB ColB Fillden mul Fillden sub 1 add def
  ColR ColG ColB setrgbcolor} def
/BoxColFill {gsave Rec PolyFill} def
/PolyFill {gsave Density fill grestore grestore} def
/h {rlineto rlineto rlineto gsave closepath fill grestore} bind def
%
% PostScript Level 1 Pattern Fill routine for rectangles
% Usage: x y w h s a XX PatternFill
%	x,y = lower left corner of box to be filled
%	w,h = width and height of box
%	  a = angle in degrees between lines and x-axis
%	 XX = 0/1 for no/yes cross-hatch
%
/PatternFill {gsave /PFa [ 9 2 roll ] def
  PFa 0 get PFa 2 get 2 div add PFa 1 get PFa 3 get 2 div add translate
  PFa 2 get -2 div PFa 3 get -2 div PFa 2 get PFa 3 get Rec
  gsave 1 setgray fill grestore clip
  currentlinewidth 0.5 mul setlinewidth
  /PFs PFa 2 get dup mul PFa 3 get dup mul add sqrt def
  0 0 M PFa 5 get rotate PFs -2 div dup translate
  0 1 PFs PFa 4 get div 1 add floor cvi
	{PFa 4 get mul 0 M 0 PFs V} for
  0 PFa 6 get ne {
	0 1 PFs PFa 4 get div 1 add floor cvi
	{PFa 4 get mul 0 2 1 roll M PFs 0 V} for
 } if
  stroke grestore} def
%
/languagelevel where
 {pop languagelevel} {1} ifelse
 2 lt
	{/InterpretLevel1 true def}
	{/InterpretLevel1 Level1 def}
 ifelse
%
% PostScript level 2 pattern fill definitions
%
/Level2PatternFill {
/Tile8x8 {/PaintType 2 /PatternType 1 /TilingType 1 /BBox [0 0 8 8] /XStep 8 /YStep 8}
	bind def
/KeepColor {currentrgbcolor [/Pattern /DeviceRGB] setcolorspace} bind def
<< Tile8x8
 /PaintProc {0.5 setlinewidth pop 0 0 M 8 8 L 0 8 M 8 0 L stroke} 
>> matrix makepattern
/Pat1 exch def
<< Tile8x8
 /PaintProc {0.5 setlinewidth pop 0 0 M 8 8 L 0 8 M 8 0 L stroke
	0 4 M 4 8 L 8 4 L 4 0 L 0 4 L stroke}
>> matrix makepattern
/Pat2 exch def
<< Tile8x8
 /PaintProc {0.5 setlinewidth pop 0 0 M 0 8 L
	8 8 L 8 0 L 0 0 L fill}
>> matrix makepattern
/Pat3 exch def
<< Tile8x8
 /PaintProc {0.5 setlinewidth pop -4 8 M 8 -4 L
	0 12 M 12 0 L stroke}
>> matrix makepattern
/Pat4 exch def
<< Tile8x8
 /PaintProc {0.5 setlinewidth pop -4 0 M 8 12 L
	0 -4 M 12 8 L stroke}
>> matrix makepattern
/Pat5 exch def
<< Tile8x8
 /PaintProc {0.5 setlinewidth pop -2 8 M 4 -4 L
	0 12 M 8 -4 L 4 12 M 10 0 L stroke}
>> matrix makepattern
/Pat6 exch def
<< Tile8x8
 /PaintProc {0.5 setlinewidth pop -2 0 M 4 12 L
	0 -4 M 8 12 L 4 -4 M 10 8 L stroke}
>> matrix makepattern
/Pat7 exch def
<< Tile8x8
 /PaintProc {0.5 setlinewidth pop 8 -2 M -4 4 L
	12 0 M -4 8 L 12 4 M 0 10 L stroke}
>> matrix makepattern
/Pat8 exch def
<< Tile8x8
 /PaintProc {0.5 setlinewidth pop 0 -2 M 12 4 L
	-4 0 M 12 8 L -4 4 M 8 10 L stroke}
>> matrix makepattern
/Pat9 exch def
/Pattern1 {PatternBgnd KeepColor Pat1 setpattern} bind def
/Pattern2 {PatternBgnd KeepColor Pat2 setpattern} bind def
/Pattern3 {PatternBgnd KeepColor Pat3 setpattern} bind def
/Pattern4 {PatternBgnd KeepColor Landscape {Pat5} {Pat4} ifelse setpattern} bind def
/Pattern5 {PatternBgnd KeepColor Landscape {Pat4} {Pat5} ifelse setpattern} bind def
/Pattern6 {PatternBgnd KeepColor Landscape {Pat9} {Pat6} ifelse setpattern} bind def
/Pattern7 {PatternBgnd KeepColor Landscape {Pat8} {Pat7} ifelse setpattern} bind def
} def
%
%
%End of PostScript Level 2 code
%
/PatternBgnd {
  TransparentPatterns {} {gsave 1 setgray fill grestore} ifelse
} def
%
% Substitute for Level 2 pattern fill codes with
% grayscale if Level 2 support is not selected.
%
/Level1PatternFill {
/Pattern1 {0.250 Density} bind def
/Pattern2 {0.500 Density} bind def
/Pattern3 {0.750 Density} bind def
/Pattern4 {0.125 Density} bind def
/Pattern5 {0.375 Density} bind def
/Pattern6 {0.625 Density} bind def
/Pattern7 {0.875 Density} bind def
} def
%
% Now test for support of Level 2 code
%
Level1 {Level1PatternFill} {Level2PatternFill} ifelse
%
/Symbol-Oblique /Symbol findfont [1 0 .167 1 0 0] makefont
dup length dict begin {1 index /FID eq {pop pop} {def} ifelse} forall
currentdict end definefont pop
/MFshow {
   { dup 5 get 3 ge
     { 5 get 3 eq {gsave} {grestore} ifelse }
     {dup dup 0 get findfont exch 1 get scalefont setfont
     [ currentpoint ] exch dup 2 get 0 exch R dup 5 get 2 ne {dup dup 6
     get exch 4 get {Gshow} {stringwidth pop 0 R} ifelse }if dup 5 get 0 eq
     {dup 3 get {2 get neg 0 exch R pop} {pop aload pop M} ifelse} {dup 5
     get 1 eq {dup 2 get exch dup 3 get exch 6 get stringwidth pop -2 div
     dup 0 R} {dup 6 get stringwidth pop -2 div 0 R 6 get
     show 2 index {aload pop M neg 3 -1 roll neg R pop pop} {pop pop pop
     pop aload pop M} ifelse }ifelse }ifelse }
     ifelse }
   forall} def
/Gswidth {dup type /stringtype eq {stringwidth} {pop (n) stringwidth} ifelse} def
/MFwidth {0 exch { dup 5 get 3 ge { 5 get 3 eq { 0 } { pop } ifelse }
 {dup 3 get{dup dup 0 get findfont exch 1 get scalefont setfont
     6 get Gswidth pop add} {pop} ifelse} ifelse} forall} def
/MLshow { currentpoint stroke M
  0 exch R
  Blacktext {gsave 0 setgray MFshow grestore} {MFshow} ifelse } bind def
/MRshow { currentpoint stroke M
  exch dup MFwidth neg 3 -1 roll R
  Blacktext {gsave 0 setgray MFshow grestore} {MFshow} ifelse } bind def
/MCshow { currentpoint stroke M
  exch dup MFwidth -2 div 3 -1 roll R
  Blacktext {gsave 0 setgray MFshow grestore} {MFshow} ifelse } bind def
/XYsave    { [( ) 1 2 true false 3 ()] } bind def
/XYrestore { [( ) 1 2 true false 4 ()] } bind def
end
%%EndProlog
gnudict begin
gsave
doclip
50 50 translate
0.050 0.050 scale
0 setgray
newpath
(Helvetica) findfont 250 scalefont setfont
1.000 UL
LTb
1225 800 M
63 0 V
5461 0 R
-63 0 V
stroke
1075 800 M
[ [(Helvetica) 250.0 0.0 true true 0 ( 0)]
] -83.3 MRshow
1.000 UL
LTb
1225 1194 M
63 0 V
5461 0 R
-63 0 V
stroke
1075 1194 M
[ [(Helvetica) 250.0 0.0 true true 0 ( 0.1)]
] -83.3 MRshow
1.000 UL
LTb
1225 1588 M
63 0 V
5461 0 R
-63 0 V
stroke
1075 1588 M
[ [(Helvetica) 250.0 0.0 true true 0 ( 0.2)]
] -83.3 MRshow
1.000 UL
LTb
1225 1982 M
63 0 V
5461 0 R
-63 0 V
stroke
1075 1982 M
[ [(Helvetica) 250.0 0.0 true true 0 ( 0.3)]
] -83.3 MRshow
1.000 UL
LTb
1225 2376 M
63 0 V
5461 0 R
-63 0 V
stroke
1075 2376 M
[ [(Helvetica) 250.0 0.0 true true 0 ( 0.4)]
] -83.3 MRshow
1.000 UL
LTb
1225 2770 M
63 0 V
5461 0 R
-63 0 V
stroke
1075 2770 M
[ [(Helvetica) 250.0 0.0 true true 0 ( 0.5)]
] -83.3 MRshow
1.000 UL
LTb
1225 3163 M
63 0 V
5461 0 R
-63 0 V
stroke
1075 3163 M
[ [(Helvetica) 250.0 0.0 true true 0 ( 0.6)]
] -83.3 MRshow
1.000 UL
LTb
1225 3557 M
63 0 V
5461 0 R
-63 0 V
stroke
1075 3557 M
[ [(Helvetica) 250.0 0.0 true true 0 ( 0.7)]
] -83.3 MRshow
1.000 UL
LTb
1225 3951 M
63 0 V
5461 0 R
-63 0 V
stroke
1075 3951 M
[ [(Helvetica) 250.0 0.0 true true 0 ( 0.8)]
] -83.3 MRshow
1.000 UL
LTb
1225 4345 M
63 0 V
5461 0 R
-63 0 V
stroke
1075 4345 M
[ [(Helvetica) 250.0 0.0 true true 0 ( 0.9)]
] -83.3 MRshow
1.000 UL
LTb
1225 4739 M
63 0 V
5461 0 R
-63 0 V
stroke
1075 4739 M
[ [(Helvetica) 250.0 0.0 true true 0 ( 1)]
] -83.3 MRshow
1.000 UL
LTb
1225 800 M
0 63 V
0 3876 R
0 -63 V
stroke
1225 550 M
[ [(Helvetica) 250.0 0.0 true true 0 ( 100)]
] -83.3 MCshow
1.000 UL
LTb
1916 800 M
0 63 V
0 3876 R
0 -63 V
stroke
1916 550 M
[ [(Helvetica) 250.0 0.0 true true 0 ( 200)]
] -83.3 MCshow
1.000 UL
LTb
2606 800 M
0 63 V
0 3876 R
0 -63 V
stroke
2606 550 M
[ [(Helvetica) 250.0 0.0 true true 0 ( 300)]
] -83.3 MCshow
1.000 UL
LTb
3297 800 M
0 63 V
0 3876 R
0 -63 V
stroke
3297 550 M
[ [(Helvetica) 250.0 0.0 true true 0 ( 400)]
] -83.3 MCshow
1.000 UL
LTb
3987 800 M
0 63 V
0 3876 R
0 -63 V
stroke
3987 550 M
[ [(Helvetica) 250.0 0.0 true true 0 ( 500)]
] -83.3 MCshow
1.000 UL
LTb
4678 800 M
0 63 V
0 3876 R
0 -63 V
stroke
4678 550 M
[ [(Helvetica) 250.0 0.0 true true 0 ( 600)]
] -83.3 MCshow
1.000 UL
LTb
5368 800 M
0 63 V
0 3876 R
0 -63 V
stroke
5368 550 M
[ [(Helvetica) 250.0 0.0 true true 0 ( 700)]
] -83.3 MCshow
1.000 UL
LTb
6059 800 M
0 63 V
0 3876 R
0 -63 V
stroke
6059 550 M
[ [(Helvetica) 250.0 0.0 true true 0 ( 800)]
] -83.3 MCshow
1.000 UL
LTb
6749 800 M
0 63 V
0 3876 R
0 -63 V
stroke
6749 550 M
[ [(Helvetica) 250.0 0.0 true true 0 ( 900)]
] -83.3 MCshow
1.000 UL
LTb
1.000 UL
LTb
1225 4739 N
0 -3939 V
5524 0 V
0 3939 V
-5524 0 V
Z stroke
LCb setrgbcolor
200 2769 M
currentpoint gsave translate -270 rotate 0 0 moveto
[ [(Helvetica) 250.0 0.0 true true 0 (F1)]
] -83.3 MCshow
grestore
LTb
LCb setrgbcolor
3987 175 M
[ [(Helvetica) 250.0 0.0 true true 0 (Alphabet Size)]
] -83.3 MCshow
LTb
1.000 UP
1.000 UL
LTb
% Begin plot #1
1.000 UP
1.000 UL
LT0
1225 3842 Pls
1225 2973 Pls
1225 2603 Pls
1225 2223 Pls
1225 3782 Pls
1225 2757 Pls
1225 2960 Pls
1225 2276 Pls
1225 3424 Pls
1225 2844 Pls
1225 2252 Pls
1225 2135 Pls
1225 3316 Pls
1225 2551 Pls
1225 2117 Pls
1225 2097 Pls
1225 2985 Pls
1225 2204 Pls
1225 1888 Pls
1225 1426 Pls
1225 1720 Pls
1225 1947 Pls
1225 1480 Pls
1225 1342 Pls
1225 1987 Pls
1225 1640 Pls
1225 2010 Pls
1225 1484 Pls
1225 2722 Pls
1225 1871 Pls
1225 2233 Pls
1225 2139 Pls
1225 2720 Pls
1225 1936 Pls
1225 1912 Pls
1225 2336 Pls
1225 2845 Pls
1225 2347 Pls
1225 2497 Pls
1225 2319 Pls
1225 4122 Pls
1225 3349 Pls
1225 2929 Pls
1225 2599 Pls
1225 4093 Pls
1225 2886 Pls
1225 2576 Pls
1225 2289 Pls
1225 4118 Pls
1225 3182 Pls
1225 2283 Pls
1225 2295 Pls
1225 3514 Pls
1225 2765 Pls
1225 2370 Pls
1225 2168 Pls
1225 3247 Pls
1225 2225 Pls
1225 2004 Pls
1225 1736 Pls
1225 1662 Pls
1225 2088 Pls
1225 1826 Pls
1225 1649 Pls
1225 2191 Pls
1225 2317 Pls
1225 1877 Pls
1225 2083 Pls
1225 2058 Pls
1225 2456 Pls
1225 2321 Pls
1225 2376 Pls
1225 2005 Pls
1225 2479 Pls
1225 2488 Pls
1225 2684 Pls
1225 2159 Pls
1225 2363 Pls
1225 2624 Pls
1225 2786 Pls
1225 4374 Pls
1225 3504 Pls
1225 2772 Pls
1225 2400 Pls
1225 3599 Pls
1225 3201 Pls
1225 2846 Pls
1225 2392 Pls
1225 3804 Pls
1225 3276 Pls
1225 2861 Pls
1225 1856 Pls
1225 3865 Pls
1225 3400 Pls
1225 2725 Pls
1225 1928 Pls
1225 3464 Pls
1225 2751 Pls
1225 2584 Pls
1225 2280 Pls
1225 2267 Pls
1225 1878 Pls
1225 1852 Pls
1225 1931 Pls
1225 1988 Pls
1225 1805 Pls
1225 2177 Pls
1225 2015 Pls
1225 1637 Pls
1225 2268 Pls
1225 2247 Pls
1225 2638 Pls
1225 1824 Pls
1225 1994 Pls
1225 2341 Pls
1225 2281 Pls
1225 1540 Pls
1225 1978 Pls
1225 2386 Pls
1225 2627 Pls
1225 4102 Pls
1225 3476 Pls
1225 2951 Pls
1225 2603 Pls
1225 4194 Pls
1225 3230 Pls
1225 2789 Pls
1225 2413 Pls
1225 3881 Pls
1225 3352 Pls
1225 2726 Pls
1225 2695 Pls
1225 4045 Pls
1225 3392 Pls
1225 2743 Pls
1225 2251 Pls
1225 3673 Pls
1225 2756 Pls
1225 2155 Pls
1225 2417 Pls
1225 1878 Pls
1225 1874 Pls
1225 1789 Pls
1225 1720 Pls
1225 1650 Pls
1225 1917 Pls
1225 1977 Pls
1225 2050 Pls
1225 1473 Pls
1225 1749 Pls
1225 2178 Pls
1225 2078 Pls
1225 1385 Pls
1225 1722 Pls
1225 2040 Pls
1225 2128 Pls
1225 1351 Pls
1225 1757 Pls
1225 1870 Pls
1225 2392 Pls
1225 3965 Pls
1225 3298 Pls
1225 2955 Pls
1225 2420 Pls
1225 3944 Pls
1225 3490 Pls
1225 3089 Pls
1225 2525 Pls
1225 4124 Pls
1225 3503 Pls
1225 2936 Pls
1225 2313 Pls
1225 4052 Pls
1225 2610 Pls
1225 2906 Pls
1225 2372 Pls
1225 3823 Pls
1225 3116 Pls
1225 2455 Pls
1225 1874 Pls
1225 1440 Pls
1225 1941 Pls
1225 1594 Pls
1225 1915 Pls
1225 1473 Pls
1225 1734 Pls
1225 1877 Pls
1225 2002 Pls
1225 1415 Pls
1225 1631 Pls
1225 1938 Pls
1225 1866 Pls
1225 1173 Pls
1225 1645 Pls
1225 1769 Pls
1225 2028 Pls
1225 1244 Pls
1225 1556 Pls
1225 1766 Pls
1225 1977 Pls
1916 3576 Pls
1916 3074 Pls
1916 2687 Pls
1916 1943 Pls
1916 3561 Pls
1916 2881 Pls
1916 2677 Pls
1916 2296 Pls
1916 3729 Pls
1916 2947 Pls
1916 2261 Pls
1916 2296 Pls
1916 3023 Pls
1916 2816 Pls
1916 2043 Pls
1916 1916 Pls
1916 3081 Pls
1916 2283 Pls
1916 2035 Pls
1916 1447 Pls
1916 2051 Pls
1916 1545 Pls
1916 1583 Pls
1916 1427 Pls
1916 1962 Pls
1916 1828 Pls
1916 1670 Pls
1916 1593 Pls
1916 2572 Pls
1916 2062 Pls
1916 1953 Pls
1916 1632 Pls
1916 2855 Pls
1916 1998 Pls
1916 1609 Pls
1916 1679 Pls
1916 2806 Pls
1916 2171 Pls
1916 1910 Pls
1916 2151 Pls
1916 4279 Pls
1916 3086 Pls
1916 2474 Pls
1916 2569 Pls
1916 4073 Pls
1916 3282 Pls
1916 2717 Pls
1916 2136 Pls
1916 3925 Pls
1916 3153 Pls
1916 2305 Pls
1916 2202 Pls
1916 3732 Pls
1916 3123 Pls
1916 2219 Pls
1916 1869 Pls
1916 3441 Pls
1916 2548 Pls
1916 2052 Pls
1916 1965 Pls
1916 2582 Pls
1916 1569 Pls
1916 1543 Pls
1916 1467 Pls
1916 2663 Pls
1916 1951 Pls
1916 1980 Pls
1916 1936 Pls
1916 2442 Pls
1916 2182 Pls
1916 1971 Pls
1916 2109 Pls
1916 2557 Pls
1916 2556 Pls
1916 2257 Pls
1916 2242 Pls
1916 2332 Pls
1916 2160 Pls
1916 2033 Pls
1916 2241 Pls
1916 4270 Pls
1916 3575 Pls
1916 2698 Pls
1916 2549 Pls
1916 4066 Pls
1916 3174 Pls
1916 2671 Pls
1916 2427 Pls
1916 4025 Pls
1916 3445 Pls
1916 2559 Pls
1916 2609 Pls
1916 3777 Pls
1916 3182 Pls
1916 2800 Pls
1916 2480 Pls
1916 3358 Pls
1916 2953 Pls
1916 2245 Pls
1916 1944 Pls
1916 2324 Pls
1916 1898 Pls
1916 2046 Pls
1916 1557 Pls
1916 2499 Pls
1916 2290 Pls
1916 2066 Pls
1916 2108 Pls
1916 1718 Pls
1916 2302 Pls
1916 2137 Pls
1916 2251 Pls
1916 2018 Pls
1916 2337 Pls
1916 1937 Pls
1916 2386 Pls
1916 1912 Pls
1916 2152 Pls
1916 2505 Pls
1916 2431 Pls
1916 3962 Pls
1916 3524 Pls
1916 2834 Pls
1916 2687 Pls
1916 4174 Pls
1916 3513 Pls
1916 2805 Pls
1916 2685 Pls
1916 4168 Pls
1916 3283 Pls
1916 2835 Pls
1916 2457 Pls
1916 4091 Pls
1916 3261 Pls
1916 2945 Pls
1916 2424 Pls
1916 3612 Pls
1916 2738 Pls
1916 2318 Pls
1916 1819 Pls
1916 1535 Pls
1916 1792 Pls
1916 1483 Pls
1916 1449 Pls
1916 1791 Pls
1916 1997 Pls
1916 1800 Pls
1916 2097 Pls
1916 1495 Pls
1916 1704 Pls
1916 1988 Pls
1916 1959 Pls
1916 1782 Pls
1916 1891 Pls
1916 2033 Pls
1916 2396 Pls
1916 1573 Pls
1916 1580 Pls
1916 2178 Pls
1916 2154 Pls
1916 4253 Pls
1916 3665 Pls
1916 2918 Pls
1916 2842 Pls
1916 4128 Pls
1916 3418 Pls
1916 2931 Pls
1916 2468 Pls
1916 4085 Pls
1916 3373 Pls
1916 3083 Pls
1916 2467 Pls
1916 4151 Pls
1916 2984 Pls
1916 2765 Pls
1916 2834 Pls
1916 3353 Pls
1916 3211 Pls
1916 2313 Pls
1916 2200 Pls
1916 1855 Pls
1916 1817 Pls
1916 1623 Pls
1916 2098 Pls
1916 1697 Pls
1916 2037 Pls
1916 1789 Pls
1916 2341 Pls
1916 1553 Pls
1916 1857 Pls
1916 1932 Pls
1916 1877 Pls
1916 1312 Pls
1916 1761 Pls
1916 1878 Pls
1916 2033 Pls
1916 1419 Pls
1916 1557 Pls
1916 1850 Pls
1916 2106 Pls
2606 3872 Pls
2606 2822 Pls
2606 2391 Pls
2606 2117 Pls
2606 3566 Pls
2606 2478 Pls
2606 2607 Pls
2606 2233 Pls
2606 3505 Pls
2606 2653 Pls
2606 2016 Pls
2606 1977 Pls
2606 3580 Pls
2606 2550 Pls
2606 2008 Pls
2606 1843 Pls
2606 2893 Pls
2606 2085 Pls
2606 1712 Pls
2606 1719 Pls
2606 1858 Pls
2606 1476 Pls
2606 1466 Pls
2606 1280 Pls
2606 2813 Pls
2606 1958 Pls
2606 1490 Pls
2606 1509 Pls
2606 2278 Pls
2606 2206 Pls
2606 1826 Pls
2606 1634 Pls
2606 2875 Pls
2606 1778 Pls
2606 1942 Pls
2606 1989 Pls
2606 2800 Pls
2606 2573 Pls
2606 2093 Pls
2606 1984 Pls
2606 4122 Pls
2606 3143 Pls
2606 2832 Pls
2606 2641 Pls
2606 3879 Pls
2606 3000 Pls
2606 2444 Pls
2606 2264 Pls
2606 4042 Pls
2606 3029 Pls
2606 2812 Pls
2606 2172 Pls
2606 3343 Pls
2606 2906 Pls
2606 2299 Pls
2606 2047 Pls
2606 3610 Pls
2606 2520 Pls
2606 1966 Pls
2606 1809 Pls
2606 1997 Pls
2606 1798 Pls
2606 1582 Pls
2606 1551 Pls
2606 2813 Pls
2606 2377 Pls
2606 1724 Pls
2606 1781 Pls
2606 2394 Pls
2606 2256 Pls
2606 2030 Pls
2606 1755 Pls
2606 2611 Pls
2606 2542 Pls
2606 2083 Pls
2606 2395 Pls
2606 2397 Pls
2606 2599 Pls
2606 2399 Pls
2606 2233 Pls
2606 4395 Pls
2606 3373 Pls
2606 2908 Pls
2606 2702 Pls
2606 4084 Pls
2606 3422 Pls
2606 3036 Pls
2606 2395 Pls
2606 4202 Pls
2606 3114 Pls
2606 2826 Pls
2606 2145 Pls
2606 3964 Pls
2606 3280 Pls
2606 2626 Pls
2606 2256 Pls
2606 3518 Pls
2606 2587 Pls
2606 2262 Pls
2606 2062 Pls
2606 2654 Pls
2606 1675 Pls
2606 1750 Pls
2606 1405 Pls
2606 2313 Pls
2606 1640 Pls
2606 1813 Pls
2606 1803 Pls
2606 2306 Pls
2606 1930 Pls
2606 1992 Pls
2606 2161 Pls
2606 2157 Pls
2606 2204 Pls
2606 2355 Pls
2606 2090 Pls
2606 1989 Pls
2606 1935 Pls
2606 2306 Pls
2606 2238 Pls
2606 4331 Pls
2606 3322 Pls
2606 3078 Pls
2606 2653 Pls
2606 4038 Pls
2606 3590 Pls
2606 2678 Pls
2606 2513 Pls
2606 4144 Pls
2606 3335 Pls
2606 2915 Pls
2606 2565 Pls
2606 3776 Pls
2606 3030 Pls
2606 2662 Pls
2606 1984 Pls
2606 3926 Pls
2606 2895 Pls
2606 2298 Pls
2606 2076 Pls
2606 2062 Pls
2606 1935 Pls
2606 1941 Pls
2606 1523 Pls
2606 2004 Pls
2606 1762 Pls
2606 2161 Pls
2606 1845 Pls
2606 2124 Pls
2606 2332 Pls
2606 2102 Pls
2606 1880 Pls
2606 1870 Pls
2606 1994 Pls
2606 2159 Pls
2606 1997 Pls
2606 1942 Pls
2606 2223 Pls
2606 2134 Pls
2606 2133 Pls
2606 4197 Pls
2606 3604 Pls
2606 2840 Pls
2606 2795 Pls
2606 4463 Pls
2606 3647 Pls
2606 2841 Pls
2606 2862 Pls
2606 4020 Pls
2606 3353 Pls
2606 2876 Pls
2606 2875 Pls
2606 3719 Pls
2606 3406 Pls
2606 2661 Pls
2606 2660 Pls
2606 3409 Pls
2606 2807 Pls
2606 2434 Pls
2606 2077 Pls
2606 1680 Pls
2606 2042 Pls
2606 1406 Pls
2606 1638 Pls
2606 1676 Pls
2606 1817 Pls
2606 2195 Pls
2606 1786 Pls
2606 1610 Pls
2606 1881 Pls
2606 1874 Pls
2606 1929 Pls
2606 1614 Pls
2606 1959 Pls
2606 1917 Pls
2606 2017 Pls
2606 1577 Pls
2606 1680 Pls
2606 1908 Pls
2606 1960 Pls
3297 4096 Pls
3297 2643 Pls
3297 2495 Pls
3297 2316 Pls
3297 3724 Pls
3297 2525 Pls
3297 2447 Pls
3297 1721 Pls
3297 3725 Pls
3297 2661 Pls
3297 2374 Pls
3297 2046 Pls
3297 2990 Pls
3297 2301 Pls
3297 2257 Pls
3297 1871 Pls
3297 3246 Pls
3297 2324 Pls
3297 1703 Pls
3297 1420 Pls
3297 2278 Pls
3297 1705 Pls
3297 1493 Pls
3297 1111 Pls
3297 1982 Pls
3297 1537 Pls
3297 1641 Pls
3297 1111 Pls
3297 2783 Pls
3297 2156 Pls
3297 1704 Pls
3297 1672 Pls
3297 2726 Pls
3297 2639 Pls
3297 1894 Pls
3297 1594 Pls
3297 2943 Pls
3297 1889 Pls
3297 1742 Pls
3297 1783 Pls
3297 3926 Pls
3297 3307 Pls
3297 3059 Pls
3297 2343 Pls
3297 3597 Pls
3297 3026 Pls
3297 2865 Pls
3297 2487 Pls
3297 3737 Pls
3297 3205 Pls
3297 2516 Pls
3297 2347 Pls
3297 3617 Pls
3297 2763 Pls
3297 2532 Pls
3297 2399 Pls
3297 3471 Pls
3297 2433 Pls
3297 1811 Pls
3297 1828 Pls
3297 2595 Pls
3297 1640 Pls
3297 1424 Pls
3297 1348 Pls
3297 2356 Pls
3297 2012 Pls
3297 1792 Pls
3297 1947 Pls
3297 2404 Pls
3297 2542 Pls
3297 2123 Pls
3297 1671 Pls
3297 2672 Pls
3297 2349 Pls
3297 2306 Pls
3297 1926 Pls
3297 3100 Pls
3297 2595 Pls
3297 2259 Pls
3297 2146 Pls
3297 4227 Pls
3297 3364 Pls
3297 2655 Pls
3297 2494 Pls
3297 3968 Pls
3297 3257 Pls
3297 2592 Pls
3297 2479 Pls
3297 4005 Pls
3297 3224 Pls
3297 2350 Pls
3297 2460 Pls
3297 4147 Pls
3297 3008 Pls
3297 2606 Pls
3297 2003 Pls
3297 3934 Pls
3297 2436 Pls
3297 2241 Pls
3297 1805 Pls
3297 2172 Pls
3297 2115 Pls
3297 1991 Pls
3297 1459 Pls
3297 1777 Pls
3297 2297 Pls
3297 1793 Pls
3297 1982 Pls
3297 2531 Pls
3297 1936 Pls
3297 2186 Pls
3297 1998 Pls
3297 2372 Pls
3297 2856 Pls
3297 2083 Pls
3297 1714 Pls
3297 2155 Pls
3297 1899 Pls
3297 2172 Pls
3297 2276 Pls
3297 4141 Pls
3297 3606 Pls
3297 2659 Pls
3297 2652 Pls
3297 4292 Pls
3297 3614 Pls
3297 2872 Pls
3297 2835 Pls
3297 4088 Pls
3297 3443 Pls
3297 3128 Pls
3297 2358 Pls
3297 4144 Pls
3297 3398 Pls
3297 2795 Pls
3297 2245 Pls
3297 3750 Pls
3297 3179 Pls
3297 2606 Pls
3297 2422 Pls
3297 2233 Pls
3297 1716 Pls
3297 1641 Pls
3297 1571 Pls
3297 2200 Pls
3297 1870 Pls
3297 1779 Pls
3297 1966 Pls
3297 2147 Pls
3297 2273 Pls
3297 1983 Pls
3297 2056 Pls
3297 1812 Pls
3297 1981 Pls
3297 2108 Pls
3297 1800 Pls
3297 2085 Pls
3297 2471 Pls
3297 2084 Pls
3297 2019 Pls
3297 4335 Pls
3297 3132 Pls
3297 3262 Pls
3297 2469 Pls
3297 4121 Pls
3297 3549 Pls
3297 3279 Pls
3297 2291 Pls
3297 3964 Pls
3297 3487 Pls
3297 2855 Pls
3297 2556 Pls
3297 4066 Pls
3297 3097 Pls
3297 2810 Pls
3297 2364 Pls
3297 3815 Pls
3297 2720 Pls
3297 2208 Pls
3297 2175 Pls
3297 2382 Pls
3297 2038 Pls
3297 1641 Pls
3297 1732 Pls
3297 1867 Pls
3297 2012 Pls
3297 2183 Pls
3297 1594 Pls
3297 1821 Pls
3297 1816 Pls
3297 2000 Pls
3297 2006 Pls
3297 1637 Pls
3297 2103 Pls
3297 2133 Pls
3297 1918 Pls
3297 1587 Pls
3297 1918 Pls
3297 2207 Pls
3297 1872 Pls
3987 3613 Pls
3987 2862 Pls
3987 2633 Pls
3987 1942 Pls
3987 3781 Pls
3987 2878 Pls
3987 2326 Pls
3987 2212 Pls
3987 3071 Pls
3987 3137 Pls
3987 2443 Pls
3987 2023 Pls
3987 3728 Pls
3987 2608 Pls
3987 2036 Pls
3987 1453 Pls
3987 2657 Pls
3987 2324 Pls
3987 1855 Pls
3987 1726 Pls
3987 1588 Pls
3987 1308 Pls
3987 1307 Pls
3987 1284 Pls
3987 2192 Pls
3987 1794 Pls
3987 1536 Pls
3987 1454 Pls
3987 3516 Pls
3987 1742 Pls
3987 1392 Pls
3987 1567 Pls
3987 2988 Pls
3987 1915 Pls
3987 1732 Pls
3987 1649 Pls
3987 3086 Pls
3987 2479 Pls
3987 1929 Pls
3987 1528 Pls
3987 3958 Pls
3987 3302 Pls
3987 2719 Pls
3987 2367 Pls
3987 3887 Pls
3987 2847 Pls
3987 2773 Pls
3987 2302 Pls
3987 3987 Pls
3987 2939 Pls
3987 2628 Pls
3987 2187 Pls
3987 3788 Pls
3987 2889 Pls
3987 2360 Pls
3987 2183 Pls
3987 3133 Pls
3987 2583 Pls
3987 2159 Pls
3987 1921 Pls
3987 2601 Pls
3987 1707 Pls
3987 1294 Pls
3987 1422 Pls
3987 2624 Pls
3987 2708 Pls
3987 1930 Pls
3987 1723 Pls
3987 2535 Pls
3987 2210 Pls
3987 1701 Pls
3987 1710 Pls
3987 3040 Pls
3987 2606 Pls
3987 2147 Pls
3987 1771 Pls
3987 3026 Pls
3987 2402 Pls
3987 2165 Pls
3987 2138 Pls
3987 4007 Pls
3987 3345 Pls
3987 3099 Pls
3987 2675 Pls
3987 4245 Pls
3987 3256 Pls
3987 2736 Pls
3987 2734 Pls
3987 4367 Pls
3987 3429 Pls
3987 2546 Pls
3987 2511 Pls
3987 3613 Pls
3987 2988 Pls
3987 2977 Pls
3987 2409 Pls
3987 3231 Pls
3987 2482 Pls
3987 2162 Pls
3987 1961 Pls
3987 2746 Pls
3987 2179 Pls
3987 1563 Pls
3987 1465 Pls
3987 3085 Pls
3987 2198 Pls
3987 1640 Pls
3987 1871 Pls
3987 2000 Pls
3987 2426 Pls
3987 1894 Pls
3987 1939 Pls
3987 2687 Pls
3987 2398 Pls
3987 2158 Pls
3987 2238 Pls
3987 2704 Pls
3987 2519 Pls
3987 2444 Pls
3987 1939 Pls
3987 4367 Pls
3987 3679 Pls
3987 2979 Pls
3987 2450 Pls
3987 3948 Pls
3987 3639 Pls
3987 2864 Pls
3987 2545 Pls
3987 4187 Pls
3987 3302 Pls
3987 2622 Pls
3987 2283 Pls
3987 4216 Pls
3987 3176 Pls
3987 2822 Pls
3987 2521 Pls
3987 4078 Pls
3987 2882 Pls
3987 2388 Pls
3987 2232 Pls
3987 2751 Pls
3987 1941 Pls
3987 1784 Pls
3987 1404 Pls
3987 2299 Pls
3987 2333 Pls
3987 1720 Pls
3987 1698 Pls
3987 2088 Pls
3987 2294 Pls
3987 1993 Pls
3987 2114 Pls
3987 2283 Pls
3987 2053 Pls
3987 2141 Pls
3987 2109 Pls
3987 1972 Pls
3987 2269 Pls
3987 1984 Pls
3987 2098 Pls
3987 3911 Pls
3987 3114 Pls
3987 2889 Pls
3987 2585 Pls
3987 4253 Pls
3987 3225 Pls
3987 3073 Pls
3987 2290 Pls
3987 4229 Pls
3987 3116 Pls
3987 3070 Pls
3987 2599 Pls
3987 4407 Pls
3987 3492 Pls
3987 2726 Pls
3987 2190 Pls
3987 3992 Pls
3987 2710 Pls
3987 2459 Pls
3987 2047 Pls
3987 2245 Pls
3987 2405 Pls
3987 1636 Pls
3987 1551 Pls
3987 1787 Pls
3987 2110 Pls
3987 1795 Pls
3987 1951 Pls
3987 2022 Pls
3987 2021 Pls
3987 1919 Pls
3987 1997 Pls
3987 1769 Pls
3987 2021 Pls
3987 1885 Pls
3987 1831 Pls
3987 1605 Pls
3987 2041 Pls
3987 2119 Pls
3987 2175 Pls
4678 3621 Pls
4678 2812 Pls
4678 2421 Pls
4678 2228 Pls
4678 3949 Pls
4678 2862 Pls
4678 2229 Pls
4678 2214 Pls
4678 4082 Pls
4678 2875 Pls
4678 2139 Pls
4678 2141 Pls
4678 3568 Pls
4678 2717 Pls
4678 2003 Pls
4678 1632 Pls
4678 3088 Pls
4678 2316 Pls
4678 1779 Pls
4678 1726 Pls
4678 2271 Pls
4678 1387 Pls
4678 1371 Pls
4678 1320 Pls
4678 2376 Pls
4678 1534 Pls
4678 1490 Pls
4678 1436 Pls
4678 3454 Pls
4678 2358 Pls
4678 1706 Pls
4678 2106 Pls
4678 3610 Pls
4678 2172 Pls
4678 1652 Pls
4678 1616 Pls
4678 3253 Pls
4678 2367 Pls
4678 1899 Pls
4678 1916 Pls
4678 4177 Pls
4678 3387 Pls
4678 2854 Pls
4678 2599 Pls
4678 3898 Pls
4678 2853 Pls
4678 2828 Pls
4678 2452 Pls
4678 4039 Pls
4678 3356 Pls
4678 2535 Pls
4678 2451 Pls
4678 3553 Pls
4678 3077 Pls
4678 2648 Pls
4678 2024 Pls
4678 3614 Pls
4678 2232 Pls
4678 2176 Pls
4678 2011 Pls
4678 2728 Pls
4678 1963 Pls
4678 1570 Pls
4678 1305 Pls
4678 3189 Pls
4678 1828 Pls
4678 1683 Pls
4678 1514 Pls
4678 3005 Pls
4678 2394 Pls
4678 1927 Pls
4678 1935 Pls
4678 2773 Pls
4678 2397 Pls
4678 2271 Pls
4678 2049 Pls
4678 2670 Pls
4678 2394 Pls
4678 2072 Pls
4678 2224 Pls
4678 4063 Pls
4678 3660 Pls
4678 2822 Pls
4678 2842 Pls
4678 4387 Pls
4678 3291 Pls
4678 2778 Pls
4678 2501 Pls
4678 4326 Pls
4678 3191 Pls
4678 2658 Pls
4678 2460 Pls
4678 3607 Pls
4678 3198 Pls
4678 2476 Pls
4678 2259 Pls
4678 3448 Pls
4678 2478 Pls
4678 1940 Pls
4678 2086 Pls
4678 2676 Pls
4678 1725 Pls
4678 1557 Pls
4678 1523 Pls
4678 2894 Pls
4678 2329 Pls
4678 1806 Pls
4678 1533 Pls
4678 3624 Pls
4678 2077 Pls
4678 2191 Pls
4678 1832 Pls
4678 2427 Pls
4678 2626 Pls
4678 2405 Pls
4678 2027 Pls
4678 2464 Pls
4678 2229 Pls
4678 1861 Pls
4678 2027 Pls
4678 4162 Pls
4678 3608 Pls
4678 2706 Pls
4678 2634 Pls
4678 4216 Pls
4678 3320 Pls
4678 2768 Pls
4678 2409 Pls
4678 4176 Pls
4678 3215 Pls
4678 2944 Pls
4678 2604 Pls
4678 3882 Pls
4678 3503 Pls
4678 2367 Pls
4678 2335 Pls
4678 3705 Pls
4678 2914 Pls
4678 2898 Pls
4678 2117 Pls
4678 2455 Pls
4678 1904 Pls
4678 1668 Pls
4678 1538 Pls
4678 2298 Pls
4678 1972 Pls
4678 1743 Pls
4678 1801 Pls
4678 2472 Pls
4678 2205 Pls
4678 1995 Pls
4678 1803 Pls
4678 2837 Pls
4678 2188 Pls
4678 2277 Pls
4678 1958 Pls
4678 2268 Pls
4678 2334 Pls
4678 2118 Pls
4678 1882 Pls
4678 4335 Pls
4678 3436 Pls
4678 3111 Pls
4678 2607 Pls
4678 4052 Pls
4678 3411 Pls
4678 3064 Pls
4678 2870 Pls
4678 4174 Pls
4678 3429 Pls
4678 3021 Pls
4678 2451 Pls
4678 4101 Pls
4678 3211 Pls
4678 2809 Pls
4678 2762 Pls
4678 3377 Pls
4678 2963 Pls
4678 2487 Pls
4678 2141 Pls
4678 2281 Pls
4678 2093 Pls
4678 1518 Pls
4678 1554 Pls
4678 2075 Pls
4678 2025 Pls
4678 1768 Pls
4678 1886 Pls
4678 2416 Pls
4678 2231 Pls
4678 2159 Pls
4678 2318 Pls
4678 2072 Pls
4678 2258 Pls
4678 1650 Pls
4678 2106 Pls
4678 2095 Pls
4678 2246 Pls
4678 2107 Pls
4678 2237 Pls
5368 3450 Pls
5368 2666 Pls
5368 2906 Pls
5368 2129 Pls
5368 3716 Pls
5368 2520 Pls
5368 2777 Pls
5368 2107 Pls
5368 3711 Pls
5368 2829 Pls
5368 2550 Pls
5368 1880 Pls
5368 3174 Pls
5368 2279 Pls
5368 2259 Pls
5368 1913 Pls
5368 3272 Pls
5368 2376 Pls
5368 1713 Pls
5368 1603 Pls
5368 2181 Pls
5368 1036 Pls
5368 1168 Pls
5368 1254 Pls
5368 2290 Pls
5368 1545 Pls
5368 1714 Pls
5368 1384 Pls
5368 2961 Pls
5368 2188 Pls
5368 1577 Pls
5368 1521 Pls
5368 2608 Pls
5368 2117 Pls
5368 1773 Pls
5368 1485 Pls
5368 3782 Pls
5368 2584 Pls
5368 1823 Pls
5368 1796 Pls
5368 3970 Pls
5368 3423 Pls
5368 2457 Pls
5368 2371 Pls
5368 3938 Pls
5368 2979 Pls
5368 2850 Pls
5368 2355 Pls
5368 3264 Pls
5368 2996 Pls
5368 2699 Pls
5368 2199 Pls
5368 4022 Pls
5368 2663 Pls
5368 2214 Pls
5368 2294 Pls
5368 3485 Pls
5368 2693 Pls
5368 2144 Pls
5368 1735 Pls
5368 2341 Pls
5368 1632 Pls
5368 1544 Pls
5368 1283 Pls
5368 3261 Pls
5368 2015 Pls
5368 1679 Pls
5368 1766 Pls
5368 2528 Pls
5368 2006 Pls
5368 1971 Pls
5368 1641 Pls
5368 3023 Pls
5368 2201 Pls
5368 1998 Pls
5368 1792 Pls
5368 3458 Pls
5368 2428 Pls
5368 2227 Pls
5368 2167 Pls
5368 4116 Pls
5368 3563 Pls
5368 2968 Pls
5368 2766 Pls
5368 3855 Pls
5368 3359 Pls
5368 2908 Pls
5368 2541 Pls
5368 3419 Pls
5368 3430 Pls
5368 2996 Pls
5368 2362 Pls
5368 4160 Pls
5368 3282 Pls
5368 2529 Pls
5368 2376 Pls
5368 3756 Pls
5368 2633 Pls
5368 2463 Pls
5368 1889 Pls
5368 2436 Pls
5368 1624 Pls
5368 1696 Pls
5368 1454 Pls
5368 2735 Pls
5368 2446 Pls
5368 1849 Pls
5368 1684 Pls
5368 3146 Pls
5368 2462 Pls
5368 2139 Pls
5368 2168 Pls
5368 2947 Pls
5368 2212 Pls
5368 2004 Pls
5368 1784 Pls
5368 2575 Pls
5368 2161 Pls
5368 2173 Pls
5368 2071 Pls
5368 4198 Pls
5368 3408 Pls
5368 3124 Pls
5368 2464 Pls
5368 4298 Pls
5368 3344 Pls
5368 3102 Pls
5368 2772 Pls
5368 4049 Pls
5368 3225 Pls
5368 2516 Pls
5368 2545 Pls
5368 4129 Pls
5368 2866 Pls
5368 2270 Pls
5368 2313 Pls
5368 3746 Pls
5368 2715 Pls
5368 2619 Pls
5368 2286 Pls
5368 2375 Pls
5368 2369 Pls
5368 1736 Pls
5368 1465 Pls
5368 2838 Pls
5368 1692 Pls
5368 2116 Pls
5368 2024 Pls
5368 2352 Pls
5368 2120 Pls
5368 2319 Pls
5368 2168 Pls
5368 2364 Pls
5368 2325 Pls
5368 1979 Pls
5368 2241 Pls
5368 2489 Pls
5368 2326 Pls
5368 2124 Pls
5368 2277 Pls
5368 4378 Pls
5368 3887 Pls
5368 3065 Pls
5368 2684 Pls
5368 3902 Pls
5368 3468 Pls
5368 3268 Pls
5368 2571 Pls
5368 3856 Pls
5368 3573 Pls
5368 2701 Pls
5368 2916 Pls
5368 3887 Pls
5368 3159 Pls
5368 2900 Pls
5368 2007 Pls
5368 3937 Pls
5368 2925 Pls
5368 2664 Pls
5368 2171 Pls
5368 2929 Pls
5368 1902 Pls
5368 1772 Pls
5368 1504 Pls
5368 2127 Pls
5368 2008 Pls
5368 1573 Pls
5368 1866 Pls
5368 2260 Pls
5368 2316 Pls
5368 2045 Pls
5368 1986 Pls
5368 2108 Pls
5368 2278 Pls
5368 1821 Pls
5368 2070 Pls
5368 1841 Pls
5368 2124 Pls
5368 2052 Pls
5368 2239 Pls
6059 3621 Pls
6059 2899 Pls
6059 2566 Pls
6059 2108 Pls
6059 3304 Pls
6059 3139 Pls
6059 2342 Pls
6059 2230 Pls
6059 3844 Pls
6059 2505 Pls
6059 1996 Pls
6059 2030 Pls
6059 3570 Pls
6059 2719 Pls
6059 2078 Pls
6059 2042 Pls
6059 2972 Pls
6059 2125 Pls
6059 1810 Pls
6059 1453 Pls
6059 2376 Pls
6059 1652 Pls
6059 1330 Pls
6059 1147 Pls
6059 2398 Pls
6059 1552 Pls
6059 1500 Pls
6059 1355 Pls
6059 3141 Pls
6059 2082 Pls
6059 1636 Pls
6059 1394 Pls
6059 2806 Pls
6059 1945 Pls
6059 1835 Pls
6059 1463 Pls
6059 2526 Pls
6059 2262 Pls
6059 2045 Pls
6059 1758 Pls
6059 3895 Pls
6059 3271 Pls
6059 2941 Pls
6059 2503 Pls
6059 4201 Pls
6059 3217 Pls
6059 2920 Pls
6059 2378 Pls
6059 3941 Pls
6059 3104 Pls
6059 2698 Pls
6059 2322 Pls
6059 3777 Pls
6059 2954 Pls
6059 2346 Pls
6059 1918 Pls
6059 3471 Pls
6059 2781 Pls
6059 1906 Pls
6059 1967 Pls
6059 2152 Pls
6059 1545 Pls
6059 1794 Pls
6059 1383 Pls
6059 2258 Pls
6059 2096 Pls
6059 1741 Pls
6059 1583 Pls
6059 2164 Pls
6059 2234 Pls
6059 2068 Pls
6059 1519 Pls
6059 3781 Pls
6059 2595 Pls
6059 2189 Pls
6059 1622 Pls
6059 2999 Pls
6059 2702 Pls
6059 2246 Pls
6059 1752 Pls
6059 4296 Pls
6059 3172 Pls
6059 2789 Pls
6059 2650 Pls
6059 4223 Pls
6059 3078 Pls
6059 2775 Pls
6059 2688 Pls
6059 4269 Pls
6059 3196 Pls
6059 2715 Pls
6059 2627 Pls
6059 3540 Pls
6059 3272 Pls
6059 2475 Pls
6059 2075 Pls
6059 3330 Pls
6059 3101 Pls
6059 2528 Pls
6059 1958 Pls
6059 2278 Pls
6059 1718 Pls
6059 1201 Pls
6059 1560 Pls
6059 2996 Pls
6059 2313 Pls
6059 1944 Pls
6059 1798 Pls
6059 2869 Pls
6059 2278 Pls
6059 1969 Pls
6059 1890 Pls
6059 2833 Pls
6059 2398 Pls
6059 2194 Pls
6059 1733 Pls
6059 3021 Pls
6059 2591 Pls
6059 2202 Pls
6059 1948 Pls
6059 4168 Pls
6059 3543 Pls
6059 3144 Pls
6059 2705 Pls
6059 4272 Pls
6059 3676 Pls
6059 3025 Pls
6059 2495 Pls
6059 4188 Pls
6059 3326 Pls
6059 3118 Pls
6059 2499 Pls
6059 3574 Pls
6059 3224 Pls
6059 2713 Pls
6059 2299 Pls
6059 3794 Pls
6059 2895 Pls
6059 2821 Pls
6059 1959 Pls
6059 2153 Pls
6059 2099 Pls
6059 1806 Pls
6059 1516 Pls
6059 2580 Pls
6059 2387 Pls
6059 1983 Pls
6059 1804 Pls
6059 2373 Pls
6059 2294 Pls
6059 2096 Pls
6059 1724 Pls
6059 2550 Pls
6059 2357 Pls
6059 2052 Pls
6059 1876 Pls
6059 2463 Pls
6059 2461 Pls
6059 2188 Pls
6059 2086 Pls
6059 4388 Pls
6059 3754 Pls
6059 3131 Pls
6059 2897 Pls
6059 4050 Pls
6059 3588 Pls
6059 3381 Pls
6059 2955 Pls
6059 3895 Pls
6059 3506 Pls
6059 2887 Pls
6059 2558 Pls
6059 4112 Pls
6059 3188 Pls
6059 2638 Pls
6059 2385 Pls
6059 3482 Pls
6059 2889 Pls
6059 2494 Pls
6059 2284 Pls
6059 2765 Pls
6059 1895 Pls
6059 1713 Pls
6059 1483 Pls
6059 2213 Pls
6059 2765 Pls
6059 1570 Pls
6059 1665 Pls
6059 2357 Pls
6059 2277 Pls
6059 1895 Pls
6059 1714 Pls
6059 2007 Pls
6059 2400 Pls
6059 2184 Pls
6059 1930 Pls
6059 1991 Pls
6059 1712 Pls
6059 2240 Pls
6059 2243 Pls
6749 3515 Pls
6749 3369 Pls
6749 2784 Pls
6749 2362 Pls
6749 4005 Pls
6749 2746 Pls
6749 2347 Pls
6749 2069 Pls
6749 3689 Pls
6749 2791 Pls
6749 2289 Pls
6749 2129 Pls
6749 3138 Pls
6749 2618 Pls
6749 2316 Pls
6749 1875 Pls
6749 2968 Pls
6749 2298 Pls
6749 1897 Pls
6749 1719 Pls
6749 2121 Pls
6749 1545 Pls
6749 1109 Pls
6749 1111 Pls
6749 2586 Pls
6749 2024 Pls
6749 1630 Pls
6749 1254 Pls
6749 2676 Pls
6749 1842 Pls
6749 1545 Pls
6749 1494 Pls
6749 3255 Pls
6749 1811 Pls
6749 1829 Pls
6749 1423 Pls
6749 2841 Pls
6749 1905 Pls
6749 1687 Pls
6749 1453 Pls
6749 4128 Pls
6749 3104 Pls
6749 2648 Pls
6749 2194 Pls
6749 4042 Pls
6749 3308 Pls
6749 2441 Pls
6749 2319 Pls
6749 3934 Pls
6749 3002 Pls
6749 2641 Pls
6749 2246 Pls
6749 3161 Pls
6749 2856 Pls
6749 2390 Pls
6749 2146 Pls
6749 3542 Pls
6749 2516 Pls
6749 2111 Pls
6749 1922 Pls
6749 1805 Pls
6749 1844 Pls
6749 1486 Pls
6749 1404 Pls
6749 3068 Pls
6749 2092 Pls
6749 1819 Pls
6749 1805 Pls
6749 2633 Pls
6749 2280 Pls
6749 1989 Pls
6749 1715 Pls
6749 3136 Pls
6749 2570 Pls
6749 1756 Pls
6749 1907 Pls
6749 3380 Pls
6749 2410 Pls
6749 2346 Pls
6749 1849 Pls
6749 4138 Pls
6749 3174 Pls
6749 2848 Pls
6749 2558 Pls
6749 4272 Pls
6749 3476 Pls
6749 3003 Pls
6749 2246 Pls
6749 4044 Pls
6749 3244 Pls
6749 2418 Pls
6749 2648 Pls
6749 3525 Pls
6749 3149 Pls
6749 2367 Pls
6749 2214 Pls
6749 3568 Pls
6749 2812 Pls
6749 2065 Pls
6749 2084 Pls
6749 2543 Pls
6749 1897 Pls
6749 1703 Pls
6749 1407 Pls
6749 3085 Pls
6749 2006 Pls
6749 1957 Pls
6749 1603 Pls
6749 2737 Pls
6749 2531 Pls
6749 2101 Pls
6749 1726 Pls
6749 2720 Pls
6749 2550 Pls
6749 2583 Pls
6749 1986 Pls
6749 2612 Pls
6749 2408 Pls
6749 2052 Pls
6749 2002 Pls
6749 4246 Pls
6749 3430 Pls
6749 3039 Pls
6749 2658 Pls
6749 3901 Pls
6749 3630 Pls
6749 2946 Pls
6749 2521 Pls
6749 4070 Pls
6749 2970 Pls
6749 2528 Pls
6749 2317 Pls
6749 3895 Pls
6749 2488 Pls
6749 2305 Pls
6749 2509 Pls
6749 3744 Pls
6749 2824 Pls
6749 2316 Pls
6749 1795 Pls
6749 2374 Pls
6749 2126 Pls
6749 1692 Pls
6749 1744 Pls
6749 2787 Pls
6749 1908 Pls
6749 2134 Pls
6749 1673 Pls
6749 2633 Pls
6749 2004 Pls
6749 1823 Pls
6749 2150 Pls
6749 2441 Pls
6749 2634 Pls
6749 1757 Pls
6749 2204 Pls
6749 2094 Pls
6749 2147 Pls
6749 2086 Pls
6749 2290 Pls
6749 4122 Pls
6749 3354 Pls
6749 3236 Pls
6749 2713 Pls
6749 4370 Pls
6749 3654 Pls
6749 2940 Pls
6749 2319 Pls
6749 4278 Pls
6749 3557 Pls
6749 2912 Pls
6749 2640 Pls
6749 3794 Pls
6749 3384 Pls
6749 3017 Pls
6749 2356 Pls
6749 3946 Pls
6749 3181 Pls
6749 2619 Pls
6749 2499 Pls
6749 2735 Pls
6749 2125 Pls
6749 1811 Pls
6749 1578 Pls
6749 2336 Pls
6749 1906 Pls
6749 2066 Pls
6749 2055 Pls
6749 2578 Pls
6749 1943 Pls
6749 2008 Pls
6749 1958 Pls
6749 2452 Pls
6749 2393 Pls
6749 1829 Pls
6749 1935 Pls
6749 2297 Pls
6749 1963 Pls
6749 2071 Pls
6749 1994 Pls
% End plot #1
% Begin plot #2
1.000 UL
LT1
LCb setrgbcolor
5636 4551 M
[ [(Helvetica) 250.0 0.0 true true 0 (Average)]
] -83.3 MRshow
LT1
5786 4551 M
663 0 V
1225 2458 M
691 11 V
690 2 V
691 8 V
690 23 V
691 47 V
690 -20 V
691 5 V
690 -15 V
% End plot #2
% Begin plot #3
stroke
LT2
LCb setrgbcolor
5636 4301 M
[ [(Helvetica) 250.0 0.0 true true 0 (Min)]
] -83.3 MRshow
LT2
5786 4301 M
663 0 V
1225 1173 M
691 139 V
690 -32 V
691 -169 V
690 173 V
691 21 V
690 -269 V
691 111 V
690 -38 V
% End plot #3
% Begin plot #4
stroke
LT3
LCb setrgbcolor
5636 4051 M
[ [(Helvetica) 250.0 0.0 true true 0 (Max)]
] -83.3 MRshow
LT3
5786 4051 M
663 0 V
1225 4374 M
691 -95 V
690 184 V
691 -128 V
690 72 V
691 -20 V
690 -9 V
691 10 V
690 -18 V
% End plot #4
stroke
LTb
1225 4739 N
0 -3939 V
5524 0 V
0 3939 V
-5524 0 V
Z stroke
1.000 UP
1.000 UL
LTb
stroke
grestore
end
showpage
%%Trailer
%%DocumentFonts: Helvetica
