%!PS-Adobe-2.0 EPSF-2.0
%%Title: n_alphabet_size_1000.time.eps
%%Creator: gnuplot 4.4 patchlevel 3
%%CreationDate: Tue Jun  4 12:58:03 2013
%%DocumentFonts: (atend)
%%BoundingBox: 50 50 410 302
%%EndComments
%%BeginProlog
/gnudict 256 dict def
gnudict begin
%
% The following true/false flags may be edited by hand if desired.
% The unit line width and grayscale image gamma correction may also be changed.
%
/Color true def
/Blacktext false def
/Solid false def
/Dashlength 1 def
/Landscape false def
/Level1 false def
/Rounded false def
/ClipToBoundingBox false def
/TransparentPatterns false def
/gnulinewidth 5.000 def
/userlinewidth gnulinewidth def
/Gamma 1.0 def
%
/vshift -83 def
/dl1 {
  10.0 Dashlength mul mul
  Rounded { currentlinewidth 0.75 mul sub dup 0 le { pop 0.01 } if } if
} def
/dl2 {
  10.0 Dashlength mul mul
  Rounded { currentlinewidth 0.75 mul add } if
} def
/hpt_ 31.5 def
/vpt_ 31.5 def
/hpt hpt_ def
/vpt vpt_ def
Level1 {} {
/SDict 10 dict def
systemdict /pdfmark known not {
  userdict /pdfmark systemdict /cleartomark get put
} if
SDict begin [
  /Title (n_alphabet_size_1000.time.eps)
  /Subject (gnuplot plot)
  /Creator (gnuplot 4.4 patchlevel 3)
  /Author (xjia)
%  /Producer (gnuplot)
%  /Keywords ()
  /CreationDate (Tue Jun  4 12:58:03 2013)
  /DOCINFO pdfmark
end
} ifelse
/doclip {
  ClipToBoundingBox {
    newpath 50 50 moveto 410 50 lineto 410 302 lineto 50 302 lineto closepath
    clip
  } if
} def
%
% Gnuplot Prolog Version 4.4 (August 2010)
%
%/SuppressPDFMark true def
%
/M {moveto} bind def
/L {lineto} bind def
/R {rmoveto} bind def
/V {rlineto} bind def
/N {newpath moveto} bind def
/Z {closepath} bind def
/C {setrgbcolor} bind def
/f {rlineto fill} bind def
/g {setgray} bind def
/Gshow {show} def   % May be redefined later in the file to support UTF-8
/vpt2 vpt 2 mul def
/hpt2 hpt 2 mul def
/Lshow {currentpoint stroke M 0 vshift R 
	Blacktext {gsave 0 setgray show grestore} {show} ifelse} def
/Rshow {currentpoint stroke M dup stringwidth pop neg vshift R
	Blacktext {gsave 0 setgray show grestore} {show} ifelse} def
/Cshow {currentpoint stroke M dup stringwidth pop -2 div vshift R 
	Blacktext {gsave 0 setgray show grestore} {show} ifelse} def
/UP {dup vpt_ mul /vpt exch def hpt_ mul /hpt exch def
  /hpt2 hpt 2 mul def /vpt2 vpt 2 mul def} def
/DL {Color {setrgbcolor Solid {pop []} if 0 setdash}
 {pop pop pop 0 setgray Solid {pop []} if 0 setdash} ifelse} def
/BL {stroke userlinewidth 2 mul setlinewidth
	Rounded {1 setlinejoin 1 setlinecap} if} def
/AL {stroke userlinewidth 2 div setlinewidth
	Rounded {1 setlinejoin 1 setlinecap} if} def
/UL {dup gnulinewidth mul /userlinewidth exch def
	dup 1 lt {pop 1} if 10 mul /udl exch def} def
/PL {stroke userlinewidth setlinewidth
	Rounded {1 setlinejoin 1 setlinecap} if} def
3.8 setmiterlimit
% Default Line colors
/LCw {1 1 1} def
/LCb {0 0 0} def
/LCa {0 0 0} def
/LC0 {1 0 0} def
/LC1 {0 1 0} def
/LC2 {0 0 1} def
/LC3 {1 0 1} def
/LC4 {0 1 1} def
/LC5 {1 1 0} def
/LC6 {0 0 0} def
/LC7 {1 0.3 0} def
/LC8 {0.5 0.5 0.5} def
% Default Line Types
/LTw {PL [] 1 setgray} def
/LTb {BL [] LCb DL} def
/LTa {AL [1 udl mul 2 udl mul] 0 setdash LCa setrgbcolor} def
/LT0 {PL [] LC0 DL} def
/LT1 {PL [4 dl1 2 dl2] LC1 DL} def
/LT2 {PL [2 dl1 3 dl2] LC2 DL} def
/LT3 {PL [1 dl1 1.5 dl2] LC3 DL} def
/LT4 {PL [6 dl1 2 dl2 1 dl1 2 dl2] LC4 DL} def
/LT5 {PL [3 dl1 3 dl2 1 dl1 3 dl2] LC5 DL} def
/LT6 {PL [2 dl1 2 dl2 2 dl1 6 dl2] LC6 DL} def
/LT7 {PL [1 dl1 2 dl2 6 dl1 2 dl2 1 dl1 2 dl2] LC7 DL} def
/LT8 {PL [2 dl1 2 dl2 2 dl1 2 dl2 2 dl1 2 dl2 2 dl1 4 dl2] LC8 DL} def
/Pnt {stroke [] 0 setdash gsave 1 setlinecap M 0 0 V stroke grestore} def
/Dia {stroke [] 0 setdash 2 copy vpt add M
  hpt neg vpt neg V hpt vpt neg V
  hpt vpt V hpt neg vpt V closepath stroke
  Pnt} def
/Pls {stroke [] 0 setdash vpt sub M 0 vpt2 V
  currentpoint stroke M
  hpt neg vpt neg R hpt2 0 V stroke
 } def
/Box {stroke [] 0 setdash 2 copy exch hpt sub exch vpt add M
  0 vpt2 neg V hpt2 0 V 0 vpt2 V
  hpt2 neg 0 V closepath stroke
  Pnt} def
/Crs {stroke [] 0 setdash exch hpt sub exch vpt add M
  hpt2 vpt2 neg V currentpoint stroke M
  hpt2 neg 0 R hpt2 vpt2 V stroke} def
/TriU {stroke [] 0 setdash 2 copy vpt 1.12 mul add M
  hpt neg vpt -1.62 mul V
  hpt 2 mul 0 V
  hpt neg vpt 1.62 mul V closepath stroke
  Pnt} def
/Star {2 copy Pls Crs} def
/BoxF {stroke [] 0 setdash exch hpt sub exch vpt add M
  0 vpt2 neg V hpt2 0 V 0 vpt2 V
  hpt2 neg 0 V closepath fill} def
/TriUF {stroke [] 0 setdash vpt 1.12 mul add M
  hpt neg vpt -1.62 mul V
  hpt 2 mul 0 V
  hpt neg vpt 1.62 mul V closepath fill} def
/TriD {stroke [] 0 setdash 2 copy vpt 1.12 mul sub M
  hpt neg vpt 1.62 mul V
  hpt 2 mul 0 V
  hpt neg vpt -1.62 mul V closepath stroke
  Pnt} def
/TriDF {stroke [] 0 setdash vpt 1.12 mul sub M
  hpt neg vpt 1.62 mul V
  hpt 2 mul 0 V
  hpt neg vpt -1.62 mul V closepath fill} def
/DiaF {stroke [] 0 setdash vpt add M
  hpt neg vpt neg V hpt vpt neg V
  hpt vpt V hpt neg vpt V closepath fill} def
/Pent {stroke [] 0 setdash 2 copy gsave
  translate 0 hpt M 4 {72 rotate 0 hpt L} repeat
  closepath stroke grestore Pnt} def
/PentF {stroke [] 0 setdash gsave
  translate 0 hpt M 4 {72 rotate 0 hpt L} repeat
  closepath fill grestore} def
/Circle {stroke [] 0 setdash 2 copy
  hpt 0 360 arc stroke Pnt} def
/CircleF {stroke [] 0 setdash hpt 0 360 arc fill} def
/C0 {BL [] 0 setdash 2 copy moveto vpt 90 450 arc} bind def
/C1 {BL [] 0 setdash 2 copy moveto
	2 copy vpt 0 90 arc closepath fill
	vpt 0 360 arc closepath} bind def
/C2 {BL [] 0 setdash 2 copy moveto
	2 copy vpt 90 180 arc closepath fill
	vpt 0 360 arc closepath} bind def
/C3 {BL [] 0 setdash 2 copy moveto
	2 copy vpt 0 180 arc closepath fill
	vpt 0 360 arc closepath} bind def
/C4 {BL [] 0 setdash 2 copy moveto
	2 copy vpt 180 270 arc closepath fill
	vpt 0 360 arc closepath} bind def
/C5 {BL [] 0 setdash 2 copy moveto
	2 copy vpt 0 90 arc
	2 copy moveto
	2 copy vpt 180 270 arc closepath fill
	vpt 0 360 arc} bind def
/C6 {BL [] 0 setdash 2 copy moveto
	2 copy vpt 90 270 arc closepath fill
	vpt 0 360 arc closepath} bind def
/C7 {BL [] 0 setdash 2 copy moveto
	2 copy vpt 0 270 arc closepath fill
	vpt 0 360 arc closepath} bind def
/C8 {BL [] 0 setdash 2 copy moveto
	2 copy vpt 270 360 arc closepath fill
	vpt 0 360 arc closepath} bind def
/C9 {BL [] 0 setdash 2 copy moveto
	2 copy vpt 270 450 arc closepath fill
	vpt 0 360 arc closepath} bind def
/C10 {BL [] 0 setdash 2 copy 2 copy moveto vpt 270 360 arc closepath fill
	2 copy moveto
	2 copy vpt 90 180 arc closepath fill
	vpt 0 360 arc closepath} bind def
/C11 {BL [] 0 setdash 2 copy moveto
	2 copy vpt 0 180 arc closepath fill
	2 copy moveto
	2 copy vpt 270 360 arc closepath fill
	vpt 0 360 arc closepath} bind def
/C12 {BL [] 0 setdash 2 copy moveto
	2 copy vpt 180 360 arc closepath fill
	vpt 0 360 arc closepath} bind def
/C13 {BL [] 0 setdash 2 copy moveto
	2 copy vpt 0 90 arc closepath fill
	2 copy moveto
	2 copy vpt 180 360 arc closepath fill
	vpt 0 360 arc closepath} bind def
/C14 {BL [] 0 setdash 2 copy moveto
	2 copy vpt 90 360 arc closepath fill
	vpt 0 360 arc} bind def
/C15 {BL [] 0 setdash 2 copy vpt 0 360 arc closepath fill
	vpt 0 360 arc closepath} bind def
/Rec {newpath 4 2 roll moveto 1 index 0 rlineto 0 exch rlineto
	neg 0 rlineto closepath} bind def
/Square {dup Rec} bind def
/Bsquare {vpt sub exch vpt sub exch vpt2 Square} bind def
/S0 {BL [] 0 setdash 2 copy moveto 0 vpt rlineto BL Bsquare} bind def
/S1 {BL [] 0 setdash 2 copy vpt Square fill Bsquare} bind def
/S2 {BL [] 0 setdash 2 copy exch vpt sub exch vpt Square fill Bsquare} bind def
/S3 {BL [] 0 setdash 2 copy exch vpt sub exch vpt2 vpt Rec fill Bsquare} bind def
/S4 {BL [] 0 setdash 2 copy exch vpt sub exch vpt sub vpt Square fill Bsquare} bind def
/S5 {BL [] 0 setdash 2 copy 2 copy vpt Square fill
	exch vpt sub exch vpt sub vpt Square fill Bsquare} bind def
/S6 {BL [] 0 setdash 2 copy exch vpt sub exch vpt sub vpt vpt2 Rec fill Bsquare} bind def
/S7 {BL [] 0 setdash 2 copy exch vpt sub exch vpt sub vpt vpt2 Rec fill
	2 copy vpt Square fill Bsquare} bind def
/S8 {BL [] 0 setdash 2 copy vpt sub vpt Square fill Bsquare} bind def
/S9 {BL [] 0 setdash 2 copy vpt sub vpt vpt2 Rec fill Bsquare} bind def
/S10 {BL [] 0 setdash 2 copy vpt sub vpt Square fill 2 copy exch vpt sub exch vpt Square fill
	Bsquare} bind def
/S11 {BL [] 0 setdash 2 copy vpt sub vpt Square fill 2 copy exch vpt sub exch vpt2 vpt Rec fill
	Bsquare} bind def
/S12 {BL [] 0 setdash 2 copy exch vpt sub exch vpt sub vpt2 vpt Rec fill Bsquare} bind def
/S13 {BL [] 0 setdash 2 copy exch vpt sub exch vpt sub vpt2 vpt Rec fill
	2 copy vpt Square fill Bsquare} bind def
/S14 {BL [] 0 setdash 2 copy exch vpt sub exch vpt sub vpt2 vpt Rec fill
	2 copy exch vpt sub exch vpt Square fill Bsquare} bind def
/S15 {BL [] 0 setdash 2 copy Bsquare fill Bsquare} bind def
/D0 {gsave translate 45 rotate 0 0 S0 stroke grestore} bind def
/D1 {gsave translate 45 rotate 0 0 S1 stroke grestore} bind def
/D2 {gsave translate 45 rotate 0 0 S2 stroke grestore} bind def
/D3 {gsave translate 45 rotate 0 0 S3 stroke grestore} bind def
/D4 {gsave translate 45 rotate 0 0 S4 stroke grestore} bind def
/D5 {gsave translate 45 rotate 0 0 S5 stroke grestore} bind def
/D6 {gsave translate 45 rotate 0 0 S6 stroke grestore} bind def
/D7 {gsave translate 45 rotate 0 0 S7 stroke grestore} bind def
/D8 {gsave translate 45 rotate 0 0 S8 stroke grestore} bind def
/D9 {gsave translate 45 rotate 0 0 S9 stroke grestore} bind def
/D10 {gsave translate 45 rotate 0 0 S10 stroke grestore} bind def
/D11 {gsave translate 45 rotate 0 0 S11 stroke grestore} bind def
/D12 {gsave translate 45 rotate 0 0 S12 stroke grestore} bind def
/D13 {gsave translate 45 rotate 0 0 S13 stroke grestore} bind def
/D14 {gsave translate 45 rotate 0 0 S14 stroke grestore} bind def
/D15 {gsave translate 45 rotate 0 0 S15 stroke grestore} bind def
/DiaE {stroke [] 0 setdash vpt add M
  hpt neg vpt neg V hpt vpt neg V
  hpt vpt V hpt neg vpt V closepath stroke} def
/BoxE {stroke [] 0 setdash exch hpt sub exch vpt add M
  0 vpt2 neg V hpt2 0 V 0 vpt2 V
  hpt2 neg 0 V closepath stroke} def
/TriUE {stroke [] 0 setdash vpt 1.12 mul add M
  hpt neg vpt -1.62 mul V
  hpt 2 mul 0 V
  hpt neg vpt 1.62 mul V closepath stroke} def
/TriDE {stroke [] 0 setdash vpt 1.12 mul sub M
  hpt neg vpt 1.62 mul V
  hpt 2 mul 0 V
  hpt neg vpt -1.62 mul V closepath stroke} def
/PentE {stroke [] 0 setdash gsave
  translate 0 hpt M 4 {72 rotate 0 hpt L} repeat
  closepath stroke grestore} def
/CircE {stroke [] 0 setdash 
  hpt 0 360 arc stroke} def
/Opaque {gsave closepath 1 setgray fill grestore 0 setgray closepath} def
/DiaW {stroke [] 0 setdash vpt add M
  hpt neg vpt neg V hpt vpt neg V
  hpt vpt V hpt neg vpt V Opaque stroke} def
/BoxW {stroke [] 0 setdash exch hpt sub exch vpt add M
  0 vpt2 neg V hpt2 0 V 0 vpt2 V
  hpt2 neg 0 V Opaque stroke} def
/TriUW {stroke [] 0 setdash vpt 1.12 mul add M
  hpt neg vpt -1.62 mul V
  hpt 2 mul 0 V
  hpt neg vpt 1.62 mul V Opaque stroke} def
/TriDW {stroke [] 0 setdash vpt 1.12 mul sub M
  hpt neg vpt 1.62 mul V
  hpt 2 mul 0 V
  hpt neg vpt -1.62 mul V Opaque stroke} def
/PentW {stroke [] 0 setdash gsave
  translate 0 hpt M 4 {72 rotate 0 hpt L} repeat
  Opaque stroke grestore} def
/CircW {stroke [] 0 setdash 
  hpt 0 360 arc Opaque stroke} def
/BoxFill {gsave Rec 1 setgray fill grestore} def
/Density {
  /Fillden exch def
  currentrgbcolor
  /ColB exch def /ColG exch def /ColR exch def
  /ColR ColR Fillden mul Fillden sub 1 add def
  /ColG ColG Fillden mul Fillden sub 1 add def
  /ColB ColB Fillden mul Fillden sub 1 add def
  ColR ColG ColB setrgbcolor} def
/BoxColFill {gsave Rec PolyFill} def
/PolyFill {gsave Density fill grestore grestore} def
/h {rlineto rlineto rlineto gsave closepath fill grestore} bind def
%
% PostScript Level 1 Pattern Fill routine for rectangles
% Usage: x y w h s a XX PatternFill
%	x,y = lower left corner of box to be filled
%	w,h = width and height of box
%	  a = angle in degrees between lines and x-axis
%	 XX = 0/1 for no/yes cross-hatch
%
/PatternFill {gsave /PFa [ 9 2 roll ] def
  PFa 0 get PFa 2 get 2 div add PFa 1 get PFa 3 get 2 div add translate
  PFa 2 get -2 div PFa 3 get -2 div PFa 2 get PFa 3 get Rec
  gsave 1 setgray fill grestore clip
  currentlinewidth 0.5 mul setlinewidth
  /PFs PFa 2 get dup mul PFa 3 get dup mul add sqrt def
  0 0 M PFa 5 get rotate PFs -2 div dup translate
  0 1 PFs PFa 4 get div 1 add floor cvi
	{PFa 4 get mul 0 M 0 PFs V} for
  0 PFa 6 get ne {
	0 1 PFs PFa 4 get div 1 add floor cvi
	{PFa 4 get mul 0 2 1 roll M PFs 0 V} for
 } if
  stroke grestore} def
%
/languagelevel where
 {pop languagelevel} {1} ifelse
 2 lt
	{/InterpretLevel1 true def}
	{/InterpretLevel1 Level1 def}
 ifelse
%
% PostScript level 2 pattern fill definitions
%
/Level2PatternFill {
/Tile8x8 {/PaintType 2 /PatternType 1 /TilingType 1 /BBox [0 0 8 8] /XStep 8 /YStep 8}
	bind def
/KeepColor {currentrgbcolor [/Pattern /DeviceRGB] setcolorspace} bind def
<< Tile8x8
 /PaintProc {0.5 setlinewidth pop 0 0 M 8 8 L 0 8 M 8 0 L stroke} 
>> matrix makepattern
/Pat1 exch def
<< Tile8x8
 /PaintProc {0.5 setlinewidth pop 0 0 M 8 8 L 0 8 M 8 0 L stroke
	0 4 M 4 8 L 8 4 L 4 0 L 0 4 L stroke}
>> matrix makepattern
/Pat2 exch def
<< Tile8x8
 /PaintProc {0.5 setlinewidth pop 0 0 M 0 8 L
	8 8 L 8 0 L 0 0 L fill}
>> matrix makepattern
/Pat3 exch def
<< Tile8x8
 /PaintProc {0.5 setlinewidth pop -4 8 M 8 -4 L
	0 12 M 12 0 L stroke}
>> matrix makepattern
/Pat4 exch def
<< Tile8x8
 /PaintProc {0.5 setlinewidth pop -4 0 M 8 12 L
	0 -4 M 12 8 L stroke}
>> matrix makepattern
/Pat5 exch def
<< Tile8x8
 /PaintProc {0.5 setlinewidth pop -2 8 M 4 -4 L
	0 12 M 8 -4 L 4 12 M 10 0 L stroke}
>> matrix makepattern
/Pat6 exch def
<< Tile8x8
 /PaintProc {0.5 setlinewidth pop -2 0 M 4 12 L
	0 -4 M 8 12 L 4 -4 M 10 8 L stroke}
>> matrix makepattern
/Pat7 exch def
<< Tile8x8
 /PaintProc {0.5 setlinewidth pop 8 -2 M -4 4 L
	12 0 M -4 8 L 12 4 M 0 10 L stroke}
>> matrix makepattern
/Pat8 exch def
<< Tile8x8
 /PaintProc {0.5 setlinewidth pop 0 -2 M 12 4 L
	-4 0 M 12 8 L -4 4 M 8 10 L stroke}
>> matrix makepattern
/Pat9 exch def
/Pattern1 {PatternBgnd KeepColor Pat1 setpattern} bind def
/Pattern2 {PatternBgnd KeepColor Pat2 setpattern} bind def
/Pattern3 {PatternBgnd KeepColor Pat3 setpattern} bind def
/Pattern4 {PatternBgnd KeepColor Landscape {Pat5} {Pat4} ifelse setpattern} bind def
/Pattern5 {PatternBgnd KeepColor Landscape {Pat4} {Pat5} ifelse setpattern} bind def
/Pattern6 {PatternBgnd KeepColor Landscape {Pat9} {Pat6} ifelse setpattern} bind def
/Pattern7 {PatternBgnd KeepColor Landscape {Pat8} {Pat7} ifelse setpattern} bind def
} def
%
%
%End of PostScript Level 2 code
%
/PatternBgnd {
  TransparentPatterns {} {gsave 1 setgray fill grestore} ifelse
} def
%
% Substitute for Level 2 pattern fill codes with
% grayscale if Level 2 support is not selected.
%
/Level1PatternFill {
/Pattern1 {0.250 Density} bind def
/Pattern2 {0.500 Density} bind def
/Pattern3 {0.750 Density} bind def
/Pattern4 {0.125 Density} bind def
/Pattern5 {0.375 Density} bind def
/Pattern6 {0.625 Density} bind def
/Pattern7 {0.875 Density} bind def
} def
%
% Now test for support of Level 2 code
%
Level1 {Level1PatternFill} {Level2PatternFill} ifelse
%
/Symbol-Oblique /Symbol findfont [1 0 .167 1 0 0] makefont
dup length dict begin {1 index /FID eq {pop pop} {def} ifelse} forall
currentdict end definefont pop
/MFshow {
   { dup 5 get 3 ge
     { 5 get 3 eq {gsave} {grestore} ifelse }
     {dup dup 0 get findfont exch 1 get scalefont setfont
     [ currentpoint ] exch dup 2 get 0 exch R dup 5 get 2 ne {dup dup 6
     get exch 4 get {Gshow} {stringwidth pop 0 R} ifelse }if dup 5 get 0 eq
     {dup 3 get {2 get neg 0 exch R pop} {pop aload pop M} ifelse} {dup 5
     get 1 eq {dup 2 get exch dup 3 get exch 6 get stringwidth pop -2 div
     dup 0 R} {dup 6 get stringwidth pop -2 div 0 R 6 get
     show 2 index {aload pop M neg 3 -1 roll neg R pop pop} {pop pop pop
     pop aload pop M} ifelse }ifelse }ifelse }
     ifelse }
   forall} def
/Gswidth {dup type /stringtype eq {stringwidth} {pop (n) stringwidth} ifelse} def
/MFwidth {0 exch { dup 5 get 3 ge { 5 get 3 eq { 0 } { pop } ifelse }
 {dup 3 get{dup dup 0 get findfont exch 1 get scalefont setfont
     6 get Gswidth pop add} {pop} ifelse} ifelse} forall} def
/MLshow { currentpoint stroke M
  0 exch R
  Blacktext {gsave 0 setgray MFshow grestore} {MFshow} ifelse } bind def
/MRshow { currentpoint stroke M
  exch dup MFwidth neg 3 -1 roll R
  Blacktext {gsave 0 setgray MFshow grestore} {MFshow} ifelse } bind def
/MCshow { currentpoint stroke M
  exch dup MFwidth -2 div 3 -1 roll R
  Blacktext {gsave 0 setgray MFshow grestore} {MFshow} ifelse } bind def
/XYsave    { [( ) 1 2 true false 3 ()] } bind def
/XYrestore { [( ) 1 2 true false 4 ()] } bind def
end
%%EndProlog
gnudict begin
gsave
doclip
50 50 translate
0.050 0.050 scale
0 setgray
newpath
(Helvetica) findfont 250 scalefont setfont
1.000 UL
LTb
1225 800 M
63 0 V
5461 0 R
-63 0 V
stroke
1075 800 M
[ [(Helvetica) 250.0 0.0 true true 0 ( 0)]
] -83.3 MRshow
1.000 UL
LTb
1225 1588 M
63 0 V
5461 0 R
-63 0 V
stroke
1075 1588 M
[ [(Helvetica) 250.0 0.0 true true 0 ( 0.5)]
] -83.3 MRshow
1.000 UL
LTb
1225 2376 M
63 0 V
5461 0 R
-63 0 V
stroke
1075 2376 M
[ [(Helvetica) 250.0 0.0 true true 0 ( 1)]
] -83.3 MRshow
1.000 UL
LTb
1225 3163 M
63 0 V
5461 0 R
-63 0 V
stroke
1075 3163 M
[ [(Helvetica) 250.0 0.0 true true 0 ( 1.5)]
] -83.3 MRshow
1.000 UL
LTb
1225 3951 M
63 0 V
5461 0 R
-63 0 V
stroke
1075 3951 M
[ [(Helvetica) 250.0 0.0 true true 0 ( 2)]
] -83.3 MRshow
1.000 UL
LTb
1225 4739 M
63 0 V
5461 0 R
-63 0 V
stroke
1075 4739 M
[ [(Helvetica) 250.0 0.0 true true 0 ( 2.5)]
] -83.3 MRshow
1.000 UL
LTb
1225 800 M
0 63 V
0 3876 R
0 -63 V
stroke
1225 550 M
[ [(Helvetica) 250.0 0.0 true true 0 ( 1000)]
] -83.3 MCshow
1.000 UL
LTb
1916 800 M
0 63 V
0 3876 R
0 -63 V
stroke
1916 550 M
[ [(Helvetica) 250.0 0.0 true true 0 ( 2000)]
] -83.3 MCshow
1.000 UL
LTb
2606 800 M
0 63 V
0 3876 R
0 -63 V
stroke
2606 550 M
[ [(Helvetica) 250.0 0.0 true true 0 ( 3000)]
] -83.3 MCshow
1.000 UL
LTb
3297 800 M
0 63 V
0 3876 R
0 -63 V
stroke
3297 550 M
[ [(Helvetica) 250.0 0.0 true true 0 ( 4000)]
] -83.3 MCshow
1.000 UL
LTb
3987 800 M
0 63 V
0 3876 R
0 -63 V
stroke
3987 550 M
[ [(Helvetica) 250.0 0.0 true true 0 ( 5000)]
] -83.3 MCshow
1.000 UL
LTb
4678 800 M
0 63 V
0 3876 R
0 -63 V
stroke
4678 550 M
[ [(Helvetica) 250.0 0.0 true true 0 ( 6000)]
] -83.3 MCshow
1.000 UL
LTb
5368 800 M
0 63 V
0 3876 R
0 -63 V
stroke
5368 550 M
[ [(Helvetica) 250.0 0.0 true true 0 ( 7000)]
] -83.3 MCshow
1.000 UL
LTb
6059 800 M
0 63 V
0 3876 R
0 -63 V
stroke
6059 550 M
[ [(Helvetica) 250.0 0.0 true true 0 ( 8000)]
] -83.3 MCshow
1.000 UL
LTb
6749 800 M
0 63 V
0 3876 R
0 -63 V
stroke
6749 550 M
[ [(Helvetica) 250.0 0.0 true true 0 ( 9000)]
] -83.3 MCshow
1.000 UL
LTb
1.000 UL
LTb
1225 4739 N
0 -3939 V
5524 0 V
0 3939 V
-5524 0 V
Z stroke
LCb setrgbcolor
200 2769 M
currentpoint gsave translate -270 rotate 0 0 moveto
[ [(Helvetica) 250.0 0.0 true true 0 (Time \(sec\))]
] -83.3 MCshow
grestore
LTb
LCb setrgbcolor
3987 175 M
[ [(Helvetica) 250.0 0.0 true true 0 (Alphabet Size)]
] -83.3 MCshow
LTb
1.000 UP
1.000 UL
LTb
% Begin plot #1
1.000 UP
1.000 UL
LT0
1225 803 Pls
1225 801 Pls
1225 802 Pls
1225 802 Pls
1225 801 Pls
1225 801 Pls
1225 801 Pls
1225 802 Pls
1225 801 Pls
1225 801 Pls
1225 801 Pls
1225 801 Pls
1225 801 Pls
1225 800 Pls
1225 801 Pls
1225 801 Pls
1225 800 Pls
1225 800 Pls
1225 801 Pls
1225 801 Pls
1225 801 Pls
1225 801 Pls
1225 801 Pls
1225 801 Pls
1225 801 Pls
1225 801 Pls
1225 801 Pls
1225 801 Pls
1225 801 Pls
1225 802 Pls
1225 802 Pls
1225 802 Pls
1225 802 Pls
1225 802 Pls
1225 802 Pls
1225 803 Pls
1225 802 Pls
1225 803 Pls
1225 803 Pls
1225 803 Pls
1225 812 Pls
1225 814 Pls
1225 816 Pls
1225 821 Pls
1225 809 Pls
1225 809 Pls
1225 811 Pls
1225 814 Pls
1225 809 Pls
1225 807 Pls
1225 808 Pls
1225 810 Pls
1225 808 Pls
1225 807 Pls
1225 808 Pls
1225 807 Pls
1225 804 Pls
1225 804 Pls
1225 805 Pls
1225 805 Pls
1225 810 Pls
1225 809 Pls
1225 812 Pls
1225 812 Pls
1225 818 Pls
1225 815 Pls
1225 817 Pls
1225 817 Pls
1225 822 Pls
1225 822 Pls
1225 825 Pls
1225 826 Pls
1225 828 Pls
1225 829 Pls
1225 832 Pls
1225 833 Pls
1225 841 Pls
1225 843 Pls
1225 843 Pls
1225 842 Pls
1225 845 Pls
1225 848 Pls
1225 862 Pls
1225 866 Pls
1225 838 Pls
1225 836 Pls
1225 845 Pls
1225 846 Pls
1225 823 Pls
1225 839 Pls
1225 831 Pls
1225 830 Pls
1225 829 Pls
1225 824 Pls
1225 821 Pls
1225 825 Pls
1225 815 Pls
1225 817 Pls
1225 819 Pls
1225 813 Pls
1225 835 Pls
1225 841 Pls
1225 848 Pls
1225 844 Pls
1225 862 Pls
1225 879 Pls
1225 881 Pls
1225 878 Pls
1225 921 Pls
1225 915 Pls
1225 919 Pls
1225 922 Pls
1225 952 Pls
1225 971 Pls
1225 949 Pls
1225 974 Pls
1225 990 Pls
1225 1016 Pls
1225 1002 Pls
1225 1017 Pls
1225 946 Pls
1225 928 Pls
1225 1017 Pls
1225 1017 Pls
1225 924 Pls
1225 947 Pls
1225 945 Pls
1225 967 Pls
1225 883 Pls
1225 886 Pls
1225 897 Pls
1225 913 Pls
1225 871 Pls
1225 860 Pls
1225 860 Pls
1225 871 Pls
1225 843 Pls
1225 847 Pls
1225 850 Pls
1225 850 Pls
1225 932 Pls
1225 971 Pls
1225 964 Pls
1225 962 Pls
1225 1104 Pls
1225 1060 Pls
1225 1078 Pls
1225 1063 Pls
1225 1251 Pls
1225 1252 Pls
1225 1216 Pls
1225 1279 Pls
1225 1378 Pls
1225 1356 Pls
1225 1420 Pls
1225 1468 Pls
1225 1556 Pls
1225 1544 Pls
1225 1509 Pls
1225 1618 Pls
1225 1053 Pls
1225 1111 Pls
1225 1157 Pls
1225 1194 Pls
1225 1060 Pls
1225 1129 Pls
1225 1070 Pls
1225 1099 Pls
1225 1060 Pls
1225 1011 Pls
1225 1032 Pls
1225 1048 Pls
1225 949 Pls
1225 987 Pls
1225 1027 Pls
1225 991 Pls
1225 902 Pls
1225 944 Pls
1225 954 Pls
1225 953 Pls
1225 1363 Pls
1225 1354 Pls
1225 1371 Pls
1225 1444 Pls
1225 1898 Pls
1225 1929 Pls
1225 1965 Pls
1225 2075 Pls
1225 2636 Pls
1225 2530 Pls
1225 2675 Pls
1225 2835 Pls
1225 2950 Pls
1225 3109 Pls
1225 3343 Pls
1225 3172 Pls
1225 3845 Pls
1225 3960 Pls
1225 3951 Pls
1225 4262 Pls
1916 803 Pls
1916 802 Pls
1916 802 Pls
1916 802 Pls
1916 801 Pls
1916 801 Pls
1916 801 Pls
1916 801 Pls
1916 801 Pls
1916 801 Pls
1916 801 Pls
1916 801 Pls
1916 800 Pls
1916 801 Pls
1916 801 Pls
1916 801 Pls
1916 800 Pls
1916 801 Pls
1916 801 Pls
1916 801 Pls
1916 801 Pls
1916 801 Pls
1916 801 Pls
1916 801 Pls
1916 801 Pls
1916 801 Pls
1916 801 Pls
1916 801 Pls
1916 801 Pls
1916 802 Pls
1916 802 Pls
1916 802 Pls
1916 802 Pls
1916 802 Pls
1916 802 Pls
1916 803 Pls
1916 802 Pls
1916 802 Pls
1916 803 Pls
1916 803 Pls
1916 812 Pls
1916 811 Pls
1916 818 Pls
1916 815 Pls
1916 810 Pls
1916 812 Pls
1916 813 Pls
1916 812 Pls
1916 808 Pls
1916 809 Pls
1916 811 Pls
1916 811 Pls
1916 808 Pls
1916 806 Pls
1916 807 Pls
1916 809 Pls
1916 805 Pls
1916 805 Pls
1916 806 Pls
1916 805 Pls
1916 808 Pls
1916 809 Pls
1916 810 Pls
1916 812 Pls
1916 815 Pls
1916 817 Pls
1916 817 Pls
1916 818 Pls
1916 823 Pls
1916 826 Pls
1916 827 Pls
1916 828 Pls
1916 830 Pls
1916 834 Pls
1916 832 Pls
1916 836 Pls
1916 840 Pls
1916 839 Pls
1916 839 Pls
1916 845 Pls
1916 838 Pls
1916 846 Pls
1916 854 Pls
1916 868 Pls
1916 852 Pls
1916 831 Pls
1916 841 Pls
1916 850 Pls
1916 827 Pls
1916 828 Pls
1916 833 Pls
1916 836 Pls
1916 823 Pls
1916 830 Pls
1916 820 Pls
1916 827 Pls
1916 818 Pls
1916 818 Pls
1916 820 Pls
1916 821 Pls
1916 844 Pls
1916 846 Pls
1916 848 Pls
1916 851 Pls
1916 875 Pls
1916 874 Pls
1916 894 Pls
1916 893 Pls
1916 922 Pls
1916 927 Pls
1916 921 Pls
1916 930 Pls
1916 943 Pls
1916 962 Pls
1916 965 Pls
1916 956 Pls
1916 990 Pls
1916 991 Pls
1916 1022 Pls
1916 1027 Pls
1916 920 Pls
1916 982 Pls
1916 977 Pls
1916 968 Pls
1916 900 Pls
1916 902 Pls
1916 937 Pls
1916 922 Pls
1916 870 Pls
1916 897 Pls
1916 922 Pls
1916 927 Pls
1916 873 Pls
1916 871 Pls
1916 869 Pls
1916 875 Pls
1916 833 Pls
1916 842 Pls
1916 850 Pls
1916 848 Pls
1916 956 Pls
1916 963 Pls
1916 970 Pls
1916 949 Pls
1916 1081 Pls
1916 1117 Pls
1916 1096 Pls
1916 1095 Pls
1916 1226 Pls
1916 1207 Pls
1916 1249 Pls
1916 1261 Pls
1916 1309 Pls
1916 1361 Pls
1916 1389 Pls
1916 1406 Pls
1916 1510 Pls
1916 1520 Pls
1916 1667 Pls
1916 1606 Pls
1916 1117 Pls
1916 1080 Pls
1916 1238 Pls
1916 1209 Pls
1916 1117 Pls
1916 1092 Pls
1916 1189 Pls
1916 1156 Pls
1916 1043 Pls
1916 1010 Pls
1916 1085 Pls
1916 1031 Pls
1916 973 Pls
1916 983 Pls
1916 1006 Pls
1916 1049 Pls
1916 916 Pls
1916 934 Pls
1916 909 Pls
1916 929 Pls
1916 1343 Pls
1916 1454 Pls
1916 1374 Pls
1916 1463 Pls
1916 2029 Pls
1916 1955 Pls
1916 1904 Pls
1916 1968 Pls
1916 2660 Pls
1916 2554 Pls
1916 2762 Pls
1916 2474 Pls
1916 3112 Pls
1916 3273 Pls
1916 3448 Pls
1916 3337 Pls
1916 3798 Pls
1916 4149 Pls
1916 4151 Pls
1916 4079 Pls
2606 802 Pls
2606 802 Pls
2606 801 Pls
2606 802 Pls
2606 801 Pls
2606 801 Pls
2606 801 Pls
2606 802 Pls
2606 801 Pls
2606 801 Pls
2606 801 Pls
2606 801 Pls
2606 801 Pls
2606 801 Pls
2606 801 Pls
2606 801 Pls
2606 800 Pls
2606 800 Pls
2606 800 Pls
2606 801 Pls
2606 801 Pls
2606 801 Pls
2606 801 Pls
2606 801 Pls
2606 801 Pls
2606 801 Pls
2606 801 Pls
2606 801 Pls
2606 801 Pls
2606 802 Pls
2606 802 Pls
2606 802 Pls
2606 802 Pls
2606 802 Pls
2606 802 Pls
2606 802 Pls
2606 802 Pls
2606 802 Pls
2606 803 Pls
2606 803 Pls
2606 811 Pls
2606 813 Pls
2606 815 Pls
2606 818 Pls
2606 813 Pls
2606 814 Pls
2606 809 Pls
2606 812 Pls
2606 808 Pls
2606 808 Pls
2606 807 Pls
2606 811 Pls
2606 806 Pls
2606 806 Pls
2606 806 Pls
2606 808 Pls
2606 805 Pls
2606 805 Pls
2606 805 Pls
2606 805 Pls
2606 809 Pls
2606 808 Pls
2606 810 Pls
2606 813 Pls
2606 817 Pls
2606 816 Pls
2606 819 Pls
2606 818 Pls
2606 825 Pls
2606 824 Pls
2606 828 Pls
2606 827 Pls
2606 829 Pls
2606 830 Pls
2606 835 Pls
2606 837 Pls
2606 838 Pls
2606 844 Pls
2606 845 Pls
2606 844 Pls
2606 845 Pls
2606 853 Pls
2606 866 Pls
2606 861 Pls
2606 841 Pls
2606 847 Pls
2606 841 Pls
2606 838 Pls
2606 828 Pls
2606 829 Pls
2606 829 Pls
2606 829 Pls
2606 828 Pls
2606 821 Pls
2606 829 Pls
2606 831 Pls
2606 818 Pls
2606 816 Pls
2606 818 Pls
2606 817 Pls
2606 845 Pls
2606 847 Pls
2606 843 Pls
2606 850 Pls
2606 876 Pls
2606 883 Pls
2606 877 Pls
2606 886 Pls
2606 912 Pls
2606 919 Pls
2606 932 Pls
2606 921 Pls
2606 946 Pls
2606 951 Pls
2606 966 Pls
2606 960 Pls
2606 993 Pls
2606 991 Pls
2606 1004 Pls
2606 1026 Pls
2606 965 Pls
2606 946 Pls
2606 981 Pls
2606 983 Pls
2606 897 Pls
2606 928 Pls
2606 982 Pls
2606 946 Pls
2606 894 Pls
2606 888 Pls
2606 882 Pls
2606 905 Pls
2606 880 Pls
2606 852 Pls
2606 888 Pls
2606 888 Pls
2606 845 Pls
2606 850 Pls
2606 841 Pls
2606 860 Pls
2606 948 Pls
2606 955 Pls
2606 955 Pls
2606 973 Pls
2606 1089 Pls
2606 1090 Pls
2606 1065 Pls
2606 1102 Pls
2606 1167 Pls
2606 1196 Pls
2606 1210 Pls
2606 1212 Pls
2606 1418 Pls
2606 1369 Pls
2606 1394 Pls
2606 1405 Pls
2606 1461 Pls
2606 1540 Pls
2606 1538 Pls
2606 1570 Pls
2606 1076 Pls
2606 1282 Pls
2606 1155 Pls
2606 1241 Pls
2606 1028 Pls
2606 1137 Pls
2606 1111 Pls
2606 1168 Pls
2606 981 Pls
2606 1005 Pls
2606 1059 Pls
2606 1038 Pls
2606 970 Pls
2606 960 Pls
2606 967 Pls
2606 1025 Pls
2606 898 Pls
2606 890 Pls
2606 938 Pls
2606 952 Pls
2606 1319 Pls
2606 1438 Pls
2606 1339 Pls
2606 1480 Pls
2606 1983 Pls
2606 1949 Pls
2606 1855 Pls
2606 2015 Pls
2606 2540 Pls
2606 2629 Pls
2606 2522 Pls
2606 2737 Pls
2606 3178 Pls
2606 3099 Pls
2606 3193 Pls
2606 3129 Pls
2606 4188 Pls
2606 4208 Pls
2606 4067 Pls
2606 4202 Pls
3297 801 Pls
3297 801 Pls
3297 802 Pls
3297 802 Pls
3297 801 Pls
3297 801 Pls
3297 801 Pls
3297 801 Pls
3297 801 Pls
3297 801 Pls
3297 801 Pls
3297 801 Pls
3297 800 Pls
3297 801 Pls
3297 801 Pls
3297 801 Pls
3297 800 Pls
3297 800 Pls
3297 800 Pls
3297 800 Pls
3297 801 Pls
3297 801 Pls
3297 801 Pls
3297 801 Pls
3297 801 Pls
3297 801 Pls
3297 801 Pls
3297 802 Pls
3297 801 Pls
3297 802 Pls
3297 802 Pls
3297 802 Pls
3297 802 Pls
3297 802 Pls
3297 802 Pls
3297 802 Pls
3297 802 Pls
3297 802 Pls
3297 803 Pls
3297 803 Pls
3297 814 Pls
3297 814 Pls
3297 814 Pls
3297 820 Pls
3297 808 Pls
3297 811 Pls
3297 811 Pls
3297 812 Pls
3297 807 Pls
3297 807 Pls
3297 809 Pls
3297 810 Pls
3297 805 Pls
3297 805 Pls
3297 808 Pls
3297 808 Pls
3297 804 Pls
3297 804 Pls
3297 807 Pls
3297 805 Pls
3297 811 Pls
3297 809 Pls
3297 810 Pls
3297 810 Pls
3297 820 Pls
3297 818 Pls
3297 817 Pls
3297 820 Pls
3297 823 Pls
3297 822 Pls
3297 826 Pls
3297 826 Pls
3297 827 Pls
3297 831 Pls
3297 836 Pls
3297 835 Pls
3297 840 Pls
3297 834 Pls
3297 842 Pls
3297 840 Pls
3297 847 Pls
3297 843 Pls
3297 848 Pls
3297 870 Pls
3297 837 Pls
3297 847 Pls
3297 838 Pls
3297 842 Pls
3297 832 Pls
3297 827 Pls
3297 840 Pls
3297 840 Pls
3297 822 Pls
3297 826 Pls
3297 824 Pls
3297 824 Pls
3297 819 Pls
3297 817 Pls
3297 816 Pls
3297 819 Pls
3297 840 Pls
3297 847 Pls
3297 848 Pls
3297 845 Pls
3297 878 Pls
3297 887 Pls
3297 888 Pls
3297 887 Pls
3297 892 Pls
3297 909 Pls
3297 925 Pls
3297 923 Pls
3297 966 Pls
3297 952 Pls
3297 952 Pls
3297 962 Pls
3297 993 Pls
3297 1015 Pls
3297 992 Pls
3297 1030 Pls
3297 952 Pls
3297 988 Pls
3297 958 Pls
3297 1018 Pls
3297 943 Pls
3297 942 Pls
3297 959 Pls
3297 942 Pls
3297 886 Pls
3297 904 Pls
3297 907 Pls
3297 928 Pls
3297 876 Pls
3297 868 Pls
3297 878 Pls
3297 878 Pls
3297 843 Pls
3297 840 Pls
3297 844 Pls
3297 845 Pls
3297 960 Pls
3297 968 Pls
3297 969 Pls
3297 962 Pls
3297 1095 Pls
3297 1080 Pls
3297 1082 Pls
3297 1047 Pls
3297 1245 Pls
3297 1231 Pls
3297 1247 Pls
3297 1266 Pls
3297 1373 Pls
3297 1411 Pls
3297 1425 Pls
3297 1377 Pls
3297 1543 Pls
3297 1523 Pls
3297 1475 Pls
3297 1553 Pls
3297 1100 Pls
3297 1129 Pls
3297 1147 Pls
3297 1299 Pls
3297 1024 Pls
3297 1063 Pls
3297 1102 Pls
3297 1109 Pls
3297 969 Pls
3297 1070 Pls
3297 1046 Pls
3297 1030 Pls
3297 928 Pls
3297 1017 Pls
3297 971 Pls
3297 1012 Pls
3297 912 Pls
3297 914 Pls
3297 915 Pls
3297 918 Pls
3297 1377 Pls
3297 1412 Pls
3297 1379 Pls
3297 1358 Pls
3297 2038 Pls
3297 2040 Pls
3297 2115 Pls
3297 2240 Pls
3297 2471 Pls
3297 2608 Pls
3297 2417 Pls
3297 2557 Pls
3297 3179 Pls
3297 2987 Pls
3297 3321 Pls
3297 3424 Pls
3297 4228 Pls
3297 4357 Pls
3297 4126 Pls
3297 4353 Pls
3987 803 Pls
3987 801 Pls
3987 801 Pls
3987 802 Pls
3987 801 Pls
3987 801 Pls
3987 801 Pls
3987 802 Pls
3987 801 Pls
3987 801 Pls
3987 801 Pls
3987 801 Pls
3987 800 Pls
3987 801 Pls
3987 801 Pls
3987 801 Pls
3987 801 Pls
3987 800 Pls
3987 800 Pls
3987 800 Pls
3987 800 Pls
3987 801 Pls
3987 801 Pls
3987 801 Pls
3987 801 Pls
3987 801 Pls
3987 801 Pls
3987 801 Pls
3987 801 Pls
3987 802 Pls
3987 802 Pls
3987 802 Pls
3987 802 Pls
3987 802 Pls
3987 802 Pls
3987 803 Pls
3987 802 Pls
3987 803 Pls
3987 803 Pls
3987 803 Pls
3987 811 Pls
3987 816 Pls
3987 814 Pls
3987 815 Pls
3987 809 Pls
3987 811 Pls
3987 810 Pls
3987 813 Pls
3987 806 Pls
3987 809 Pls
3987 808 Pls
3987 809 Pls
3987 805 Pls
3987 808 Pls
3987 808 Pls
3987 808 Pls
3987 804 Pls
3987 804 Pls
3987 807 Pls
3987 805 Pls
3987 810 Pls
3987 809 Pls
3987 809 Pls
3987 810 Pls
3987 818 Pls
3987 816 Pls
3987 818 Pls
3987 818 Pls
3987 823 Pls
3987 825 Pls
3987 825 Pls
3987 826 Pls
3987 835 Pls
3987 831 Pls
3987 833 Pls
3987 837 Pls
3987 837 Pls
3987 842 Pls
3987 842 Pls
3987 846 Pls
3987 846 Pls
3987 851 Pls
3987 853 Pls
3987 867 Pls
3987 837 Pls
3987 849 Pls
3987 849 Pls
3987 847 Pls
3987 833 Pls
3987 837 Pls
3987 828 Pls
3987 832 Pls
3987 822 Pls
3987 821 Pls
3987 824 Pls
3987 826 Pls
3987 812 Pls
3987 819 Pls
3987 815 Pls
3987 815 Pls
3987 843 Pls
3987 848 Pls
3987 843 Pls
3987 849 Pls
3987 881 Pls
3987 884 Pls
3987 884 Pls
3987 889 Pls
3987 915 Pls
3987 916 Pls
3987 917 Pls
3987 929 Pls
3987 967 Pls
3987 948 Pls
3987 950 Pls
3987 966 Pls
3987 999 Pls
3987 984 Pls
3987 977 Pls
3987 1031 Pls
3987 924 Pls
3987 975 Pls
3987 949 Pls
3987 993 Pls
3987 913 Pls
3987 888 Pls
3987 950 Pls
3987 944 Pls
3987 865 Pls
3987 913 Pls
3987 913 Pls
3987 933 Pls
3987 857 Pls
3987 863 Pls
3987 877 Pls
3987 864 Pls
3987 842 Pls
3987 842 Pls
3987 844 Pls
3987 840 Pls
3987 949 Pls
3987 953 Pls
3987 960 Pls
3987 955 Pls
3987 1081 Pls
3987 1080 Pls
3987 1111 Pls
3987 1119 Pls
3987 1214 Pls
3987 1163 Pls
3987 1280 Pls
3987 1250 Pls
3987 1339 Pls
3987 1347 Pls
3987 1396 Pls
3987 1418 Pls
3987 1511 Pls
3987 1516 Pls
3987 1540 Pls
3987 1625 Pls
3987 1139 Pls
3987 1150 Pls
3987 1204 Pls
3987 1196 Pls
3987 1116 Pls
3987 1124 Pls
3987 1197 Pls
3987 1122 Pls
3987 1020 Pls
3987 1083 Pls
3987 1060 Pls
3987 1051 Pls
3987 998 Pls
3987 990 Pls
3987 998 Pls
3987 1022 Pls
3987 893 Pls
3987 936 Pls
3987 906 Pls
3987 885 Pls
3987 1365 Pls
3987 1346 Pls
3987 1327 Pls
3987 1366 Pls
3987 1926 Pls
3987 1922 Pls
3987 1942 Pls
3987 1932 Pls
3987 2729 Pls
3987 2604 Pls
3987 2630 Pls
3987 2622 Pls
3987 3598 Pls
3987 3076 Pls
3987 3287 Pls
3987 3296 Pls
3987 3872 Pls
3987 4152 Pls
3987 3814 Pls
3987 4029 Pls
4678 803 Pls
4678 802 Pls
4678 802 Pls
4678 802 Pls
4678 801 Pls
4678 801 Pls
4678 801 Pls
4678 801 Pls
4678 801 Pls
4678 801 Pls
4678 801 Pls
4678 802 Pls
4678 800 Pls
4678 800 Pls
4678 801 Pls
4678 801 Pls
4678 800 Pls
4678 800 Pls
4678 800 Pls
4678 800 Pls
4678 801 Pls
4678 801 Pls
4678 801 Pls
4678 801 Pls
4678 801 Pls
4678 801 Pls
4678 801 Pls
4678 801 Pls
4678 801 Pls
4678 801 Pls
4678 802 Pls
4678 802 Pls
4678 802 Pls
4678 802 Pls
4678 802 Pls
4678 802 Pls
4678 802 Pls
4678 802 Pls
4678 803 Pls
4678 803 Pls
4678 813 Pls
4678 814 Pls
4678 815 Pls
4678 817 Pls
4678 810 Pls
4678 811 Pls
4678 812 Pls
4678 811 Pls
4678 810 Pls
4678 808 Pls
4678 808 Pls
4678 814 Pls
4678 806 Pls
4678 806 Pls
4678 807 Pls
4678 807 Pls
4678 804 Pls
4678 805 Pls
4678 804 Pls
4678 804 Pls
4678 810 Pls
4678 811 Pls
4678 810 Pls
4678 810 Pls
4678 817 Pls
4678 817 Pls
4678 818 Pls
4678 818 Pls
4678 821 Pls
4678 827 Pls
4678 827 Pls
4678 827 Pls
4678 831 Pls
4678 830 Pls
4678 833 Pls
4678 835 Pls
4678 841 Pls
4678 841 Pls
4678 844 Pls
4678 843 Pls
4678 849 Pls
4678 855 Pls
4678 868 Pls
4678 858 Pls
4678 833 Pls
4678 835 Pls
4678 844 Pls
4678 837 Pls
4678 835 Pls
4678 829 Pls
4678 836 Pls
4678 848 Pls
4678 823 Pls
4678 819 Pls
4678 828 Pls
4678 825 Pls
4678 815 Pls
4678 819 Pls
4678 814 Pls
4678 817 Pls
4678 832 Pls
4678 844 Pls
4678 847 Pls
4678 852 Pls
4678 885 Pls
4678 877 Pls
4678 881 Pls
4678 886 Pls
4678 921 Pls
4678 913 Pls
4678 901 Pls
4678 916 Pls
4678 953 Pls
4678 939 Pls
4678 952 Pls
4678 960 Pls
4678 1021 Pls
4678 1010 Pls
4678 1013 Pls
4678 1030 Pls
4678 921 Pls
4678 934 Pls
4678 944 Pls
4678 968 Pls
4678 947 Pls
4678 929 Pls
4678 943 Pls
4678 992 Pls
4678 879 Pls
4678 881 Pls
4678 913 Pls
4678 907 Pls
4678 865 Pls
4678 875 Pls
4678 892 Pls
4678 886 Pls
4678 837 Pls
4678 847 Pls
4678 849 Pls
4678 842 Pls
4678 927 Pls
4678 959 Pls
4678 959 Pls
4678 965 Pls
4678 1041 Pls
4678 1063 Pls
4678 1098 Pls
4678 1089 Pls
4678 1181 Pls
4678 1237 Pls
4678 1272 Pls
4678 1274 Pls
4678 1330 Pls
4678 1382 Pls
4678 1412 Pls
4678 1452 Pls
4678 1521 Pls
4678 1562 Pls
4678 1604 Pls
4678 1632 Pls
4678 1129 Pls
4678 1155 Pls
4678 1250 Pls
4678 1205 Pls
4678 1102 Pls
4678 1133 Pls
4678 1221 Pls
4678 1117 Pls
4678 1041 Pls
4678 1037 Pls
4678 1118 Pls
4678 1083 Pls
4678 928 Pls
4678 981 Pls
4678 939 Pls
4678 1020 Pls
4678 926 Pls
4678 935 Pls
4678 947 Pls
4678 954 Pls
4678 1350 Pls
4678 1341 Pls
4678 1388 Pls
4678 1376 Pls
4678 1926 Pls
4678 1929 Pls
4678 2016 Pls
4678 2063 Pls
4678 2619 Pls
4678 2505 Pls
4678 2604 Pls
4678 2580 Pls
4678 3384 Pls
4678 3208 Pls
4678 3252 Pls
4678 3573 Pls
4678 3280 Pls
4678 4283 Pls
4678 3636 Pls
4678 3898 Pls
5368 801 Pls
5368 801 Pls
5368 802 Pls
5368 802 Pls
5368 801 Pls
5368 801 Pls
5368 801 Pls
5368 802 Pls
5368 801 Pls
5368 801 Pls
5368 801 Pls
5368 801 Pls
5368 801 Pls
5368 801 Pls
5368 801 Pls
5368 801 Pls
5368 800 Pls
5368 800 Pls
5368 801 Pls
5368 801 Pls
5368 801 Pls
5368 801 Pls
5368 801 Pls
5368 801 Pls
5368 801 Pls
5368 801 Pls
5368 801 Pls
5368 801 Pls
5368 801 Pls
5368 801 Pls
5368 802 Pls
5368 802 Pls
5368 802 Pls
5368 802 Pls
5368 802 Pls
5368 802 Pls
5368 802 Pls
5368 803 Pls
5368 803 Pls
5368 803 Pls
5368 814 Pls
5368 815 Pls
5368 813 Pls
5368 815 Pls
5368 812 Pls
5368 811 Pls
5368 812 Pls
5368 813 Pls
5368 808 Pls
5368 810 Pls
5368 809 Pls
5368 811 Pls
5368 806 Pls
5368 807 Pls
5368 809 Pls
5368 807 Pls
5368 805 Pls
5368 805 Pls
5368 805 Pls
5368 804 Pls
5368 810 Pls
5368 812 Pls
5368 811 Pls
5368 810 Pls
5368 815 Pls
5368 816 Pls
5368 820 Pls
5368 819 Pls
5368 826 Pls
5368 825 Pls
5368 824 Pls
5368 827 Pls
5368 830 Pls
5368 835 Pls
5368 831 Pls
5368 836 Pls
5368 837 Pls
5368 846 Pls
5368 840 Pls
5368 846 Pls
5368 851 Pls
5368 857 Pls
5368 857 Pls
5368 873 Pls
5368 839 Pls
5368 848 Pls
5368 848 Pls
5368 849 Pls
5368 832 Pls
5368 832 Pls
5368 826 Pls
5368 845 Pls
5368 824 Pls
5368 826 Pls
5368 822 Pls
5368 823 Pls
5368 819 Pls
5368 814 Pls
5368 820 Pls
5368 819 Pls
5368 837 Pls
5368 848 Pls
5368 846 Pls
5368 849 Pls
5368 876 Pls
5368 863 Pls
5368 887 Pls
5368 885 Pls
5368 894 Pls
5368 915 Pls
5368 916 Pls
5368 931 Pls
5368 970 Pls
5368 951 Pls
5368 971 Pls
5368 984 Pls
5368 1002 Pls
5368 992 Pls
5368 1009 Pls
5368 1004 Pls
5368 936 Pls
5368 974 Pls
5368 940 Pls
5368 995 Pls
5368 902 Pls
5368 928 Pls
5368 948 Pls
5368 979 Pls
5368 882 Pls
5368 913 Pls
5368 911 Pls
5368 930 Pls
5368 855 Pls
5368 866 Pls
5368 876 Pls
5368 882 Pls
5368 848 Pls
5368 843 Pls
5368 854 Pls
5368 862 Pls
5368 976 Pls
5368 960 Pls
5368 955 Pls
5368 968 Pls
5368 1031 Pls
5368 1086 Pls
5368 1070 Pls
5368 1081 Pls
5368 1188 Pls
5368 1185 Pls
5368 1258 Pls
5368 1229 Pls
5368 1369 Pls
5368 1361 Pls
5368 1390 Pls
5368 1430 Pls
5368 1572 Pls
5368 1518 Pls
5368 1535 Pls
5368 1605 Pls
5368 1122 Pls
5368 1103 Pls
5368 1188 Pls
5368 1224 Pls
5368 1048 Pls
5368 1113 Pls
5368 1186 Pls
5368 1154 Pls
5368 1020 Pls
5368 1057 Pls
5368 1084 Pls
5368 1024 Pls
5368 928 Pls
5368 978 Pls
5368 1069 Pls
5368 975 Pls
5368 919 Pls
5368 934 Pls
5368 915 Pls
5368 944 Pls
5368 1257 Pls
5368 1406 Pls
5368 1391 Pls
5368 1349 Pls
5368 1918 Pls
5368 2044 Pls
5368 1906 Pls
5368 1917 Pls
5368 2374 Pls
5368 2580 Pls
5368 2687 Pls
5368 2578 Pls
5368 3193 Pls
5368 3443 Pls
5368 3497 Pls
5368 3410 Pls
5368 4237 Pls
5368 3906 Pls
5368 3887 Pls
5368 3799 Pls
6059 803 Pls
6059 801 Pls
6059 802 Pls
6059 802 Pls
6059 801 Pls
6059 801 Pls
6059 801 Pls
6059 801 Pls
6059 801 Pls
6059 801 Pls
6059 801 Pls
6059 801 Pls
6059 800 Pls
6059 800 Pls
6059 801 Pls
6059 801 Pls
6059 800 Pls
6059 800 Pls
6059 801 Pls
6059 801 Pls
6059 800 Pls
6059 801 Pls
6059 801 Pls
6059 801 Pls
6059 801 Pls
6059 801 Pls
6059 801 Pls
6059 801 Pls
6059 801 Pls
6059 801 Pls
6059 802 Pls
6059 802 Pls
6059 802 Pls
6059 802 Pls
6059 802 Pls
6059 802 Pls
6059 802 Pls
6059 803 Pls
6059 803 Pls
6059 803 Pls
6059 812 Pls
6059 813 Pls
6059 817 Pls
6059 812 Pls
6059 810 Pls
6059 808 Pls
6059 813 Pls
6059 813 Pls
6059 807 Pls
6059 809 Pls
6059 810 Pls
6059 811 Pls
6059 805 Pls
6059 806 Pls
6059 808 Pls
6059 807 Pls
6059 803 Pls
6059 805 Pls
6059 804 Pls
6059 806 Pls
6059 810 Pls
6059 810 Pls
6059 811 Pls
6059 811 Pls
6059 815 Pls
6059 817 Pls
6059 818 Pls
6059 818 Pls
6059 826 Pls
6059 829 Pls
6059 826 Pls
6059 828 Pls
6059 831 Pls
6059 835 Pls
6059 834 Pls
6059 835 Pls
6059 841 Pls
6059 844 Pls
6059 842 Pls
6059 844 Pls
6059 849 Pls
6059 869 Pls
6059 856 Pls
6059 882 Pls
6059 836 Pls
6059 834 Pls
6059 849 Pls
6059 844 Pls
6059 837 Pls
6059 839 Pls
6059 847 Pls
6059 835 Pls
6059 827 Pls
6059 829 Pls
6059 827 Pls
6059 830 Pls
6059 815 Pls
6059 813 Pls
6059 817 Pls
6059 820 Pls
6059 848 Pls
6059 845 Pls
6059 846 Pls
6059 845 Pls
6059 876 Pls
6059 888 Pls
6059 885 Pls
6059 884 Pls
6059 921 Pls
6059 907 Pls
6059 906 Pls
6059 939 Pls
6059 937 Pls
6059 958 Pls
6059 957 Pls
6059 958 Pls
6059 998 Pls
6059 977 Pls
6059 1005 Pls
6059 1024 Pls
6059 944 Pls
6059 960 Pls
6059 958 Pls
6059 998 Pls
6059 948 Pls
6059 916 Pls
6059 909 Pls
6059 918 Pls
6059 888 Pls
6059 907 Pls
6059 897 Pls
6059 929 Pls
6059 870 Pls
6059 863 Pls
6059 873 Pls
6059 888 Pls
6059 840 Pls
6059 851 Pls
6059 852 Pls
6059 850 Pls
6059 952 Pls
6059 944 Pls
6059 937 Pls
6059 969 Pls
6059 1041 Pls
6059 1089 Pls
6059 1099 Pls
6059 1073 Pls
6059 1179 Pls
6059 1202 Pls
6059 1234 Pls
6059 1264 Pls
6059 1371 Pls
6059 1444 Pls
6059 1426 Pls
6059 1386 Pls
6059 1560 Pls
6059 1550 Pls
6059 1605 Pls
6059 1619 Pls
6059 1113 Pls
6059 1111 Pls
6059 1147 Pls
6059 1132 Pls
6059 1054 Pls
6059 1111 Pls
6059 1116 Pls
6059 1122 Pls
6059 1000 Pls
6059 1057 Pls
6059 1040 Pls
6059 1077 Pls
6059 945 Pls
6059 1026 Pls
6059 956 Pls
6059 989 Pls
6059 910 Pls
6059 908 Pls
6059 939 Pls
6059 935 Pls
6059 1307 Pls
6059 1372 Pls
6059 1481 Pls
6059 1261 Pls
6059 1877 Pls
6059 1831 Pls
6059 1884 Pls
6059 2111 Pls
6059 2534 Pls
6059 2635 Pls
6059 2780 Pls
6059 2740 Pls
6059 3131 Pls
6059 2944 Pls
6059 3078 Pls
6059 3531 Pls
6059 4009 Pls
6059 4100 Pls
6059 3802 Pls
6059 4026 Pls
6749 803 Pls
6749 802 Pls
6749 802 Pls
6749 802 Pls
6749 801 Pls
6749 801 Pls
6749 801 Pls
6749 802 Pls
6749 801 Pls
6749 801 Pls
6749 801 Pls
6749 801 Pls
6749 801 Pls
6749 801 Pls
6749 801 Pls
6749 801 Pls
6749 800 Pls
6749 801 Pls
6749 800 Pls
6749 800 Pls
6749 801 Pls
6749 801 Pls
6749 801 Pls
6749 801 Pls
6749 801 Pls
6749 801 Pls
6749 801 Pls
6749 801 Pls
6749 801 Pls
6749 801 Pls
6749 802 Pls
6749 802 Pls
6749 802 Pls
6749 802 Pls
6749 802 Pls
6749 803 Pls
6749 802 Pls
6749 802 Pls
6749 803 Pls
6749 803 Pls
6749 811 Pls
6749 812 Pls
6749 813 Pls
6749 819 Pls
6749 810 Pls
6749 810 Pls
6749 813 Pls
6749 812 Pls
6749 807 Pls
6749 809 Pls
6749 809 Pls
6749 809 Pls
6749 807 Pls
6749 807 Pls
6749 807 Pls
6749 808 Pls
6749 804 Pls
6749 805 Pls
6749 805 Pls
6749 805 Pls
6749 808 Pls
6749 809 Pls
6749 809 Pls
6749 811 Pls
6749 815 Pls
6749 819 Pls
6749 817 Pls
6749 818 Pls
6749 823 Pls
6749 824 Pls
6749 826 Pls
6749 827 Pls
6749 830 Pls
6749 834 Pls
6749 833 Pls
6749 835 Pls
6749 838 Pls
6749 840 Pls
6749 842 Pls
6749 848 Pls
6749 849 Pls
6749 847 Pls
6749 861 Pls
6749 886 Pls
6749 832 Pls
6749 840 Pls
6749 838 Pls
6749 842 Pls
6749 835 Pls
6749 842 Pls
6749 840 Pls
6749 835 Pls
6749 824 Pls
6749 826 Pls
6749 826 Pls
6749 829 Pls
6749 819 Pls
6749 820 Pls
6749 815 Pls
6749 822 Pls
6749 849 Pls
6749 841 Pls
6749 846 Pls
6749 844 Pls
6749 876 Pls
6749 882 Pls
6749 872 Pls
6749 878 Pls
6749 906 Pls
6749 911 Pls
6749 923 Pls
6749 923 Pls
6749 940 Pls
6749 953 Pls
6749 977 Pls
6749 962 Pls
6749 1004 Pls
6749 1001 Pls
6749 1002 Pls
6749 1020 Pls
6749 934 Pls
6749 957 Pls
6749 969 Pls
6749 981 Pls
6749 902 Pls
6749 917 Pls
6749 925 Pls
6749 977 Pls
6749 870 Pls
6749 873 Pls
6749 896 Pls
6749 887 Pls
6749 849 Pls
6749 863 Pls
6749 874 Pls
6749 881 Pls
6749 852 Pls
6749 851 Pls
6749 846 Pls
6749 852 Pls
6749 954 Pls
6749 965 Pls
6749 955 Pls
6749 970 Pls
6749 1103 Pls
6749 1041 Pls
6749 1048 Pls
6749 1084 Pls
6749 1157 Pls
6749 1237 Pls
6749 1289 Pls
6749 1211 Pls
6749 1318 Pls
6749 1394 Pls
6749 1429 Pls
6749 1402 Pls
6749 1527 Pls
6749 1565 Pls
6749 1429 Pls
6749 1626 Pls
6749 1115 Pls
6749 1252 Pls
6749 1164 Pls
6749 1198 Pls
6749 1032 Pls
6749 991 Pls
6749 1024 Pls
6749 1156 Pls
6749 1014 Pls
6749 996 Pls
6749 1035 Pls
6749 1024 Pls
6749 997 Pls
6749 969 Pls
6749 962 Pls
6749 980 Pls
6749 913 Pls
6749 894 Pls
6749 919 Pls
6749 896 Pls
6749 1384 Pls
6749 1412 Pls
6749 1336 Pls
6749 1349 Pls
6749 1871 Pls
6749 1914 Pls
6749 1816 Pls
6749 1898 Pls
6749 2244 Pls
6749 2424 Pls
6749 2587 Pls
6749 2575 Pls
6749 3045 Pls
6749 3360 Pls
6749 3492 Pls
6749 3353 Pls
6749 3870 Pls
6749 3818 Pls
6749 3925 Pls
6749 3879 Pls
% End plot #1
% Begin plot #2
1.000 UL
LT1
LCb setrgbcolor
5636 4551 M
[ [(Helvetica) 250.0 0.0 true true 0 (Average)]
] -83.3 MRshow
LT1
5786 4551 M
663 0 V
1225 1082 M
691 4 V
690 -3 V
691 5 V
690 -5 V
691 -1 V
690 1 V
691 -3 V
690 -7 V
% End plot #2
% Begin plot #3
stroke
LT2
LCb setrgbcolor
5636 4301 M
[ [(Helvetica) 250.0 0.0 true true 0 (Min)]
] -83.3 MRshow
LT2
5786 4301 M
663 0 V
1225 800 M
691 0 V
690 0 V
691 0 V
690 0 V
691 0 V
690 0 V
691 0 V
690 0 V
% End plot #3
% Begin plot #4
stroke
LT3
LCb setrgbcolor
5636 4051 M
[ [(Helvetica) 250.0 0.0 true true 0 (Max)]
] -83.3 MRshow
LT3
5786 4051 M
663 0 V
1225 4262 M
691 -111 V
690 57 V
691 149 V
690 -205 V
691 131 V
690 -46 V
691 -137 V
690 -175 V
% End plot #4
stroke
LTb
1225 4739 N
0 -3939 V
5524 0 V
0 3939 V
-5524 0 V
Z stroke
1.000 UP
1.000 UL
LTb
stroke
grestore
end
showpage
%%Trailer
%%DocumentFonts: Helvetica
