%!PS-Adobe-2.0 EPSF-2.0
%%Title: n_noise_ratio.recall.eps
%%Creator: gnuplot 4.4 patchlevel 3
%%CreationDate: Tue Jun  4 13:11:09 2013
%%DocumentFonts: (atend)
%%BoundingBox: 50 50 410 302
%%EndComments
%%BeginProlog
/gnudict 256 dict def
gnudict begin
%
% The following true/false flags may be edited by hand if desired.
% The unit line width and grayscale image gamma correction may also be changed.
%
/Color true def
/Blacktext false def
/Solid false def
/Dashlength 1 def
/Landscape false def
/Level1 false def
/Rounded false def
/ClipToBoundingBox false def
/TransparentPatterns false def
/gnulinewidth 5.000 def
/userlinewidth gnulinewidth def
/Gamma 1.0 def
%
/vshift -83 def
/dl1 {
  10.0 Dashlength mul mul
  Rounded { currentlinewidth 0.75 mul sub dup 0 le { pop 0.01 } if } if
} def
/dl2 {
  10.0 Dashlength mul mul
  Rounded { currentlinewidth 0.75 mul add } if
} def
/hpt_ 31.5 def
/vpt_ 31.5 def
/hpt hpt_ def
/vpt vpt_ def
Level1 {} {
/SDict 10 dict def
systemdict /pdfmark known not {
  userdict /pdfmark systemdict /cleartomark get put
} if
SDict begin [
  /Title (n_noise_ratio.recall.eps)
  /Subject (gnuplot plot)
  /Creator (gnuplot 4.4 patchlevel 3)
  /Author (xjia)
%  /Producer (gnuplot)
%  /Keywords ()
  /CreationDate (Tue Jun  4 13:11:09 2013)
  /DOCINFO pdfmark
end
} ifelse
/doclip {
  ClipToBoundingBox {
    newpath 50 50 moveto 410 50 lineto 410 302 lineto 50 302 lineto closepath
    clip
  } if
} def
%
% Gnuplot Prolog Version 4.4 (August 2010)
%
%/SuppressPDFMark true def
%
/M {moveto} bind def
/L {lineto} bind def
/R {rmoveto} bind def
/V {rlineto} bind def
/N {newpath moveto} bind def
/Z {closepath} bind def
/C {setrgbcolor} bind def
/f {rlineto fill} bind def
/g {setgray} bind def
/Gshow {show} def   % May be redefined later in the file to support UTF-8
/vpt2 vpt 2 mul def
/hpt2 hpt 2 mul def
/Lshow {currentpoint stroke M 0 vshift R 
	Blacktext {gsave 0 setgray show grestore} {show} ifelse} def
/Rshow {currentpoint stroke M dup stringwidth pop neg vshift R
	Blacktext {gsave 0 setgray show grestore} {show} ifelse} def
/Cshow {currentpoint stroke M dup stringwidth pop -2 div vshift R 
	Blacktext {gsave 0 setgray show grestore} {show} ifelse} def
/UP {dup vpt_ mul /vpt exch def hpt_ mul /hpt exch def
  /hpt2 hpt 2 mul def /vpt2 vpt 2 mul def} def
/DL {Color {setrgbcolor Solid {pop []} if 0 setdash}
 {pop pop pop 0 setgray Solid {pop []} if 0 setdash} ifelse} def
/BL {stroke userlinewidth 2 mul setlinewidth
	Rounded {1 setlinejoin 1 setlinecap} if} def
/AL {stroke userlinewidth 2 div setlinewidth
	Rounded {1 setlinejoin 1 setlinecap} if} def
/UL {dup gnulinewidth mul /userlinewidth exch def
	dup 1 lt {pop 1} if 10 mul /udl exch def} def
/PL {stroke userlinewidth setlinewidth
	Rounded {1 setlinejoin 1 setlinecap} if} def
3.8 setmiterlimit
% Default Line colors
/LCw {1 1 1} def
/LCb {0 0 0} def
/LCa {0 0 0} def
/LC0 {1 0 0} def
/LC1 {0 1 0} def
/LC2 {0 0 1} def
/LC3 {1 0 1} def
/LC4 {0 1 1} def
/LC5 {1 1 0} def
/LC6 {0 0 0} def
/LC7 {1 0.3 0} def
/LC8 {0.5 0.5 0.5} def
% Default Line Types
/LTw {PL [] 1 setgray} def
/LTb {BL [] LCb DL} def
/LTa {AL [1 udl mul 2 udl mul] 0 setdash LCa setrgbcolor} def
/LT0 {PL [] LC0 DL} def
/LT1 {PL [4 dl1 2 dl2] LC1 DL} def
/LT2 {PL [2 dl1 3 dl2] LC2 DL} def
/LT3 {PL [1 dl1 1.5 dl2] LC3 DL} def
/LT4 {PL [6 dl1 2 dl2 1 dl1 2 dl2] LC4 DL} def
/LT5 {PL [3 dl1 3 dl2 1 dl1 3 dl2] LC5 DL} def
/LT6 {PL [2 dl1 2 dl2 2 dl1 6 dl2] LC6 DL} def
/LT7 {PL [1 dl1 2 dl2 6 dl1 2 dl2 1 dl1 2 dl2] LC7 DL} def
/LT8 {PL [2 dl1 2 dl2 2 dl1 2 dl2 2 dl1 2 dl2 2 dl1 4 dl2] LC8 DL} def
/Pnt {stroke [] 0 setdash gsave 1 setlinecap M 0 0 V stroke grestore} def
/Dia {stroke [] 0 setdash 2 copy vpt add M
  hpt neg vpt neg V hpt vpt neg V
  hpt vpt V hpt neg vpt V closepath stroke
  Pnt} def
/Pls {stroke [] 0 setdash vpt sub M 0 vpt2 V
  currentpoint stroke M
  hpt neg vpt neg R hpt2 0 V stroke
 } def
/Box {stroke [] 0 setdash 2 copy exch hpt sub exch vpt add M
  0 vpt2 neg V hpt2 0 V 0 vpt2 V
  hpt2 neg 0 V closepath stroke
  Pnt} def
/Crs {stroke [] 0 setdash exch hpt sub exch vpt add M
  hpt2 vpt2 neg V currentpoint stroke M
  hpt2 neg 0 R hpt2 vpt2 V stroke} def
/TriU {stroke [] 0 setdash 2 copy vpt 1.12 mul add M
  hpt neg vpt -1.62 mul V
  hpt 2 mul 0 V
  hpt neg vpt 1.62 mul V closepath stroke
  Pnt} def
/Star {2 copy Pls Crs} def
/BoxF {stroke [] 0 setdash exch hpt sub exch vpt add M
  0 vpt2 neg V hpt2 0 V 0 vpt2 V
  hpt2 neg 0 V closepath fill} def
/TriUF {stroke [] 0 setdash vpt 1.12 mul add M
  hpt neg vpt -1.62 mul V
  hpt 2 mul 0 V
  hpt neg vpt 1.62 mul V closepath fill} def
/TriD {stroke [] 0 setdash 2 copy vpt 1.12 mul sub M
  hpt neg vpt 1.62 mul V
  hpt 2 mul 0 V
  hpt neg vpt -1.62 mul V closepath stroke
  Pnt} def
/TriDF {stroke [] 0 setdash vpt 1.12 mul sub M
  hpt neg vpt 1.62 mul V
  hpt 2 mul 0 V
  hpt neg vpt -1.62 mul V closepath fill} def
/DiaF {stroke [] 0 setdash vpt add M
  hpt neg vpt neg V hpt vpt neg V
  hpt vpt V hpt neg vpt V closepath fill} def
/Pent {stroke [] 0 setdash 2 copy gsave
  translate 0 hpt M 4 {72 rotate 0 hpt L} repeat
  closepath stroke grestore Pnt} def
/PentF {stroke [] 0 setdash gsave
  translate 0 hpt M 4 {72 rotate 0 hpt L} repeat
  closepath fill grestore} def
/Circle {stroke [] 0 setdash 2 copy
  hpt 0 360 arc stroke Pnt} def
/CircleF {stroke [] 0 setdash hpt 0 360 arc fill} def
/C0 {BL [] 0 setdash 2 copy moveto vpt 90 450 arc} bind def
/C1 {BL [] 0 setdash 2 copy moveto
	2 copy vpt 0 90 arc closepath fill
	vpt 0 360 arc closepath} bind def
/C2 {BL [] 0 setdash 2 copy moveto
	2 copy vpt 90 180 arc closepath fill
	vpt 0 360 arc closepath} bind def
/C3 {BL [] 0 setdash 2 copy moveto
	2 copy vpt 0 180 arc closepath fill
	vpt 0 360 arc closepath} bind def
/C4 {BL [] 0 setdash 2 copy moveto
	2 copy vpt 180 270 arc closepath fill
	vpt 0 360 arc closepath} bind def
/C5 {BL [] 0 setdash 2 copy moveto
	2 copy vpt 0 90 arc
	2 copy moveto
	2 copy vpt 180 270 arc closepath fill
	vpt 0 360 arc} bind def
/C6 {BL [] 0 setdash 2 copy moveto
	2 copy vpt 90 270 arc closepath fill
	vpt 0 360 arc closepath} bind def
/C7 {BL [] 0 setdash 2 copy moveto
	2 copy vpt 0 270 arc closepath fill
	vpt 0 360 arc closepath} bind def
/C8 {BL [] 0 setdash 2 copy moveto
	2 copy vpt 270 360 arc closepath fill
	vpt 0 360 arc closepath} bind def
/C9 {BL [] 0 setdash 2 copy moveto
	2 copy vpt 270 450 arc closepath fill
	vpt 0 360 arc closepath} bind def
/C10 {BL [] 0 setdash 2 copy 2 copy moveto vpt 270 360 arc closepath fill
	2 copy moveto
	2 copy vpt 90 180 arc closepath fill
	vpt 0 360 arc closepath} bind def
/C11 {BL [] 0 setdash 2 copy moveto
	2 copy vpt 0 180 arc closepath fill
	2 copy moveto
	2 copy vpt 270 360 arc closepath fill
	vpt 0 360 arc closepath} bind def
/C12 {BL [] 0 setdash 2 copy moveto
	2 copy vpt 180 360 arc closepath fill
	vpt 0 360 arc closepath} bind def
/C13 {BL [] 0 setdash 2 copy moveto
	2 copy vpt 0 90 arc closepath fill
	2 copy moveto
	2 copy vpt 180 360 arc closepath fill
	vpt 0 360 arc closepath} bind def
/C14 {BL [] 0 setdash 2 copy moveto
	2 copy vpt 90 360 arc closepath fill
	vpt 0 360 arc} bind def
/C15 {BL [] 0 setdash 2 copy vpt 0 360 arc closepath fill
	vpt 0 360 arc closepath} bind def
/Rec {newpath 4 2 roll moveto 1 index 0 rlineto 0 exch rlineto
	neg 0 rlineto closepath} bind def
/Square {dup Rec} bind def
/Bsquare {vpt sub exch vpt sub exch vpt2 Square} bind def
/S0 {BL [] 0 setdash 2 copy moveto 0 vpt rlineto BL Bsquare} bind def
/S1 {BL [] 0 setdash 2 copy vpt Square fill Bsquare} bind def
/S2 {BL [] 0 setdash 2 copy exch vpt sub exch vpt Square fill Bsquare} bind def
/S3 {BL [] 0 setdash 2 copy exch vpt sub exch vpt2 vpt Rec fill Bsquare} bind def
/S4 {BL [] 0 setdash 2 copy exch vpt sub exch vpt sub vpt Square fill Bsquare} bind def
/S5 {BL [] 0 setdash 2 copy 2 copy vpt Square fill
	exch vpt sub exch vpt sub vpt Square fill Bsquare} bind def
/S6 {BL [] 0 setdash 2 copy exch vpt sub exch vpt sub vpt vpt2 Rec fill Bsquare} bind def
/S7 {BL [] 0 setdash 2 copy exch vpt sub exch vpt sub vpt vpt2 Rec fill
	2 copy vpt Square fill Bsquare} bind def
/S8 {BL [] 0 setdash 2 copy vpt sub vpt Square fill Bsquare} bind def
/S9 {BL [] 0 setdash 2 copy vpt sub vpt vpt2 Rec fill Bsquare} bind def
/S10 {BL [] 0 setdash 2 copy vpt sub vpt Square fill 2 copy exch vpt sub exch vpt Square fill
	Bsquare} bind def
/S11 {BL [] 0 setdash 2 copy vpt sub vpt Square fill 2 copy exch vpt sub exch vpt2 vpt Rec fill
	Bsquare} bind def
/S12 {BL [] 0 setdash 2 copy exch vpt sub exch vpt sub vpt2 vpt Rec fill Bsquare} bind def
/S13 {BL [] 0 setdash 2 copy exch vpt sub exch vpt sub vpt2 vpt Rec fill
	2 copy vpt Square fill Bsquare} bind def
/S14 {BL [] 0 setdash 2 copy exch vpt sub exch vpt sub vpt2 vpt Rec fill
	2 copy exch vpt sub exch vpt Square fill Bsquare} bind def
/S15 {BL [] 0 setdash 2 copy Bsquare fill Bsquare} bind def
/D0 {gsave translate 45 rotate 0 0 S0 stroke grestore} bind def
/D1 {gsave translate 45 rotate 0 0 S1 stroke grestore} bind def
/D2 {gsave translate 45 rotate 0 0 S2 stroke grestore} bind def
/D3 {gsave translate 45 rotate 0 0 S3 stroke grestore} bind def
/D4 {gsave translate 45 rotate 0 0 S4 stroke grestore} bind def
/D5 {gsave translate 45 rotate 0 0 S5 stroke grestore} bind def
/D6 {gsave translate 45 rotate 0 0 S6 stroke grestore} bind def
/D7 {gsave translate 45 rotate 0 0 S7 stroke grestore} bind def
/D8 {gsave translate 45 rotate 0 0 S8 stroke grestore} bind def
/D9 {gsave translate 45 rotate 0 0 S9 stroke grestore} bind def
/D10 {gsave translate 45 rotate 0 0 S10 stroke grestore} bind def
/D11 {gsave translate 45 rotate 0 0 S11 stroke grestore} bind def
/D12 {gsave translate 45 rotate 0 0 S12 stroke grestore} bind def
/D13 {gsave translate 45 rotate 0 0 S13 stroke grestore} bind def
/D14 {gsave translate 45 rotate 0 0 S14 stroke grestore} bind def
/D15 {gsave translate 45 rotate 0 0 S15 stroke grestore} bind def
/DiaE {stroke [] 0 setdash vpt add M
  hpt neg vpt neg V hpt vpt neg V
  hpt vpt V hpt neg vpt V closepath stroke} def
/BoxE {stroke [] 0 setdash exch hpt sub exch vpt add M
  0 vpt2 neg V hpt2 0 V 0 vpt2 V
  hpt2 neg 0 V closepath stroke} def
/TriUE {stroke [] 0 setdash vpt 1.12 mul add M
  hpt neg vpt -1.62 mul V
  hpt 2 mul 0 V
  hpt neg vpt 1.62 mul V closepath stroke} def
/TriDE {stroke [] 0 setdash vpt 1.12 mul sub M
  hpt neg vpt 1.62 mul V
  hpt 2 mul 0 V
  hpt neg vpt -1.62 mul V closepath stroke} def
/PentE {stroke [] 0 setdash gsave
  translate 0 hpt M 4 {72 rotate 0 hpt L} repeat
  closepath stroke grestore} def
/CircE {stroke [] 0 setdash 
  hpt 0 360 arc stroke} def
/Opaque {gsave closepath 1 setgray fill grestore 0 setgray closepath} def
/DiaW {stroke [] 0 setdash vpt add M
  hpt neg vpt neg V hpt vpt neg V
  hpt vpt V hpt neg vpt V Opaque stroke} def
/BoxW {stroke [] 0 setdash exch hpt sub exch vpt add M
  0 vpt2 neg V hpt2 0 V 0 vpt2 V
  hpt2 neg 0 V Opaque stroke} def
/TriUW {stroke [] 0 setdash vpt 1.12 mul add M
  hpt neg vpt -1.62 mul V
  hpt 2 mul 0 V
  hpt neg vpt 1.62 mul V Opaque stroke} def
/TriDW {stroke [] 0 setdash vpt 1.12 mul sub M
  hpt neg vpt 1.62 mul V
  hpt 2 mul 0 V
  hpt neg vpt -1.62 mul V Opaque stroke} def
/PentW {stroke [] 0 setdash gsave
  translate 0 hpt M 4 {72 rotate 0 hpt L} repeat
  Opaque stroke grestore} def
/CircW {stroke [] 0 setdash 
  hpt 0 360 arc Opaque stroke} def
/BoxFill {gsave Rec 1 setgray fill grestore} def
/Density {
  /Fillden exch def
  currentrgbcolor
  /ColB exch def /ColG exch def /ColR exch def
  /ColR ColR Fillden mul Fillden sub 1 add def
  /ColG ColG Fillden mul Fillden sub 1 add def
  /ColB ColB Fillden mul Fillden sub 1 add def
  ColR ColG ColB setrgbcolor} def
/BoxColFill {gsave Rec PolyFill} def
/PolyFill {gsave Density fill grestore grestore} def
/h {rlineto rlineto rlineto gsave closepath fill grestore} bind def
%
% PostScript Level 1 Pattern Fill routine for rectangles
% Usage: x y w h s a XX PatternFill
%	x,y = lower left corner of box to be filled
%	w,h = width and height of box
%	  a = angle in degrees between lines and x-axis
%	 XX = 0/1 for no/yes cross-hatch
%
/PatternFill {gsave /PFa [ 9 2 roll ] def
  PFa 0 get PFa 2 get 2 div add PFa 1 get PFa 3 get 2 div add translate
  PFa 2 get -2 div PFa 3 get -2 div PFa 2 get PFa 3 get Rec
  gsave 1 setgray fill grestore clip
  currentlinewidth 0.5 mul setlinewidth
  /PFs PFa 2 get dup mul PFa 3 get dup mul add sqrt def
  0 0 M PFa 5 get rotate PFs -2 div dup translate
  0 1 PFs PFa 4 get div 1 add floor cvi
	{PFa 4 get mul 0 M 0 PFs V} for
  0 PFa 6 get ne {
	0 1 PFs PFa 4 get div 1 add floor cvi
	{PFa 4 get mul 0 2 1 roll M PFs 0 V} for
 } if
  stroke grestore} def
%
/languagelevel where
 {pop languagelevel} {1} ifelse
 2 lt
	{/InterpretLevel1 true def}
	{/InterpretLevel1 Level1 def}
 ifelse
%
% PostScript level 2 pattern fill definitions
%
/Level2PatternFill {
/Tile8x8 {/PaintType 2 /PatternType 1 /TilingType 1 /BBox [0 0 8 8] /XStep 8 /YStep 8}
	bind def
/KeepColor {currentrgbcolor [/Pattern /DeviceRGB] setcolorspace} bind def
<< Tile8x8
 /PaintProc {0.5 setlinewidth pop 0 0 M 8 8 L 0 8 M 8 0 L stroke} 
>> matrix makepattern
/Pat1 exch def
<< Tile8x8
 /PaintProc {0.5 setlinewidth pop 0 0 M 8 8 L 0 8 M 8 0 L stroke
	0 4 M 4 8 L 8 4 L 4 0 L 0 4 L stroke}
>> matrix makepattern
/Pat2 exch def
<< Tile8x8
 /PaintProc {0.5 setlinewidth pop 0 0 M 0 8 L
	8 8 L 8 0 L 0 0 L fill}
>> matrix makepattern
/Pat3 exch def
<< Tile8x8
 /PaintProc {0.5 setlinewidth pop -4 8 M 8 -4 L
	0 12 M 12 0 L stroke}
>> matrix makepattern
/Pat4 exch def
<< Tile8x8
 /PaintProc {0.5 setlinewidth pop -4 0 M 8 12 L
	0 -4 M 12 8 L stroke}
>> matrix makepattern
/Pat5 exch def
<< Tile8x8
 /PaintProc {0.5 setlinewidth pop -2 8 M 4 -4 L
	0 12 M 8 -4 L 4 12 M 10 0 L stroke}
>> matrix makepattern
/Pat6 exch def
<< Tile8x8
 /PaintProc {0.5 setlinewidth pop -2 0 M 4 12 L
	0 -4 M 8 12 L 4 -4 M 10 8 L stroke}
>> matrix makepattern
/Pat7 exch def
<< Tile8x8
 /PaintProc {0.5 setlinewidth pop 8 -2 M -4 4 L
	12 0 M -4 8 L 12 4 M 0 10 L stroke}
>> matrix makepattern
/Pat8 exch def
<< Tile8x8
 /PaintProc {0.5 setlinewidth pop 0 -2 M 12 4 L
	-4 0 M 12 8 L -4 4 M 8 10 L stroke}
>> matrix makepattern
/Pat9 exch def
/Pattern1 {PatternBgnd KeepColor Pat1 setpattern} bind def
/Pattern2 {PatternBgnd KeepColor Pat2 setpattern} bind def
/Pattern3 {PatternBgnd KeepColor Pat3 setpattern} bind def
/Pattern4 {PatternBgnd KeepColor Landscape {Pat5} {Pat4} ifelse setpattern} bind def
/Pattern5 {PatternBgnd KeepColor Landscape {Pat4} {Pat5} ifelse setpattern} bind def
/Pattern6 {PatternBgnd KeepColor Landscape {Pat9} {Pat6} ifelse setpattern} bind def
/Pattern7 {PatternBgnd KeepColor Landscape {Pat8} {Pat7} ifelse setpattern} bind def
} def
%
%
%End of PostScript Level 2 code
%
/PatternBgnd {
  TransparentPatterns {} {gsave 1 setgray fill grestore} ifelse
} def
%
% Substitute for Level 2 pattern fill codes with
% grayscale if Level 2 support is not selected.
%
/Level1PatternFill {
/Pattern1 {0.250 Density} bind def
/Pattern2 {0.500 Density} bind def
/Pattern3 {0.750 Density} bind def
/Pattern4 {0.125 Density} bind def
/Pattern5 {0.375 Density} bind def
/Pattern6 {0.625 Density} bind def
/Pattern7 {0.875 Density} bind def
} def
%
% Now test for support of Level 2 code
%
Level1 {Level1PatternFill} {Level2PatternFill} ifelse
%
/Symbol-Oblique /Symbol findfont [1 0 .167 1 0 0] makefont
dup length dict begin {1 index /FID eq {pop pop} {def} ifelse} forall
currentdict end definefont pop
/MFshow {
   { dup 5 get 3 ge
     { 5 get 3 eq {gsave} {grestore} ifelse }
     {dup dup 0 get findfont exch 1 get scalefont setfont
     [ currentpoint ] exch dup 2 get 0 exch R dup 5 get 2 ne {dup dup 6
     get exch 4 get {Gshow} {stringwidth pop 0 R} ifelse }if dup 5 get 0 eq
     {dup 3 get {2 get neg 0 exch R pop} {pop aload pop M} ifelse} {dup 5
     get 1 eq {dup 2 get exch dup 3 get exch 6 get stringwidth pop -2 div
     dup 0 R} {dup 6 get stringwidth pop -2 div 0 R 6 get
     show 2 index {aload pop M neg 3 -1 roll neg R pop pop} {pop pop pop
     pop aload pop M} ifelse }ifelse }ifelse }
     ifelse }
   forall} def
/Gswidth {dup type /stringtype eq {stringwidth} {pop (n) stringwidth} ifelse} def
/MFwidth {0 exch { dup 5 get 3 ge { 5 get 3 eq { 0 } { pop } ifelse }
 {dup 3 get{dup dup 0 get findfont exch 1 get scalefont setfont
     6 get Gswidth pop add} {pop} ifelse} ifelse} forall} def
/MLshow { currentpoint stroke M
  0 exch R
  Blacktext {gsave 0 setgray MFshow grestore} {MFshow} ifelse } bind def
/MRshow { currentpoint stroke M
  exch dup MFwidth neg 3 -1 roll R
  Blacktext {gsave 0 setgray MFshow grestore} {MFshow} ifelse } bind def
/MCshow { currentpoint stroke M
  exch dup MFwidth -2 div 3 -1 roll R
  Blacktext {gsave 0 setgray MFshow grestore} {MFshow} ifelse } bind def
/XYsave    { [( ) 1 2 true false 3 ()] } bind def
/XYrestore { [( ) 1 2 true false 4 ()] } bind def
end
%%EndProlog
gnudict begin
gsave
doclip
50 50 translate
0.050 0.050 scale
0 setgray
newpath
(Helvetica) findfont 250 scalefont setfont
1.000 UL
LTb
1225 800 M
63 0 V
5461 0 R
-63 0 V
stroke
1075 800 M
[ [(Helvetica) 250.0 0.0 true true 0 ( 0)]
] -83.3 MRshow
1.000 UL
LTb
1225 1194 M
63 0 V
5461 0 R
-63 0 V
stroke
1075 1194 M
[ [(Helvetica) 250.0 0.0 true true 0 ( 0.1)]
] -83.3 MRshow
1.000 UL
LTb
1225 1588 M
63 0 V
5461 0 R
-63 0 V
stroke
1075 1588 M
[ [(Helvetica) 250.0 0.0 true true 0 ( 0.2)]
] -83.3 MRshow
1.000 UL
LTb
1225 1982 M
63 0 V
5461 0 R
-63 0 V
stroke
1075 1982 M
[ [(Helvetica) 250.0 0.0 true true 0 ( 0.3)]
] -83.3 MRshow
1.000 UL
LTb
1225 2376 M
63 0 V
5461 0 R
-63 0 V
stroke
1075 2376 M
[ [(Helvetica) 250.0 0.0 true true 0 ( 0.4)]
] -83.3 MRshow
1.000 UL
LTb
1225 2770 M
63 0 V
5461 0 R
-63 0 V
stroke
1075 2770 M
[ [(Helvetica) 250.0 0.0 true true 0 ( 0.5)]
] -83.3 MRshow
1.000 UL
LTb
1225 3163 M
63 0 V
5461 0 R
-63 0 V
stroke
1075 3163 M
[ [(Helvetica) 250.0 0.0 true true 0 ( 0.6)]
] -83.3 MRshow
1.000 UL
LTb
1225 3557 M
63 0 V
5461 0 R
-63 0 V
stroke
1075 3557 M
[ [(Helvetica) 250.0 0.0 true true 0 ( 0.7)]
] -83.3 MRshow
1.000 UL
LTb
1225 3951 M
63 0 V
5461 0 R
-63 0 V
stroke
1075 3951 M
[ [(Helvetica) 250.0 0.0 true true 0 ( 0.8)]
] -83.3 MRshow
1.000 UL
LTb
1225 4345 M
63 0 V
5461 0 R
-63 0 V
stroke
1075 4345 M
[ [(Helvetica) 250.0 0.0 true true 0 ( 0.9)]
] -83.3 MRshow
1.000 UL
LTb
1225 4739 M
63 0 V
5461 0 R
-63 0 V
stroke
1075 4739 M
[ [(Helvetica) 250.0 0.0 true true 0 ( 1)]
] -83.3 MRshow
1.000 UL
LTb
1225 800 M
0 63 V
0 3876 R
0 -63 V
stroke
1225 550 M
[ [(Helvetica) 250.0 0.0 true true 0 (-0.6)]
] -83.3 MCshow
1.000 UL
LTb
2146 800 M
0 63 V
0 3876 R
0 -63 V
stroke
2146 550 M
[ [(Helvetica) 250.0 0.0 true true 0 (-0.4)]
] -83.3 MCshow
1.000 UL
LTb
3066 800 M
0 63 V
0 3876 R
0 -63 V
stroke
3066 550 M
[ [(Helvetica) 250.0 0.0 true true 0 (-0.2)]
] -83.3 MCshow
1.000 UL
LTb
3987 800 M
0 63 V
0 3876 R
0 -63 V
stroke
3987 550 M
[ [(Helvetica) 250.0 0.0 true true 0 ( 0)]
] -83.3 MCshow
1.000 UL
LTb
4908 800 M
0 63 V
0 3876 R
0 -63 V
stroke
4908 550 M
[ [(Helvetica) 250.0 0.0 true true 0 ( 0.2)]
] -83.3 MCshow
1.000 UL
LTb
5828 800 M
0 63 V
0 3876 R
0 -63 V
stroke
5828 550 M
[ [(Helvetica) 250.0 0.0 true true 0 ( 0.4)]
] -83.3 MCshow
1.000 UL
LTb
6749 800 M
0 63 V
0 3876 R
0 -63 V
stroke
6749 550 M
[ [(Helvetica) 250.0 0.0 true true 0 ( 0.6)]
] -83.3 MCshow
1.000 UL
LTb
1.000 UL
LTb
1225 4739 N
0 -3939 V
5524 0 V
0 3939 V
-5524 0 V
Z stroke
LCb setrgbcolor
200 2769 M
currentpoint gsave translate -270 rotate 0 0 moveto
[ [(Helvetica) 250.0 0.0 true true 0 (Recall)]
] -83.3 MCshow
grestore
LTb
LCb setrgbcolor
3987 175 M
[ [(Helvetica) 250.0 0.0 true true 0 (Noise Ratio)]
] -83.3 MCshow
LTb
1.000 UP
1.000 UL
LTb
% Begin plot #1
1.000 UP
1.000 UL
LT0
1685 3388 Pls
1685 2391 Pls
1685 2015 Pls
1685 1700 Pls
2146 3367 Pls
2146 2174 Pls
2146 2383 Pls
2146 1764 Pls
2606 2878 Pls
2606 2194 Pls
2606 1717 Pls
2606 1649 Pls
3066 2776 Pls
3066 1931 Pls
3066 1617 Pls
3066 1595 Pls
3527 2428 Pls
3527 1684 Pls
3527 1452 Pls
3527 1146 Pls
4447 1489 Pls
4447 1544 Pls
4447 1194 Pls
4447 1111 Pls
4908 1883 Pls
4908 1369 Pls
4908 1588 Pls
4908 1215 Pls
5368 2770 Pls
5368 1500 Pls
5368 1728 Pls
5368 1629 Pls
5828 2868 Pls
5828 1675 Pls
5828 1560 Pls
5828 1816 Pls
6289 2966 Pls
6289 1982 Pls
6289 2010 Pls
6289 1774 Pls
1685 3860 Pls
1685 2797 Pls
1685 2348 Pls
1685 2024 Pls
2146 3702 Pls
2146 2344 Pls
2146 1977 Pls
2146 1760 Pls
2606 3823 Pls
2606 2621 Pls
2606 1761 Pls
2606 1759 Pls
3066 3054 Pls
3066 2168 Pls
3066 1856 Pls
3066 1656 Pls
3527 2753 Pls
3527 1716 Pls
3527 1531 Pls
3527 1356 Pls
4447 1686 Pls
4447 1894 Pls
4447 1532 Pls
4447 1318 Pls
4908 2770 Pls
4908 2244 Pls
4908 1616 Pls
4908 1733 Pls
5368 2966 Pls
5368 2551 Pls
5368 2151 Pls
5368 2023 Pls
5828 3360 Pls
5828 2770 Pls
5828 2460 Pls
5828 2417 Pls
6289 3853 Pls
6289 2813 Pls
6289 2488 Pls
6289 2645 Pls
1685 4189 Pls
1685 3080 Pls
1685 2174 Pls
1685 1875 Pls
2146 3200 Pls
2146 2595 Pls
2146 2225 Pls
2146 1853 Pls
2606 3553 Pls
2606 2862 Pls
2606 2270 Pls
2606 1426 Pls
3066 3495 Pls
3066 2842 Pls
3066 2110 Pls
3066 1483 Pls
3527 2930 Pls
3527 2154 Pls
3527 1991 Pls
3527 1765 Pls
4447 2770 Pls
4447 1763 Pls
4447 1672 Pls
4447 1671 Pls
4908 3557 Pls
4908 1982 Pls
4908 2122 Pls
4908 1878 Pls
5368 3262 Pls
5368 3207 Pls
5368 2573 Pls
5368 2707 Pls
5828 4345 Pls
5828 2945 Pls
5828 2966 Pls
5828 2438 Pls
6289 3853 Pls
6289 3207 Pls
6289 3192 Pls
6289 3101 Pls
1685 3786 Pls
1685 3180 Pls
1685 2353 Pls
1685 2043 Pls
2146 4061 Pls
2146 2811 Pls
2146 2202 Pls
2146 1877 Pls
2606 3550 Pls
2606 2904 Pls
2606 2154 Pls
2606 2077 Pls
3066 3829 Pls
3066 2749 Pls
3066 2171 Pls
3066 1736 Pls
3527 3327 Pls
3527 2189 Pls
3527 1653 Pls
3527 1859 Pls
4447 2966 Pls
4447 2201 Pls
4447 1672 Pls
4447 1567 Pls
4908 3459 Pls
4908 2507 Pls
4908 2235 Pls
4908 2168 Pls
5368 4050 Pls
5368 3120 Pls
5368 2995 Pls
5368 2438 Pls
5828 3853 Pls
5828 3295 Pls
5828 3079 Pls
5828 2894 Pls
6289 4148 Pls
6289 3557 Pls
6289 3023 Pls
6289 3433 Pls
1685 3786 Pls
1685 2864 Pls
1685 2578 Pls
1685 1864 Pls
2146 3477 Pls
2146 3097 Pls
2146 2544 Pls
2146 1942 Pls
2606 3710 Pls
2606 2915 Pls
2606 2301 Pls
2606 1818 Pls
3066 3626 Pls
3066 2055 Pls
3066 2296 Pls
3066 1841 Pls
3527 3346 Pls
3527 2525 Pls
3527 1900 Pls
3527 1446 Pls
4447 2770 Pls
4447 2244 Pls
4447 1728 Pls
4447 1961 Pls
4908 3951 Pls
4908 2945 Pls
4908 2516 Pls
4908 2521 Pls
5368 4444 Pls
5368 3338 Pls
5368 3163 Pls
5368 2624 Pls
5828 3557 Pls
5828 3864 Pls
5828 3360 Pls
5828 3184 Pls
6289 4641 Pls
6289 3907 Pls
6289 3388 Pls
6289 3371 Pls
1685 3017 Pls
1685 2447 Pls
1685 2114 Pls
1685 1520 Pls
2146 3180 Pls
2146 2246 Pls
2146 2077 Pls
2146 1765 Pls
2606 3234 Pls
2606 2347 Pls
2606 1734 Pls
2606 1756 Pls
3066 2421 Pls
3066 2177 Pls
3066 1568 Pls
3066 1475 Pls
3527 2468 Pls
3527 1749 Pls
3527 1547 Pls
3527 1162 Pls
4447 1785 Pls
4447 1281 Pls
4447 1278 Pls
4447 1152 Pls
4908 1686 Pls
4908 1456 Pls
4908 1335 Pls
4908 1256 Pls
5368 2277 Pls
5368 1719 Pls
5368 1560 Pls
5368 1277 Pls
5828 2868 Pls
5828 1588 Pls
5828 1278 Pls
5828 1318 Pls
6289 2770 Pls
6289 1763 Pls
6289 1475 Pls
6289 1671 Pls
1685 4140 Pls
1685 2506 Pls
1685 1921 Pls
1685 1988 Pls
2146 3653 Pls
2146 2748 Pls
2146 2122 Pls
2146 1649 Pls
2606 3480 Pls
2606 2525 Pls
2606 1770 Pls
2606 1659 Pls
3066 3280 Pls
3066 2485 Pls
3066 1686 Pls
3066 1442 Pls
3527 2846 Pls
3527 1969 Pls
3527 1571 Pls
3527 1498 Pls
4447 2573 Pls
4447 1325 Pls
4447 1250 Pls
4447 1194 Pls
4908 2573 Pls
4908 1719 Pls
4908 1616 Pls
4908 1526 Pls
5368 2966 Pls
5368 1894 Pls
5368 1785 Pls
5368 1712 Pls
5828 3065 Pls
5828 2419 Pls
5828 1982 Pls
5828 1816 Pls
6289 3262 Pls
6289 2201 Pls
6289 1785 Pls
6289 1857 Pls
1685 4045 Pls
1685 2983 Pls
1685 2078 Pls
1685 1973 Pls
2146 3751 Pls
2146 2779 Pls
2146 2053 Pls
2146 1846 Pls
2606 3654 Pls
2606 2874 Pls
2606 1965 Pls
2606 2008 Pls
3066 3298 Pls
3066 2576 Pls
3066 2203 Pls
3066 1902 Pls
3527 2844 Pls
3527 2423 Pls
3527 1717 Pls
3527 1493 Pls
4447 2474 Pls
4447 1675 Pls
4447 1644 Pls
4447 1298 Pls
4908 3557 Pls
4908 2419 Pls
4908 1841 Pls
4908 1816 Pls
5368 2573 Pls
5368 2507 Pls
5368 2038 Pls
5368 1961 Pls
5828 3656 Pls
5828 2901 Pls
5828 1954 Pls
5828 2272 Pls
6289 4050 Pls
6289 2813 Pls
6289 2854 Pls
6289 2334 Pls
1685 3782 Pls
1685 2999 Pls
1685 2322 Pls
1685 2101 Pls
2146 3816 Pls
2146 3054 Pls
2146 2247 Pls
2146 2131 Pls
2606 3865 Pls
2606 2788 Pls
2606 2219 Pls
2606 1927 Pls
3066 3860 Pls
3066 2694 Pls
3066 2309 Pls
3066 1854 Pls
3527 3096 Pls
3527 2153 Pls
3527 1775 Pls
3527 1393 Pls
4447 1883 Pls
4447 1675 Pls
4447 1306 Pls
4447 1256 Pls
4908 2868 Pls
4908 2201 Pls
4908 1785 Pls
4908 1940 Pls
5368 3065 Pls
5368 2201 Pls
5368 2122 Pls
5368 2085 Pls
5828 3951 Pls
5828 2901 Pls
5828 2404 Pls
5828 2645 Pls
6289 3360 Pls
6289 2376 Pls
6289 2910 Pls
6289 2562 Pls
1685 4022 Pls
1685 3187 Pls
1685 2341 Pls
1685 2266 Pls
2146 3845 Pls
2146 2864 Pls
2146 2298 Pls
2146 1887 Pls
2606 3885 Pls
2606 2799 Pls
2606 2488 Pls
2606 1899 Pls
3066 3772 Pls
3066 2400 Pls
3066 2206 Pls
3066 2232 Pls
3527 2844 Pls
3527 2568 Pls
3527 1787 Pls
3527 1717 Pls
4447 2770 Pls
4447 1894 Pls
4447 1588 Pls
4447 1857 Pls
4908 3360 Pls
4908 2769 Pls
4908 2038 Pls
4908 2479 Pls
5368 3360 Pls
5368 3120 Pls
5368 2629 Pls
5368 2230 Pls
5828 3262 Pls
5828 3295 Pls
5828 2713 Pls
5828 2707 Pls
6289 4345 Pls
6289 2813 Pls
6289 2938 Pls
6289 2998 Pls
1685 3422 Pls
1685 2231 Pls
1685 1834 Pls
1685 1609 Pls
2146 3075 Pls
2146 1920 Pls
2146 2035 Pls
2146 1703 Pls
2606 2997 Pls
2606 2060 Pls
2606 1546 Pls
2606 1499 Pls
3066 3045 Pls
3066 1998 Pls
3066 1533 Pls
3066 1425 Pls
3527 2310 Pls
3527 1606 Pls
3527 1327 Pls
3527 1329 Pls
4447 1489 Pls
4447 1194 Pls
4447 1194 Pls
4447 1070 Pls
4908 2474 Pls
4908 1588 Pls
4908 1194 Pls
4908 1215 Pls
5368 1982 Pls
5368 1763 Pls
5368 1447 Pls
5368 1277 Pls
5828 2573 Pls
5828 1544 Pls
5828 1503 Pls
5828 1526 Pls
6289 2573 Pls
6289 2025 Pls
6289 1616 Pls
6289 1546 Pls
1685 3730 Pls
1685 2573 Pls
1685 2241 Pls
1685 2026 Pls
2146 3534 Pls
2146 2442 Pls
2146 1950 Pls
2146 1727 Pls
2606 3619 Pls
2606 2413 Pls
2606 2205 Pls
2606 1665 Pls
3066 2779 Pls
3066 2299 Pls
3066 1792 Pls
3066 1558 Pls
3527 3055 Pls
3527 1927 Pls
3527 1510 Pls
3527 1390 Pls
4447 1785 Pls
4447 1456 Pls
4447 1278 Pls
4447 1235 Pls
4908 2573 Pls
4908 1938 Pls
4908 1419 Pls
4908 1422 Pls
5368 2376 Pls
5368 2025 Pls
5368 1700 Pls
5368 1463 Pls
5828 2770 Pls
5828 2332 Pls
5828 1672 Pls
5828 1940 Pls
6289 2966 Pls
6289 2507 Pls
6289 2010 Pls
6289 1795 Pls
1685 4154 Pls
1685 2823 Pls
1685 2295 Pls
1685 2106 Pls
2146 3663 Pls
2146 2829 Pls
2146 2472 Pls
2146 1852 Pls
2606 3962 Pls
2606 2540 Pls
2606 2232 Pls
2606 1681 Pls
3066 3488 Pls
3066 2646 Pls
3066 2033 Pls
3066 1750 Pls
3527 2983 Pls
3527 2001 Pls
3527 1735 Pls
3527 1576 Pls
4447 2573 Pls
4447 1413 Pls
4447 1475 Pls
4447 1152 Pls
4908 2966 Pls
4908 1544 Pls
4908 1588 Pls
4908 1505 Pls
5368 2966 Pls
5368 1938 Pls
5368 1841 Pls
5368 1878 Pls
5828 3065 Pls
5828 2332 Pls
5828 2179 Pls
5828 1857 Pls
6289 3163 Pls
6289 2157 Pls
6289 2432 Pls
6289 1982 Pls
1685 4047 Pls
1685 2738 Pls
1685 2432 Pls
1685 2078 Pls
2146 3779 Pls
2146 2999 Pls
2146 2125 Pls
2146 1916 Pls
2606 3909 Pls
2606 2801 Pls
2606 2302 Pls
2606 1978 Pls
3066 3556 Pls
3066 2514 Pls
3066 2071 Pls
3066 1538 Pls
3527 3436 Pls
3527 2288 Pls
3527 1746 Pls
3527 1590 Pls
4447 2277 Pls
4447 1763 Pls
4447 1672 Pls
4447 1256 Pls
4908 2671 Pls
4908 1807 Pls
4908 2010 Pls
4908 1609 Pls
5368 3459 Pls
5368 2813 Pls
5368 2066 Pls
5368 1774 Pls
5828 3557 Pls
5828 2638 Pls
5828 2404 Pls
5828 1961 Pls
6289 4148 Pls
6289 3032 Pls
6289 2544 Pls
6289 2251 Pls
1685 4047 Pls
1685 3133 Pls
1685 2265 Pls
1685 2143 Pls
2146 4405 Pls
2146 3217 Pls
2146 2224 Pls
2146 2215 Pls
2606 3614 Pls
2606 2739 Pls
2606 2256 Pls
2606 2261 Pls
3066 3314 Pls
3066 2855 Pls
3066 2082 Pls
3066 2127 Pls
3527 2914 Pls
3527 2218 Pls
3527 1860 Pls
3527 1584 Pls
4447 1982 Pls
4447 1894 Pls
4447 1278 Pls
4447 1443 Pls
4908 2573 Pls
4908 2157 Pls
4908 2207 Pls
4908 1671 Pls
5368 3163 Pls
5368 2682 Pls
5368 2094 Pls
5368 1899 Pls
5828 3557 Pls
5828 3251 Pls
5828 2460 Pls
5828 2189 Pls
6289 3951 Pls
6289 2857 Pls
6289 2629 Pls
6289 2376 Pls
1685 3707 Pls
1685 2048 Pls
1685 1926 Pls
1685 1750 Pls
2146 3166 Pls
2146 1986 Pls
2146 1901 Pls
2146 1347 Pls
2606 3194 Pls
2606 2117 Pls
2606 1808 Pls
2606 1570 Pls
3066 2499 Pls
3066 1795 Pls
3066 1723 Pls
3066 1438 Pls
3527 2651 Pls
3527 1785 Pls
3527 1328 Pls
3527 1145 Pls
4447 1785 Pls
4447 1369 Pls
4447 1222 Pls
4447 966 Pls
4908 1686 Pls
4908 1238 Pls
4908 1278 Pls
4908 966 Pls
5368 2474 Pls
5368 1719 Pls
5368 1363 Pls
5368 1339 Pls
5828 2376 Pls
5828 2113 Pls
5828 1475 Pls
5828 1256 Pls
6289 2671 Pls
6289 1544 Pls
6289 1363 Pls
6289 1380 Pls
1685 3515 Pls
1685 2701 Pls
1685 2435 Pls
1685 1816 Pls
2146 3115 Pls
2146 2498 Pls
2146 2237 Pls
2146 1928 Pls
2606 3235 Pls
2606 2582 Pls
2606 1931 Pls
2606 1778 Pls
3066 3076 Pls
3066 2170 Pls
3066 1958 Pls
3066 1831 Pls
3527 2941 Pls
3527 1895 Pls
3527 1409 Pls
3527 1407 Pls
4447 2179 Pls
4447 1369 Pls
4447 1166 Pls
4447 1111 Pls
4908 2376 Pls
4908 1675 Pls
4908 1419 Pls
4908 1505 Pls
5368 2573 Pls
5368 2201 Pls
5368 1700 Pls
5368 1318 Pls
5828 2573 Pls
5828 2025 Pls
5828 1869 Pls
5828 1505 Pls
6289 3557 Pls
6289 2288 Pls
6289 1869 Pls
6289 1691 Pls
1685 4003 Pls
1685 2908 Pls
1685 2051 Pls
1685 1925 Pls
2146 3505 Pls
2146 2690 Pls
2146 2005 Pls
2146 1902 Pls
2606 3644 Pls
2606 2610 Pls
2606 1848 Pls
2606 1890 Pls
3066 3760 Pls
3066 2450 Pls
3066 2042 Pls
3066 1544 Pls
3527 3442 Pls
3527 1887 Pls
3527 1731 Pls
3527 1389 Pls
4447 2179 Pls
4447 1807 Pls
4447 1616 Pls
4447 1194 Pls
4908 1982 Pls
4908 1938 Pls
4908 1532 Pls
4908 1650 Pls
5368 3065 Pls
5368 1807 Pls
5368 1925 Pls
5368 1671 Pls
5828 3656 Pls
5828 2988 Pls
5828 1869 Pls
5828 1422 Pls
6289 3459 Pls
6289 2025 Pls
6289 1982 Pls
6289 2023 Pls
1685 3786 Pls
1685 3092 Pls
1685 2103 Pls
1685 2083 Pls
2146 3971 Pls
2146 3174 Pls
2146 2329 Pls
2146 2226 Pls
2606 3744 Pls
2606 2865 Pls
2606 2477 Pls
2606 1826 Pls
3066 3733 Pls
3066 2836 Pls
3066 2188 Pls
3066 1712 Pls
3527 3286 Pls
3527 2601 Pls
3527 1987 Pls
3527 1864 Pls
4447 2573 Pls
4447 1588 Pls
4447 1419 Pls
4447 1277 Pls
4908 2966 Pls
4908 1807 Pls
4908 1560 Pls
4908 1671 Pls
5368 3459 Pls
5368 2376 Pls
5368 1897 Pls
5368 1899 Pls
5828 2868 Pls
5828 2376 Pls
5828 2179 Pls
5828 1629 Pls
6289 3557 Pls
6289 2857 Pls
6289 2263 Pls
6289 1982 Pls
1685 4062 Pls
1685 2621 Pls
1685 2632 Pls
1685 1947 Pls
2146 3746 Pls
2146 3015 Pls
2146 2656 Pls
2146 1798 Pls
2606 3736 Pls
2606 2977 Pls
2606 2241 Pls
2606 1996 Pls
3066 3675 Pls
3066 2513 Pls
3066 2226 Pls
3066 1802 Pls
3527 3310 Pls
3527 2158 Pls
3527 1665 Pls
3527 1655 Pls
4447 2868 Pls
4447 1894 Pls
4447 1391 Pls
4447 1422 Pls
4908 2966 Pls
4908 2113 Pls
4908 2151 Pls
4908 1401 Pls
5368 2966 Pls
5368 2157 Pls
5368 2038 Pls
5368 1899 Pls
5828 3459 Pls
5828 3120 Pls
5828 2460 Pls
5828 1920 Pls
6289 3656 Pls
6289 2988 Pls
6289 2769 Pls
6289 2044 Pls
1685 3179 Pls
1685 2264 Pls
1685 2042 Pls
1685 1499 Pls
2146 3315 Pls
2146 2255 Pls
2146 1790 Pls
2146 1673 Pls
2606 2529 Pls
2606 2504 Pls
2606 1880 Pls
2606 1534 Pls
3066 3154 Pls
3066 2022 Pls
3066 1552 Pls
3066 1163 Pls
3527 2060 Pls
3527 1785 Pls
3527 1427 Pls
3527 1332 Pls
4447 1292 Pls
4447 1106 Pls
4447 1081 Pls
4447 1070 Pls
4908 1785 Pls
4908 1413 Pls
4908 1222 Pls
4908 1173 Pls
5368 2966 Pls
5368 1369 Pls
5368 1138 Pls
5368 1256 Pls
5828 2671 Pls
5828 1544 Pls
5828 1363 Pls
5828 1298 Pls
6289 2868 Pls
6289 1938 Pls
6289 1475 Pls
6289 1215 Pls
1685 3566 Pls
1685 2686 Pls
1685 2148 Pls
1685 1829 Pls
2146 3460 Pls
2146 2206 Pls
2146 2205 Pls
2146 1764 Pls
2606 3678 Pls
2606 2351 Pls
2606 2045 Pls
2606 1692 Pls
3066 3387 Pls
3066 2296 Pls
3066 1806 Pls
3066 1653 Pls
3527 2606 Pls
3527 1983 Pls
3527 1640 Pls
3527 1463 Pls
4447 2080 Pls
4447 1369 Pls
4447 1081 Pls
4447 1173 Pls
4908 2474 Pls
4908 2244 Pls
4908 1532 Pls
4908 1360 Pls
5368 2671 Pls
5368 1938 Pls
5368 1391 Pls
5368 1380 Pls
5828 2966 Pls
5828 2157 Pls
5828 1785 Pls
5828 1422 Pls
6289 3262 Pls
6289 2069 Pls
6289 1785 Pls
6289 1733 Pls
1685 3584 Pls
1685 2717 Pls
1685 2468 Pls
1685 2069 Pls
2146 3913 Pls
2146 2714 Pls
2146 2186 Pls
2146 2135 Pls
2606 4101 Pls
2606 2857 Pls
2606 1991 Pls
2606 1920 Pls
3066 3151 Pls
3066 2392 Pls
3066 2331 Pls
3066 1850 Pls
3527 2692 Pls
3527 1908 Pls
3527 1695 Pls
3527 1504 Pls
4447 2671 Pls
4447 1807 Pls
4447 1278 Pls
4447 1194 Pls
4908 3163 Pls
4908 1850 Pls
4908 1363 Pls
4908 1546 Pls
5368 2277 Pls
5368 2113 Pls
5368 1644 Pls
5368 1588 Pls
5828 3557 Pls
5828 2332 Pls
5828 1925 Pls
5828 1837 Pls
6289 3360 Pls
6289 2507 Pls
6289 2263 Pls
6289 1650 Pls
1685 4101 Pls
1685 3183 Pls
1685 2355 Pls
1685 1899 Pls
2146 3619 Pls
2146 3114 Pls
2146 2317 Pls
2146 1985 Pls
2606 3874 Pls
2606 2686 Pls
2606 2020 Pls
2606 1757 Pls
3066 3857 Pls
3066 2614 Pls
3066 2288 Pls
3066 1957 Pls
3527 3647 Pls
3527 2282 Pls
3527 1827 Pls
3527 1697 Pls
4447 2770 Pls
4447 1588 Pls
4447 1475 Pls
4447 1173 Pls
4908 2868 Pls
4908 2288 Pls
4908 1532 Pls
4908 1380 Pls
5368 2966 Pls
5368 2376 Pls
5368 1813 Pls
5368 1795 Pls
5828 3754 Pls
5828 2201 Pls
5828 2151 Pls
5828 1899 Pls
6289 3262 Pls
6289 2594 Pls
6289 1954 Pls
6289 2023 Pls
1685 3501 Pls
1685 2559 Pls
1685 2332 Pls
1685 2011 Pls
2146 3914 Pls
2146 2655 Pls
2146 2436 Pls
2146 1755 Pls
2606 3899 Pls
2606 2536 Pls
2606 2460 Pls
2606 1999 Pls
3066 4221 Pls
3066 2912 Pls
3066 2116 Pls
3066 1682 Pls
3527 3627 Pls
3527 2150 Pls
3527 1880 Pls
3527 1579 Pls
4447 2573 Pls
4447 2113 Pls
4447 1363 Pls
4447 1318 Pls
4908 2474 Pls
4908 2069 Pls
4908 1700 Pls
4908 1671 Pls
5368 3360 Pls
5368 2157 Pls
5368 1954 Pls
5368 1837 Pls
5828 3262 Pls
5828 2463 Pls
5828 2066 Pls
5828 1754 Pls
6289 3459 Pls
6289 2813 Pls
6289 2601 Pls
6289 2313 Pls
1685 3080 Pls
1685 2194 Pls
1685 1855 Pls
1685 1714 Pls
2146 3485 Pls
2146 2237 Pls
2146 1696 Pls
2146 1681 Pls
2606 3665 Pls
2606 2251 Pls
2606 1635 Pls
2606 1642 Pls
3066 2948 Pls
3066 2131 Pls
3066 1527 Pls
3066 1284 Pls
3527 2454 Pls
3527 1749 Pls
3527 1379 Pls
3527 1332 Pls
4447 1883 Pls
4447 1150 Pls
4447 1109 Pls
4447 1111 Pls
4908 1883 Pls
4908 1238 Pls
4908 1194 Pls
4908 1152 Pls
5368 2966 Pls
5368 1850 Pls
5368 1335 Pls
5368 1629 Pls
5828 3163 Pls
5828 1719 Pls
5828 1306 Pls
5828 1277 Pls
6289 2868 Pls
6289 1850 Pls
6289 1475 Pls
6289 1463 Pls
1685 3788 Pls
1685 2817 Pls
1685 2252 Pls
1685 2002 Pls
2146 3578 Pls
2146 2316 Pls
2146 2229 Pls
2146 1870 Pls
2606 3720 Pls
2606 2731 Pls
2606 1945 Pls
2606 1886 Pls
3066 3003 Pls
3066 2429 Pls
3066 2050 Pls
3066 1561 Pls
3527 3080 Pls
3527 1735 Pls
3527 1671 Pls
3527 1541 Pls
4447 2376 Pls
4447 1544 Pls
4447 1278 Pls
4447 1090 Pls
4908 2671 Pls
4908 1456 Pls
4908 1363 Pls
4908 1215 Pls
5368 2868 Pls
5368 1982 Pls
5368 1532 Pls
5368 1505 Pls
5828 2376 Pls
5828 2113 Pls
5828 1785 Pls
5828 1609 Pls
6289 2671 Pls
6289 2069 Pls
6289 1700 Pls
6289 1774 Pls
1685 3733 Pls
1685 3123 Pls
1685 2195 Pls
1685 2242 Pls
2146 4110 Pls
2146 2731 Pls
2146 2157 Pls
2146 1900 Pls
2606 4045 Pls
2606 2589 Pls
2606 2049 Pls
2606 1860 Pls
3066 3129 Pls
3066 2591 Pls
3066 1897 Pls
3066 1707 Pls
3527 2987 Pls
3527 1923 Pls
3527 1499 Pls
3527 1597 Pls
4447 2376 Pls
4447 1456 Pls
4447 1278 Pls
4447 1215 Pls
4908 3163 Pls
4908 2025 Pls
4908 1447 Pls
4908 1256 Pls
5368 3557 Pls
5368 1982 Pls
5368 1813 Pls
5368 1505 Pls
5828 2770 Pls
5828 2376 Pls
5828 2038 Pls
5828 1691 Pls
6289 3557 Pls
6289 2244 Pls
6289 1588 Pls
6289 1712 Pls
1685 3878 Pls
1685 3138 Pls
1685 2087 Pls
1685 2051 Pls
2146 3964 Pls
2146 2698 Pls
2146 2175 Pls
2146 1845 Pls
2606 3781 Pls
2606 2629 Pls
2606 2344 Pls
2606 2010 Pls
3066 3505 Pls
3066 2928 Pls
3066 1839 Pls
3066 1813 Pls
3527 3205 Pls
3527 2323 Pls
3527 2265 Pls
3527 1625 Pls
4447 2376 Pls
4447 1632 Pls
4447 1363 Pls
4447 1235 Pls
4908 2868 Pls
4908 1850 Pls
4908 1475 Pls
4908 1505 Pls
5368 3065 Pls
5368 2069 Pls
5368 1841 Pls
5368 1567 Pls
5828 3656 Pls
5828 2463 Pls
5828 2066 Pls
5828 1650 Pls
6289 3754 Pls
6289 2726 Pls
6289 2038 Pls
6289 1650 Pls
1685 4090 Pls
1685 2865 Pls
1685 2478 Pls
1685 2018 Pls
2146 3706 Pls
2146 2835 Pls
2146 2414 Pls
2146 2268 Pls
2606 3958 Pls
2606 2916 Pls
2606 2367 Pls
2606 1865 Pls
3066 3719 Pls
3066 2607 Pls
3066 2170 Pls
3066 2166 Pls
3527 2868 Pls
3527 2347 Pls
3527 1922 Pls
3527 1646 Pls
4447 2277 Pls
4447 1807 Pls
4447 1306 Pls
4447 1277 Pls
4908 2671 Pls
4908 1982 Pls
4908 1588 Pls
4908 1609 Pls
5368 3656 Pls
5368 2638 Pls
5368 2235 Pls
5368 2127 Pls
5828 3754 Pls
5828 2770 Pls
5828 1672 Pls
5828 2002 Pls
6289 4345 Pls
6289 2769 Pls
6289 2291 Pls
6289 2168 Pls
1685 2927 Pls
1685 2102 Pls
1685 2277 Pls
1685 1639 Pls
2146 3263 Pls
2146 1927 Pls
2146 2158 Pls
2146 1593 Pls
2606 3274 Pls
2606 2278 Pls
2606 1981 Pls
2606 1441 Pls
3066 2593 Pls
3066 1742 Pls
3066 1745 Pls
3066 1459 Pls
3527 2638 Pls
3527 1810 Pls
3527 1330 Pls
3527 1257 Pls
4447 1785 Pls
4447 931 Pls
4447 997 Pls
4447 1049 Pls
4908 1982 Pls
4908 1238 Pls
4908 1335 Pls
4908 1132 Pls
5368 2573 Pls
5368 1675 Pls
5368 1278 Pls
5368 1215 Pls
5828 2080 Pls
5828 1632 Pls
5828 1391 Pls
5828 1194 Pls
6289 3557 Pls
6289 2069 Pls
6289 1475 Pls
6289 1401 Pls
1685 3643 Pls
1685 2857 Pls
1685 1968 Pls
1685 1815 Pls
2146 3466 Pls
2146 2338 Pls
2146 2207 Pls
2146 1800 Pls
2606 2803 Pls
2606 2388 Pls
2606 2086 Pls
2606 1697 Pls
3066 3562 Pls
3066 2090 Pls
3066 1682 Pls
3066 1735 Pls
3527 2905 Pls
3527 2098 Pls
3527 1624 Pls
3527 1350 Pls
4447 2179 Pls
4447 1325 Pls
4447 1222 Pls
4447 1070 Pls
4908 2868 Pls
4908 1544 Pls
4908 1335 Pls
4908 1380 Pls
5368 2474 Pls
5368 1719 Pls
5368 1588 Pls
5368 1277 Pls
5828 3065 Pls
5828 1894 Pls
5828 1560 Pls
5828 1401 Pls
6289 3557 Pls
6289 2069 Pls
6289 1841 Pls
6289 1671 Pls
1685 3719 Pls
1685 3054 Pls
1685 2353 Pls
1685 2146 Pls
2146 3427 Pls
2146 2762 Pls
2146 2294 Pls
2146 1959 Pls
2606 2953 Pls
2606 2858 Pls
2606 2359 Pls
2606 1797 Pls
3066 3762 Pls
3066 2690 Pls
3066 1929 Pls
3066 1828 Pls
3527 3208 Pls
3527 2061 Pls
3527 1892 Pls
3527 1444 Pls
4447 1982 Pls
4447 1325 Pls
4447 1363 Pls
4447 1194 Pls
4908 2770 Pls
4908 2025 Pls
4908 1532 Pls
4908 1360 Pls
5368 3459 Pls
5368 2201 Pls
5368 1728 Pls
5368 1754 Pls
5828 3360 Pls
5828 2069 Pls
5828 1728 Pls
5828 1505 Pls
6289 3065 Pls
6289 2157 Pls
6289 1925 Pls
6289 1733 Pls
1685 3844 Pls
1685 2852 Pls
1685 2494 Pls
1685 1890 Pls
2146 4052 Pls
2146 2763 Pls
2146 2469 Pls
2146 2160 Pls
2606 3788 Pls
2606 2614 Pls
2606 1981 Pls
2606 1978 Pls
3066 3698 Pls
3066 2279 Pls
3066 1734 Pls
3066 1786 Pls
3527 3241 Pls
3527 2126 Pls
3527 2005 Pls
3527 1751 Pls
4447 2376 Pls
4447 1894 Pls
4447 1419 Pls
4447 1215 Pls
4908 3262 Pls
4908 1544 Pls
4908 1785 Pls
4908 1609 Pls
5368 2966 Pls
5368 2157 Pls
5368 2038 Pls
5368 1816 Pls
5828 3459 Pls
5828 2419 Pls
5828 1841 Pls
5828 1961 Pls
6289 3656 Pls
6289 2507 Pls
6289 2038 Pls
6289 1940 Pls
1685 4103 Pls
1685 3398 Pls
1685 2440 Pls
1685 2059 Pls
2146 3471 Pls
2146 2986 Pls
2146 2659 Pls
2146 1984 Pls
2606 3453 Pls
2606 3031 Pls
2606 2097 Pls
2606 2301 Pls
3066 3453 Pls
3066 2531 Pls
3066 2287 Pls
3066 1562 Pls
3527 3510 Pls
3527 2294 Pls
3527 2057 Pls
3527 1669 Pls
4447 3262 Pls
4447 1632 Pls
4447 1447 Pls
4447 1256 Pls
4908 2573 Pls
4908 1938 Pls
4908 1391 Pls
4908 1609 Pls
5368 3557 Pls
5368 2507 Pls
5368 1954 Pls
5368 1754 Pls
5828 3459 Pls
5828 2813 Pls
5828 1869 Pls
5828 1940 Pls
6289 3262 Pls
6289 2551 Pls
6289 2179 Pls
6289 2106 Pls
1685 3080 Pls
1685 2320 Pls
1685 2008 Pls
1685 1622 Pls
2146 2716 Pls
2146 2530 Pls
2146 1783 Pls
2146 1701 Pls
2606 3304 Pls
2606 1935 Pls
2606 1540 Pls
2606 1551 Pls
3066 3065 Pls
3066 2142 Pls
3066 1575 Pls
3066 1545 Pls
3527 2362 Pls
3527 1620 Pls
3527 1397 Pls
3527 1163 Pls
4447 1883 Pls
4447 1281 Pls
4447 1109 Pls
4447 987 Pls
4908 1982 Pls
4908 1238 Pls
4908 1194 Pls
4908 1111 Pls
5368 2573 Pls
5368 1632 Pls
5368 1278 Pls
5368 1152 Pls
5828 2376 Pls
5828 1588 Pls
5828 1447 Pls
5828 1173 Pls
6289 2080 Pls
6289 1894 Pls
6289 1588 Pls
6289 1360 Pls
1685 3449 Pls
1685 2670 Pls
1685 2344 Pls
1685 1958 Pls
2146 3860 Pls
2146 2608 Pls
2146 2299 Pls
2146 1839 Pls
2606 3487 Pls
2606 2476 Pls
2606 2109 Pls
2606 1786 Pls
3066 3298 Pls
3066 2310 Pls
3066 1807 Pls
3066 1492 Pls
3527 2915 Pls
3527 2137 Pls
3527 1477 Pls
3527 1508 Pls
4447 1785 Pls
4447 1238 Pls
4447 1391 Pls
4447 1132 Pls
4908 1982 Pls
4908 1719 Pls
4908 1363 Pls
4908 1256 Pls
5368 2080 Pls
5368 1807 Pls
5368 1616 Pls
5368 1235 Pls
5828 3754 Pls
5828 2157 Pls
5828 1757 Pls
5828 1298 Pls
6289 2770 Pls
6289 2244 Pls
6289 1813 Pls
6289 1401 Pls
1685 3999 Pls
1685 2576 Pls
1685 2141 Pls
1685 2040 Pls
2146 3890 Pls
2146 2493 Pls
2146 2201 Pls
2146 2070 Pls
2606 3922 Pls
2606 2540 Pls
2606 2147 Pls
2606 2012 Pls
3066 3001 Pls
3066 2612 Pls
3066 1920 Pls
3066 1583 Pls
3527 2758 Pls
3527 2485 Pls
3527 1937 Pls
3527 1485 Pls
4447 2080 Pls
4447 1413 Pls
4447 1025 Pls
4447 1235 Pls
4908 3065 Pls
4908 1982 Pls
4908 1560 Pls
4908 1401 Pls
5368 3065 Pls
5368 1938 Pls
5368 1644 Pls
5368 1526 Pls
5828 3360 Pls
5828 2201 Pls
5828 1925 Pls
5828 1401 Pls
6289 3459 Pls
6289 2682 Pls
6289 1841 Pls
6289 1609 Pls
1685 3941 Pls
1685 2942 Pls
1685 2521 Pls
1685 2097 Pls
2146 3927 Pls
2146 3154 Pls
2146 2379 Pls
2146 1936 Pls
2606 3903 Pls
2606 2710 Pls
2606 2470 Pls
2606 1921 Pls
3066 3087 Pls
3066 2646 Pls
3066 2091 Pls
3066 1745 Pls
3527 3274 Pls
3527 2310 Pls
3527 2212 Pls
3527 1495 Pls
4447 2080 Pls
4447 1763 Pls
4447 1475 Pls
4447 1256 Pls
4908 2671 Pls
4908 2157 Pls
4908 1728 Pls
4908 1463 Pls
5368 2868 Pls
5368 2201 Pls
5368 1897 Pls
5368 1422 Pls
5828 3557 Pls
5828 2244 Pls
5828 1841 Pls
5828 1588 Pls
6289 3557 Pls
6289 2594 Pls
6289 2038 Pls
6289 1837 Pls
1685 4190 Pls
1685 3317 Pls
1685 2540 Pls
1685 2287 Pls
2146 3663 Pls
2146 3005 Pls
2146 2771 Pls
2146 2344 Pls
2606 3453 Pls
2606 2917 Pls
2606 2262 Pls
2606 1990 Pls
3066 3703 Pls
3066 2554 Pls
3066 2020 Pls
3066 1808 Pls
3527 3032 Pls
3527 2283 Pls
3527 1916 Pls
3527 1737 Pls
4447 2770 Pls
4447 1588 Pls
4447 1475 Pls
4447 1277 Pls
4908 3065 Pls
4908 2507 Pls
4908 1419 Pls
4908 1380 Pls
5368 3557 Pls
5368 2332 Pls
5368 1700 Pls
5368 1505 Pls
5828 2966 Pls
5828 2813 Pls
5828 2010 Pls
5828 1774 Pls
6289 3262 Pls
6289 2025 Pls
6289 2376 Pls
6289 2106 Pls
1685 3013 Pls
1685 2731 Pls
1685 2176 Pls
1685 1788 Pls
2146 3550 Pls
2146 2176 Pls
2146 1797 Pls
2146 1574 Pls
2606 3181 Pls
2606 2174 Pls
2606 1758 Pls
2606 1618 Pls
3066 2544 Pls
3066 2023 Pls
3066 1756 Pls
3066 1440 Pls
3527 2389 Pls
3527 1745 Pls
3527 1450 Pls
3527 1329 Pls
4447 1686 Pls
4447 1238 Pls
4447 969 Pls
4447 966 Pls
4908 2080 Pls
4908 1588 Pls
4908 1278 Pls
4908 1049 Pls
5368 2179 Pls
5368 1456 Pls
5368 1250 Pls
5368 1194 Pls
5828 2868 Pls
5828 1456 Pls
5828 1419 Pls
5828 1152 Pls
6289 2376 Pls
6289 1500 Pls
6289 1335 Pls
6289 1173 Pls
1685 3886 Pls
1685 2454 Pls
1685 2060 Pls
1685 1667 Pls
2146 3663 Pls
2146 2741 Pls
2146 1884 Pls
2146 1784 Pls
2606 3519 Pls
2606 2470 Pls
2606 2049 Pls
2606 1721 Pls
3066 2591 Pls
3066 2242 Pls
3066 1850 Pls
3066 1656 Pls
3527 2936 Pls
3527 1950 Pls
3527 1600 Pls
3527 1472 Pls
4447 1489 Pls
4447 1456 Pls
4447 1194 Pls
4447 1132 Pls
4908 2671 Pls
4908 1719 Pls
4908 1419 Pls
4908 1401 Pls
5368 2474 Pls
5368 1850 Pls
5368 1532 Pls
5368 1339 Pls
5828 3065 Pls
5828 2113 Pls
5828 1391 Pls
5828 1463 Pls
6289 3656 Pls
6289 2025 Pls
6289 1869 Pls
6289 1463 Pls
1685 3781 Pls
1685 2602 Pls
1685 2240 Pls
1685 1953 Pls
2146 3939 Pls
2146 2907 Pls
2146 2381 Pls
2146 1730 Pls
2606 3626 Pls
2606 2605 Pls
2606 1860 Pls
2606 2047 Pls
3066 2947 Pls
3066 2525 Pls
3066 1813 Pls
3066 1681 Pls
3527 2998 Pls
3527 2194 Pls
3527 1596 Pls
3527 1586 Pls
4447 2277 Pls
4447 1500 Pls
4447 1363 Pls
4447 1152 Pls
4908 3163 Pls
4908 1632 Pls
4908 1560 Pls
4908 1277 Pls
5368 2770 Pls
5368 2069 Pls
5368 1644 Pls
5368 1380 Pls
5828 2966 Pls
5828 2288 Pls
5828 2122 Pls
5828 1650 Pls
6289 2966 Pls
6289 2288 Pls
6289 1672 Pls
6289 1567 Pls
1685 3906 Pls
1685 2828 Pls
1685 2399 Pls
1685 2056 Pls
2146 3619 Pls
2146 3048 Pls
2146 2287 Pls
2146 1933 Pls
2606 3647 Pls
2606 2429 Pls
2606 1959 Pls
2606 1785 Pls
3066 3509 Pls
3066 1977 Pls
3066 1770 Pls
3066 1895 Pls
3527 3348 Pls
3527 2279 Pls
3527 1751 Pls
3527 1389 Pls
4447 2179 Pls
4447 1719 Pls
4447 1363 Pls
4447 1380 Pls
4908 2770 Pls
4908 1675 Pls
4908 1785 Pls
4908 1380 Pls
5368 3065 Pls
5368 1807 Pls
5368 1503 Pls
5368 1754 Pls
5828 2868 Pls
5828 2507 Pls
5828 1532 Pls
5828 1816 Pls
6289 3065 Pls
6289 2157 Pls
6289 1925 Pls
6289 1899 Pls
1685 3846 Pls
1685 2775 Pls
1685 2622 Pls
1685 2090 Pls
2146 4197 Pls
2146 3132 Pls
2146 2340 Pls
2146 1767 Pls
2606 4061 Pls
2606 2976 Pls
2606 2288 Pls
2606 2061 Pls
3066 3476 Pls
3066 2790 Pls
3066 2387 Pls
3066 1810 Pls
3527 3501 Pls
3527 2590 Pls
3527 1991 Pls
3527 1901 Pls
4447 2671 Pls
4447 1763 Pls
4447 1503 Pls
4447 1277 Pls
4908 2868 Pls
4908 1763 Pls
4908 1700 Pls
4908 1754 Pls
5368 3557 Pls
5368 1938 Pls
5368 1841 Pls
5368 1650 Pls
5828 3656 Pls
5828 2638 Pls
5828 1728 Pls
5828 1691 Pls
6289 3656 Pls
6289 2332 Pls
6289 2179 Pls
6289 1795 Pls
1685 3635 Pls
1685 2227 Pls
1685 1794 Pls
1685 1616 Pls
2146 3275 Pls
2146 2262 Pls
2146 1862 Pls
2146 1609 Pls
2606 2998 Pls
2606 2154 Pls
2606 2008 Pls
2606 1686 Pls
3066 2880 Pls
3066 1830 Pls
3066 1617 Pls
3066 1424 Pls
3527 2336 Pls
3527 1667 Pls
3527 1473 Pls
3527 1258 Pls
4447 1785 Pls
4447 1194 Pls
4447 1025 Pls
4447 1028 Pls
4908 1686 Pls
4908 1106 Pls
4908 1335 Pls
4908 1132 Pls
5368 2277 Pls
5368 1325 Pls
5368 1222 Pls
5368 1235 Pls
5828 2573 Pls
5828 1719 Pls
5828 1306 Pls
5828 1194 Pls
6289 2671 Pls
6289 1982 Pls
6289 1672 Pls
6289 1401 Pls
1685 3498 Pls
1685 2740 Pls
1685 1916 Pls
1685 1830 Pls
2146 3460 Pls
2146 2634 Pls
2146 1902 Pls
2146 1736 Pls
2606 3705 Pls
2606 2386 Pls
2606 1808 Pls
2606 1586 Pls
3066 3329 Pls
3066 2105 Pls
3066 1876 Pls
3066 1456 Pls
3527 2297 Pls
3527 2161 Pls
3527 1563 Pls
3527 1412 Pls
4447 1982 Pls
4447 1194 Pls
4447 1138 Pls
4447 1173 Pls
4908 2179 Pls
4908 1894 Pls
4908 1503 Pls
4908 1277 Pls
5368 2868 Pls
5368 1938 Pls
5368 1475 Pls
5368 1318 Pls
5828 2966 Pls
5828 2201 Pls
5828 1785 Pls
5828 1650 Pls
6289 3459 Pls
6289 1894 Pls
6289 1616 Pls
6289 1588 Pls
1685 3980 Pls
1685 2436 Pls
1685 2458 Pls
1685 2016 Pls
2146 4007 Pls
2146 2582 Pls
2146 2157 Pls
2146 1940 Pls
2606 3460 Pls
2606 2864 Pls
2606 2109 Pls
2606 1699 Pls
3066 3642 Pls
3066 2461 Pls
3066 2024 Pls
3066 1767 Pls
3527 3138 Pls
3527 2352 Pls
3527 1546 Pls
3527 1447 Pls
4447 2277 Pls
4447 1544 Pls
4447 1306 Pls
4447 1132 Pls
4908 2671 Pls
4908 1894 Pls
4908 1391 Pls
4908 1401 Pls
5368 3360 Pls
5368 1982 Pls
5368 1503 Pls
5368 1318 Pls
5828 3459 Pls
5828 2025 Pls
5828 1869 Pls
5828 1360 Pls
6289 3656 Pls
6289 2201 Pls
6289 1925 Pls
6289 1422 Pls
1685 3758 Pls
1685 2809 Pls
1685 2572 Pls
1685 1967 Pls
2146 4290 Pls
2146 2829 Pls
2146 2449 Pls
2146 2007 Pls
2606 3200 Pls
2606 2678 Pls
2606 2144 Pls
2606 2028 Pls
3066 3611 Pls
3066 2409 Pls
3066 2102 Pls
3066 1787 Pls
3527 3360 Pls
3527 2609 Pls
3527 1747 Pls
3527 1655 Pls
4447 2671 Pls
4447 1632 Pls
4447 1363 Pls
4447 1215 Pls
4908 2868 Pls
4908 2025 Pls
4908 1588 Pls
4908 1339 Pls
5368 2966 Pls
5368 2113 Pls
5368 1813 Pls
5368 1484 Pls
5828 3163 Pls
5828 2463 Pls
5828 1982 Pls
5828 1463 Pls
6289 3163 Pls
6289 2682 Pls
6289 2010 Pls
6289 1774 Pls
1685 3934 Pls
1685 2934 Pls
1685 2174 Pls
1685 1891 Pls
2146 3962 Pls
2146 2602 Pls
2146 2181 Pls
2146 1733 Pls
2606 3923 Pls
2606 2847 Pls
2606 2239 Pls
2606 1864 Pls
3066 4062 Pls
3066 2886 Pls
3066 2410 Pls
3066 1792 Pls
3527 3473 Pls
3527 2477 Pls
3527 2079 Pls
3527 1858 Pls
4447 2770 Pls
4447 1675 Pls
4447 1728 Pls
4447 1360 Pls
4908 3163 Pls
4908 1763 Pls
4908 1869 Pls
4908 1588 Pls
5368 3262 Pls
5368 2288 Pls
5368 1560 Pls
5368 1380 Pls
5828 3853 Pls
5828 2638 Pls
5828 1925 Pls
5828 1795 Pls
6289 3459 Pls
6289 2726 Pls
6289 2094 Pls
6289 1795 Pls
1685 3474 Pls
1685 2034 Pls
1685 2003 Pls
1685 1635 Pls
2146 3117 Pls
2146 2408 Pls
2146 1824 Pls
2146 1403 Pls
2606 3048 Pls
2606 2363 Pls
2606 1744 Pls
2606 1617 Pls
3066 2696 Pls
3066 1978 Pls
3066 1457 Pls
3066 1378 Pls
3527 2704 Pls
3527 1692 Pls
3527 1617 Pls
3527 1274 Pls
4447 1391 Pls
4447 1063 Pls
4447 997 Pls
4447 987 Pls
4908 2179 Pls
4908 1281 Pls
4908 1053 Pls
4908 1132 Pls
5368 2573 Pls
5368 1500 Pls
5368 1194 Pls
5368 1152 Pls
5828 2770 Pls
5828 1588 Pls
5828 1532 Pls
5828 1235 Pls
6289 2376 Pls
6289 1719 Pls
6289 1335 Pls
6289 1152 Pls
1685 3955 Pls
1685 2490 Pls
1685 2391 Pls
1685 1794 Pls
2146 3718 Pls
2146 2376 Pls
2146 2313 Pls
2146 2052 Pls
2606 3542 Pls
2606 2663 Pls
2606 2171 Pls
2606 1885 Pls
3066 3368 Pls
3066 2372 Pls
3066 1831 Pls
3066 1655 Pls
3527 2567 Pls
3527 1960 Pls
3527 1588 Pls
3527 1405 Pls
4447 2179 Pls
4447 1632 Pls
4447 1166 Pls
4447 1007 Pls
4908 1883 Pls
4908 1588 Pls
4908 1391 Pls
4908 1215 Pls
5368 2966 Pls
5368 1544 Pls
5368 1475 Pls
5368 1256 Pls
5828 2376 Pls
5828 1763 Pls
5828 1757 Pls
5828 1360 Pls
6289 2671 Pls
6289 2201 Pls
6289 1897 Pls
6289 1235 Pls
1685 3939 Pls
1685 2770 Pls
1685 2357 Pls
1685 1914 Pls
2146 4018 Pls
2146 2831 Pls
2146 1855 Pls
2146 1839 Pls
2606 3499 Pls
2606 2281 Pls
2606 2137 Pls
2606 1780 Pls
3066 3244 Pls
3066 2890 Pls
3066 1523 Pls
3066 1783 Pls
3527 2657 Pls
3527 2142 Pls
3527 1947 Pls
3527 1620 Pls
4447 2277 Pls
4447 1325 Pls
4447 1250 Pls
4447 1132 Pls
4908 2671 Pls
4908 1938 Pls
4908 1475 Pls
4908 1360 Pls
5368 2474 Pls
5368 1807 Pls
5368 1672 Pls
5368 1443 Pls
5828 2966 Pls
5828 2113 Pls
5828 1447 Pls
5828 1546 Pls
6289 3754 Pls
6289 2244 Pls
6289 1813 Pls
6289 1588 Pls
1685 3749 Pls
1685 2921 Pls
1685 2181 Pls
1685 1925 Pls
2146 3738 Pls
2146 2835 Pls
2146 2505 Pls
2146 1839 Pls
2606 3481 Pls
2606 2522 Pls
2606 2369 Pls
2606 1839 Pls
3066 3187 Pls
3066 2577 Pls
3066 2288 Pls
3066 1815 Pls
3527 2633 Pls
3527 2182 Pls
3527 1721 Pls
3527 1653 Pls
4447 2376 Pls
4447 1413 Pls
4447 969 Pls
4447 1028 Pls
4908 2966 Pls
4908 1763 Pls
4908 1560 Pls
4908 1380 Pls
5368 2966 Pls
5368 1938 Pls
5368 1532 Pls
5368 1588 Pls
5828 3853 Pls
5828 2244 Pls
5828 1700 Pls
5828 1567 Pls
6289 3754 Pls
6289 2769 Pls
6289 1785 Pls
6289 1712 Pls
1685 4180 Pls
1685 2931 Pls
1685 2547 Pls
1685 2176 Pls
2146 4175 Pls
2146 2961 Pls
2146 2649 Pls
2146 1948 Pls
2606 3795 Pls
2606 2702 Pls
2606 2301 Pls
2606 1953 Pls
3066 3627 Pls
3066 2700 Pls
3066 2357 Pls
3066 2064 Pls
3527 3535 Pls
3527 2545 Pls
3527 1757 Pls
3527 1634 Pls
4447 2868 Pls
4447 1456 Pls
4447 1616 Pls
4447 1277 Pls
4908 2474 Pls
4908 1938 Pls
4908 1728 Pls
4908 1484 Pls
5368 2671 Pls
5368 2201 Pls
5368 1447 Pls
5368 1712 Pls
5828 4148 Pls
5828 2025 Pls
5828 1503 Pls
5828 1546 Pls
6289 3754 Pls
6289 2376 Pls
6289 1813 Pls
6289 1588 Pls
1685 3320 Pls
1685 2801 Pls
1685 1928 Pls
1685 1637 Pls
2146 3118 Pls
2146 2629 Pls
2146 2015 Pls
2146 1655 Pls
2606 3221 Pls
2606 1728 Pls
2606 1632 Pls
2606 1546 Pls
3066 3220 Pls
3066 1991 Pls
3066 1691 Pls
3066 1398 Pls
3527 2389 Pls
3527 1670 Pls
3527 1379 Pls
3527 1291 Pls
4447 1588 Pls
4447 1281 Pls
4447 1053 Pls
4447 1007 Pls
4908 1883 Pls
4908 1456 Pls
4908 1166 Pls
4908 1049 Pls
5368 2376 Pls
5368 1588 Pls
5368 1250 Pls
5368 1090 Pls
5828 2671 Pls
5828 1632 Pls
5828 1335 Pls
5828 1152 Pls
6289 2671 Pls
6289 1938 Pls
6289 1306 Pls
6289 1173 Pls
1685 3783 Pls
1685 3057 Pls
1685 1930 Pls
1685 1932 Pls
2146 3521 Pls
2146 3073 Pls
2146 2154 Pls
2146 1794 Pls
2606 3212 Pls
2606 2326 Pls
2606 2020 Pls
2606 1580 Pls
3066 3014 Pls
3066 2111 Pls
3066 1707 Pls
3066 1594 Pls
3527 2426 Pls
3527 2250 Pls
3527 1601 Pls
3527 1258 Pls
4447 2179 Pls
4447 1281 Pls
4447 1138 Pls
4447 1090 Pls
4908 2080 Pls
4908 1544 Pls
4908 1363 Pls
4908 1277 Pls
5368 2376 Pls
5368 1894 Pls
5368 1335 Pls
5368 1194 Pls
5828 3262 Pls
5828 2069 Pls
5828 1644 Pls
5828 1401 Pls
6289 3065 Pls
6289 1675 Pls
6289 1335 Pls
6289 1380 Pls
1685 4011 Pls
1685 2959 Pls
1685 2373 Pls
1685 1697 Pls
2146 4103 Pls
2146 2568 Pls
2146 2281 Pls
2146 1714 Pls
2606 3271 Pls
2606 2692 Pls
2606 2107 Pls
2606 1764 Pls
3066 3941 Pls
3066 2465 Pls
3066 2115 Pls
3066 1739 Pls
3527 2557 Pls
3527 1946 Pls
3527 1611 Pls
3527 1370 Pls
4447 1883 Pls
4447 1238 Pls
4447 1363 Pls
4447 1132 Pls
4908 2966 Pls
4908 1763 Pls
4908 1560 Pls
4908 1422 Pls
5368 3163 Pls
5368 1719 Pls
5368 1475 Pls
5368 1484 Pls
5828 3360 Pls
5828 2376 Pls
5828 1700 Pls
5828 1422 Pls
6289 3163 Pls
6289 2244 Pls
6289 1757 Pls
6289 1318 Pls
1685 3865 Pls
1685 2762 Pls
1685 2294 Pls
1685 1914 Pls
2146 3284 Pls
2146 2837 Pls
2146 2338 Pls
2146 1945 Pls
2606 4145 Pls
2606 2984 Pls
2606 1995 Pls
2606 1623 Pls
3066 3567 Pls
3066 2310 Pls
3066 2223 Pls
3066 1974 Pls
3527 3176 Pls
3527 2302 Pls
3527 1783 Pls
3527 1590 Pls
4447 2376 Pls
4447 1632 Pls
4447 1419 Pls
4447 1028 Pls
4908 2770 Pls
4908 1807 Pls
4908 1447 Pls
4908 1318 Pls
5368 3360 Pls
5368 2201 Pls
5368 1560 Pls
5368 1526 Pls
5828 3656 Pls
5828 2288 Pls
5828 1644 Pls
5828 1526 Pls
6289 3459 Pls
6289 1982 Pls
6289 1925 Pls
6289 1671 Pls
1685 4131 Pls
1685 3453 Pls
1685 2418 Pls
1685 2312 Pls
2146 3864 Pls
2146 2841 Pls
2146 2457 Pls
2146 2016 Pls
2606 3557 Pls
2606 2840 Pls
2606 2342 Pls
2606 1948 Pls
3066 3213 Pls
3066 2597 Pls
3066 2111 Pls
3066 2149 Pls
3527 3445 Pls
3527 2357 Pls
3527 1936 Pls
3527 1792 Pls
4447 2474 Pls
4447 1894 Pls
4447 1250 Pls
4447 1215 Pls
4908 3065 Pls
4908 2113 Pls
4908 1813 Pls
4908 1526 Pls
5368 3163 Pls
5368 1894 Pls
5368 1700 Pls
5368 1629 Pls
5828 3754 Pls
5828 2507 Pls
5828 1757 Pls
5828 1650 Pls
6289 3262 Pls
6289 2025 Pls
6289 1813 Pls
6289 1609 Pls
1685 3298 Pls
1685 2237 Pls
1685 1612 Pls
1685 1453 Pls
2146 3142 Pls
2146 2380 Pls
2146 1691 Pls
2146 1506 Pls
2606 3413 Pls
2606 1819 Pls
2606 1677 Pls
2606 1481 Pls
3066 2778 Pls
3066 1987 Pls
3066 1499 Pls
3066 1544 Pls
3527 2415 Pls
3527 1473 Pls
3527 1333 Pls
3527 1109 Pls
4447 1489 Pls
4447 1281 Pls
4447 997 Pls
4447 966 Pls
4908 1785 Pls
4908 1281 Pls
4908 1081 Pls
4908 1173 Pls
5368 2277 Pls
5368 1544 Pls
5368 1306 Pls
5368 1070 Pls
5828 2868 Pls
5828 2069 Pls
5828 1419 Pls
5828 1132 Pls
6289 3065 Pls
6289 1413 Pls
6289 1363 Pls
6289 1194 Pls
1685 3800 Pls
1685 2671 Pls
1685 1761 Pls
1685 1946 Pls
2146 3594 Pls
2146 2692 Pls
2146 1968 Pls
2146 1687 Pls
2606 3252 Pls
2606 2407 Pls
2606 1881 Pls
2606 1718 Pls
3066 2998 Pls
3066 1889 Pls
3066 1952 Pls
3066 1732 Pls
3527 3193 Pls
3527 1737 Pls
3527 1867 Pls
3527 1319 Pls
4447 1883 Pls
4447 1456 Pls
4447 1222 Pls
4447 987 Pls
4908 2376 Pls
4908 1675 Pls
4908 1306 Pls
4908 1215 Pls
5368 2474 Pls
5368 1544 Pls
5368 1644 Pls
5368 1360 Pls
5828 3557 Pls
5828 1938 Pls
5828 1447 Pls
5828 1401 Pls
6289 2868 Pls
6289 2288 Pls
6289 1588 Pls
6289 1526 Pls
1685 3740 Pls
1685 2938 Pls
1685 2222 Pls
1685 2128 Pls
2146 3909 Pls
2146 3056 Pls
2146 1888 Pls
2146 1857 Pls
2606 4079 Pls
2606 2803 Pls
2606 2167 Pls
2606 1829 Pls
3066 3297 Pls
3066 2844 Pls
3066 1916 Pls
3066 1520 Pls
3527 3348 Pls
3527 1983 Pls
3527 1643 Pls
3527 1456 Pls
4447 2277 Pls
4447 1369 Pls
4447 1278 Pls
4447 1152 Pls
4908 2474 Pls
4908 1413 Pls
4908 1363 Pls
4908 1256 Pls
5368 3360 Pls
5368 2332 Pls
5368 1475 Pls
5368 1443 Pls
5828 2671 Pls
5828 2113 Pls
5828 1728 Pls
5828 1484 Pls
6289 3360 Pls
6289 1982 Pls
6289 1869 Pls
6289 1505 Pls
1685 3925 Pls
1685 3319 Pls
1685 2047 Pls
1685 2146 Pls
2146 4013 Pls
2146 2979 Pls
2146 2548 Pls
2146 1926 Pls
2606 3596 Pls
2606 3000 Pls
2606 2032 Pls
2606 2089 Pls
3066 3927 Pls
3066 2821 Pls
3066 1908 Pls
3066 1733 Pls
3527 3290 Pls
3527 2049 Pls
3527 1838 Pls
3527 1636 Pls
4447 2573 Pls
4447 1544 Pls
4447 1250 Pls
4447 1318 Pls
4908 2770 Pls
4908 1894 Pls
4908 1532 Pls
4908 1526 Pls
5368 2966 Pls
5368 2025 Pls
5368 1588 Pls
5368 1422 Pls
5828 3557 Pls
5828 1982 Pls
5828 1616 Pls
5828 1733 Pls
6289 2868 Pls
6289 2463 Pls
6289 1982 Pls
6289 1609 Pls
1685 4203 Pls
1685 3055 Pls
1685 2331 Pls
1685 2190 Pls
2146 4117 Pls
2146 2962 Pls
2146 2200 Pls
2146 2055 Pls
2606 3719 Pls
2606 3232 Pls
2606 2452 Pls
2606 1916 Pls
3066 3445 Pls
3066 2735 Pls
3066 2169 Pls
3066 1950 Pls
3527 3501 Pls
3527 2628 Pls
3527 1959 Pls
3527 1772 Pls
4447 2179 Pls
4447 1894 Pls
4447 1419 Pls
4447 1235 Pls
4908 2966 Pls
4908 1500 Pls
4908 1335 Pls
4908 1132 Pls
5368 3360 Pls
5368 1807 Pls
5368 1616 Pls
5368 1546 Pls
5828 3360 Pls
5828 2376 Pls
5828 1869 Pls
5828 1401 Pls
6289 3163 Pls
6289 2069 Pls
6289 1757 Pls
6289 1629 Pls
1685 3087 Pls
1685 2196 Pls
1685 1672 Pls
1685 1920 Pls
2146 3516 Pls
2146 2491 Pls
2146 1966 Pls
2146 1625 Pls
2606 3399 Pls
2606 1986 Pls
2606 1850 Pls
2606 1514 Pls
3066 3008 Pls
3066 1909 Pls
3066 1567 Pls
3066 1475 Pls
3527 2546 Pls
3527 1541 Pls
3527 1404 Pls
3527 1309 Pls
4447 1883 Pls
4447 1150 Pls
4447 1081 Pls
4447 1007 Pls
4908 2277 Pls
4908 1456 Pls
4908 1194 Pls
4908 987 Pls
5368 2277 Pls
5368 1150 Pls
5368 1391 Pls
5368 1256 Pls
5828 2376 Pls
5828 1500 Pls
5828 1363 Pls
5828 1360 Pls
6289 2179 Pls
6289 1675 Pls
6289 1503 Pls
6289 1298 Pls
1685 3221 Pls
1685 2742 Pls
1685 2152 Pls
1685 1697 Pls
2146 3520 Pls
2146 2538 Pls
2146 1877 Pls
2146 1844 Pls
2606 3620 Pls
2606 2227 Pls
2606 1934 Pls
2606 1647 Pls
3066 3013 Pls
3066 2336 Pls
3066 1964 Pls
3066 1647 Pls
3527 2790 Pls
3527 1694 Pls
3527 1679 Pls
3527 1423 Pls
4447 1588 Pls
4447 1500 Pls
4447 1138 Pls
4447 1049 Pls
4908 2179 Pls
4908 1544 Pls
4908 1109 Pls
4908 1215 Pls
5368 2474 Pls
5368 1982 Pls
5368 1560 Pls
5368 1380 Pls
5828 2868 Pls
5828 1982 Pls
5828 1447 Pls
5828 1360 Pls
6289 2868 Pls
6289 2113 Pls
6289 1391 Pls
6289 1256 Pls
1685 3983 Pls
1685 2623 Pls
1685 2212 Pls
1685 1997 Pls
2146 3761 Pls
2146 2885 Pls
2146 2137 Pls
2146 1854 Pls
2606 3550 Pls
2606 2744 Pls
2606 1968 Pls
2606 1791 Pls
3066 3499 Pls
3066 2369 Pls
3066 1930 Pls
3066 1789 Pls
3527 2713 Pls
3527 1945 Pls
3527 1569 Pls
3527 1441 Pls
4447 2474 Pls
4447 1456 Pls
4447 1306 Pls
4447 1277 Pls
4908 2573 Pls
4908 1588 Pls
4908 1475 Pls
4908 1256 Pls
5368 2966 Pls
5368 1982 Pls
5368 1560 Pls
5368 1277 Pls
5828 2868 Pls
5828 2025 Pls
5828 1813 Pls
5828 1443 Pls
6289 3656 Pls
6289 2463 Pls
6289 1728 Pls
6289 1235 Pls
1685 3951 Pls
1685 3190 Pls
1685 2250 Pls
1685 2206 Pls
2146 3710 Pls
2146 2456 Pls
2146 2574 Pls
2146 1831 Pls
2606 2983 Pls
2606 2844 Pls
2606 2106 Pls
2606 1942 Pls
3066 3633 Pls
3066 2545 Pls
3066 1814 Pls
3066 1760 Pls
3527 3243 Pls
3527 2150 Pls
3527 1624 Pls
3527 1584 Pls
4447 2179 Pls
4447 1544 Pls
4447 1222 Pls
4447 1298 Pls
4908 2671 Pls
4908 1982 Pls
4908 1532 Pls
4908 1360 Pls
5368 3360 Pls
5368 2463 Pls
5368 1560 Pls
5368 1318 Pls
5828 3360 Pls
5828 2244 Pls
5828 1700 Pls
5828 1380 Pls
6289 3557 Pls
6289 2332 Pls
6289 1644 Pls
6289 1567 Pls
1685 3943 Pls
1685 3090 Pls
1685 2414 Pls
1685 1984 Pls
2146 4107 Pls
2146 3271 Pls
2146 2537 Pls
2146 2102 Pls
2606 3886 Pls
2606 3115 Pls
2606 2323 Pls
2606 1922 Pls
3066 3636 Pls
3066 2591 Pls
3066 2271 Pls
3066 1824 Pls
3527 3320 Pls
3527 2332 Pls
3527 1807 Pls
3527 1541 Pls
4447 3065 Pls
4447 2025 Pls
4447 1503 Pls
4447 1090 Pls
4908 2966 Pls
4908 2288 Pls
4908 1503 Pls
4908 1298 Pls
5368 2671 Pls
5368 2113 Pls
5368 1503 Pls
5368 1443 Pls
5828 2966 Pls
5828 2157 Pls
5828 1672 Pls
5828 1526 Pls
6289 3360 Pls
6289 2332 Pls
6289 2010 Pls
6289 1588 Pls
1685 3605 Pls
1685 2537 Pls
1685 1930 Pls
1685 1792 Pls
2146 2969 Pls
2146 2498 Pls
2146 1666 Pls
2146 1586 Pls
2606 2848 Pls
2606 2355 Pls
2606 1594 Pls
2606 1641 Pls
3066 2526 Pls
3066 1941 Pls
3066 1631 Pls
3066 1325 Pls
3527 2192 Pls
3527 1581 Pls
3527 1325 Pls
3527 1222 Pls
4447 1686 Pls
4447 1106 Pls
4447 969 Pls
4447 924 Pls
4908 1982 Pls
4908 1456 Pls
4908 1081 Pls
4908 1007 Pls
5368 2474 Pls
5368 1413 Pls
5368 1278 Pls
5368 1132 Pls
5828 2277 Pls
5828 1369 Pls
5828 1278 Pls
5828 1173 Pls
6289 2376 Pls
6289 1850 Pls
6289 1222 Pls
6289 1028 Pls
1685 4038 Pls
1685 2417 Pls
1685 2361 Pls
1685 1895 Pls
2146 3515 Pls
2146 2619 Pls
2146 1815 Pls
2146 1638 Pls
2606 3626 Pls
2606 2320 Pls
2606 1892 Pls
2606 1894 Pls
3066 3297 Pls
3066 2307 Pls
3066 1958 Pls
3066 1821 Pls
3527 3398 Pls
3527 1642 Pls
3527 1555 Pls
3527 1353 Pls
4447 1883 Pls
4447 1325 Pls
4447 1250 Pls
4447 1111 Pls
4908 2770 Pls
4908 1588 Pls
4908 1278 Pls
4908 1173 Pls
5368 2474 Pls
5368 1763 Pls
5368 1194 Pls
5368 1277 Pls
5828 2770 Pls
5828 1982 Pls
5828 1475 Pls
5828 1505 Pls
6289 2868 Pls
6289 1850 Pls
6289 1616 Pls
6289 1360 Pls
1685 3803 Pls
1685 2965 Pls
1685 2377 Pls
1685 1946 Pls
2146 3294 Pls
2146 2921 Pls
2146 2337 Pls
2146 1685 Pls
2606 3993 Pls
2606 2535 Pls
2606 1949 Pls
2606 2061 Pls
3066 3441 Pls
3066 2347 Pls
3066 2014 Pls
3066 1638 Pls
3527 2980 Pls
3527 2171 Pls
3527 1480 Pls
3527 1646 Pls
4447 2671 Pls
4447 1763 Pls
4447 1138 Pls
4447 1298 Pls
4908 2179 Pls
4908 1763 Pls
4908 1335 Pls
4908 1256 Pls
5368 2474 Pls
5368 1982 Pls
5368 1672 Pls
5368 1339 Pls
5828 3262 Pls
5828 2419 Pls
5828 1644 Pls
5828 1298 Pls
6289 3163 Pls
6289 2244 Pls
6289 1841 Pls
6289 1484 Pls
1685 3771 Pls
1685 2528 Pls
1685 2320 Pls
1685 2055 Pls
2146 4153 Pls
2146 2852 Pls
2146 2373 Pls
2146 2206 Pls
2606 3866 Pls
2606 3050 Pls
2606 2514 Pls
2606 2023 Pls
3066 3726 Pls
3066 2629 Pls
3066 2265 Pls
3066 1773 Pls
3527 2696 Pls
3527 2558 Pls
3527 1770 Pls
3527 1357 Pls
4447 2474 Pls
4447 1763 Pls
4447 1419 Pls
4447 1256 Pls
4908 2671 Pls
4908 1763 Pls
4908 1532 Pls
4908 1339 Pls
5368 3163 Pls
5368 2025 Pls
5368 1532 Pls
5368 1339 Pls
5828 3065 Pls
5828 2201 Pls
5828 1757 Pls
5828 1298 Pls
6289 3163 Pls
6289 1894 Pls
6289 1757 Pls
6289 1380 Pls
1685 3962 Pls
1685 3390 Pls
1685 2696 Pls
1685 2065 Pls
2146 4103 Pls
2146 2825 Pls
2146 2666 Pls
2146 2039 Pls
2606 3703 Pls
2606 3027 Pls
2606 2425 Pls
2606 2040 Pls
3066 3642 Pls
3066 2472 Pls
3066 2053 Pls
3066 2069 Pls
3527 3562 Pls
3527 2734 Pls
3527 1993 Pls
3527 1703 Pls
4447 2277 Pls
4447 1632 Pls
4447 1278 Pls
4447 1235 Pls
4908 2966 Pls
4908 1938 Pls
4908 1644 Pls
4908 1318 Pls
5368 3360 Pls
5368 2201 Pls
5368 1757 Pls
5368 1443 Pls
5828 2966 Pls
5828 2069 Pls
5828 1897 Pls
5828 1463 Pls
6289 4148 Pls
6289 2332 Pls
6289 2010 Pls
6289 1401 Pls
1685 3649 Pls
1685 2247 Pls
1685 2128 Pls
1685 1666 Pls
2146 2982 Pls
2146 2099 Pls
2146 1915 Pls
2146 1689 Pls
2606 2966 Pls
2606 1888 Pls
2606 1578 Pls
2606 1594 Pls
3066 2709 Pls
3066 1740 Pls
3066 1746 Pls
3066 1365 Pls
3527 2244 Pls
3527 1753 Pls
3527 1434 Pls
3527 1220 Pls
4447 1489 Pls
4447 1106 Pls
4447 1025 Pls
4447 966 Pls
4908 2277 Pls
4908 1238 Pls
4908 1081 Pls
4908 1007 Pls
5368 2277 Pls
5368 1369 Pls
5368 1419 Pls
5368 1215 Pls
5828 2474 Pls
5828 1369 Pls
5828 1475 Pls
5828 1173 Pls
6289 2277 Pls
6289 1719 Pls
6289 1419 Pls
6289 1111 Pls
1685 3781 Pls
1685 2392 Pls
1685 2171 Pls
1685 1845 Pls
2146 3958 Pls
2146 2362 Pls
2146 1976 Pls
2146 1830 Pls
2606 3499 Pls
2606 2348 Pls
2606 1875 Pls
2606 1908 Pls
3066 3144 Pls
3066 2343 Pls
3066 2026 Pls
3066 1606 Pls
3527 2981 Pls
3527 1866 Pls
3527 1666 Pls
3527 1422 Pls
4447 1588 Pls
4447 1194 Pls
4447 1138 Pls
4447 1028 Pls
4908 2376 Pls
4908 1544 Pls
4908 1081 Pls
4908 1339 Pls
5368 2868 Pls
5368 1632 Pls
5368 1475 Pls
5368 1277 Pls
5828 2868 Pls
5828 2025 Pls
5828 1813 Pls
5828 1256 Pls
6289 3163 Pls
6289 1632 Pls
6289 1588 Pls
6289 1256 Pls
1685 3738 Pls
1685 2803 Pls
1685 2494 Pls
1685 1903 Pls
2146 3803 Pls
2146 2609 Pls
2146 2134 Pls
2146 1991 Pls
2606 3767 Pls
2606 2346 Pls
2606 1874 Pls
2606 1811 Pls
3066 3459 Pls
3066 2560 Pls
3066 2144 Pls
3066 1666 Pls
3527 2955 Pls
3527 1992 Pls
3527 1568 Pls
3527 1449 Pls
4447 2277 Pls
4447 1675 Pls
4447 1391 Pls
4447 1173 Pls
4908 2376 Pls
4908 2201 Pls
4908 1419 Pls
4908 1298 Pls
5368 3163 Pls
5368 1632 Pls
5368 1616 Pls
5368 1298 Pls
5828 3065 Pls
5828 1763 Pls
5828 1447 Pls
5828 1339 Pls
6289 3163 Pls
6289 2419 Pls
6289 1813 Pls
6289 1609 Pls
1685 4131 Pls
1685 3081 Pls
1685 2144 Pls
1685 2049 Pls
2146 3768 Pls
2146 2781 Pls
2146 2302 Pls
2146 2105 Pls
2606 3445 Pls
2606 2853 Pls
2606 2337 Pls
2606 2215 Pls
3066 3487 Pls
3066 2296 Pls
3066 1893 Pls
3066 1808 Pls
3527 3371 Pls
3527 1982 Pls
3527 1757 Pls
3527 1836 Pls
4447 2277 Pls
4447 1456 Pls
4447 1391 Pls
4447 1256 Pls
4908 3065 Pls
4908 1938 Pls
4908 1391 Pls
4908 1235 Pls
5368 3163 Pls
5368 2288 Pls
5368 1560 Pls
5368 1526 Pls
5828 3262 Pls
5828 2332 Pls
5828 1644 Pls
5828 1401 Pls
6289 3262 Pls
6289 2288 Pls
6289 1954 Pls
6289 1526 Pls
1685 4161 Pls
1685 2881 Pls
1685 2492 Pls
1685 2167 Pls
2146 3786 Pls
2146 3234 Pls
2146 2620 Pls
2146 1984 Pls
2606 3959 Pls
2606 3068 Pls
2606 2328 Pls
2606 1638 Pls
3066 3230 Pls
3066 2942 Pls
3066 2514 Pls
3066 1865 Pls
3527 3466 Pls
3527 2150 Pls
3527 2014 Pls
3527 1684 Pls
4447 2868 Pls
4447 1588 Pls
4447 1306 Pls
4447 1256 Pls
4908 2868 Pls
4908 1938 Pls
4908 1700 Pls
4908 1422 Pls
5368 3262 Pls
5368 2201 Pls
5368 1616 Pls
5368 1588 Pls
5828 3065 Pls
5828 2113 Pls
5828 1475 Pls
5828 1422 Pls
6289 3656 Pls
6289 1982 Pls
6289 1757 Pls
6289 1712 Pls
1685 3457 Pls
1685 2298 Pls
1685 2016 Pls
1685 1563 Pls
2146 2797 Pls
2146 2241 Pls
2146 2047 Pls
2146 1662 Pls
2606 3410 Pls
2606 1877 Pls
2606 1695 Pls
2606 1553 Pls
3066 2768 Pls
3066 1770 Pls
3066 1458 Pls
3066 1475 Pls
3527 2546 Pls
3527 1645 Pls
3527 1612 Pls
3527 1218 Pls
4447 1686 Pls
4447 1019 Pls
4447 997 Pls
4447 987 Pls
4908 2179 Pls
4908 1194 Pls
4908 1194 Pls
4908 1049 Pls
5368 2376 Pls
5368 1588 Pls
5368 1194 Pls
5368 1090 Pls
5828 2376 Pls
5828 1544 Pls
5828 1391 Pls
5828 1256 Pls
6289 2376 Pls
6289 1763 Pls
6289 1419 Pls
6289 1401 Pls
1685 3515 Pls
1685 2081 Pls
1685 2117 Pls
1685 1644 Pls
2146 3761 Pls
2146 2118 Pls
2146 1845 Pls
2146 1785 Pls
2606 3707 Pls
2606 2568 Pls
2606 2169 Pls
2606 1829 Pls
3066 3084 Pls
3066 1977 Pls
3066 1965 Pls
3066 1553 Pls
3527 2481 Pls
3527 2194 Pls
3527 1546 Pls
3527 1480 Pls
4447 2179 Pls
4447 1413 Pls
4447 969 Pls
4447 966 Pls
4908 2277 Pls
4908 1544 Pls
4908 1278 Pls
4908 1152 Pls
5368 1982 Pls
5368 1544 Pls
5368 1560 Pls
5368 1298 Pls
5828 2966 Pls
5828 1588 Pls
5828 1475 Pls
5828 1339 Pls
6289 3459 Pls
6289 1850 Pls
6289 1532 Pls
6289 1277 Pls
1685 3589 Pls
1685 3080 Pls
1685 2286 Pls
1685 2034 Pls
2146 4138 Pls
2146 2598 Pls
2146 2153 Pls
2146 1907 Pls
2606 3796 Pls
2606 2787 Pls
2606 2221 Pls
2606 1490 Pls
3066 3732 Pls
3066 2130 Pls
3066 1907 Pls
3066 1808 Pls
3527 2953 Pls
3527 1910 Pls
3527 1816 Pls
3527 1573 Pls
4447 2179 Pls
4447 1369 Pls
4447 1335 Pls
4447 1173 Pls
4908 2277 Pls
4908 1413 Pls
4908 1447 Pls
4908 1132 Pls
5368 2868 Pls
5368 2157 Pls
5368 1616 Pls
5368 1256 Pls
5828 3557 Pls
5828 2288 Pls
5828 1475 Pls
5828 1443 Pls
6289 3656 Pls
6289 2551 Pls
6289 1560 Pls
6289 1505 Pls
1685 3705 Pls
1685 2964 Pls
1685 2308 Pls
1685 2131 Pls
2146 3758 Pls
2146 2927 Pls
2146 2015 Pls
2146 1928 Pls
2606 3851 Pls
2606 2931 Pls
2606 2011 Pls
2606 1922 Pls
3066 3719 Pls
3066 2714 Pls
3066 1930 Pls
3066 1669 Pls
3527 2857 Pls
3527 2350 Pls
3527 1810 Pls
3527 1624 Pls
4447 2179 Pls
4447 1500 Pls
4447 1503 Pls
4447 1215 Pls
4908 3262 Pls
4908 1938 Pls
4908 1588 Pls
4908 1235 Pls
5368 3262 Pls
5368 2113 Pls
5368 1588 Pls
5368 1339 Pls
5828 3656 Pls
5828 2069 Pls
5828 1532 Pls
5828 1733 Pls
6289 3262 Pls
6289 2332 Pls
6289 1588 Pls
6289 1671 Pls
1685 4041 Pls
1685 2700 Pls
1685 2368 Pls
1685 1769 Pls
2146 3895 Pls
2146 3157 Pls
2146 2369 Pls
2146 1926 Pls
2606 3703 Pls
2606 2823 Pls
2606 2204 Pls
2606 1989 Pls
3066 3369 Pls
3066 2850 Pls
3066 2053 Pls
3066 1992 Pls
3527 3610 Pls
3527 2092 Pls
3527 1795 Pls
3527 1617 Pls
4447 2770 Pls
4447 1675 Pls
4447 1138 Pls
4447 1298 Pls
4908 2966 Pls
4908 1894 Pls
4908 1757 Pls
4908 1401 Pls
5368 3163 Pls
5368 1807 Pls
5368 1419 Pls
5368 1484 Pls
5828 3360 Pls
5828 2419 Pls
5828 1757 Pls
5828 1422 Pls
6289 3656 Pls
6289 2025 Pls
6289 1841 Pls
6289 1650 Pls
1685 2945 Pls
1685 2463 Pls
1685 1994 Pls
1685 1603 Pls
2146 3087 Pls
2146 2158 Pls
2146 1903 Pls
2146 1706 Pls
2606 3313 Pls
2606 2332 Pls
2606 1959 Pls
2606 1455 Pls
3066 2513 Pls
3066 1991 Pls
3066 1500 Pls
3066 1284 Pls
3527 2244 Pls
3527 1813 Pls
3527 1232 Pls
3527 1291 Pls
4447 1686 Pls
4447 1106 Pls
4447 969 Pls
4447 924 Pls
4908 1982 Pls
4908 1194 Pls
4908 1138 Pls
4908 1152 Pls
5368 2277 Pls
5368 1544 Pls
5368 1109 Pls
5368 1215 Pls
5828 2474 Pls
5828 1456 Pls
5828 1419 Pls
5828 1235 Pls
6289 2277 Pls
6289 1719 Pls
6289 1419 Pls
6289 1173 Pls
1685 3839 Pls
1685 2582 Pls
1685 2056 Pls
1685 1972 Pls
2146 3699 Pls
2146 2607 Pls
2146 2015 Pls
2146 1800 Pls
2606 3059 Pls
2606 2473 Pls
2606 2241 Pls
2606 1423 Pls
3066 3353 Pls
3066 2369 Pls
3066 1803 Pls
3066 1592 Pls
3527 2741 Pls
3527 1852 Pls
3527 1730 Pls
3527 1420 Pls
4447 1982 Pls
4447 1238 Pls
4447 1222 Pls
4447 1028 Pls
4908 2376 Pls
4908 1369 Pls
4908 1363 Pls
4908 1215 Pls
5368 2179 Pls
5368 1850 Pls
5368 1447 Pls
5368 1298 Pls
5828 3065 Pls
5828 1675 Pls
5828 1672 Pls
5828 1318 Pls
6289 2966 Pls
6289 1982 Pls
6289 1560 Pls
6289 1318 Pls
1685 3930 Pls
1685 2484 Pls
1685 2174 Pls
1685 2149 Pls
2146 3753 Pls
2146 2773 Pls
2146 2560 Pls
2146 1789 Pls
2606 3846 Pls
2606 2746 Pls
2606 2207 Pls
2606 1797 Pls
3066 3307 Pls
3066 2546 Pls
3066 1854 Pls
3066 1894 Pls
3527 3281 Pls
3527 2150 Pls
3527 1505 Pls
3527 1574 Pls
4447 1883 Pls
4447 1588 Pls
4447 1335 Pls
4447 1194 Pls
4908 2966 Pls
4908 2069 Pls
4908 1644 Pls
4908 1235 Pls
5368 3557 Pls
5368 2069 Pls
5368 1503 Pls
5368 1298 Pls
5828 3065 Pls
5828 1938 Pls
5828 1503 Pls
5828 1380 Pls
6289 3065 Pls
6289 2157 Pls
6289 1672 Pls
6289 1484 Pls
1685 3929 Pls
1685 2867 Pls
1685 2244 Pls
1685 1930 Pls
2146 3807 Pls
2146 2773 Pls
2146 2382 Pls
2146 2201 Pls
2606 3948 Pls
2606 2352 Pls
2606 2102 Pls
2606 2006 Pls
3066 3522 Pls
3066 2504 Pls
3066 2006 Pls
3066 1623 Pls
3527 3543 Pls
3527 2366 Pls
3527 1828 Pls
3527 1625 Pls
4447 2868 Pls
4447 1456 Pls
4447 1166 Pls
4447 1235 Pls
4908 2966 Pls
4908 1982 Pls
4908 1391 Pls
4908 1339 Pls
5368 3459 Pls
5368 2244 Pls
5368 1447 Pls
5368 1526 Pls
5828 3065 Pls
5828 2244 Pls
5828 1616 Pls
5828 1505 Pls
6289 3459 Pls
6289 2376 Pls
6289 1869 Pls
6289 1443 Pls
1685 4269 Pls
1685 3371 Pls
1685 2532 Pls
1685 2085 Pls
2146 3964 Pls
2146 3071 Pls
2146 2282 Pls
2146 2055 Pls
2606 3686 Pls
2606 3025 Pls
2606 2110 Pls
2606 1963 Pls
3066 3854 Pls
3066 2735 Pls
3066 2099 Pls
3066 1717 Pls
3527 3725 Pls
3527 1976 Pls
3527 2086 Pls
3527 1569 Pls
4447 2376 Pls
4447 1544 Pls
4447 1363 Pls
4447 1318 Pls
4908 3163 Pls
4908 1807 Pls
4908 1560 Pls
4908 1380 Pls
5368 3459 Pls
5368 2463 Pls
5368 1644 Pls
5368 1298 Pls
5828 4050 Pls
5828 1850 Pls
5828 1419 Pls
5828 1484 Pls
6289 2868 Pls
6289 2419 Pls
6289 1757 Pls
6289 1484 Pls
% End plot #1
% Begin plot #2
1.000 UL
LT1
LCb setrgbcolor
2425 1488 M
[ [(Helvetica) 250.0 0.0 true true 0 (Average)]
] -83.3 MRshow
LT1
2575 1488 M
663 0 V
1685 2668 M
461 -70 V
460 -94 V
460 -170 V
461 -280 V
920 -507 V
461 274 V
460 202 V
460 159 V
461 99 V
% End plot #2
% Begin plot #3
stroke
LT2
LCb setrgbcolor
2425 1238 M
[ [(Helvetica) 250.0 0.0 true true 0 (Min)]
] -83.3 MRshow
LT2
2575 1238 M
663 0 V
1685 1453 M
461 -106 V
460 76 V
460 -260 V
461 -54 V
4447 924 L
461 42 V
460 104 V
460 62 V
461 -104 V
% End plot #3
% Begin plot #4
stroke
LT3
LCb setrgbcolor
2425 988 M
[ [(Helvetica) 250.0 0.0 true true 0 (Max)]
] -83.3 MRshow
LT3
2575 988 M
663 0 V
1685 4269 M
461 136 V
460 -260 V
460 76 V
461 -496 V
920 -463 V
461 689 V
460 493 V
460 -99 V
461 296 V
% End plot #4
stroke
LTb
1225 4739 N
0 -3939 V
5524 0 V
0 3939 V
-5524 0 V
Z stroke
1.000 UP
1.000 UL
LTb
stroke
grestore
end
showpage
%%Trailer
%%DocumentFonts: Helvetica
