%!PS-Adobe-2.0 EPSF-2.0
%%Title: n_noise_ratio.precision.eps
%%Creator: gnuplot 4.4 patchlevel 3
%%CreationDate: Tue Jun  4 13:11:09 2013
%%DocumentFonts: (atend)
%%BoundingBox: 50 50 410 302
%%EndComments
%%BeginProlog
/gnudict 256 dict def
gnudict begin
%
% The following true/false flags may be edited by hand if desired.
% The unit line width and grayscale image gamma correction may also be changed.
%
/Color true def
/Blacktext false def
/Solid false def
/Dashlength 1 def
/Landscape false def
/Level1 false def
/Rounded false def
/ClipToBoundingBox false def
/TransparentPatterns false def
/gnulinewidth 5.000 def
/userlinewidth gnulinewidth def
/Gamma 1.0 def
%
/vshift -83 def
/dl1 {
  10.0 Dashlength mul mul
  Rounded { currentlinewidth 0.75 mul sub dup 0 le { pop 0.01 } if } if
} def
/dl2 {
  10.0 Dashlength mul mul
  Rounded { currentlinewidth 0.75 mul add } if
} def
/hpt_ 31.5 def
/vpt_ 31.5 def
/hpt hpt_ def
/vpt vpt_ def
Level1 {} {
/SDict 10 dict def
systemdict /pdfmark known not {
  userdict /pdfmark systemdict /cleartomark get put
} if
SDict begin [
  /Title (n_noise_ratio.precision.eps)
  /Subject (gnuplot plot)
  /Creator (gnuplot 4.4 patchlevel 3)
  /Author (xjia)
%  /Producer (gnuplot)
%  /Keywords ()
  /CreationDate (Tue Jun  4 13:11:09 2013)
  /DOCINFO pdfmark
end
} ifelse
/doclip {
  ClipToBoundingBox {
    newpath 50 50 moveto 410 50 lineto 410 302 lineto 50 302 lineto closepath
    clip
  } if
} def
%
% Gnuplot Prolog Version 4.4 (August 2010)
%
%/SuppressPDFMark true def
%
/M {moveto} bind def
/L {lineto} bind def
/R {rmoveto} bind def
/V {rlineto} bind def
/N {newpath moveto} bind def
/Z {closepath} bind def
/C {setrgbcolor} bind def
/f {rlineto fill} bind def
/g {setgray} bind def
/Gshow {show} def   % May be redefined later in the file to support UTF-8
/vpt2 vpt 2 mul def
/hpt2 hpt 2 mul def
/Lshow {currentpoint stroke M 0 vshift R 
	Blacktext {gsave 0 setgray show grestore} {show} ifelse} def
/Rshow {currentpoint stroke M dup stringwidth pop neg vshift R
	Blacktext {gsave 0 setgray show grestore} {show} ifelse} def
/Cshow {currentpoint stroke M dup stringwidth pop -2 div vshift R 
	Blacktext {gsave 0 setgray show grestore} {show} ifelse} def
/UP {dup vpt_ mul /vpt exch def hpt_ mul /hpt exch def
  /hpt2 hpt 2 mul def /vpt2 vpt 2 mul def} def
/DL {Color {setrgbcolor Solid {pop []} if 0 setdash}
 {pop pop pop 0 setgray Solid {pop []} if 0 setdash} ifelse} def
/BL {stroke userlinewidth 2 mul setlinewidth
	Rounded {1 setlinejoin 1 setlinecap} if} def
/AL {stroke userlinewidth 2 div setlinewidth
	Rounded {1 setlinejoin 1 setlinecap} if} def
/UL {dup gnulinewidth mul /userlinewidth exch def
	dup 1 lt {pop 1} if 10 mul /udl exch def} def
/PL {stroke userlinewidth setlinewidth
	Rounded {1 setlinejoin 1 setlinecap} if} def
3.8 setmiterlimit
% Default Line colors
/LCw {1 1 1} def
/LCb {0 0 0} def
/LCa {0 0 0} def
/LC0 {1 0 0} def
/LC1 {0 1 0} def
/LC2 {0 0 1} def
/LC3 {1 0 1} def
/LC4 {0 1 1} def
/LC5 {1 1 0} def
/LC6 {0 0 0} def
/LC7 {1 0.3 0} def
/LC8 {0.5 0.5 0.5} def
% Default Line Types
/LTw {PL [] 1 setgray} def
/LTb {BL [] LCb DL} def
/LTa {AL [1 udl mul 2 udl mul] 0 setdash LCa setrgbcolor} def
/LT0 {PL [] LC0 DL} def
/LT1 {PL [4 dl1 2 dl2] LC1 DL} def
/LT2 {PL [2 dl1 3 dl2] LC2 DL} def
/LT3 {PL [1 dl1 1.5 dl2] LC3 DL} def
/LT4 {PL [6 dl1 2 dl2 1 dl1 2 dl2] LC4 DL} def
/LT5 {PL [3 dl1 3 dl2 1 dl1 3 dl2] LC5 DL} def
/LT6 {PL [2 dl1 2 dl2 2 dl1 6 dl2] LC6 DL} def
/LT7 {PL [1 dl1 2 dl2 6 dl1 2 dl2 1 dl1 2 dl2] LC7 DL} def
/LT8 {PL [2 dl1 2 dl2 2 dl1 2 dl2 2 dl1 2 dl2 2 dl1 4 dl2] LC8 DL} def
/Pnt {stroke [] 0 setdash gsave 1 setlinecap M 0 0 V stroke grestore} def
/Dia {stroke [] 0 setdash 2 copy vpt add M
  hpt neg vpt neg V hpt vpt neg V
  hpt vpt V hpt neg vpt V closepath stroke
  Pnt} def
/Pls {stroke [] 0 setdash vpt sub M 0 vpt2 V
  currentpoint stroke M
  hpt neg vpt neg R hpt2 0 V stroke
 } def
/Box {stroke [] 0 setdash 2 copy exch hpt sub exch vpt add M
  0 vpt2 neg V hpt2 0 V 0 vpt2 V
  hpt2 neg 0 V closepath stroke
  Pnt} def
/Crs {stroke [] 0 setdash exch hpt sub exch vpt add M
  hpt2 vpt2 neg V currentpoint stroke M
  hpt2 neg 0 R hpt2 vpt2 V stroke} def
/TriU {stroke [] 0 setdash 2 copy vpt 1.12 mul add M
  hpt neg vpt -1.62 mul V
  hpt 2 mul 0 V
  hpt neg vpt 1.62 mul V closepath stroke
  Pnt} def
/Star {2 copy Pls Crs} def
/BoxF {stroke [] 0 setdash exch hpt sub exch vpt add M
  0 vpt2 neg V hpt2 0 V 0 vpt2 V
  hpt2 neg 0 V closepath fill} def
/TriUF {stroke [] 0 setdash vpt 1.12 mul add M
  hpt neg vpt -1.62 mul V
  hpt 2 mul 0 V
  hpt neg vpt 1.62 mul V closepath fill} def
/TriD {stroke [] 0 setdash 2 copy vpt 1.12 mul sub M
  hpt neg vpt 1.62 mul V
  hpt 2 mul 0 V
  hpt neg vpt -1.62 mul V closepath stroke
  Pnt} def
/TriDF {stroke [] 0 setdash vpt 1.12 mul sub M
  hpt neg vpt 1.62 mul V
  hpt 2 mul 0 V
  hpt neg vpt -1.62 mul V closepath fill} def
/DiaF {stroke [] 0 setdash vpt add M
  hpt neg vpt neg V hpt vpt neg V
  hpt vpt V hpt neg vpt V closepath fill} def
/Pent {stroke [] 0 setdash 2 copy gsave
  translate 0 hpt M 4 {72 rotate 0 hpt L} repeat
  closepath stroke grestore Pnt} def
/PentF {stroke [] 0 setdash gsave
  translate 0 hpt M 4 {72 rotate 0 hpt L} repeat
  closepath fill grestore} def
/Circle {stroke [] 0 setdash 2 copy
  hpt 0 360 arc stroke Pnt} def
/CircleF {stroke [] 0 setdash hpt 0 360 arc fill} def
/C0 {BL [] 0 setdash 2 copy moveto vpt 90 450 arc} bind def
/C1 {BL [] 0 setdash 2 copy moveto
	2 copy vpt 0 90 arc closepath fill
	vpt 0 360 arc closepath} bind def
/C2 {BL [] 0 setdash 2 copy moveto
	2 copy vpt 90 180 arc closepath fill
	vpt 0 360 arc closepath} bind def
/C3 {BL [] 0 setdash 2 copy moveto
	2 copy vpt 0 180 arc closepath fill
	vpt 0 360 arc closepath} bind def
/C4 {BL [] 0 setdash 2 copy moveto
	2 copy vpt 180 270 arc closepath fill
	vpt 0 360 arc closepath} bind def
/C5 {BL [] 0 setdash 2 copy moveto
	2 copy vpt 0 90 arc
	2 copy moveto
	2 copy vpt 180 270 arc closepath fill
	vpt 0 360 arc} bind def
/C6 {BL [] 0 setdash 2 copy moveto
	2 copy vpt 90 270 arc closepath fill
	vpt 0 360 arc closepath} bind def
/C7 {BL [] 0 setdash 2 copy moveto
	2 copy vpt 0 270 arc closepath fill
	vpt 0 360 arc closepath} bind def
/C8 {BL [] 0 setdash 2 copy moveto
	2 copy vpt 270 360 arc closepath fill
	vpt 0 360 arc closepath} bind def
/C9 {BL [] 0 setdash 2 copy moveto
	2 copy vpt 270 450 arc closepath fill
	vpt 0 360 arc closepath} bind def
/C10 {BL [] 0 setdash 2 copy 2 copy moveto vpt 270 360 arc closepath fill
	2 copy moveto
	2 copy vpt 90 180 arc closepath fill
	vpt 0 360 arc closepath} bind def
/C11 {BL [] 0 setdash 2 copy moveto
	2 copy vpt 0 180 arc closepath fill
	2 copy moveto
	2 copy vpt 270 360 arc closepath fill
	vpt 0 360 arc closepath} bind def
/C12 {BL [] 0 setdash 2 copy moveto
	2 copy vpt 180 360 arc closepath fill
	vpt 0 360 arc closepath} bind def
/C13 {BL [] 0 setdash 2 copy moveto
	2 copy vpt 0 90 arc closepath fill
	2 copy moveto
	2 copy vpt 180 360 arc closepath fill
	vpt 0 360 arc closepath} bind def
/C14 {BL [] 0 setdash 2 copy moveto
	2 copy vpt 90 360 arc closepath fill
	vpt 0 360 arc} bind def
/C15 {BL [] 0 setdash 2 copy vpt 0 360 arc closepath fill
	vpt 0 360 arc closepath} bind def
/Rec {newpath 4 2 roll moveto 1 index 0 rlineto 0 exch rlineto
	neg 0 rlineto closepath} bind def
/Square {dup Rec} bind def
/Bsquare {vpt sub exch vpt sub exch vpt2 Square} bind def
/S0 {BL [] 0 setdash 2 copy moveto 0 vpt rlineto BL Bsquare} bind def
/S1 {BL [] 0 setdash 2 copy vpt Square fill Bsquare} bind def
/S2 {BL [] 0 setdash 2 copy exch vpt sub exch vpt Square fill Bsquare} bind def
/S3 {BL [] 0 setdash 2 copy exch vpt sub exch vpt2 vpt Rec fill Bsquare} bind def
/S4 {BL [] 0 setdash 2 copy exch vpt sub exch vpt sub vpt Square fill Bsquare} bind def
/S5 {BL [] 0 setdash 2 copy 2 copy vpt Square fill
	exch vpt sub exch vpt sub vpt Square fill Bsquare} bind def
/S6 {BL [] 0 setdash 2 copy exch vpt sub exch vpt sub vpt vpt2 Rec fill Bsquare} bind def
/S7 {BL [] 0 setdash 2 copy exch vpt sub exch vpt sub vpt vpt2 Rec fill
	2 copy vpt Square fill Bsquare} bind def
/S8 {BL [] 0 setdash 2 copy vpt sub vpt Square fill Bsquare} bind def
/S9 {BL [] 0 setdash 2 copy vpt sub vpt vpt2 Rec fill Bsquare} bind def
/S10 {BL [] 0 setdash 2 copy vpt sub vpt Square fill 2 copy exch vpt sub exch vpt Square fill
	Bsquare} bind def
/S11 {BL [] 0 setdash 2 copy vpt sub vpt Square fill 2 copy exch vpt sub exch vpt2 vpt Rec fill
	Bsquare} bind def
/S12 {BL [] 0 setdash 2 copy exch vpt sub exch vpt sub vpt2 vpt Rec fill Bsquare} bind def
/S13 {BL [] 0 setdash 2 copy exch vpt sub exch vpt sub vpt2 vpt Rec fill
	2 copy vpt Square fill Bsquare} bind def
/S14 {BL [] 0 setdash 2 copy exch vpt sub exch vpt sub vpt2 vpt Rec fill
	2 copy exch vpt sub exch vpt Square fill Bsquare} bind def
/S15 {BL [] 0 setdash 2 copy Bsquare fill Bsquare} bind def
/D0 {gsave translate 45 rotate 0 0 S0 stroke grestore} bind def
/D1 {gsave translate 45 rotate 0 0 S1 stroke grestore} bind def
/D2 {gsave translate 45 rotate 0 0 S2 stroke grestore} bind def
/D3 {gsave translate 45 rotate 0 0 S3 stroke grestore} bind def
/D4 {gsave translate 45 rotate 0 0 S4 stroke grestore} bind def
/D5 {gsave translate 45 rotate 0 0 S5 stroke grestore} bind def
/D6 {gsave translate 45 rotate 0 0 S6 stroke grestore} bind def
/D7 {gsave translate 45 rotate 0 0 S7 stroke grestore} bind def
/D8 {gsave translate 45 rotate 0 0 S8 stroke grestore} bind def
/D9 {gsave translate 45 rotate 0 0 S9 stroke grestore} bind def
/D10 {gsave translate 45 rotate 0 0 S10 stroke grestore} bind def
/D11 {gsave translate 45 rotate 0 0 S11 stroke grestore} bind def
/D12 {gsave translate 45 rotate 0 0 S12 stroke grestore} bind def
/D13 {gsave translate 45 rotate 0 0 S13 stroke grestore} bind def
/D14 {gsave translate 45 rotate 0 0 S14 stroke grestore} bind def
/D15 {gsave translate 45 rotate 0 0 S15 stroke grestore} bind def
/DiaE {stroke [] 0 setdash vpt add M
  hpt neg vpt neg V hpt vpt neg V
  hpt vpt V hpt neg vpt V closepath stroke} def
/BoxE {stroke [] 0 setdash exch hpt sub exch vpt add M
  0 vpt2 neg V hpt2 0 V 0 vpt2 V
  hpt2 neg 0 V closepath stroke} def
/TriUE {stroke [] 0 setdash vpt 1.12 mul add M
  hpt neg vpt -1.62 mul V
  hpt 2 mul 0 V
  hpt neg vpt 1.62 mul V closepath stroke} def
/TriDE {stroke [] 0 setdash vpt 1.12 mul sub M
  hpt neg vpt 1.62 mul V
  hpt 2 mul 0 V
  hpt neg vpt -1.62 mul V closepath stroke} def
/PentE {stroke [] 0 setdash gsave
  translate 0 hpt M 4 {72 rotate 0 hpt L} repeat
  closepath stroke grestore} def
/CircE {stroke [] 0 setdash 
  hpt 0 360 arc stroke} def
/Opaque {gsave closepath 1 setgray fill grestore 0 setgray closepath} def
/DiaW {stroke [] 0 setdash vpt add M
  hpt neg vpt neg V hpt vpt neg V
  hpt vpt V hpt neg vpt V Opaque stroke} def
/BoxW {stroke [] 0 setdash exch hpt sub exch vpt add M
  0 vpt2 neg V hpt2 0 V 0 vpt2 V
  hpt2 neg 0 V Opaque stroke} def
/TriUW {stroke [] 0 setdash vpt 1.12 mul add M
  hpt neg vpt -1.62 mul V
  hpt 2 mul 0 V
  hpt neg vpt 1.62 mul V Opaque stroke} def
/TriDW {stroke [] 0 setdash vpt 1.12 mul sub M
  hpt neg vpt 1.62 mul V
  hpt 2 mul 0 V
  hpt neg vpt -1.62 mul V Opaque stroke} def
/PentW {stroke [] 0 setdash gsave
  translate 0 hpt M 4 {72 rotate 0 hpt L} repeat
  Opaque stroke grestore} def
/CircW {stroke [] 0 setdash 
  hpt 0 360 arc Opaque stroke} def
/BoxFill {gsave Rec 1 setgray fill grestore} def
/Density {
  /Fillden exch def
  currentrgbcolor
  /ColB exch def /ColG exch def /ColR exch def
  /ColR ColR Fillden mul Fillden sub 1 add def
  /ColG ColG Fillden mul Fillden sub 1 add def
  /ColB ColB Fillden mul Fillden sub 1 add def
  ColR ColG ColB setrgbcolor} def
/BoxColFill {gsave Rec PolyFill} def
/PolyFill {gsave Density fill grestore grestore} def
/h {rlineto rlineto rlineto gsave closepath fill grestore} bind def
%
% PostScript Level 1 Pattern Fill routine for rectangles
% Usage: x y w h s a XX PatternFill
%	x,y = lower left corner of box to be filled
%	w,h = width and height of box
%	  a = angle in degrees between lines and x-axis
%	 XX = 0/1 for no/yes cross-hatch
%
/PatternFill {gsave /PFa [ 9 2 roll ] def
  PFa 0 get PFa 2 get 2 div add PFa 1 get PFa 3 get 2 div add translate
  PFa 2 get -2 div PFa 3 get -2 div PFa 2 get PFa 3 get Rec
  gsave 1 setgray fill grestore clip
  currentlinewidth 0.5 mul setlinewidth
  /PFs PFa 2 get dup mul PFa 3 get dup mul add sqrt def
  0 0 M PFa 5 get rotate PFs -2 div dup translate
  0 1 PFs PFa 4 get div 1 add floor cvi
	{PFa 4 get mul 0 M 0 PFs V} for
  0 PFa 6 get ne {
	0 1 PFs PFa 4 get div 1 add floor cvi
	{PFa 4 get mul 0 2 1 roll M PFs 0 V} for
 } if
  stroke grestore} def
%
/languagelevel where
 {pop languagelevel} {1} ifelse
 2 lt
	{/InterpretLevel1 true def}
	{/InterpretLevel1 Level1 def}
 ifelse
%
% PostScript level 2 pattern fill definitions
%
/Level2PatternFill {
/Tile8x8 {/PaintType 2 /PatternType 1 /TilingType 1 /BBox [0 0 8 8] /XStep 8 /YStep 8}
	bind def
/KeepColor {currentrgbcolor [/Pattern /DeviceRGB] setcolorspace} bind def
<< Tile8x8
 /PaintProc {0.5 setlinewidth pop 0 0 M 8 8 L 0 8 M 8 0 L stroke} 
>> matrix makepattern
/Pat1 exch def
<< Tile8x8
 /PaintProc {0.5 setlinewidth pop 0 0 M 8 8 L 0 8 M 8 0 L stroke
	0 4 M 4 8 L 8 4 L 4 0 L 0 4 L stroke}
>> matrix makepattern
/Pat2 exch def
<< Tile8x8
 /PaintProc {0.5 setlinewidth pop 0 0 M 0 8 L
	8 8 L 8 0 L 0 0 L fill}
>> matrix makepattern
/Pat3 exch def
<< Tile8x8
 /PaintProc {0.5 setlinewidth pop -4 8 M 8 -4 L
	0 12 M 12 0 L stroke}
>> matrix makepattern
/Pat4 exch def
<< Tile8x8
 /PaintProc {0.5 setlinewidth pop -4 0 M 8 12 L
	0 -4 M 12 8 L stroke}
>> matrix makepattern
/Pat5 exch def
<< Tile8x8
 /PaintProc {0.5 setlinewidth pop -2 8 M 4 -4 L
	0 12 M 8 -4 L 4 12 M 10 0 L stroke}
>> matrix makepattern
/Pat6 exch def
<< Tile8x8
 /PaintProc {0.5 setlinewidth pop -2 0 M 4 12 L
	0 -4 M 8 12 L 4 -4 M 10 8 L stroke}
>> matrix makepattern
/Pat7 exch def
<< Tile8x8
 /PaintProc {0.5 setlinewidth pop 8 -2 M -4 4 L
	12 0 M -4 8 L 12 4 M 0 10 L stroke}
>> matrix makepattern
/Pat8 exch def
<< Tile8x8
 /PaintProc {0.5 setlinewidth pop 0 -2 M 12 4 L
	-4 0 M 12 8 L -4 4 M 8 10 L stroke}
>> matrix makepattern
/Pat9 exch def
/Pattern1 {PatternBgnd KeepColor Pat1 setpattern} bind def
/Pattern2 {PatternBgnd KeepColor Pat2 setpattern} bind def
/Pattern3 {PatternBgnd KeepColor Pat3 setpattern} bind def
/Pattern4 {PatternBgnd KeepColor Landscape {Pat5} {Pat4} ifelse setpattern} bind def
/Pattern5 {PatternBgnd KeepColor Landscape {Pat4} {Pat5} ifelse setpattern} bind def
/Pattern6 {PatternBgnd KeepColor Landscape {Pat9} {Pat6} ifelse setpattern} bind def
/Pattern7 {PatternBgnd KeepColor Landscape {Pat8} {Pat7} ifelse setpattern} bind def
} def
%
%
%End of PostScript Level 2 code
%
/PatternBgnd {
  TransparentPatterns {} {gsave 1 setgray fill grestore} ifelse
} def
%
% Substitute for Level 2 pattern fill codes with
% grayscale if Level 2 support is not selected.
%
/Level1PatternFill {
/Pattern1 {0.250 Density} bind def
/Pattern2 {0.500 Density} bind def
/Pattern3 {0.750 Density} bind def
/Pattern4 {0.125 Density} bind def
/Pattern5 {0.375 Density} bind def
/Pattern6 {0.625 Density} bind def
/Pattern7 {0.875 Density} bind def
} def
%
% Now test for support of Level 2 code
%
Level1 {Level1PatternFill} {Level2PatternFill} ifelse
%
/Symbol-Oblique /Symbol findfont [1 0 .167 1 0 0] makefont
dup length dict begin {1 index /FID eq {pop pop} {def} ifelse} forall
currentdict end definefont pop
/MFshow {
   { dup 5 get 3 ge
     { 5 get 3 eq {gsave} {grestore} ifelse }
     {dup dup 0 get findfont exch 1 get scalefont setfont
     [ currentpoint ] exch dup 2 get 0 exch R dup 5 get 2 ne {dup dup 6
     get exch 4 get {Gshow} {stringwidth pop 0 R} ifelse }if dup 5 get 0 eq
     {dup 3 get {2 get neg 0 exch R pop} {pop aload pop M} ifelse} {dup 5
     get 1 eq {dup 2 get exch dup 3 get exch 6 get stringwidth pop -2 div
     dup 0 R} {dup 6 get stringwidth pop -2 div 0 R 6 get
     show 2 index {aload pop M neg 3 -1 roll neg R pop pop} {pop pop pop
     pop aload pop M} ifelse }ifelse }ifelse }
     ifelse }
   forall} def
/Gswidth {dup type /stringtype eq {stringwidth} {pop (n) stringwidth} ifelse} def
/MFwidth {0 exch { dup 5 get 3 ge { 5 get 3 eq { 0 } { pop } ifelse }
 {dup 3 get{dup dup 0 get findfont exch 1 get scalefont setfont
     6 get Gswidth pop add} {pop} ifelse} ifelse} forall} def
/MLshow { currentpoint stroke M
  0 exch R
  Blacktext {gsave 0 setgray MFshow grestore} {MFshow} ifelse } bind def
/MRshow { currentpoint stroke M
  exch dup MFwidth neg 3 -1 roll R
  Blacktext {gsave 0 setgray MFshow grestore} {MFshow} ifelse } bind def
/MCshow { currentpoint stroke M
  exch dup MFwidth -2 div 3 -1 roll R
  Blacktext {gsave 0 setgray MFshow grestore} {MFshow} ifelse } bind def
/XYsave    { [( ) 1 2 true false 3 ()] } bind def
/XYrestore { [( ) 1 2 true false 4 ()] } bind def
end
%%EndProlog
gnudict begin
gsave
doclip
50 50 translate
0.050 0.050 scale
0 setgray
newpath
(Helvetica) findfont 250 scalefont setfont
1.000 UL
LTb
1225 800 M
63 0 V
5461 0 R
-63 0 V
stroke
1075 800 M
[ [(Helvetica) 250.0 0.0 true true 0 ( 0)]
] -83.3 MRshow
1.000 UL
LTb
1225 1194 M
63 0 V
5461 0 R
-63 0 V
stroke
1075 1194 M
[ [(Helvetica) 250.0 0.0 true true 0 ( 0.1)]
] -83.3 MRshow
1.000 UL
LTb
1225 1588 M
63 0 V
5461 0 R
-63 0 V
stroke
1075 1588 M
[ [(Helvetica) 250.0 0.0 true true 0 ( 0.2)]
] -83.3 MRshow
1.000 UL
LTb
1225 1982 M
63 0 V
5461 0 R
-63 0 V
stroke
1075 1982 M
[ [(Helvetica) 250.0 0.0 true true 0 ( 0.3)]
] -83.3 MRshow
1.000 UL
LTb
1225 2376 M
63 0 V
5461 0 R
-63 0 V
stroke
1075 2376 M
[ [(Helvetica) 250.0 0.0 true true 0 ( 0.4)]
] -83.3 MRshow
1.000 UL
LTb
1225 2770 M
63 0 V
5461 0 R
-63 0 V
stroke
1075 2770 M
[ [(Helvetica) 250.0 0.0 true true 0 ( 0.5)]
] -83.3 MRshow
1.000 UL
LTb
1225 3163 M
63 0 V
5461 0 R
-63 0 V
stroke
1075 3163 M
[ [(Helvetica) 250.0 0.0 true true 0 ( 0.6)]
] -83.3 MRshow
1.000 UL
LTb
1225 3557 M
63 0 V
5461 0 R
-63 0 V
stroke
1075 3557 M
[ [(Helvetica) 250.0 0.0 true true 0 ( 0.7)]
] -83.3 MRshow
1.000 UL
LTb
1225 3951 M
63 0 V
5461 0 R
-63 0 V
stroke
1075 3951 M
[ [(Helvetica) 250.0 0.0 true true 0 ( 0.8)]
] -83.3 MRshow
1.000 UL
LTb
1225 4345 M
63 0 V
5461 0 R
-63 0 V
stroke
1075 4345 M
[ [(Helvetica) 250.0 0.0 true true 0 ( 0.9)]
] -83.3 MRshow
1.000 UL
LTb
1225 4739 M
63 0 V
5461 0 R
-63 0 V
stroke
1075 4739 M
[ [(Helvetica) 250.0 0.0 true true 0 ( 1)]
] -83.3 MRshow
1.000 UL
LTb
1225 800 M
0 63 V
0 3876 R
0 -63 V
stroke
1225 550 M
[ [(Helvetica) 250.0 0.0 true true 0 (-0.6)]
] -83.3 MCshow
1.000 UL
LTb
2146 800 M
0 63 V
0 3876 R
0 -63 V
stroke
2146 550 M
[ [(Helvetica) 250.0 0.0 true true 0 (-0.4)]
] -83.3 MCshow
1.000 UL
LTb
3066 800 M
0 63 V
0 3876 R
0 -63 V
stroke
3066 550 M
[ [(Helvetica) 250.0 0.0 true true 0 (-0.2)]
] -83.3 MCshow
1.000 UL
LTb
3987 800 M
0 63 V
0 3876 R
0 -63 V
stroke
3987 550 M
[ [(Helvetica) 250.0 0.0 true true 0 ( 0)]
] -83.3 MCshow
1.000 UL
LTb
4908 800 M
0 63 V
0 3876 R
0 -63 V
stroke
4908 550 M
[ [(Helvetica) 250.0 0.0 true true 0 ( 0.2)]
] -83.3 MCshow
1.000 UL
LTb
5828 800 M
0 63 V
0 3876 R
0 -63 V
stroke
5828 550 M
[ [(Helvetica) 250.0 0.0 true true 0 ( 0.4)]
] -83.3 MCshow
1.000 UL
LTb
6749 800 M
0 63 V
0 3876 R
0 -63 V
stroke
6749 550 M
[ [(Helvetica) 250.0 0.0 true true 0 ( 0.6)]
] -83.3 MCshow
1.000 UL
LTb
1.000 UL
LTb
1225 4739 N
0 -3939 V
5524 0 V
0 3939 V
-5524 0 V
Z stroke
LCb setrgbcolor
200 2769 M
currentpoint gsave translate -270 rotate 0 0 moveto
[ [(Helvetica) 250.0 0.0 true true 0 (Precision)]
] -83.3 MCshow
grestore
LTb
LCb setrgbcolor
3987 175 M
[ [(Helvetica) 250.0 0.0 true true 0 (Noise Ratio)]
] -83.3 MCshow
LTb
1.000 UP
1.000 UL
LTb
% Begin plot #1
1.000 UP
1.000 UL
LT0
1685 4581 Pls
1685 4494 Pls
1685 4739 Pls
1685 4641 Pls
2146 4660 Pls
2146 4739 Pls
2146 4594 Pls
2146 4683 Pls
2606 4739 Pls
2606 4739 Pls
2606 4739 Pls
2606 4581 Pls
3066 4542 Pls
3066 4739 Pls
3066 4739 Pls
3066 4739 Pls
3527 4673 Pls
3527 4739 Pls
3527 4739 Pls
3527 4739 Pls
4447 3459 Pls
4447 4279 Pls
4447 4312 Pls
4447 4739 Pls
4908 2885 Pls
4908 3846 Pls
4908 4345 Pls
4908 4739 Pls
5368 2998 Pls
5368 3984 Pls
5368 4143 Pls
5368 4739 Pls
5828 3095 Pls
5828 2441 Pls
5828 3920 Pls
5828 4739 Pls
6289 3177 Pls
6289 3887 Pls
6289 4129 Pls
6289 4739 Pls
1685 4586 Pls
1685 4618 Pls
1685 4551 Pls
1685 4621 Pls
2146 4739 Pls
2146 4651 Pls
2146 4739 Pls
2146 4711 Pls
2606 4596 Pls
2606 4595 Pls
2606 4739 Pls
2606 4470 Pls
3066 4683 Pls
3066 4739 Pls
3066 4667 Pls
3066 4683 Pls
3527 4581 Pls
3527 4739 Pls
3527 4739 Pls
3527 4641 Pls
4447 2879 Pls
4447 2572 Pls
4447 3229 Pls
4447 3635 Pls
4908 1915 Pls
4908 2570 Pls
4908 2679 Pls
4908 3067 Pls
5368 2127 Pls
5368 2573 Pls
5368 2733 Pls
5368 3349 Pls
5828 1598 Pls
5828 2319 Pls
5828 2545 Pls
5828 3093 Pls
6289 1702 Pls
6289 2100 Pls
6289 2921 Pls
6289 3042 Pls
1685 4673 Pls
1685 4422 Pls
1685 4596 Pls
1685 4560 Pls
2146 4739 Pls
2146 4660 Pls
2146 4660 Pls
2146 4421 Pls
2606 4478 Pls
2606 4310 Pls
2606 4580 Pls
2606 4626 Pls
3066 4626 Pls
3066 4660 Pls
3066 4570 Pls
3066 4739 Pls
3527 4739 Pls
3527 4739 Pls
3527 4651 Pls
3527 4577 Pls
4447 2273 Pls
4447 2230 Pls
4447 2276 Pls
4447 2638 Pls
4908 1565 Pls
4908 1715 Pls
4908 2287 Pls
4908 2301 Pls
5368 1307 Pls
5368 1870 Pls
5368 2040 Pls
5368 2603 Pls
5828 1404 Pls
5828 1631 Pls
5828 2015 Pls
5828 2210 Pls
6289 1223 Pls
6289 1586 Pls
6289 1999 Pls
6289 2329 Pls
1685 4621 Pls
1685 4222 Pls
1685 4678 Pls
1685 4498 Pls
2146 4510 Pls
2146 4296 Pls
2146 4581 Pls
2146 4564 Pls
2606 4595 Pls
2606 4392 Pls
2606 4600 Pls
2606 4667 Pls
3066 4580 Pls
3066 4739 Pls
3066 4596 Pls
3066 4564 Pls
3527 4529 Pls
3527 4690 Pls
3527 4581 Pls
3527 4651 Pls
4447 1556 Pls
4447 1728 Pls
4447 1972 Pls
4447 2023 Pls
4908 1309 Pls
4908 1688 Pls
4908 1818 Pls
4908 1982 Pls
5368 1176 Pls
5368 1400 Pls
5368 1810 Pls
5368 1864 Pls
5828 1124 Pls
5828 1369 Pls
5828 1661 Pls
5828 1782 Pls
6289 1101 Pls
6289 1382 Pls
6289 1506 Pls
6289 1954 Pls
1685 4499 Pls
1685 4497 Pls
1685 3930 Pls
1685 4739 Pls
2146 4739 Pls
2146 4412 Pls
2146 4505 Pls
2146 4618 Pls
2606 4739 Pls
2606 4739 Pls
2606 4739 Pls
2606 4512 Pls
3066 4739 Pls
3066 4739 Pls
3066 4651 Pls
3066 4739 Pls
3527 4581 Pls
3527 4739 Pls
3527 4739 Pls
3527 4524 Pls
4447 1184 Pls
4447 1912 Pls
4447 1529 Pls
4447 1887 Pls
4908 1178 Pls
4908 1400 Pls
4908 1590 Pls
4908 1738 Pls
5368 1136 Pls
5368 1299 Pls
5368 1557 Pls
5368 1563 Pls
5828 1000 Pls
5828 1291 Pls
5828 1399 Pls
5828 1632 Pls
6289 1036 Pls
6289 1231 Pls
6289 1395 Pls
6289 1565 Pls
1685 4739 Pls
1685 4739 Pls
1685 4529 Pls
1685 4608 Pls
2146 4673 Pls
2146 4739 Pls
2146 4739 Pls
2146 4690 Pls
2606 4739 Pls
2606 4626 Pls
2606 4739 Pls
2606 4739 Pls
3066 4739 Pls
3066 4739 Pls
3066 4608 Pls
3066 4739 Pls
3527 4739 Pls
3527 4739 Pls
3527 4739 Pls
3527 4739 Pls
4447 3689 Pls
4447 4188 Pls
4447 4463 Pls
4447 4739 Pls
4908 4444 Pls
4908 4148 Pls
4908 4542 Pls
4908 4739 Pls
5368 3807 Pls
5368 3879 Pls
5368 4272 Pls
5368 4739 Pls
5828 3564 Pls
5828 3721 Pls
5828 4148 Pls
5828 4739 Pls
6289 3259 Pls
6289 4037 Pls
6289 4542 Pls
6289 4739 Pls
1685 4561 Pls
1685 4739 Pls
1685 4700 Pls
1685 4450 Pls
2146 4739 Pls
2146 4520 Pls
2146 4667 Pls
2146 4739 Pls
2606 4739 Pls
2606 4739 Pls
2606 4739 Pls
2606 4739 Pls
3066 4626 Pls
3066 4739 Pls
3066 4739 Pls
3066 4581 Pls
3527 4739 Pls
3527 4739 Pls
3527 4739 Pls
3527 4739 Pls
4447 3991 Pls
4447 2875 Pls
4447 3899 Pls
4447 4153 Pls
4908 3683 Pls
4908 2491 Pls
4908 3351 Pls
4908 3576 Pls
5368 2211 Pls
5368 2737 Pls
5368 2378 Pls
5368 3489 Pls
5828 2286 Pls
5828 2819 Pls
5828 2887 Pls
5828 3786 Pls
6289 1956 Pls
6289 2160 Pls
6289 2567 Pls
6289 3490 Pls
1685 4667 Pls
1685 4690 Pls
1685 4739 Pls
1685 4651 Pls
2146 4564 Pls
2146 4454 Pls
2146 4739 Pls
2146 4624 Pls
2606 4667 Pls
2606 4660 Pls
2606 4651 Pls
2606 4602 Pls
3066 4739 Pls
3066 4739 Pls
3066 4575 Pls
3066 4703 Pls
3527 4739 Pls
3527 4581 Pls
3527 4581 Pls
3527 4739 Pls
4447 2552 Pls
4447 2507 Pls
4447 3623 Pls
4447 2794 Pls
4908 2079 Pls
4908 2385 Pls
4908 2509 Pls
4908 2730 Pls
5368 1439 Pls
5368 2296 Pls
5368 2311 Pls
5368 2781 Pls
5828 1580 Pls
5828 2056 Pls
5828 2001 Pls
5828 2687 Pls
6289 1475 Pls
6289 1838 Pls
6289 2296 Pls
6289 2577 Pls
1685 4374 Pls
1685 4641 Pls
1685 4553 Pls
1685 4497 Pls
2146 4739 Pls
2146 4650 Pls
2146 4567 Pls
2146 4485 Pls
2606 4673 Pls
2606 4589 Pls
2606 4595 Pls
2606 4739 Pls
3066 4626 Pls
3066 4641 Pls
3066 4621 Pls
3066 4739 Pls
3527 4667 Pls
3527 4739 Pls
3527 4739 Pls
3527 4739 Pls
4447 1758 Pls
4447 1999 Pls
4447 1917 Pls
4447 2066 Pls
4908 1466 Pls
4908 1939 Pls
4908 1959 Pls
4908 2599 Pls
5368 1213 Pls
5368 1477 Pls
5368 1918 Pls
5368 1894 Pls
5828 1388 Pls
5828 1547 Pls
5828 1815 Pls
5828 2243 Pls
6289 1263 Pls
6289 1323 Pls
6289 1838 Pls
6289 1919 Pls
1685 4667 Pls
1685 4644 Pls
1685 4656 Pls
1685 4580 Pls
2146 4608 Pls
2146 4570 Pls
2146 4739 Pls
2146 4564 Pls
2606 4469 Pls
2606 4739 Pls
2606 4510 Pls
2606 4711 Pls
3066 4739 Pls
3066 4596 Pls
3066 4530 Pls
3066 4651 Pls
3527 4739 Pls
3527 4739 Pls
3527 4739 Pls
3527 4598 Pls
4447 1543 Pls
4447 1826 Pls
4447 1677 Pls
4447 2533 Pls
4908 1351 Pls
4908 1723 Pls
4908 1654 Pls
4908 2257 Pls
5368 1250 Pls
5368 1487 Pls
5368 1626 Pls
5368 1689 Pls
5828 1087 Pls
5828 1397 Pls
5828 1557 Pls
5828 1719 Pls
6289 1140 Pls
6289 1270 Pls
6289 1501 Pls
6289 1735 Pls
1685 4739 Pls
1685 4739 Pls
1685 4739 Pls
1685 4739 Pls
2146 4739 Pls
2146 4739 Pls
2146 4739 Pls
2146 4739 Pls
2606 4739 Pls
2606 4739 Pls
2606 4739 Pls
2606 4739 Pls
3066 4739 Pls
3066 4641 Pls
3066 4739 Pls
3066 4739 Pls
3527 4739 Pls
3527 4739 Pls
3527 4739 Pls
3527 4739 Pls
4447 4476 Pls
4447 4411 Pls
4447 4444 Pls
4447 4739 Pls
4908 4122 Pls
4908 4056 Pls
4908 4739 Pls
4908 4739 Pls
5368 4214 Pls
5368 4148 Pls
5368 4542 Pls
5368 4739 Pls
5828 3630 Pls
5828 4258 Pls
5828 4608 Pls
5828 4739 Pls
6289 3754 Pls
6289 4312 Pls
6289 4319 Pls
6289 4739 Pls
1685 4739 Pls
1685 4626 Pls
1685 4739 Pls
1685 4739 Pls
2146 4667 Pls
2146 4739 Pls
2146 4739 Pls
2146 4555 Pls
2606 4739 Pls
2606 4739 Pls
2606 4667 Pls
2606 4626 Pls
3066 4739 Pls
3066 4739 Pls
3066 4739 Pls
3066 4739 Pls
3527 4739 Pls
3527 4739 Pls
3527 4739 Pls
3527 4739 Pls
4447 3032 Pls
4447 3262 Pls
4447 3859 Pls
4447 4581 Pls
4908 3285 Pls
4908 3721 Pls
4908 3951 Pls
4908 3689 Pls
5368 2697 Pls
5368 3236 Pls
5368 3513 Pls
5368 3476 Pls
5828 2807 Pls
5828 3544 Pls
5828 3282 Pls
5828 3677 Pls
6289 2165 Pls
6289 2937 Pls
6289 3290 Pls
6289 3458 Pls
1685 4739 Pls
1685 4591 Pls
1685 4608 Pls
1685 4539 Pls
2146 4739 Pls
2146 4651 Pls
2146 4554 Pls
2146 4667 Pls
2606 4539 Pls
2606 4739 Pls
2606 4667 Pls
2606 4706 Pls
3066 4739 Pls
3066 4739 Pls
3066 4739 Pls
3066 4700 Pls
3527 4739 Pls
3527 4739 Pls
3527 4739 Pls
3527 4651 Pls
4447 3124 Pls
4447 2861 Pls
4447 3025 Pls
4447 3610 Pls
4908 1998 Pls
4908 1800 Pls
4908 2350 Pls
4908 2926 Pls
5368 2127 Pls
5368 1968 Pls
5368 2342 Pls
5368 2827 Pls
5828 1830 Pls
5828 2149 Pls
5828 2731 Pls
5828 2690 Pls
6289 1606 Pls
6289 1828 Pls
6289 2232 Pls
6289 2790 Pls
1685 4739 Pls
1685 4608 Pls
1685 4739 Pls
1685 4636 Pls
2146 4739 Pls
2146 4673 Pls
2146 4651 Pls
2146 4739 Pls
2606 4651 Pls
2606 4580 Pls
2606 4651 Pls
2606 4713 Pls
3066 4395 Pls
3066 4739 Pls
3066 4660 Pls
3066 4739 Pls
3527 4739 Pls
3527 4690 Pls
3527 4739 Pls
3527 4596 Pls
4447 2152 Pls
4447 2494 Pls
4447 2902 Pls
4447 3131 Pls
4908 1741 Pls
4908 1829 Pls
4908 2475 Pls
4908 2299 Pls
5368 1707 Pls
5368 2112 Pls
5368 2169 Pls
5368 2106 Pls
5828 1479 Pls
5828 1717 Pls
5828 2010 Pls
5828 2079 Pls
6289 1499 Pls
6289 1885 Pls
6289 1901 Pls
6289 2041 Pls
1685 4474 Pls
1685 4595 Pls
1685 4421 Pls
1685 4739 Pls
2146 4608 Pls
2146 4464 Pls
2146 4739 Pls
2146 4739 Pls
2606 4651 Pls
2606 4739 Pls
2606 4739 Pls
2606 4586 Pls
3066 4739 Pls
3066 4739 Pls
3066 4619 Pls
3066 4356 Pls
3527 4739 Pls
3527 4739 Pls
3527 4739 Pls
3527 4739 Pls
4447 1564 Pls
4447 2391 Pls
4447 1657 Pls
4447 2203 Pls
4908 1414 Pls
4908 1672 Pls
4908 2212 Pls
4908 2091 Pls
5368 1291 Pls
5368 1593 Pls
5368 1747 Pls
5368 1983 Pls
5828 1287 Pls
5828 1564 Pls
5828 1646 Pls
5828 1896 Pls
6289 1249 Pls
6289 1367 Pls
6289 1608 Pls
6289 1731 Pls
1685 4739 Pls
1685 4673 Pls
1685 4739 Pls
1685 4739 Pls
2146 4739 Pls
2146 4739 Pls
2146 4739 Pls
2146 4739 Pls
2606 4673 Pls
2606 4739 Pls
2606 4739 Pls
2606 4739 Pls
3066 4345 Pls
3066 4345 Pls
3066 4739 Pls
3066 4739 Pls
3527 4739 Pls
3527 4739 Pls
3527 4739 Pls
3527 4739 Pls
4447 4476 Pls
4447 4542 Pls
4447 4739 Pls
4447 4739 Pls
4908 3745 Pls
4908 4542 Pls
4908 4739 Pls
4908 4739 Pls
5368 4122 Pls
5368 4109 Pls
5368 4148 Pls
5368 4739 Pls
5828 4251 Pls
5828 4188 Pls
5828 4739 Pls
5828 4739 Pls
6289 3623 Pls
6289 3886 Pls
6289 4345 Pls
6289 4739 Pls
1685 4739 Pls
1685 4626 Pls
1685 4706 Pls
1685 4667 Pls
2146 4739 Pls
2146 4739 Pls
2146 4739 Pls
2146 4596 Pls
2606 4739 Pls
2606 4739 Pls
2606 4739 Pls
2606 4739 Pls
3066 4739 Pls
3066 4739 Pls
3066 4651 Pls
3066 4739 Pls
3527 4739 Pls
3527 4739 Pls
3527 4739 Pls
3527 4739 Pls
4447 4148 Pls
4447 3347 Pls
4447 3925 Pls
4447 4082 Pls
4908 2846 Pls
4908 3657 Pls
4908 4591 Pls
4908 4495 Pls
5368 2513 Pls
5368 3694 Pls
5368 4012 Pls
5368 3940 Pls
5828 3488 Pls
5828 3137 Pls
5828 3981 Pls
5828 4161 Pls
6289 2875 Pls
6289 3337 Pls
6289 3415 Pls
6289 3933 Pls
1685 4616 Pls
1685 4424 Pls
1685 4739 Pls
1685 4739 Pls
2146 4739 Pls
2146 4739 Pls
2146 4739 Pls
2146 4739 Pls
2606 4581 Pls
2606 4739 Pls
2606 4651 Pls
2606 4667 Pls
3066 4739 Pls
3066 4739 Pls
3066 4739 Pls
3066 4695 Pls
3527 4739 Pls
3527 4626 Pls
3527 4739 Pls
3527 4739 Pls
4447 2786 Pls
4447 3253 Pls
4447 3424 Pls
4447 3597 Pls
4908 2588 Pls
4908 3255 Pls
4908 3075 Pls
4908 3028 Pls
5368 2353 Pls
5368 2198 Pls
5368 2724 Pls
5368 2925 Pls
5828 1934 Pls
5828 2822 Pls
5828 2495 Pls
5828 2775 Pls
6289 1732 Pls
6289 1904 Pls
6289 2699 Pls
6289 2725 Pls
1685 4739 Pls
1685 4683 Pls
1685 4539 Pls
1685 4553 Pls
2146 4739 Pls
2146 4370 Pls
2146 4349 Pls
2146 4610 Pls
2606 4739 Pls
2606 4690 Pls
2606 4739 Pls
2606 4667 Pls
3066 4739 Pls
3066 4678 Pls
3066 4739 Pls
3066 4626 Pls
3527 4651 Pls
3527 4551 Pls
3527 4739 Pls
3527 4611 Pls
4447 2479 Pls
4447 2258 Pls
4447 2794 Pls
4447 3076 Pls
4908 1894 Pls
4908 2282 Pls
4908 2411 Pls
4908 2646 Pls
5368 1722 Pls
5368 2312 Pls
5368 2100 Pls
5368 2302 Pls
5828 1486 Pls
5828 1758 Pls
5828 2146 Pls
5828 2203 Pls
6289 1656 Pls
6289 2247 Pls
6289 1979 Pls
6289 2132 Pls
1685 4739 Pls
1685 4646 Pls
1685 4686 Pls
1685 4636 Pls
2146 4739 Pls
2146 4683 Pls
2146 4686 Pls
2146 4693 Pls
2606 4673 Pls
2606 4683 Pls
2606 4596 Pls
2606 4596 Pls
3066 4739 Pls
3066 4739 Pls
3066 4739 Pls
3066 4739 Pls
3527 4739 Pls
3527 4476 Pls
3527 4739 Pls
3527 4739 Pls
4447 2212 Pls
4447 2446 Pls
4447 2433 Pls
4447 3034 Pls
4908 1522 Pls
4908 1954 Pls
4908 2266 Pls
4908 2061 Pls
5368 1493 Pls
5368 1661 Pls
5368 1999 Pls
5368 2236 Pls
5828 1298 Pls
5828 1723 Pls
5828 1927 Pls
5828 1938 Pls
6289 1264 Pls
6289 1555 Pls
6289 1912 Pls
6289 1767 Pls
1685 4739 Pls
1685 4739 Pls
1685 4739 Pls
1685 4739 Pls
2146 4739 Pls
2146 4739 Pls
2146 4739 Pls
2146 4739 Pls
2606 4739 Pls
2606 4739 Pls
2606 4651 Pls
2606 4739 Pls
3066 4739 Pls
3066 4739 Pls
3066 4739 Pls
3066 4739 Pls
3527 4739 Pls
3527 4739 Pls
3527 4739 Pls
3527 4739 Pls
4447 4345 Pls
4447 4739 Pls
4447 4739 Pls
4447 4739 Pls
4908 4148 Pls
4908 4608 Pls
4908 4739 Pls
4908 4739 Pls
5368 4739 Pls
5368 4739 Pls
5368 4739 Pls
5368 4739 Pls
5828 4444 Pls
5828 3853 Pls
5828 4312 Pls
5828 4739 Pls
6289 3892 Pls
6289 4345 Pls
6289 4739 Pls
6289 4739 Pls
1685 4739 Pls
1685 4739 Pls
1685 4739 Pls
1685 4683 Pls
2146 4739 Pls
2146 4739 Pls
2146 4690 Pls
2146 4739 Pls
2606 4651 Pls
2606 4739 Pls
2606 4739 Pls
2606 4739 Pls
3066 4739 Pls
3066 4641 Pls
3066 4690 Pls
3066 4739 Pls
3527 4739 Pls
3527 4739 Pls
3527 4739 Pls
3527 4739 Pls
4447 4608 Pls
4447 4279 Pls
4447 4345 Pls
4447 4181 Pls
4908 3410 Pls
4908 4115 Pls
4908 4285 Pls
4908 4154 Pls
5368 3163 Pls
5368 3318 Pls
5368 3679 Pls
5368 3698 Pls
5828 3295 Pls
5828 3881 Pls
5828 3497 Pls
5828 3773 Pls
6289 2890 Pls
6289 3133 Pls
6289 3379 Pls
6289 3569 Pls
1685 4739 Pls
1685 4739 Pls
1685 4667 Pls
1685 4739 Pls
2146 4739 Pls
2146 4510 Pls
2146 4686 Pls
2146 4645 Pls
2606 4739 Pls
2606 4678 Pls
2606 4608 Pls
2606 4739 Pls
3066 4739 Pls
3066 4739 Pls
3066 4739 Pls
3066 4739 Pls
3527 4739 Pls
3527 4739 Pls
3527 4667 Pls
3527 4739 Pls
4447 3610 Pls
4447 3362 Pls
4447 3308 Pls
4447 4469 Pls
4908 3174 Pls
4908 3652 Pls
4908 3315 Pls
4908 3042 Pls
5368 1894 Pls
5368 3243 Pls
5368 2911 Pls
5368 2901 Pls
5828 2568 Pls
5828 2652 Pls
5828 2622 Pls
5828 3465 Pls
6289 2445 Pls
6289 2586 Pls
6289 2752 Pls
6289 2589 Pls
1685 4739 Pls
1685 4667 Pls
1685 4739 Pls
1685 4739 Pls
2146 4673 Pls
2146 4739 Pls
2146 4739 Pls
2146 4646 Pls
2606 4641 Pls
2606 4739 Pls
2606 4667 Pls
2606 4739 Pls
3066 4739 Pls
3066 4580 Pls
3066 4640 Pls
3066 4739 Pls
3527 4739 Pls
3527 4739 Pls
3527 4739 Pls
3527 4739 Pls
4447 3032 Pls
4447 3252 Pls
4447 3124 Pls
4447 2547 Pls
4908 2071 Pls
4908 2492 Pls
4908 2148 Pls
4908 3080 Pls
5368 1760 Pls
5368 2259 Pls
5368 2609 Pls
5368 2867 Pls
5828 1808 Pls
5828 2030 Pls
5828 2195 Pls
5828 2525 Pls
6289 1588 Pls
6289 2133 Pls
6289 2060 Pls
6289 2266 Pls
1685 4739 Pls
1685 4739 Pls
1685 4621 Pls
1685 4535 Pls
2146 4739 Pls
2146 4739 Pls
2146 4739 Pls
2146 4739 Pls
2606 4739 Pls
2606 4739 Pls
2606 4646 Pls
2606 4739 Pls
3066 4660 Pls
3066 4678 Pls
3066 4739 Pls
3066 4739 Pls
3527 4608 Pls
3527 4739 Pls
3527 4739 Pls
3527 4739 Pls
4447 2113 Pls
4447 3170 Pls
4447 2857 Pls
4447 2362 Pls
4908 1522 Pls
4908 2377 Pls
4908 2211 Pls
4908 2659 Pls
5368 1611 Pls
5368 2019 Pls
5368 1923 Pls
5368 2300 Pls
5828 1427 Pls
5828 1799 Pls
5828 1765 Pls
5828 2004 Pls
6289 1279 Pls
6289 1716 Pls
6289 1846 Pls
6289 2087 Pls
1685 4739 Pls
1685 4739 Pls
1685 4739 Pls
1685 4739 Pls
2146 4739 Pls
2146 4739 Pls
2146 4739 Pls
2146 4739 Pls
2606 4739 Pls
2606 4739 Pls
2606 4739 Pls
2606 4739 Pls
3066 4739 Pls
3066 4739 Pls
3066 4739 Pls
3066 4739 Pls
3527 4739 Pls
3527 4739 Pls
3527 4739 Pls
3527 4739 Pls
4447 4542 Pls
4447 4739 Pls
4447 4739 Pls
4447 4739 Pls
4908 4739 Pls
4908 4739 Pls
4908 4739 Pls
4908 4739 Pls
5368 4660 Pls
5368 4641 Pls
5368 4739 Pls
5368 4739 Pls
5828 4608 Pls
5828 4641 Pls
5828 4739 Pls
5828 4739 Pls
6289 4148 Pls
6289 4286 Pls
6289 4345 Pls
6289 4739 Pls
1685 4739 Pls
1685 4739 Pls
1685 4739 Pls
1685 4706 Pls
2146 4583 Pls
2146 4524 Pls
2146 4739 Pls
2146 4739 Pls
2606 4739 Pls
2606 4739 Pls
2606 4651 Pls
2606 4739 Pls
3066 4739 Pls
3066 4739 Pls
3066 4739 Pls
3066 4739 Pls
3527 4739 Pls
3527 4739 Pls
3527 4739 Pls
3527 4739 Pls
4447 4056 Pls
4447 4542 Pls
4447 3925 Pls
4447 4220 Pls
4908 4641 Pls
4908 4082 Pls
4908 3689 Pls
4908 4017 Pls
5368 3646 Pls
5368 4089 Pls
5368 3869 Pls
5368 4420 Pls
5828 3820 Pls
5828 3155 Pls
5828 4509 Pls
5828 3931 Pls
6289 3214 Pls
6289 3218 Pls
6289 3602 Pls
6289 3783 Pls
1685 4651 Pls
1685 4739 Pls
1685 4739 Pls
1685 4559 Pls
2146 4739 Pls
2146 4625 Pls
2146 4739 Pls
2146 4739 Pls
2606 4739 Pls
2606 4739 Pls
2606 4739 Pls
2606 4739 Pls
3066 4739 Pls
3066 4739 Pls
3066 4739 Pls
3066 4739 Pls
3527 4739 Pls
3527 4626 Pls
3527 4739 Pls
3527 4739 Pls
4447 4069 Pls
4447 3131 Pls
4447 3879 Pls
4447 3984 Pls
4908 3050 Pls
4908 3155 Pls
4908 3345 Pls
4908 3225 Pls
5368 4054 Pls
5368 2498 Pls
5368 3615 Pls
5368 3117 Pls
5828 2486 Pls
5828 3107 Pls
5828 3440 Pls
5828 3150 Pls
6289 2035 Pls
6289 2312 Pls
6289 2656 Pls
6289 3170 Pls
1685 4660 Pls
1685 4559 Pls
1685 4739 Pls
1685 4739 Pls
2146 4739 Pls
2146 4739 Pls
2146 4739 Pls
2146 4739 Pls
2606 4739 Pls
2606 4678 Pls
2606 4739 Pls
2606 4739 Pls
3066 4739 Pls
3066 4739 Pls
3066 4678 Pls
3066 4686 Pls
3527 4739 Pls
3527 4739 Pls
3527 4739 Pls
3527 4739 Pls
4447 2912 Pls
4447 2879 Pls
4447 3204 Pls
4447 3912 Pls
4908 2493 Pls
4908 2796 Pls
4908 2794 Pls
4908 2890 Pls
5368 2320 Pls
5368 2540 Pls
5368 2342 Pls
5368 2699 Pls
5828 2428 Pls
5828 2037 Pls
5828 2686 Pls
5828 2793 Pls
6289 1802 Pls
6289 2139 Pls
6289 2251 Pls
6289 2377 Pls
1685 4739 Pls
1685 4739 Pls
1685 4651 Pls
1685 4651 Pls
2146 4739 Pls
2146 4739 Pls
2146 4739 Pls
2146 4650 Pls
2606 4673 Pls
2606 4667 Pls
2606 4739 Pls
2606 4739 Pls
3066 4739 Pls
3066 4651 Pls
3066 4739 Pls
3066 4646 Pls
3527 4739 Pls
3527 4739 Pls
3527 4739 Pls
3527 4678 Pls
4447 2389 Pls
4447 2722 Pls
4447 2724 Pls
4447 2966 Pls
4908 1945 Pls
4908 2268 Pls
4908 2210 Pls
4908 2789 Pls
5368 2055 Pls
5368 2057 Pls
5368 2171 Pls
5368 2641 Pls
5828 1632 Pls
5828 1981 Pls
5828 1650 Pls
5828 2294 Pls
6289 1609 Pls
6289 1995 Pls
6289 1999 Pls
6289 2349 Pls
1685 4739 Pls
1685 4739 Pls
1685 4706 Pls
1685 4739 Pls
2146 4673 Pls
2146 4739 Pls
2146 4700 Pls
2146 4739 Pls
2606 4739 Pls
2606 4739 Pls
2606 4739 Pls
2606 4739 Pls
3066 4739 Pls
3066 4739 Pls
3066 4739 Pls
3066 4739 Pls
3527 4739 Pls
3527 4739 Pls
3527 4739 Pls
3527 4739 Pls
4447 4608 Pls
4447 4345 Pls
4447 4739 Pls
4447 4739 Pls
4908 4050 Pls
4908 4739 Pls
4908 4542 Pls
4908 4739 Pls
5368 4450 Pls
5368 4608 Pls
5368 4739 Pls
5368 4739 Pls
5828 4739 Pls
5828 4739 Pls
5828 4188 Pls
5828 4739 Pls
6289 4188 Pls
6289 4383 Pls
6289 4148 Pls
6289 4739 Pls
1685 4651 Pls
1685 4686 Pls
1685 4739 Pls
1685 4739 Pls
2146 4739 Pls
2146 4739 Pls
2146 4739 Pls
2146 4739 Pls
2606 4739 Pls
2606 4739 Pls
2606 4739 Pls
2606 4739 Pls
3066 4739 Pls
3066 4739 Pls
3066 4739 Pls
3066 4739 Pls
3527 4739 Pls
3527 4739 Pls
3527 4739 Pls
3527 4739 Pls
4447 3794 Pls
4447 4279 Pls
4447 4542 Pls
4447 4214 Pls
4908 4345 Pls
4908 4476 Pls
4908 4056 Pls
4908 3872 Pls
5368 3273 Pls
5368 2754 Pls
5368 3962 Pls
5368 4739 Pls
5828 3557 Pls
5828 3107 Pls
5828 4082 Pls
5828 4089 Pls
6289 3518 Pls
6289 3523 Pls
6289 3323 Pls
6289 4237 Pls
1685 4739 Pls
1685 4714 Pls
1685 4739 Pls
1685 4678 Pls
2146 4739 Pls
2146 4739 Pls
2146 4739 Pls
2146 4706 Pls
2606 4739 Pls
2606 4739 Pls
2606 4739 Pls
2606 4667 Pls
3066 4739 Pls
3066 4739 Pls
3066 4739 Pls
3066 4476 Pls
3527 4739 Pls
3527 4739 Pls
3527 4739 Pls
3527 4739 Pls
4447 4082 Pls
4447 4188 Pls
4447 4109 Pls
4447 3636 Pls
4908 2927 Pls
4908 3689 Pls
4908 3354 Pls
4908 3019 Pls
5368 3279 Pls
5368 3247 Pls
5368 3762 Pls
5368 3477 Pls
5828 2803 Pls
5828 2834 Pls
5828 2979 Pls
5828 2538 Pls
6289 2383 Pls
6289 2331 Pls
6289 2675 Pls
6289 3109 Pls
1685 4739 Pls
1685 4706 Pls
1685 4739 Pls
1685 4678 Pls
2146 4651 Pls
2146 4739 Pls
2146 4673 Pls
2146 4739 Pls
2606 4632 Pls
2606 4739 Pls
2606 4739 Pls
2606 4678 Pls
3066 4739 Pls
3066 4739 Pls
3066 4739 Pls
3066 4739 Pls
3527 4739 Pls
3527 4739 Pls
3527 4739 Pls
3527 4739 Pls
4447 2577 Pls
4447 4056 Pls
4447 3331 Pls
4447 3658 Pls
4908 2733 Pls
4908 1980 Pls
4908 3088 Pls
4908 3560 Pls
5368 2294 Pls
5368 2185 Pls
5368 3021 Pls
5368 3128 Pls
5828 1967 Pls
5828 2329 Pls
5828 2178 Pls
5828 2861 Pls
6289 2038 Pls
6289 2223 Pls
6289 2378 Pls
6289 3014 Pls
1685 4739 Pls
1685 4739 Pls
1685 4678 Pls
1685 4739 Pls
2146 4660 Pls
2146 4549 Pls
2146 4739 Pls
2146 4607 Pls
2606 4667 Pls
2606 4700 Pls
2606 4739 Pls
2606 4739 Pls
3066 4739 Pls
3066 4739 Pls
3066 4651 Pls
3066 4739 Pls
3527 4641 Pls
3527 4739 Pls
3527 4651 Pls
3527 4739 Pls
4447 2840 Pls
4447 2656 Pls
4447 3451 Pls
4447 2619 Pls
4908 1944 Pls
4908 2166 Pls
4908 2184 Pls
4908 3067 Pls
5368 1822 Pls
5368 2182 Pls
5368 2256 Pls
5368 2435 Pls
5828 1701 Pls
5828 2033 Pls
5828 1831 Pls
5828 2322 Pls
6289 1467 Pls
6289 1934 Pls
6289 2004 Pls
6289 2500 Pls
1685 4739 Pls
1685 4739 Pls
1685 4739 Pls
1685 4739 Pls
2146 4739 Pls
2146 4739 Pls
2146 4739 Pls
2146 4739 Pls
2606 4739 Pls
2606 4739 Pls
2606 4739 Pls
2606 4739 Pls
3066 4739 Pls
3066 4739 Pls
3066 4739 Pls
3066 4739 Pls
3527 4739 Pls
3527 4739 Pls
3527 4739 Pls
3527 4739 Pls
4447 4739 Pls
4447 4739 Pls
4447 4739 Pls
4447 4739 Pls
4908 4345 Pls
4908 4542 Pls
4908 4542 Pls
4908 4739 Pls
5368 4476 Pls
5368 4581 Pls
5368 4739 Pls
5368 4739 Pls
5828 3984 Pls
5828 3951 Pls
5828 4739 Pls
5828 4739 Pls
6289 4739 Pls
6289 4135 Pls
6289 4617 Pls
6289 4739 Pls
1685 4739 Pls
1685 4739 Pls
1685 4739 Pls
1685 4651 Pls
2146 4739 Pls
2146 4739 Pls
2146 4651 Pls
2146 4739 Pls
2606 4739 Pls
2606 4739 Pls
2606 4739 Pls
2606 4667 Pls
3066 4739 Pls
3066 4739 Pls
3066 4739 Pls
3066 4739 Pls
3527 4739 Pls
3527 4739 Pls
3527 4739 Pls
3527 4739 Pls
4447 4542 Pls
4447 4739 Pls
4447 4542 Pls
4447 4739 Pls
4908 3721 Pls
4908 3224 Pls
4908 4345 Pls
4908 4570 Pls
5368 3131 Pls
5368 3859 Pls
5368 4050 Pls
5368 3794 Pls
5828 4010 Pls
5828 3947 Pls
5828 4185 Pls
5828 4148 Pls
6289 3997 Pls
6289 3937 Pls
6289 3756 Pls
6289 3646 Pls
1685 4739 Pls
1685 4739 Pls
1685 4739 Pls
1685 4667 Pls
2146 4739 Pls
2146 4651 Pls
2146 4626 Pls
2146 4678 Pls
2606 4739 Pls
2606 4739 Pls
2606 4739 Pls
2606 4651 Pls
3066 4739 Pls
3066 4739 Pls
3066 4739 Pls
3066 4739 Pls
3527 4739 Pls
3527 4739 Pls
3527 4739 Pls
3527 4739 Pls
4447 3767 Pls
4447 4122 Pls
4447 4214 Pls
4447 4476 Pls
4908 3205 Pls
4908 3329 Pls
4908 3556 Pls
4908 4174 Pls
5368 3065 Pls
5368 3235 Pls
5368 3239 Pls
5368 3533 Pls
5828 2610 Pls
5828 3129 Pls
5828 2973 Pls
5828 3177 Pls
6289 2841 Pls
6289 2582 Pls
6289 3064 Pls
6289 3170 Pls
1685 4609 Pls
1685 4739 Pls
1685 4678 Pls
1685 4739 Pls
2146 4739 Pls
2146 4690 Pls
2146 4739 Pls
2146 4695 Pls
2606 4739 Pls
2606 4651 Pls
2606 4739 Pls
2606 4539 Pls
3066 4739 Pls
3066 4739 Pls
3066 4739 Pls
3066 4739 Pls
3527 4739 Pls
3527 4739 Pls
3527 4667 Pls
3527 4739 Pls
4447 3489 Pls
4447 3345 Pls
4447 3096 Pls
4447 2960 Pls
4908 2707 Pls
4908 2899 Pls
4908 2920 Pls
4908 2938 Pls
5368 2305 Pls
5368 2481 Pls
5368 2469 Pls
5368 2961 Pls
5828 2116 Pls
5828 2582 Pls
5828 2570 Pls
5828 2668 Pls
6289 2025 Pls
6289 2478 Pls
6289 2647 Pls
6289 2570 Pls
1685 4673 Pls
1685 4597 Pls
1685 4678 Pls
1685 4695 Pls
2146 4667 Pls
2146 4739 Pls
2146 4739 Pls
2146 4686 Pls
2606 4739 Pls
2606 4739 Pls
2606 4739 Pls
2606 4678 Pls
3066 4739 Pls
3066 4739 Pls
3066 4739 Pls
3066 4739 Pls
3527 4739 Pls
3527 4739 Pls
3527 4739 Pls
3527 4739 Pls
4447 3407 Pls
4447 3062 Pls
4447 2515 Pls
4447 2399 Pls
4908 1851 Pls
4908 3257 Pls
4908 1918 Pls
4908 2700 Pls
5368 1907 Pls
5368 2276 Pls
5368 2302 Pls
5368 2151 Pls
5828 1674 Pls
5828 2210 Pls
5828 2555 Pls
5828 2220 Pls
6289 1601 Pls
6289 1546 Pls
6289 2176 Pls
6289 2516 Pls
1685 4739 Pls
1685 4739 Pls
1685 4695 Pls
1685 4739 Pls
2146 4739 Pls
2146 4739 Pls
2146 4739 Pls
2146 4739 Pls
2606 4739 Pls
2606 4739 Pls
2606 4626 Pls
2606 4739 Pls
3066 4739 Pls
3066 4739 Pls
3066 4542 Pls
3066 4739 Pls
3527 4739 Pls
3527 4739 Pls
3527 4739 Pls
3527 4739 Pls
4447 4476 Pls
4447 4739 Pls
4447 4739 Pls
4447 4739 Pls
4908 4739 Pls
4908 4739 Pls
4908 4739 Pls
4908 4739 Pls
5368 4608 Pls
5368 4444 Pls
5368 4542 Pls
5368 4739 Pls
5828 4227 Pls
5828 4214 Pls
5828 4739 Pls
5828 4739 Pls
6289 4739 Pls
6289 4739 Pls
6289 4542 Pls
6289 4739 Pls
1685 4667 Pls
1685 4739 Pls
1685 4686 Pls
1685 4739 Pls
2146 4695 Pls
2146 4683 Pls
2146 4739 Pls
2146 4739 Pls
2606 4651 Pls
2606 4739 Pls
2606 4667 Pls
2606 4739 Pls
3066 4739 Pls
3066 4739 Pls
3066 4739 Pls
3066 4739 Pls
3527 4739 Pls
3527 4660 Pls
3527 4739 Pls
3527 4739 Pls
4447 4476 Pls
4447 4319 Pls
4447 4279 Pls
4447 4739 Pls
4908 3886 Pls
4908 3833 Pls
4908 4188 Pls
4908 4043 Pls
5368 3991 Pls
5368 3991 Pls
5368 4424 Pls
5368 4312 Pls
5828 3767 Pls
5828 4088 Pls
5828 3538 Pls
5828 4279 Pls
6289 3288 Pls
6289 3492 Pls
6289 4045 Pls
6289 3786 Pls
1685 4739 Pls
1685 4739 Pls
1685 4739 Pls
1685 4739 Pls
2146 4739 Pls
2146 4739 Pls
2146 4667 Pls
2146 4739 Pls
2606 4739 Pls
2606 4739 Pls
2606 4651 Pls
2606 4673 Pls
3066 4739 Pls
3066 4739 Pls
3066 4739 Pls
3066 4739 Pls
3527 4739 Pls
3527 4739 Pls
3527 4739 Pls
3527 4739 Pls
4447 4384 Pls
4447 4319 Pls
4447 3767 Pls
4447 3820 Pls
4908 3468 Pls
4908 3584 Pls
4908 3679 Pls
4908 4129 Pls
5368 3216 Pls
5368 3796 Pls
5368 3835 Pls
5368 3557 Pls
5828 3140 Pls
5828 3248 Pls
5828 3617 Pls
5828 2892 Pls
6289 2468 Pls
6289 2680 Pls
6289 3290 Pls
6289 3849 Pls
1685 4739 Pls
1685 4739 Pls
1685 4739 Pls
1685 4637 Pls
2146 4660 Pls
2146 4700 Pls
2146 4739 Pls
2146 4739 Pls
2606 4739 Pls
2606 4739 Pls
2606 4739 Pls
2606 4739 Pls
3066 4739 Pls
3066 4739 Pls
3066 4739 Pls
3066 4739 Pls
3527 4739 Pls
3527 4739 Pls
3527 4739 Pls
3527 4739 Pls
4447 3229 Pls
4447 3728 Pls
4447 3907 Pls
4447 3792 Pls
4908 3053 Pls
4908 2714 Pls
4908 3352 Pls
4908 3183 Pls
5368 2827 Pls
5368 2621 Pls
5368 3070 Pls
5368 3343 Pls
5828 2448 Pls
5828 3050 Pls
5828 2866 Pls
5828 3219 Pls
6289 1764 Pls
6289 2215 Pls
6289 2549 Pls
6289 3191 Pls
1685 4626 Pls
1685 4678 Pls
1685 4651 Pls
1685 4739 Pls
2146 4648 Pls
2146 4667 Pls
2146 4739 Pls
2146 4739 Pls
2606 4667 Pls
2606 4739 Pls
2606 4686 Pls
2606 4739 Pls
3066 4667 Pls
3066 4626 Pls
3066 4739 Pls
3066 4739 Pls
3527 4739 Pls
3527 4739 Pls
3527 4739 Pls
3527 4739 Pls
4447 3267 Pls
4447 3144 Pls
4447 3158 Pls
4447 3364 Pls
4908 2088 Pls
4908 2199 Pls
4908 3448 Pls
4908 2870 Pls
5368 2294 Pls
5368 1987 Pls
5368 2427 Pls
5368 2793 Pls
5828 2015 Pls
5828 2311 Pls
5828 2010 Pls
5828 2516 Pls
6289 1865 Pls
6289 1759 Pls
6289 2064 Pls
6289 2374 Pls
1685 4739 Pls
1685 4739 Pls
1685 4739 Pls
1685 4739 Pls
2146 4683 Pls
2146 4739 Pls
2146 4739 Pls
2146 4739 Pls
2606 4739 Pls
2606 4739 Pls
2606 4739 Pls
2606 4739 Pls
3066 4739 Pls
3066 4739 Pls
3066 4739 Pls
3066 4739 Pls
3527 4739 Pls
3527 4739 Pls
3527 4739 Pls
3527 4739 Pls
4447 4739 Pls
4447 4476 Pls
4447 4608 Pls
4447 4739 Pls
4908 4739 Pls
4908 4739 Pls
4908 4739 Pls
4908 4739 Pls
5368 4476 Pls
5368 4542 Pls
5368 4739 Pls
5368 4739 Pls
5828 4608 Pls
5828 4581 Pls
5828 4509 Pls
5828 4739 Pls
6289 4345 Pls
6289 4082 Pls
6289 4641 Pls
6289 4739 Pls
1685 4641 Pls
1685 4739 Pls
1685 4739 Pls
1685 4739 Pls
2146 4651 Pls
2146 4739 Pls
2146 4739 Pls
2146 4739 Pls
2606 4739 Pls
2606 4739 Pls
2606 4739 Pls
2606 4739 Pls
3066 4739 Pls
3066 4739 Pls
3066 4739 Pls
3066 4651 Pls
3527 4739 Pls
3527 4739 Pls
3527 4739 Pls
3527 4660 Pls
4447 4345 Pls
4447 4739 Pls
4447 4581 Pls
4447 4581 Pls
4908 4476 Pls
4908 4463 Pls
4908 4542 Pls
4908 4739 Pls
5368 3473 Pls
5368 3715 Pls
5368 3656 Pls
5368 4444 Pls
5828 3889 Pls
5828 3515 Pls
5828 3789 Pls
5828 4239 Pls
6289 3739 Pls
6289 3205 Pls
6289 4303 Pls
6289 3857 Pls
1685 4739 Pls
1685 4651 Pls
1685 4607 Pls
1685 4678 Pls
2146 4739 Pls
2146 4739 Pls
2146 4739 Pls
2146 4739 Pls
2606 4660 Pls
2606 4739 Pls
2606 4667 Pls
2606 4739 Pls
3066 4739 Pls
3066 4739 Pls
3066 4739 Pls
3066 4739 Pls
3527 4739 Pls
3527 4739 Pls
3527 4626 Pls
3527 4739 Pls
4447 4148 Pls
4447 4564 Pls
4447 4122 Pls
4447 4017 Pls
4908 4030 Pls
4908 3701 Pls
4908 3944 Pls
4908 3853 Pls
5368 3244 Pls
5368 3612 Pls
5368 4364 Pls
5368 3104 Pls
5828 3031 Pls
5828 3327 Pls
5828 3222 Pls
5828 3121 Pls
6289 3277 Pls
6289 3082 Pls
6289 3569 Pls
6289 2880 Pls
1685 4651 Pls
1685 4739 Pls
1685 4739 Pls
1685 4739 Pls
2146 4739 Pls
2146 4683 Pls
2146 4739 Pls
2146 4514 Pls
2606 4739 Pls
2606 4739 Pls
2606 4739 Pls
2606 4739 Pls
3066 4739 Pls
3066 4678 Pls
3066 4739 Pls
3066 4739 Pls
3527 4641 Pls
3527 4739 Pls
3527 4739 Pls
3527 4739 Pls
4447 3268 Pls
4447 3846 Pls
4447 4004 Pls
4447 3839 Pls
4908 2632 Pls
4908 3759 Pls
4908 2783 Pls
4908 3262 Pls
5368 2264 Pls
5368 2925 Pls
5368 2822 Pls
5368 2582 Pls
5828 2282 Pls
5828 2998 Pls
5828 3214 Pls
5828 2439 Pls
6289 2237 Pls
6289 2685 Pls
6289 2179 Pls
6289 3231 Pls
1685 4648 Pls
1685 4678 Pls
1685 4678 Pls
1685 4739 Pls
2146 4739 Pls
2146 4739 Pls
2146 4739 Pls
2146 4739 Pls
2606 4673 Pls
2606 4739 Pls
2606 4596 Pls
2606 4739 Pls
3066 4739 Pls
3066 4739 Pls
3066 4678 Pls
3066 4739 Pls
3527 4739 Pls
3527 4739 Pls
3527 4739 Pls
3527 4678 Pls
4447 3759 Pls
4447 3400 Pls
4447 3764 Pls
4447 3221 Pls
4908 2693 Pls
4908 2203 Pls
4908 2935 Pls
4908 3075 Pls
5368 2977 Pls
5368 2863 Pls
5368 2368 Pls
5368 2621 Pls
5828 1911 Pls
5828 2146 Pls
5828 2249 Pls
5828 2319 Pls
6289 1703 Pls
6289 2374 Pls
6289 2579 Pls
6289 2402 Pls
1685 4739 Pls
1685 4739 Pls
1685 4739 Pls
1685 4739 Pls
2146 4739 Pls
2146 4739 Pls
2146 4739 Pls
2146 4739 Pls
2606 4739 Pls
2606 4739 Pls
2606 4739 Pls
2606 4739 Pls
3066 4739 Pls
3066 4739 Pls
3066 4739 Pls
3066 4739 Pls
3527 4739 Pls
3527 4739 Pls
3527 4739 Pls
3527 4739 Pls
4447 4739 Pls
4447 4739 Pls
4447 4739 Pls
4447 4739 Pls
4908 4739 Pls
4908 4739 Pls
4908 4739 Pls
4908 4739 Pls
5368 4542 Pls
5368 4542 Pls
5368 4739 Pls
5368 4739 Pls
5828 4542 Pls
5828 4739 Pls
5828 4739 Pls
5828 4739 Pls
6289 4739 Pls
6289 4739 Pls
6289 4542 Pls
6289 4739 Pls
1685 4739 Pls
1685 4739 Pls
1685 4739 Pls
1685 4739 Pls
2146 4739 Pls
2146 4739 Pls
2146 4739 Pls
2146 4739 Pls
2606 4739 Pls
2606 4739 Pls
2606 4739 Pls
2606 4739 Pls
3066 4739 Pls
3066 4739 Pls
3066 4739 Pls
3066 4739 Pls
3527 4739 Pls
3527 4739 Pls
3527 4739 Pls
3527 4739 Pls
4447 4476 Pls
4447 4739 Pls
4447 4345 Pls
4447 4739 Pls
4908 4476 Pls
4908 4476 Pls
4908 4739 Pls
4908 4384 Pls
5368 4227 Pls
5368 4542 Pls
5368 4430 Pls
5368 4279 Pls
5828 4214 Pls
5828 4308 Pls
5828 4356 Pls
5828 3938 Pls
6289 4188 Pls
6289 4641 Pls
6289 4056 Pls
6289 4082 Pls
1685 4660 Pls
1685 4739 Pls
1685 4739 Pls
1685 4678 Pls
2146 4739 Pls
2146 4739 Pls
2146 4739 Pls
2146 4739 Pls
2606 4739 Pls
2606 4739 Pls
2606 4739 Pls
2606 4739 Pls
3066 4739 Pls
3066 4739 Pls
3066 4739 Pls
3066 4739 Pls
3527 4739 Pls
3527 4739 Pls
3527 4739 Pls
3527 4651 Pls
4447 4279 Pls
4447 4739 Pls
4447 4476 Pls
4447 4542 Pls
4908 4082 Pls
4908 3944 Pls
4908 3912 Pls
4908 3818 Pls
5368 3853 Pls
5368 3459 Pls
5368 3524 Pls
5368 3964 Pls
5828 3767 Pls
5828 3636 Pls
5828 3660 Pls
5828 4542 Pls
6289 3923 Pls
6289 3407 Pls
6289 3848 Pls
6289 4331 Pls
1685 4739 Pls
1685 4739 Pls
1685 4739 Pls
1685 4667 Pls
2146 4739 Pls
2146 4739 Pls
2146 4739 Pls
2146 4739 Pls
2606 4739 Pls
2606 4739 Pls
2606 4739 Pls
2606 4739 Pls
3066 4739 Pls
3066 4739 Pls
3066 4678 Pls
3066 4739 Pls
3527 4739 Pls
3527 4739 Pls
3527 4739 Pls
3527 4739 Pls
4447 3656 Pls
4447 3951 Pls
4447 4082 Pls
4447 4476 Pls
4908 3610 Pls
4908 3667 Pls
4908 4134 Pls
4908 4170 Pls
5368 3400 Pls
5368 3458 Pls
5368 3930 Pls
5368 3601 Pls
5828 3034 Pls
5828 3157 Pls
5828 3391 Pls
5828 3353 Pls
6289 3324 Pls
6289 3166 Pls
6289 3463 Pls
6289 3957 Pls
1685 4660 Pls
1685 4739 Pls
1685 4739 Pls
1685 4678 Pls
2146 4739 Pls
2146 4706 Pls
2146 4739 Pls
2146 4739 Pls
2606 4739 Pls
2606 4651 Pls
2606 4739 Pls
2606 4739 Pls
3066 4673 Pls
3066 4739 Pls
3066 4739 Pls
3066 4739 Pls
3527 4739 Pls
3527 4739 Pls
3527 4651 Pls
3527 4739 Pls
4447 3991 Pls
4447 3782 Pls
4447 3719 Pls
4447 4188 Pls
4908 3531 Pls
4908 3961 Pls
4908 4469 Pls
4908 3425 Pls
5368 3001 Pls
5368 3347 Pls
5368 2963 Pls
5368 3101 Pls
5828 3049 Pls
5828 2793 Pls
5828 3158 Pls
5828 3274 Pls
6289 2775 Pls
6289 2685 Pls
6289 2717 Pls
6289 3350 Pls
1685 4739 Pls
1685 4739 Pls
1685 4739 Pls
1685 4739 Pls
2146 4739 Pls
2146 4651 Pls
2146 4739 Pls
2146 4739 Pls
2606 4739 Pls
2606 4739 Pls
2606 4739 Pls
2606 4739 Pls
3066 4739 Pls
3066 4739 Pls
3066 4739 Pls
3066 4739 Pls
3527 4739 Pls
3527 4739 Pls
3527 4739 Pls
3527 4739 Pls
4447 4739 Pls
4447 4739 Pls
4447 4739 Pls
4447 4739 Pls
4908 4739 Pls
4908 4739 Pls
4908 4739 Pls
4908 4739 Pls
5368 4739 Pls
5368 4739 Pls
5368 4608 Pls
5368 4739 Pls
5828 4739 Pls
5828 4739 Pls
5828 4739 Pls
5828 4739 Pls
6289 4411 Pls
6289 4739 Pls
6289 4739 Pls
6289 4739 Pls
1685 4739 Pls
1685 4739 Pls
1685 4739 Pls
1685 4739 Pls
2146 4739 Pls
2146 4739 Pls
2146 4739 Pls
2146 4739 Pls
2606 4739 Pls
2606 4739 Pls
2606 4739 Pls
2606 4739 Pls
3066 4739 Pls
3066 4739 Pls
3066 4739 Pls
3066 4739 Pls
3527 4739 Pls
3527 4739 Pls
3527 4739 Pls
3527 4608 Pls
4447 4739 Pls
4447 4739 Pls
4447 4542 Pls
4447 4739 Pls
4908 4739 Pls
4908 4739 Pls
4908 4608 Pls
4908 4542 Pls
5368 4542 Pls
5368 4430 Pls
5368 4148 Pls
5368 4608 Pls
5828 4542 Pls
5828 4542 Pls
5828 4608 Pls
5828 4290 Pls
6289 4319 Pls
6289 4384 Pls
6289 4476 Pls
6289 4739 Pls
1685 4739 Pls
1685 4667 Pls
1685 4683 Pls
1685 4739 Pls
2146 4739 Pls
2146 4739 Pls
2146 4739 Pls
2146 4739 Pls
2606 4739 Pls
2606 4739 Pls
2606 4651 Pls
2606 4739 Pls
3066 4739 Pls
3066 4739 Pls
3066 4739 Pls
3066 4739 Pls
3527 4739 Pls
3527 4739 Pls
3527 4739 Pls
3527 4739 Pls
4447 4739 Pls
4447 4739 Pls
4447 4739 Pls
4447 4739 Pls
4908 4739 Pls
4908 4201 Pls
4908 4251 Pls
4908 4476 Pls
5368 4279 Pls
5368 3807 Pls
5368 4214 Pls
5368 4476 Pls
5828 4082 Pls
5828 4495 Pls
5828 4188 Pls
5828 4331 Pls
6289 2984 Pls
6289 4286 Pls
6289 4003 Pls
6289 3780 Pls
1685 4739 Pls
1685 4739 Pls
1685 4739 Pls
1685 4700 Pls
2146 4739 Pls
2146 4555 Pls
2146 4619 Pls
2146 4651 Pls
2606 4739 Pls
2606 4739 Pls
2606 4739 Pls
2606 4739 Pls
3066 4739 Pls
3066 4739 Pls
3066 4739 Pls
3066 4739 Pls
3527 4739 Pls
3527 4739 Pls
3527 4739 Pls
3527 4739 Pls
4447 4424 Pls
4447 4739 Pls
4447 4115 Pls
4447 4279 Pls
4908 3689 Pls
4908 4384 Pls
4908 4122 Pls
4908 4345 Pls
5368 3229 Pls
5368 3278 Pls
5368 3689 Pls
5368 3707 Pls
5828 4109 Pls
5828 4188 Pls
5828 3348 Pls
5828 3689 Pls
6289 3400 Pls
6289 2889 Pls
6289 3261 Pls
6289 4054 Pls
1685 4739 Pls
1685 4739 Pls
1685 4628 Pls
1685 4651 Pls
2146 4739 Pls
2146 4739 Pls
2146 4739 Pls
2146 4739 Pls
2606 4739 Pls
2606 4739 Pls
2606 4739 Pls
2606 4739 Pls
3066 4739 Pls
3066 4739 Pls
3066 4739 Pls
3066 4739 Pls
3527 4739 Pls
3527 4739 Pls
3527 4739 Pls
3527 4739 Pls
4447 4476 Pls
4447 4476 Pls
4447 4122 Pls
4447 3328 Pls
4908 3899 Pls
4908 3812 Pls
4908 4294 Pls
4908 3853 Pls
5368 3630 Pls
5368 3238 Pls
5368 3899 Pls
5368 3339 Pls
5828 3310 Pls
5828 3152 Pls
5828 3811 Pls
5828 3640 Pls
6289 3171 Pls
6289 2905 Pls
6289 3059 Pls
6289 3187 Pls
1685 4739 Pls
1685 4739 Pls
1685 4739 Pls
1685 4739 Pls
2146 4739 Pls
2146 4739 Pls
2146 4739 Pls
2146 4739 Pls
2606 4683 Pls
2606 4739 Pls
2606 4739 Pls
2606 4739 Pls
3066 4739 Pls
3066 4739 Pls
3066 4739 Pls
3066 4739 Pls
3527 4739 Pls
3527 4739 Pls
3527 4739 Pls
3527 4739 Pls
4447 4739 Pls
4447 4739 Pls
4447 4345 Pls
4447 4739 Pls
4908 4739 Pls
4908 4739 Pls
4908 4345 Pls
4908 4739 Pls
5368 4739 Pls
5368 4739 Pls
5368 4739 Pls
5368 4739 Pls
5828 4739 Pls
5828 4739 Pls
5828 4739 Pls
5828 4739 Pls
6289 4739 Pls
6289 4608 Pls
6289 4739 Pls
6289 4739 Pls
1685 4739 Pls
1685 4739 Pls
1685 4739 Pls
1685 4739 Pls
2146 4739 Pls
2146 4739 Pls
2146 4739 Pls
2146 4739 Pls
2606 4739 Pls
2606 4739 Pls
2606 4739 Pls
2606 4739 Pls
3066 4739 Pls
3066 4739 Pls
3066 4667 Pls
3066 4739 Pls
3527 4739 Pls
3527 4739 Pls
3527 4739 Pls
3527 4739 Pls
4447 4542 Pls
4447 4608 Pls
4447 4739 Pls
4447 4739 Pls
4908 4608 Pls
4908 4739 Pls
4908 4476 Pls
4908 4608 Pls
5368 4476 Pls
5368 4056 Pls
5368 4739 Pls
5368 4739 Pls
5828 4503 Pls
5828 4214 Pls
5828 4641 Pls
5828 4739 Pls
6289 4581 Pls
6289 4509 Pls
6289 4389 Pls
6289 4450 Pls
1685 4739 Pls
1685 4739 Pls
1685 4739 Pls
1685 4739 Pls
2146 4739 Pls
2146 4739 Pls
2146 4739 Pls
2146 4739 Pls
2606 4739 Pls
2606 4739 Pls
2606 4739 Pls
2606 4739 Pls
3066 4739 Pls
3066 4739 Pls
3066 4739 Pls
3066 4739 Pls
3527 4739 Pls
3527 4739 Pls
3527 4739 Pls
3527 4739 Pls
4447 4739 Pls
4447 4542 Pls
4447 4739 Pls
4447 4739 Pls
4908 4542 Pls
4908 4476 Pls
4908 4384 Pls
4908 4450 Pls
5368 3737 Pls
5368 4298 Pls
5368 4319 Pls
5368 4528 Pls
5828 3667 Pls
5828 4739 Pls
5828 4450 Pls
5828 4352 Pls
6289 4317 Pls
6289 3730 Pls
6289 4359 Pls
6289 4683 Pls
1685 4739 Pls
1685 4709 Pls
1685 4739 Pls
1685 4706 Pls
2146 4739 Pls
2146 4739 Pls
2146 4739 Pls
2146 4739 Pls
2606 4739 Pls
2606 4739 Pls
2606 4739 Pls
2606 4739 Pls
3066 4739 Pls
3066 4739 Pls
3066 4739 Pls
3066 4739 Pls
3527 4739 Pls
3527 4739 Pls
3527 4739 Pls
3527 4739 Pls
4447 4122 Pls
4447 4214 Pls
4447 4581 Pls
4447 4626 Pls
4908 4181 Pls
4908 4279 Pls
4908 4739 Pls
4908 4430 Pls
5368 4660 Pls
5368 3766 Pls
5368 4056 Pls
5368 4089 Pls
5828 4384 Pls
5828 3831 Pls
5828 4056 Pls
5828 4083 Pls
6289 3111 Pls
6289 3964 Pls
6289 3720 Pls
6289 4426 Pls
1685 4739 Pls
1685 4739 Pls
1685 4739 Pls
1685 4739 Pls
2146 4739 Pls
2146 4739 Pls
2146 4739 Pls
2146 4739 Pls
2606 4660 Pls
2606 4656 Pls
2606 4739 Pls
2606 4739 Pls
3066 4739 Pls
3066 4739 Pls
3066 4739 Pls
3066 4739 Pls
3527 4739 Pls
3527 4673 Pls
3527 4739 Pls
3527 4739 Pls
4447 4082 Pls
4447 4476 Pls
4447 4188 Pls
4447 3807 Pls
4908 3373 Pls
4908 2824 Pls
4908 4115 Pls
4908 3951 Pls
5368 3437 Pls
5368 3559 Pls
5368 3592 Pls
5368 4119 Pls
5828 3011 Pls
5828 2959 Pls
5828 4111 Pls
5828 3812 Pls
6289 3714 Pls
6289 2948 Pls
6289 3695 Pls
6289 3906 Pls
1685 4739 Pls
1685 4739 Pls
1685 4739 Pls
1685 4739 Pls
2146 4739 Pls
2146 4739 Pls
2146 4739 Pls
2146 4739 Pls
2606 4739 Pls
2606 4739 Pls
2606 4739 Pls
2606 4739 Pls
3066 4739 Pls
3066 4739 Pls
3066 4739 Pls
3066 4739 Pls
3527 4739 Pls
3527 4739 Pls
3527 4739 Pls
3527 4739 Pls
4447 4739 Pls
4447 4542 Pls
4447 4739 Pls
4447 4739 Pls
4908 4739 Pls
4908 4739 Pls
4908 4739 Pls
4908 4739 Pls
5368 4739 Pls
5368 4739 Pls
5368 4739 Pls
5368 4739 Pls
5828 4581 Pls
5828 4739 Pls
5828 4739 Pls
5828 4739 Pls
6289 4739 Pls
6289 4739 Pls
6289 4739 Pls
6289 4739 Pls
1685 4739 Pls
1685 4739 Pls
1685 4739 Pls
1685 4739 Pls
2146 4739 Pls
2146 4739 Pls
2146 4739 Pls
2146 4739 Pls
2606 4739 Pls
2606 4739 Pls
2606 4739 Pls
2606 4739 Pls
3066 4739 Pls
3066 4739 Pls
3066 4739 Pls
3066 4739 Pls
3527 4739 Pls
3527 4739 Pls
3527 4739 Pls
3527 4739 Pls
4447 4739 Pls
4447 4739 Pls
4447 4739 Pls
4447 4739 Pls
4908 4739 Pls
4908 4739 Pls
4908 4739 Pls
4908 4739 Pls
5368 4739 Pls
5368 4188 Pls
5368 4463 Pls
5368 4739 Pls
5828 4641 Pls
5828 4345 Pls
5828 4660 Pls
5828 4739 Pls
6289 4483 Pls
6289 4581 Pls
6289 4476 Pls
6289 4739 Pls
1685 4739 Pls
1685 4739 Pls
1685 4739 Pls
1685 4739 Pls
2146 4739 Pls
2146 4739 Pls
2146 4739 Pls
2146 4739 Pls
2606 4739 Pls
2606 4739 Pls
2606 4739 Pls
2606 4739 Pls
3066 4739 Pls
3066 4739 Pls
3066 4739 Pls
3066 4739 Pls
3527 4739 Pls
3527 4739 Pls
3527 4739 Pls
3527 4739 Pls
4447 4542 Pls
4447 4476 Pls
4447 4739 Pls
4447 4739 Pls
4908 4279 Pls
4908 4739 Pls
4908 4411 Pls
4908 4739 Pls
5368 4641 Pls
5368 4581 Pls
5368 4384 Pls
5368 4227 Pls
5828 4148 Pls
5828 3853 Pls
5828 4338 Pls
5828 4384 Pls
6289 4124 Pls
6289 4444 Pls
6289 3871 Pls
6289 4384 Pls
1685 4739 Pls
1685 4739 Pls
1685 4739 Pls
1685 4739 Pls
2146 4739 Pls
2146 4739 Pls
2146 4739 Pls
2146 4739 Pls
2606 4667 Pls
2606 4739 Pls
2606 4739 Pls
2606 4739 Pls
3066 4739 Pls
3066 4739 Pls
3066 4739 Pls
3066 4667 Pls
3527 4739 Pls
3527 4739 Pls
3527 4739 Pls
3527 4739 Pls
4447 4279 Pls
4447 4739 Pls
4447 4056 Pls
4447 4739 Pls
4908 4148 Pls
4908 4581 Pls
4908 4542 Pls
4908 4135 Pls
5368 3951 Pls
5368 4739 Pls
5368 3853 Pls
5368 4424 Pls
5828 4225 Pls
5828 4173 Pls
5828 3964 Pls
5828 4030 Pls
6289 3505 Pls
6289 3594 Pls
6289 3616 Pls
6289 3623 Pls
1685 4739 Pls
1685 4678 Pls
1685 4739 Pls
1685 4739 Pls
2146 4739 Pls
2146 4739 Pls
2146 4739 Pls
2146 4739 Pls
2606 4739 Pls
2606 4686 Pls
2606 4739 Pls
2606 4739 Pls
3066 4739 Pls
3066 4739 Pls
3066 4739 Pls
3066 4739 Pls
3527 4739 Pls
3527 4739 Pls
3527 4739 Pls
3527 4739 Pls
4447 4739 Pls
4447 4739 Pls
4447 4739 Pls
4447 4384 Pls
4908 4092 Pls
4908 3510 Pls
4908 4269 Pls
4908 4306 Pls
5368 3595 Pls
5368 3944 Pls
5368 3329 Pls
5368 3819 Pls
5828 3380 Pls
5828 3859 Pls
5828 3926 Pls
5828 3928 Pls
6289 3360 Pls
6289 4056 Pls
6289 3551 Pls
6289 3649 Pls
1685 4739 Pls
1685 4739 Pls
1685 4739 Pls
1685 4739 Pls
2146 4739 Pls
2146 4739 Pls
2146 4739 Pls
2146 4739 Pls
2606 4739 Pls
2606 4739 Pls
2606 4739 Pls
2606 4739 Pls
3066 4739 Pls
3066 4739 Pls
3066 4739 Pls
3066 4739 Pls
3527 4739 Pls
3527 4739 Pls
3527 4739 Pls
3527 4739 Pls
4447 4739 Pls
4447 4739 Pls
4447 4739 Pls
4447 4739 Pls
4908 4542 Pls
4908 4739 Pls
4908 4739 Pls
4908 4739 Pls
5368 4739 Pls
5368 4739 Pls
5368 4739 Pls
5368 4739 Pls
5828 4641 Pls
5828 4739 Pls
5828 4739 Pls
5828 4739 Pls
6289 4739 Pls
6289 4739 Pls
6289 4739 Pls
6289 4739 Pls
1685 4739 Pls
1685 4739 Pls
1685 4739 Pls
1685 4739 Pls
2146 4739 Pls
2146 4739 Pls
2146 4739 Pls
2146 4739 Pls
2606 4739 Pls
2606 4739 Pls
2606 4739 Pls
2606 4739 Pls
3066 4739 Pls
3066 4739 Pls
3066 4739 Pls
3066 4739 Pls
3527 4739 Pls
3527 4739 Pls
3527 4739 Pls
3527 4739 Pls
4447 4739 Pls
4447 4739 Pls
4447 4739 Pls
4447 4739 Pls
4908 4739 Pls
4908 4739 Pls
4908 4739 Pls
4908 4739 Pls
5368 4608 Pls
5368 4641 Pls
5368 4739 Pls
5368 4608 Pls
5828 4739 Pls
5828 4739 Pls
5828 4641 Pls
5828 4739 Pls
6289 4476 Pls
6289 4739 Pls
6289 4739 Pls
6289 4542 Pls
1685 4739 Pls
1685 4739 Pls
1685 4739 Pls
1685 4739 Pls
2146 4739 Pls
2146 4739 Pls
2146 4739 Pls
2146 4739 Pls
2606 4739 Pls
2606 4739 Pls
2606 4739 Pls
2606 4739 Pls
3066 4739 Pls
3066 4739 Pls
3066 4739 Pls
3066 4739 Pls
3527 4739 Pls
3527 4739 Pls
3527 4739 Pls
3527 4739 Pls
4447 4279 Pls
4447 4641 Pls
4447 4739 Pls
4447 4739 Pls
4908 4739 Pls
4908 4476 Pls
4908 4739 Pls
4908 4542 Pls
5368 4542 Pls
5368 4378 Pls
5368 4319 Pls
5368 4739 Pls
5828 3754 Pls
5828 4239 Pls
5828 4272 Pls
5828 4739 Pls
6289 4306 Pls
6289 4739 Pls
6289 4739 Pls
6289 4486 Pls
1685 4739 Pls
1685 4739 Pls
1685 4739 Pls
1685 4626 Pls
2146 4739 Pls
2146 4739 Pls
2146 4739 Pls
2146 4739 Pls
2606 4739 Pls
2606 4686 Pls
2606 4739 Pls
2606 4678 Pls
3066 4739 Pls
3066 4739 Pls
3066 4739 Pls
3066 4739 Pls
3527 4739 Pls
3527 4739 Pls
3527 4739 Pls
3527 4739 Pls
4447 4739 Pls
4447 4739 Pls
4447 4739 Pls
4447 4542 Pls
4908 4581 Pls
4908 3981 Pls
4908 4514 Pls
4908 4739 Pls
5368 4122 Pls
5368 4608 Pls
5368 4581 Pls
5368 4319 Pls
5828 3826 Pls
5828 3915 Pls
5828 4056 Pls
5828 3360 Pls
6289 4227 Pls
6289 4017 Pls
6289 3689 Pls
6289 4148 Pls
1685 4651 Pls
1685 4739 Pls
1685 4739 Pls
1685 4739 Pls
2146 4548 Pls
2146 4739 Pls
2146 4739 Pls
2146 4739 Pls
2606 4739 Pls
2606 4739 Pls
2606 4739 Pls
2606 4739 Pls
3066 4739 Pls
3066 4739 Pls
3066 4739 Pls
3066 4683 Pls
3527 4739 Pls
3527 4739 Pls
3527 4739 Pls
3527 4739 Pls
4447 4476 Pls
4447 4514 Pls
4447 4148 Pls
4447 4279 Pls
4908 4253 Pls
4908 4017 Pls
4908 4363 Pls
4908 4476 Pls
5368 3792 Pls
5368 3977 Pls
5368 4739 Pls
5368 3794 Pls
5828 3700 Pls
5828 4017 Pls
5828 3595 Pls
5828 4031 Pls
6289 3345 Pls
6289 3868 Pls
6289 3972 Pls
6289 4030 Pls
1685 4739 Pls
1685 4739 Pls
1685 4739 Pls
1685 4739 Pls
2146 4739 Pls
2146 4739 Pls
2146 4739 Pls
2146 4739 Pls
2606 4739 Pls
2606 4739 Pls
2606 4739 Pls
2606 4739 Pls
3066 4739 Pls
3066 4739 Pls
3066 4739 Pls
3066 4739 Pls
3527 4739 Pls
3527 4739 Pls
3527 4739 Pls
3527 4739 Pls
4447 4739 Pls
4447 4739 Pls
4447 4739 Pls
4447 4739 Pls
4908 4739 Pls
4908 4345 Pls
4908 4739 Pls
4908 4739 Pls
5368 4739 Pls
5368 4739 Pls
5368 4739 Pls
5368 4739 Pls
5828 4739 Pls
5828 4739 Pls
5828 4739 Pls
5828 4739 Pls
6289 4608 Pls
6289 4739 Pls
6289 4739 Pls
6289 4739 Pls
1685 4739 Pls
1685 4739 Pls
1685 4739 Pls
1685 4739 Pls
2146 4739 Pls
2146 4739 Pls
2146 4739 Pls
2146 4739 Pls
2606 4739 Pls
2606 4739 Pls
2606 4739 Pls
2606 4739 Pls
3066 4739 Pls
3066 4739 Pls
3066 4739 Pls
3066 4739 Pls
3527 4739 Pls
3527 4739 Pls
3527 4739 Pls
3527 4739 Pls
4447 4739 Pls
4447 4739 Pls
4447 4739 Pls
4447 4739 Pls
4908 4345 Pls
4908 4345 Pls
4908 4739 Pls
4908 4739 Pls
5368 4739 Pls
5368 4739 Pls
5368 4739 Pls
5368 4739 Pls
5828 4739 Pls
5828 4581 Pls
5828 4529 Pls
5828 4739 Pls
6289 4581 Pls
6289 4476 Pls
6289 4739 Pls
6289 4476 Pls
1685 4739 Pls
1685 4739 Pls
1685 4678 Pls
1685 4739 Pls
2146 4739 Pls
2146 4739 Pls
2146 4739 Pls
2146 4739 Pls
2606 4739 Pls
2606 4739 Pls
2606 4739 Pls
2606 4739 Pls
3066 4739 Pls
3066 4739 Pls
3066 4739 Pls
3066 4739 Pls
3527 4739 Pls
3527 4739 Pls
3527 4739 Pls
3527 4739 Pls
4447 4641 Pls
4447 4739 Pls
4447 4626 Pls
4447 4739 Pls
4908 4476 Pls
4908 4739 Pls
4908 4739 Pls
4908 4608 Pls
5368 4476 Pls
5368 4017 Pls
5368 4626 Pls
5368 4503 Pls
5828 4542 Pls
5828 4739 Pls
5828 4641 Pls
5828 4384 Pls
6289 4120 Pls
6289 4739 Pls
6289 4581 Pls
6289 4495 Pls
1685 4739 Pls
1685 4739 Pls
1685 4739 Pls
1685 4739 Pls
2146 4739 Pls
2146 4739 Pls
2146 4739 Pls
2146 4678 Pls
2606 4739 Pls
2606 4739 Pls
2606 4739 Pls
2606 4739 Pls
3066 4739 Pls
3066 4739 Pls
3066 4739 Pls
3066 4739 Pls
3527 4739 Pls
3527 4739 Pls
3527 4739 Pls
3527 4739 Pls
4447 4542 Pls
4447 4279 Pls
4447 4739 Pls
4447 4476 Pls
4908 4581 Pls
4908 4017 Pls
4908 4542 Pls
4908 4030 Pls
5368 4214 Pls
5368 4450 Pls
5368 4345 Pls
5368 4608 Pls
5828 3735 Pls
5828 4595 Pls
5828 4135 Pls
5828 4251 Pls
6289 4174 Pls
6289 4608 Pls
6289 4363 Pls
6289 4214 Pls
1685 4739 Pls
1685 4739 Pls
1685 4739 Pls
1685 4739 Pls
2146 4673 Pls
2146 4739 Pls
2146 4739 Pls
2146 4739 Pls
2606 4739 Pls
2606 4739 Pls
2606 4739 Pls
2606 4739 Pls
3066 4739 Pls
3066 4739 Pls
3066 4739 Pls
3066 4739 Pls
3527 4739 Pls
3527 4739 Pls
3527 4739 Pls
3527 4739 Pls
4447 4542 Pls
4447 4266 Pls
4447 4542 Pls
4447 4161 Pls
4908 3964 Pls
4908 4054 Pls
4908 4581 Pls
4908 4345 Pls
5368 4411 Pls
5368 3824 Pls
5368 4499 Pls
5368 4281 Pls
5828 4384 Pls
5828 4036 Pls
5828 3595 Pls
5828 3707 Pls
6289 3254 Pls
6289 4739 Pls
6289 3708 Pls
6289 4001 Pls
1685 4739 Pls
1685 4739 Pls
1685 4739 Pls
1685 4739 Pls
2146 4739 Pls
2146 4739 Pls
2146 4739 Pls
2146 4739 Pls
2606 4739 Pls
2606 4739 Pls
2606 4739 Pls
2606 4739 Pls
3066 4739 Pls
3066 4739 Pls
3066 4739 Pls
3066 4739 Pls
3527 4739 Pls
3527 4739 Pls
3527 4739 Pls
3527 4739 Pls
4447 4739 Pls
4447 4739 Pls
4447 4739 Pls
4447 4739 Pls
4908 4739 Pls
4908 4739 Pls
4908 4739 Pls
4908 4739 Pls
5368 4739 Pls
5368 4739 Pls
5368 4739 Pls
5368 4739 Pls
5828 4739 Pls
5828 4739 Pls
5828 4739 Pls
5828 4739 Pls
6289 4739 Pls
6289 4739 Pls
6289 4739 Pls
6289 4739 Pls
1685 4739 Pls
1685 4739 Pls
1685 4739 Pls
1685 4739 Pls
2146 4739 Pls
2146 4739 Pls
2146 4739 Pls
2146 4739 Pls
2606 4739 Pls
2606 4739 Pls
2606 4739 Pls
2606 4739 Pls
3066 4739 Pls
3066 4739 Pls
3066 4739 Pls
3066 4739 Pls
3527 4739 Pls
3527 4739 Pls
3527 4739 Pls
3527 4739 Pls
4447 4739 Pls
4447 4739 Pls
4447 4739 Pls
4447 4739 Pls
4908 4739 Pls
4908 4739 Pls
4908 4739 Pls
4908 4739 Pls
5368 4739 Pls
5368 4739 Pls
5368 4739 Pls
5368 4739 Pls
5828 4148 Pls
5828 4476 Pls
5828 4581 Pls
5828 4739 Pls
6289 4384 Pls
6289 4251 Pls
6289 4739 Pls
6289 4542 Pls
1685 4739 Pls
1685 4739 Pls
1685 4739 Pls
1685 4739 Pls
2146 4739 Pls
2146 4739 Pls
2146 4739 Pls
2146 4739 Pls
2606 4739 Pls
2606 4739 Pls
2606 4739 Pls
2606 4739 Pls
3066 4739 Pls
3066 4739 Pls
3066 4739 Pls
3066 4739 Pls
3527 4739 Pls
3527 4739 Pls
3527 4739 Pls
3527 4739 Pls
4447 4739 Pls
4447 4476 Pls
4447 4739 Pls
4447 4739 Pls
4908 4739 Pls
4908 4476 Pls
4908 4739 Pls
4908 4660 Pls
5368 4345 Pls
5368 4739 Pls
5368 4430 Pls
5368 4739 Pls
5828 4739 Pls
5828 4298 Pls
5828 3899 Pls
5828 4739 Pls
6289 4411 Pls
6289 4503 Pls
6289 4503 Pls
6289 4739 Pls
1685 4673 Pls
1685 4739 Pls
1685 4678 Pls
1685 4739 Pls
2146 4739 Pls
2146 4739 Pls
2146 4739 Pls
2146 4739 Pls
2606 4660 Pls
2606 4739 Pls
2606 4739 Pls
2606 4739 Pls
3066 4739 Pls
3066 4739 Pls
3066 4739 Pls
3066 4739 Pls
3527 4739 Pls
3527 4739 Pls
3527 4739 Pls
3527 4739 Pls
4447 4608 Pls
4447 4739 Pls
4447 4608 Pls
4447 4739 Pls
4908 4739 Pls
4908 4279 Pls
4908 4542 Pls
4908 4476 Pls
5368 4450 Pls
5368 4345 Pls
5368 4739 Pls
5368 4203 Pls
5828 3833 Pls
5828 4323 Pls
5828 4188 Pls
5828 4303 Pls
6289 4450 Pls
6289 4272 Pls
6289 4495 Pls
6289 4009 Pls
1685 4673 Pls
1685 4739 Pls
1685 4739 Pls
1685 4739 Pls
2146 4739 Pls
2146 4739 Pls
2146 4739 Pls
2146 4739 Pls
2606 4739 Pls
2606 4739 Pls
2606 4739 Pls
2606 4739 Pls
3066 4739 Pls
3066 4739 Pls
3066 4739 Pls
3066 4739 Pls
3527 4739 Pls
3527 4739 Pls
3527 4739 Pls
3527 4739 Pls
4447 4319 Pls
4447 4214 Pls
4447 4148 Pls
4447 4542 Pls
4908 4384 Pls
4908 4411 Pls
4908 4651 Pls
4908 4581 Pls
5368 3859 Pls
5368 3859 Pls
5368 3859 Pls
5368 4345 Pls
5828 3590 Pls
5828 4457 Pls
5828 4338 Pls
5828 3648 Pls
6289 3698 Pls
6289 3904 Pls
6289 4641 Pls
6289 4179 Pls
1685 4739 Pls
1685 4739 Pls
1685 4739 Pls
1685 4739 Pls
2146 4739 Pls
2146 4739 Pls
2146 4739 Pls
2146 4739 Pls
2606 4739 Pls
2606 4739 Pls
2606 4739 Pls
2606 4739 Pls
3066 4739 Pls
3066 4739 Pls
3066 4739 Pls
3066 4739 Pls
3527 4739 Pls
3527 4739 Pls
3527 4739 Pls
3527 4739 Pls
4447 4739 Pls
4447 4739 Pls
4447 4739 Pls
4447 4739 Pls
4908 4739 Pls
4908 4739 Pls
4908 4739 Pls
4908 4739 Pls
5368 4739 Pls
5368 4641 Pls
5368 4739 Pls
5368 4739 Pls
5828 4739 Pls
5828 4739 Pls
5828 4739 Pls
5828 4739 Pls
6289 4739 Pls
6289 4739 Pls
6289 4739 Pls
6289 4739 Pls
1685 4739 Pls
1685 4739 Pls
1685 4739 Pls
1685 4739 Pls
2146 4739 Pls
2146 4739 Pls
2146 4739 Pls
2146 4739 Pls
2606 4739 Pls
2606 4739 Pls
2606 4739 Pls
2606 4739 Pls
3066 4739 Pls
3066 4739 Pls
3066 4739 Pls
3066 4739 Pls
3527 4739 Pls
3527 4739 Pls
3527 4739 Pls
3527 4739 Pls
4447 4739 Pls
4447 4542 Pls
4447 4739 Pls
4447 4739 Pls
4908 4581 Pls
4908 4483 Pls
4908 4542 Pls
4908 4739 Pls
5368 4739 Pls
5368 4345 Pls
5368 4476 Pls
5368 4739 Pls
5828 4345 Pls
5828 4608 Pls
5828 4739 Pls
5828 4476 Pls
6289 4279 Pls
6289 4463 Pls
6289 4581 Pls
6289 4739 Pls
1685 4739 Pls
1685 4739 Pls
1685 4739 Pls
1685 4739 Pls
2146 4739 Pls
2146 4739 Pls
2146 4739 Pls
2146 4739 Pls
2606 4739 Pls
2606 4739 Pls
2606 4739 Pls
2606 4739 Pls
3066 4739 Pls
3066 4739 Pls
3066 4739 Pls
3066 4739 Pls
3527 4739 Pls
3527 4739 Pls
3527 4739 Pls
3527 4739 Pls
4447 4739 Pls
4447 4739 Pls
4447 4581 Pls
4447 4739 Pls
4908 4739 Pls
4908 4279 Pls
4908 4739 Pls
4908 4542 Pls
5368 4450 Pls
5368 4739 Pls
5368 4739 Pls
5368 4660 Pls
5828 4384 Pls
5828 4450 Pls
5828 4739 Pls
5828 4476 Pls
6289 4581 Pls
6289 4739 Pls
6289 4043 Pls
6289 4739 Pls
1685 4739 Pls
1685 4739 Pls
1685 4739 Pls
1685 4739 Pls
2146 4739 Pls
2146 4739 Pls
2146 4739 Pls
2146 4739 Pls
2606 4660 Pls
2606 4739 Pls
2606 4667 Pls
2606 4739 Pls
3066 4739 Pls
3066 4739 Pls
3066 4739 Pls
3066 4739 Pls
3527 4739 Pls
3527 4739 Pls
3527 4739 Pls
3527 4651 Pls
4447 4739 Pls
4447 4542 Pls
4447 4542 Pls
4447 4384 Pls
4908 4542 Pls
4908 4161 Pls
4908 4581 Pls
4908 4279 Pls
5368 4542 Pls
5368 4241 Pls
5368 4364 Pls
5368 4739 Pls
5828 4227 Pls
5828 4050 Pls
5828 4188 Pls
5828 4542 Pls
6289 4739 Pls
6289 4384 Pls
6289 4317 Pls
6289 4214 Pls
1685 4739 Pls
1685 4739 Pls
1685 4739 Pls
1685 4739 Pls
2146 4739 Pls
2146 4739 Pls
2146 4739 Pls
2146 4739 Pls
2606 4739 Pls
2606 4739 Pls
2606 4739 Pls
2606 4739 Pls
3066 4739 Pls
3066 4739 Pls
3066 4739 Pls
3066 4739 Pls
3527 4739 Pls
3527 4739 Pls
3527 4739 Pls
3527 4739 Pls
4447 4214 Pls
4447 4739 Pls
4447 4476 Pls
4447 4279 Pls
4908 4188 Pls
4908 4430 Pls
4908 4345 Pls
4908 4476 Pls
5368 4542 Pls
5368 3944 Pls
5368 4444 Pls
5368 4476 Pls
5828 4122 Pls
5828 4739 Pls
5828 4247 Pls
5828 3943 Pls
6289 3459 Pls
6289 4042 Pls
6289 3947 Pls
6289 3886 Pls
% End plot #1
% Begin plot #2
1.000 UL
LT1
LCb setrgbcolor
2425 1488 M
[ [(Helvetica) 250.0 0.0 true true 0 (Average)]
] -83.3 MRshow
LT1
2575 1488 M
663 0 V
1685 4700 M
461 8 V
460 5 V
460 7 V
461 6 V
920 -731 V
461 -233 V
460 -156 V
460 -98 V
461 -82 V
% End plot #2
% Begin plot #3
stroke
LT2
LCb setrgbcolor
2425 1238 M
[ [(Helvetica) 250.0 0.0 true true 0 (Min)]
] -83.3 MRshow
LT2
2575 1238 M
663 0 V
1685 3930 M
461 366 V
460 14 V
460 35 V
461 131 V
4447 1184 L
461 -6 V
460 -42 V
460 -136 V
461 36 V
% End plot #3
% Begin plot #4
stroke
LT3
LCb setrgbcolor
2425 988 M
[ [(Helvetica) 250.0 0.0 true true 0 (Max)]
] -83.3 MRshow
LT3
2575 988 M
663 0 V
1685 4739 M
461 0 V
460 0 V
460 0 V
461 0 V
920 0 V
461 0 V
460 0 V
460 0 V
461 0 V
% End plot #4
stroke
LTb
1225 4739 N
0 -3939 V
5524 0 V
0 3939 V
-5524 0 V
Z stroke
1.000 UP
1.000 UL
LTb
stroke
grestore
end
showpage
%%Trailer
%%DocumentFonts: Helvetica
