%!PS-Adobe-2.0 EPSF-2.0
%%Title: n_noise_ratio.f1.eps
%%Creator: gnuplot 4.4 patchlevel 3
%%CreationDate: Tue Jun  4 13:11:09 2013
%%DocumentFonts: (atend)
%%BoundingBox: 50 50 410 302
%%EndComments
%%BeginProlog
/gnudict 256 dict def
gnudict begin
%
% The following true/false flags may be edited by hand if desired.
% The unit line width and grayscale image gamma correction may also be changed.
%
/Color true def
/Blacktext false def
/Solid false def
/Dashlength 1 def
/Landscape false def
/Level1 false def
/Rounded false def
/ClipToBoundingBox false def
/TransparentPatterns false def
/gnulinewidth 5.000 def
/userlinewidth gnulinewidth def
/Gamma 1.0 def
%
/vshift -83 def
/dl1 {
  10.0 Dashlength mul mul
  Rounded { currentlinewidth 0.75 mul sub dup 0 le { pop 0.01 } if } if
} def
/dl2 {
  10.0 Dashlength mul mul
  Rounded { currentlinewidth 0.75 mul add } if
} def
/hpt_ 31.5 def
/vpt_ 31.5 def
/hpt hpt_ def
/vpt vpt_ def
Level1 {} {
/SDict 10 dict def
systemdict /pdfmark known not {
  userdict /pdfmark systemdict /cleartomark get put
} if
SDict begin [
  /Title (n_noise_ratio.f1.eps)
  /Subject (gnuplot plot)
  /Creator (gnuplot 4.4 patchlevel 3)
  /Author (xjia)
%  /Producer (gnuplot)
%  /Keywords ()
  /CreationDate (Tue Jun  4 13:11:09 2013)
  /DOCINFO pdfmark
end
} ifelse
/doclip {
  ClipToBoundingBox {
    newpath 50 50 moveto 410 50 lineto 410 302 lineto 50 302 lineto closepath
    clip
  } if
} def
%
% Gnuplot Prolog Version 4.4 (August 2010)
%
%/SuppressPDFMark true def
%
/M {moveto} bind def
/L {lineto} bind def
/R {rmoveto} bind def
/V {rlineto} bind def
/N {newpath moveto} bind def
/Z {closepath} bind def
/C {setrgbcolor} bind def
/f {rlineto fill} bind def
/g {setgray} bind def
/Gshow {show} def   % May be redefined later in the file to support UTF-8
/vpt2 vpt 2 mul def
/hpt2 hpt 2 mul def
/Lshow {currentpoint stroke M 0 vshift R 
	Blacktext {gsave 0 setgray show grestore} {show} ifelse} def
/Rshow {currentpoint stroke M dup stringwidth pop neg vshift R
	Blacktext {gsave 0 setgray show grestore} {show} ifelse} def
/Cshow {currentpoint stroke M dup stringwidth pop -2 div vshift R 
	Blacktext {gsave 0 setgray show grestore} {show} ifelse} def
/UP {dup vpt_ mul /vpt exch def hpt_ mul /hpt exch def
  /hpt2 hpt 2 mul def /vpt2 vpt 2 mul def} def
/DL {Color {setrgbcolor Solid {pop []} if 0 setdash}
 {pop pop pop 0 setgray Solid {pop []} if 0 setdash} ifelse} def
/BL {stroke userlinewidth 2 mul setlinewidth
	Rounded {1 setlinejoin 1 setlinecap} if} def
/AL {stroke userlinewidth 2 div setlinewidth
	Rounded {1 setlinejoin 1 setlinecap} if} def
/UL {dup gnulinewidth mul /userlinewidth exch def
	dup 1 lt {pop 1} if 10 mul /udl exch def} def
/PL {stroke userlinewidth setlinewidth
	Rounded {1 setlinejoin 1 setlinecap} if} def
3.8 setmiterlimit
% Default Line colors
/LCw {1 1 1} def
/LCb {0 0 0} def
/LCa {0 0 0} def
/LC0 {1 0 0} def
/LC1 {0 1 0} def
/LC2 {0 0 1} def
/LC3 {1 0 1} def
/LC4 {0 1 1} def
/LC5 {1 1 0} def
/LC6 {0 0 0} def
/LC7 {1 0.3 0} def
/LC8 {0.5 0.5 0.5} def
% Default Line Types
/LTw {PL [] 1 setgray} def
/LTb {BL [] LCb DL} def
/LTa {AL [1 udl mul 2 udl mul] 0 setdash LCa setrgbcolor} def
/LT0 {PL [] LC0 DL} def
/LT1 {PL [4 dl1 2 dl2] LC1 DL} def
/LT2 {PL [2 dl1 3 dl2] LC2 DL} def
/LT3 {PL [1 dl1 1.5 dl2] LC3 DL} def
/LT4 {PL [6 dl1 2 dl2 1 dl1 2 dl2] LC4 DL} def
/LT5 {PL [3 dl1 3 dl2 1 dl1 3 dl2] LC5 DL} def
/LT6 {PL [2 dl1 2 dl2 2 dl1 6 dl2] LC6 DL} def
/LT7 {PL [1 dl1 2 dl2 6 dl1 2 dl2 1 dl1 2 dl2] LC7 DL} def
/LT8 {PL [2 dl1 2 dl2 2 dl1 2 dl2 2 dl1 2 dl2 2 dl1 4 dl2] LC8 DL} def
/Pnt {stroke [] 0 setdash gsave 1 setlinecap M 0 0 V stroke grestore} def
/Dia {stroke [] 0 setdash 2 copy vpt add M
  hpt neg vpt neg V hpt vpt neg V
  hpt vpt V hpt neg vpt V closepath stroke
  Pnt} def
/Pls {stroke [] 0 setdash vpt sub M 0 vpt2 V
  currentpoint stroke M
  hpt neg vpt neg R hpt2 0 V stroke
 } def
/Box {stroke [] 0 setdash 2 copy exch hpt sub exch vpt add M
  0 vpt2 neg V hpt2 0 V 0 vpt2 V
  hpt2 neg 0 V closepath stroke
  Pnt} def
/Crs {stroke [] 0 setdash exch hpt sub exch vpt add M
  hpt2 vpt2 neg V currentpoint stroke M
  hpt2 neg 0 R hpt2 vpt2 V stroke} def
/TriU {stroke [] 0 setdash 2 copy vpt 1.12 mul add M
  hpt neg vpt -1.62 mul V
  hpt 2 mul 0 V
  hpt neg vpt 1.62 mul V closepath stroke
  Pnt} def
/Star {2 copy Pls Crs} def
/BoxF {stroke [] 0 setdash exch hpt sub exch vpt add M
  0 vpt2 neg V hpt2 0 V 0 vpt2 V
  hpt2 neg 0 V closepath fill} def
/TriUF {stroke [] 0 setdash vpt 1.12 mul add M
  hpt neg vpt -1.62 mul V
  hpt 2 mul 0 V
  hpt neg vpt 1.62 mul V closepath fill} def
/TriD {stroke [] 0 setdash 2 copy vpt 1.12 mul sub M
  hpt neg vpt 1.62 mul V
  hpt 2 mul 0 V
  hpt neg vpt -1.62 mul V closepath stroke
  Pnt} def
/TriDF {stroke [] 0 setdash vpt 1.12 mul sub M
  hpt neg vpt 1.62 mul V
  hpt 2 mul 0 V
  hpt neg vpt -1.62 mul V closepath fill} def
/DiaF {stroke [] 0 setdash vpt add M
  hpt neg vpt neg V hpt vpt neg V
  hpt vpt V hpt neg vpt V closepath fill} def
/Pent {stroke [] 0 setdash 2 copy gsave
  translate 0 hpt M 4 {72 rotate 0 hpt L} repeat
  closepath stroke grestore Pnt} def
/PentF {stroke [] 0 setdash gsave
  translate 0 hpt M 4 {72 rotate 0 hpt L} repeat
  closepath fill grestore} def
/Circle {stroke [] 0 setdash 2 copy
  hpt 0 360 arc stroke Pnt} def
/CircleF {stroke [] 0 setdash hpt 0 360 arc fill} def
/C0 {BL [] 0 setdash 2 copy moveto vpt 90 450 arc} bind def
/C1 {BL [] 0 setdash 2 copy moveto
	2 copy vpt 0 90 arc closepath fill
	vpt 0 360 arc closepath} bind def
/C2 {BL [] 0 setdash 2 copy moveto
	2 copy vpt 90 180 arc closepath fill
	vpt 0 360 arc closepath} bind def
/C3 {BL [] 0 setdash 2 copy moveto
	2 copy vpt 0 180 arc closepath fill
	vpt 0 360 arc closepath} bind def
/C4 {BL [] 0 setdash 2 copy moveto
	2 copy vpt 180 270 arc closepath fill
	vpt 0 360 arc closepath} bind def
/C5 {BL [] 0 setdash 2 copy moveto
	2 copy vpt 0 90 arc
	2 copy moveto
	2 copy vpt 180 270 arc closepath fill
	vpt 0 360 arc} bind def
/C6 {BL [] 0 setdash 2 copy moveto
	2 copy vpt 90 270 arc closepath fill
	vpt 0 360 arc closepath} bind def
/C7 {BL [] 0 setdash 2 copy moveto
	2 copy vpt 0 270 arc closepath fill
	vpt 0 360 arc closepath} bind def
/C8 {BL [] 0 setdash 2 copy moveto
	2 copy vpt 270 360 arc closepath fill
	vpt 0 360 arc closepath} bind def
/C9 {BL [] 0 setdash 2 copy moveto
	2 copy vpt 270 450 arc closepath fill
	vpt 0 360 arc closepath} bind def
/C10 {BL [] 0 setdash 2 copy 2 copy moveto vpt 270 360 arc closepath fill
	2 copy moveto
	2 copy vpt 90 180 arc closepath fill
	vpt 0 360 arc closepath} bind def
/C11 {BL [] 0 setdash 2 copy moveto
	2 copy vpt 0 180 arc closepath fill
	2 copy moveto
	2 copy vpt 270 360 arc closepath fill
	vpt 0 360 arc closepath} bind def
/C12 {BL [] 0 setdash 2 copy moveto
	2 copy vpt 180 360 arc closepath fill
	vpt 0 360 arc closepath} bind def
/C13 {BL [] 0 setdash 2 copy moveto
	2 copy vpt 0 90 arc closepath fill
	2 copy moveto
	2 copy vpt 180 360 arc closepath fill
	vpt 0 360 arc closepath} bind def
/C14 {BL [] 0 setdash 2 copy moveto
	2 copy vpt 90 360 arc closepath fill
	vpt 0 360 arc} bind def
/C15 {BL [] 0 setdash 2 copy vpt 0 360 arc closepath fill
	vpt 0 360 arc closepath} bind def
/Rec {newpath 4 2 roll moveto 1 index 0 rlineto 0 exch rlineto
	neg 0 rlineto closepath} bind def
/Square {dup Rec} bind def
/Bsquare {vpt sub exch vpt sub exch vpt2 Square} bind def
/S0 {BL [] 0 setdash 2 copy moveto 0 vpt rlineto BL Bsquare} bind def
/S1 {BL [] 0 setdash 2 copy vpt Square fill Bsquare} bind def
/S2 {BL [] 0 setdash 2 copy exch vpt sub exch vpt Square fill Bsquare} bind def
/S3 {BL [] 0 setdash 2 copy exch vpt sub exch vpt2 vpt Rec fill Bsquare} bind def
/S4 {BL [] 0 setdash 2 copy exch vpt sub exch vpt sub vpt Square fill Bsquare} bind def
/S5 {BL [] 0 setdash 2 copy 2 copy vpt Square fill
	exch vpt sub exch vpt sub vpt Square fill Bsquare} bind def
/S6 {BL [] 0 setdash 2 copy exch vpt sub exch vpt sub vpt vpt2 Rec fill Bsquare} bind def
/S7 {BL [] 0 setdash 2 copy exch vpt sub exch vpt sub vpt vpt2 Rec fill
	2 copy vpt Square fill Bsquare} bind def
/S8 {BL [] 0 setdash 2 copy vpt sub vpt Square fill Bsquare} bind def
/S9 {BL [] 0 setdash 2 copy vpt sub vpt vpt2 Rec fill Bsquare} bind def
/S10 {BL [] 0 setdash 2 copy vpt sub vpt Square fill 2 copy exch vpt sub exch vpt Square fill
	Bsquare} bind def
/S11 {BL [] 0 setdash 2 copy vpt sub vpt Square fill 2 copy exch vpt sub exch vpt2 vpt Rec fill
	Bsquare} bind def
/S12 {BL [] 0 setdash 2 copy exch vpt sub exch vpt sub vpt2 vpt Rec fill Bsquare} bind def
/S13 {BL [] 0 setdash 2 copy exch vpt sub exch vpt sub vpt2 vpt Rec fill
	2 copy vpt Square fill Bsquare} bind def
/S14 {BL [] 0 setdash 2 copy exch vpt sub exch vpt sub vpt2 vpt Rec fill
	2 copy exch vpt sub exch vpt Square fill Bsquare} bind def
/S15 {BL [] 0 setdash 2 copy Bsquare fill Bsquare} bind def
/D0 {gsave translate 45 rotate 0 0 S0 stroke grestore} bind def
/D1 {gsave translate 45 rotate 0 0 S1 stroke grestore} bind def
/D2 {gsave translate 45 rotate 0 0 S2 stroke grestore} bind def
/D3 {gsave translate 45 rotate 0 0 S3 stroke grestore} bind def
/D4 {gsave translate 45 rotate 0 0 S4 stroke grestore} bind def
/D5 {gsave translate 45 rotate 0 0 S5 stroke grestore} bind def
/D6 {gsave translate 45 rotate 0 0 S6 stroke grestore} bind def
/D7 {gsave translate 45 rotate 0 0 S7 stroke grestore} bind def
/D8 {gsave translate 45 rotate 0 0 S8 stroke grestore} bind def
/D9 {gsave translate 45 rotate 0 0 S9 stroke grestore} bind def
/D10 {gsave translate 45 rotate 0 0 S10 stroke grestore} bind def
/D11 {gsave translate 45 rotate 0 0 S11 stroke grestore} bind def
/D12 {gsave translate 45 rotate 0 0 S12 stroke grestore} bind def
/D13 {gsave translate 45 rotate 0 0 S13 stroke grestore} bind def
/D14 {gsave translate 45 rotate 0 0 S14 stroke grestore} bind def
/D15 {gsave translate 45 rotate 0 0 S15 stroke grestore} bind def
/DiaE {stroke [] 0 setdash vpt add M
  hpt neg vpt neg V hpt vpt neg V
  hpt vpt V hpt neg vpt V closepath stroke} def
/BoxE {stroke [] 0 setdash exch hpt sub exch vpt add M
  0 vpt2 neg V hpt2 0 V 0 vpt2 V
  hpt2 neg 0 V closepath stroke} def
/TriUE {stroke [] 0 setdash vpt 1.12 mul add M
  hpt neg vpt -1.62 mul V
  hpt 2 mul 0 V
  hpt neg vpt 1.62 mul V closepath stroke} def
/TriDE {stroke [] 0 setdash vpt 1.12 mul sub M
  hpt neg vpt 1.62 mul V
  hpt 2 mul 0 V
  hpt neg vpt -1.62 mul V closepath stroke} def
/PentE {stroke [] 0 setdash gsave
  translate 0 hpt M 4 {72 rotate 0 hpt L} repeat
  closepath stroke grestore} def
/CircE {stroke [] 0 setdash 
  hpt 0 360 arc stroke} def
/Opaque {gsave closepath 1 setgray fill grestore 0 setgray closepath} def
/DiaW {stroke [] 0 setdash vpt add M
  hpt neg vpt neg V hpt vpt neg V
  hpt vpt V hpt neg vpt V Opaque stroke} def
/BoxW {stroke [] 0 setdash exch hpt sub exch vpt add M
  0 vpt2 neg V hpt2 0 V 0 vpt2 V
  hpt2 neg 0 V Opaque stroke} def
/TriUW {stroke [] 0 setdash vpt 1.12 mul add M
  hpt neg vpt -1.62 mul V
  hpt 2 mul 0 V
  hpt neg vpt 1.62 mul V Opaque stroke} def
/TriDW {stroke [] 0 setdash vpt 1.12 mul sub M
  hpt neg vpt 1.62 mul V
  hpt 2 mul 0 V
  hpt neg vpt -1.62 mul V Opaque stroke} def
/PentW {stroke [] 0 setdash gsave
  translate 0 hpt M 4 {72 rotate 0 hpt L} repeat
  Opaque stroke grestore} def
/CircW {stroke [] 0 setdash 
  hpt 0 360 arc Opaque stroke} def
/BoxFill {gsave Rec 1 setgray fill grestore} def
/Density {
  /Fillden exch def
  currentrgbcolor
  /ColB exch def /ColG exch def /ColR exch def
  /ColR ColR Fillden mul Fillden sub 1 add def
  /ColG ColG Fillden mul Fillden sub 1 add def
  /ColB ColB Fillden mul Fillden sub 1 add def
  ColR ColG ColB setrgbcolor} def
/BoxColFill {gsave Rec PolyFill} def
/PolyFill {gsave Density fill grestore grestore} def
/h {rlineto rlineto rlineto gsave closepath fill grestore} bind def
%
% PostScript Level 1 Pattern Fill routine for rectangles
% Usage: x y w h s a XX PatternFill
%	x,y = lower left corner of box to be filled
%	w,h = width and height of box
%	  a = angle in degrees between lines and x-axis
%	 XX = 0/1 for no/yes cross-hatch
%
/PatternFill {gsave /PFa [ 9 2 roll ] def
  PFa 0 get PFa 2 get 2 div add PFa 1 get PFa 3 get 2 div add translate
  PFa 2 get -2 div PFa 3 get -2 div PFa 2 get PFa 3 get Rec
  gsave 1 setgray fill grestore clip
  currentlinewidth 0.5 mul setlinewidth
  /PFs PFa 2 get dup mul PFa 3 get dup mul add sqrt def
  0 0 M PFa 5 get rotate PFs -2 div dup translate
  0 1 PFs PFa 4 get div 1 add floor cvi
	{PFa 4 get mul 0 M 0 PFs V} for
  0 PFa 6 get ne {
	0 1 PFs PFa 4 get div 1 add floor cvi
	{PFa 4 get mul 0 2 1 roll M PFs 0 V} for
 } if
  stroke grestore} def
%
/languagelevel where
 {pop languagelevel} {1} ifelse
 2 lt
	{/InterpretLevel1 true def}
	{/InterpretLevel1 Level1 def}
 ifelse
%
% PostScript level 2 pattern fill definitions
%
/Level2PatternFill {
/Tile8x8 {/PaintType 2 /PatternType 1 /TilingType 1 /BBox [0 0 8 8] /XStep 8 /YStep 8}
	bind def
/KeepColor {currentrgbcolor [/Pattern /DeviceRGB] setcolorspace} bind def
<< Tile8x8
 /PaintProc {0.5 setlinewidth pop 0 0 M 8 8 L 0 8 M 8 0 L stroke} 
>> matrix makepattern
/Pat1 exch def
<< Tile8x8
 /PaintProc {0.5 setlinewidth pop 0 0 M 8 8 L 0 8 M 8 0 L stroke
	0 4 M 4 8 L 8 4 L 4 0 L 0 4 L stroke}
>> matrix makepattern
/Pat2 exch def
<< Tile8x8
 /PaintProc {0.5 setlinewidth pop 0 0 M 0 8 L
	8 8 L 8 0 L 0 0 L fill}
>> matrix makepattern
/Pat3 exch def
<< Tile8x8
 /PaintProc {0.5 setlinewidth pop -4 8 M 8 -4 L
	0 12 M 12 0 L stroke}
>> matrix makepattern
/Pat4 exch def
<< Tile8x8
 /PaintProc {0.5 setlinewidth pop -4 0 M 8 12 L
	0 -4 M 12 8 L stroke}
>> matrix makepattern
/Pat5 exch def
<< Tile8x8
 /PaintProc {0.5 setlinewidth pop -2 8 M 4 -4 L
	0 12 M 8 -4 L 4 12 M 10 0 L stroke}
>> matrix makepattern
/Pat6 exch def
<< Tile8x8
 /PaintProc {0.5 setlinewidth pop -2 0 M 4 12 L
	0 -4 M 8 12 L 4 -4 M 10 8 L stroke}
>> matrix makepattern
/Pat7 exch def
<< Tile8x8
 /PaintProc {0.5 setlinewidth pop 8 -2 M -4 4 L
	12 0 M -4 8 L 12 4 M 0 10 L stroke}
>> matrix makepattern
/Pat8 exch def
<< Tile8x8
 /PaintProc {0.5 setlinewidth pop 0 -2 M 12 4 L
	-4 0 M 12 8 L -4 4 M 8 10 L stroke}
>> matrix makepattern
/Pat9 exch def
/Pattern1 {PatternBgnd KeepColor Pat1 setpattern} bind def
/Pattern2 {PatternBgnd KeepColor Pat2 setpattern} bind def
/Pattern3 {PatternBgnd KeepColor Pat3 setpattern} bind def
/Pattern4 {PatternBgnd KeepColor Landscape {Pat5} {Pat4} ifelse setpattern} bind def
/Pattern5 {PatternBgnd KeepColor Landscape {Pat4} {Pat5} ifelse setpattern} bind def
/Pattern6 {PatternBgnd KeepColor Landscape {Pat9} {Pat6} ifelse setpattern} bind def
/Pattern7 {PatternBgnd KeepColor Landscape {Pat8} {Pat7} ifelse setpattern} bind def
} def
%
%
%End of PostScript Level 2 code
%
/PatternBgnd {
  TransparentPatterns {} {gsave 1 setgray fill grestore} ifelse
} def
%
% Substitute for Level 2 pattern fill codes with
% grayscale if Level 2 support is not selected.
%
/Level1PatternFill {
/Pattern1 {0.250 Density} bind def
/Pattern2 {0.500 Density} bind def
/Pattern3 {0.750 Density} bind def
/Pattern4 {0.125 Density} bind def
/Pattern5 {0.375 Density} bind def
/Pattern6 {0.625 Density} bind def
/Pattern7 {0.875 Density} bind def
} def
%
% Now test for support of Level 2 code
%
Level1 {Level1PatternFill} {Level2PatternFill} ifelse
%
/Symbol-Oblique /Symbol findfont [1 0 .167 1 0 0] makefont
dup length dict begin {1 index /FID eq {pop pop} {def} ifelse} forall
currentdict end definefont pop
/MFshow {
   { dup 5 get 3 ge
     { 5 get 3 eq {gsave} {grestore} ifelse }
     {dup dup 0 get findfont exch 1 get scalefont setfont
     [ currentpoint ] exch dup 2 get 0 exch R dup 5 get 2 ne {dup dup 6
     get exch 4 get {Gshow} {stringwidth pop 0 R} ifelse }if dup 5 get 0 eq
     {dup 3 get {2 get neg 0 exch R pop} {pop aload pop M} ifelse} {dup 5
     get 1 eq {dup 2 get exch dup 3 get exch 6 get stringwidth pop -2 div
     dup 0 R} {dup 6 get stringwidth pop -2 div 0 R 6 get
     show 2 index {aload pop M neg 3 -1 roll neg R pop pop} {pop pop pop
     pop aload pop M} ifelse }ifelse }ifelse }
     ifelse }
   forall} def
/Gswidth {dup type /stringtype eq {stringwidth} {pop (n) stringwidth} ifelse} def
/MFwidth {0 exch { dup 5 get 3 ge { 5 get 3 eq { 0 } { pop } ifelse }
 {dup 3 get{dup dup 0 get findfont exch 1 get scalefont setfont
     6 get Gswidth pop add} {pop} ifelse} ifelse} forall} def
/MLshow { currentpoint stroke M
  0 exch R
  Blacktext {gsave 0 setgray MFshow grestore} {MFshow} ifelse } bind def
/MRshow { currentpoint stroke M
  exch dup MFwidth neg 3 -1 roll R
  Blacktext {gsave 0 setgray MFshow grestore} {MFshow} ifelse } bind def
/MCshow { currentpoint stroke M
  exch dup MFwidth -2 div 3 -1 roll R
  Blacktext {gsave 0 setgray MFshow grestore} {MFshow} ifelse } bind def
/XYsave    { [( ) 1 2 true false 3 ()] } bind def
/XYrestore { [( ) 1 2 true false 4 ()] } bind def
end
%%EndProlog
gnudict begin
gsave
doclip
50 50 translate
0.050 0.050 scale
0 setgray
newpath
(Helvetica) findfont 250 scalefont setfont
1.000 UL
LTb
1225 800 M
63 0 V
5461 0 R
-63 0 V
stroke
1075 800 M
[ [(Helvetica) 250.0 0.0 true true 0 ( 0)]
] -83.3 MRshow
1.000 UL
LTb
1225 1194 M
63 0 V
5461 0 R
-63 0 V
stroke
1075 1194 M
[ [(Helvetica) 250.0 0.0 true true 0 ( 0.1)]
] -83.3 MRshow
1.000 UL
LTb
1225 1588 M
63 0 V
5461 0 R
-63 0 V
stroke
1075 1588 M
[ [(Helvetica) 250.0 0.0 true true 0 ( 0.2)]
] -83.3 MRshow
1.000 UL
LTb
1225 1982 M
63 0 V
5461 0 R
-63 0 V
stroke
1075 1982 M
[ [(Helvetica) 250.0 0.0 true true 0 ( 0.3)]
] -83.3 MRshow
1.000 UL
LTb
1225 2376 M
63 0 V
5461 0 R
-63 0 V
stroke
1075 2376 M
[ [(Helvetica) 250.0 0.0 true true 0 ( 0.4)]
] -83.3 MRshow
1.000 UL
LTb
1225 2770 M
63 0 V
5461 0 R
-63 0 V
stroke
1075 2770 M
[ [(Helvetica) 250.0 0.0 true true 0 ( 0.5)]
] -83.3 MRshow
1.000 UL
LTb
1225 3163 M
63 0 V
5461 0 R
-63 0 V
stroke
1075 3163 M
[ [(Helvetica) 250.0 0.0 true true 0 ( 0.6)]
] -83.3 MRshow
1.000 UL
LTb
1225 3557 M
63 0 V
5461 0 R
-63 0 V
stroke
1075 3557 M
[ [(Helvetica) 250.0 0.0 true true 0 ( 0.7)]
] -83.3 MRshow
1.000 UL
LTb
1225 3951 M
63 0 V
5461 0 R
-63 0 V
stroke
1075 3951 M
[ [(Helvetica) 250.0 0.0 true true 0 ( 0.8)]
] -83.3 MRshow
1.000 UL
LTb
1225 4345 M
63 0 V
5461 0 R
-63 0 V
stroke
1075 4345 M
[ [(Helvetica) 250.0 0.0 true true 0 ( 0.9)]
] -83.3 MRshow
1.000 UL
LTb
1225 4739 M
63 0 V
5461 0 R
-63 0 V
stroke
1075 4739 M
[ [(Helvetica) 250.0 0.0 true true 0 ( 1)]
] -83.3 MRshow
1.000 UL
LTb
1225 800 M
0 63 V
0 3876 R
0 -63 V
stroke
1225 550 M
[ [(Helvetica) 250.0 0.0 true true 0 (-0.6)]
] -83.3 MCshow
1.000 UL
LTb
2146 800 M
0 63 V
0 3876 R
0 -63 V
stroke
2146 550 M
[ [(Helvetica) 250.0 0.0 true true 0 (-0.4)]
] -83.3 MCshow
1.000 UL
LTb
3066 800 M
0 63 V
0 3876 R
0 -63 V
stroke
3066 550 M
[ [(Helvetica) 250.0 0.0 true true 0 (-0.2)]
] -83.3 MCshow
1.000 UL
LTb
3987 800 M
0 63 V
0 3876 R
0 -63 V
stroke
3987 550 M
[ [(Helvetica) 250.0 0.0 true true 0 ( 0)]
] -83.3 MCshow
1.000 UL
LTb
4908 800 M
0 63 V
0 3876 R
0 -63 V
stroke
4908 550 M
[ [(Helvetica) 250.0 0.0 true true 0 ( 0.2)]
] -83.3 MCshow
1.000 UL
LTb
5828 800 M
0 63 V
0 3876 R
0 -63 V
stroke
5828 550 M
[ [(Helvetica) 250.0 0.0 true true 0 ( 0.4)]
] -83.3 MCshow
1.000 UL
LTb
6749 800 M
0 63 V
0 3876 R
0 -63 V
stroke
6749 550 M
[ [(Helvetica) 250.0 0.0 true true 0 ( 0.6)]
] -83.3 MCshow
1.000 UL
LTb
1.000 UL
LTb
1225 4739 N
0 -3939 V
5524 0 V
0 3939 V
-5524 0 V
Z stroke
LCb setrgbcolor
200 2769 M
currentpoint gsave translate -270 rotate 0 0 moveto
[ [(Helvetica) 250.0 0.0 true true 0 (F1)]
] -83.3 MCshow
grestore
LTb
LCb setrgbcolor
3987 175 M
[ [(Helvetica) 250.0 0.0 true true 0 (Noise Ratio)]
] -83.3 MCshow
LTb
1.000 UP
1.000 UL
LTb
% Begin plot #1
1.000 UP
1.000 UL
LT0
1685 3842 Pls
1685 2973 Pls
1685 2603 Pls
1685 2223 Pls
2146 3782 Pls
2146 2757 Pls
2146 2960 Pls
2146 2276 Pls
2606 3424 Pls
2606 2844 Pls
2606 2252 Pls
2606 2135 Pls
3066 3316 Pls
3066 2551 Pls
3066 2117 Pls
3066 2097 Pls
3527 2985 Pls
3527 2204 Pls
3527 1888 Pls
3527 1426 Pls
4447 1720 Pls
4447 1947 Pls
4447 1480 Pls
4447 1342 Pls
4908 1987 Pls
4908 1640 Pls
4908 2010 Pls
4908 1484 Pls
5368 2722 Pls
5368 1871 Pls
5368 2233 Pls
5368 2139 Pls
5828 2720 Pls
5828 1936 Pls
5828 1912 Pls
5828 2336 Pls
6289 2845 Pls
6289 2347 Pls
6289 2497 Pls
6289 2319 Pls
1685 4122 Pls
1685 3349 Pls
1685 2929 Pls
1685 2599 Pls
2146 4093 Pls
2146 2886 Pls
2146 2576 Pls
2146 2289 Pls
2606 4118 Pls
2606 3182 Pls
2606 2283 Pls
2606 2295 Pls
3066 3514 Pls
3066 2765 Pls
3066 2370 Pls
3066 2168 Pls
3527 3247 Pls
3527 2225 Pls
3527 2004 Pls
3527 1736 Pls
4447 1662 Pls
4447 2088 Pls
4447 1826 Pls
4447 1649 Pls
4908 2191 Pls
4908 2317 Pls
4908 1877 Pls
4908 2083 Pls
5368 2058 Pls
5368 2456 Pls
5368 2321 Pls
5368 2376 Pls
5828 2005 Pls
5828 2479 Pls
5828 2488 Pls
5828 2684 Pls
6289 2159 Pls
6289 2363 Pls
6289 2624 Pls
6289 2786 Pls
1685 4374 Pls
1685 3504 Pls
1685 2772 Pls
1685 2400 Pls
2146 3599 Pls
2146 3201 Pls
2146 2846 Pls
2146 2392 Pls
2606 3804 Pls
2606 3276 Pls
2606 2861 Pls
2606 1856 Pls
3066 3865 Pls
3066 3400 Pls
3066 2725 Pls
3066 1928 Pls
3527 3464 Pls
3527 2751 Pls
3527 2584 Pls
3527 2280 Pls
4447 2267 Pls
4447 1878 Pls
4447 1852 Pls
4447 1931 Pls
4908 1988 Pls
4908 1805 Pls
4908 2177 Pls
4908 2015 Pls
5368 1637 Pls
5368 2268 Pls
5368 2247 Pls
5368 2638 Pls
5828 1824 Pls
5828 1994 Pls
5828 2341 Pls
5828 2281 Pls
6289 1540 Pls
6289 1978 Pls
6289 2386 Pls
6289 2627 Pls
1685 4102 Pls
1685 3476 Pls
1685 2951 Pls
1685 2603 Pls
2146 4194 Pls
2146 3230 Pls
2146 2789 Pls
2146 2413 Pls
2606 3881 Pls
2606 3352 Pls
2606 2726 Pls
2606 2695 Pls
3066 4045 Pls
3066 3392 Pls
3066 2743 Pls
3066 2251 Pls
3527 3673 Pls
3527 2756 Pls
3527 2155 Pls
3527 2417 Pls
4447 1878 Pls
4447 1874 Pls
4447 1789 Pls
4447 1720 Pls
4908 1650 Pls
4908 1917 Pls
4908 1977 Pls
4908 2050 Pls
5368 1473 Pls
5368 1749 Pls
5368 2178 Pls
5368 2078 Pls
5828 1385 Pls
5828 1722 Pls
5828 2040 Pls
5828 2128 Pls
6289 1351 Pls
6289 1757 Pls
6289 1870 Pls
6289 2392 Pls
1685 3965 Pls
1685 3298 Pls
1685 2955 Pls
1685 2420 Pls
2146 3944 Pls
2146 3490 Pls
2146 3089 Pls
2146 2525 Pls
2606 4124 Pls
2606 3503 Pls
2606 2936 Pls
2606 2313 Pls
3066 4052 Pls
3066 2610 Pls
3066 2906 Pls
3066 2372 Pls
3527 3823 Pls
3527 3116 Pls
3527 2455 Pls
3527 1874 Pls
4447 1440 Pls
4447 1941 Pls
4447 1594 Pls
4447 1915 Pls
4908 1473 Pls
4908 1734 Pls
4908 1877 Pls
4908 2002 Pls
5368 1415 Pls
5368 1631 Pls
5368 1938 Pls
5368 1866 Pls
5828 1173 Pls
5828 1645 Pls
5828 1769 Pls
5828 2028 Pls
6289 1244 Pls
6289 1556 Pls
6289 1766 Pls
6289 1977 Pls
1685 3576 Pls
1685 3074 Pls
1685 2687 Pls
1685 1943 Pls
2146 3561 Pls
2146 2881 Pls
2146 2677 Pls
2146 2296 Pls
2606 3729 Pls
2606 2947 Pls
2606 2261 Pls
2606 2296 Pls
3066 3023 Pls
3066 2816 Pls
3066 2043 Pls
3066 1916 Pls
3527 3081 Pls
3527 2283 Pls
3527 2035 Pls
3527 1447 Pls
4447 2051 Pls
4447 1545 Pls
4447 1583 Pls
4447 1427 Pls
4908 1962 Pls
4908 1828 Pls
4908 1670 Pls
4908 1593 Pls
5368 2572 Pls
5368 2062 Pls
5368 1953 Pls
5368 1632 Pls
5828 2855 Pls
5828 1998 Pls
5828 1609 Pls
5828 1679 Pls
6289 2806 Pls
6289 2171 Pls
6289 1910 Pls
6289 2151 Pls
1685 4279 Pls
1685 3086 Pls
1685 2474 Pls
1685 2569 Pls
2146 4073 Pls
2146 3282 Pls
2146 2717 Pls
2146 2136 Pls
2606 3925 Pls
2606 3153 Pls
2606 2305 Pls
2606 2202 Pls
3066 3732 Pls
3066 3123 Pls
3066 2219 Pls
3066 1869 Pls
3527 3441 Pls
3527 2548 Pls
3527 2052 Pls
3527 1965 Pls
4447 2582 Pls
4447 1569 Pls
4447 1543 Pls
4447 1467 Pls
4908 2663 Pls
4908 1951 Pls
4908 1980 Pls
4908 1936 Pls
5368 2442 Pls
5368 2182 Pls
5368 1971 Pls
5368 2109 Pls
5828 2557 Pls
5828 2556 Pls
5828 2257 Pls
5828 2242 Pls
6289 2332 Pls
6289 2160 Pls
6289 2033 Pls
6289 2241 Pls
1685 4270 Pls
1685 3575 Pls
1685 2698 Pls
1685 2549 Pls
2146 4066 Pls
2146 3174 Pls
2146 2671 Pls
2146 2427 Pls
2606 4025 Pls
2606 3445 Pls
2606 2559 Pls
2606 2609 Pls
3066 3777 Pls
3066 3182 Pls
3066 2800 Pls
3066 2480 Pls
3527 3358 Pls
3527 2953 Pls
3527 2245 Pls
3527 1944 Pls
4447 2324 Pls
4447 1898 Pls
4447 2046 Pls
4447 1557 Pls
4908 2499 Pls
4908 2290 Pls
4908 2066 Pls
4908 2108 Pls
5368 1718 Pls
5368 2302 Pls
5368 2137 Pls
5368 2251 Pls
5828 2018 Pls
5828 2337 Pls
5828 1937 Pls
5828 2386 Pls
6289 1912 Pls
6289 2152 Pls
6289 2505 Pls
6289 2431 Pls
1685 3962 Pls
1685 3524 Pls
1685 2834 Pls
1685 2687 Pls
2146 4174 Pls
2146 3513 Pls
2146 2805 Pls
2146 2685 Pls
2606 4168 Pls
2606 3283 Pls
2606 2835 Pls
2606 2457 Pls
3066 4091 Pls
3066 3261 Pls
3066 2945 Pls
3066 2424 Pls
3527 3612 Pls
3527 2738 Pls
3527 2318 Pls
3527 1819 Pls
4447 1535 Pls
4447 1792 Pls
4447 1483 Pls
4447 1449 Pls
4908 1791 Pls
4908 1997 Pls
4908 1800 Pls
4908 2097 Pls
5368 1495 Pls
5368 1704 Pls
5368 1988 Pls
5368 1959 Pls
5828 1782 Pls
5828 1891 Pls
5828 2033 Pls
5828 2396 Pls
6289 1573 Pls
6289 1580 Pls
6289 2178 Pls
6289 2154 Pls
1685 4253 Pls
1685 3665 Pls
1685 2918 Pls
1685 2842 Pls
2146 4128 Pls
2146 3418 Pls
2146 2931 Pls
2146 2468 Pls
2606 4085 Pls
2606 3373 Pls
2606 3083 Pls
2606 2467 Pls
3066 4151 Pls
3066 2984 Pls
3066 2765 Pls
3066 2834 Pls
3527 3353 Pls
3527 3211 Pls
3527 2313 Pls
3527 2200 Pls
4447 1855 Pls
4447 1817 Pls
4447 1623 Pls
4447 2098 Pls
4908 1697 Pls
4908 2037 Pls
4908 1789 Pls
4908 2341 Pls
5368 1553 Pls
5368 1857 Pls
5368 1932 Pls
5368 1877 Pls
5828 1312 Pls
5828 1761 Pls
5828 1878 Pls
5828 2033 Pls
6289 1419 Pls
6289 1557 Pls
6289 1850 Pls
6289 2106 Pls
1685 3872 Pls
1685 2822 Pls
1685 2391 Pls
1685 2117 Pls
2146 3566 Pls
2146 2478 Pls
2146 2607 Pls
2146 2233 Pls
2606 3505 Pls
2606 2653 Pls
2606 2016 Pls
2606 1977 Pls
3066 3580 Pls
3066 2550 Pls
3066 2008 Pls
3066 1843 Pls
3527 2893 Pls
3527 2085 Pls
3527 1712 Pls
3527 1719 Pls
4447 1858 Pls
4447 1476 Pls
4447 1466 Pls
4447 1280 Pls
4908 2813 Pls
4908 1958 Pls
4908 1490 Pls
4908 1509 Pls
5368 2278 Pls
5368 2206 Pls
5368 1826 Pls
5368 1634 Pls
5828 2875 Pls
5828 1778 Pls
5828 1942 Pls
5828 1989 Pls
6289 2800 Pls
6289 2573 Pls
6289 2093 Pls
6289 1984 Pls
1685 4122 Pls
1685 3143 Pls
1685 2832 Pls
1685 2641 Pls
2146 3879 Pls
2146 3000 Pls
2146 2444 Pls
2146 2264 Pls
2606 4042 Pls
2606 3029 Pls
2606 2812 Pls
2606 2172 Pls
3066 3343 Pls
3066 2906 Pls
3066 2299 Pls
3066 2047 Pls
3527 3610 Pls
3527 2520 Pls
3527 1966 Pls
3527 1809 Pls
4447 1997 Pls
4447 1798 Pls
4447 1582 Pls
4447 1551 Pls
4908 2813 Pls
4908 2377 Pls
4908 1724 Pls
4908 1781 Pls
5368 2394 Pls
5368 2256 Pls
5368 2030 Pls
5368 1755 Pls
5828 2611 Pls
5828 2542 Pls
5828 2083 Pls
5828 2395 Pls
6289 2397 Pls
6289 2599 Pls
6289 2399 Pls
6289 2233 Pls
1685 4395 Pls
1685 3373 Pls
1685 2908 Pls
1685 2702 Pls
2146 4084 Pls
2146 3422 Pls
2146 3036 Pls
2146 2395 Pls
2606 4202 Pls
2606 3114 Pls
2606 2826 Pls
2606 2145 Pls
3066 3964 Pls
3066 3280 Pls
3066 2626 Pls
3066 2256 Pls
3527 3518 Pls
3527 2587 Pls
3527 2262 Pls
3527 2062 Pls
4447 2654 Pls
4447 1675 Pls
4447 1750 Pls
4447 1405 Pls
4908 2313 Pls
4908 1640 Pls
4908 1813 Pls
4908 1803 Pls
5368 2306 Pls
5368 1930 Pls
5368 1992 Pls
5368 2161 Pls
5828 2157 Pls
5828 2204 Pls
5828 2355 Pls
5828 2090 Pls
6289 1989 Pls
6289 1935 Pls
6289 2306 Pls
6289 2238 Pls
1685 4331 Pls
1685 3322 Pls
1685 3078 Pls
1685 2653 Pls
2146 4038 Pls
2146 3590 Pls
2146 2678 Pls
2146 2513 Pls
2606 4144 Pls
2606 3335 Pls
2606 2915 Pls
2606 2565 Pls
3066 3776 Pls
3066 3030 Pls
3066 2662 Pls
3066 1984 Pls
3527 3926 Pls
3527 2895 Pls
3527 2298 Pls
3527 2076 Pls
4447 2062 Pls
4447 1935 Pls
4447 1941 Pls
4447 1523 Pls
4908 2004 Pls
4908 1762 Pls
4908 2161 Pls
4908 1845 Pls
5368 2124 Pls
5368 2332 Pls
5368 2102 Pls
5368 1880 Pls
5828 1870 Pls
5828 1994 Pls
5828 2159 Pls
5828 1997 Pls
6289 1942 Pls
6289 2223 Pls
6289 2134 Pls
6289 2133 Pls
1685 4197 Pls
1685 3604 Pls
1685 2840 Pls
1685 2795 Pls
2146 4463 Pls
2146 3647 Pls
2146 2841 Pls
2146 2862 Pls
2606 4020 Pls
2606 3353 Pls
2606 2876 Pls
2606 2875 Pls
3066 3719 Pls
3066 3406 Pls
3066 2661 Pls
3066 2660 Pls
3527 3409 Pls
3527 2807 Pls
3527 2434 Pls
3527 2077 Pls
4447 1680 Pls
4447 2042 Pls
4447 1406 Pls
4447 1638 Pls
4908 1676 Pls
4908 1817 Pls
4908 2195 Pls
4908 1786 Pls
5368 1610 Pls
5368 1881 Pls
5368 1874 Pls
5368 1929 Pls
5828 1614 Pls
5828 1959 Pls
5828 1917 Pls
5828 2017 Pls
6289 1577 Pls
6289 1680 Pls
6289 1908 Pls
6289 1960 Pls
1685 4096 Pls
1685 2643 Pls
1685 2495 Pls
1685 2316 Pls
2146 3724 Pls
2146 2525 Pls
2146 2447 Pls
2146 1721 Pls
2606 3725 Pls
2606 2661 Pls
2606 2374 Pls
2606 2046 Pls
3066 2990 Pls
3066 2301 Pls
3066 2257 Pls
3066 1871 Pls
3527 3246 Pls
3527 2324 Pls
3527 1703 Pls
3527 1420 Pls
4447 2278 Pls
4447 1705 Pls
4447 1493 Pls
4447 1111 Pls
4908 1982 Pls
4908 1537 Pls
4908 1641 Pls
4908 1111 Pls
5368 2783 Pls
5368 2156 Pls
5368 1704 Pls
5368 1672 Pls
5828 2726 Pls
5828 2639 Pls
5828 1894 Pls
5828 1594 Pls
6289 2943 Pls
6289 1889 Pls
6289 1742 Pls
6289 1783 Pls
1685 3926 Pls
1685 3307 Pls
1685 3059 Pls
1685 2343 Pls
2146 3597 Pls
2146 3026 Pls
2146 2865 Pls
2146 2487 Pls
2606 3737 Pls
2606 3205 Pls
2606 2516 Pls
2606 2347 Pls
3066 3617 Pls
3066 2763 Pls
3066 2532 Pls
3066 2399 Pls
3527 3471 Pls
3527 2433 Pls
3527 1811 Pls
3527 1828 Pls
4447 2595 Pls
4447 1640 Pls
4447 1424 Pls
4447 1348 Pls
4908 2356 Pls
4908 2012 Pls
4908 1792 Pls
4908 1947 Pls
5368 2404 Pls
5368 2542 Pls
5368 2123 Pls
5368 1671 Pls
5828 2672 Pls
5828 2349 Pls
5828 2306 Pls
5828 1926 Pls
6289 3100 Pls
6289 2595 Pls
6289 2259 Pls
6289 2146 Pls
1685 4227 Pls
1685 3364 Pls
1685 2655 Pls
1685 2494 Pls
2146 3968 Pls
2146 3257 Pls
2146 2592 Pls
2146 2479 Pls
2606 4005 Pls
2606 3224 Pls
2606 2350 Pls
2606 2460 Pls
3066 4147 Pls
3066 3008 Pls
3066 2606 Pls
3066 2003 Pls
3527 3934 Pls
3527 2436 Pls
3527 2241 Pls
3527 1805 Pls
4447 2172 Pls
4447 2115 Pls
4447 1991 Pls
4447 1459 Pls
4908 1777 Pls
4908 2297 Pls
4908 1793 Pls
4908 1982 Pls
5368 2531 Pls
5368 1936 Pls
5368 2186 Pls
5368 1998 Pls
5828 2372 Pls
5828 2856 Pls
5828 2083 Pls
5828 1714 Pls
6289 2155 Pls
6289 1899 Pls
6289 2172 Pls
6289 2276 Pls
1685 4141 Pls
1685 3606 Pls
1685 2659 Pls
1685 2652 Pls
2146 4292 Pls
2146 3614 Pls
2146 2872 Pls
2146 2835 Pls
2606 4088 Pls
2606 3443 Pls
2606 3128 Pls
2606 2358 Pls
3066 4144 Pls
3066 3398 Pls
3066 2795 Pls
3066 2245 Pls
3527 3750 Pls
3527 3179 Pls
3527 2606 Pls
3527 2422 Pls
4447 2233 Pls
4447 1716 Pls
4447 1641 Pls
4447 1571 Pls
4908 2200 Pls
4908 1870 Pls
4908 1779 Pls
4908 1966 Pls
5368 2147 Pls
5368 2273 Pls
5368 1983 Pls
5368 2056 Pls
5828 1812 Pls
5828 1981 Pls
5828 2108 Pls
5828 1800 Pls
6289 2085 Pls
6289 2471 Pls
6289 2084 Pls
6289 2019 Pls
1685 4335 Pls
1685 3132 Pls
1685 3262 Pls
1685 2469 Pls
2146 4121 Pls
2146 3549 Pls
2146 3279 Pls
2146 2291 Pls
2606 3964 Pls
2606 3487 Pls
2606 2855 Pls
2606 2556 Pls
3066 4066 Pls
3066 3097 Pls
3066 2810 Pls
3066 2364 Pls
3527 3815 Pls
3527 2720 Pls
3527 2208 Pls
3527 2175 Pls
4447 2382 Pls
4447 2038 Pls
4447 1641 Pls
4447 1732 Pls
4908 1867 Pls
4908 2012 Pls
4908 2183 Pls
4908 1594 Pls
5368 1821 Pls
5368 1816 Pls
5368 2000 Pls
5368 2006 Pls
5828 1637 Pls
5828 2103 Pls
5828 2133 Pls
5828 1918 Pls
6289 1587 Pls
6289 1918 Pls
6289 2207 Pls
6289 1872 Pls
1685 3613 Pls
1685 2862 Pls
1685 2633 Pls
1685 1942 Pls
2146 3781 Pls
2146 2878 Pls
2146 2326 Pls
2146 2212 Pls
2606 3071 Pls
2606 3137 Pls
2606 2443 Pls
2606 2023 Pls
3066 3728 Pls
3066 2608 Pls
3066 2036 Pls
3066 1453 Pls
3527 2657 Pls
3527 2324 Pls
3527 1855 Pls
3527 1726 Pls
4447 1588 Pls
4447 1308 Pls
4447 1307 Pls
4447 1284 Pls
4908 2192 Pls
4908 1794 Pls
4908 1536 Pls
4908 1454 Pls
5368 3516 Pls
5368 1742 Pls
5368 1392 Pls
5368 1567 Pls
5828 2988 Pls
5828 1915 Pls
5828 1732 Pls
5828 1649 Pls
6289 3086 Pls
6289 2479 Pls
6289 1929 Pls
6289 1528 Pls
1685 3958 Pls
1685 3302 Pls
1685 2719 Pls
1685 2367 Pls
2146 3887 Pls
2146 2847 Pls
2146 2773 Pls
2146 2302 Pls
2606 3987 Pls
2606 2939 Pls
2606 2628 Pls
2606 2187 Pls
3066 3788 Pls
3066 2889 Pls
3066 2360 Pls
3066 2183 Pls
3527 3133 Pls
3527 2583 Pls
3527 2159 Pls
3527 1921 Pls
4447 2601 Pls
4447 1707 Pls
4447 1294 Pls
4447 1422 Pls
4908 2624 Pls
4908 2708 Pls
4908 1930 Pls
4908 1723 Pls
5368 2535 Pls
5368 2210 Pls
5368 1701 Pls
5368 1710 Pls
5828 3040 Pls
5828 2606 Pls
5828 2147 Pls
5828 1771 Pls
6289 3026 Pls
6289 2402 Pls
6289 2165 Pls
6289 2138 Pls
1685 4007 Pls
1685 3345 Pls
1685 3099 Pls
1685 2675 Pls
2146 4245 Pls
2146 3256 Pls
2146 2736 Pls
2146 2734 Pls
2606 4367 Pls
2606 3429 Pls
2606 2546 Pls
2606 2511 Pls
3066 3613 Pls
3066 2988 Pls
3066 2977 Pls
3066 2409 Pls
3527 3231 Pls
3527 2482 Pls
3527 2162 Pls
3527 1961 Pls
4447 2746 Pls
4447 2179 Pls
4447 1563 Pls
4447 1465 Pls
4908 3085 Pls
4908 2198 Pls
4908 1640 Pls
4908 1871 Pls
5368 2000 Pls
5368 2426 Pls
5368 1894 Pls
5368 1939 Pls
5828 2687 Pls
5828 2398 Pls
5828 2158 Pls
5828 2238 Pls
6289 2704 Pls
6289 2519 Pls
6289 2444 Pls
6289 1939 Pls
1685 4367 Pls
1685 3679 Pls
1685 2979 Pls
1685 2450 Pls
2146 3948 Pls
2146 3639 Pls
2146 2864 Pls
2146 2545 Pls
2606 4187 Pls
2606 3302 Pls
2606 2622 Pls
2606 2283 Pls
3066 4216 Pls
3066 3176 Pls
3066 2822 Pls
3066 2521 Pls
3527 4078 Pls
3527 2882 Pls
3527 2388 Pls
3527 2232 Pls
4447 2751 Pls
4447 1941 Pls
4447 1784 Pls
4447 1404 Pls
4908 2299 Pls
4908 2333 Pls
4908 1720 Pls
4908 1698 Pls
5368 2088 Pls
5368 2294 Pls
5368 1993 Pls
5368 2114 Pls
5828 2283 Pls
5828 2053 Pls
5828 2141 Pls
5828 2109 Pls
6289 1972 Pls
6289 2269 Pls
6289 1984 Pls
6289 2098 Pls
1685 3911 Pls
1685 3114 Pls
1685 2889 Pls
1685 2585 Pls
2146 4253 Pls
2146 3225 Pls
2146 3073 Pls
2146 2290 Pls
2606 4229 Pls
2606 3116 Pls
2606 3070 Pls
2606 2599 Pls
3066 4407 Pls
3066 3492 Pls
3066 2726 Pls
3066 2190 Pls
3527 3992 Pls
3527 2710 Pls
3527 2459 Pls
3527 2047 Pls
4447 2245 Pls
4447 2405 Pls
4447 1636 Pls
4447 1551 Pls
4908 1787 Pls
4908 2110 Pls
4908 1795 Pls
4908 1951 Pls
5368 2022 Pls
5368 2021 Pls
5368 1919 Pls
5368 1997 Pls
5828 1769 Pls
5828 2021 Pls
5828 1885 Pls
5828 1831 Pls
6289 1605 Pls
6289 2041 Pls
6289 2119 Pls
6289 2175 Pls
1685 3621 Pls
1685 2812 Pls
1685 2421 Pls
1685 2228 Pls
2146 3949 Pls
2146 2862 Pls
2146 2229 Pls
2146 2214 Pls
2606 4082 Pls
2606 2875 Pls
2606 2139 Pls
2606 2141 Pls
3066 3568 Pls
3066 2717 Pls
3066 2003 Pls
3066 1632 Pls
3527 3088 Pls
3527 2316 Pls
3527 1779 Pls
3527 1726 Pls
4447 2271 Pls
4447 1387 Pls
4447 1371 Pls
4447 1320 Pls
4908 2376 Pls
4908 1534 Pls
4908 1490 Pls
4908 1436 Pls
5368 3454 Pls
5368 2358 Pls
5368 1706 Pls
5368 2106 Pls
5828 3610 Pls
5828 2172 Pls
5828 1652 Pls
5828 1616 Pls
6289 3253 Pls
6289 2367 Pls
6289 1899 Pls
6289 1916 Pls
1685 4177 Pls
1685 3387 Pls
1685 2854 Pls
1685 2599 Pls
2146 3898 Pls
2146 2853 Pls
2146 2828 Pls
2146 2452 Pls
2606 4039 Pls
2606 3356 Pls
2606 2535 Pls
2606 2451 Pls
3066 3553 Pls
3066 3077 Pls
3066 2648 Pls
3066 2024 Pls
3527 3614 Pls
3527 2232 Pls
3527 2176 Pls
3527 2011 Pls
4447 2728 Pls
4447 1963 Pls
4447 1570 Pls
4447 1305 Pls
4908 3189 Pls
4908 1828 Pls
4908 1683 Pls
4908 1514 Pls
5368 3005 Pls
5368 2394 Pls
5368 1927 Pls
5368 1935 Pls
5828 2773 Pls
5828 2397 Pls
5828 2271 Pls
5828 2049 Pls
6289 2670 Pls
6289 2394 Pls
6289 2072 Pls
6289 2224 Pls
1685 4063 Pls
1685 3660 Pls
1685 2822 Pls
1685 2842 Pls
2146 4387 Pls
2146 3291 Pls
2146 2778 Pls
2146 2501 Pls
2606 4326 Pls
2606 3191 Pls
2606 2658 Pls
2606 2460 Pls
3066 3607 Pls
3066 3198 Pls
3066 2476 Pls
3066 2259 Pls
3527 3448 Pls
3527 2478 Pls
3527 1940 Pls
3527 2086 Pls
4447 2676 Pls
4447 1725 Pls
4447 1557 Pls
4447 1523 Pls
4908 2894 Pls
4908 2329 Pls
4908 1806 Pls
4908 1533 Pls
5368 3624 Pls
5368 2077 Pls
5368 2191 Pls
5368 1832 Pls
5828 2427 Pls
5828 2626 Pls
5828 2405 Pls
5828 2027 Pls
6289 2464 Pls
6289 2229 Pls
6289 1861 Pls
6289 2027 Pls
1685 4162 Pls
1685 3608 Pls
1685 2706 Pls
1685 2634 Pls
2146 4216 Pls
2146 3320 Pls
2146 2768 Pls
2146 2409 Pls
2606 4176 Pls
2606 3215 Pls
2606 2944 Pls
2606 2604 Pls
3066 3882 Pls
3066 3503 Pls
3066 2367 Pls
3066 2335 Pls
3527 3705 Pls
3527 2914 Pls
3527 2898 Pls
3527 2117 Pls
4447 2455 Pls
4447 1904 Pls
4447 1668 Pls
4447 1538 Pls
4908 2298 Pls
4908 1972 Pls
4908 1743 Pls
4908 1801 Pls
5368 2472 Pls
5368 2205 Pls
5368 1995 Pls
5368 1803 Pls
5828 2837 Pls
5828 2188 Pls
5828 2277 Pls
5828 1958 Pls
6289 2268 Pls
6289 2334 Pls
6289 2118 Pls
6289 1882 Pls
1685 4335 Pls
1685 3436 Pls
1685 3111 Pls
1685 2607 Pls
2146 4052 Pls
2146 3411 Pls
2146 3064 Pls
2146 2870 Pls
2606 4174 Pls
2606 3429 Pls
2606 3021 Pls
2606 2451 Pls
3066 4101 Pls
3066 3211 Pls
3066 2809 Pls
3066 2762 Pls
3527 3377 Pls
3527 2963 Pls
3527 2487 Pls
3527 2141 Pls
4447 2281 Pls
4447 2093 Pls
4447 1518 Pls
4447 1554 Pls
4908 2075 Pls
4908 2025 Pls
4908 1768 Pls
4908 1886 Pls
5368 2416 Pls
5368 2231 Pls
5368 2159 Pls
5368 2318 Pls
5828 2072 Pls
5828 2258 Pls
5828 1650 Pls
5828 2106 Pls
6289 2095 Pls
6289 2246 Pls
6289 2107 Pls
6289 2237 Pls
1685 3450 Pls
1685 2666 Pls
1685 2906 Pls
1685 2129 Pls
2146 3716 Pls
2146 2520 Pls
2146 2777 Pls
2146 2107 Pls
2606 3711 Pls
2606 2829 Pls
2606 2550 Pls
2606 1880 Pls
3066 3174 Pls
3066 2279 Pls
3066 2259 Pls
3066 1913 Pls
3527 3272 Pls
3527 2376 Pls
3527 1713 Pls
3527 1603 Pls
4447 2181 Pls
4447 1036 Pls
4447 1168 Pls
4447 1254 Pls
4908 2290 Pls
4908 1545 Pls
4908 1714 Pls
4908 1384 Pls
5368 2961 Pls
5368 2188 Pls
5368 1577 Pls
5368 1521 Pls
5828 2608 Pls
5828 2117 Pls
5828 1773 Pls
5828 1485 Pls
6289 3782 Pls
6289 2584 Pls
6289 1823 Pls
6289 1796 Pls
1685 3970 Pls
1685 3423 Pls
1685 2457 Pls
1685 2371 Pls
2146 3938 Pls
2146 2979 Pls
2146 2850 Pls
2146 2355 Pls
2606 3264 Pls
2606 2996 Pls
2606 2699 Pls
2606 2199 Pls
3066 4022 Pls
3066 2663 Pls
3066 2214 Pls
3066 2294 Pls
3527 3485 Pls
3527 2693 Pls
3527 2144 Pls
3527 1735 Pls
4447 2341 Pls
4447 1632 Pls
4447 1544 Pls
4447 1283 Pls
4908 3261 Pls
4908 2015 Pls
4908 1679 Pls
4908 1766 Pls
5368 2528 Pls
5368 2006 Pls
5368 1971 Pls
5368 1641 Pls
5828 3023 Pls
5828 2201 Pls
5828 1998 Pls
5828 1792 Pls
6289 3458 Pls
6289 2428 Pls
6289 2227 Pls
6289 2167 Pls
1685 4116 Pls
1685 3563 Pls
1685 2968 Pls
1685 2766 Pls
2146 3855 Pls
2146 3359 Pls
2146 2908 Pls
2146 2541 Pls
2606 3419 Pls
2606 3430 Pls
2606 2996 Pls
2606 2362 Pls
3066 4160 Pls
3066 3282 Pls
3066 2529 Pls
3066 2376 Pls
3527 3756 Pls
3527 2633 Pls
3527 2463 Pls
3527 1889 Pls
4447 2436 Pls
4447 1624 Pls
4447 1696 Pls
4447 1454 Pls
4908 2735 Pls
4908 2446 Pls
4908 1849 Pls
4908 1684 Pls
5368 3146 Pls
5368 2462 Pls
5368 2139 Pls
5368 2168 Pls
5828 2947 Pls
5828 2212 Pls
5828 2004 Pls
5828 1784 Pls
6289 2575 Pls
6289 2161 Pls
6289 2173 Pls
6289 2071 Pls
1685 4198 Pls
1685 3408 Pls
1685 3124 Pls
1685 2464 Pls
2146 4298 Pls
2146 3344 Pls
2146 3102 Pls
2146 2772 Pls
2606 4049 Pls
2606 3225 Pls
2606 2516 Pls
2606 2545 Pls
3066 4129 Pls
3066 2866 Pls
3066 2270 Pls
3066 2313 Pls
3527 3746 Pls
3527 2715 Pls
3527 2619 Pls
3527 2286 Pls
4447 2375 Pls
4447 2369 Pls
4447 1736 Pls
4447 1465 Pls
4908 2838 Pls
4908 1692 Pls
4908 2116 Pls
4908 2024 Pls
5368 2352 Pls
5368 2120 Pls
5368 2319 Pls
5368 2168 Pls
5828 2364 Pls
5828 2325 Pls
5828 1979 Pls
5828 2241 Pls
6289 2489 Pls
6289 2326 Pls
6289 2124 Pls
6289 2277 Pls
1685 4378 Pls
1685 3887 Pls
1685 3065 Pls
1685 2684 Pls
2146 3902 Pls
2146 3468 Pls
2146 3268 Pls
2146 2571 Pls
2606 3856 Pls
2606 3573 Pls
2606 2701 Pls
2606 2916 Pls
3066 3887 Pls
3066 3159 Pls
3066 2900 Pls
3066 2007 Pls
3527 3937 Pls
3527 2925 Pls
3527 2664 Pls
3527 2171 Pls
4447 2929 Pls
4447 1902 Pls
4447 1772 Pls
4447 1504 Pls
4908 2127 Pls
4908 2008 Pls
4908 1573 Pls
4908 1866 Pls
5368 2260 Pls
5368 2316 Pls
5368 2045 Pls
5368 1986 Pls
5828 2108 Pls
5828 2278 Pls
5828 1821 Pls
5828 2070 Pls
6289 1841 Pls
6289 2124 Pls
6289 2052 Pls
6289 2239 Pls
1685 3621 Pls
1685 2899 Pls
1685 2566 Pls
1685 2108 Pls
2146 3304 Pls
2146 3139 Pls
2146 2342 Pls
2146 2230 Pls
2606 3844 Pls
2606 2505 Pls
2606 1996 Pls
2606 2030 Pls
3066 3570 Pls
3066 2719 Pls
3066 2078 Pls
3066 2042 Pls
3527 2972 Pls
3527 2125 Pls
3527 1810 Pls
3527 1453 Pls
4447 2376 Pls
4447 1652 Pls
4447 1330 Pls
4447 1147 Pls
4908 2398 Pls
4908 1552 Pls
4908 1500 Pls
4908 1355 Pls
5368 3141 Pls
5368 2082 Pls
5368 1636 Pls
5368 1394 Pls
5828 2806 Pls
5828 1945 Pls
5828 1835 Pls
5828 1463 Pls
6289 2526 Pls
6289 2262 Pls
6289 2045 Pls
6289 1758 Pls
1685 3895 Pls
1685 3271 Pls
1685 2941 Pls
1685 2503 Pls
2146 4201 Pls
2146 3217 Pls
2146 2920 Pls
2146 2378 Pls
2606 3941 Pls
2606 3104 Pls
2606 2698 Pls
2606 2322 Pls
3066 3777 Pls
3066 2954 Pls
3066 2346 Pls
3066 1918 Pls
3527 3471 Pls
3527 2781 Pls
3527 1906 Pls
3527 1967 Pls
4447 2152 Pls
4447 1545 Pls
4447 1794 Pls
4447 1383 Pls
4908 2258 Pls
4908 2096 Pls
4908 1741 Pls
4908 1583 Pls
5368 2164 Pls
5368 2234 Pls
5368 2068 Pls
5368 1519 Pls
5828 3781 Pls
5828 2595 Pls
5828 2189 Pls
5828 1622 Pls
6289 2999 Pls
6289 2702 Pls
6289 2246 Pls
6289 1752 Pls
1685 4296 Pls
1685 3172 Pls
1685 2789 Pls
1685 2650 Pls
2146 4223 Pls
2146 3078 Pls
2146 2775 Pls
2146 2688 Pls
2606 4269 Pls
2606 3196 Pls
2606 2715 Pls
2606 2627 Pls
3066 3540 Pls
3066 3272 Pls
3066 2475 Pls
3066 2075 Pls
3527 3330 Pls
3527 3101 Pls
3527 2528 Pls
3527 1958 Pls
4447 2278 Pls
4447 1718 Pls
4447 1201 Pls
4447 1560 Pls
4908 2996 Pls
4908 2313 Pls
4908 1944 Pls
4908 1798 Pls
5368 2869 Pls
5368 2278 Pls
5368 1969 Pls
5368 1890 Pls
5828 2833 Pls
5828 2398 Pls
5828 2194 Pls
5828 1733 Pls
6289 3021 Pls
6289 2591 Pls
6289 2202 Pls
6289 1948 Pls
1685 4168 Pls
1685 3543 Pls
1685 3144 Pls
1685 2705 Pls
2146 4272 Pls
2146 3676 Pls
2146 3025 Pls
2146 2495 Pls
2606 4188 Pls
2606 3326 Pls
2606 3118 Pls
2606 2499 Pls
3066 3574 Pls
3066 3224 Pls
3066 2713 Pls
3066 2299 Pls
3527 3794 Pls
3527 2895 Pls
3527 2821 Pls
3527 1959 Pls
4447 2153 Pls
4447 2099 Pls
4447 1806 Pls
4447 1516 Pls
4908 2580 Pls
4908 2387 Pls
4908 1983 Pls
4908 1804 Pls
5368 2373 Pls
5368 2294 Pls
5368 2096 Pls
5368 1724 Pls
5828 2550 Pls
5828 2357 Pls
5828 2052 Pls
5828 1876 Pls
6289 2463 Pls
6289 2461 Pls
6289 2188 Pls
6289 2086 Pls
1685 4388 Pls
1685 3754 Pls
1685 3131 Pls
1685 2897 Pls
2146 4050 Pls
2146 3588 Pls
2146 3381 Pls
2146 2955 Pls
2606 3895 Pls
2606 3506 Pls
2606 2887 Pls
2606 2558 Pls
3066 4112 Pls
3066 3188 Pls
3066 2638 Pls
3066 2385 Pls
3527 3482 Pls
3527 2889 Pls
3527 2494 Pls
3527 2284 Pls
4447 2765 Pls
4447 1895 Pls
4447 1713 Pls
4447 1483 Pls
4908 2213 Pls
4908 2765 Pls
4908 1570 Pls
4908 1665 Pls
5368 2357 Pls
5368 2277 Pls
5368 1895 Pls
5368 1714 Pls
5828 2007 Pls
5828 2400 Pls
5828 2184 Pls
5828 1930 Pls
6289 1991 Pls
6289 1712 Pls
6289 2240 Pls
6289 2243 Pls
1685 3515 Pls
1685 3369 Pls
1685 2784 Pls
1685 2362 Pls
2146 4005 Pls
2146 2746 Pls
2146 2347 Pls
2146 2069 Pls
2606 3689 Pls
2606 2791 Pls
2606 2289 Pls
2606 2129 Pls
3066 3138 Pls
3066 2618 Pls
3066 2316 Pls
3066 1875 Pls
3527 2968 Pls
3527 2298 Pls
3527 1897 Pls
3527 1719 Pls
4447 2121 Pls
4447 1545 Pls
4447 1109 Pls
4447 1111 Pls
4908 2586 Pls
4908 2024 Pls
4908 1630 Pls
4908 1254 Pls
5368 2676 Pls
5368 1842 Pls
5368 1545 Pls
5368 1494 Pls
5828 3255 Pls
5828 1811 Pls
5828 1829 Pls
5828 1423 Pls
6289 2841 Pls
6289 1905 Pls
6289 1687 Pls
6289 1453 Pls
1685 4128 Pls
1685 3104 Pls
1685 2648 Pls
1685 2194 Pls
2146 4042 Pls
2146 3308 Pls
2146 2441 Pls
2146 2319 Pls
2606 3934 Pls
2606 3002 Pls
2606 2641 Pls
2606 2246 Pls
3066 3161 Pls
3066 2856 Pls
3066 2390 Pls
3066 2146 Pls
3527 3542 Pls
3527 2516 Pls
3527 2111 Pls
3527 1922 Pls
4447 1805 Pls
4447 1844 Pls
4447 1486 Pls
4447 1404 Pls
4908 3068 Pls
4908 2092 Pls
4908 1819 Pls
4908 1805 Pls
5368 2633 Pls
5368 2280 Pls
5368 1989 Pls
5368 1715 Pls
5828 3136 Pls
5828 2570 Pls
5828 1756 Pls
5828 1907 Pls
6289 3380 Pls
6289 2410 Pls
6289 2346 Pls
6289 1849 Pls
1685 4138 Pls
1685 3174 Pls
1685 2848 Pls
1685 2558 Pls
2146 4272 Pls
2146 3476 Pls
2146 3003 Pls
2146 2246 Pls
2606 4044 Pls
2606 3244 Pls
2606 2418 Pls
2606 2648 Pls
3066 3525 Pls
3066 3149 Pls
3066 2367 Pls
3066 2214 Pls
3527 3568 Pls
3527 2812 Pls
3527 2065 Pls
3527 2084 Pls
4447 2543 Pls
4447 1897 Pls
4447 1703 Pls
4447 1407 Pls
4908 3085 Pls
4908 2006 Pls
4908 1957 Pls
4908 1603 Pls
5368 2737 Pls
5368 2531 Pls
5368 2101 Pls
5368 1726 Pls
5828 2720 Pls
5828 2550 Pls
5828 2583 Pls
5828 1986 Pls
6289 2612 Pls
6289 2408 Pls
6289 2052 Pls
6289 2002 Pls
1685 4246 Pls
1685 3430 Pls
1685 3039 Pls
1685 2658 Pls
2146 3901 Pls
2146 3630 Pls
2146 2946 Pls
2146 2521 Pls
2606 4070 Pls
2606 2970 Pls
2606 2528 Pls
2606 2317 Pls
3066 3895 Pls
3066 2488 Pls
3066 2305 Pls
3066 2509 Pls
3527 3744 Pls
3527 2824 Pls
3527 2316 Pls
3527 1795 Pls
4447 2374 Pls
4447 2126 Pls
4447 1692 Pls
4447 1744 Pls
4908 2787 Pls
4908 1908 Pls
4908 2134 Pls
4908 1673 Pls
5368 2633 Pls
5368 2004 Pls
5368 1823 Pls
5368 2150 Pls
5828 2441 Pls
5828 2634 Pls
5828 1757 Pls
5828 2204 Pls
6289 2094 Pls
6289 2147 Pls
6289 2086 Pls
6289 2290 Pls
1685 4122 Pls
1685 3354 Pls
1685 3236 Pls
1685 2713 Pls
2146 4370 Pls
2146 3654 Pls
2146 2940 Pls
2146 2319 Pls
2606 4278 Pls
2606 3557 Pls
2606 2912 Pls
2606 2640 Pls
3066 3794 Pls
3066 3384 Pls
3066 3017 Pls
3066 2356 Pls
3527 3946 Pls
3527 3181 Pls
3527 2619 Pls
3527 2499 Pls
4447 2735 Pls
4447 2125 Pls
4447 1811 Pls
4447 1578 Pls
4908 2336 Pls
4908 1906 Pls
4908 2066 Pls
4908 2055 Pls
5368 2578 Pls
5368 1943 Pls
5368 2008 Pls
5368 1958 Pls
5828 2452 Pls
5828 2393 Pls
5828 1829 Pls
5828 1935 Pls
6289 2297 Pls
6289 1963 Pls
6289 2071 Pls
6289 1994 Pls
1685 4026 Pls
1685 2826 Pls
1685 2311 Pls
1685 2112 Pls
2146 3737 Pls
2146 2910 Pls
2146 2383 Pls
2146 2105 Pls
2606 3568 Pls
2606 2752 Pls
2606 2598 Pls
2606 2224 Pls
3066 3437 Pls
3066 2335 Pls
3066 2117 Pls
3066 1853 Pls
3527 2976 Pls
3527 2189 Pls
3527 1938 Pls
3527 1610 Pls
4447 2271 Pls
4447 1482 Pls
4447 1208 Pls
4447 1209 Pls
4908 2060 Pls
4908 1298 Pls
4908 1711 Pls
4908 1395 Pls
5368 2803 Pls
5368 1670 Pls
5368 1550 Pls
5368 1554 Pls
5828 3148 Pls
5828 2226 Pls
5828 1645 Pls
5828 1508 Pls
6289 2957 Pls
6289 2474 Pls
6289 2175 Pls
6289 1808 Pls
1685 3892 Pls
1685 3341 Pls
1685 2496 Pls
1685 2393 Pls
2146 3767 Pls
2146 3216 Pls
2146 2489 Pls
2146 2269 Pls
2606 4122 Pls
2606 2973 Pls
2606 2378 Pls
2606 2084 Pls
3066 3796 Pls
3066 2725 Pls
3066 2444 Pls
3066 1892 Pls
3527 2888 Pls
3527 2793 Pls
3527 2053 Pls
3527 1836 Pls
4447 2398 Pls
4447 1480 Pls
4447 1371 Pls
4447 1464 Pls
4908 2616 Pls
4908 2390 Pls
4908 1953 Pls
4908 1629 Pls
5368 2971 Pls
5368 2354 Pls
5368 1880 Pls
5368 1675 Pls
5828 3047 Pls
5828 2550 Pls
5828 2215 Pls
5828 2116 Pls
6289 3453 Pls
6289 2200 Pls
6289 2034 Pls
6289 2038 Pls
1685 4292 Pls
1685 2956 Pls
1685 3060 Pls
1685 2604 Pls
2146 4302 Pls
2146 3183 Pls
2146 2774 Pls
2146 2519 Pls
2606 3888 Pls
2606 3455 Pls
2606 2682 Pls
2606 2209 Pls
3066 4004 Pls
3066 3075 Pls
3066 2582 Pls
3066 2314 Pls
3527 3593 Pls
3527 3003 Pls
3527 2001 Pls
3527 1860 Pls
4447 2528 Pls
4447 1893 Pls
4447 1644 Pls
4447 1378 Pls
4908 2844 Pls
4908 2242 Pls
4908 1694 Pls
4908 1740 Pls
5368 3141 Pls
5368 2325 Pls
5368 1902 Pls
5368 1640 Pls
5828 3111 Pls
5828 2380 Pls
5828 2252 Pls
5828 1657 Pls
6289 3217 Pls
6289 2423 Pls
6289 2335 Pls
6289 1716 Pls
1685 4084 Pls
1685 3344 Pls
1685 3189 Pls
1685 2574 Pls
2146 4489 Pls
2146 3404 Pls
2146 3086 Pls
2146 2537 Pls
2606 3639 Pls
2606 3267 Pls
2606 2738 Pls
2606 2610 Pls
3066 3958 Pls
3066 2955 Pls
3066 2701 Pls
3066 2317 Pls
3527 3773 Pls
3527 3244 Pls
3527 2263 Pls
3527 2184 Pls
4447 2731 Pls
4447 2078 Pls
4447 1720 Pls
4447 1488 Pls
4908 2623 Pls
4908 2436 Pls
4908 1895 Pls
4908 1653 Pls
5368 2503 Pls
5368 2330 Pls
5368 2142 Pls
5368 1765 Pls
5828 2543 Pls
5828 2587 Pls
5828 2298 Pls
5828 1724 Pls
6289 2458 Pls
6289 2572 Pls
6289 2068 Pls
6289 2112 Pls
1685 4195 Pls
1685 3487 Pls
1685 2747 Pls
1685 2482 Pls
2146 4270 Pls
2146 3174 Pls
2146 2779 Pls
2146 2260 Pls
2606 4204 Pls
2606 3430 Pls
2606 2868 Pls
2606 2449 Pls
3066 4361 Pls
3066 3484 Pls
3066 3039 Pls
3066 2332 Pls
3527 3943 Pls
3527 3121 Pls
3527 2702 Pls
3527 2417 Pls
4447 2995 Pls
4447 2089 Pls
4447 2114 Pls
4447 1661 Pls
4908 2798 Pls
4908 1900 Pls
4908 2167 Pls
4908 1933 Pls
5368 2944 Pls
5368 2390 Pls
5368 1770 Pls
5368 1654 Pls
5828 2417 Pls
5828 2297 Pls
5828 2003 Pls
5828 1986 Pls
6289 2129 Pls
6289 2434 Pls
6289 2261 Pls
6289 1990 Pls
1685 3887 Pls
1685 2626 Pls
1685 2597 Pls
1685 2152 Pls
2146 3606 Pls
2146 2997 Pls
2146 2390 Pls
2146 1816 Pls
2606 3588 Pls
2606 2995 Pls
2606 2304 Pls
2606 2122 Pls
3066 3323 Pls
3066 2523 Pls
3066 1886 Pls
3066 1799 Pls
3527 3312 Pls
3527 2208 Pls
3527 2136 Pls
3527 1630 Pls
4447 1745 Pls
4447 1258 Pls
4447 1161 Pls
4447 1151 Pls
4908 2683 Pls
4908 1595 Pls
4908 1266 Pls
4908 1395 Pls
5368 3130 Pls
5368 1898 Pls
5368 1485 Pls
5368 1440 Pls
5828 3330 Pls
5828 2057 Pls
5828 2017 Pls
5828 1566 Pls
6289 2976 Pls
6289 2221 Pls
6289 1685 Pls
6289 1427 Pls
1685 4295 Pls
1685 3062 Pls
1685 3002 Pls
1685 2367 Pls
2146 4099 Pls
2146 3035 Pls
2146 2964 Pls
2146 2635 Pls
2606 3971 Pls
2606 3281 Pls
2606 2760 Pls
2606 2477 Pls
3066 3756 Pls
3066 2998 Pls
3066 2415 Pls
3066 2177 Pls
3527 3084 Pls
3527 2551 Pls
3527 2057 Pls
3527 1811 Pls
4447 2668 Pls
4447 2136 Pls
4447 1438 Pls
4447 1183 Pls
4908 2278 Pls
4908 2065 Pls
4908 1793 Pls
4908 1528 Pls
5368 3300 Pls
5368 1962 Pls
5368 1886 Pls
5368 1596 Pls
5828 2803 Pls
5828 2188 Pls
5828 2224 Pls
5828 1719 Pls
6289 3085 Pls
6289 2774 Pls
6289 2416 Pls
6289 1551 Pls
1685 4233 Pls
1685 3414 Pls
1685 2994 Pls
1685 2478 Pls
2146 4312 Pls
2146 3400 Pls
2146 2421 Pls
2146 2423 Pls
2606 3902 Pls
2606 2836 Pls
2606 2750 Pls
2606 2323 Pls
3066 3685 Pls
3066 3515 Pls
3066 1990 Pls
3066 2355 Pls
3527 3215 Pls
3527 2703 Pls
3527 2550 Pls
3527 2120 Pls
4447 2655 Pls
4447 1649 Pls
4447 1588 Pls
4447 1396 Pls
4908 3115 Pls
4908 2345 Pls
4908 1886 Pls
4908 1727 Pls
5368 2784 Pls
5368 2234 Pls
5368 2097 Pls
5368 1856 Pls
5828 3185 Pls
5828 2389 Pls
5828 1826 Pls
5828 2023 Pls
6289 3592 Pls
6289 2577 Pls
6289 2251 Pls
6289 2014 Pls
1685 4063 Pls
1685 3518 Pls
1685 2779 Pls
1685 2515 Pls
2146 4089 Pls
2146 3458 Pls
2146 3148 Pls
2146 2423 Pls
2606 3947 Pls
2606 3104 Pls
2606 3005 Pls
2606 2423 Pls
3066 3750 Pls
3066 3188 Pls
3066 2864 Pls
3066 2352 Pls
3527 3253 Pls
3527 2815 Pls
3527 2262 Pls
3527 2183 Pls
4447 2733 Pls
4447 1770 Pls
4447 1090 Pls
4447 1218 Pls
4908 3176 Pls
4908 2132 Pls
4908 1941 Pls
4908 1724 Pls
5368 2965 Pls
5368 2303 Pls
5368 1884 Pls
5368 1971 Pls
5828 3256 Pls
5828 2479 Pls
5828 2084 Pls
5828 1948 Pls
6289 3048 Pls
6289 2922 Pls
6289 2212 Pls
6289 2120 Pls
1685 4384 Pls
1685 3489 Pls
1685 3183 Pls
1685 2775 Pls
2146 4423 Pls
2146 3495 Pls
2146 3300 Pls
2146 2561 Pls
2606 4151 Pls
2606 3260 Pls
2606 2936 Pls
2606 2526 Pls
3066 3932 Pls
3066 3305 Pls
3066 2977 Pls
3066 2684 Pls
3527 3981 Pls
3527 3170 Pls
3527 2253 Pls
3527 2143 Pls
4447 3038 Pls
4447 1756 Pls
4447 2037 Pls
4447 1616 Pls
4908 2552 Pls
4908 2304 Pls
4908 2226 Pls
4908 1845 Pls
5368 2460 Pls
5368 2543 Pls
5368 1733 Pls
5368 2082 Pls
5828 3396 Pls
5828 2218 Pls
5828 1784 Pls
5828 1927 Pls
6289 2897 Pls
6289 2503 Pls
6289 2039 Pls
6289 1932 Pls
1685 3803 Pls
1685 3412 Pls
1685 2463 Pls
1685 2152 Pls
2146 3649 Pls
2146 3214 Pls
2146 2603 Pls
2146 2174 Pls
2606 3728 Pls
2606 2203 Pls
2606 2135 Pls
2606 2004 Pls
3066 3778 Pls
3066 2599 Pls
3066 2232 Pls
3066 1776 Pls
3527 2968 Pls
3527 2197 Pls
3527 1798 Pls
3527 1651 Pls
4447 2008 Pls
4447 1638 Pls
4447 1253 Pls
4447 1183 Pls
4908 2376 Pls
4908 1885 Pls
4908 1451 Pls
4908 1234 Pls
5368 2871 Pls
5368 2068 Pls
5368 1578 Pls
5368 1313 Pls
5828 3047 Pls
5828 2117 Pls
5828 1696 Pls
5828 1403 Pls
6289 3158 Pls
6289 2443 Pls
6289 1682 Pls
6289 1457 Pls
1685 4161 Pls
1685 3636 Pls
1685 2509 Pls
1685 2514 Pls
2146 3986 Pls
2146 3668 Pls
2146 2772 Pls
2146 2298 Pls
2606 3686 Pls
2606 2942 Pls
2606 2638 Pls
2606 2061 Pls
3066 3503 Pls
3066 2711 Pls
3066 2220 Pls
3066 2103 Pls
3527 2995 Pls
3527 2860 Pls
3527 2106 Pls
3527 1580 Pls
4447 2691 Pls
4447 1609 Pls
4447 1386 Pls
4447 1333 Pls
4908 2608 Pls
4908 2014 Pls
4908 1729 Pls
4908 1623 Pls
5368 2726 Pls
5368 2372 Pls
5368 1691 Pls
5368 1505 Pls
5828 3687 Pls
5828 2585 Pls
5828 2079 Pls
5828 1785 Pls
6289 3452 Pls
6289 2146 Pls
6289 1700 Pls
6289 1795 Pls
1685 4296 Pls
1685 3527 Pls
1685 2991 Pls
1685 2203 Pls
2146 4378 Pls
2146 3211 Pls
2146 2909 Pls
2146 2261 Pls
2606 3695 Pls
2606 3326 Pls
2606 2706 Pls
2606 2309 Pls
3066 4252 Pls
3066 3053 Pls
3066 2740 Pls
3066 2283 Pls
3527 3095 Pls
3527 2527 Pls
3527 2112 Pls
3527 1761 Pls
4447 2346 Pls
4447 1559 Pls
4447 1769 Pls
4447 1398 Pls
4908 3283 Pls
4908 2239 Pls
4908 1998 Pls
4908 1835 Pls
5368 3537 Pls
5368 2160 Pls
5368 1905 Pls
5368 1925 Pls
5828 3621 Pls
5828 2889 Pls
5828 2190 Pls
5828 1818 Pls
6289 3009 Pls
6289 2760 Pls
6289 2243 Pls
6289 1644 Pls
1685 4204 Pls
1685 3315 Pls
1685 2922 Pls
1685 2505 Pls
2146 3724 Pls
2146 3399 Pls
2146 2952 Pls
2146 2525 Pls
2606 4387 Pls
2606 3562 Pls
2606 2575 Pls
2606 2145 Pls
3066 3964 Pls
3066 2954 Pls
3066 2844 Pls
3066 2572 Pls
3527 3625 Pls
3527 2935 Pls
3527 2314 Pls
3527 2098 Pls
4447 2823 Pls
4447 2102 Pls
4447 1817 Pls
4447 1216 Pls
4908 3068 Pls
4908 2299 Pls
4908 1834 Pls
4908 1682 Pls
5368 3018 Pls
5368 2490 Pls
5368 1957 Pls
5368 1949 Pls
5828 3651 Pls
5828 2812 Pls
5828 1998 Pls
5828 1904 Pls
6289 3281 Pls
6289 2220 Pls
6289 2284 Pls
6289 2138 Pls
1685 4378 Pls
1685 3935 Pls
1685 3008 Pls
1685 2953 Pls
2146 4191 Pls
2146 3419 Pls
2146 3091 Pls
2146 2639 Pls
2606 3998 Pls
2606 3399 Pls
2606 2983 Pls
2606 2542 Pls
3066 3667 Pls
3066 3173 Pls
3066 2710 Pls
3066 2754 Pls
3527 3868 Pls
3527 2935 Pls
3527 2529 Pls
3527 2333 Pls
4447 2841 Pls
4447 2365 Pls
4447 1552 Pls
4447 1489 Pls
4908 3272 Pls
4908 2544 Pls
4908 2212 Pls
4908 1916 Pls
5368 3133 Pls
5368 2247 Pls
5368 2151 Pls
5368 2030 Pls
5828 3472 Pls
5828 2707 Pls
5828 2158 Pls
5828 2049 Pls
6289 3001 Pls
6289 2285 Pls
6289 2149 Pls
6289 1957 Pls
1685 3777 Pls
1685 2771 Pls
1685 2077 Pls
1685 1890 Pls
2146 3651 Pls
2146 2994 Pls
2146 2208 Pls
2146 1972 Pls
2606 3857 Pls
2606 2364 Pls
2606 2173 Pls
2606 1955 Pls
3066 3308 Pls
3066 2526 Pls
3066 1940 Pls
3066 2031 Pls
3527 3038 Pls
3527 1909 Pls
3527 1715 Pls
3527 1365 Pls
4447 1850 Pls
4447 1638 Pls
4447 1155 Pls
4447 1108 Pls
4908 2271 Pls
4908 1638 Pls
4908 1312 Pls
4908 1466 Pls
5368 2736 Pls
5368 2000 Pls
5368 1654 Pls
5368 1279 Pls
5828 3381 Pls
5828 2665 Pls
5828 1833 Pls
5828 1398 Pls
6289 3524 Pls
6289 1784 Pls
6289 1774 Pls
6289 1486 Pls
1685 4123 Pls
1685 3226 Pls
1685 2283 Pls
1685 2560 Pls
2146 3987 Pls
2146 3326 Pls
2146 2550 Pls
2146 2230 Pls
2606 3727 Pls
2606 2997 Pls
2606 2411 Pls
2606 2263 Pls
3066 3463 Pls
3066 2385 Pls
3066 2514 Pls
3066 2284 Pls
3527 3698 Pls
3527 2222 Pls
3527 2426 Pls
3527 1697 Pls
4447 2280 Pls
4447 1859 Pls
4447 1544 Pls
4447 1140 Pls
4908 2664 Pls
4908 2156 Pls
4908 1670 Pls
4908 1540 Pls
5368 2923 Pls
5368 1963 Pls
5368 2156 Pls
5368 1763 Pls
5828 3870 Pls
5828 2443 Pls
5828 1828 Pls
5828 1833 Pls
6289 3396 Pls
6289 2802 Pls
6289 2021 Pls
6289 1994 Pls
1685 4101 Pls
1685 3523 Pls
1685 2839 Pls
1685 2765 Pls
2146 4246 Pls
2146 3618 Pls
2146 2454 Pls
2146 2373 Pls
2606 4371 Pls
2606 3392 Pls
2606 2802 Pls
2606 2417 Pls
3066 3776 Pls
3066 3431 Pls
3066 2494 Pls
3066 1989 Pls
3527 3820 Pls
3527 2583 Pls
3527 2133 Pls
3527 1900 Pls
4447 2841 Pls
4447 1745 Pls
4447 1641 Pls
4447 1440 Pls
4908 2963 Pls
4908 1760 Pls
4908 1733 Pls
4908 1580 Pls
5368 3424 Pls
5368 2832 Pls
5368 1905 Pls
5368 1835 Pls
5828 2958 Pls
5828 2730 Pls
5828 2205 Pls
5828 1896 Pls
6289 3658 Pls
6289 2392 Pls
6289 2402 Pls
6289 1967 Pls
1685 4200 Pls
1685 3841 Pls
1685 2593 Pls
1685 2767 Pls
2146 4309 Pls
2146 3591 Pls
2146 3198 Pls
2146 2483 Pls
2606 3987 Pls
2606 3599 Pls
2606 2587 Pls
2606 2722 Pls
3066 4280 Pls
3066 3433 Pls
3066 2444 Pls
3066 2289 Pls
3527 3829 Pls
3527 2631 Pls
3527 2403 Pls
3527 2156 Pls
4447 2888 Pls
4447 1938 Pls
4447 1575 Pls
4447 1685 Pls
4908 3213 Pls
4908 2382 Pls
4908 2014 Pls
4908 1985 Pls
5368 3322 Pls
5368 2456 Pls
5368 2032 Pls
5368 1815 Pls
5828 3867 Pls
5828 2410 Pls
5828 2057 Pls
5828 2217 Pls
6289 2843 Pls
6289 2848 Pls
6289 2399 Pls
6289 2056 Pls
1685 4423 Pls
1685 3530 Pls
1685 2879 Pls
1685 2810 Pls
2146 4364 Pls
2146 3550 Pls
2146 2835 Pls
2146 2617 Pls
2606 3988 Pls
2606 3727 Pls
2606 3071 Pls
2606 2501 Pls
3066 3912 Pls
3066 3353 Pls
3066 2765 Pls
3066 2496 Pls
3527 3960 Pls
3527 3217 Pls
3527 2528 Pls
3527 2268 Pls
4447 2616 Pls
4447 2416 Pls
4447 1800 Pls
4447 1530 Pls
4908 2944 Pls
4908 1681 Pls
4908 1637 Pls
4908 1374 Pls
5368 3258 Pls
5368 2203 Pls
5368 2029 Pls
5368 1987 Pls
5828 3064 Pls
5828 2579 Pls
5828 2364 Pls
5828 1767 Pls
6289 3120 Pls
6289 2179 Pls
6289 2107 Pls
6289 2082 Pls
1685 3574 Pls
1685 2799 Pls
1685 2153 Pls
1685 2531 Pls
2146 3876 Pls
2146 3097 Pls
2146 2573 Pls
2146 2112 Pls
2606 3851 Pls
2606 2525 Pls
2606 2405 Pls
2606 1969 Pls
3066 3551 Pls
3066 2457 Pls
3066 2027 Pls
3066 1932 Pls
3527 3137 Pls
3527 2006 Pls
3527 1832 Pls
3527 1685 Pls
4447 2376 Pls
4447 1394 Pls
4447 1306 Pls
4447 1190 Pls
4908 2818 Pls
4908 1874 Pls
4908 1502 Pls
4908 1140 Pls
5368 2901 Pls
5368 1387 Pls
5368 1787 Pls
5368 1612 Pls
5828 2818 Pls
5828 1914 Pls
5828 1774 Pls
5828 1742 Pls
6289 2631 Pls
6289 2211 Pls
6289 1933 Pls
6289 1674 Pls
1685 3684 Pls
1685 3364 Pls
1685 2769 Pls
1685 2227 Pls
2146 3942 Pls
2146 3094 Pls
2146 2443 Pls
2146 2410 Pls
2606 3998 Pls
2606 2826 Pls
2606 2517 Pls
2606 2163 Pls
3066 3489 Pls
3066 2926 Pls
3066 2569 Pls
3066 2160 Pls
3527 3317 Pls
3527 2191 Pls
3527 2192 Pls
3527 1852 Pls
4447 2008 Pls
4447 1899 Pls
4447 1399 Pls
4447 1254 Pls
4908 2713 Pls
4908 2003 Pls
4908 1358 Pls
4908 1538 Pls
5368 3028 Pls
5368 2408 Pls
5368 2034 Pls
5368 1795 Pls
5828 3399 Pls
5828 2529 Pls
5828 1832 Pls
5828 1742 Pls
6289 3129 Pls
6289 2606 Pls
6289 1777 Pls
6289 1573 Pls
1685 4272 Pls
1685 3242 Pls
1685 2837 Pls
1685 2606 Pls
2146 4082 Pls
2146 3510 Pls
2146 2750 Pls
2146 2420 Pls
2606 3941 Pls
2606 3362 Pls
2606 2550 Pls
2606 2358 Pls
3066 3973 Pls
3066 2943 Pls
3066 2509 Pls
3066 2371 Pls
3527 3242 Pls
3527 2492 Pls
3527 2058 Pls
3527 1880 Pls
4447 2850 Pls
4447 1861 Pls
4447 1682 Pls
4447 1644 Pls
4908 2993 Pls
4908 2015 Pls
4908 1903 Pls
4908 1593 Pls
5368 3425 Pls
5368 2493 Pls
5368 2020 Pls
5368 1614 Pls
5828 3143 Pls
5828 2508 Pls
5828 2329 Pls
5828 1853 Pls
6289 3709 Pls
6289 2999 Pls
6289 2185 Pls
6289 1542 Pls
1685 4255 Pls
1685 3701 Pls
1685 2859 Pls
1685 2848 Pls
2146 4003 Pls
2146 3093 Pls
2146 3175 Pls
2146 2336 Pls
2606 3452 Pls
2606 3477 Pls
2606 2692 Pls
2606 2519 Pls
3066 4012 Pls
3066 3170 Pls
3066 2383 Pls
3066 2303 Pls
3527 3736 Pls
3527 2710 Pls
3527 2105 Pls
3527 2050 Pls
4447 2685 Pls
4447 1978 Pls
4447 1523 Pls
4447 1671 Pls
4908 3094 Pls
4908 2493 Pls
4908 1981 Pls
4908 1719 Pls
5368 3576 Pls
5368 3067 Pls
5368 1977 Pls
5368 1677 Pls
5828 3502 Pls
5828 2707 Pls
5828 2172 Pls
5828 1767 Pls
6289 3381 Pls
6289 2714 Pls
6289 2014 Pls
6289 1961 Pls
1685 4254 Pls
1685 3581 Pls
1685 3064 Pls
1685 2547 Pls
2146 4367 Pls
2146 3794 Pls
2146 3191 Pls
2146 2717 Pls
2606 4218 Pls
2606 3645 Pls
2606 2944 Pls
2606 2482 Pls
3066 4001 Pls
3066 3224 Pls
3066 2909 Pls
3066 2401 Pls
3527 3803 Pls
3527 2917 Pls
3527 2346 Pls
3527 1960 Pls
4447 3490 Pls
4447 2593 Pls
4447 1983 Pls
4447 1310 Pls
4908 3134 Pls
4908 2686 Pls
4908 1884 Pls
4908 1655 Pls
5368 2887 Pls
5368 2570 Pls
5368 1828 Pls
5368 1817 Pls
5828 3001 Pls
5828 2594 Pls
5828 2065 Pls
5828 1928 Pls
6289 3210 Pls
6289 2783 Pls
6289 2410 Pls
6289 2010 Pls
1685 4033 Pls
1685 3151 Pls
1685 2509 Pls
1685 2381 Pls
2146 3501 Pls
2146 3143 Pls
2146 2199 Pls
2146 2084 Pls
2606 3450 Pls
2606 3014 Pls
2606 2091 Pls
2606 2168 Pls
3066 3113 Pls
3066 2513 Pls
3066 2132 Pls
3066 1711 Pls
3527 2743 Pls
3527 2066 Pls
3527 1701 Pls
3527 1555 Pls
4447 2166 Pls
4447 1337 Pls
4447 1115 Pls
4447 1033 Pls
4908 2362 Pls
4908 1846 Pls
4908 1312 Pls
4908 1183 Pls
5368 2998 Pls
5368 1791 Pls
5368 1630 Pls
5368 1382 Pls
5828 2694 Pls
5828 1727 Pls
5828 1625 Pls
5828 1469 Pls
6289 2811 Pls
6289 2305 Pls
6289 1543 Pls
6289 1226 Pls
1685 4324 Pls
1685 3009 Pls
1685 2962 Pls
1685 2457 Pls
2146 3983 Pls
2146 3215 Pls
2146 2378 Pls
2146 2130 Pls
2606 4064 Pls
2606 2899 Pls
2606 2463 Pls
2606 2485 Pls
3066 3768 Pls
3066 2896 Pls
3066 2551 Pls
3066 2382 Pls
3527 3908 Pls
3527 2159 Pls
3527 2038 Pls
3527 1744 Pls
4447 2428 Pls
4447 1692 Pls
4447 1589 Pls
4447 1354 Pls
4908 3336 Pls
4908 2049 Pls
4908 1596 Pls
4908 1463 Pls
5368 3043 Pls
5368 2224 Pls
5368 1502 Pls
5368 1624 Pls
5828 3283 Pls
5828 2581 Pls
5828 1907 Pls
5828 1957 Pls
6289 3328 Pls
6289 2350 Pls
6289 2066 Pls
6289 1753 Pls
1685 4159 Pls
1685 3531 Pls
1685 3027 Pls
1685 2486 Pls
2146 3687 Pls
2146 3518 Pls
2146 2979 Pls
2146 2171 Pls
2606 4315 Pls
2606 3140 Pls
2606 2511 Pls
2606 2666 Pls
3066 3816 Pls
3066 2963 Pls
3066 2614 Pls
3066 2157 Pls
3527 3534 Pls
3527 2780 Pls
3527 1928 Pls
3527 2150 Pls
4447 3038 Pls
4447 2295 Pls
4447 1399 Pls
4447 1661 Pls
4908 2612 Pls
4908 2261 Pls
4908 1716 Pls
4908 1554 Pls
5368 2861 Pls
5368 2466 Pls
5368 2173 Pls
5368 1730 Pls
5828 3375 Pls
5828 2929 Pls
5828 2114 Pls
5828 1665 Pls
6289 3564 Pls
6289 2837 Pls
6289 2423 Pls
6289 1907 Pls
1685 4155 Pls
1685 3186 Pls
1685 2905 Pls
1685 2648 Pls
2146 4407 Pls
2146 3479 Pls
2146 3014 Pls
2146 2848 Pls
2606 4207 Pls
2606 3598 Pls
2606 3148 Pls
2606 2578 Pls
3066 4109 Pls
3066 3239 Pls
3066 2910 Pls
3066 2301 Pls
3527 3253 Pls
3527 3134 Pls
3527 2289 Pls
3527 1754 Pls
4447 2867 Pls
4447 2280 Pls
4447 1823 Pls
4447 1596 Pls
4908 2991 Pls
4908 2195 Pls
4908 1982 Pls
4908 1697 Pls
5368 3432 Pls
5368 2530 Pls
5368 1962 Pls
5368 1720 Pls
5828 3214 Pls
5828 2679 Pls
5828 2252 Pls
5828 1615 Pls
6289 3265 Pls
6289 2362 Pls
6289 2147 Pls
6289 1767 Pls
1685 4246 Pls
1685 3902 Pls
1685 3326 Pls
1685 2687 Pls
2146 4292 Pls
2146 3429 Pls
2146 3300 Pls
2146 2658 Pls
2606 4112 Pls
2606 3593 Pls
2606 3066 Pls
2606 2665 Pls
3066 3977 Pls
3066 3065 Pls
3066 2613 Pls
3066 2685 Pls
3527 3936 Pls
3527 3362 Pls
3527 2578 Pls
3527 2241 Pls
4447 2691 Pls
4447 2086 Pls
4447 1580 Pls
4447 1560 Pls
4908 3064 Pls
4908 2429 Pls
4908 2072 Pls
4908 1671 Pls
5368 3305 Pls
5368 2714 Pls
5368 2306 Pls
5368 1838 Pls
5828 3046 Pls
5828 2595 Pls
5828 2304 Pls
5828 1860 Pls
6289 3624 Pls
6289 2760 Pls
6289 2448 Pls
6289 1776 Pls
1685 4016 Pls
1685 2879 Pls
1685 2751 Pls
1685 2188 Pls
2146 3540 Pls
2146 2704 Pls
2146 2489 Pls
2146 2201 Pls
2606 3483 Pls
2606 2436 Pls
2606 2080 Pls
2606 2072 Pls
3066 3297 Pls
3066 2232 Pls
3066 2299 Pls
3066 1749 Pls
3527 2841 Pls
3527 2301 Pls
3527 1877 Pls
3527 1542 Pls
4447 1850 Pls
4447 1337 Pls
4447 1214 Pls
4447 1111 Pls
4908 2871 Pls
4908 1531 Pls
4908 1307 Pls
4908 1179 Pls
5368 2736 Pls
5368 1767 Pls
5368 1823 Pls
5368 1530 Pls
5828 3051 Pls
5828 1708 Pls
5828 1922 Pls
5828 1466 Pls
6289 2728 Pls
6289 2246 Pls
6289 1797 Pls
6289 1365 Pls
1685 4162 Pls
1685 2967 Pls
1685 2787 Pls
1685 2415 Pls
2146 4276 Pls
2146 2919 Pls
2146 2572 Pls
2146 2393 Pls
2606 3965 Pls
2606 2916 Pls
2606 2441 Pls
2606 2500 Pls
3066 3660 Pls
3066 2984 Pls
3066 2591 Pls
3066 2089 Pls
3527 3559 Pls
3527 2384 Pls
3527 2184 Pls
3527 1837 Pls
4447 1955 Pls
4447 1480 Pls
4447 1389 Pls
4447 1215 Pls
4908 2762 Pls
4908 1945 Pls
4908 1300 Pls
4908 1726 Pls
5368 3422 Pls
5368 2111 Pls
5368 1909 Pls
5368 1622 Pls
5828 3358 Pls
5828 2588 Pls
5828 2363 Pls
5828 1591 Pls
6289 3572 Pls
6289 2020 Pls
6289 2091 Pls
6289 1589 Pls
1685 4085 Pls
1685 3427 Pls
1685 3098 Pls
1685 2480 Pls
2146 4197 Pls
2146 3202 Pls
2146 2732 Pls
2146 2618 Pls
2606 4147 Pls
2606 2901 Pls
2606 2411 Pls
2606 2355 Pls
3066 3884 Pls
3066 3173 Pls
3066 2765 Pls
3066 2161 Pls
3527 3485 Pls
3527 2568 Pls
3527 2046 Pls
3527 1867 Pls
4447 2746 Pls
4447 2203 Pls
4447 1755 Pls
4447 1459 Pls
4908 2796 Pls
4908 2826 Pls
4908 1820 Pls
4908 1647 Pls
5368 3584 Pls
5368 2048 Pls
5368 2108 Pls
5368 1635 Pls
5828 3555 Pls
5828 2226 Pls
5828 1833 Pls
5828 1712 Pls
6289 3178 Pls
6289 2977 Pls
6289 2351 Pls
6289 2080 Pls
1685 4378 Pls
1685 3644 Pls
1685 2738 Pls
1685 2646 Pls
2146 4079 Pls
2146 3315 Pls
2146 2940 Pls
2146 2664 Pls
2606 3932 Pls
2606 3449 Pls
2606 2979 Pls
2606 2871 Pls
3066 3964 Pls
3066 2879 Pls
3066 2467 Pls
3066 2385 Pls
3527 3846 Pls
3527 2502 Pls
3527 2269 Pls
3527 2416 Pls
4447 2700 Pls
4447 1791 Pls
4447 1786 Pls
4447 1576 Pls
4908 3546 Pls
4908 2454 Pls
4908 1782 Pls
4908 1554 Pls
5368 3479 Pls
5368 2827 Pls
5368 2004 Pls
5368 1989 Pls
5828 3216 Pls
5828 2897 Pls
5828 2110 Pls
5828 1782 Pls
6289 3382 Pls
6289 2855 Pls
6289 2491 Pls
6289 1950 Pls
1685 4413 Pls
1685 3492 Pls
1685 3074 Pls
1685 2709 Pls
2146 4124 Pls
2146 3757 Pls
2146 3204 Pls
2146 2596 Pls
2606 4266 Pls
2606 3577 Pls
2606 2957 Pls
2606 2130 Pls
3066 3672 Pls
3066 3487 Pls
3066 3145 Pls
3066 2394 Pls
3527 3899 Pls
3527 2727 Pls
3527 2588 Pls
3527 2224 Pls
4447 3370 Pls
4447 1973 Pls
4447 1671 Pls
4447 1581 Pls
4908 3102 Pls
4908 2398 Pls
4908 2230 Pls
4908 1847 Pls
5368 3422 Pls
5368 2673 Pls
5368 1979 Pls
5368 2035 Pls
5828 3402 Pls
5828 2548 Pls
5828 1859 Pls
5828 1775 Pls
6289 3094 Pls
6289 2537 Pls
6289 2177 Pls
6289 2184 Pls
1685 3947 Pls
1685 2951 Pls
1685 2587 Pls
1685 2034 Pls
2146 3321 Pls
2146 2759 Pls
2146 2674 Pls
2146 2176 Pls
2606 3921 Pls
2606 2395 Pls
2606 2209 Pls
2606 2037 Pls
3066 3347 Pls
3066 2304 Pls
3066 1896 Pls
3066 1916 Pls
3527 3156 Pls
3527 2144 Pls
3527 2143 Pls
3527 1542 Pls
4447 2113 Pls
4447 1194 Pls
4447 1161 Pls
4447 1151 Pls
4908 2743 Pls
4908 1480 Pls
4908 1492 Pls
4908 1258 Pls
5368 2841 Pls
5368 2032 Pls
5368 1496 Pls
5368 1326 Pls
5828 2976 Pls
5828 1973 Pls
5828 1786 Pls
5828 1600 Pls
6289 2953 Pls
6289 2310 Pls
6289 1842 Pls
6289 1825 Pls
1685 3924 Pls
1685 2687 Pls
1685 2730 Pls
1685 2146 Pls
2146 4141 Pls
2146 2696 Pls
2146 2388 Pls
2146 2335 Pls
2606 4088 Pls
2606 3211 Pls
2606 2805 Pls
2606 2394 Pls
3066 3636 Pls
3066 2506 Pls
3066 2575 Pls
3066 2037 Pls
3527 3085 Pls
3527 2819 Pls
3527 2016 Pls
3527 1939 Pls
4447 2691 Pls
4447 1821 Pls
4447 1109 Pls
4447 1108 Pls
4908 2766 Pls
4908 1945 Pls
4908 1641 Pls
4908 1440 Pls
5368 2481 Pls
5368 2003 Pls
5368 2020 Pls
5368 1642 Pls
5828 3259 Pls
5828 2050 Pls
5828 1912 Pls
5828 1726 Pls
6289 3781 Pls
6289 2355 Pls
6289 2014 Pls
6289 1616 Pls
1685 4034 Pls
1685 3624 Pls
1685 2903 Pls
1685 2643 Pls
2146 4387 Pls
2146 3207 Pls
2146 2786 Pls
2146 2482 Pls
2606 4180 Pls
2606 3397 Pls
2606 2791 Pls
2606 1941 Pls
3066 4127 Pls
3066 2706 Pls
3066 2494 Pls
3066 2377 Pls
3527 3465 Pls
3527 2426 Pls
3527 2358 Pls
3527 2071 Pls
4447 2661 Pls
4447 1743 Pls
4447 1723 Pls
4447 1459 Pls
4908 2717 Pls
4908 1807 Pls
4908 1857 Pls
4908 1378 Pls
5368 3261 Pls
5368 2719 Pls
5368 2062 Pls
5368 1577 Pls
5828 3876 Pls
5828 2793 Pls
5828 1854 Pls
5828 1880 Pls
6289 3942 Pls
6289 3085 Pls
6289 2005 Pls
6289 1927 Pls
1685 4008 Pls
1685 3515 Pls
1685 2934 Pls
1685 2768 Pls
2146 4141 Pls
2146 3529 Pls
2146 2625 Pls
2146 2536 Pls
2606 4148 Pls
2606 3514 Pls
2606 2616 Pls
2606 2516 Pls
3066 4131 Pls
3066 3258 Pls
3066 2509 Pls
3066 2197 Pls
3527 3417 Pls
3527 2971 Pls
3527 2392 Pls
3527 2141 Pls
4447 2593 Pls
4447 1964 Pls
4447 1946 Pls
4447 1499 Pls
4908 3752 Pls
4908 2461 Pls
4908 2024 Pls
4908 1573 Pls
5368 3572 Pls
5368 2607 Pls
5368 2086 Pls
5368 1690 Pls
5828 3694 Pls
5828 2483 Pls
5828 1922 Pls
5828 2247 Pls
6289 3418 Pls
6289 2882 Pls
6289 2056 Pls
6289 2116 Pls
1685 4292 Pls
1685 3285 Pls
1685 2911 Pls
1685 2317 Pls
2146 4174 Pls
2146 3662 Pls
2146 2977 Pls
2146 2481 Pls
2606 4090 Pls
2606 3422 Pls
2606 2816 Pls
2606 2576 Pls
3066 3814 Pls
3066 3458 Pls
3066 2613 Pls
3066 2619 Pls
3527 4055 Pls
3527 2721 Pls
3527 2315 Pls
3527 2114 Pls
4447 3115 Pls
4447 2144 Pls
4447 1378 Pls
4447 1639 Pls
4908 3323 Pls
4908 2380 Pls
4908 2230 Pls
4908 1794 Pls
5368 3351 Pls
5368 2204 Pls
5368 1764 Pls
5368 1907 Pls
5828 3366 Pls
5828 2762 Pls
5828 2254 Pls
5828 1772 Pls
6289 3599 Pls
6289 2509 Pls
6289 2359 Pls
6289 2092 Pls
1685 3426 Pls
1685 3076 Pls
1685 2585 Pls
1685 2109 Pls
2146 3618 Pls
2146 2803 Pls
2146 2461 Pls
2146 2232 Pls
2606 3791 Pls
2606 2959 Pls
2606 2556 Pls
2606 1887 Pls
3066 3071 Pls
3066 2599 Pls
3066 1948 Pls
3066 1632 Pls
3527 2841 Pls
3527 2362 Pls
3527 1561 Pls
3527 1651 Pls
4447 2218 Pls
4447 1337 Pls
4447 1109 Pls
4447 1033 Pls
4908 2481 Pls
4908 1480 Pls
4908 1411 Pls
4908 1440 Pls
5368 2818 Pls
5368 1969 Pls
5368 1341 Pls
5368 1526 Pls
5828 2950 Pls
5828 1899 Pls
5828 1803 Pls
5828 1557 Pls
6289 2736 Pls
6289 2227 Pls
6289 1845 Pls
6289 1466 Pls
1685 4195 Pls
1685 3179 Pls
1685 2641 Pls
1685 2568 Pls
2146 4045 Pls
2146 3175 Pls
2146 2625 Pls
2146 2361 Pls
2606 3543 Pls
2606 3004 Pls
2606 2855 Pls
2606 1852 Pls
3066 3810 Pls
3066 2956 Pls
3066 2337 Pls
3066 2064 Pls
3527 3283 Pls
3527 2420 Pls
3527 2273 Pls
3527 1836 Pls
4447 2346 Pls
4447 1523 Pls
4447 1531 Pls
4447 1215 Pls
4908 2871 Pls
4908 1648 Pls
4908 1733 Pls
4908 1534 Pls
5368 2691 Pls
5368 2303 Pls
5368 1879 Pls
5368 1668 Pls
5828 3490 Pls
5828 2169 Pls
5828 2194 Pls
5828 1697 Pls
6289 3274 Pls
6289 2519 Pls
6289 2016 Pls
6289 1675 Pls
1685 4272 Pls
1685 3084 Pls
1685 2790 Pls
1685 2783 Pls
2146 4076 Pls
2146 3326 Pls
2146 3189 Pls
2146 2343 Pls
2606 4151 Pls
2606 3382 Pls
2606 2797 Pls
2606 2357 Pls
3066 3726 Pls
3066 3187 Pls
3066 2372 Pls
3066 2489 Pls
3527 3803 Pls
3527 2727 Pls
3527 1962 Pls
3527 2070 Pls
4447 2376 Pls
4447 2052 Pls
4447 1682 Pls
4447 1498 Pls
4908 3464 Pls
4908 2611 Pls
4908 2148 Pls
4908 1536 Pls
5368 3674 Pls
5368 2600 Pls
5368 1929 Pls
5368 1620 Pls
5828 3349 Pls
5828 2441 Pls
5828 1914 Pls
5828 1766 Pls
6289 3467 Pls
6289 2750 Pls
6289 2145 Pls
6289 1938 Pls
1685 4239 Pls
1685 3466 Pls
1685 2865 Pls
1685 2504 Pls
2146 4190 Pls
2146 3384 Pls
2146 3031 Pls
2146 2839 Pls
2606 4217 Pls
2606 2986 Pls
2606 2666 Pls
2606 2582 Pls
3066 3982 Pls
3066 3137 Pls
3066 2596 Pls
3066 2145 Pls
3527 3937 Pls
3527 2919 Pls
3527 2413 Pls
3527 2134 Pls
4447 3441 Pls
4447 1833 Pls
4447 1439 Pls
4447 1548 Pls
4908 3349 Pls
4908 2500 Pls
4908 1790 Pls
4908 1716 Pls
5368 3837 Pls
5368 2696 Pls
5368 1830 Pls
5368 2012 Pls
5828 3304 Pls
5828 2713 Pls
5828 2065 Pls
5828 1952 Pls
6289 3865 Pls
6289 2866 Pls
6289 2397 Pls
6289 1863 Pls
1685 4462 Pls
1685 3865 Pls
1685 3165 Pls
1685 2710 Pls
2146 4283 Pls
2146 3636 Pls
2146 2880 Pls
2146 2669 Pls
2606 4104 Pls
2606 3624 Pls
2606 2705 Pls
2606 2586 Pls
3066 4158 Pls
3066 3356 Pls
3066 2730 Pls
3066 2268 Pls
3527 4093 Pls
3527 2537 Pls
3527 2704 Pls
3527 2022 Pls
4447 2751 Pls
4447 1965 Pls
4447 1724 Pls
4447 1672 Pls
4908 3539 Pls
4908 2277 Pls
4908 2042 Pls
4908 1778 Pls
5368 3818 Pls
5368 2744 Pls
5368 2140 Pls
5368 1637 Pls
5828 3962 Pls
5828 2407 Pls
5828 1816 Pls
5828 1890 Pls
6289 2838 Pls
6289 2919 Pls
6289 2193 Pls
6289 1898 Pls
% End plot #1
% Begin plot #2
1.000 UL
LT1
LCb setrgbcolor
2425 1488 M
[ [(Helvetica) 250.0 0.0 true true 0 (Average)]
] -83.3 MRshow
LT1
2575 1488 M
663 0 V
1685 3183 M
461 -63 V
460 -90 V
460 -168 V
461 -296 V
920 -755 V
461 231 V
460 138 V
460 90 V
461 38 V
% End plot #2
% Begin plot #3
stroke
LT2
LCb setrgbcolor
2425 1238 M
[ [(Helvetica) 250.0 0.0 true true 0 (Min)]
] -83.3 MRshow
LT2
2575 1238 M
663 0 V
1685 1890 M
461 -169 V
460 131 V
460 -399 V
461 -88 V
920 -332 V
461 78 V
460 168 V
460 -106 V
461 53 V
% End plot #3
% Begin plot #4
stroke
LT3
LCb setrgbcolor
2425 988 M
[ [(Helvetica) 250.0 0.0 true true 0 (Max)]
] -83.3 MRshow
LT3
2575 988 M
663 0 V
1685 4462 M
461 27 V
460 -102 V
460 20 V
461 -314 V
920 -603 V
461 262 V
460 85 V
460 125 V
461 -20 V
% End plot #4
stroke
LTb
1225 4739 N
0 -3939 V
5524 0 V
0 3939 V
-5524 0 V
Z stroke
1.000 UP
1.000 UL
LTb
stroke
grestore
end
showpage
%%Trailer
%%DocumentFonts: Helvetica
