%!PS-Adobe-2.0 EPSF-2.0
%%Title: n_noise_ratio.time.eps
%%Creator: gnuplot 4.4 patchlevel 3
%%CreationDate: Tue Jun  4 13:11:09 2013
%%DocumentFonts: (atend)
%%BoundingBox: 50 50 410 302
%%EndComments
%%BeginProlog
/gnudict 256 dict def
gnudict begin
%
% The following true/false flags may be edited by hand if desired.
% The unit line width and grayscale image gamma correction may also be changed.
%
/Color true def
/Blacktext false def
/Solid false def
/Dashlength 1 def
/Landscape false def
/Level1 false def
/Rounded false def
/ClipToBoundingBox false def
/TransparentPatterns false def
/gnulinewidth 5.000 def
/userlinewidth gnulinewidth def
/Gamma 1.0 def
%
/vshift -83 def
/dl1 {
  10.0 Dashlength mul mul
  Rounded { currentlinewidth 0.75 mul sub dup 0 le { pop 0.01 } if } if
} def
/dl2 {
  10.0 Dashlength mul mul
  Rounded { currentlinewidth 0.75 mul add } if
} def
/hpt_ 31.5 def
/vpt_ 31.5 def
/hpt hpt_ def
/vpt vpt_ def
Level1 {} {
/SDict 10 dict def
systemdict /pdfmark known not {
  userdict /pdfmark systemdict /cleartomark get put
} if
SDict begin [
  /Title (n_noise_ratio.time.eps)
  /Subject (gnuplot plot)
  /Creator (gnuplot 4.4 patchlevel 3)
  /Author (xjia)
%  /Producer (gnuplot)
%  /Keywords ()
  /CreationDate (Tue Jun  4 13:11:09 2013)
  /DOCINFO pdfmark
end
} ifelse
/doclip {
  ClipToBoundingBox {
    newpath 50 50 moveto 410 50 lineto 410 302 lineto 50 302 lineto closepath
    clip
  } if
} def
%
% Gnuplot Prolog Version 4.4 (August 2010)
%
%/SuppressPDFMark true def
%
/M {moveto} bind def
/L {lineto} bind def
/R {rmoveto} bind def
/V {rlineto} bind def
/N {newpath moveto} bind def
/Z {closepath} bind def
/C {setrgbcolor} bind def
/f {rlineto fill} bind def
/g {setgray} bind def
/Gshow {show} def   % May be redefined later in the file to support UTF-8
/vpt2 vpt 2 mul def
/hpt2 hpt 2 mul def
/Lshow {currentpoint stroke M 0 vshift R 
	Blacktext {gsave 0 setgray show grestore} {show} ifelse} def
/Rshow {currentpoint stroke M dup stringwidth pop neg vshift R
	Blacktext {gsave 0 setgray show grestore} {show} ifelse} def
/Cshow {currentpoint stroke M dup stringwidth pop -2 div vshift R 
	Blacktext {gsave 0 setgray show grestore} {show} ifelse} def
/UP {dup vpt_ mul /vpt exch def hpt_ mul /hpt exch def
  /hpt2 hpt 2 mul def /vpt2 vpt 2 mul def} def
/DL {Color {setrgbcolor Solid {pop []} if 0 setdash}
 {pop pop pop 0 setgray Solid {pop []} if 0 setdash} ifelse} def
/BL {stroke userlinewidth 2 mul setlinewidth
	Rounded {1 setlinejoin 1 setlinecap} if} def
/AL {stroke userlinewidth 2 div setlinewidth
	Rounded {1 setlinejoin 1 setlinecap} if} def
/UL {dup gnulinewidth mul /userlinewidth exch def
	dup 1 lt {pop 1} if 10 mul /udl exch def} def
/PL {stroke userlinewidth setlinewidth
	Rounded {1 setlinejoin 1 setlinecap} if} def
3.8 setmiterlimit
% Default Line colors
/LCw {1 1 1} def
/LCb {0 0 0} def
/LCa {0 0 0} def
/LC0 {1 0 0} def
/LC1 {0 1 0} def
/LC2 {0 0 1} def
/LC3 {1 0 1} def
/LC4 {0 1 1} def
/LC5 {1 1 0} def
/LC6 {0 0 0} def
/LC7 {1 0.3 0} def
/LC8 {0.5 0.5 0.5} def
% Default Line Types
/LTw {PL [] 1 setgray} def
/LTb {BL [] LCb DL} def
/LTa {AL [1 udl mul 2 udl mul] 0 setdash LCa setrgbcolor} def
/LT0 {PL [] LC0 DL} def
/LT1 {PL [4 dl1 2 dl2] LC1 DL} def
/LT2 {PL [2 dl1 3 dl2] LC2 DL} def
/LT3 {PL [1 dl1 1.5 dl2] LC3 DL} def
/LT4 {PL [6 dl1 2 dl2 1 dl1 2 dl2] LC4 DL} def
/LT5 {PL [3 dl1 3 dl2 1 dl1 3 dl2] LC5 DL} def
/LT6 {PL [2 dl1 2 dl2 2 dl1 6 dl2] LC6 DL} def
/LT7 {PL [1 dl1 2 dl2 6 dl1 2 dl2 1 dl1 2 dl2] LC7 DL} def
/LT8 {PL [2 dl1 2 dl2 2 dl1 2 dl2 2 dl1 2 dl2 2 dl1 4 dl2] LC8 DL} def
/Pnt {stroke [] 0 setdash gsave 1 setlinecap M 0 0 V stroke grestore} def
/Dia {stroke [] 0 setdash 2 copy vpt add M
  hpt neg vpt neg V hpt vpt neg V
  hpt vpt V hpt neg vpt V closepath stroke
  Pnt} def
/Pls {stroke [] 0 setdash vpt sub M 0 vpt2 V
  currentpoint stroke M
  hpt neg vpt neg R hpt2 0 V stroke
 } def
/Box {stroke [] 0 setdash 2 copy exch hpt sub exch vpt add M
  0 vpt2 neg V hpt2 0 V 0 vpt2 V
  hpt2 neg 0 V closepath stroke
  Pnt} def
/Crs {stroke [] 0 setdash exch hpt sub exch vpt add M
  hpt2 vpt2 neg V currentpoint stroke M
  hpt2 neg 0 R hpt2 vpt2 V stroke} def
/TriU {stroke [] 0 setdash 2 copy vpt 1.12 mul add M
  hpt neg vpt -1.62 mul V
  hpt 2 mul 0 V
  hpt neg vpt 1.62 mul V closepath stroke
  Pnt} def
/Star {2 copy Pls Crs} def
/BoxF {stroke [] 0 setdash exch hpt sub exch vpt add M
  0 vpt2 neg V hpt2 0 V 0 vpt2 V
  hpt2 neg 0 V closepath fill} def
/TriUF {stroke [] 0 setdash vpt 1.12 mul add M
  hpt neg vpt -1.62 mul V
  hpt 2 mul 0 V
  hpt neg vpt 1.62 mul V closepath fill} def
/TriD {stroke [] 0 setdash 2 copy vpt 1.12 mul sub M
  hpt neg vpt 1.62 mul V
  hpt 2 mul 0 V
  hpt neg vpt -1.62 mul V closepath stroke
  Pnt} def
/TriDF {stroke [] 0 setdash vpt 1.12 mul sub M
  hpt neg vpt 1.62 mul V
  hpt 2 mul 0 V
  hpt neg vpt -1.62 mul V closepath fill} def
/DiaF {stroke [] 0 setdash vpt add M
  hpt neg vpt neg V hpt vpt neg V
  hpt vpt V hpt neg vpt V closepath fill} def
/Pent {stroke [] 0 setdash 2 copy gsave
  translate 0 hpt M 4 {72 rotate 0 hpt L} repeat
  closepath stroke grestore Pnt} def
/PentF {stroke [] 0 setdash gsave
  translate 0 hpt M 4 {72 rotate 0 hpt L} repeat
  closepath fill grestore} def
/Circle {stroke [] 0 setdash 2 copy
  hpt 0 360 arc stroke Pnt} def
/CircleF {stroke [] 0 setdash hpt 0 360 arc fill} def
/C0 {BL [] 0 setdash 2 copy moveto vpt 90 450 arc} bind def
/C1 {BL [] 0 setdash 2 copy moveto
	2 copy vpt 0 90 arc closepath fill
	vpt 0 360 arc closepath} bind def
/C2 {BL [] 0 setdash 2 copy moveto
	2 copy vpt 90 180 arc closepath fill
	vpt 0 360 arc closepath} bind def
/C3 {BL [] 0 setdash 2 copy moveto
	2 copy vpt 0 180 arc closepath fill
	vpt 0 360 arc closepath} bind def
/C4 {BL [] 0 setdash 2 copy moveto
	2 copy vpt 180 270 arc closepath fill
	vpt 0 360 arc closepath} bind def
/C5 {BL [] 0 setdash 2 copy moveto
	2 copy vpt 0 90 arc
	2 copy moveto
	2 copy vpt 180 270 arc closepath fill
	vpt 0 360 arc} bind def
/C6 {BL [] 0 setdash 2 copy moveto
	2 copy vpt 90 270 arc closepath fill
	vpt 0 360 arc closepath} bind def
/C7 {BL [] 0 setdash 2 copy moveto
	2 copy vpt 0 270 arc closepath fill
	vpt 0 360 arc closepath} bind def
/C8 {BL [] 0 setdash 2 copy moveto
	2 copy vpt 270 360 arc closepath fill
	vpt 0 360 arc closepath} bind def
/C9 {BL [] 0 setdash 2 copy moveto
	2 copy vpt 270 450 arc closepath fill
	vpt 0 360 arc closepath} bind def
/C10 {BL [] 0 setdash 2 copy 2 copy moveto vpt 270 360 arc closepath fill
	2 copy moveto
	2 copy vpt 90 180 arc closepath fill
	vpt 0 360 arc closepath} bind def
/C11 {BL [] 0 setdash 2 copy moveto
	2 copy vpt 0 180 arc closepath fill
	2 copy moveto
	2 copy vpt 270 360 arc closepath fill
	vpt 0 360 arc closepath} bind def
/C12 {BL [] 0 setdash 2 copy moveto
	2 copy vpt 180 360 arc closepath fill
	vpt 0 360 arc closepath} bind def
/C13 {BL [] 0 setdash 2 copy moveto
	2 copy vpt 0 90 arc closepath fill
	2 copy moveto
	2 copy vpt 180 360 arc closepath fill
	vpt 0 360 arc closepath} bind def
/C14 {BL [] 0 setdash 2 copy moveto
	2 copy vpt 90 360 arc closepath fill
	vpt 0 360 arc} bind def
/C15 {BL [] 0 setdash 2 copy vpt 0 360 arc closepath fill
	vpt 0 360 arc closepath} bind def
/Rec {newpath 4 2 roll moveto 1 index 0 rlineto 0 exch rlineto
	neg 0 rlineto closepath} bind def
/Square {dup Rec} bind def
/Bsquare {vpt sub exch vpt sub exch vpt2 Square} bind def
/S0 {BL [] 0 setdash 2 copy moveto 0 vpt rlineto BL Bsquare} bind def
/S1 {BL [] 0 setdash 2 copy vpt Square fill Bsquare} bind def
/S2 {BL [] 0 setdash 2 copy exch vpt sub exch vpt Square fill Bsquare} bind def
/S3 {BL [] 0 setdash 2 copy exch vpt sub exch vpt2 vpt Rec fill Bsquare} bind def
/S4 {BL [] 0 setdash 2 copy exch vpt sub exch vpt sub vpt Square fill Bsquare} bind def
/S5 {BL [] 0 setdash 2 copy 2 copy vpt Square fill
	exch vpt sub exch vpt sub vpt Square fill Bsquare} bind def
/S6 {BL [] 0 setdash 2 copy exch vpt sub exch vpt sub vpt vpt2 Rec fill Bsquare} bind def
/S7 {BL [] 0 setdash 2 copy exch vpt sub exch vpt sub vpt vpt2 Rec fill
	2 copy vpt Square fill Bsquare} bind def
/S8 {BL [] 0 setdash 2 copy vpt sub vpt Square fill Bsquare} bind def
/S9 {BL [] 0 setdash 2 copy vpt sub vpt vpt2 Rec fill Bsquare} bind def
/S10 {BL [] 0 setdash 2 copy vpt sub vpt Square fill 2 copy exch vpt sub exch vpt Square fill
	Bsquare} bind def
/S11 {BL [] 0 setdash 2 copy vpt sub vpt Square fill 2 copy exch vpt sub exch vpt2 vpt Rec fill
	Bsquare} bind def
/S12 {BL [] 0 setdash 2 copy exch vpt sub exch vpt sub vpt2 vpt Rec fill Bsquare} bind def
/S13 {BL [] 0 setdash 2 copy exch vpt sub exch vpt sub vpt2 vpt Rec fill
	2 copy vpt Square fill Bsquare} bind def
/S14 {BL [] 0 setdash 2 copy exch vpt sub exch vpt sub vpt2 vpt Rec fill
	2 copy exch vpt sub exch vpt Square fill Bsquare} bind def
/S15 {BL [] 0 setdash 2 copy Bsquare fill Bsquare} bind def
/D0 {gsave translate 45 rotate 0 0 S0 stroke grestore} bind def
/D1 {gsave translate 45 rotate 0 0 S1 stroke grestore} bind def
/D2 {gsave translate 45 rotate 0 0 S2 stroke grestore} bind def
/D3 {gsave translate 45 rotate 0 0 S3 stroke grestore} bind def
/D4 {gsave translate 45 rotate 0 0 S4 stroke grestore} bind def
/D5 {gsave translate 45 rotate 0 0 S5 stroke grestore} bind def
/D6 {gsave translate 45 rotate 0 0 S6 stroke grestore} bind def
/D7 {gsave translate 45 rotate 0 0 S7 stroke grestore} bind def
/D8 {gsave translate 45 rotate 0 0 S8 stroke grestore} bind def
/D9 {gsave translate 45 rotate 0 0 S9 stroke grestore} bind def
/D10 {gsave translate 45 rotate 0 0 S10 stroke grestore} bind def
/D11 {gsave translate 45 rotate 0 0 S11 stroke grestore} bind def
/D12 {gsave translate 45 rotate 0 0 S12 stroke grestore} bind def
/D13 {gsave translate 45 rotate 0 0 S13 stroke grestore} bind def
/D14 {gsave translate 45 rotate 0 0 S14 stroke grestore} bind def
/D15 {gsave translate 45 rotate 0 0 S15 stroke grestore} bind def
/DiaE {stroke [] 0 setdash vpt add M
  hpt neg vpt neg V hpt vpt neg V
  hpt vpt V hpt neg vpt V closepath stroke} def
/BoxE {stroke [] 0 setdash exch hpt sub exch vpt add M
  0 vpt2 neg V hpt2 0 V 0 vpt2 V
  hpt2 neg 0 V closepath stroke} def
/TriUE {stroke [] 0 setdash vpt 1.12 mul add M
  hpt neg vpt -1.62 mul V
  hpt 2 mul 0 V
  hpt neg vpt 1.62 mul V closepath stroke} def
/TriDE {stroke [] 0 setdash vpt 1.12 mul sub M
  hpt neg vpt 1.62 mul V
  hpt 2 mul 0 V
  hpt neg vpt -1.62 mul V closepath stroke} def
/PentE {stroke [] 0 setdash gsave
  translate 0 hpt M 4 {72 rotate 0 hpt L} repeat
  closepath stroke grestore} def
/CircE {stroke [] 0 setdash 
  hpt 0 360 arc stroke} def
/Opaque {gsave closepath 1 setgray fill grestore 0 setgray closepath} def
/DiaW {stroke [] 0 setdash vpt add M
  hpt neg vpt neg V hpt vpt neg V
  hpt vpt V hpt neg vpt V Opaque stroke} def
/BoxW {stroke [] 0 setdash exch hpt sub exch vpt add M
  0 vpt2 neg V hpt2 0 V 0 vpt2 V
  hpt2 neg 0 V Opaque stroke} def
/TriUW {stroke [] 0 setdash vpt 1.12 mul add M
  hpt neg vpt -1.62 mul V
  hpt 2 mul 0 V
  hpt neg vpt 1.62 mul V Opaque stroke} def
/TriDW {stroke [] 0 setdash vpt 1.12 mul sub M
  hpt neg vpt 1.62 mul V
  hpt 2 mul 0 V
  hpt neg vpt -1.62 mul V Opaque stroke} def
/PentW {stroke [] 0 setdash gsave
  translate 0 hpt M 4 {72 rotate 0 hpt L} repeat
  Opaque stroke grestore} def
/CircW {stroke [] 0 setdash 
  hpt 0 360 arc Opaque stroke} def
/BoxFill {gsave Rec 1 setgray fill grestore} def
/Density {
  /Fillden exch def
  currentrgbcolor
  /ColB exch def /ColG exch def /ColR exch def
  /ColR ColR Fillden mul Fillden sub 1 add def
  /ColG ColG Fillden mul Fillden sub 1 add def
  /ColB ColB Fillden mul Fillden sub 1 add def
  ColR ColG ColB setrgbcolor} def
/BoxColFill {gsave Rec PolyFill} def
/PolyFill {gsave Density fill grestore grestore} def
/h {rlineto rlineto rlineto gsave closepath fill grestore} bind def
%
% PostScript Level 1 Pattern Fill routine for rectangles
% Usage: x y w h s a XX PatternFill
%	x,y = lower left corner of box to be filled
%	w,h = width and height of box
%	  a = angle in degrees between lines and x-axis
%	 XX = 0/1 for no/yes cross-hatch
%
/PatternFill {gsave /PFa [ 9 2 roll ] def
  PFa 0 get PFa 2 get 2 div add PFa 1 get PFa 3 get 2 div add translate
  PFa 2 get -2 div PFa 3 get -2 div PFa 2 get PFa 3 get Rec
  gsave 1 setgray fill grestore clip
  currentlinewidth 0.5 mul setlinewidth
  /PFs PFa 2 get dup mul PFa 3 get dup mul add sqrt def
  0 0 M PFa 5 get rotate PFs -2 div dup translate
  0 1 PFs PFa 4 get div 1 add floor cvi
	{PFa 4 get mul 0 M 0 PFs V} for
  0 PFa 6 get ne {
	0 1 PFs PFa 4 get div 1 add floor cvi
	{PFa 4 get mul 0 2 1 roll M PFs 0 V} for
 } if
  stroke grestore} def
%
/languagelevel where
 {pop languagelevel} {1} ifelse
 2 lt
	{/InterpretLevel1 true def}
	{/InterpretLevel1 Level1 def}
 ifelse
%
% PostScript level 2 pattern fill definitions
%
/Level2PatternFill {
/Tile8x8 {/PaintType 2 /PatternType 1 /TilingType 1 /BBox [0 0 8 8] /XStep 8 /YStep 8}
	bind def
/KeepColor {currentrgbcolor [/Pattern /DeviceRGB] setcolorspace} bind def
<< Tile8x8
 /PaintProc {0.5 setlinewidth pop 0 0 M 8 8 L 0 8 M 8 0 L stroke} 
>> matrix makepattern
/Pat1 exch def
<< Tile8x8
 /PaintProc {0.5 setlinewidth pop 0 0 M 8 8 L 0 8 M 8 0 L stroke
	0 4 M 4 8 L 8 4 L 4 0 L 0 4 L stroke}
>> matrix makepattern
/Pat2 exch def
<< Tile8x8
 /PaintProc {0.5 setlinewidth pop 0 0 M 0 8 L
	8 8 L 8 0 L 0 0 L fill}
>> matrix makepattern
/Pat3 exch def
<< Tile8x8
 /PaintProc {0.5 setlinewidth pop -4 8 M 8 -4 L
	0 12 M 12 0 L stroke}
>> matrix makepattern
/Pat4 exch def
<< Tile8x8
 /PaintProc {0.5 setlinewidth pop -4 0 M 8 12 L
	0 -4 M 12 8 L stroke}
>> matrix makepattern
/Pat5 exch def
<< Tile8x8
 /PaintProc {0.5 setlinewidth pop -2 8 M 4 -4 L
	0 12 M 8 -4 L 4 12 M 10 0 L stroke}
>> matrix makepattern
/Pat6 exch def
<< Tile8x8
 /PaintProc {0.5 setlinewidth pop -2 0 M 4 12 L
	0 -4 M 8 12 L 4 -4 M 10 8 L stroke}
>> matrix makepattern
/Pat7 exch def
<< Tile8x8
 /PaintProc {0.5 setlinewidth pop 8 -2 M -4 4 L
	12 0 M -4 8 L 12 4 M 0 10 L stroke}
>> matrix makepattern
/Pat8 exch def
<< Tile8x8
 /PaintProc {0.5 setlinewidth pop 0 -2 M 12 4 L
	-4 0 M 12 8 L -4 4 M 8 10 L stroke}
>> matrix makepattern
/Pat9 exch def
/Pattern1 {PatternBgnd KeepColor Pat1 setpattern} bind def
/Pattern2 {PatternBgnd KeepColor Pat2 setpattern} bind def
/Pattern3 {PatternBgnd KeepColor Pat3 setpattern} bind def
/Pattern4 {PatternBgnd KeepColor Landscape {Pat5} {Pat4} ifelse setpattern} bind def
/Pattern5 {PatternBgnd KeepColor Landscape {Pat4} {Pat5} ifelse setpattern} bind def
/Pattern6 {PatternBgnd KeepColor Landscape {Pat9} {Pat6} ifelse setpattern} bind def
/Pattern7 {PatternBgnd KeepColor Landscape {Pat8} {Pat7} ifelse setpattern} bind def
} def
%
%
%End of PostScript Level 2 code
%
/PatternBgnd {
  TransparentPatterns {} {gsave 1 setgray fill grestore} ifelse
} def
%
% Substitute for Level 2 pattern fill codes with
% grayscale if Level 2 support is not selected.
%
/Level1PatternFill {
/Pattern1 {0.250 Density} bind def
/Pattern2 {0.500 Density} bind def
/Pattern3 {0.750 Density} bind def
/Pattern4 {0.125 Density} bind def
/Pattern5 {0.375 Density} bind def
/Pattern6 {0.625 Density} bind def
/Pattern7 {0.875 Density} bind def
} def
%
% Now test for support of Level 2 code
%
Level1 {Level1PatternFill} {Level2PatternFill} ifelse
%
/Symbol-Oblique /Symbol findfont [1 0 .167 1 0 0] makefont
dup length dict begin {1 index /FID eq {pop pop} {def} ifelse} forall
currentdict end definefont pop
/MFshow {
   { dup 5 get 3 ge
     { 5 get 3 eq {gsave} {grestore} ifelse }
     {dup dup 0 get findfont exch 1 get scalefont setfont
     [ currentpoint ] exch dup 2 get 0 exch R dup 5 get 2 ne {dup dup 6
     get exch 4 get {Gshow} {stringwidth pop 0 R} ifelse }if dup 5 get 0 eq
     {dup 3 get {2 get neg 0 exch R pop} {pop aload pop M} ifelse} {dup 5
     get 1 eq {dup 2 get exch dup 3 get exch 6 get stringwidth pop -2 div
     dup 0 R} {dup 6 get stringwidth pop -2 div 0 R 6 get
     show 2 index {aload pop M neg 3 -1 roll neg R pop pop} {pop pop pop
     pop aload pop M} ifelse }ifelse }ifelse }
     ifelse }
   forall} def
/Gswidth {dup type /stringtype eq {stringwidth} {pop (n) stringwidth} ifelse} def
/MFwidth {0 exch { dup 5 get 3 ge { 5 get 3 eq { 0 } { pop } ifelse }
 {dup 3 get{dup dup 0 get findfont exch 1 get scalefont setfont
     6 get Gswidth pop add} {pop} ifelse} ifelse} forall} def
/MLshow { currentpoint stroke M
  0 exch R
  Blacktext {gsave 0 setgray MFshow grestore} {MFshow} ifelse } bind def
/MRshow { currentpoint stroke M
  exch dup MFwidth neg 3 -1 roll R
  Blacktext {gsave 0 setgray MFshow grestore} {MFshow} ifelse } bind def
/MCshow { currentpoint stroke M
  exch dup MFwidth -2 div 3 -1 roll R
  Blacktext {gsave 0 setgray MFshow grestore} {MFshow} ifelse } bind def
/XYsave    { [( ) 1 2 true false 3 ()] } bind def
/XYrestore { [( ) 1 2 true false 4 ()] } bind def
end
%%EndProlog
gnudict begin
gsave
doclip
50 50 translate
0.050 0.050 scale
0 setgray
newpath
(Helvetica) findfont 250 scalefont setfont
1.000 UL
LTb
1225 800 M
63 0 V
5461 0 R
-63 0 V
stroke
1075 800 M
[ [(Helvetica) 250.0 0.0 true true 0 ( 0)]
] -83.3 MRshow
1.000 UL
LTb
1225 1588 M
63 0 V
5461 0 R
-63 0 V
stroke
1075 1588 M
[ [(Helvetica) 250.0 0.0 true true 0 ( 0.5)]
] -83.3 MRshow
1.000 UL
LTb
1225 2376 M
63 0 V
5461 0 R
-63 0 V
stroke
1075 2376 M
[ [(Helvetica) 250.0 0.0 true true 0 ( 1)]
] -83.3 MRshow
1.000 UL
LTb
1225 3163 M
63 0 V
5461 0 R
-63 0 V
stroke
1075 3163 M
[ [(Helvetica) 250.0 0.0 true true 0 ( 1.5)]
] -83.3 MRshow
1.000 UL
LTb
1225 3951 M
63 0 V
5461 0 R
-63 0 V
stroke
1075 3951 M
[ [(Helvetica) 250.0 0.0 true true 0 ( 2)]
] -83.3 MRshow
1.000 UL
LTb
1225 4739 M
63 0 V
5461 0 R
-63 0 V
stroke
1075 4739 M
[ [(Helvetica) 250.0 0.0 true true 0 ( 2.5)]
] -83.3 MRshow
1.000 UL
LTb
1225 800 M
0 63 V
0 3876 R
0 -63 V
stroke
1225 550 M
[ [(Helvetica) 250.0 0.0 true true 0 (-0.6)]
] -83.3 MCshow
1.000 UL
LTb
2146 800 M
0 63 V
0 3876 R
0 -63 V
stroke
2146 550 M
[ [(Helvetica) 250.0 0.0 true true 0 (-0.4)]
] -83.3 MCshow
1.000 UL
LTb
3066 800 M
0 63 V
0 3876 R
0 -63 V
stroke
3066 550 M
[ [(Helvetica) 250.0 0.0 true true 0 (-0.2)]
] -83.3 MCshow
1.000 UL
LTb
3987 800 M
0 63 V
0 3876 R
0 -63 V
stroke
3987 550 M
[ [(Helvetica) 250.0 0.0 true true 0 ( 0)]
] -83.3 MCshow
1.000 UL
LTb
4908 800 M
0 63 V
0 3876 R
0 -63 V
stroke
4908 550 M
[ [(Helvetica) 250.0 0.0 true true 0 ( 0.2)]
] -83.3 MCshow
1.000 UL
LTb
5828 800 M
0 63 V
0 3876 R
0 -63 V
stroke
5828 550 M
[ [(Helvetica) 250.0 0.0 true true 0 ( 0.4)]
] -83.3 MCshow
1.000 UL
LTb
6749 800 M
0 63 V
0 3876 R
0 -63 V
stroke
6749 550 M
[ [(Helvetica) 250.0 0.0 true true 0 ( 0.6)]
] -83.3 MCshow
1.000 UL
LTb
1.000 UL
LTb
1225 4739 N
0 -3939 V
5524 0 V
0 3939 V
-5524 0 V
Z stroke
LCb setrgbcolor
200 2769 M
currentpoint gsave translate -270 rotate 0 0 moveto
[ [(Helvetica) 250.0 0.0 true true 0 (Time \(sec\))]
] -83.3 MCshow
grestore
LTb
LCb setrgbcolor
3987 175 M
[ [(Helvetica) 250.0 0.0 true true 0 (Noise Ratio)]
] -83.3 MCshow
LTb
1.000 UP
1.000 UL
LTb
% Begin plot #1
1.000 UP
1.000 UL
LT0
1685 801 Pls
1685 802 Pls
1685 802 Pls
1685 802 Pls
2146 801 Pls
2146 801 Pls
2146 802 Pls
2146 802 Pls
2606 801 Pls
2606 801 Pls
2606 801 Pls
2606 801 Pls
3066 801 Pls
3066 801 Pls
3066 801 Pls
3066 801 Pls
3527 800 Pls
3527 800 Pls
3527 800 Pls
3527 800 Pls
4447 801 Pls
4447 801 Pls
4447 801 Pls
4447 801 Pls
4908 801 Pls
4908 801 Pls
4908 801 Pls
4908 801 Pls
5368 801 Pls
5368 801 Pls
5368 802 Pls
5368 802 Pls
5828 802 Pls
5828 802 Pls
5828 802 Pls
5828 802 Pls
6289 802 Pls
6289 803 Pls
6289 803 Pls
6289 803 Pls
1685 813 Pls
1685 813 Pls
1685 817 Pls
1685 818 Pls
2146 809 Pls
2146 812 Pls
2146 811 Pls
2146 815 Pls
2606 808 Pls
2606 811 Pls
2606 807 Pls
2606 809 Pls
3066 807 Pls
3066 806 Pls
3066 808 Pls
3066 807 Pls
3527 804 Pls
3527 805 Pls
3527 804 Pls
3527 804 Pls
4447 809 Pls
4447 809 Pls
4447 809 Pls
4447 811 Pls
4908 813 Pls
4908 815 Pls
4908 817 Pls
4908 818 Pls
5368 823 Pls
5368 823 Pls
5368 825 Pls
5368 827 Pls
5828 829 Pls
5828 832 Pls
5828 832 Pls
5828 834 Pls
6289 840 Pls
6289 839 Pls
6289 844 Pls
6289 844 Pls
1685 852 Pls
1685 856 Pls
1685 862 Pls
1685 853 Pls
2146 837 Pls
2146 836 Pls
2146 841 Pls
2146 838 Pls
2606 826 Pls
2606 841 Pls
2606 837 Pls
2606 827 Pls
3066 823 Pls
3066 828 Pls
3066 829 Pls
3066 820 Pls
3527 813 Pls
3527 818 Pls
3527 818 Pls
3527 820 Pls
4447 845 Pls
4447 843 Pls
4447 849 Pls
4447 854 Pls
4908 880 Pls
4908 874 Pls
4908 880 Pls
4908 883 Pls
5368 911 Pls
5368 911 Pls
5368 925 Pls
5368 916 Pls
5828 962 Pls
5828 965 Pls
5828 967 Pls
5828 970 Pls
6289 986 Pls
6289 995 Pls
6289 984 Pls
6289 1026 Pls
1685 918 Pls
1685 979 Pls
1685 1005 Pls
1685 1003 Pls
2146 936 Pls
2146 937 Pls
2146 928 Pls
2146 948 Pls
2606 864 Pls
2606 902 Pls
2606 916 Pls
2606 929 Pls
3066 865 Pls
3066 873 Pls
3066 870 Pls
3066 870 Pls
3527 840 Pls
3527 840 Pls
3527 833 Pls
3527 858 Pls
4447 962 Pls
4447 952 Pls
4447 963 Pls
4447 946 Pls
4908 1084 Pls
4908 1092 Pls
4908 1078 Pls
4908 1089 Pls
5368 1183 Pls
5368 1237 Pls
5368 1192 Pls
5368 1281 Pls
5828 1399 Pls
5828 1350 Pls
5828 1355 Pls
5828 1454 Pls
6289 1447 Pls
6289 1553 Pls
6289 1615 Pls
6289 1469 Pls
1685 1073 Pls
1685 1164 Pls
1685 1225 Pls
1685 1190 Pls
2146 1013 Pls
2146 1105 Pls
2146 1086 Pls
2146 1129 Pls
2606 979 Pls
2606 1028 Pls
2606 1100 Pls
2606 1036 Pls
3066 1027 Pls
3066 934 Pls
3066 1013 Pls
3066 1009 Pls
3527 894 Pls
3527 948 Pls
3527 907 Pls
3527 905 Pls
4447 1346 Pls
4447 1332 Pls
4447 1430 Pls
4447 1347 Pls
4908 1712 Pls
4908 1804 Pls
4908 1838 Pls
4908 1965 Pls
5368 2077 Pls
5368 2612 Pls
5368 2374 Pls
5368 2693 Pls
5828 3413 Pls
5828 3318 Pls
5828 3232 Pls
5828 3097 Pls
6289 3769 Pls
6289 4080 Pls
6289 4198 Pls
6289 4330 Pls
1685 801 Pls
1685 801 Pls
1685 802 Pls
1685 802 Pls
2146 801 Pls
2146 801 Pls
2146 802 Pls
2146 802 Pls
2606 801 Pls
2606 801 Pls
2606 801 Pls
2606 801 Pls
3066 800 Pls
3066 801 Pls
3066 801 Pls
3066 801 Pls
3527 800 Pls
3527 800 Pls
3527 800 Pls
3527 800 Pls
4447 801 Pls
4447 801 Pls
4447 801 Pls
4447 801 Pls
4908 801 Pls
4908 801 Pls
4908 801 Pls
4908 801 Pls
5368 801 Pls
5368 802 Pls
5368 802 Pls
5368 802 Pls
5828 802 Pls
5828 802 Pls
5828 802 Pls
5828 802 Pls
6289 802 Pls
6289 802 Pls
6289 803 Pls
6289 803 Pls
1685 815 Pls
1685 814 Pls
1685 811 Pls
1685 819 Pls
2146 810 Pls
2146 812 Pls
2146 813 Pls
2146 810 Pls
2606 809 Pls
2606 808 Pls
2606 810 Pls
2606 811 Pls
3066 808 Pls
3066 806 Pls
3066 805 Pls
3066 807 Pls
3527 805 Pls
3527 804 Pls
3527 805 Pls
3527 806 Pls
4447 809 Pls
4447 809 Pls
4447 811 Pls
4447 811 Pls
4908 815 Pls
4908 818 Pls
4908 818 Pls
4908 820 Pls
5368 825 Pls
5368 826 Pls
5368 824 Pls
5368 826 Pls
5828 827 Pls
5828 832 Pls
5828 834 Pls
5828 837 Pls
6289 838 Pls
6289 842 Pls
6289 844 Pls
6289 845 Pls
1685 852 Pls
1685 848 Pls
1685 860 Pls
1685 869 Pls
2146 839 Pls
2146 843 Pls
2146 842 Pls
2146 853 Pls
2606 829 Pls
2606 837 Pls
2606 827 Pls
2606 840 Pls
3066 824 Pls
3066 824 Pls
3066 830 Pls
3066 832 Pls
3527 815 Pls
3527 819 Pls
3527 822 Pls
3527 817 Pls
4447 837 Pls
4447 842 Pls
4447 847 Pls
4447 849 Pls
4908 867 Pls
4908 881 Pls
4908 870 Pls
4908 885 Pls
5368 917 Pls
5368 908 Pls
5368 916 Pls
5368 928 Pls
5828 943 Pls
5828 943 Pls
5828 972 Pls
5828 960 Pls
6289 980 Pls
6289 992 Pls
6289 990 Pls
6289 1026 Pls
1685 932 Pls
1685 939 Pls
1685 976 Pls
1685 974 Pls
2146 900 Pls
2146 937 Pls
2146 923 Pls
2146 949 Pls
2606 879 Pls
2606 895 Pls
2606 902 Pls
2606 912 Pls
3066 875 Pls
3066 863 Pls
3066 880 Pls
3066 884 Pls
3527 847 Pls
3527 849 Pls
3527 840 Pls
3527 841 Pls
4447 940 Pls
4447 975 Pls
4447 965 Pls
4447 972 Pls
4908 1063 Pls
4908 1094 Pls
4908 1101 Pls
4908 1113 Pls
5368 1213 Pls
5368 1226 Pls
5368 1212 Pls
5368 1258 Pls
5828 1324 Pls
5828 1399 Pls
5828 1436 Pls
5828 1378 Pls
6289 1592 Pls
6289 1625 Pls
6289 1560 Pls
6289 1517 Pls
1685 1126 Pls
1685 1091 Pls
1685 1121 Pls
1685 1253 Pls
2146 1020 Pls
2146 1047 Pls
2146 1130 Pls
2146 1122 Pls
2606 1005 Pls
2606 1033 Pls
2606 1059 Pls
2606 1096 Pls
3066 978 Pls
3066 967 Pls
3066 956 Pls
3066 1058 Pls
3527 900 Pls
3527 943 Pls
3527 922 Pls
3527 942 Pls
4447 1378 Pls
4447 1429 Pls
4447 1450 Pls
4447 1399 Pls
4908 2101 Pls
4908 1928 Pls
4908 2039 Pls
4908 1995 Pls
5368 2618 Pls
5368 2463 Pls
5368 2491 Pls
5368 2504 Pls
5828 3541 Pls
5828 3002 Pls
5828 3043 Pls
5828 3476 Pls
6289 3354 Pls
6289 3923 Pls
6289 4037 Pls
6289 4104 Pls
1685 803 Pls
1685 801 Pls
1685 801 Pls
1685 802 Pls
2146 801 Pls
2146 801 Pls
2146 802 Pls
2146 801 Pls
2606 801 Pls
2606 801 Pls
2606 801 Pls
2606 801 Pls
3066 801 Pls
3066 801 Pls
3066 801 Pls
3066 801 Pls
3527 800 Pls
3527 800 Pls
3527 800 Pls
3527 800 Pls
4447 801 Pls
4447 801 Pls
4447 801 Pls
4447 801 Pls
4908 801 Pls
4908 801 Pls
4908 801 Pls
4908 801 Pls
5368 801 Pls
5368 801 Pls
5368 802 Pls
5368 802 Pls
5828 802 Pls
5828 802 Pls
5828 802 Pls
5828 802 Pls
6289 802 Pls
6289 802 Pls
6289 802 Pls
6289 803 Pls
1685 813 Pls
1685 814 Pls
1685 817 Pls
1685 819 Pls
2146 809 Pls
2146 811 Pls
2146 810 Pls
2146 815 Pls
2606 808 Pls
2606 809 Pls
2606 810 Pls
2606 812 Pls
3066 805 Pls
3066 806 Pls
3066 806 Pls
3066 808 Pls
3527 805 Pls
3527 805 Pls
3527 804 Pls
3527 805 Pls
4447 809 Pls
4447 809 Pls
4447 809 Pls
4447 811 Pls
4908 816 Pls
4908 817 Pls
4908 818 Pls
4908 819 Pls
5368 823 Pls
5368 828 Pls
5368 824 Pls
5368 827 Pls
5828 830 Pls
5828 832 Pls
5828 835 Pls
5828 833 Pls
6289 843 Pls
6289 845 Pls
6289 844 Pls
6289 842 Pls
1685 840 Pls
1685 853 Pls
1685 854 Pls
1685 866 Pls
2146 835 Pls
2146 845 Pls
2146 844 Pls
2146 847 Pls
2606 834 Pls
2606 832 Pls
2606 844 Pls
2606 831 Pls
3066 829 Pls
3066 819 Pls
3066 827 Pls
3066 834 Pls
3527 816 Pls
3527 818 Pls
3527 815 Pls
3527 817 Pls
4447 844 Pls
4447 848 Pls
4447 853 Pls
4447 845 Pls
4908 882 Pls
4908 883 Pls
4908 882 Pls
4908 886 Pls
5368 912 Pls
5368 919 Pls
5368 917 Pls
5368 915 Pls
5828 971 Pls
5828 962 Pls
5828 951 Pls
5828 973 Pls
6289 991 Pls
6289 996 Pls
6289 1001 Pls
6289 1027 Pls
1685 952 Pls
1685 946 Pls
1685 988 Pls
1685 978 Pls
2146 925 Pls
2146 926 Pls
2146 927 Pls
2146 956 Pls
2606 872 Pls
2606 894 Pls
2606 913 Pls
2606 902 Pls
3066 865 Pls
3066 883 Pls
3066 867 Pls
3066 861 Pls
3527 847 Pls
3527 844 Pls
3527 854 Pls
3527 864 Pls
4447 961 Pls
4447 952 Pls
4447 953 Pls
4447 958 Pls
4908 1099 Pls
4908 1080 Pls
4908 1050 Pls
4908 1111 Pls
5368 1202 Pls
5368 1198 Pls
5368 1197 Pls
5368 1265 Pls
5828 1334 Pls
5828 1400 Pls
5828 1404 Pls
5828 1462 Pls
6289 1457 Pls
6289 1449 Pls
6289 1583 Pls
6289 1593 Pls
1685 1120 Pls
1685 1112 Pls
1685 1208 Pls
1685 1225 Pls
2146 1037 Pls
2146 1190 Pls
2146 1129 Pls
2146 1234 Pls
2606 981 Pls
2606 1040 Pls
2606 1011 Pls
2606 1111 Pls
3066 952 Pls
3066 973 Pls
3066 960 Pls
3066 983 Pls
3527 898 Pls
3527 920 Pls
3527 902 Pls
3527 911 Pls
4447 1419 Pls
4447 1282 Pls
4447 1464 Pls
4447 1435 Pls
4908 1867 Pls
4908 1938 Pls
4908 1838 Pls
4908 2101 Pls
5368 2385 Pls
5368 2399 Pls
5368 2731 Pls
5368 2708 Pls
5828 3278 Pls
5828 3041 Pls
5828 3232 Pls
5828 3489 Pls
6289 3790 Pls
6289 3962 Pls
6289 3500 Pls
6289 3923 Pls
1685 801 Pls
1685 801 Pls
1685 802 Pls
1685 802 Pls
2146 801 Pls
2146 801 Pls
2146 801 Pls
2146 801 Pls
2606 801 Pls
2606 801 Pls
2606 801 Pls
2606 801 Pls
3066 800 Pls
3066 801 Pls
3066 801 Pls
3066 801 Pls
3527 800 Pls
3527 800 Pls
3527 800 Pls
3527 800 Pls
4447 801 Pls
4447 801 Pls
4447 801 Pls
4447 801 Pls
4908 801 Pls
4908 801 Pls
4908 801 Pls
4908 801 Pls
5368 801 Pls
5368 802 Pls
5368 802 Pls
5368 802 Pls
5828 802 Pls
5828 802 Pls
5828 802 Pls
5828 802 Pls
6289 802 Pls
6289 803 Pls
6289 803 Pls
6289 803 Pls
1685 816 Pls
1685 811 Pls
1685 816 Pls
1685 817 Pls
2146 811 Pls
2146 811 Pls
2146 816 Pls
2146 813 Pls
2606 808 Pls
2606 808 Pls
2606 808 Pls
2606 810 Pls
3066 807 Pls
3066 805 Pls
3066 809 Pls
3066 807 Pls
3527 805 Pls
3527 805 Pls
3527 803 Pls
3527 805 Pls
4447 809 Pls
4447 809 Pls
4447 810 Pls
4447 812 Pls
4908 816 Pls
4908 816 Pls
4908 818 Pls
4908 820 Pls
5368 820 Pls
5368 823 Pls
5368 827 Pls
5368 828 Pls
5828 832 Pls
5828 833 Pls
5828 834 Pls
5828 835 Pls
6289 837 Pls
6289 838 Pls
6289 842 Pls
6289 844 Pls
1685 847 Pls
1685 851 Pls
1685 847 Pls
1685 865 Pls
2146 839 Pls
2146 840 Pls
2146 842 Pls
2146 841 Pls
2606 831 Pls
2606 831 Pls
2606 824 Pls
2606 838 Pls
3066 829 Pls
3066 824 Pls
3066 829 Pls
3066 823 Pls
3527 813 Pls
3527 817 Pls
3527 821 Pls
3527 818 Pls
4447 846 Pls
4447 845 Pls
4447 843 Pls
4447 846 Pls
4908 884 Pls
4908 878 Pls
4908 883 Pls
4908 874 Pls
5368 926 Pls
5368 922 Pls
5368 913 Pls
5368 921 Pls
5828 945 Pls
5828 954 Pls
5828 958 Pls
5828 970 Pls
6289 1014 Pls
6289 1010 Pls
6289 983 Pls
6289 1001 Pls
1685 958 Pls
1685 1004 Pls
1685 953 Pls
1685 978 Pls
2146 906 Pls
2146 940 Pls
2146 933 Pls
2146 950 Pls
2606 883 Pls
2606 911 Pls
2606 940 Pls
2606 908 Pls
3066 863 Pls
3066 880 Pls
3066 889 Pls
3066 852 Pls
3527 844 Pls
3527 851 Pls
3527 866 Pls
3527 870 Pls
4447 937 Pls
4447 958 Pls
4447 958 Pls
4447 962 Pls
4908 1066 Pls
4908 1099 Pls
4908 1092 Pls
4908 1099 Pls
5368 1200 Pls
5368 1202 Pls
5368 1241 Pls
5368 1256 Pls
5828 1502 Pls
5828 1316 Pls
5828 1293 Pls
5828 1390 Pls
6289 1603 Pls
6289 1472 Pls
6289 1556 Pls
6289 1599 Pls
1685 1123 Pls
1685 1109 Pls
1685 1249 Pls
1685 1162 Pls
2146 1079 Pls
2146 1060 Pls
2146 1123 Pls
2146 1077 Pls
2606 958 Pls
2606 1052 Pls
2606 1046 Pls
2606 1082 Pls
3066 938 Pls
3066 966 Pls
3066 972 Pls
3066 973 Pls
3527 908 Pls
3527 887 Pls
3527 902 Pls
3527 927 Pls
4447 1297 Pls
4447 1350 Pls
4447 1435 Pls
4447 1418 Pls
4908 1888 Pls
4908 2023 Pls
4908 1859 Pls
4908 2096 Pls
5368 2485 Pls
5368 2769 Pls
5368 2486 Pls
5368 2680 Pls
5828 2856 Pls
5828 3026 Pls
5828 3213 Pls
5828 3468 Pls
6289 3942 Pls
6289 3755 Pls
6289 4056 Pls
6289 4025 Pls
1685 801 Pls
1685 801 Pls
1685 802 Pls
1685 802 Pls
2146 801 Pls
2146 801 Pls
2146 801 Pls
2146 802 Pls
2606 801 Pls
2606 801 Pls
2606 801 Pls
2606 801 Pls
3066 801 Pls
3066 801 Pls
3066 801 Pls
3066 801 Pls
3527 800 Pls
3527 801 Pls
3527 800 Pls
3527 801 Pls
4447 801 Pls
4447 801 Pls
4447 801 Pls
4447 801 Pls
4908 801 Pls
4908 801 Pls
4908 801 Pls
4908 801 Pls
5368 801 Pls
5368 802 Pls
5368 802 Pls
5368 802 Pls
5828 802 Pls
5828 802 Pls
5828 803 Pls
5828 802 Pls
6289 802 Pls
6289 803 Pls
6289 803 Pls
6289 803 Pls
1685 814 Pls
1685 818 Pls
1685 814 Pls
1685 818 Pls
2146 809 Pls
2146 812 Pls
2146 811 Pls
2146 813 Pls
2606 809 Pls
2606 809 Pls
2606 810 Pls
2606 811 Pls
3066 807 Pls
3066 807 Pls
3066 808 Pls
3066 808 Pls
3527 805 Pls
3527 805 Pls
3527 805 Pls
3527 805 Pls
4447 809 Pls
4447 810 Pls
4447 810 Pls
4447 812 Pls
4908 816 Pls
4908 814 Pls
4908 817 Pls
4908 817 Pls
5368 824 Pls
5368 827 Pls
5368 824 Pls
5368 826 Pls
5828 829 Pls
5828 835 Pls
5828 832 Pls
5828 838 Pls
6289 836 Pls
6289 841 Pls
6289 842 Pls
6289 845 Pls
1685 840 Pls
1685 845 Pls
1685 854 Pls
1685 869 Pls
2146 831 Pls
2146 836 Pls
2146 850 Pls
2146 854 Pls
2606 827 Pls
2606 839 Pls
2606 829 Pls
2606 843 Pls
3066 825 Pls
3066 820 Pls
3066 830 Pls
3066 829 Pls
3527 817 Pls
3527 819 Pls
3527 815 Pls
3527 820 Pls
4447 844 Pls
4447 847 Pls
4447 851 Pls
4447 848 Pls
4908 875 Pls
4908 884 Pls
4908 886 Pls
4908 880 Pls
5368 918 Pls
5368 904 Pls
5368 935 Pls
5368 916 Pls
5828 946 Pls
5828 958 Pls
5828 962 Pls
5828 956 Pls
6289 963 Pls
6289 988 Pls
6289 1005 Pls
6289 1028 Pls
1685 943 Pls
1685 975 Pls
1685 968 Pls
1685 958 Pls
2146 908 Pls
2146 947 Pls
2146 952 Pls
2146 963 Pls
2606 884 Pls
2606 913 Pls
2606 897 Pls
2606 905 Pls
3066 872 Pls
3066 872 Pls
3066 873 Pls
3066 873 Pls
3527 847 Pls
3527 849 Pls
3527 853 Pls
3527 850 Pls
4447 969 Pls
4447 964 Pls
4447 968 Pls
4447 948 Pls
4908 1098 Pls
4908 1054 Pls
4908 1125 Pls
4908 1086 Pls
5368 1215 Pls
5368 1199 Pls
5368 1247 Pls
5368 1232 Pls
5828 1350 Pls
5828 1371 Pls
5828 1410 Pls
5828 1377 Pls
6289 1598 Pls
6289 1566 Pls
6289 1523 Pls
6289 1566 Pls
1685 1078 Pls
1685 1057 Pls
1685 1216 Pls
1685 1190 Pls
2146 1050 Pls
2146 1063 Pls
2146 1133 Pls
2146 1090 Pls
2606 981 Pls
2606 998 Pls
2606 1042 Pls
2606 1075 Pls
3066 954 Pls
3066 955 Pls
3066 967 Pls
3066 962 Pls
3527 919 Pls
3527 890 Pls
3527 917 Pls
3527 919 Pls
4447 1339 Pls
4447 1344 Pls
4447 1379 Pls
4447 1460 Pls
4908 2046 Pls
4908 1880 Pls
4908 2124 Pls
4908 1914 Pls
5368 2489 Pls
5368 2480 Pls
5368 2633 Pls
5368 2594 Pls
5828 3326 Pls
5828 3283 Pls
5828 3312 Pls
5828 3424 Pls
6289 3881 Pls
6289 4134 Pls
6289 3544 Pls
6289 4084 Pls
1685 801 Pls
1685 801 Pls
1685 801 Pls
1685 802 Pls
2146 801 Pls
2146 801 Pls
2146 801 Pls
2146 802 Pls
2606 801 Pls
2606 801 Pls
2606 801 Pls
2606 801 Pls
3066 801 Pls
3066 801 Pls
3066 801 Pls
3066 801 Pls
3527 800 Pls
3527 800 Pls
3527 800 Pls
3527 801 Pls
4447 801 Pls
4447 801 Pls
4447 801 Pls
4447 801 Pls
4908 801 Pls
4908 801 Pls
4908 801 Pls
4908 801 Pls
5368 801 Pls
5368 802 Pls
5368 802 Pls
5368 802 Pls
5828 802 Pls
5828 802 Pls
5828 802 Pls
5828 802 Pls
6289 802 Pls
6289 803 Pls
6289 803 Pls
6289 803 Pls
1685 814 Pls
1685 816 Pls
1685 815 Pls
1685 820 Pls
2146 813 Pls
2146 809 Pls
2146 814 Pls
2146 814 Pls
2606 809 Pls
2606 809 Pls
2606 809 Pls
2606 811 Pls
3066 807 Pls
3066 808 Pls
3066 809 Pls
3066 806 Pls
3527 805 Pls
3527 805 Pls
3527 805 Pls
3527 805 Pls
4447 807 Pls
4447 810 Pls
4447 810 Pls
4447 811 Pls
4908 816 Pls
4908 816 Pls
4908 816 Pls
4908 820 Pls
5368 824 Pls
5368 826 Pls
5368 827 Pls
5368 826 Pls
5828 831 Pls
5828 833 Pls
5828 831 Pls
5828 837 Pls
6289 841 Pls
6289 840 Pls
6289 843 Pls
6289 847 Pls
1685 842 Pls
1685 860 Pls
1685 842 Pls
1685 864 Pls
2146 844 Pls
2146 843 Pls
2146 846 Pls
2146 854 Pls
2606 836 Pls
2606 831 Pls
2606 833 Pls
2606 841 Pls
3066 818 Pls
3066 820 Pls
3066 822 Pls
3066 827 Pls
3527 816 Pls
3527 818 Pls
3527 817 Pls
3527 822 Pls
4447 843 Pls
4447 852 Pls
4447 845 Pls
4447 849 Pls
4908 874 Pls
4908 875 Pls
4908 883 Pls
4908 888 Pls
5368 905 Pls
5368 914 Pls
5368 909 Pls
5368 925 Pls
5828 957 Pls
5828 951 Pls
5828 957 Pls
5828 981 Pls
6289 989 Pls
6289 1005 Pls
6289 1005 Pls
6289 1022 Pls
1685 932 Pls
1685 959 Pls
1685 965 Pls
1685 987 Pls
2146 957 Pls
2146 917 Pls
2146 939 Pls
2146 936 Pls
2606 875 Pls
2606 887 Pls
2606 914 Pls
2606 905 Pls
3066 869 Pls
3066 883 Pls
3066 863 Pls
3066 873 Pls
3527 841 Pls
3527 845 Pls
3527 850 Pls
3527 859 Pls
4447 933 Pls
4447 961 Pls
4447 944 Pls
4447 955 Pls
4908 1078 Pls
4908 1085 Pls
4908 1086 Pls
4908 1113 Pls
5368 1243 Pls
5368 1266 Pls
5368 1303 Pls
5368 1246 Pls
5828 1336 Pls
5828 1387 Pls
5828 1466 Pls
5828 1351 Pls
6289 1499 Pls
6289 1661 Pls
6289 1591 Pls
6289 1653 Pls
1685 1111 Pls
1685 1054 Pls
1685 1057 Pls
1685 1160 Pls
2146 1027 Pls
2146 1066 Pls
2146 1139 Pls
2146 1152 Pls
2606 996 Pls
2606 1018 Pls
2606 1023 Pls
2606 1059 Pls
3066 950 Pls
3066 992 Pls
3066 1008 Pls
3066 995 Pls
3527 875 Pls
3527 921 Pls
3527 911 Pls
3527 936 Pls
4447 1326 Pls
4447 1320 Pls
4447 1400 Pls
4447 1434 Pls
4908 1889 Pls
4908 1931 Pls
4908 2049 Pls
4908 2008 Pls
5368 2427 Pls
5368 2336 Pls
5368 2485 Pls
5368 2353 Pls
5828 3027 Pls
5828 3241 Pls
5828 3583 Pls
5828 3038 Pls
6289 3170 Pls
6289 4056 Pls
6289 4245 Pls
6289 3986 Pls
1685 802 Pls
1685 801 Pls
1685 802 Pls
1685 802 Pls
2146 801 Pls
2146 801 Pls
2146 802 Pls
2146 802 Pls
2606 801 Pls
2606 801 Pls
2606 801 Pls
2606 801 Pls
3066 800 Pls
3066 801 Pls
3066 801 Pls
3066 801 Pls
3527 800 Pls
3527 800 Pls
3527 801 Pls
3527 800 Pls
4447 801 Pls
4447 801 Pls
4447 801 Pls
4447 801 Pls
4908 801 Pls
4908 801 Pls
4908 801 Pls
4908 801 Pls
5368 801 Pls
5368 802 Pls
5368 802 Pls
5368 802 Pls
5828 802 Pls
5828 802 Pls
5828 802 Pls
5828 802 Pls
6289 802 Pls
6289 803 Pls
6289 803 Pls
6289 803 Pls
1685 813 Pls
1685 815 Pls
1685 815 Pls
1685 816 Pls
2146 809 Pls
2146 812 Pls
2146 814 Pls
2146 814 Pls
2606 807 Pls
2606 809 Pls
2606 808 Pls
2606 813 Pls
3066 806 Pls
3066 806 Pls
3066 806 Pls
3066 810 Pls
3527 804 Pls
3527 804 Pls
3527 805 Pls
3527 804 Pls
4447 808 Pls
4447 810 Pls
4447 812 Pls
4447 810 Pls
4908 815 Pls
4908 816 Pls
4908 819 Pls
4908 817 Pls
5368 824 Pls
5368 825 Pls
5368 825 Pls
5368 827 Pls
5828 831 Pls
5828 833 Pls
5828 834 Pls
5828 835 Pls
6289 834 Pls
6289 839 Pls
6289 843 Pls
6289 843 Pls
1685 850 Pls
1685 851 Pls
1685 868 Pls
1685 884 Pls
2146 830 Pls
2146 843 Pls
2146 848 Pls
2146 848 Pls
2606 820 Pls
2606 838 Pls
2606 840 Pls
2606 837 Pls
3066 825 Pls
3066 827 Pls
3066 823 Pls
3066 829 Pls
3527 819 Pls
3527 818 Pls
3527 822 Pls
3527 816 Pls
4447 837 Pls
4447 846 Pls
4447 847 Pls
4447 850 Pls
4908 876 Pls
4908 880 Pls
4908 886 Pls
4908 873 Pls
5368 907 Pls
5368 921 Pls
5368 915 Pls
5368 924 Pls
5828 947 Pls
5828 964 Pls
5828 974 Pls
5828 959 Pls
6289 1000 Pls
6289 1008 Pls
6289 1006 Pls
6289 1025 Pls
1685 937 Pls
1685 965 Pls
1685 1010 Pls
1685 982 Pls
2146 936 Pls
2146 920 Pls
2146 933 Pls
2146 944 Pls
2606 883 Pls
2606 894 Pls
2606 887 Pls
2606 909 Pls
3066 870 Pls
3066 857 Pls
3066 857 Pls
3066 884 Pls
3527 848 Pls
3527 846 Pls
3527 848 Pls
3527 848 Pls
4447 944 Pls
4447 950 Pls
4447 962 Pls
4447 952 Pls
4908 1081 Pls
4908 1105 Pls
4908 1094 Pls
4908 1105 Pls
5368 1225 Pls
5368 1242 Pls
5368 1211 Pls
5368 1268 Pls
5828 1399 Pls
5828 1459 Pls
5828 1398 Pls
5828 1390 Pls
6289 1560 Pls
6289 1534 Pls
6289 1583 Pls
6289 1586 Pls
1685 1079 Pls
1685 1222 Pls
1685 1156 Pls
1685 1198 Pls
2146 1018 Pls
2146 1059 Pls
2146 1181 Pls
2146 1144 Pls
2606 977 Pls
2606 1010 Pls
2606 1055 Pls
2606 1101 Pls
3066 935 Pls
3066 985 Pls
3066 989 Pls
3066 963 Pls
3527 895 Pls
3527 912 Pls
3527 954 Pls
3527 940 Pls
4447 1428 Pls
4447 1433 Pls
4447 1443 Pls
4447 1375 Pls
4908 1913 Pls
4908 1842 Pls
4908 1955 Pls
4908 1826 Pls
5368 2246 Pls
5368 2256 Pls
5368 2424 Pls
5368 2625 Pls
5828 3303 Pls
5828 3362 Pls
5828 3456 Pls
5828 3231 Pls
6289 4100 Pls
6289 3822 Pls
6289 3801 Pls
6289 4215 Pls
1685 802 Pls
1685 801 Pls
1685 802 Pls
1685 802 Pls
2146 801 Pls
2146 801 Pls
2146 802 Pls
2146 802 Pls
2606 801 Pls
2606 801 Pls
2606 801 Pls
2606 801 Pls
3066 801 Pls
3066 801 Pls
3066 801 Pls
3066 801 Pls
3527 800 Pls
3527 800 Pls
3527 801 Pls
3527 800 Pls
4447 801 Pls
4447 801 Pls
4447 801 Pls
4447 801 Pls
4908 801 Pls
4908 801 Pls
4908 801 Pls
4908 801 Pls
5368 801 Pls
5368 802 Pls
5368 802 Pls
5368 802 Pls
5828 802 Pls
5828 802 Pls
5828 802 Pls
5828 802 Pls
6289 802 Pls
6289 802 Pls
6289 803 Pls
6289 803 Pls
1685 811 Pls
1685 813 Pls
1685 818 Pls
1685 816 Pls
2146 810 Pls
2146 811 Pls
2146 813 Pls
2146 816 Pls
2606 809 Pls
2606 809 Pls
2606 809 Pls
2606 810 Pls
3066 806 Pls
3066 807 Pls
3066 806 Pls
3066 807 Pls
3527 804 Pls
3527 805 Pls
3527 804 Pls
3527 805 Pls
4447 809 Pls
4447 809 Pls
4447 810 Pls
4447 811 Pls
4908 817 Pls
4908 819 Pls
4908 817 Pls
4908 820 Pls
5368 826 Pls
5368 825 Pls
5368 827 Pls
5368 829 Pls
5828 825 Pls
5828 834 Pls
5828 834 Pls
5828 837 Pls
6289 839 Pls
6289 844 Pls
6289 840 Pls
6289 844 Pls
1685 859 Pls
1685 848 Pls
1685 847 Pls
1685 864 Pls
2146 840 Pls
2146 842 Pls
2146 840 Pls
2146 851 Pls
2606 831 Pls
2606 826 Pls
2606 828 Pls
2606 841 Pls
3066 824 Pls
3066 824 Pls
3066 829 Pls
3066 823 Pls
3527 813 Pls
3527 820 Pls
3527 822 Pls
3527 819 Pls
4447 840 Pls
4447 838 Pls
4447 846 Pls
4447 849 Pls
4908 873 Pls
4908 880 Pls
4908 886 Pls
4908 886 Pls
5368 914 Pls
5368 907 Pls
5368 915 Pls
5368 920 Pls
5828 949 Pls
5828 971 Pls
5828 962 Pls
5828 970 Pls
6289 985 Pls
6289 1001 Pls
6289 1024 Pls
6289 1012 Pls
1685 930 Pls
1685 952 Pls
1685 1008 Pls
1685 982 Pls
2146 916 Pls
2146 940 Pls
2146 936 Pls
2146 944 Pls
2606 896 Pls
2606 885 Pls
2606 918 Pls
2606 923 Pls
3066 855 Pls
3066 863 Pls
3066 869 Pls
3066 874 Pls
3527 839 Pls
3527 851 Pls
3527 882 Pls
3527 852 Pls
4447 946 Pls
4447 941 Pls
4447 954 Pls
4447 945 Pls
4908 1083 Pls
4908 1077 Pls
4908 1065 Pls
4908 1111 Pls
5368 1207 Pls
5368 1231 Pls
5368 1225 Pls
5368 1255 Pls
5828 1384 Pls
5828 1434 Pls
5828 1385 Pls
5828 1413 Pls
6289 1534 Pls
6289 1527 Pls
6289 1593 Pls
6289 1546 Pls
1685 1138 Pls
1685 1072 Pls
1685 1161 Pls
1685 1217 Pls
2146 1050 Pls
2146 1081 Pls
2146 1110 Pls
2146 1190 Pls
2606 975 Pls
2606 1073 Pls
2606 1066 Pls
2606 1066 Pls
3066 968 Pls
3066 966 Pls
3066 957 Pls
3066 1010 Pls
3527 883 Pls
3527 898 Pls
3527 935 Pls
3527 978 Pls
4447 1399 Pls
4447 1425 Pls
4447 1363 Pls
4447 1410 Pls
4908 1908 Pls
4908 1837 Pls
4908 2043 Pls
4908 1943 Pls
5368 2533 Pls
5368 2659 Pls
5368 2722 Pls
5368 2779 Pls
5828 3138 Pls
5828 3297 Pls
5828 3208 Pls
5828 3479 Pls
6289 3980 Pls
6289 4080 Pls
6289 3822 Pls
6289 3736 Pls
1685 803 Pls
1685 801 Pls
1685 802 Pls
1685 802 Pls
2146 801 Pls
2146 801 Pls
2146 801 Pls
2146 801 Pls
2606 801 Pls
2606 801 Pls
2606 801 Pls
2606 801 Pls
3066 800 Pls
3066 801 Pls
3066 801 Pls
3066 801 Pls
3527 800 Pls
3527 800 Pls
3527 800 Pls
3527 801 Pls
4447 801 Pls
4447 801 Pls
4447 801 Pls
4447 801 Pls
4908 801 Pls
4908 801 Pls
4908 801 Pls
4908 801 Pls
5368 801 Pls
5368 802 Pls
5368 802 Pls
5368 802 Pls
5828 802 Pls
5828 802 Pls
5828 802 Pls
5828 802 Pls
6289 802 Pls
6289 803 Pls
6289 803 Pls
6289 803 Pls
1685 812 Pls
1685 814 Pls
1685 814 Pls
1685 814 Pls
2146 809 Pls
2146 810 Pls
2146 811 Pls
2146 813 Pls
2606 810 Pls
2606 809 Pls
2606 809 Pls
2606 809 Pls
3066 806 Pls
3066 807 Pls
3066 808 Pls
3066 807 Pls
3527 804 Pls
3527 804 Pls
3527 805 Pls
3527 805 Pls
4447 810 Pls
4447 810 Pls
4447 811 Pls
4447 812 Pls
4908 815 Pls
4908 817 Pls
4908 818 Pls
4908 820 Pls
5368 824 Pls
5368 824 Pls
5368 825 Pls
5368 827 Pls
5828 831 Pls
5828 834 Pls
5828 835 Pls
5828 834 Pls
6289 834 Pls
6289 842 Pls
6289 843 Pls
6289 844 Pls
1685 840 Pls
1685 847 Pls
1685 860 Pls
1685 866 Pls
2146 828 Pls
2146 846 Pls
2146 856 Pls
2146 847 Pls
2606 822 Pls
2606 834 Pls
2606 822 Pls
2606 844 Pls
3066 820 Pls
3066 828 Pls
3066 824 Pls
3066 827 Pls
3527 817 Pls
3527 819 Pls
3527 815 Pls
3527 822 Pls
4447 841 Pls
4447 850 Pls
4447 848 Pls
4447 854 Pls
4908 868 Pls
4908 878 Pls
4908 885 Pls
4908 890 Pls
5368 903 Pls
5368 924 Pls
5368 914 Pls
5368 931 Pls
5828 938 Pls
5828 952 Pls
5828 943 Pls
5828 954 Pls
6289 991 Pls
6289 1003 Pls
6289 1002 Pls
6289 1013 Pls
1685 958 Pls
1685 984 Pls
1685 1003 Pls
1685 1008 Pls
2146 923 Pls
2146 944 Pls
2146 927 Pls
2146 956 Pls
2606 879 Pls
2606 904 Pls
2606 899 Pls
2606 903 Pls
3066 861 Pls
3066 850 Pls
3066 865 Pls
3066 899 Pls
3527 854 Pls
3527 844 Pls
3527 850 Pls
3527 841 Pls
4447 962 Pls
4447 949 Pls
4447 968 Pls
4447 953 Pls
4908 1082 Pls
4908 1061 Pls
4908 1068 Pls
4908 1123 Pls
5368 1206 Pls
5368 1261 Pls
5368 1243 Pls
5368 1260 Pls
5828 1418 Pls
5828 1369 Pls
5828 1442 Pls
5828 1382 Pls
6289 1585 Pls
6289 1569 Pls
6289 1554 Pls
6289 1565 Pls
1685 1089 Pls
1685 1122 Pls
1685 1215 Pls
1685 1117 Pls
2146 1076 Pls
2146 1122 Pls
2146 1091 Pls
2146 1073 Pls
2606 1041 Pls
2606 1003 Pls
2606 1057 Pls
2606 1110 Pls
3066 941 Pls
3066 983 Pls
3066 1012 Pls
3066 1012 Pls
3527 918 Pls
3527 916 Pls
3527 934 Pls
3527 989 Pls
4447 1368 Pls
4447 1369 Pls
4447 1422 Pls
4447 1413 Pls
4908 2028 Pls
4908 1965 Pls
4908 1800 Pls
4908 1806 Pls
5368 2465 Pls
5368 2664 Pls
5368 2664 Pls
5368 2798 Pls
5828 3290 Pls
5828 3295 Pls
5828 3695 Pls
5828 3294 Pls
6289 3823 Pls
6289 3776 Pls
6289 3602 Pls
6289 4091 Pls
1685 803 Pls
1685 801 Pls
1685 802 Pls
1685 802 Pls
2146 801 Pls
2146 801 Pls
2146 801 Pls
2146 802 Pls
2606 801 Pls
2606 801 Pls
2606 801 Pls
2606 801 Pls
3066 801 Pls
3066 800 Pls
3066 801 Pls
3066 801 Pls
3527 800 Pls
3527 800 Pls
3527 801 Pls
3527 801 Pls
4447 801 Pls
4447 801 Pls
4447 801 Pls
4447 801 Pls
4908 801 Pls
4908 801 Pls
4908 801 Pls
4908 801 Pls
5368 801 Pls
5368 802 Pls
5368 802 Pls
5368 802 Pls
5828 802 Pls
5828 802 Pls
5828 802 Pls
5828 803 Pls
6289 802 Pls
6289 803 Pls
6289 803 Pls
6289 803 Pls
1685 812 Pls
1685 814 Pls
1685 816 Pls
1685 821 Pls
2146 809 Pls
2146 809 Pls
2146 811 Pls
2146 814 Pls
2606 809 Pls
2606 807 Pls
2606 808 Pls
2606 810 Pls
3066 808 Pls
3066 807 Pls
3066 808 Pls
3066 807 Pls
3527 804 Pls
3527 804 Pls
3527 805 Pls
3527 805 Pls
4447 810 Pls
4447 809 Pls
4447 812 Pls
4447 812 Pls
4908 818 Pls
4908 815 Pls
4908 817 Pls
4908 817 Pls
5368 822 Pls
5368 822 Pls
5368 825 Pls
5368 826 Pls
5828 828 Pls
5828 829 Pls
5828 832 Pls
5828 833 Pls
6289 841 Pls
6289 843 Pls
6289 843 Pls
6289 842 Pls
1685 845 Pls
1685 848 Pls
1685 862 Pls
1685 866 Pls
2146 838 Pls
2146 836 Pls
2146 845 Pls
2146 846 Pls
2606 823 Pls
2606 839 Pls
2606 831 Pls
2606 830 Pls
3066 829 Pls
3066 824 Pls
3066 821 Pls
3066 825 Pls
3527 815 Pls
3527 817 Pls
3527 819 Pls
3527 813 Pls
4447 835 Pls
4447 841 Pls
4447 848 Pls
4447 844 Pls
4908 862 Pls
4908 879 Pls
4908 881 Pls
4908 878 Pls
5368 921 Pls
5368 915 Pls
5368 919 Pls
5368 922 Pls
5828 952 Pls
5828 971 Pls
5828 949 Pls
5828 974 Pls
6289 990 Pls
6289 1016 Pls
6289 1002 Pls
6289 1017 Pls
1685 946 Pls
1685 928 Pls
1685 1017 Pls
1685 1017 Pls
2146 924 Pls
2146 947 Pls
2146 945 Pls
2146 967 Pls
2606 883 Pls
2606 886 Pls
2606 897 Pls
2606 913 Pls
3066 871 Pls
3066 860 Pls
3066 860 Pls
3066 871 Pls
3527 843 Pls
3527 847 Pls
3527 850 Pls
3527 850 Pls
4447 932 Pls
4447 971 Pls
4447 964 Pls
4447 962 Pls
4908 1104 Pls
4908 1060 Pls
4908 1078 Pls
4908 1063 Pls
5368 1251 Pls
5368 1252 Pls
5368 1216 Pls
5368 1279 Pls
5828 1378 Pls
5828 1356 Pls
5828 1420 Pls
5828 1468 Pls
6289 1556 Pls
6289 1544 Pls
6289 1509 Pls
6289 1618 Pls
1685 1053 Pls
1685 1111 Pls
1685 1157 Pls
1685 1194 Pls
2146 1060 Pls
2146 1129 Pls
2146 1070 Pls
2146 1099 Pls
2606 1060 Pls
2606 1011 Pls
2606 1032 Pls
2606 1048 Pls
3066 949 Pls
3066 987 Pls
3066 1027 Pls
3066 991 Pls
3527 902 Pls
3527 944 Pls
3527 954 Pls
3527 953 Pls
4447 1363 Pls
4447 1354 Pls
4447 1371 Pls
4447 1444 Pls
4908 1898 Pls
4908 1929 Pls
4908 1965 Pls
4908 2075 Pls
5368 2636 Pls
5368 2530 Pls
5368 2675 Pls
5368 2835 Pls
5828 2950 Pls
5828 3109 Pls
5828 3343 Pls
5828 3172 Pls
6289 3845 Pls
6289 3960 Pls
6289 3951 Pls
6289 4262 Pls
1685 803 Pls
1685 802 Pls
1685 802 Pls
1685 802 Pls
2146 801 Pls
2146 801 Pls
2146 801 Pls
2146 801 Pls
2606 801 Pls
2606 801 Pls
2606 801 Pls
2606 801 Pls
3066 800 Pls
3066 801 Pls
3066 801 Pls
3066 801 Pls
3527 800 Pls
3527 801 Pls
3527 801 Pls
3527 801 Pls
4447 801 Pls
4447 801 Pls
4447 801 Pls
4447 801 Pls
4908 801 Pls
4908 801 Pls
4908 801 Pls
4908 801 Pls
5368 801 Pls
5368 802 Pls
5368 802 Pls
5368 802 Pls
5828 802 Pls
5828 802 Pls
5828 802 Pls
5828 803 Pls
6289 802 Pls
6289 802 Pls
6289 803 Pls
6289 803 Pls
1685 812 Pls
1685 811 Pls
1685 818 Pls
1685 815 Pls
2146 810 Pls
2146 812 Pls
2146 813 Pls
2146 812 Pls
2606 808 Pls
2606 809 Pls
2606 811 Pls
2606 811 Pls
3066 808 Pls
3066 806 Pls
3066 807 Pls
3066 809 Pls
3527 805 Pls
3527 805 Pls
3527 806 Pls
3527 805 Pls
4447 808 Pls
4447 809 Pls
4447 810 Pls
4447 812 Pls
4908 815 Pls
4908 817 Pls
4908 817 Pls
4908 818 Pls
5368 823 Pls
5368 826 Pls
5368 827 Pls
5368 828 Pls
5828 830 Pls
5828 834 Pls
5828 832 Pls
5828 836 Pls
6289 840 Pls
6289 839 Pls
6289 839 Pls
6289 845 Pls
1685 838 Pls
1685 846 Pls
1685 854 Pls
1685 868 Pls
2146 852 Pls
2146 831 Pls
2146 841 Pls
2146 850 Pls
2606 827 Pls
2606 828 Pls
2606 833 Pls
2606 836 Pls
3066 823 Pls
3066 830 Pls
3066 820 Pls
3066 827 Pls
3527 818 Pls
3527 818 Pls
3527 820 Pls
3527 821 Pls
4447 844 Pls
4447 846 Pls
4447 848 Pls
4447 851 Pls
4908 875 Pls
4908 874 Pls
4908 894 Pls
4908 893 Pls
5368 922 Pls
5368 927 Pls
5368 921 Pls
5368 930 Pls
5828 943 Pls
5828 962 Pls
5828 965 Pls
5828 956 Pls
6289 990 Pls
6289 991 Pls
6289 1022 Pls
6289 1027 Pls
1685 920 Pls
1685 982 Pls
1685 977 Pls
1685 968 Pls
2146 900 Pls
2146 902 Pls
2146 937 Pls
2146 922 Pls
2606 870 Pls
2606 897 Pls
2606 922 Pls
2606 927 Pls
3066 873 Pls
3066 871 Pls
3066 869 Pls
3066 875 Pls
3527 833 Pls
3527 842 Pls
3527 850 Pls
3527 848 Pls
4447 956 Pls
4447 963 Pls
4447 970 Pls
4447 949 Pls
4908 1081 Pls
4908 1117 Pls
4908 1096 Pls
4908 1095 Pls
5368 1226 Pls
5368 1207 Pls
5368 1249 Pls
5368 1261 Pls
5828 1309 Pls
5828 1361 Pls
5828 1389 Pls
5828 1406 Pls
6289 1510 Pls
6289 1520 Pls
6289 1667 Pls
6289 1606 Pls
1685 1117 Pls
1685 1080 Pls
1685 1238 Pls
1685 1209 Pls
2146 1117 Pls
2146 1092 Pls
2146 1189 Pls
2146 1156 Pls
2606 1043 Pls
2606 1010 Pls
2606 1085 Pls
2606 1031 Pls
3066 973 Pls
3066 983 Pls
3066 1006 Pls
3066 1049 Pls
3527 916 Pls
3527 934 Pls
3527 909 Pls
3527 929 Pls
4447 1343 Pls
4447 1454 Pls
4447 1374 Pls
4447 1463 Pls
4908 2029 Pls
4908 1955 Pls
4908 1904 Pls
4908 1968 Pls
5368 2660 Pls
5368 2554 Pls
5368 2762 Pls
5368 2474 Pls
5828 3112 Pls
5828 3273 Pls
5828 3448 Pls
5828 3337 Pls
6289 3798 Pls
6289 4149 Pls
6289 4151 Pls
6289 4079 Pls
1685 802 Pls
1685 802 Pls
1685 801 Pls
1685 802 Pls
2146 801 Pls
2146 801 Pls
2146 801 Pls
2146 802 Pls
2606 801 Pls
2606 801 Pls
2606 801 Pls
2606 801 Pls
3066 801 Pls
3066 801 Pls
3066 801 Pls
3066 801 Pls
3527 800 Pls
3527 800 Pls
3527 800 Pls
3527 801 Pls
4447 801 Pls
4447 801 Pls
4447 801 Pls
4447 801 Pls
4908 801 Pls
4908 801 Pls
4908 801 Pls
4908 801 Pls
5368 801 Pls
5368 802 Pls
5368 802 Pls
5368 802 Pls
5828 802 Pls
5828 802 Pls
5828 802 Pls
5828 802 Pls
6289 802 Pls
6289 802 Pls
6289 803 Pls
6289 803 Pls
1685 811 Pls
1685 813 Pls
1685 815 Pls
1685 818 Pls
2146 813 Pls
2146 814 Pls
2146 809 Pls
2146 812 Pls
2606 808 Pls
2606 808 Pls
2606 807 Pls
2606 811 Pls
3066 806 Pls
3066 806 Pls
3066 806 Pls
3066 808 Pls
3527 805 Pls
3527 805 Pls
3527 805 Pls
3527 805 Pls
4447 809 Pls
4447 808 Pls
4447 810 Pls
4447 813 Pls
4908 817 Pls
4908 816 Pls
4908 819 Pls
4908 818 Pls
5368 825 Pls
5368 824 Pls
5368 828 Pls
5368 827 Pls
5828 829 Pls
5828 830 Pls
5828 835 Pls
5828 837 Pls
6289 838 Pls
6289 844 Pls
6289 845 Pls
6289 844 Pls
1685 845 Pls
1685 853 Pls
1685 866 Pls
1685 861 Pls
2146 841 Pls
2146 847 Pls
2146 841 Pls
2146 838 Pls
2606 828 Pls
2606 829 Pls
2606 829 Pls
2606 829 Pls
3066 828 Pls
3066 821 Pls
3066 829 Pls
3066 831 Pls
3527 818 Pls
3527 816 Pls
3527 818 Pls
3527 817 Pls
4447 845 Pls
4447 847 Pls
4447 843 Pls
4447 850 Pls
4908 876 Pls
4908 883 Pls
4908 877 Pls
4908 886 Pls
5368 912 Pls
5368 919 Pls
5368 932 Pls
5368 921 Pls
5828 946 Pls
5828 951 Pls
5828 966 Pls
5828 960 Pls
6289 993 Pls
6289 991 Pls
6289 1004 Pls
6289 1026 Pls
1685 965 Pls
1685 946 Pls
1685 981 Pls
1685 983 Pls
2146 897 Pls
2146 928 Pls
2146 982 Pls
2146 946 Pls
2606 894 Pls
2606 888 Pls
2606 882 Pls
2606 905 Pls
3066 880 Pls
3066 852 Pls
3066 888 Pls
3066 888 Pls
3527 845 Pls
3527 850 Pls
3527 841 Pls
3527 860 Pls
4447 948 Pls
4447 955 Pls
4447 955 Pls
4447 973 Pls
4908 1089 Pls
4908 1090 Pls
4908 1065 Pls
4908 1102 Pls
5368 1167 Pls
5368 1196 Pls
5368 1210 Pls
5368 1212 Pls
5828 1418 Pls
5828 1369 Pls
5828 1394 Pls
5828 1405 Pls
6289 1461 Pls
6289 1540 Pls
6289 1538 Pls
6289 1570 Pls
1685 1076 Pls
1685 1282 Pls
1685 1155 Pls
1685 1241 Pls
2146 1028 Pls
2146 1137 Pls
2146 1111 Pls
2146 1168 Pls
2606 981 Pls
2606 1005 Pls
2606 1059 Pls
2606 1038 Pls
3066 970 Pls
3066 960 Pls
3066 967 Pls
3066 1025 Pls
3527 898 Pls
3527 890 Pls
3527 938 Pls
3527 952 Pls
4447 1319 Pls
4447 1438 Pls
4447 1339 Pls
4447 1480 Pls
4908 1983 Pls
4908 1949 Pls
4908 1855 Pls
4908 2015 Pls
5368 2540 Pls
5368 2629 Pls
5368 2522 Pls
5368 2737 Pls
5828 3178 Pls
5828 3099 Pls
5828 3193 Pls
5828 3129 Pls
6289 4188 Pls
6289 4208 Pls
6289 4067 Pls
6289 4202 Pls
1685 801 Pls
1685 801 Pls
1685 802 Pls
1685 802 Pls
2146 801 Pls
2146 801 Pls
2146 801 Pls
2146 801 Pls
2606 801 Pls
2606 801 Pls
2606 801 Pls
2606 801 Pls
3066 800 Pls
3066 801 Pls
3066 801 Pls
3066 801 Pls
3527 800 Pls
3527 800 Pls
3527 800 Pls
3527 800 Pls
4447 801 Pls
4447 801 Pls
4447 801 Pls
4447 801 Pls
4908 801 Pls
4908 801 Pls
4908 801 Pls
4908 802 Pls
5368 801 Pls
5368 802 Pls
5368 802 Pls
5368 802 Pls
5828 802 Pls
5828 802 Pls
5828 802 Pls
5828 802 Pls
6289 802 Pls
6289 802 Pls
6289 803 Pls
6289 803 Pls
1685 814 Pls
1685 814 Pls
1685 814 Pls
1685 820 Pls
2146 808 Pls
2146 811 Pls
2146 811 Pls
2146 812 Pls
2606 807 Pls
2606 807 Pls
2606 809 Pls
2606 810 Pls
3066 805 Pls
3066 805 Pls
3066 808 Pls
3066 808 Pls
3527 804 Pls
3527 804 Pls
3527 807 Pls
3527 805 Pls
4447 811 Pls
4447 809 Pls
4447 810 Pls
4447 810 Pls
4908 820 Pls
4908 818 Pls
4908 817 Pls
4908 820 Pls
5368 823 Pls
5368 822 Pls
5368 826 Pls
5368 826 Pls
5828 827 Pls
5828 831 Pls
5828 836 Pls
5828 835 Pls
6289 840 Pls
6289 834 Pls
6289 842 Pls
6289 840 Pls
1685 847 Pls
1685 843 Pls
1685 848 Pls
1685 870 Pls
2146 837 Pls
2146 847 Pls
2146 838 Pls
2146 842 Pls
2606 832 Pls
2606 827 Pls
2606 840 Pls
2606 840 Pls
3066 822 Pls
3066 826 Pls
3066 824 Pls
3066 824 Pls
3527 819 Pls
3527 817 Pls
3527 816 Pls
3527 819 Pls
4447 840 Pls
4447 847 Pls
4447 848 Pls
4447 845 Pls
4908 878 Pls
4908 887 Pls
4908 888 Pls
4908 887 Pls
5368 892 Pls
5368 909 Pls
5368 925 Pls
5368 923 Pls
5828 966 Pls
5828 952 Pls
5828 952 Pls
5828 962 Pls
6289 993 Pls
6289 1015 Pls
6289 992 Pls
6289 1030 Pls
1685 952 Pls
1685 988 Pls
1685 958 Pls
1685 1018 Pls
2146 943 Pls
2146 942 Pls
2146 959 Pls
2146 942 Pls
2606 886 Pls
2606 904 Pls
2606 907 Pls
2606 928 Pls
3066 876 Pls
3066 868 Pls
3066 878 Pls
3066 878 Pls
3527 843 Pls
3527 840 Pls
3527 844 Pls
3527 845 Pls
4447 960 Pls
4447 968 Pls
4447 969 Pls
4447 962 Pls
4908 1095 Pls
4908 1080 Pls
4908 1082 Pls
4908 1047 Pls
5368 1245 Pls
5368 1231 Pls
5368 1247 Pls
5368 1266 Pls
5828 1373 Pls
5828 1411 Pls
5828 1425 Pls
5828 1377 Pls
6289 1543 Pls
6289 1523 Pls
6289 1475 Pls
6289 1553 Pls
1685 1100 Pls
1685 1129 Pls
1685 1147 Pls
1685 1299 Pls
2146 1024 Pls
2146 1063 Pls
2146 1102 Pls
2146 1109 Pls
2606 969 Pls
2606 1070 Pls
2606 1046 Pls
2606 1030 Pls
3066 928 Pls
3066 1017 Pls
3066 971 Pls
3066 1012 Pls
3527 912 Pls
3527 914 Pls
3527 915 Pls
3527 918 Pls
4447 1377 Pls
4447 1412 Pls
4447 1379 Pls
4447 1358 Pls
4908 2038 Pls
4908 2040 Pls
4908 2115 Pls
4908 2240 Pls
5368 2471 Pls
5368 2608 Pls
5368 2417 Pls
5368 2557 Pls
5828 3179 Pls
5828 2987 Pls
5828 3321 Pls
5828 3424 Pls
6289 4228 Pls
6289 4357 Pls
6289 4126 Pls
6289 4353 Pls
1685 803 Pls
1685 801 Pls
1685 801 Pls
1685 802 Pls
2146 801 Pls
2146 801 Pls
2146 801 Pls
2146 802 Pls
2606 801 Pls
2606 801 Pls
2606 801 Pls
2606 801 Pls
3066 800 Pls
3066 801 Pls
3066 801 Pls
3066 801 Pls
3527 801 Pls
3527 800 Pls
3527 800 Pls
3527 800 Pls
4447 800 Pls
4447 801 Pls
4447 801 Pls
4447 801 Pls
4908 801 Pls
4908 801 Pls
4908 801 Pls
4908 801 Pls
5368 801 Pls
5368 802 Pls
5368 802 Pls
5368 802 Pls
5828 802 Pls
5828 802 Pls
5828 802 Pls
5828 803 Pls
6289 802 Pls
6289 803 Pls
6289 803 Pls
6289 803 Pls
1685 811 Pls
1685 816 Pls
1685 814 Pls
1685 815 Pls
2146 809 Pls
2146 811 Pls
2146 810 Pls
2146 813 Pls
2606 806 Pls
2606 809 Pls
2606 808 Pls
2606 809 Pls
3066 805 Pls
3066 808 Pls
3066 808 Pls
3066 808 Pls
3527 804 Pls
3527 804 Pls
3527 807 Pls
3527 805 Pls
4447 810 Pls
4447 809 Pls
4447 809 Pls
4447 810 Pls
4908 818 Pls
4908 816 Pls
4908 818 Pls
4908 818 Pls
5368 823 Pls
5368 825 Pls
5368 825 Pls
5368 826 Pls
5828 835 Pls
5828 831 Pls
5828 833 Pls
5828 837 Pls
6289 837 Pls
6289 842 Pls
6289 842 Pls
6289 846 Pls
1685 846 Pls
1685 851 Pls
1685 853 Pls
1685 867 Pls
2146 837 Pls
2146 849 Pls
2146 849 Pls
2146 847 Pls
2606 833 Pls
2606 837 Pls
2606 828 Pls
2606 832 Pls
3066 822 Pls
3066 821 Pls
3066 824 Pls
3066 826 Pls
3527 812 Pls
3527 819 Pls
3527 815 Pls
3527 815 Pls
4447 843 Pls
4447 848 Pls
4447 843 Pls
4447 849 Pls
4908 881 Pls
4908 884 Pls
4908 884 Pls
4908 889 Pls
5368 915 Pls
5368 916 Pls
5368 917 Pls
5368 929 Pls
5828 967 Pls
5828 948 Pls
5828 950 Pls
5828 966 Pls
6289 999 Pls
6289 984 Pls
6289 977 Pls
6289 1031 Pls
1685 924 Pls
1685 975 Pls
1685 949 Pls
1685 993 Pls
2146 913 Pls
2146 888 Pls
2146 950 Pls
2146 944 Pls
2606 865 Pls
2606 913 Pls
2606 913 Pls
2606 933 Pls
3066 857 Pls
3066 863 Pls
3066 877 Pls
3066 864 Pls
3527 842 Pls
3527 842 Pls
3527 844 Pls
3527 840 Pls
4447 949 Pls
4447 953 Pls
4447 960 Pls
4447 955 Pls
4908 1081 Pls
4908 1080 Pls
4908 1111 Pls
4908 1119 Pls
5368 1214 Pls
5368 1163 Pls
5368 1280 Pls
5368 1250 Pls
5828 1339 Pls
5828 1347 Pls
5828 1396 Pls
5828 1418 Pls
6289 1511 Pls
6289 1516 Pls
6289 1540 Pls
6289 1625 Pls
1685 1139 Pls
1685 1150 Pls
1685 1204 Pls
1685 1196 Pls
2146 1116 Pls
2146 1124 Pls
2146 1197 Pls
2146 1122 Pls
2606 1020 Pls
2606 1083 Pls
2606 1060 Pls
2606 1051 Pls
3066 998 Pls
3066 990 Pls
3066 998 Pls
3066 1022 Pls
3527 893 Pls
3527 936 Pls
3527 906 Pls
3527 885 Pls
4447 1365 Pls
4447 1346 Pls
4447 1327 Pls
4447 1366 Pls
4908 1926 Pls
4908 1922 Pls
4908 1942 Pls
4908 1932 Pls
5368 2729 Pls
5368 2604 Pls
5368 2630 Pls
5368 2622 Pls
5828 3598 Pls
5828 3076 Pls
5828 3287 Pls
5828 3296 Pls
6289 3872 Pls
6289 4152 Pls
6289 3814 Pls
6289 4029 Pls
1685 803 Pls
1685 802 Pls
1685 802 Pls
1685 802 Pls
2146 801 Pls
2146 801 Pls
2146 801 Pls
2146 801 Pls
2606 801 Pls
2606 801 Pls
2606 801 Pls
2606 802 Pls
3066 800 Pls
3066 800 Pls
3066 801 Pls
3066 801 Pls
3527 800 Pls
3527 800 Pls
3527 800 Pls
3527 800 Pls
4447 801 Pls
4447 801 Pls
4447 801 Pls
4447 801 Pls
4908 801 Pls
4908 801 Pls
4908 801 Pls
4908 801 Pls
5368 801 Pls
5368 801 Pls
5368 802 Pls
5368 802 Pls
5828 802 Pls
5828 802 Pls
5828 802 Pls
5828 802 Pls
6289 802 Pls
6289 802 Pls
6289 803 Pls
6289 803 Pls
1685 813 Pls
1685 814 Pls
1685 815 Pls
1685 817 Pls
2146 810 Pls
2146 811 Pls
2146 812 Pls
2146 811 Pls
2606 810 Pls
2606 808 Pls
2606 808 Pls
2606 814 Pls
3066 806 Pls
3066 806 Pls
3066 807 Pls
3066 807 Pls
3527 804 Pls
3527 805 Pls
3527 804 Pls
3527 804 Pls
4447 810 Pls
4447 811 Pls
4447 810 Pls
4447 810 Pls
4908 817 Pls
4908 817 Pls
4908 818 Pls
4908 818 Pls
5368 821 Pls
5368 827 Pls
5368 827 Pls
5368 827 Pls
5828 831 Pls
5828 830 Pls
5828 833 Pls
5828 835 Pls
6289 841 Pls
6289 841 Pls
6289 844 Pls
6289 843 Pls
1685 849 Pls
1685 855 Pls
1685 868 Pls
1685 858 Pls
2146 833 Pls
2146 835 Pls
2146 844 Pls
2146 837 Pls
2606 835 Pls
2606 829 Pls
2606 836 Pls
2606 848 Pls
3066 823 Pls
3066 819 Pls
3066 828 Pls
3066 825 Pls
3527 815 Pls
3527 819 Pls
3527 814 Pls
3527 817 Pls
4447 832 Pls
4447 844 Pls
4447 847 Pls
4447 852 Pls
4908 885 Pls
4908 877 Pls
4908 881 Pls
4908 886 Pls
5368 921 Pls
5368 913 Pls
5368 901 Pls
5368 916 Pls
5828 953 Pls
5828 939 Pls
5828 952 Pls
5828 960 Pls
6289 1021 Pls
6289 1010 Pls
6289 1013 Pls
6289 1030 Pls
1685 921 Pls
1685 934 Pls
1685 944 Pls
1685 968 Pls
2146 947 Pls
2146 929 Pls
2146 943 Pls
2146 992 Pls
2606 879 Pls
2606 881 Pls
2606 913 Pls
2606 907 Pls
3066 865 Pls
3066 875 Pls
3066 892 Pls
3066 886 Pls
3527 837 Pls
3527 847 Pls
3527 849 Pls
3527 842 Pls
4447 927 Pls
4447 959 Pls
4447 959 Pls
4447 965 Pls
4908 1041 Pls
4908 1063 Pls
4908 1098 Pls
4908 1089 Pls
5368 1181 Pls
5368 1237 Pls
5368 1272 Pls
5368 1274 Pls
5828 1330 Pls
5828 1382 Pls
5828 1412 Pls
5828 1452 Pls
6289 1521 Pls
6289 1562 Pls
6289 1604 Pls
6289 1632 Pls
1685 1129 Pls
1685 1155 Pls
1685 1250 Pls
1685 1205 Pls
2146 1102 Pls
2146 1133 Pls
2146 1221 Pls
2146 1117 Pls
2606 1041 Pls
2606 1037 Pls
2606 1118 Pls
2606 1083 Pls
3066 928 Pls
3066 981 Pls
3066 939 Pls
3066 1020 Pls
3527 926 Pls
3527 935 Pls
3527 947 Pls
3527 954 Pls
4447 1350 Pls
4447 1341 Pls
4447 1388 Pls
4447 1376 Pls
4908 1926 Pls
4908 1929 Pls
4908 2016 Pls
4908 2063 Pls
5368 2619 Pls
5368 2505 Pls
5368 2604 Pls
5368 2580 Pls
5828 3384 Pls
5828 3208 Pls
5828 3252 Pls
5828 3573 Pls
6289 3280 Pls
6289 4283 Pls
6289 3636 Pls
6289 3898 Pls
1685 801 Pls
1685 801 Pls
1685 802 Pls
1685 802 Pls
2146 801 Pls
2146 801 Pls
2146 801 Pls
2146 802 Pls
2606 801 Pls
2606 801 Pls
2606 801 Pls
2606 801 Pls
3066 801 Pls
3066 801 Pls
3066 801 Pls
3066 801 Pls
3527 800 Pls
3527 800 Pls
3527 801 Pls
3527 801 Pls
4447 801 Pls
4447 801 Pls
4447 801 Pls
4447 801 Pls
4908 801 Pls
4908 801 Pls
4908 801 Pls
4908 801 Pls
5368 801 Pls
5368 801 Pls
5368 802 Pls
5368 802 Pls
5828 802 Pls
5828 802 Pls
5828 802 Pls
5828 802 Pls
6289 802 Pls
6289 803 Pls
6289 803 Pls
6289 803 Pls
1685 814 Pls
1685 815 Pls
1685 813 Pls
1685 815 Pls
2146 812 Pls
2146 811 Pls
2146 812 Pls
2146 813 Pls
2606 808 Pls
2606 810 Pls
2606 809 Pls
2606 811 Pls
3066 806 Pls
3066 807 Pls
3066 809 Pls
3066 807 Pls
3527 805 Pls
3527 805 Pls
3527 805 Pls
3527 804 Pls
4447 810 Pls
4447 812 Pls
4447 811 Pls
4447 810 Pls
4908 815 Pls
4908 816 Pls
4908 820 Pls
4908 819 Pls
5368 826 Pls
5368 825 Pls
5368 824 Pls
5368 827 Pls
5828 830 Pls
5828 835 Pls
5828 831 Pls
5828 836 Pls
6289 837 Pls
6289 846 Pls
6289 840 Pls
6289 846 Pls
1685 851 Pls
1685 857 Pls
1685 857 Pls
1685 873 Pls
2146 839 Pls
2146 848 Pls
2146 848 Pls
2146 849 Pls
2606 832 Pls
2606 832 Pls
2606 826 Pls
2606 845 Pls
3066 824 Pls
3066 826 Pls
3066 822 Pls
3066 823 Pls
3527 819 Pls
3527 814 Pls
3527 820 Pls
3527 819 Pls
4447 837 Pls
4447 848 Pls
4447 846 Pls
4447 849 Pls
4908 876 Pls
4908 863 Pls
4908 887 Pls
4908 885 Pls
5368 894 Pls
5368 915 Pls
5368 916 Pls
5368 931 Pls
5828 970 Pls
5828 951 Pls
5828 971 Pls
5828 984 Pls
6289 1002 Pls
6289 992 Pls
6289 1009 Pls
6289 1004 Pls
1685 936 Pls
1685 974 Pls
1685 940 Pls
1685 995 Pls
2146 902 Pls
2146 928 Pls
2146 948 Pls
2146 979 Pls
2606 882 Pls
2606 913 Pls
2606 911 Pls
2606 930 Pls
3066 855 Pls
3066 866 Pls
3066 876 Pls
3066 882 Pls
3527 848 Pls
3527 843 Pls
3527 854 Pls
3527 862 Pls
4447 976 Pls
4447 960 Pls
4447 955 Pls
4447 968 Pls
4908 1031 Pls
4908 1086 Pls
4908 1070 Pls
4908 1081 Pls
5368 1188 Pls
5368 1185 Pls
5368 1258 Pls
5368 1229 Pls
5828 1369 Pls
5828 1361 Pls
5828 1390 Pls
5828 1430 Pls
6289 1572 Pls
6289 1518 Pls
6289 1535 Pls
6289 1605 Pls
1685 1122 Pls
1685 1103 Pls
1685 1188 Pls
1685 1224 Pls
2146 1048 Pls
2146 1113 Pls
2146 1186 Pls
2146 1154 Pls
2606 1020 Pls
2606 1057 Pls
2606 1084 Pls
2606 1024 Pls
3066 928 Pls
3066 978 Pls
3066 1069 Pls
3066 975 Pls
3527 919 Pls
3527 934 Pls
3527 915 Pls
3527 944 Pls
4447 1257 Pls
4447 1406 Pls
4447 1391 Pls
4447 1349 Pls
4908 1918 Pls
4908 2044 Pls
4908 1906 Pls
4908 1917 Pls
5368 2374 Pls
5368 2580 Pls
5368 2687 Pls
5368 2578 Pls
5828 3193 Pls
5828 3443 Pls
5828 3497 Pls
5828 3410 Pls
6289 4237 Pls
6289 3906 Pls
6289 3887 Pls
6289 3799 Pls
1685 803 Pls
1685 801 Pls
1685 802 Pls
1685 802 Pls
2146 801 Pls
2146 801 Pls
2146 801 Pls
2146 801 Pls
2606 801 Pls
2606 801 Pls
2606 801 Pls
2606 801 Pls
3066 800 Pls
3066 800 Pls
3066 801 Pls
3066 801 Pls
3527 800 Pls
3527 800 Pls
3527 801 Pls
3527 801 Pls
4447 800 Pls
4447 801 Pls
4447 801 Pls
4447 801 Pls
4908 801 Pls
4908 801 Pls
4908 801 Pls
4908 801 Pls
5368 801 Pls
5368 801 Pls
5368 802 Pls
5368 802 Pls
5828 802 Pls
5828 802 Pls
5828 802 Pls
5828 802 Pls
6289 802 Pls
6289 803 Pls
6289 803 Pls
6289 803 Pls
1685 812 Pls
1685 813 Pls
1685 817 Pls
1685 812 Pls
2146 810 Pls
2146 808 Pls
2146 813 Pls
2146 813 Pls
2606 807 Pls
2606 809 Pls
2606 810 Pls
2606 811 Pls
3066 805 Pls
3066 806 Pls
3066 808 Pls
3066 807 Pls
3527 803 Pls
3527 805 Pls
3527 804 Pls
3527 806 Pls
4447 810 Pls
4447 810 Pls
4447 811 Pls
4447 811 Pls
4908 815 Pls
4908 817 Pls
4908 818 Pls
4908 818 Pls
5368 826 Pls
5368 829 Pls
5368 826 Pls
5368 828 Pls
5828 831 Pls
5828 835 Pls
5828 834 Pls
5828 835 Pls
6289 841 Pls
6289 844 Pls
6289 842 Pls
6289 844 Pls
1685 849 Pls
1685 869 Pls
1685 856 Pls
1685 882 Pls
2146 836 Pls
2146 834 Pls
2146 849 Pls
2146 844 Pls
2606 837 Pls
2606 839 Pls
2606 847 Pls
2606 835 Pls
3066 827 Pls
3066 829 Pls
3066 827 Pls
3066 830 Pls
3527 815 Pls
3527 813 Pls
3527 817 Pls
3527 820 Pls
4447 848 Pls
4447 845 Pls
4447 846 Pls
4447 845 Pls
4908 876 Pls
4908 888 Pls
4908 885 Pls
4908 884 Pls
5368 921 Pls
5368 907 Pls
5368 906 Pls
5368 939 Pls
5828 937 Pls
5828 958 Pls
5828 957 Pls
5828 958 Pls
6289 998 Pls
6289 977 Pls
6289 1005 Pls
6289 1024 Pls
1685 944 Pls
1685 960 Pls
1685 958 Pls
1685 998 Pls
2146 948 Pls
2146 916 Pls
2146 909 Pls
2146 918 Pls
2606 888 Pls
2606 907 Pls
2606 897 Pls
2606 929 Pls
3066 870 Pls
3066 863 Pls
3066 873 Pls
3066 888 Pls
3527 840 Pls
3527 851 Pls
3527 852 Pls
3527 850 Pls
4447 952 Pls
4447 944 Pls
4447 937 Pls
4447 969 Pls
4908 1041 Pls
4908 1089 Pls
4908 1099 Pls
4908 1073 Pls
5368 1179 Pls
5368 1202 Pls
5368 1234 Pls
5368 1264 Pls
5828 1371 Pls
5828 1444 Pls
5828 1426 Pls
5828 1386 Pls
6289 1560 Pls
6289 1550 Pls
6289 1605 Pls
6289 1619 Pls
1685 1113 Pls
1685 1111 Pls
1685 1147 Pls
1685 1132 Pls
2146 1054 Pls
2146 1111 Pls
2146 1116 Pls
2146 1122 Pls
2606 1000 Pls
2606 1057 Pls
2606 1040 Pls
2606 1077 Pls
3066 945 Pls
3066 1026 Pls
3066 956 Pls
3066 989 Pls
3527 910 Pls
3527 908 Pls
3527 939 Pls
3527 935 Pls
4447 1307 Pls
4447 1372 Pls
4447 1481 Pls
4447 1261 Pls
4908 1877 Pls
4908 1831 Pls
4908 1884 Pls
4908 2111 Pls
5368 2534 Pls
5368 2635 Pls
5368 2780 Pls
5368 2740 Pls
5828 3131 Pls
5828 2944 Pls
5828 3078 Pls
5828 3531 Pls
6289 4009 Pls
6289 4100 Pls
6289 3802 Pls
6289 4026 Pls
1685 803 Pls
1685 802 Pls
1685 802 Pls
1685 802 Pls
2146 801 Pls
2146 801 Pls
2146 801 Pls
2146 802 Pls
2606 801 Pls
2606 801 Pls
2606 801 Pls
2606 801 Pls
3066 801 Pls
3066 801 Pls
3066 801 Pls
3066 801 Pls
3527 800 Pls
3527 801 Pls
3527 800 Pls
3527 800 Pls
4447 801 Pls
4447 801 Pls
4447 801 Pls
4447 801 Pls
4908 801 Pls
4908 801 Pls
4908 801 Pls
4908 801 Pls
5368 801 Pls
5368 801 Pls
5368 802 Pls
5368 802 Pls
5828 802 Pls
5828 802 Pls
5828 802 Pls
5828 803 Pls
6289 802 Pls
6289 802 Pls
6289 803 Pls
6289 803 Pls
1685 811 Pls
1685 812 Pls
1685 813 Pls
1685 819 Pls
2146 810 Pls
2146 810 Pls
2146 813 Pls
2146 812 Pls
2606 807 Pls
2606 809 Pls
2606 809 Pls
2606 809 Pls
3066 807 Pls
3066 807 Pls
3066 807 Pls
3066 808 Pls
3527 804 Pls
3527 805 Pls
3527 805 Pls
3527 805 Pls
4447 808 Pls
4447 809 Pls
4447 809 Pls
4447 811 Pls
4908 815 Pls
4908 819 Pls
4908 817 Pls
4908 818 Pls
5368 823 Pls
5368 824 Pls
5368 826 Pls
5368 827 Pls
5828 830 Pls
5828 834 Pls
5828 833 Pls
5828 835 Pls
6289 838 Pls
6289 840 Pls
6289 842 Pls
6289 848 Pls
1685 849 Pls
1685 847 Pls
1685 861 Pls
1685 886 Pls
2146 832 Pls
2146 840 Pls
2146 838 Pls
2146 842 Pls
2606 835 Pls
2606 842 Pls
2606 840 Pls
2606 835 Pls
3066 824 Pls
3066 826 Pls
3066 826 Pls
3066 829 Pls
3527 819 Pls
3527 820 Pls
3527 815 Pls
3527 822 Pls
4447 849 Pls
4447 841 Pls
4447 846 Pls
4447 844 Pls
4908 876 Pls
4908 882 Pls
4908 872 Pls
4908 878 Pls
5368 906 Pls
5368 911 Pls
5368 923 Pls
5368 923 Pls
5828 940 Pls
5828 953 Pls
5828 977 Pls
5828 962 Pls
6289 1004 Pls
6289 1001 Pls
6289 1002 Pls
6289 1020 Pls
1685 934 Pls
1685 957 Pls
1685 969 Pls
1685 981 Pls
2146 902 Pls
2146 917 Pls
2146 925 Pls
2146 977 Pls
2606 870 Pls
2606 873 Pls
2606 896 Pls
2606 887 Pls
3066 849 Pls
3066 863 Pls
3066 874 Pls
3066 881 Pls
3527 852 Pls
3527 851 Pls
3527 846 Pls
3527 852 Pls
4447 954 Pls
4447 965 Pls
4447 955 Pls
4447 970 Pls
4908 1103 Pls
4908 1041 Pls
4908 1048 Pls
4908 1084 Pls
5368 1157 Pls
5368 1237 Pls
5368 1289 Pls
5368 1211 Pls
5828 1318 Pls
5828 1394 Pls
5828 1429 Pls
5828 1402 Pls
6289 1527 Pls
6289 1565 Pls
6289 1429 Pls
6289 1626 Pls
1685 1115 Pls
1685 1252 Pls
1685 1164 Pls
1685 1198 Pls
2146 1032 Pls
2146 991 Pls
2146 1024 Pls
2146 1156 Pls
2606 1014 Pls
2606 996 Pls
2606 1035 Pls
2606 1024 Pls
3066 997 Pls
3066 969 Pls
3066 962 Pls
3066 980 Pls
3527 913 Pls
3527 894 Pls
3527 919 Pls
3527 896 Pls
4447 1384 Pls
4447 1412 Pls
4447 1336 Pls
4447 1349 Pls
4908 1871 Pls
4908 1914 Pls
4908 1816 Pls
4908 1898 Pls
5368 2244 Pls
5368 2424 Pls
5368 2587 Pls
5368 2575 Pls
5828 3045 Pls
5828 3360 Pls
5828 3492 Pls
5828 3353 Pls
6289 3870 Pls
6289 3818 Pls
6289 3925 Pls
6289 3879 Pls
% End plot #1
% Begin plot #2
1.000 UL
LT1
LCb setrgbcolor
2425 4551 M
[ [(Helvetica) 250.0 0.0 true true 0 (Average)]
] -83.3 MRshow
LT1
2575 4551 M
663 0 V
1685 919 M
461 -20 V
460 -23 V
460 -19 V
461 -19 V
920 121 V
461 147 V
460 161 V
460 184 V
461 181 V
% End plot #2
% Begin plot #3
stroke
LT2
LCb setrgbcolor
2425 4301 M
[ [(Helvetica) 250.0 0.0 true true 0 (Min)]
] -83.3 MRshow
LT2
2575 4301 M
663 0 V
1685 801 M
461 0 V
460 0 V
460 -1 V
461 0 V
920 0 V
461 1 V
460 0 V
460 1 V
461 0 V
% End plot #3
% Begin plot #4
stroke
LT3
LCb setrgbcolor
2425 4051 M
[ [(Helvetica) 250.0 0.0 true true 0 (Max)]
] -83.3 MRshow
LT3
2575 4051 M
663 0 V
1685 1299 M
461 -65 V
460 -116 V
460 -49 V
461 -80 V
920 492 V
461 759 V
460 595 V
460 860 V
461 662 V
% End plot #4
stroke
LTb
1225 4739 N
0 -3939 V
5524 0 V
0 3939 V
-5524 0 V
Z stroke
1.000 UP
1.000 UL
LTb
stroke
grestore
end
showpage
%%Trailer
%%DocumentFonts: Helvetica
