%!PS-Adobe-2.0 EPSF-2.0
%%Title: n_num_segments.precision.eps
%%Creator: gnuplot 4.4 patchlevel 3
%%CreationDate: Tue Jun  4 13:15:17 2013
%%DocumentFonts: (atend)
%%BoundingBox: 50 50 410 302
%%EndComments
%%BeginProlog
/gnudict 256 dict def
gnudict begin
%
% The following true/false flags may be edited by hand if desired.
% The unit line width and grayscale image gamma correction may also be changed.
%
/Color true def
/Blacktext false def
/Solid false def
/Dashlength 1 def
/Landscape false def
/Level1 false def
/Rounded false def
/ClipToBoundingBox false def
/TransparentPatterns false def
/gnulinewidth 5.000 def
/userlinewidth gnulinewidth def
/Gamma 1.0 def
%
/vshift -83 def
/dl1 {
  10.0 Dashlength mul mul
  Rounded { currentlinewidth 0.75 mul sub dup 0 le { pop 0.01 } if } if
} def
/dl2 {
  10.0 Dashlength mul mul
  Rounded { currentlinewidth 0.75 mul add } if
} def
/hpt_ 31.5 def
/vpt_ 31.5 def
/hpt hpt_ def
/vpt vpt_ def
Level1 {} {
/SDict 10 dict def
systemdict /pdfmark known not {
  userdict /pdfmark systemdict /cleartomark get put
} if
SDict begin [
  /Title (n_num_segments.precision.eps)
  /Subject (gnuplot plot)
  /Creator (gnuplot 4.4 patchlevel 3)
  /Author (xjia)
%  /Producer (gnuplot)
%  /Keywords ()
  /CreationDate (Tue Jun  4 13:15:17 2013)
  /DOCINFO pdfmark
end
} ifelse
/doclip {
  ClipToBoundingBox {
    newpath 50 50 moveto 410 50 lineto 410 302 lineto 50 302 lineto closepath
    clip
  } if
} def
%
% Gnuplot Prolog Version 4.4 (August 2010)
%
%/SuppressPDFMark true def
%
/M {moveto} bind def
/L {lineto} bind def
/R {rmoveto} bind def
/V {rlineto} bind def
/N {newpath moveto} bind def
/Z {closepath} bind def
/C {setrgbcolor} bind def
/f {rlineto fill} bind def
/g {setgray} bind def
/Gshow {show} def   % May be redefined later in the file to support UTF-8
/vpt2 vpt 2 mul def
/hpt2 hpt 2 mul def
/Lshow {currentpoint stroke M 0 vshift R 
	Blacktext {gsave 0 setgray show grestore} {show} ifelse} def
/Rshow {currentpoint stroke M dup stringwidth pop neg vshift R
	Blacktext {gsave 0 setgray show grestore} {show} ifelse} def
/Cshow {currentpoint stroke M dup stringwidth pop -2 div vshift R 
	Blacktext {gsave 0 setgray show grestore} {show} ifelse} def
/UP {dup vpt_ mul /vpt exch def hpt_ mul /hpt exch def
  /hpt2 hpt 2 mul def /vpt2 vpt 2 mul def} def
/DL {Color {setrgbcolor Solid {pop []} if 0 setdash}
 {pop pop pop 0 setgray Solid {pop []} if 0 setdash} ifelse} def
/BL {stroke userlinewidth 2 mul setlinewidth
	Rounded {1 setlinejoin 1 setlinecap} if} def
/AL {stroke userlinewidth 2 div setlinewidth
	Rounded {1 setlinejoin 1 setlinecap} if} def
/UL {dup gnulinewidth mul /userlinewidth exch def
	dup 1 lt {pop 1} if 10 mul /udl exch def} def
/PL {stroke userlinewidth setlinewidth
	Rounded {1 setlinejoin 1 setlinecap} if} def
3.8 setmiterlimit
% Default Line colors
/LCw {1 1 1} def
/LCb {0 0 0} def
/LCa {0 0 0} def
/LC0 {1 0 0} def
/LC1 {0 1 0} def
/LC2 {0 0 1} def
/LC3 {1 0 1} def
/LC4 {0 1 1} def
/LC5 {1 1 0} def
/LC6 {0 0 0} def
/LC7 {1 0.3 0} def
/LC8 {0.5 0.5 0.5} def
% Default Line Types
/LTw {PL [] 1 setgray} def
/LTb {BL [] LCb DL} def
/LTa {AL [1 udl mul 2 udl mul] 0 setdash LCa setrgbcolor} def
/LT0 {PL [] LC0 DL} def
/LT1 {PL [4 dl1 2 dl2] LC1 DL} def
/LT2 {PL [2 dl1 3 dl2] LC2 DL} def
/LT3 {PL [1 dl1 1.5 dl2] LC3 DL} def
/LT4 {PL [6 dl1 2 dl2 1 dl1 2 dl2] LC4 DL} def
/LT5 {PL [3 dl1 3 dl2 1 dl1 3 dl2] LC5 DL} def
/LT6 {PL [2 dl1 2 dl2 2 dl1 6 dl2] LC6 DL} def
/LT7 {PL [1 dl1 2 dl2 6 dl1 2 dl2 1 dl1 2 dl2] LC7 DL} def
/LT8 {PL [2 dl1 2 dl2 2 dl1 2 dl2 2 dl1 2 dl2 2 dl1 4 dl2] LC8 DL} def
/Pnt {stroke [] 0 setdash gsave 1 setlinecap M 0 0 V stroke grestore} def
/Dia {stroke [] 0 setdash 2 copy vpt add M
  hpt neg vpt neg V hpt vpt neg V
  hpt vpt V hpt neg vpt V closepath stroke
  Pnt} def
/Pls {stroke [] 0 setdash vpt sub M 0 vpt2 V
  currentpoint stroke M
  hpt neg vpt neg R hpt2 0 V stroke
 } def
/Box {stroke [] 0 setdash 2 copy exch hpt sub exch vpt add M
  0 vpt2 neg V hpt2 0 V 0 vpt2 V
  hpt2 neg 0 V closepath stroke
  Pnt} def
/Crs {stroke [] 0 setdash exch hpt sub exch vpt add M
  hpt2 vpt2 neg V currentpoint stroke M
  hpt2 neg 0 R hpt2 vpt2 V stroke} def
/TriU {stroke [] 0 setdash 2 copy vpt 1.12 mul add M
  hpt neg vpt -1.62 mul V
  hpt 2 mul 0 V
  hpt neg vpt 1.62 mul V closepath stroke
  Pnt} def
/Star {2 copy Pls Crs} def
/BoxF {stroke [] 0 setdash exch hpt sub exch vpt add M
  0 vpt2 neg V hpt2 0 V 0 vpt2 V
  hpt2 neg 0 V closepath fill} def
/TriUF {stroke [] 0 setdash vpt 1.12 mul add M
  hpt neg vpt -1.62 mul V
  hpt 2 mul 0 V
  hpt neg vpt 1.62 mul V closepath fill} def
/TriD {stroke [] 0 setdash 2 copy vpt 1.12 mul sub M
  hpt neg vpt 1.62 mul V
  hpt 2 mul 0 V
  hpt neg vpt -1.62 mul V closepath stroke
  Pnt} def
/TriDF {stroke [] 0 setdash vpt 1.12 mul sub M
  hpt neg vpt 1.62 mul V
  hpt 2 mul 0 V
  hpt neg vpt -1.62 mul V closepath fill} def
/DiaF {stroke [] 0 setdash vpt add M
  hpt neg vpt neg V hpt vpt neg V
  hpt vpt V hpt neg vpt V closepath fill} def
/Pent {stroke [] 0 setdash 2 copy gsave
  translate 0 hpt M 4 {72 rotate 0 hpt L} repeat
  closepath stroke grestore Pnt} def
/PentF {stroke [] 0 setdash gsave
  translate 0 hpt M 4 {72 rotate 0 hpt L} repeat
  closepath fill grestore} def
/Circle {stroke [] 0 setdash 2 copy
  hpt 0 360 arc stroke Pnt} def
/CircleF {stroke [] 0 setdash hpt 0 360 arc fill} def
/C0 {BL [] 0 setdash 2 copy moveto vpt 90 450 arc} bind def
/C1 {BL [] 0 setdash 2 copy moveto
	2 copy vpt 0 90 arc closepath fill
	vpt 0 360 arc closepath} bind def
/C2 {BL [] 0 setdash 2 copy moveto
	2 copy vpt 90 180 arc closepath fill
	vpt 0 360 arc closepath} bind def
/C3 {BL [] 0 setdash 2 copy moveto
	2 copy vpt 0 180 arc closepath fill
	vpt 0 360 arc closepath} bind def
/C4 {BL [] 0 setdash 2 copy moveto
	2 copy vpt 180 270 arc closepath fill
	vpt 0 360 arc closepath} bind def
/C5 {BL [] 0 setdash 2 copy moveto
	2 copy vpt 0 90 arc
	2 copy moveto
	2 copy vpt 180 270 arc closepath fill
	vpt 0 360 arc} bind def
/C6 {BL [] 0 setdash 2 copy moveto
	2 copy vpt 90 270 arc closepath fill
	vpt 0 360 arc closepath} bind def
/C7 {BL [] 0 setdash 2 copy moveto
	2 copy vpt 0 270 arc closepath fill
	vpt 0 360 arc closepath} bind def
/C8 {BL [] 0 setdash 2 copy moveto
	2 copy vpt 270 360 arc closepath fill
	vpt 0 360 arc closepath} bind def
/C9 {BL [] 0 setdash 2 copy moveto
	2 copy vpt 270 450 arc closepath fill
	vpt 0 360 arc closepath} bind def
/C10 {BL [] 0 setdash 2 copy 2 copy moveto vpt 270 360 arc closepath fill
	2 copy moveto
	2 copy vpt 90 180 arc closepath fill
	vpt 0 360 arc closepath} bind def
/C11 {BL [] 0 setdash 2 copy moveto
	2 copy vpt 0 180 arc closepath fill
	2 copy moveto
	2 copy vpt 270 360 arc closepath fill
	vpt 0 360 arc closepath} bind def
/C12 {BL [] 0 setdash 2 copy moveto
	2 copy vpt 180 360 arc closepath fill
	vpt 0 360 arc closepath} bind def
/C13 {BL [] 0 setdash 2 copy moveto
	2 copy vpt 0 90 arc closepath fill
	2 copy moveto
	2 copy vpt 180 360 arc closepath fill
	vpt 0 360 arc closepath} bind def
/C14 {BL [] 0 setdash 2 copy moveto
	2 copy vpt 90 360 arc closepath fill
	vpt 0 360 arc} bind def
/C15 {BL [] 0 setdash 2 copy vpt 0 360 arc closepath fill
	vpt 0 360 arc closepath} bind def
/Rec {newpath 4 2 roll moveto 1 index 0 rlineto 0 exch rlineto
	neg 0 rlineto closepath} bind def
/Square {dup Rec} bind def
/Bsquare {vpt sub exch vpt sub exch vpt2 Square} bind def
/S0 {BL [] 0 setdash 2 copy moveto 0 vpt rlineto BL Bsquare} bind def
/S1 {BL [] 0 setdash 2 copy vpt Square fill Bsquare} bind def
/S2 {BL [] 0 setdash 2 copy exch vpt sub exch vpt Square fill Bsquare} bind def
/S3 {BL [] 0 setdash 2 copy exch vpt sub exch vpt2 vpt Rec fill Bsquare} bind def
/S4 {BL [] 0 setdash 2 copy exch vpt sub exch vpt sub vpt Square fill Bsquare} bind def
/S5 {BL [] 0 setdash 2 copy 2 copy vpt Square fill
	exch vpt sub exch vpt sub vpt Square fill Bsquare} bind def
/S6 {BL [] 0 setdash 2 copy exch vpt sub exch vpt sub vpt vpt2 Rec fill Bsquare} bind def
/S7 {BL [] 0 setdash 2 copy exch vpt sub exch vpt sub vpt vpt2 Rec fill
	2 copy vpt Square fill Bsquare} bind def
/S8 {BL [] 0 setdash 2 copy vpt sub vpt Square fill Bsquare} bind def
/S9 {BL [] 0 setdash 2 copy vpt sub vpt vpt2 Rec fill Bsquare} bind def
/S10 {BL [] 0 setdash 2 copy vpt sub vpt Square fill 2 copy exch vpt sub exch vpt Square fill
	Bsquare} bind def
/S11 {BL [] 0 setdash 2 copy vpt sub vpt Square fill 2 copy exch vpt sub exch vpt2 vpt Rec fill
	Bsquare} bind def
/S12 {BL [] 0 setdash 2 copy exch vpt sub exch vpt sub vpt2 vpt Rec fill Bsquare} bind def
/S13 {BL [] 0 setdash 2 copy exch vpt sub exch vpt sub vpt2 vpt Rec fill
	2 copy vpt Square fill Bsquare} bind def
/S14 {BL [] 0 setdash 2 copy exch vpt sub exch vpt sub vpt2 vpt Rec fill
	2 copy exch vpt sub exch vpt Square fill Bsquare} bind def
/S15 {BL [] 0 setdash 2 copy Bsquare fill Bsquare} bind def
/D0 {gsave translate 45 rotate 0 0 S0 stroke grestore} bind def
/D1 {gsave translate 45 rotate 0 0 S1 stroke grestore} bind def
/D2 {gsave translate 45 rotate 0 0 S2 stroke grestore} bind def
/D3 {gsave translate 45 rotate 0 0 S3 stroke grestore} bind def
/D4 {gsave translate 45 rotate 0 0 S4 stroke grestore} bind def
/D5 {gsave translate 45 rotate 0 0 S5 stroke grestore} bind def
/D6 {gsave translate 45 rotate 0 0 S6 stroke grestore} bind def
/D7 {gsave translate 45 rotate 0 0 S7 stroke grestore} bind def
/D8 {gsave translate 45 rotate 0 0 S8 stroke grestore} bind def
/D9 {gsave translate 45 rotate 0 0 S9 stroke grestore} bind def
/D10 {gsave translate 45 rotate 0 0 S10 stroke grestore} bind def
/D11 {gsave translate 45 rotate 0 0 S11 stroke grestore} bind def
/D12 {gsave translate 45 rotate 0 0 S12 stroke grestore} bind def
/D13 {gsave translate 45 rotate 0 0 S13 stroke grestore} bind def
/D14 {gsave translate 45 rotate 0 0 S14 stroke grestore} bind def
/D15 {gsave translate 45 rotate 0 0 S15 stroke grestore} bind def
/DiaE {stroke [] 0 setdash vpt add M
  hpt neg vpt neg V hpt vpt neg V
  hpt vpt V hpt neg vpt V closepath stroke} def
/BoxE {stroke [] 0 setdash exch hpt sub exch vpt add M
  0 vpt2 neg V hpt2 0 V 0 vpt2 V
  hpt2 neg 0 V closepath stroke} def
/TriUE {stroke [] 0 setdash vpt 1.12 mul add M
  hpt neg vpt -1.62 mul V
  hpt 2 mul 0 V
  hpt neg vpt 1.62 mul V closepath stroke} def
/TriDE {stroke [] 0 setdash vpt 1.12 mul sub M
  hpt neg vpt 1.62 mul V
  hpt 2 mul 0 V
  hpt neg vpt -1.62 mul V closepath stroke} def
/PentE {stroke [] 0 setdash gsave
  translate 0 hpt M 4 {72 rotate 0 hpt L} repeat
  closepath stroke grestore} def
/CircE {stroke [] 0 setdash 
  hpt 0 360 arc stroke} def
/Opaque {gsave closepath 1 setgray fill grestore 0 setgray closepath} def
/DiaW {stroke [] 0 setdash vpt add M
  hpt neg vpt neg V hpt vpt neg V
  hpt vpt V hpt neg vpt V Opaque stroke} def
/BoxW {stroke [] 0 setdash exch hpt sub exch vpt add M
  0 vpt2 neg V hpt2 0 V 0 vpt2 V
  hpt2 neg 0 V Opaque stroke} def
/TriUW {stroke [] 0 setdash vpt 1.12 mul add M
  hpt neg vpt -1.62 mul V
  hpt 2 mul 0 V
  hpt neg vpt 1.62 mul V Opaque stroke} def
/TriDW {stroke [] 0 setdash vpt 1.12 mul sub M
  hpt neg vpt 1.62 mul V
  hpt 2 mul 0 V
  hpt neg vpt -1.62 mul V Opaque stroke} def
/PentW {stroke [] 0 setdash gsave
  translate 0 hpt M 4 {72 rotate 0 hpt L} repeat
  Opaque stroke grestore} def
/CircW {stroke [] 0 setdash 
  hpt 0 360 arc Opaque stroke} def
/BoxFill {gsave Rec 1 setgray fill grestore} def
/Density {
  /Fillden exch def
  currentrgbcolor
  /ColB exch def /ColG exch def /ColR exch def
  /ColR ColR Fillden mul Fillden sub 1 add def
  /ColG ColG Fillden mul Fillden sub 1 add def
  /ColB ColB Fillden mul Fillden sub 1 add def
  ColR ColG ColB setrgbcolor} def
/BoxColFill {gsave Rec PolyFill} def
/PolyFill {gsave Density fill grestore grestore} def
/h {rlineto rlineto rlineto gsave closepath fill grestore} bind def
%
% PostScript Level 1 Pattern Fill routine for rectangles
% Usage: x y w h s a XX PatternFill
%	x,y = lower left corner of box to be filled
%	w,h = width and height of box
%	  a = angle in degrees between lines and x-axis
%	 XX = 0/1 for no/yes cross-hatch
%
/PatternFill {gsave /PFa [ 9 2 roll ] def
  PFa 0 get PFa 2 get 2 div add PFa 1 get PFa 3 get 2 div add translate
  PFa 2 get -2 div PFa 3 get -2 div PFa 2 get PFa 3 get Rec
  gsave 1 setgray fill grestore clip
  currentlinewidth 0.5 mul setlinewidth
  /PFs PFa 2 get dup mul PFa 3 get dup mul add sqrt def
  0 0 M PFa 5 get rotate PFs -2 div dup translate
  0 1 PFs PFa 4 get div 1 add floor cvi
	{PFa 4 get mul 0 M 0 PFs V} for
  0 PFa 6 get ne {
	0 1 PFs PFa 4 get div 1 add floor cvi
	{PFa 4 get mul 0 2 1 roll M PFs 0 V} for
 } if
  stroke grestore} def
%
/languagelevel where
 {pop languagelevel} {1} ifelse
 2 lt
	{/InterpretLevel1 true def}
	{/InterpretLevel1 Level1 def}
 ifelse
%
% PostScript level 2 pattern fill definitions
%
/Level2PatternFill {
/Tile8x8 {/PaintType 2 /PatternType 1 /TilingType 1 /BBox [0 0 8 8] /XStep 8 /YStep 8}
	bind def
/KeepColor {currentrgbcolor [/Pattern /DeviceRGB] setcolorspace} bind def
<< Tile8x8
 /PaintProc {0.5 setlinewidth pop 0 0 M 8 8 L 0 8 M 8 0 L stroke} 
>> matrix makepattern
/Pat1 exch def
<< Tile8x8
 /PaintProc {0.5 setlinewidth pop 0 0 M 8 8 L 0 8 M 8 0 L stroke
	0 4 M 4 8 L 8 4 L 4 0 L 0 4 L stroke}
>> matrix makepattern
/Pat2 exch def
<< Tile8x8
 /PaintProc {0.5 setlinewidth pop 0 0 M 0 8 L
	8 8 L 8 0 L 0 0 L fill}
>> matrix makepattern
/Pat3 exch def
<< Tile8x8
 /PaintProc {0.5 setlinewidth pop -4 8 M 8 -4 L
	0 12 M 12 0 L stroke}
>> matrix makepattern
/Pat4 exch def
<< Tile8x8
 /PaintProc {0.5 setlinewidth pop -4 0 M 8 12 L
	0 -4 M 12 8 L stroke}
>> matrix makepattern
/Pat5 exch def
<< Tile8x8
 /PaintProc {0.5 setlinewidth pop -2 8 M 4 -4 L
	0 12 M 8 -4 L 4 12 M 10 0 L stroke}
>> matrix makepattern
/Pat6 exch def
<< Tile8x8
 /PaintProc {0.5 setlinewidth pop -2 0 M 4 12 L
	0 -4 M 8 12 L 4 -4 M 10 8 L stroke}
>> matrix makepattern
/Pat7 exch def
<< Tile8x8
 /PaintProc {0.5 setlinewidth pop 8 -2 M -4 4 L
	12 0 M -4 8 L 12 4 M 0 10 L stroke}
>> matrix makepattern
/Pat8 exch def
<< Tile8x8
 /PaintProc {0.5 setlinewidth pop 0 -2 M 12 4 L
	-4 0 M 12 8 L -4 4 M 8 10 L stroke}
>> matrix makepattern
/Pat9 exch def
/Pattern1 {PatternBgnd KeepColor Pat1 setpattern} bind def
/Pattern2 {PatternBgnd KeepColor Pat2 setpattern} bind def
/Pattern3 {PatternBgnd KeepColor Pat3 setpattern} bind def
/Pattern4 {PatternBgnd KeepColor Landscape {Pat5} {Pat4} ifelse setpattern} bind def
/Pattern5 {PatternBgnd KeepColor Landscape {Pat4} {Pat5} ifelse setpattern} bind def
/Pattern6 {PatternBgnd KeepColor Landscape {Pat9} {Pat6} ifelse setpattern} bind def
/Pattern7 {PatternBgnd KeepColor Landscape {Pat8} {Pat7} ifelse setpattern} bind def
} def
%
%
%End of PostScript Level 2 code
%
/PatternBgnd {
  TransparentPatterns {} {gsave 1 setgray fill grestore} ifelse
} def
%
% Substitute for Level 2 pattern fill codes with
% grayscale if Level 2 support is not selected.
%
/Level1PatternFill {
/Pattern1 {0.250 Density} bind def
/Pattern2 {0.500 Density} bind def
/Pattern3 {0.750 Density} bind def
/Pattern4 {0.125 Density} bind def
/Pattern5 {0.375 Density} bind def
/Pattern6 {0.625 Density} bind def
/Pattern7 {0.875 Density} bind def
} def
%
% Now test for support of Level 2 code
%
Level1 {Level1PatternFill} {Level2PatternFill} ifelse
%
/Symbol-Oblique /Symbol findfont [1 0 .167 1 0 0] makefont
dup length dict begin {1 index /FID eq {pop pop} {def} ifelse} forall
currentdict end definefont pop
/MFshow {
   { dup 5 get 3 ge
     { 5 get 3 eq {gsave} {grestore} ifelse }
     {dup dup 0 get findfont exch 1 get scalefont setfont
     [ currentpoint ] exch dup 2 get 0 exch R dup 5 get 2 ne {dup dup 6
     get exch 4 get {Gshow} {stringwidth pop 0 R} ifelse }if dup 5 get 0 eq
     {dup 3 get {2 get neg 0 exch R pop} {pop aload pop M} ifelse} {dup 5
     get 1 eq {dup 2 get exch dup 3 get exch 6 get stringwidth pop -2 div
     dup 0 R} {dup 6 get stringwidth pop -2 div 0 R 6 get
     show 2 index {aload pop M neg 3 -1 roll neg R pop pop} {pop pop pop
     pop aload pop M} ifelse }ifelse }ifelse }
     ifelse }
   forall} def
/Gswidth {dup type /stringtype eq {stringwidth} {pop (n) stringwidth} ifelse} def
/MFwidth {0 exch { dup 5 get 3 ge { 5 get 3 eq { 0 } { pop } ifelse }
 {dup 3 get{dup dup 0 get findfont exch 1 get scalefont setfont
     6 get Gswidth pop add} {pop} ifelse} ifelse} forall} def
/MLshow { currentpoint stroke M
  0 exch R
  Blacktext {gsave 0 setgray MFshow grestore} {MFshow} ifelse } bind def
/MRshow { currentpoint stroke M
  exch dup MFwidth neg 3 -1 roll R
  Blacktext {gsave 0 setgray MFshow grestore} {MFshow} ifelse } bind def
/MCshow { currentpoint stroke M
  exch dup MFwidth -2 div 3 -1 roll R
  Blacktext {gsave 0 setgray MFshow grestore} {MFshow} ifelse } bind def
/XYsave    { [( ) 1 2 true false 3 ()] } bind def
/XYrestore { [( ) 1 2 true false 4 ()] } bind def
end
%%EndProlog
gnudict begin
gsave
doclip
50 50 translate
0.050 0.050 scale
0 setgray
newpath
(Helvetica) findfont 250 scalefont setfont
1.000 UL
LTb
1225 800 M
63 0 V
5461 0 R
-63 0 V
stroke
1075 800 M
[ [(Helvetica) 250.0 0.0 true true 0 ( 0)]
] -83.3 MRshow
1.000 UL
LTb
1225 1194 M
63 0 V
5461 0 R
-63 0 V
stroke
1075 1194 M
[ [(Helvetica) 250.0 0.0 true true 0 ( 0.1)]
] -83.3 MRshow
1.000 UL
LTb
1225 1588 M
63 0 V
5461 0 R
-63 0 V
stroke
1075 1588 M
[ [(Helvetica) 250.0 0.0 true true 0 ( 0.2)]
] -83.3 MRshow
1.000 UL
LTb
1225 1982 M
63 0 V
5461 0 R
-63 0 V
stroke
1075 1982 M
[ [(Helvetica) 250.0 0.0 true true 0 ( 0.3)]
] -83.3 MRshow
1.000 UL
LTb
1225 2376 M
63 0 V
5461 0 R
-63 0 V
stroke
1075 2376 M
[ [(Helvetica) 250.0 0.0 true true 0 ( 0.4)]
] -83.3 MRshow
1.000 UL
LTb
1225 2770 M
63 0 V
5461 0 R
-63 0 V
stroke
1075 2770 M
[ [(Helvetica) 250.0 0.0 true true 0 ( 0.5)]
] -83.3 MRshow
1.000 UL
LTb
1225 3163 M
63 0 V
5461 0 R
-63 0 V
stroke
1075 3163 M
[ [(Helvetica) 250.0 0.0 true true 0 ( 0.6)]
] -83.3 MRshow
1.000 UL
LTb
1225 3557 M
63 0 V
5461 0 R
-63 0 V
stroke
1075 3557 M
[ [(Helvetica) 250.0 0.0 true true 0 ( 0.7)]
] -83.3 MRshow
1.000 UL
LTb
1225 3951 M
63 0 V
5461 0 R
-63 0 V
stroke
1075 3951 M
[ [(Helvetica) 250.0 0.0 true true 0 ( 0.8)]
] -83.3 MRshow
1.000 UL
LTb
1225 4345 M
63 0 V
5461 0 R
-63 0 V
stroke
1075 4345 M
[ [(Helvetica) 250.0 0.0 true true 0 ( 0.9)]
] -83.3 MRshow
1.000 UL
LTb
1225 4739 M
63 0 V
5461 0 R
-63 0 V
stroke
1075 4739 M
[ [(Helvetica) 250.0 0.0 true true 0 ( 1)]
] -83.3 MRshow
1.000 UL
LTb
1225 800 M
0 63 V
0 3876 R
0 -63 V
stroke
1225 550 M
[ [(Helvetica) 250.0 0.0 true true 0 ( 4)]
] -83.3 MCshow
1.000 UL
LTb
1916 800 M
0 63 V
0 3876 R
0 -63 V
stroke
1916 550 M
[ [(Helvetica) 250.0 0.0 true true 0 ( 6)]
] -83.3 MCshow
1.000 UL
LTb
2606 800 M
0 63 V
0 3876 R
0 -63 V
stroke
2606 550 M
[ [(Helvetica) 250.0 0.0 true true 0 ( 8)]
] -83.3 MCshow
1.000 UL
LTb
3297 800 M
0 63 V
0 3876 R
0 -63 V
stroke
3297 550 M
[ [(Helvetica) 250.0 0.0 true true 0 ( 10)]
] -83.3 MCshow
1.000 UL
LTb
3987 800 M
0 63 V
0 3876 R
0 -63 V
stroke
3987 550 M
[ [(Helvetica) 250.0 0.0 true true 0 ( 12)]
] -83.3 MCshow
1.000 UL
LTb
4678 800 M
0 63 V
0 3876 R
0 -63 V
stroke
4678 550 M
[ [(Helvetica) 250.0 0.0 true true 0 ( 14)]
] -83.3 MCshow
1.000 UL
LTb
5368 800 M
0 63 V
0 3876 R
0 -63 V
stroke
5368 550 M
[ [(Helvetica) 250.0 0.0 true true 0 ( 16)]
] -83.3 MCshow
1.000 UL
LTb
6059 800 M
0 63 V
0 3876 R
0 -63 V
stroke
6059 550 M
[ [(Helvetica) 250.0 0.0 true true 0 ( 18)]
] -83.3 MCshow
1.000 UL
LTb
6749 800 M
0 63 V
0 3876 R
0 -63 V
stroke
6749 550 M
[ [(Helvetica) 250.0 0.0 true true 0 ( 20)]
] -83.3 MCshow
1.000 UL
LTb
1.000 UL
LTb
1225 4739 N
0 -3939 V
5524 0 V
0 3939 V
-5524 0 V
Z stroke
LCb setrgbcolor
200 2769 M
currentpoint gsave translate -270 rotate 0 0 moveto
[ [(Helvetica) 250.0 0.0 true true 0 (Precision)]
] -83.3 MCshow
grestore
LTb
LCb setrgbcolor
3987 175 M
[ [(Helvetica) 250.0 0.0 true true 0 (Number of Segments)]
] -83.3 MCshow
LTb
1.000 UP
1.000 UL
LTb
% Begin plot #1
1.000 UP
1.000 UL
LT0
1570 4581 Pls
3297 4494 Pls
5023 4739 Pls
6749 4641 Pls
1570 4660 Pls
3297 4739 Pls
5023 4594 Pls
6749 4683 Pls
1570 4739 Pls
3297 4739 Pls
5023 4739 Pls
6749 4581 Pls
1570 4542 Pls
3297 4739 Pls
5023 4739 Pls
6749 4739 Pls
1570 4673 Pls
3297 4739 Pls
5023 4739 Pls
6749 4739 Pls
1570 3459 Pls
3297 4279 Pls
5023 4312 Pls
6749 4739 Pls
1570 2885 Pls
3297 3846 Pls
5023 4345 Pls
6749 4739 Pls
1570 2998 Pls
3297 3984 Pls
5023 4143 Pls
6749 4739 Pls
1570 3095 Pls
3297 2441 Pls
5023 3920 Pls
6749 4739 Pls
1570 3177 Pls
3297 3887 Pls
5023 4129 Pls
6749 4739 Pls
1570 4586 Pls
3297 4618 Pls
5023 4551 Pls
6749 4621 Pls
1570 4739 Pls
3297 4651 Pls
5023 4739 Pls
6749 4711 Pls
1570 4596 Pls
3297 4595 Pls
5023 4739 Pls
6749 4470 Pls
1570 4683 Pls
3297 4739 Pls
5023 4667 Pls
6749 4683 Pls
1570 4581 Pls
3297 4739 Pls
5023 4739 Pls
6749 4641 Pls
1570 2879 Pls
3297 2572 Pls
5023 3229 Pls
6749 3635 Pls
1570 1915 Pls
3297 2570 Pls
5023 2679 Pls
6749 3067 Pls
1570 2127 Pls
3297 2573 Pls
5023 2733 Pls
6749 3349 Pls
1570 1598 Pls
3297 2319 Pls
5023 2545 Pls
6749 3093 Pls
1570 1702 Pls
3297 2100 Pls
5023 2921 Pls
6749 3042 Pls
1570 4673 Pls
3297 4422 Pls
5023 4596 Pls
6749 4560 Pls
1570 4739 Pls
3297 4660 Pls
5023 4660 Pls
6749 4421 Pls
1570 4478 Pls
3297 4310 Pls
5023 4580 Pls
6749 4626 Pls
1570 4626 Pls
3297 4660 Pls
5023 4570 Pls
6749 4739 Pls
1570 4739 Pls
3297 4739 Pls
5023 4651 Pls
6749 4577 Pls
1570 2273 Pls
3297 2230 Pls
5023 2276 Pls
6749 2638 Pls
1570 1565 Pls
3297 1715 Pls
5023 2287 Pls
6749 2301 Pls
1570 1307 Pls
3297 1870 Pls
5023 2040 Pls
6749 2603 Pls
1570 1404 Pls
3297 1631 Pls
5023 2015 Pls
6749 2210 Pls
1570 1223 Pls
3297 1586 Pls
5023 1999 Pls
6749 2329 Pls
1570 4621 Pls
3297 4222 Pls
5023 4678 Pls
6749 4498 Pls
1570 4510 Pls
3297 4296 Pls
5023 4581 Pls
6749 4564 Pls
1570 4595 Pls
3297 4392 Pls
5023 4600 Pls
6749 4667 Pls
1570 4580 Pls
3297 4739 Pls
5023 4596 Pls
6749 4564 Pls
1570 4529 Pls
3297 4690 Pls
5023 4581 Pls
6749 4651 Pls
1570 1556 Pls
3297 1728 Pls
5023 1972 Pls
6749 2023 Pls
1570 1309 Pls
3297 1688 Pls
5023 1818 Pls
6749 1982 Pls
1570 1176 Pls
3297 1400 Pls
5023 1810 Pls
6749 1864 Pls
1570 1124 Pls
3297 1369 Pls
5023 1661 Pls
6749 1782 Pls
1570 1101 Pls
3297 1382 Pls
5023 1506 Pls
6749 1954 Pls
1570 4499 Pls
3297 4497 Pls
5023 3930 Pls
6749 4739 Pls
1570 4739 Pls
3297 4412 Pls
5023 4505 Pls
6749 4618 Pls
1570 4739 Pls
3297 4739 Pls
5023 4739 Pls
6749 4512 Pls
1570 4739 Pls
3297 4739 Pls
5023 4651 Pls
6749 4739 Pls
1570 4581 Pls
3297 4739 Pls
5023 4739 Pls
6749 4524 Pls
1570 1184 Pls
3297 1912 Pls
5023 1529 Pls
6749 1887 Pls
1570 1178 Pls
3297 1400 Pls
5023 1590 Pls
6749 1738 Pls
1570 1136 Pls
3297 1299 Pls
5023 1557 Pls
6749 1563 Pls
1570 1000 Pls
3297 1291 Pls
5023 1399 Pls
6749 1632 Pls
1570 1036 Pls
3297 1231 Pls
5023 1395 Pls
6749 1565 Pls
1570 4739 Pls
3297 4739 Pls
5023 4529 Pls
6749 4608 Pls
1570 4673 Pls
3297 4739 Pls
5023 4739 Pls
6749 4690 Pls
1570 4739 Pls
3297 4626 Pls
5023 4739 Pls
6749 4739 Pls
1570 4739 Pls
3297 4739 Pls
5023 4608 Pls
6749 4739 Pls
1570 4739 Pls
3297 4739 Pls
5023 4739 Pls
6749 4739 Pls
1570 3689 Pls
3297 4188 Pls
5023 4463 Pls
6749 4739 Pls
1570 4444 Pls
3297 4148 Pls
5023 4542 Pls
6749 4739 Pls
1570 3807 Pls
3297 3879 Pls
5023 4272 Pls
6749 4739 Pls
1570 3564 Pls
3297 3721 Pls
5023 4148 Pls
6749 4739 Pls
1570 3259 Pls
3297 4037 Pls
5023 4542 Pls
6749 4739 Pls
1570 4561 Pls
3297 4739 Pls
5023 4700 Pls
6749 4450 Pls
1570 4739 Pls
3297 4520 Pls
5023 4667 Pls
6749 4739 Pls
1570 4739 Pls
3297 4739 Pls
5023 4739 Pls
6749 4739 Pls
1570 4626 Pls
3297 4739 Pls
5023 4739 Pls
6749 4581 Pls
1570 4739 Pls
3297 4739 Pls
5023 4739 Pls
6749 4739 Pls
1570 3991 Pls
3297 2875 Pls
5023 3899 Pls
6749 4153 Pls
1570 3683 Pls
3297 2491 Pls
5023 3351 Pls
6749 3576 Pls
1570 2211 Pls
3297 2737 Pls
5023 2378 Pls
6749 3489 Pls
1570 2286 Pls
3297 2819 Pls
5023 2887 Pls
6749 3786 Pls
1570 1956 Pls
3297 2160 Pls
5023 2567 Pls
6749 3490 Pls
1570 4667 Pls
3297 4690 Pls
5023 4739 Pls
6749 4651 Pls
1570 4564 Pls
3297 4454 Pls
5023 4739 Pls
6749 4624 Pls
1570 4667 Pls
3297 4660 Pls
5023 4651 Pls
6749 4602 Pls
1570 4739 Pls
3297 4739 Pls
5023 4575 Pls
6749 4703 Pls
1570 4739 Pls
3297 4581 Pls
5023 4581 Pls
6749 4739 Pls
1570 2552 Pls
3297 2507 Pls
5023 3623 Pls
6749 2794 Pls
1570 2079 Pls
3297 2385 Pls
5023 2509 Pls
6749 2730 Pls
1570 1439 Pls
3297 2296 Pls
5023 2311 Pls
6749 2781 Pls
1570 1580 Pls
3297 2056 Pls
5023 2001 Pls
6749 2687 Pls
1570 1475 Pls
3297 1838 Pls
5023 2296 Pls
6749 2577 Pls
1570 4374 Pls
3297 4641 Pls
5023 4553 Pls
6749 4497 Pls
1570 4739 Pls
3297 4650 Pls
5023 4567 Pls
6749 4485 Pls
1570 4673 Pls
3297 4589 Pls
5023 4595 Pls
6749 4739 Pls
1570 4626 Pls
3297 4641 Pls
5023 4621 Pls
6749 4739 Pls
1570 4667 Pls
3297 4739 Pls
5023 4739 Pls
6749 4739 Pls
1570 1758 Pls
3297 1999 Pls
5023 1917 Pls
6749 2066 Pls
1570 1466 Pls
3297 1939 Pls
5023 1959 Pls
6749 2599 Pls
1570 1213 Pls
3297 1477 Pls
5023 1918 Pls
6749 1894 Pls
1570 1388 Pls
3297 1547 Pls
5023 1815 Pls
6749 2243 Pls
1570 1263 Pls
3297 1323 Pls
5023 1838 Pls
6749 1919 Pls
1570 4667 Pls
3297 4644 Pls
5023 4656 Pls
6749 4580 Pls
1570 4608 Pls
3297 4570 Pls
5023 4739 Pls
6749 4564 Pls
1570 4469 Pls
3297 4739 Pls
5023 4510 Pls
6749 4711 Pls
1570 4739 Pls
3297 4596 Pls
5023 4530 Pls
6749 4651 Pls
1570 4739 Pls
3297 4739 Pls
5023 4739 Pls
6749 4598 Pls
1570 1543 Pls
3297 1826 Pls
5023 1677 Pls
6749 2533 Pls
1570 1351 Pls
3297 1723 Pls
5023 1654 Pls
6749 2257 Pls
1570 1250 Pls
3297 1487 Pls
5023 1626 Pls
6749 1689 Pls
1570 1087 Pls
3297 1397 Pls
5023 1557 Pls
6749 1719 Pls
1570 1140 Pls
3297 1270 Pls
5023 1501 Pls
6749 1735 Pls
1570 4739 Pls
3297 4739 Pls
5023 4739 Pls
6749 4739 Pls
1570 4739 Pls
3297 4739 Pls
5023 4739 Pls
6749 4739 Pls
1570 4739 Pls
3297 4739 Pls
5023 4739 Pls
6749 4739 Pls
1570 4739 Pls
3297 4641 Pls
5023 4739 Pls
6749 4739 Pls
1570 4739 Pls
3297 4739 Pls
5023 4739 Pls
6749 4739 Pls
1570 4476 Pls
3297 4411 Pls
5023 4444 Pls
6749 4739 Pls
1570 4122 Pls
3297 4056 Pls
5023 4739 Pls
6749 4739 Pls
1570 4214 Pls
3297 4148 Pls
5023 4542 Pls
6749 4739 Pls
1570 3630 Pls
3297 4258 Pls
5023 4608 Pls
6749 4739 Pls
1570 3754 Pls
3297 4312 Pls
5023 4319 Pls
6749 4739 Pls
1570 4739 Pls
3297 4626 Pls
5023 4739 Pls
6749 4739 Pls
1570 4667 Pls
3297 4739 Pls
5023 4739 Pls
6749 4555 Pls
1570 4739 Pls
3297 4739 Pls
5023 4667 Pls
6749 4626 Pls
1570 4739 Pls
3297 4739 Pls
5023 4739 Pls
6749 4739 Pls
1570 4739 Pls
3297 4739 Pls
5023 4739 Pls
6749 4739 Pls
1570 3032 Pls
3297 3262 Pls
5023 3859 Pls
6749 4581 Pls
1570 3285 Pls
3297 3721 Pls
5023 3951 Pls
6749 3689 Pls
1570 2697 Pls
3297 3236 Pls
5023 3513 Pls
6749 3476 Pls
1570 2807 Pls
3297 3544 Pls
5023 3282 Pls
6749 3677 Pls
1570 2165 Pls
3297 2937 Pls
5023 3290 Pls
6749 3458 Pls
1570 4739 Pls
3297 4591 Pls
5023 4608 Pls
6749 4539 Pls
1570 4739 Pls
3297 4651 Pls
5023 4554 Pls
6749 4667 Pls
1570 4539 Pls
3297 4739 Pls
5023 4667 Pls
6749 4706 Pls
1570 4739 Pls
3297 4739 Pls
5023 4739 Pls
6749 4700 Pls
1570 4739 Pls
3297 4739 Pls
5023 4739 Pls
6749 4651 Pls
1570 3124 Pls
3297 2861 Pls
5023 3025 Pls
6749 3610 Pls
1570 1998 Pls
3297 1800 Pls
5023 2350 Pls
6749 2926 Pls
1570 2127 Pls
3297 1968 Pls
5023 2342 Pls
6749 2827 Pls
1570 1830 Pls
3297 2149 Pls
5023 2731 Pls
6749 2690 Pls
1570 1606 Pls
3297 1828 Pls
5023 2232 Pls
6749 2790 Pls
1570 4739 Pls
3297 4608 Pls
5023 4739 Pls
6749 4636 Pls
1570 4739 Pls
3297 4673 Pls
5023 4651 Pls
6749 4739 Pls
1570 4651 Pls
3297 4580 Pls
5023 4651 Pls
6749 4713 Pls
1570 4395 Pls
3297 4739 Pls
5023 4660 Pls
6749 4739 Pls
1570 4739 Pls
3297 4690 Pls
5023 4739 Pls
6749 4596 Pls
1570 2152 Pls
3297 2494 Pls
5023 2902 Pls
6749 3131 Pls
1570 1741 Pls
3297 1829 Pls
5023 2475 Pls
6749 2299 Pls
1570 1707 Pls
3297 2112 Pls
5023 2169 Pls
6749 2106 Pls
1570 1479 Pls
3297 1717 Pls
5023 2010 Pls
6749 2079 Pls
1570 1499 Pls
3297 1885 Pls
5023 1901 Pls
6749 2041 Pls
1570 4474 Pls
3297 4595 Pls
5023 4421 Pls
6749 4739 Pls
1570 4608 Pls
3297 4464 Pls
5023 4739 Pls
6749 4739 Pls
1570 4651 Pls
3297 4739 Pls
5023 4739 Pls
6749 4586 Pls
1570 4739 Pls
3297 4739 Pls
5023 4619 Pls
6749 4356 Pls
1570 4739 Pls
3297 4739 Pls
5023 4739 Pls
6749 4739 Pls
1570 1564 Pls
3297 2391 Pls
5023 1657 Pls
6749 2203 Pls
1570 1414 Pls
3297 1672 Pls
5023 2212 Pls
6749 2091 Pls
1570 1291 Pls
3297 1593 Pls
5023 1747 Pls
6749 1983 Pls
1570 1287 Pls
3297 1564 Pls
5023 1646 Pls
6749 1896 Pls
1570 1249 Pls
3297 1367 Pls
5023 1608 Pls
6749 1731 Pls
1570 4739 Pls
3297 4673 Pls
5023 4739 Pls
6749 4739 Pls
1570 4739 Pls
3297 4739 Pls
5023 4739 Pls
6749 4739 Pls
1570 4673 Pls
3297 4739 Pls
5023 4739 Pls
6749 4739 Pls
1570 4345 Pls
3297 4345 Pls
5023 4739 Pls
6749 4739 Pls
1570 4739 Pls
3297 4739 Pls
5023 4739 Pls
6749 4739 Pls
1570 4476 Pls
3297 4542 Pls
5023 4739 Pls
6749 4739 Pls
1570 3745 Pls
3297 4542 Pls
5023 4739 Pls
6749 4739 Pls
1570 4122 Pls
3297 4109 Pls
5023 4148 Pls
6749 4739 Pls
1570 4251 Pls
3297 4188 Pls
5023 4739 Pls
6749 4739 Pls
1570 3623 Pls
3297 3886 Pls
5023 4345 Pls
6749 4739 Pls
1570 4739 Pls
3297 4626 Pls
5023 4706 Pls
6749 4667 Pls
1570 4739 Pls
3297 4739 Pls
5023 4739 Pls
6749 4596 Pls
1570 4739 Pls
3297 4739 Pls
5023 4739 Pls
6749 4739 Pls
1570 4739 Pls
3297 4739 Pls
5023 4651 Pls
6749 4739 Pls
1570 4739 Pls
3297 4739 Pls
5023 4739 Pls
6749 4739 Pls
1570 4148 Pls
3297 3347 Pls
5023 3925 Pls
6749 4082 Pls
1570 2846 Pls
3297 3657 Pls
5023 4591 Pls
6749 4495 Pls
1570 2513 Pls
3297 3694 Pls
5023 4012 Pls
6749 3940 Pls
1570 3488 Pls
3297 3137 Pls
5023 3981 Pls
6749 4161 Pls
1570 2875 Pls
3297 3337 Pls
5023 3415 Pls
6749 3933 Pls
1570 4616 Pls
3297 4424 Pls
5023 4739 Pls
6749 4739 Pls
1570 4739 Pls
3297 4739 Pls
5023 4739 Pls
6749 4739 Pls
1570 4581 Pls
3297 4739 Pls
5023 4651 Pls
6749 4667 Pls
1570 4739 Pls
3297 4739 Pls
5023 4739 Pls
6749 4695 Pls
1570 4739 Pls
3297 4626 Pls
5023 4739 Pls
6749 4739 Pls
1570 2786 Pls
3297 3253 Pls
5023 3424 Pls
6749 3597 Pls
1570 2588 Pls
3297 3255 Pls
5023 3075 Pls
6749 3028 Pls
1570 2353 Pls
3297 2198 Pls
5023 2724 Pls
6749 2925 Pls
1570 1934 Pls
3297 2822 Pls
5023 2495 Pls
6749 2775 Pls
1570 1732 Pls
3297 1904 Pls
5023 2699 Pls
6749 2725 Pls
1570 4739 Pls
3297 4683 Pls
5023 4539 Pls
6749 4553 Pls
1570 4739 Pls
3297 4370 Pls
5023 4349 Pls
6749 4610 Pls
1570 4739 Pls
3297 4690 Pls
5023 4739 Pls
6749 4667 Pls
1570 4739 Pls
3297 4678 Pls
5023 4739 Pls
6749 4626 Pls
1570 4651 Pls
3297 4551 Pls
5023 4739 Pls
6749 4611 Pls
1570 2479 Pls
3297 2258 Pls
5023 2794 Pls
6749 3076 Pls
1570 1894 Pls
3297 2282 Pls
5023 2411 Pls
6749 2646 Pls
1570 1722 Pls
3297 2312 Pls
5023 2100 Pls
6749 2302 Pls
1570 1486 Pls
3297 1758 Pls
5023 2146 Pls
6749 2203 Pls
1570 1656 Pls
3297 2247 Pls
5023 1979 Pls
6749 2132 Pls
1570 4739 Pls
3297 4646 Pls
5023 4686 Pls
6749 4636 Pls
1570 4739 Pls
3297 4683 Pls
5023 4686 Pls
6749 4693 Pls
1570 4673 Pls
3297 4683 Pls
5023 4596 Pls
6749 4596 Pls
1570 4739 Pls
3297 4739 Pls
5023 4739 Pls
6749 4739 Pls
1570 4739 Pls
3297 4476 Pls
5023 4739 Pls
6749 4739 Pls
1570 2212 Pls
3297 2446 Pls
5023 2433 Pls
6749 3034 Pls
1570 1522 Pls
3297 1954 Pls
5023 2266 Pls
6749 2061 Pls
1570 1493 Pls
3297 1661 Pls
5023 1999 Pls
6749 2236 Pls
1570 1298 Pls
3297 1723 Pls
5023 1927 Pls
6749 1938 Pls
1570 1264 Pls
3297 1555 Pls
5023 1912 Pls
6749 1767 Pls
1570 4739 Pls
3297 4739 Pls
5023 4739 Pls
6749 4739 Pls
1570 4739 Pls
3297 4739 Pls
5023 4739 Pls
6749 4739 Pls
1570 4739 Pls
3297 4739 Pls
5023 4651 Pls
6749 4739 Pls
1570 4739 Pls
3297 4739 Pls
5023 4739 Pls
6749 4739 Pls
1570 4739 Pls
3297 4739 Pls
5023 4739 Pls
6749 4739 Pls
1570 4345 Pls
3297 4739 Pls
5023 4739 Pls
6749 4739 Pls
1570 4148 Pls
3297 4608 Pls
5023 4739 Pls
6749 4739 Pls
1570 4739 Pls
3297 4739 Pls
5023 4739 Pls
6749 4739 Pls
1570 4444 Pls
3297 3853 Pls
5023 4312 Pls
6749 4739 Pls
1570 3892 Pls
3297 4345 Pls
5023 4739 Pls
6749 4739 Pls
1570 4739 Pls
3297 4739 Pls
5023 4739 Pls
6749 4683 Pls
1570 4739 Pls
3297 4739 Pls
5023 4690 Pls
6749 4739 Pls
1570 4651 Pls
3297 4739 Pls
5023 4739 Pls
6749 4739 Pls
1570 4739 Pls
3297 4641 Pls
5023 4690 Pls
6749 4739 Pls
1570 4739 Pls
3297 4739 Pls
5023 4739 Pls
6749 4739 Pls
1570 4608 Pls
3297 4279 Pls
5023 4345 Pls
6749 4181 Pls
1570 3410 Pls
3297 4115 Pls
5023 4285 Pls
6749 4154 Pls
1570 3163 Pls
3297 3318 Pls
5023 3679 Pls
6749 3698 Pls
1570 3295 Pls
3297 3881 Pls
5023 3497 Pls
6749 3773 Pls
1570 2890 Pls
3297 3133 Pls
5023 3379 Pls
6749 3569 Pls
1570 4739 Pls
3297 4739 Pls
5023 4667 Pls
6749 4739 Pls
1570 4739 Pls
3297 4510 Pls
5023 4686 Pls
6749 4645 Pls
1570 4739 Pls
3297 4678 Pls
5023 4608 Pls
6749 4739 Pls
1570 4739 Pls
3297 4739 Pls
5023 4739 Pls
6749 4739 Pls
1570 4739 Pls
3297 4739 Pls
5023 4667 Pls
6749 4739 Pls
1570 3610 Pls
3297 3362 Pls
5023 3308 Pls
6749 4469 Pls
1570 3174 Pls
3297 3652 Pls
5023 3315 Pls
6749 3042 Pls
1570 1894 Pls
3297 3243 Pls
5023 2911 Pls
6749 2901 Pls
1570 2568 Pls
3297 2652 Pls
5023 2622 Pls
6749 3465 Pls
1570 2445 Pls
3297 2586 Pls
5023 2752 Pls
6749 2589 Pls
1570 4739 Pls
3297 4667 Pls
5023 4739 Pls
6749 4739 Pls
1570 4673 Pls
3297 4739 Pls
5023 4739 Pls
6749 4646 Pls
1570 4641 Pls
3297 4739 Pls
5023 4667 Pls
6749 4739 Pls
1570 4739 Pls
3297 4580 Pls
5023 4640 Pls
6749 4739 Pls
1570 4739 Pls
3297 4739 Pls
5023 4739 Pls
6749 4739 Pls
1570 3032 Pls
3297 3252 Pls
5023 3124 Pls
6749 2547 Pls
1570 2071 Pls
3297 2492 Pls
5023 2148 Pls
6749 3080 Pls
1570 1760 Pls
3297 2259 Pls
5023 2609 Pls
6749 2867 Pls
1570 1808 Pls
3297 2030 Pls
5023 2195 Pls
6749 2525 Pls
1570 1588 Pls
3297 2133 Pls
5023 2060 Pls
6749 2266 Pls
1570 4739 Pls
3297 4739 Pls
5023 4621 Pls
6749 4535 Pls
1570 4739 Pls
3297 4739 Pls
5023 4739 Pls
6749 4739 Pls
1570 4739 Pls
3297 4739 Pls
5023 4646 Pls
6749 4739 Pls
1570 4660 Pls
3297 4678 Pls
5023 4739 Pls
6749 4739 Pls
1570 4608 Pls
3297 4739 Pls
5023 4739 Pls
6749 4739 Pls
1570 2113 Pls
3297 3170 Pls
5023 2857 Pls
6749 2362 Pls
1570 1522 Pls
3297 2377 Pls
5023 2211 Pls
6749 2659 Pls
1570 1611 Pls
3297 2019 Pls
5023 1923 Pls
6749 2300 Pls
1570 1427 Pls
3297 1799 Pls
5023 1765 Pls
6749 2004 Pls
1570 1279 Pls
3297 1716 Pls
5023 1846 Pls
6749 2087 Pls
1570 4739 Pls
3297 4739 Pls
5023 4739 Pls
6749 4739 Pls
1570 4739 Pls
3297 4739 Pls
5023 4739 Pls
6749 4739 Pls
1570 4739 Pls
3297 4739 Pls
5023 4739 Pls
6749 4739 Pls
1570 4739 Pls
3297 4739 Pls
5023 4739 Pls
6749 4739 Pls
1570 4739 Pls
3297 4739 Pls
5023 4739 Pls
6749 4739 Pls
1570 4542 Pls
3297 4739 Pls
5023 4739 Pls
6749 4739 Pls
1570 4739 Pls
3297 4739 Pls
5023 4739 Pls
6749 4739 Pls
1570 4660 Pls
3297 4641 Pls
5023 4739 Pls
6749 4739 Pls
1570 4608 Pls
3297 4641 Pls
5023 4739 Pls
6749 4739 Pls
1570 4148 Pls
3297 4286 Pls
5023 4345 Pls
6749 4739 Pls
1570 4739 Pls
3297 4739 Pls
5023 4739 Pls
6749 4706 Pls
1570 4583 Pls
3297 4524 Pls
5023 4739 Pls
6749 4739 Pls
1570 4739 Pls
3297 4739 Pls
5023 4651 Pls
6749 4739 Pls
1570 4739 Pls
3297 4739 Pls
5023 4739 Pls
6749 4739 Pls
1570 4739 Pls
3297 4739 Pls
5023 4739 Pls
6749 4739 Pls
1570 4056 Pls
3297 4542 Pls
5023 3925 Pls
6749 4220 Pls
1570 4641 Pls
3297 4082 Pls
5023 3689 Pls
6749 4017 Pls
1570 3646 Pls
3297 4089 Pls
5023 3869 Pls
6749 4420 Pls
1570 3820 Pls
3297 3155 Pls
5023 4509 Pls
6749 3931 Pls
1570 3214 Pls
3297 3218 Pls
5023 3602 Pls
6749 3783 Pls
1570 4651 Pls
3297 4739 Pls
5023 4739 Pls
6749 4559 Pls
1570 4739 Pls
3297 4625 Pls
5023 4739 Pls
6749 4739 Pls
1570 4739 Pls
3297 4739 Pls
5023 4739 Pls
6749 4739 Pls
1570 4739 Pls
3297 4739 Pls
5023 4739 Pls
6749 4739 Pls
1570 4739 Pls
3297 4626 Pls
5023 4739 Pls
6749 4739 Pls
1570 4069 Pls
3297 3131 Pls
5023 3879 Pls
6749 3984 Pls
1570 3050 Pls
3297 3155 Pls
5023 3345 Pls
6749 3225 Pls
1570 4054 Pls
3297 2498 Pls
5023 3615 Pls
6749 3117 Pls
1570 2486 Pls
3297 3107 Pls
5023 3440 Pls
6749 3150 Pls
1570 2035 Pls
3297 2312 Pls
5023 2656 Pls
6749 3170 Pls
1570 4660 Pls
3297 4559 Pls
5023 4739 Pls
6749 4739 Pls
1570 4739 Pls
3297 4739 Pls
5023 4739 Pls
6749 4739 Pls
1570 4739 Pls
3297 4678 Pls
5023 4739 Pls
6749 4739 Pls
1570 4739 Pls
3297 4739 Pls
5023 4678 Pls
6749 4686 Pls
1570 4739 Pls
3297 4739 Pls
5023 4739 Pls
6749 4739 Pls
1570 2912 Pls
3297 2879 Pls
5023 3204 Pls
6749 3912 Pls
1570 2493 Pls
3297 2796 Pls
5023 2794 Pls
6749 2890 Pls
1570 2320 Pls
3297 2540 Pls
5023 2342 Pls
6749 2699 Pls
1570 2428 Pls
3297 2037 Pls
5023 2686 Pls
6749 2793 Pls
1570 1802 Pls
3297 2139 Pls
5023 2251 Pls
6749 2377 Pls
1570 4739 Pls
3297 4739 Pls
5023 4651 Pls
6749 4651 Pls
1570 4739 Pls
3297 4739 Pls
5023 4739 Pls
6749 4650 Pls
1570 4673 Pls
3297 4667 Pls
5023 4739 Pls
6749 4739 Pls
1570 4739 Pls
3297 4651 Pls
5023 4739 Pls
6749 4646 Pls
1570 4739 Pls
3297 4739 Pls
5023 4739 Pls
6749 4678 Pls
1570 2389 Pls
3297 2722 Pls
5023 2724 Pls
6749 2966 Pls
1570 1945 Pls
3297 2268 Pls
5023 2210 Pls
6749 2789 Pls
1570 2055 Pls
3297 2057 Pls
5023 2171 Pls
6749 2641 Pls
1570 1632 Pls
3297 1981 Pls
5023 1650 Pls
6749 2294 Pls
1570 1609 Pls
3297 1995 Pls
5023 1999 Pls
6749 2349 Pls
1570 4739 Pls
3297 4739 Pls
5023 4706 Pls
6749 4739 Pls
1570 4673 Pls
3297 4739 Pls
5023 4700 Pls
6749 4739 Pls
1570 4739 Pls
3297 4739 Pls
5023 4739 Pls
6749 4739 Pls
1570 4739 Pls
3297 4739 Pls
5023 4739 Pls
6749 4739 Pls
1570 4739 Pls
3297 4739 Pls
5023 4739 Pls
6749 4739 Pls
1570 4608 Pls
3297 4345 Pls
5023 4739 Pls
6749 4739 Pls
1570 4050 Pls
3297 4739 Pls
5023 4542 Pls
6749 4739 Pls
1570 4450 Pls
3297 4608 Pls
5023 4739 Pls
6749 4739 Pls
1570 4739 Pls
3297 4739 Pls
5023 4188 Pls
6749 4739 Pls
1570 4188 Pls
3297 4383 Pls
5023 4148 Pls
6749 4739 Pls
1570 4651 Pls
3297 4686 Pls
5023 4739 Pls
6749 4739 Pls
1570 4739 Pls
3297 4739 Pls
5023 4739 Pls
6749 4739 Pls
1570 4739 Pls
3297 4739 Pls
5023 4739 Pls
6749 4739 Pls
1570 4739 Pls
3297 4739 Pls
5023 4739 Pls
6749 4739 Pls
1570 4739 Pls
3297 4739 Pls
5023 4739 Pls
6749 4739 Pls
1570 3794 Pls
3297 4279 Pls
5023 4542 Pls
6749 4214 Pls
1570 4345 Pls
3297 4476 Pls
5023 4056 Pls
6749 3872 Pls
1570 3273 Pls
3297 2754 Pls
5023 3962 Pls
6749 4739 Pls
1570 3557 Pls
3297 3107 Pls
5023 4082 Pls
6749 4089 Pls
1570 3518 Pls
3297 3523 Pls
5023 3323 Pls
6749 4237 Pls
1570 4739 Pls
3297 4714 Pls
5023 4739 Pls
6749 4678 Pls
1570 4739 Pls
3297 4739 Pls
5023 4739 Pls
6749 4706 Pls
1570 4739 Pls
3297 4739 Pls
5023 4739 Pls
6749 4667 Pls
1570 4739 Pls
3297 4739 Pls
5023 4739 Pls
6749 4476 Pls
1570 4739 Pls
3297 4739 Pls
5023 4739 Pls
6749 4739 Pls
1570 4082 Pls
3297 4188 Pls
5023 4109 Pls
6749 3636 Pls
1570 2927 Pls
3297 3689 Pls
5023 3354 Pls
6749 3019 Pls
1570 3279 Pls
3297 3247 Pls
5023 3762 Pls
6749 3477 Pls
1570 2803 Pls
3297 2834 Pls
5023 2979 Pls
6749 2538 Pls
1570 2383 Pls
3297 2331 Pls
5023 2675 Pls
6749 3109 Pls
1570 4739 Pls
3297 4706 Pls
5023 4739 Pls
6749 4678 Pls
1570 4651 Pls
3297 4739 Pls
5023 4673 Pls
6749 4739 Pls
1570 4632 Pls
3297 4739 Pls
5023 4739 Pls
6749 4678 Pls
1570 4739 Pls
3297 4739 Pls
5023 4739 Pls
6749 4739 Pls
1570 4739 Pls
3297 4739 Pls
5023 4739 Pls
6749 4739 Pls
1570 2577 Pls
3297 4056 Pls
5023 3331 Pls
6749 3658 Pls
1570 2733 Pls
3297 1980 Pls
5023 3088 Pls
6749 3560 Pls
1570 2294 Pls
3297 2185 Pls
5023 3021 Pls
6749 3128 Pls
1570 1967 Pls
3297 2329 Pls
5023 2178 Pls
6749 2861 Pls
1570 2038 Pls
3297 2223 Pls
5023 2378 Pls
6749 3014 Pls
1570 4739 Pls
3297 4739 Pls
5023 4678 Pls
6749 4739 Pls
1570 4660 Pls
3297 4549 Pls
5023 4739 Pls
6749 4607 Pls
1570 4667 Pls
3297 4700 Pls
5023 4739 Pls
6749 4739 Pls
1570 4739 Pls
3297 4739 Pls
5023 4651 Pls
6749 4739 Pls
1570 4641 Pls
3297 4739 Pls
5023 4651 Pls
6749 4739 Pls
1570 2840 Pls
3297 2656 Pls
5023 3451 Pls
6749 2619 Pls
1570 1944 Pls
3297 2166 Pls
5023 2184 Pls
6749 3067 Pls
1570 1822 Pls
3297 2182 Pls
5023 2256 Pls
6749 2435 Pls
1570 1701 Pls
3297 2033 Pls
5023 1831 Pls
6749 2322 Pls
1570 1467 Pls
3297 1934 Pls
5023 2004 Pls
6749 2500 Pls
1570 4739 Pls
3297 4739 Pls
5023 4739 Pls
6749 4739 Pls
1570 4739 Pls
3297 4739 Pls
5023 4739 Pls
6749 4739 Pls
1570 4739 Pls
3297 4739 Pls
5023 4739 Pls
6749 4739 Pls
1570 4739 Pls
3297 4739 Pls
5023 4739 Pls
6749 4739 Pls
1570 4739 Pls
3297 4739 Pls
5023 4739 Pls
6749 4739 Pls
1570 4739 Pls
3297 4739 Pls
5023 4739 Pls
6749 4739 Pls
1570 4345 Pls
3297 4542 Pls
5023 4542 Pls
6749 4739 Pls
1570 4476 Pls
3297 4581 Pls
5023 4739 Pls
6749 4739 Pls
1570 3984 Pls
3297 3951 Pls
5023 4739 Pls
6749 4739 Pls
1570 4739 Pls
3297 4135 Pls
5023 4617 Pls
6749 4739 Pls
1570 4739 Pls
3297 4739 Pls
5023 4739 Pls
6749 4651 Pls
1570 4739 Pls
3297 4739 Pls
5023 4651 Pls
6749 4739 Pls
1570 4739 Pls
3297 4739 Pls
5023 4739 Pls
6749 4667 Pls
1570 4739 Pls
3297 4739 Pls
5023 4739 Pls
6749 4739 Pls
1570 4739 Pls
3297 4739 Pls
5023 4739 Pls
6749 4739 Pls
1570 4542 Pls
3297 4739 Pls
5023 4542 Pls
6749 4739 Pls
1570 3721 Pls
3297 3224 Pls
5023 4345 Pls
6749 4570 Pls
1570 3131 Pls
3297 3859 Pls
5023 4050 Pls
6749 3794 Pls
1570 4010 Pls
3297 3947 Pls
5023 4185 Pls
6749 4148 Pls
1570 3997 Pls
3297 3937 Pls
5023 3756 Pls
6749 3646 Pls
1570 4739 Pls
3297 4739 Pls
5023 4739 Pls
6749 4667 Pls
1570 4739 Pls
3297 4651 Pls
5023 4626 Pls
6749 4678 Pls
1570 4739 Pls
3297 4739 Pls
5023 4739 Pls
6749 4651 Pls
1570 4739 Pls
3297 4739 Pls
5023 4739 Pls
6749 4739 Pls
1570 4739 Pls
3297 4739 Pls
5023 4739 Pls
6749 4739 Pls
1570 3767 Pls
3297 4122 Pls
5023 4214 Pls
6749 4476 Pls
1570 3205 Pls
3297 3329 Pls
5023 3556 Pls
6749 4174 Pls
1570 3065 Pls
3297 3235 Pls
5023 3239 Pls
6749 3533 Pls
1570 2610 Pls
3297 3129 Pls
5023 2973 Pls
6749 3177 Pls
1570 2841 Pls
3297 2582 Pls
5023 3064 Pls
6749 3170 Pls
1570 4609 Pls
3297 4739 Pls
5023 4678 Pls
6749 4739 Pls
1570 4739 Pls
3297 4690 Pls
5023 4739 Pls
6749 4695 Pls
1570 4739 Pls
3297 4651 Pls
5023 4739 Pls
6749 4539 Pls
1570 4739 Pls
3297 4739 Pls
5023 4739 Pls
6749 4739 Pls
1570 4739 Pls
3297 4739 Pls
5023 4667 Pls
6749 4739 Pls
1570 3489 Pls
3297 3345 Pls
5023 3096 Pls
6749 2960 Pls
1570 2707 Pls
3297 2899 Pls
5023 2920 Pls
6749 2938 Pls
1570 2305 Pls
3297 2481 Pls
5023 2469 Pls
6749 2961 Pls
1570 2116 Pls
3297 2582 Pls
5023 2570 Pls
6749 2668 Pls
1570 2025 Pls
3297 2478 Pls
5023 2647 Pls
6749 2570 Pls
1570 4673 Pls
3297 4597 Pls
5023 4678 Pls
6749 4695 Pls
1570 4667 Pls
3297 4739 Pls
5023 4739 Pls
6749 4686 Pls
1570 4739 Pls
3297 4739 Pls
5023 4739 Pls
6749 4678 Pls
1570 4739 Pls
3297 4739 Pls
5023 4739 Pls
6749 4739 Pls
1570 4739 Pls
3297 4739 Pls
5023 4739 Pls
6749 4739 Pls
1570 3407 Pls
3297 3062 Pls
5023 2515 Pls
6749 2399 Pls
1570 1851 Pls
3297 3257 Pls
5023 1918 Pls
6749 2700 Pls
1570 1907 Pls
3297 2276 Pls
5023 2302 Pls
6749 2151 Pls
1570 1674 Pls
3297 2210 Pls
5023 2555 Pls
6749 2220 Pls
1570 1601 Pls
3297 1546 Pls
5023 2176 Pls
6749 2516 Pls
1570 4739 Pls
3297 4739 Pls
5023 4695 Pls
6749 4739 Pls
1570 4739 Pls
3297 4739 Pls
5023 4739 Pls
6749 4739 Pls
1570 4739 Pls
3297 4739 Pls
5023 4626 Pls
6749 4739 Pls
1570 4739 Pls
3297 4739 Pls
5023 4542 Pls
6749 4739 Pls
1570 4739 Pls
3297 4739 Pls
5023 4739 Pls
6749 4739 Pls
1570 4476 Pls
3297 4739 Pls
5023 4739 Pls
6749 4739 Pls
1570 4739 Pls
3297 4739 Pls
5023 4739 Pls
6749 4739 Pls
1570 4608 Pls
3297 4444 Pls
5023 4542 Pls
6749 4739 Pls
1570 4227 Pls
3297 4214 Pls
5023 4739 Pls
6749 4739 Pls
1570 4739 Pls
3297 4739 Pls
5023 4542 Pls
6749 4739 Pls
1570 4667 Pls
3297 4739 Pls
5023 4686 Pls
6749 4739 Pls
1570 4695 Pls
3297 4683 Pls
5023 4739 Pls
6749 4739 Pls
1570 4651 Pls
3297 4739 Pls
5023 4667 Pls
6749 4739 Pls
1570 4739 Pls
3297 4739 Pls
5023 4739 Pls
6749 4739 Pls
1570 4739 Pls
3297 4660 Pls
5023 4739 Pls
6749 4739 Pls
1570 4476 Pls
3297 4319 Pls
5023 4279 Pls
6749 4739 Pls
1570 3886 Pls
3297 3833 Pls
5023 4188 Pls
6749 4043 Pls
1570 3991 Pls
3297 3991 Pls
5023 4424 Pls
6749 4312 Pls
1570 3767 Pls
3297 4088 Pls
5023 3538 Pls
6749 4279 Pls
1570 3288 Pls
3297 3492 Pls
5023 4045 Pls
6749 3786 Pls
1570 4739 Pls
3297 4739 Pls
5023 4739 Pls
6749 4739 Pls
1570 4739 Pls
3297 4739 Pls
5023 4667 Pls
6749 4739 Pls
1570 4739 Pls
3297 4739 Pls
5023 4651 Pls
6749 4673 Pls
1570 4739 Pls
3297 4739 Pls
5023 4739 Pls
6749 4739 Pls
1570 4739 Pls
3297 4739 Pls
5023 4739 Pls
6749 4739 Pls
1570 4384 Pls
3297 4319 Pls
5023 3767 Pls
6749 3820 Pls
1570 3468 Pls
3297 3584 Pls
5023 3679 Pls
6749 4129 Pls
1570 3216 Pls
3297 3796 Pls
5023 3835 Pls
6749 3557 Pls
1570 3140 Pls
3297 3248 Pls
5023 3617 Pls
6749 2892 Pls
1570 2468 Pls
3297 2680 Pls
5023 3290 Pls
6749 3849 Pls
1570 4739 Pls
3297 4739 Pls
5023 4739 Pls
6749 4637 Pls
1570 4660 Pls
3297 4700 Pls
5023 4739 Pls
6749 4739 Pls
1570 4739 Pls
3297 4739 Pls
5023 4739 Pls
6749 4739 Pls
1570 4739 Pls
3297 4739 Pls
5023 4739 Pls
6749 4739 Pls
1570 4739 Pls
3297 4739 Pls
5023 4739 Pls
6749 4739 Pls
1570 3229 Pls
3297 3728 Pls
5023 3907 Pls
6749 3792 Pls
1570 3053 Pls
3297 2714 Pls
5023 3352 Pls
6749 3183 Pls
1570 2827 Pls
3297 2621 Pls
5023 3070 Pls
6749 3343 Pls
1570 2448 Pls
3297 3050 Pls
5023 2866 Pls
6749 3219 Pls
1570 1764 Pls
3297 2215 Pls
5023 2549 Pls
6749 3191 Pls
1570 4626 Pls
3297 4678 Pls
5023 4651 Pls
6749 4739 Pls
1570 4648 Pls
3297 4667 Pls
5023 4739 Pls
6749 4739 Pls
1570 4667 Pls
3297 4739 Pls
5023 4686 Pls
6749 4739 Pls
1570 4667 Pls
3297 4626 Pls
5023 4739 Pls
6749 4739 Pls
1570 4739 Pls
3297 4739 Pls
5023 4739 Pls
6749 4739 Pls
1570 3267 Pls
3297 3144 Pls
5023 3158 Pls
6749 3364 Pls
1570 2088 Pls
3297 2199 Pls
5023 3448 Pls
6749 2870 Pls
1570 2294 Pls
3297 1987 Pls
5023 2427 Pls
6749 2793 Pls
1570 2015 Pls
3297 2311 Pls
5023 2010 Pls
6749 2516 Pls
1570 1865 Pls
3297 1759 Pls
5023 2064 Pls
6749 2374 Pls
1570 4739 Pls
3297 4739 Pls
5023 4739 Pls
6749 4739 Pls
1570 4683 Pls
3297 4739 Pls
5023 4739 Pls
6749 4739 Pls
1570 4739 Pls
3297 4739 Pls
5023 4739 Pls
6749 4739 Pls
1570 4739 Pls
3297 4739 Pls
5023 4739 Pls
6749 4739 Pls
1570 4739 Pls
3297 4739 Pls
5023 4739 Pls
6749 4739 Pls
1570 4739 Pls
3297 4476 Pls
5023 4608 Pls
6749 4739 Pls
1570 4739 Pls
3297 4739 Pls
5023 4739 Pls
6749 4739 Pls
1570 4476 Pls
3297 4542 Pls
5023 4739 Pls
6749 4739 Pls
1570 4608 Pls
3297 4581 Pls
5023 4509 Pls
6749 4739 Pls
1570 4345 Pls
3297 4082 Pls
5023 4641 Pls
6749 4739 Pls
1570 4641 Pls
3297 4739 Pls
5023 4739 Pls
6749 4739 Pls
1570 4651 Pls
3297 4739 Pls
5023 4739 Pls
6749 4739 Pls
1570 4739 Pls
3297 4739 Pls
5023 4739 Pls
6749 4739 Pls
1570 4739 Pls
3297 4739 Pls
5023 4739 Pls
6749 4651 Pls
1570 4739 Pls
3297 4739 Pls
5023 4739 Pls
6749 4660 Pls
1570 4345 Pls
3297 4739 Pls
5023 4581 Pls
6749 4581 Pls
1570 4476 Pls
3297 4463 Pls
5023 4542 Pls
6749 4739 Pls
1570 3473 Pls
3297 3715 Pls
5023 3656 Pls
6749 4444 Pls
1570 3889 Pls
3297 3515 Pls
5023 3789 Pls
6749 4239 Pls
1570 3739 Pls
3297 3205 Pls
5023 4303 Pls
6749 3857 Pls
1570 4739 Pls
3297 4651 Pls
5023 4607 Pls
6749 4678 Pls
1570 4739 Pls
3297 4739 Pls
5023 4739 Pls
6749 4739 Pls
1570 4660 Pls
3297 4739 Pls
5023 4667 Pls
6749 4739 Pls
1570 4739 Pls
3297 4739 Pls
5023 4739 Pls
6749 4739 Pls
1570 4739 Pls
3297 4739 Pls
5023 4626 Pls
6749 4739 Pls
1570 4148 Pls
3297 4564 Pls
5023 4122 Pls
6749 4017 Pls
1570 4030 Pls
3297 3701 Pls
5023 3944 Pls
6749 3853 Pls
1570 3244 Pls
3297 3612 Pls
5023 4364 Pls
6749 3104 Pls
1570 3031 Pls
3297 3327 Pls
5023 3222 Pls
6749 3121 Pls
1570 3277 Pls
3297 3082 Pls
5023 3569 Pls
6749 2880 Pls
1570 4651 Pls
3297 4739 Pls
5023 4739 Pls
6749 4739 Pls
1570 4739 Pls
3297 4683 Pls
5023 4739 Pls
6749 4514 Pls
1570 4739 Pls
3297 4739 Pls
5023 4739 Pls
6749 4739 Pls
1570 4739 Pls
3297 4678 Pls
5023 4739 Pls
6749 4739 Pls
1570 4641 Pls
3297 4739 Pls
5023 4739 Pls
6749 4739 Pls
1570 3268 Pls
3297 3846 Pls
5023 4004 Pls
6749 3839 Pls
1570 2632 Pls
3297 3759 Pls
5023 2783 Pls
6749 3262 Pls
1570 2264 Pls
3297 2925 Pls
5023 2822 Pls
6749 2582 Pls
1570 2282 Pls
3297 2998 Pls
5023 3214 Pls
6749 2439 Pls
1570 2237 Pls
3297 2685 Pls
5023 2179 Pls
6749 3231 Pls
1570 4648 Pls
3297 4678 Pls
5023 4678 Pls
6749 4739 Pls
1570 4739 Pls
3297 4739 Pls
5023 4739 Pls
6749 4739 Pls
1570 4673 Pls
3297 4739 Pls
5023 4596 Pls
6749 4739 Pls
1570 4739 Pls
3297 4739 Pls
5023 4678 Pls
6749 4739 Pls
1570 4739 Pls
3297 4739 Pls
5023 4739 Pls
6749 4678 Pls
1570 3759 Pls
3297 3400 Pls
5023 3764 Pls
6749 3221 Pls
1570 2693 Pls
3297 2203 Pls
5023 2935 Pls
6749 3075 Pls
1570 2977 Pls
3297 2863 Pls
5023 2368 Pls
6749 2621 Pls
1570 1911 Pls
3297 2146 Pls
5023 2249 Pls
6749 2319 Pls
1570 1703 Pls
3297 2374 Pls
5023 2579 Pls
6749 2402 Pls
1570 4739 Pls
3297 4739 Pls
5023 4739 Pls
6749 4739 Pls
1570 4739 Pls
3297 4739 Pls
5023 4739 Pls
6749 4739 Pls
1570 4739 Pls
3297 4739 Pls
5023 4739 Pls
6749 4739 Pls
1570 4739 Pls
3297 4739 Pls
5023 4739 Pls
6749 4739 Pls
1570 4739 Pls
3297 4739 Pls
5023 4739 Pls
6749 4739 Pls
1570 4739 Pls
3297 4739 Pls
5023 4739 Pls
6749 4739 Pls
1570 4739 Pls
3297 4739 Pls
5023 4739 Pls
6749 4739 Pls
1570 4542 Pls
3297 4542 Pls
5023 4739 Pls
6749 4739 Pls
1570 4542 Pls
3297 4739 Pls
5023 4739 Pls
6749 4739 Pls
1570 4739 Pls
3297 4739 Pls
5023 4542 Pls
6749 4739 Pls
1570 4739 Pls
3297 4739 Pls
5023 4739 Pls
6749 4739 Pls
1570 4739 Pls
3297 4739 Pls
5023 4739 Pls
6749 4739 Pls
1570 4739 Pls
3297 4739 Pls
5023 4739 Pls
6749 4739 Pls
1570 4739 Pls
3297 4739 Pls
5023 4739 Pls
6749 4739 Pls
1570 4739 Pls
3297 4739 Pls
5023 4739 Pls
6749 4739 Pls
1570 4476 Pls
3297 4739 Pls
5023 4345 Pls
6749 4739 Pls
1570 4476 Pls
3297 4476 Pls
5023 4739 Pls
6749 4384 Pls
1570 4227 Pls
3297 4542 Pls
5023 4430 Pls
6749 4279 Pls
1570 4214 Pls
3297 4308 Pls
5023 4356 Pls
6749 3938 Pls
1570 4188 Pls
3297 4641 Pls
5023 4056 Pls
6749 4082 Pls
1570 4660 Pls
3297 4739 Pls
5023 4739 Pls
6749 4678 Pls
1570 4739 Pls
3297 4739 Pls
5023 4739 Pls
6749 4739 Pls
1570 4739 Pls
3297 4739 Pls
5023 4739 Pls
6749 4739 Pls
1570 4739 Pls
3297 4739 Pls
5023 4739 Pls
6749 4739 Pls
1570 4739 Pls
3297 4739 Pls
5023 4739 Pls
6749 4651 Pls
1570 4279 Pls
3297 4739 Pls
5023 4476 Pls
6749 4542 Pls
1570 4082 Pls
3297 3944 Pls
5023 3912 Pls
6749 3818 Pls
1570 3853 Pls
3297 3459 Pls
5023 3524 Pls
6749 3964 Pls
1570 3767 Pls
3297 3636 Pls
5023 3660 Pls
6749 4542 Pls
1570 3923 Pls
3297 3407 Pls
5023 3848 Pls
6749 4331 Pls
1570 4739 Pls
3297 4739 Pls
5023 4739 Pls
6749 4667 Pls
1570 4739 Pls
3297 4739 Pls
5023 4739 Pls
6749 4739 Pls
1570 4739 Pls
3297 4739 Pls
5023 4739 Pls
6749 4739 Pls
1570 4739 Pls
3297 4739 Pls
5023 4678 Pls
6749 4739 Pls
1570 4739 Pls
3297 4739 Pls
5023 4739 Pls
6749 4739 Pls
1570 3656 Pls
3297 3951 Pls
5023 4082 Pls
6749 4476 Pls
1570 3610 Pls
3297 3667 Pls
5023 4134 Pls
6749 4170 Pls
1570 3400 Pls
3297 3458 Pls
5023 3930 Pls
6749 3601 Pls
1570 3034 Pls
3297 3157 Pls
5023 3391 Pls
6749 3353 Pls
1570 3324 Pls
3297 3166 Pls
5023 3463 Pls
6749 3957 Pls
1570 4660 Pls
3297 4739 Pls
5023 4739 Pls
6749 4678 Pls
1570 4739 Pls
3297 4706 Pls
5023 4739 Pls
6749 4739 Pls
1570 4739 Pls
3297 4651 Pls
5023 4739 Pls
6749 4739 Pls
1570 4673 Pls
3297 4739 Pls
5023 4739 Pls
6749 4739 Pls
1570 4739 Pls
3297 4739 Pls
5023 4651 Pls
6749 4739 Pls
1570 3991 Pls
3297 3782 Pls
5023 3719 Pls
6749 4188 Pls
1570 3531 Pls
3297 3961 Pls
5023 4469 Pls
6749 3425 Pls
1570 3001 Pls
3297 3347 Pls
5023 2963 Pls
6749 3101 Pls
1570 3049 Pls
3297 2793 Pls
5023 3158 Pls
6749 3274 Pls
1570 2775 Pls
3297 2685 Pls
5023 2717 Pls
6749 3350 Pls
1570 4739 Pls
3297 4739 Pls
5023 4739 Pls
6749 4739 Pls
1570 4739 Pls
3297 4651 Pls
5023 4739 Pls
6749 4739 Pls
1570 4739 Pls
3297 4739 Pls
5023 4739 Pls
6749 4739 Pls
1570 4739 Pls
3297 4739 Pls
5023 4739 Pls
6749 4739 Pls
1570 4739 Pls
3297 4739 Pls
5023 4739 Pls
6749 4739 Pls
1570 4739 Pls
3297 4739 Pls
5023 4739 Pls
6749 4739 Pls
1570 4739 Pls
3297 4739 Pls
5023 4739 Pls
6749 4739 Pls
1570 4739 Pls
3297 4739 Pls
5023 4608 Pls
6749 4739 Pls
1570 4739 Pls
3297 4739 Pls
5023 4739 Pls
6749 4739 Pls
1570 4411 Pls
3297 4739 Pls
5023 4739 Pls
6749 4739 Pls
1570 4739 Pls
3297 4739 Pls
5023 4739 Pls
6749 4739 Pls
1570 4739 Pls
3297 4739 Pls
5023 4739 Pls
6749 4739 Pls
1570 4739 Pls
3297 4739 Pls
5023 4739 Pls
6749 4739 Pls
1570 4739 Pls
3297 4739 Pls
5023 4739 Pls
6749 4739 Pls
1570 4739 Pls
3297 4739 Pls
5023 4739 Pls
6749 4608 Pls
1570 4739 Pls
3297 4739 Pls
5023 4542 Pls
6749 4739 Pls
1570 4739 Pls
3297 4739 Pls
5023 4608 Pls
6749 4542 Pls
1570 4542 Pls
3297 4430 Pls
5023 4148 Pls
6749 4608 Pls
1570 4542 Pls
3297 4542 Pls
5023 4608 Pls
6749 4290 Pls
1570 4319 Pls
3297 4384 Pls
5023 4476 Pls
6749 4739 Pls
1570 4739 Pls
3297 4667 Pls
5023 4683 Pls
6749 4739 Pls
1570 4739 Pls
3297 4739 Pls
5023 4739 Pls
6749 4739 Pls
1570 4739 Pls
3297 4739 Pls
5023 4651 Pls
6749 4739 Pls
1570 4739 Pls
3297 4739 Pls
5023 4739 Pls
6749 4739 Pls
1570 4739 Pls
3297 4739 Pls
5023 4739 Pls
6749 4739 Pls
1570 4739 Pls
3297 4739 Pls
5023 4739 Pls
6749 4739 Pls
1570 4739 Pls
3297 4201 Pls
5023 4251 Pls
6749 4476 Pls
1570 4279 Pls
3297 3807 Pls
5023 4214 Pls
6749 4476 Pls
1570 4082 Pls
3297 4495 Pls
5023 4188 Pls
6749 4331 Pls
1570 2984 Pls
3297 4286 Pls
5023 4003 Pls
6749 3780 Pls
1570 4739 Pls
3297 4739 Pls
5023 4739 Pls
6749 4700 Pls
1570 4739 Pls
3297 4555 Pls
5023 4619 Pls
6749 4651 Pls
1570 4739 Pls
3297 4739 Pls
5023 4739 Pls
6749 4739 Pls
1570 4739 Pls
3297 4739 Pls
5023 4739 Pls
6749 4739 Pls
1570 4739 Pls
3297 4739 Pls
5023 4739 Pls
6749 4739 Pls
1570 4424 Pls
3297 4739 Pls
5023 4115 Pls
6749 4279 Pls
1570 3689 Pls
3297 4384 Pls
5023 4122 Pls
6749 4345 Pls
1570 3229 Pls
3297 3278 Pls
5023 3689 Pls
6749 3707 Pls
1570 4109 Pls
3297 4188 Pls
5023 3348 Pls
6749 3689 Pls
1570 3400 Pls
3297 2889 Pls
5023 3261 Pls
6749 4054 Pls
1570 4739 Pls
3297 4739 Pls
5023 4628 Pls
6749 4651 Pls
1570 4739 Pls
3297 4739 Pls
5023 4739 Pls
6749 4739 Pls
1570 4739 Pls
3297 4739 Pls
5023 4739 Pls
6749 4739 Pls
1570 4739 Pls
3297 4739 Pls
5023 4739 Pls
6749 4739 Pls
1570 4739 Pls
3297 4739 Pls
5023 4739 Pls
6749 4739 Pls
1570 4476 Pls
3297 4476 Pls
5023 4122 Pls
6749 3328 Pls
1570 3899 Pls
3297 3812 Pls
5023 4294 Pls
6749 3853 Pls
1570 3630 Pls
3297 3238 Pls
5023 3899 Pls
6749 3339 Pls
1570 3310 Pls
3297 3152 Pls
5023 3811 Pls
6749 3640 Pls
1570 3171 Pls
3297 2905 Pls
5023 3059 Pls
6749 3187 Pls
1570 4739 Pls
3297 4739 Pls
5023 4739 Pls
6749 4739 Pls
1570 4739 Pls
3297 4739 Pls
5023 4739 Pls
6749 4739 Pls
1570 4683 Pls
3297 4739 Pls
5023 4739 Pls
6749 4739 Pls
1570 4739 Pls
3297 4739 Pls
5023 4739 Pls
6749 4739 Pls
1570 4739 Pls
3297 4739 Pls
5023 4739 Pls
6749 4739 Pls
1570 4739 Pls
3297 4739 Pls
5023 4345 Pls
6749 4739 Pls
1570 4739 Pls
3297 4739 Pls
5023 4345 Pls
6749 4739 Pls
1570 4739 Pls
3297 4739 Pls
5023 4739 Pls
6749 4739 Pls
1570 4739 Pls
3297 4739 Pls
5023 4739 Pls
6749 4739 Pls
1570 4739 Pls
3297 4608 Pls
5023 4739 Pls
6749 4739 Pls
1570 4739 Pls
3297 4739 Pls
5023 4739 Pls
6749 4739 Pls
1570 4739 Pls
3297 4739 Pls
5023 4739 Pls
6749 4739 Pls
1570 4739 Pls
3297 4739 Pls
5023 4739 Pls
6749 4739 Pls
1570 4739 Pls
3297 4739 Pls
5023 4667 Pls
6749 4739 Pls
1570 4739 Pls
3297 4739 Pls
5023 4739 Pls
6749 4739 Pls
1570 4542 Pls
3297 4608 Pls
5023 4739 Pls
6749 4739 Pls
1570 4608 Pls
3297 4739 Pls
5023 4476 Pls
6749 4608 Pls
1570 4476 Pls
3297 4056 Pls
5023 4739 Pls
6749 4739 Pls
1570 4503 Pls
3297 4214 Pls
5023 4641 Pls
6749 4739 Pls
1570 4581 Pls
3297 4509 Pls
5023 4389 Pls
6749 4450 Pls
1570 4739 Pls
3297 4739 Pls
5023 4739 Pls
6749 4739 Pls
1570 4739 Pls
3297 4739 Pls
5023 4739 Pls
6749 4739 Pls
1570 4739 Pls
3297 4739 Pls
5023 4739 Pls
6749 4739 Pls
1570 4739 Pls
3297 4739 Pls
5023 4739 Pls
6749 4739 Pls
1570 4739 Pls
3297 4739 Pls
5023 4739 Pls
6749 4739 Pls
1570 4739 Pls
3297 4542 Pls
5023 4739 Pls
6749 4739 Pls
1570 4542 Pls
3297 4476 Pls
5023 4384 Pls
6749 4450 Pls
1570 3737 Pls
3297 4298 Pls
5023 4319 Pls
6749 4528 Pls
1570 3667 Pls
3297 4739 Pls
5023 4450 Pls
6749 4352 Pls
1570 4317 Pls
3297 3730 Pls
5023 4359 Pls
6749 4683 Pls
1570 4739 Pls
3297 4709 Pls
5023 4739 Pls
6749 4706 Pls
1570 4739 Pls
3297 4739 Pls
5023 4739 Pls
6749 4739 Pls
1570 4739 Pls
3297 4739 Pls
5023 4739 Pls
6749 4739 Pls
1570 4739 Pls
3297 4739 Pls
5023 4739 Pls
6749 4739 Pls
1570 4739 Pls
3297 4739 Pls
5023 4739 Pls
6749 4739 Pls
1570 4122 Pls
3297 4214 Pls
5023 4581 Pls
6749 4626 Pls
1570 4181 Pls
3297 4279 Pls
5023 4739 Pls
6749 4430 Pls
1570 4660 Pls
3297 3766 Pls
5023 4056 Pls
6749 4089 Pls
1570 4384 Pls
3297 3831 Pls
5023 4056 Pls
6749 4083 Pls
1570 3111 Pls
3297 3964 Pls
5023 3720 Pls
6749 4426 Pls
1570 4739 Pls
3297 4739 Pls
5023 4739 Pls
6749 4739 Pls
1570 4739 Pls
3297 4739 Pls
5023 4739 Pls
6749 4739 Pls
1570 4660 Pls
3297 4656 Pls
5023 4739 Pls
6749 4739 Pls
1570 4739 Pls
3297 4739 Pls
5023 4739 Pls
6749 4739 Pls
1570 4739 Pls
3297 4673 Pls
5023 4739 Pls
6749 4739 Pls
1570 4082 Pls
3297 4476 Pls
5023 4188 Pls
6749 3807 Pls
1570 3373 Pls
3297 2824 Pls
5023 4115 Pls
6749 3951 Pls
1570 3437 Pls
3297 3559 Pls
5023 3592 Pls
6749 4119 Pls
1570 3011 Pls
3297 2959 Pls
5023 4111 Pls
6749 3812 Pls
1570 3714 Pls
3297 2948 Pls
5023 3695 Pls
6749 3906 Pls
1570 4739 Pls
3297 4739 Pls
5023 4739 Pls
6749 4739 Pls
1570 4739 Pls
3297 4739 Pls
5023 4739 Pls
6749 4739 Pls
1570 4739 Pls
3297 4739 Pls
5023 4739 Pls
6749 4739 Pls
1570 4739 Pls
3297 4739 Pls
5023 4739 Pls
6749 4739 Pls
1570 4739 Pls
3297 4739 Pls
5023 4739 Pls
6749 4739 Pls
1570 4739 Pls
3297 4542 Pls
5023 4739 Pls
6749 4739 Pls
1570 4739 Pls
3297 4739 Pls
5023 4739 Pls
6749 4739 Pls
1570 4739 Pls
3297 4739 Pls
5023 4739 Pls
6749 4739 Pls
1570 4581 Pls
3297 4739 Pls
5023 4739 Pls
6749 4739 Pls
1570 4739 Pls
3297 4739 Pls
5023 4739 Pls
6749 4739 Pls
1570 4739 Pls
3297 4739 Pls
5023 4739 Pls
6749 4739 Pls
1570 4739 Pls
3297 4739 Pls
5023 4739 Pls
6749 4739 Pls
1570 4739 Pls
3297 4739 Pls
5023 4739 Pls
6749 4739 Pls
1570 4739 Pls
3297 4739 Pls
5023 4739 Pls
6749 4739 Pls
1570 4739 Pls
3297 4739 Pls
5023 4739 Pls
6749 4739 Pls
1570 4739 Pls
3297 4739 Pls
5023 4739 Pls
6749 4739 Pls
1570 4739 Pls
3297 4739 Pls
5023 4739 Pls
6749 4739 Pls
1570 4739 Pls
3297 4188 Pls
5023 4463 Pls
6749 4739 Pls
1570 4641 Pls
3297 4345 Pls
5023 4660 Pls
6749 4739 Pls
1570 4483 Pls
3297 4581 Pls
5023 4476 Pls
6749 4739 Pls
1570 4739 Pls
3297 4739 Pls
5023 4739 Pls
6749 4739 Pls
1570 4739 Pls
3297 4739 Pls
5023 4739 Pls
6749 4739 Pls
1570 4739 Pls
3297 4739 Pls
5023 4739 Pls
6749 4739 Pls
1570 4739 Pls
3297 4739 Pls
5023 4739 Pls
6749 4739 Pls
1570 4739 Pls
3297 4739 Pls
5023 4739 Pls
6749 4739 Pls
1570 4542 Pls
3297 4476 Pls
5023 4739 Pls
6749 4739 Pls
1570 4279 Pls
3297 4739 Pls
5023 4411 Pls
6749 4739 Pls
1570 4641 Pls
3297 4581 Pls
5023 4384 Pls
6749 4227 Pls
1570 4148 Pls
3297 3853 Pls
5023 4338 Pls
6749 4384 Pls
1570 4124 Pls
3297 4444 Pls
5023 3871 Pls
6749 4384 Pls
1570 4739 Pls
3297 4739 Pls
5023 4739 Pls
6749 4739 Pls
1570 4739 Pls
3297 4739 Pls
5023 4739 Pls
6749 4739 Pls
1570 4667 Pls
3297 4739 Pls
5023 4739 Pls
6749 4739 Pls
1570 4739 Pls
3297 4739 Pls
5023 4739 Pls
6749 4667 Pls
1570 4739 Pls
3297 4739 Pls
5023 4739 Pls
6749 4739 Pls
1570 4279 Pls
3297 4739 Pls
5023 4056 Pls
6749 4739 Pls
1570 4148 Pls
3297 4581 Pls
5023 4542 Pls
6749 4135 Pls
1570 3951 Pls
3297 4739 Pls
5023 3853 Pls
6749 4424 Pls
1570 4225 Pls
3297 4173 Pls
5023 3964 Pls
6749 4030 Pls
1570 3505 Pls
3297 3594 Pls
5023 3616 Pls
6749 3623 Pls
1570 4739 Pls
3297 4678 Pls
5023 4739 Pls
6749 4739 Pls
1570 4739 Pls
3297 4739 Pls
5023 4739 Pls
6749 4739 Pls
1570 4739 Pls
3297 4686 Pls
5023 4739 Pls
6749 4739 Pls
1570 4739 Pls
3297 4739 Pls
5023 4739 Pls
6749 4739 Pls
1570 4739 Pls
3297 4739 Pls
5023 4739 Pls
6749 4739 Pls
1570 4739 Pls
3297 4739 Pls
5023 4739 Pls
6749 4384 Pls
1570 4092 Pls
3297 3510 Pls
5023 4269 Pls
6749 4306 Pls
1570 3595 Pls
3297 3944 Pls
5023 3329 Pls
6749 3819 Pls
1570 3380 Pls
3297 3859 Pls
5023 3926 Pls
6749 3928 Pls
1570 3360 Pls
3297 4056 Pls
5023 3551 Pls
6749 3649 Pls
1570 4739 Pls
3297 4739 Pls
5023 4739 Pls
6749 4739 Pls
1570 4739 Pls
3297 4739 Pls
5023 4739 Pls
6749 4739 Pls
1570 4739 Pls
3297 4739 Pls
5023 4739 Pls
6749 4739 Pls
1570 4739 Pls
3297 4739 Pls
5023 4739 Pls
6749 4739 Pls
1570 4739 Pls
3297 4739 Pls
5023 4739 Pls
6749 4739 Pls
1570 4739 Pls
3297 4739 Pls
5023 4739 Pls
6749 4739 Pls
1570 4542 Pls
3297 4739 Pls
5023 4739 Pls
6749 4739 Pls
1570 4739 Pls
3297 4739 Pls
5023 4739 Pls
6749 4739 Pls
1570 4641 Pls
3297 4739 Pls
5023 4739 Pls
6749 4739 Pls
1570 4739 Pls
3297 4739 Pls
5023 4739 Pls
6749 4739 Pls
1570 4739 Pls
3297 4739 Pls
5023 4739 Pls
6749 4739 Pls
1570 4739 Pls
3297 4739 Pls
5023 4739 Pls
6749 4739 Pls
1570 4739 Pls
3297 4739 Pls
5023 4739 Pls
6749 4739 Pls
1570 4739 Pls
3297 4739 Pls
5023 4739 Pls
6749 4739 Pls
1570 4739 Pls
3297 4739 Pls
5023 4739 Pls
6749 4739 Pls
1570 4739 Pls
3297 4739 Pls
5023 4739 Pls
6749 4739 Pls
1570 4739 Pls
3297 4739 Pls
5023 4739 Pls
6749 4739 Pls
1570 4608 Pls
3297 4641 Pls
5023 4739 Pls
6749 4608 Pls
1570 4739 Pls
3297 4739 Pls
5023 4641 Pls
6749 4739 Pls
1570 4476 Pls
3297 4739 Pls
5023 4739 Pls
6749 4542 Pls
1570 4739 Pls
3297 4739 Pls
5023 4739 Pls
6749 4739 Pls
1570 4739 Pls
3297 4739 Pls
5023 4739 Pls
6749 4739 Pls
1570 4739 Pls
3297 4739 Pls
5023 4739 Pls
6749 4739 Pls
1570 4739 Pls
3297 4739 Pls
5023 4739 Pls
6749 4739 Pls
1570 4739 Pls
3297 4739 Pls
5023 4739 Pls
6749 4739 Pls
1570 4279 Pls
3297 4641 Pls
5023 4739 Pls
6749 4739 Pls
1570 4739 Pls
3297 4476 Pls
5023 4739 Pls
6749 4542 Pls
1570 4542 Pls
3297 4378 Pls
5023 4319 Pls
6749 4739 Pls
1570 3754 Pls
3297 4239 Pls
5023 4272 Pls
6749 4739 Pls
1570 4306 Pls
3297 4739 Pls
5023 4739 Pls
6749 4486 Pls
1570 4739 Pls
3297 4739 Pls
5023 4739 Pls
6749 4626 Pls
1570 4739 Pls
3297 4739 Pls
5023 4739 Pls
6749 4739 Pls
1570 4739 Pls
3297 4686 Pls
5023 4739 Pls
6749 4678 Pls
1570 4739 Pls
3297 4739 Pls
5023 4739 Pls
6749 4739 Pls
1570 4739 Pls
3297 4739 Pls
5023 4739 Pls
6749 4739 Pls
1570 4739 Pls
3297 4739 Pls
5023 4739 Pls
6749 4542 Pls
1570 4581 Pls
3297 3981 Pls
5023 4514 Pls
6749 4739 Pls
1570 4122 Pls
3297 4608 Pls
5023 4581 Pls
6749 4319 Pls
1570 3826 Pls
3297 3915 Pls
5023 4056 Pls
6749 3360 Pls
1570 4227 Pls
3297 4017 Pls
5023 3689 Pls
6749 4148 Pls
1570 4651 Pls
3297 4739 Pls
5023 4739 Pls
6749 4739 Pls
1570 4548 Pls
3297 4739 Pls
5023 4739 Pls
6749 4739 Pls
1570 4739 Pls
3297 4739 Pls
5023 4739 Pls
6749 4739 Pls
1570 4739 Pls
3297 4739 Pls
5023 4739 Pls
6749 4683 Pls
1570 4739 Pls
3297 4739 Pls
5023 4739 Pls
6749 4739 Pls
1570 4476 Pls
3297 4514 Pls
5023 4148 Pls
6749 4279 Pls
1570 4253 Pls
3297 4017 Pls
5023 4363 Pls
6749 4476 Pls
1570 3792 Pls
3297 3977 Pls
5023 4739 Pls
6749 3794 Pls
1570 3700 Pls
3297 4017 Pls
5023 3595 Pls
6749 4031 Pls
1570 3345 Pls
3297 3868 Pls
5023 3972 Pls
6749 4030 Pls
1570 4739 Pls
3297 4739 Pls
5023 4739 Pls
6749 4739 Pls
1570 4739 Pls
3297 4739 Pls
5023 4739 Pls
6749 4739 Pls
1570 4739 Pls
3297 4739 Pls
5023 4739 Pls
6749 4739 Pls
1570 4739 Pls
3297 4739 Pls
5023 4739 Pls
6749 4739 Pls
1570 4739 Pls
3297 4739 Pls
5023 4739 Pls
6749 4739 Pls
1570 4739 Pls
3297 4739 Pls
5023 4739 Pls
6749 4739 Pls
1570 4739 Pls
3297 4345 Pls
5023 4739 Pls
6749 4739 Pls
1570 4739 Pls
3297 4739 Pls
5023 4739 Pls
6749 4739 Pls
1570 4739 Pls
3297 4739 Pls
5023 4739 Pls
6749 4739 Pls
1570 4608 Pls
3297 4739 Pls
5023 4739 Pls
6749 4739 Pls
1570 4739 Pls
3297 4739 Pls
5023 4739 Pls
6749 4739 Pls
1570 4739 Pls
3297 4739 Pls
5023 4739 Pls
6749 4739 Pls
1570 4739 Pls
3297 4739 Pls
5023 4739 Pls
6749 4739 Pls
1570 4739 Pls
3297 4739 Pls
5023 4739 Pls
6749 4739 Pls
1570 4739 Pls
3297 4739 Pls
5023 4739 Pls
6749 4739 Pls
1570 4739 Pls
3297 4739 Pls
5023 4739 Pls
6749 4739 Pls
1570 4345 Pls
3297 4345 Pls
5023 4739 Pls
6749 4739 Pls
1570 4739 Pls
3297 4739 Pls
5023 4739 Pls
6749 4739 Pls
1570 4739 Pls
3297 4581 Pls
5023 4529 Pls
6749 4739 Pls
1570 4581 Pls
3297 4476 Pls
5023 4739 Pls
6749 4476 Pls
1570 4739 Pls
3297 4739 Pls
5023 4678 Pls
6749 4739 Pls
1570 4739 Pls
3297 4739 Pls
5023 4739 Pls
6749 4739 Pls
1570 4739 Pls
3297 4739 Pls
5023 4739 Pls
6749 4739 Pls
1570 4739 Pls
3297 4739 Pls
5023 4739 Pls
6749 4739 Pls
1570 4739 Pls
3297 4739 Pls
5023 4739 Pls
6749 4739 Pls
1570 4641 Pls
3297 4739 Pls
5023 4626 Pls
6749 4739 Pls
1570 4476 Pls
3297 4739 Pls
5023 4739 Pls
6749 4608 Pls
1570 4476 Pls
3297 4017 Pls
5023 4626 Pls
6749 4503 Pls
1570 4542 Pls
3297 4739 Pls
5023 4641 Pls
6749 4384 Pls
1570 4120 Pls
3297 4739 Pls
5023 4581 Pls
6749 4495 Pls
1570 4739 Pls
3297 4739 Pls
5023 4739 Pls
6749 4739 Pls
1570 4739 Pls
3297 4739 Pls
5023 4739 Pls
6749 4678 Pls
1570 4739 Pls
3297 4739 Pls
5023 4739 Pls
6749 4739 Pls
1570 4739 Pls
3297 4739 Pls
5023 4739 Pls
6749 4739 Pls
1570 4739 Pls
3297 4739 Pls
5023 4739 Pls
6749 4739 Pls
1570 4542 Pls
3297 4279 Pls
5023 4739 Pls
6749 4476 Pls
1570 4581 Pls
3297 4017 Pls
5023 4542 Pls
6749 4030 Pls
1570 4214 Pls
3297 4450 Pls
5023 4345 Pls
6749 4608 Pls
1570 3735 Pls
3297 4595 Pls
5023 4135 Pls
6749 4251 Pls
1570 4174 Pls
3297 4608 Pls
5023 4363 Pls
6749 4214 Pls
1570 4739 Pls
3297 4739 Pls
5023 4739 Pls
6749 4739 Pls
1570 4673 Pls
3297 4739 Pls
5023 4739 Pls
6749 4739 Pls
1570 4739 Pls
3297 4739 Pls
5023 4739 Pls
6749 4739 Pls
1570 4739 Pls
3297 4739 Pls
5023 4739 Pls
6749 4739 Pls
1570 4739 Pls
3297 4739 Pls
5023 4739 Pls
6749 4739 Pls
1570 4542 Pls
3297 4266 Pls
5023 4542 Pls
6749 4161 Pls
1570 3964 Pls
3297 4054 Pls
5023 4581 Pls
6749 4345 Pls
1570 4411 Pls
3297 3824 Pls
5023 4499 Pls
6749 4281 Pls
1570 4384 Pls
3297 4036 Pls
5023 3595 Pls
6749 3707 Pls
1570 3254 Pls
3297 4739 Pls
5023 3708 Pls
6749 4001 Pls
1570 4739 Pls
3297 4739 Pls
5023 4739 Pls
6749 4739 Pls
1570 4739 Pls
3297 4739 Pls
5023 4739 Pls
6749 4739 Pls
1570 4739 Pls
3297 4739 Pls
5023 4739 Pls
6749 4739 Pls
1570 4739 Pls
3297 4739 Pls
5023 4739 Pls
6749 4739 Pls
1570 4739 Pls
3297 4739 Pls
5023 4739 Pls
6749 4739 Pls
1570 4739 Pls
3297 4739 Pls
5023 4739 Pls
6749 4739 Pls
1570 4739 Pls
3297 4739 Pls
5023 4739 Pls
6749 4739 Pls
1570 4739 Pls
3297 4739 Pls
5023 4739 Pls
6749 4739 Pls
1570 4739 Pls
3297 4739 Pls
5023 4739 Pls
6749 4739 Pls
1570 4739 Pls
3297 4739 Pls
5023 4739 Pls
6749 4739 Pls
1570 4739 Pls
3297 4739 Pls
5023 4739 Pls
6749 4739 Pls
1570 4739 Pls
3297 4739 Pls
5023 4739 Pls
6749 4739 Pls
1570 4739 Pls
3297 4739 Pls
5023 4739 Pls
6749 4739 Pls
1570 4739 Pls
3297 4739 Pls
5023 4739 Pls
6749 4739 Pls
1570 4739 Pls
3297 4739 Pls
5023 4739 Pls
6749 4739 Pls
1570 4739 Pls
3297 4739 Pls
5023 4739 Pls
6749 4739 Pls
1570 4739 Pls
3297 4739 Pls
5023 4739 Pls
6749 4739 Pls
1570 4739 Pls
3297 4739 Pls
5023 4739 Pls
6749 4739 Pls
1570 4148 Pls
3297 4476 Pls
5023 4581 Pls
6749 4739 Pls
1570 4384 Pls
3297 4251 Pls
5023 4739 Pls
6749 4542 Pls
1570 4739 Pls
3297 4739 Pls
5023 4739 Pls
6749 4739 Pls
1570 4739 Pls
3297 4739 Pls
5023 4739 Pls
6749 4739 Pls
1570 4739 Pls
3297 4739 Pls
5023 4739 Pls
6749 4739 Pls
1570 4739 Pls
3297 4739 Pls
5023 4739 Pls
6749 4739 Pls
1570 4739 Pls
3297 4739 Pls
5023 4739 Pls
6749 4739 Pls
1570 4739 Pls
3297 4476 Pls
5023 4739 Pls
6749 4739 Pls
1570 4739 Pls
3297 4476 Pls
5023 4739 Pls
6749 4660 Pls
1570 4345 Pls
3297 4739 Pls
5023 4430 Pls
6749 4739 Pls
1570 4739 Pls
3297 4298 Pls
5023 3899 Pls
6749 4739 Pls
1570 4411 Pls
3297 4503 Pls
5023 4503 Pls
6749 4739 Pls
1570 4673 Pls
3297 4739 Pls
5023 4678 Pls
6749 4739 Pls
1570 4739 Pls
3297 4739 Pls
5023 4739 Pls
6749 4739 Pls
1570 4660 Pls
3297 4739 Pls
5023 4739 Pls
6749 4739 Pls
1570 4739 Pls
3297 4739 Pls
5023 4739 Pls
6749 4739 Pls
1570 4739 Pls
3297 4739 Pls
5023 4739 Pls
6749 4739 Pls
1570 4608 Pls
3297 4739 Pls
5023 4608 Pls
6749 4739 Pls
1570 4739 Pls
3297 4279 Pls
5023 4542 Pls
6749 4476 Pls
1570 4450 Pls
3297 4345 Pls
5023 4739 Pls
6749 4203 Pls
1570 3833 Pls
3297 4323 Pls
5023 4188 Pls
6749 4303 Pls
1570 4450 Pls
3297 4272 Pls
5023 4495 Pls
6749 4009 Pls
1570 4673 Pls
3297 4739 Pls
5023 4739 Pls
6749 4739 Pls
1570 4739 Pls
3297 4739 Pls
5023 4739 Pls
6749 4739 Pls
1570 4739 Pls
3297 4739 Pls
5023 4739 Pls
6749 4739 Pls
1570 4739 Pls
3297 4739 Pls
5023 4739 Pls
6749 4739 Pls
1570 4739 Pls
3297 4739 Pls
5023 4739 Pls
6749 4739 Pls
1570 4319 Pls
3297 4214 Pls
5023 4148 Pls
6749 4542 Pls
1570 4384 Pls
3297 4411 Pls
5023 4651 Pls
6749 4581 Pls
1570 3859 Pls
3297 3859 Pls
5023 3859 Pls
6749 4345 Pls
1570 3590 Pls
3297 4457 Pls
5023 4338 Pls
6749 3648 Pls
1570 3698 Pls
3297 3904 Pls
5023 4641 Pls
6749 4179 Pls
1570 4739 Pls
3297 4739 Pls
5023 4739 Pls
6749 4739 Pls
1570 4739 Pls
3297 4739 Pls
5023 4739 Pls
6749 4739 Pls
1570 4739 Pls
3297 4739 Pls
5023 4739 Pls
6749 4739 Pls
1570 4739 Pls
3297 4739 Pls
5023 4739 Pls
6749 4739 Pls
1570 4739 Pls
3297 4739 Pls
5023 4739 Pls
6749 4739 Pls
1570 4739 Pls
3297 4739 Pls
5023 4739 Pls
6749 4739 Pls
1570 4739 Pls
3297 4739 Pls
5023 4739 Pls
6749 4739 Pls
1570 4739 Pls
3297 4641 Pls
5023 4739 Pls
6749 4739 Pls
1570 4739 Pls
3297 4739 Pls
5023 4739 Pls
6749 4739 Pls
1570 4739 Pls
3297 4739 Pls
5023 4739 Pls
6749 4739 Pls
1570 4739 Pls
3297 4739 Pls
5023 4739 Pls
6749 4739 Pls
1570 4739 Pls
3297 4739 Pls
5023 4739 Pls
6749 4739 Pls
1570 4739 Pls
3297 4739 Pls
5023 4739 Pls
6749 4739 Pls
1570 4739 Pls
3297 4739 Pls
5023 4739 Pls
6749 4739 Pls
1570 4739 Pls
3297 4739 Pls
5023 4739 Pls
6749 4739 Pls
1570 4739 Pls
3297 4542 Pls
5023 4739 Pls
6749 4739 Pls
1570 4581 Pls
3297 4483 Pls
5023 4542 Pls
6749 4739 Pls
1570 4739 Pls
3297 4345 Pls
5023 4476 Pls
6749 4739 Pls
1570 4345 Pls
3297 4608 Pls
5023 4739 Pls
6749 4476 Pls
1570 4279 Pls
3297 4463 Pls
5023 4581 Pls
6749 4739 Pls
1570 4739 Pls
3297 4739 Pls
5023 4739 Pls
6749 4739 Pls
1570 4739 Pls
3297 4739 Pls
5023 4739 Pls
6749 4739 Pls
1570 4739 Pls
3297 4739 Pls
5023 4739 Pls
6749 4739 Pls
1570 4739 Pls
3297 4739 Pls
5023 4739 Pls
6749 4739 Pls
1570 4739 Pls
3297 4739 Pls
5023 4739 Pls
6749 4739 Pls
1570 4739 Pls
3297 4739 Pls
5023 4581 Pls
6749 4739 Pls
1570 4739 Pls
3297 4279 Pls
5023 4739 Pls
6749 4542 Pls
1570 4450 Pls
3297 4739 Pls
5023 4739 Pls
6749 4660 Pls
1570 4384 Pls
3297 4450 Pls
5023 4739 Pls
6749 4476 Pls
1570 4581 Pls
3297 4739 Pls
5023 4043 Pls
6749 4739 Pls
1570 4739 Pls
3297 4739 Pls
5023 4739 Pls
6749 4739 Pls
1570 4739 Pls
3297 4739 Pls
5023 4739 Pls
6749 4739 Pls
1570 4660 Pls
3297 4739 Pls
5023 4667 Pls
6749 4739 Pls
1570 4739 Pls
3297 4739 Pls
5023 4739 Pls
6749 4739 Pls
1570 4739 Pls
3297 4739 Pls
5023 4739 Pls
6749 4651 Pls
1570 4739 Pls
3297 4542 Pls
5023 4542 Pls
6749 4384 Pls
1570 4542 Pls
3297 4161 Pls
5023 4581 Pls
6749 4279 Pls
1570 4542 Pls
3297 4241 Pls
5023 4364 Pls
6749 4739 Pls
1570 4227 Pls
3297 4050 Pls
5023 4188 Pls
6749 4542 Pls
1570 4739 Pls
3297 4384 Pls
5023 4317 Pls
6749 4214 Pls
1570 4739 Pls
3297 4739 Pls
5023 4739 Pls
6749 4739 Pls
1570 4739 Pls
3297 4739 Pls
5023 4739 Pls
6749 4739 Pls
1570 4739 Pls
3297 4739 Pls
5023 4739 Pls
6749 4739 Pls
1570 4739 Pls
3297 4739 Pls
5023 4739 Pls
6749 4739 Pls
1570 4739 Pls
3297 4739 Pls
5023 4739 Pls
6749 4739 Pls
1570 4214 Pls
3297 4739 Pls
5023 4476 Pls
6749 4279 Pls
1570 4188 Pls
3297 4430 Pls
5023 4345 Pls
6749 4476 Pls
1570 4542 Pls
3297 3944 Pls
5023 4444 Pls
6749 4476 Pls
1570 4122 Pls
3297 4739 Pls
5023 4247 Pls
6749 3943 Pls
1570 3459 Pls
3297 4042 Pls
5023 3947 Pls
6749 3886 Pls
% End plot #1
% Begin plot #2
1.000 UL
LT1
LCb setrgbcolor
5636 1488 M
[ [(Helvetica) 250.0 0.0 true true 0 (Average)]
] -83.3 MRshow
LT1
5786 1488 M
663 0 V
1570 4095 M
1727 61 V
1726 63 V
1726 56 V
% End plot #2
% Begin plot #3
stroke
LT2
LCb setrgbcolor
5636 1238 M
[ [(Helvetica) 250.0 0.0 true true 0 (Min)]
] -83.3 MRshow
LT2
5786 1238 M
663 0 V
1570 1000 M
1727 231 V
1726 164 V
1726 168 V
% End plot #3
% Begin plot #4
stroke
LT3
LCb setrgbcolor
5636 988 M
[ [(Helvetica) 250.0 0.0 true true 0 (Max)]
] -83.3 MRshow
LT3
5786 988 M
663 0 V
1570 4739 M
1727 0 V
1726 0 V
1726 0 V
% End plot #4
stroke
LTb
1225 4739 N
0 -3939 V
5524 0 V
0 3939 V
-5524 0 V
Z stroke
1.000 UP
1.000 UL
LTb
stroke
grestore
end
showpage
%%Trailer
%%DocumentFonts: Helvetica
