%!PS-Adobe-2.0 EPSF-2.0
%%Title: n_num_segments.time.eps
%%Creator: gnuplot 4.4 patchlevel 3
%%CreationDate: Tue Jun  4 13:15:17 2013
%%DocumentFonts: (atend)
%%BoundingBox: 50 50 410 302
%%EndComments
%%BeginProlog
/gnudict 256 dict def
gnudict begin
%
% The following true/false flags may be edited by hand if desired.
% The unit line width and grayscale image gamma correction may also be changed.
%
/Color true def
/Blacktext false def
/Solid false def
/Dashlength 1 def
/Landscape false def
/Level1 false def
/Rounded false def
/ClipToBoundingBox false def
/TransparentPatterns false def
/gnulinewidth 5.000 def
/userlinewidth gnulinewidth def
/Gamma 1.0 def
%
/vshift -83 def
/dl1 {
  10.0 Dashlength mul mul
  Rounded { currentlinewidth 0.75 mul sub dup 0 le { pop 0.01 } if } if
} def
/dl2 {
  10.0 Dashlength mul mul
  Rounded { currentlinewidth 0.75 mul add } if
} def
/hpt_ 31.5 def
/vpt_ 31.5 def
/hpt hpt_ def
/vpt vpt_ def
Level1 {} {
/SDict 10 dict def
systemdict /pdfmark known not {
  userdict /pdfmark systemdict /cleartomark get put
} if
SDict begin [
  /Title (n_num_segments.time.eps)
  /Subject (gnuplot plot)
  /Creator (gnuplot 4.4 patchlevel 3)
  /Author (xjia)
%  /Producer (gnuplot)
%  /Keywords ()
  /CreationDate (Tue Jun  4 13:15:17 2013)
  /DOCINFO pdfmark
end
} ifelse
/doclip {
  ClipToBoundingBox {
    newpath 50 50 moveto 410 50 lineto 410 302 lineto 50 302 lineto closepath
    clip
  } if
} def
%
% Gnuplot Prolog Version 4.4 (August 2010)
%
%/SuppressPDFMark true def
%
/M {moveto} bind def
/L {lineto} bind def
/R {rmoveto} bind def
/V {rlineto} bind def
/N {newpath moveto} bind def
/Z {closepath} bind def
/C {setrgbcolor} bind def
/f {rlineto fill} bind def
/g {setgray} bind def
/Gshow {show} def   % May be redefined later in the file to support UTF-8
/vpt2 vpt 2 mul def
/hpt2 hpt 2 mul def
/Lshow {currentpoint stroke M 0 vshift R 
	Blacktext {gsave 0 setgray show grestore} {show} ifelse} def
/Rshow {currentpoint stroke M dup stringwidth pop neg vshift R
	Blacktext {gsave 0 setgray show grestore} {show} ifelse} def
/Cshow {currentpoint stroke M dup stringwidth pop -2 div vshift R 
	Blacktext {gsave 0 setgray show grestore} {show} ifelse} def
/UP {dup vpt_ mul /vpt exch def hpt_ mul /hpt exch def
  /hpt2 hpt 2 mul def /vpt2 vpt 2 mul def} def
/DL {Color {setrgbcolor Solid {pop []} if 0 setdash}
 {pop pop pop 0 setgray Solid {pop []} if 0 setdash} ifelse} def
/BL {stroke userlinewidth 2 mul setlinewidth
	Rounded {1 setlinejoin 1 setlinecap} if} def
/AL {stroke userlinewidth 2 div setlinewidth
	Rounded {1 setlinejoin 1 setlinecap} if} def
/UL {dup gnulinewidth mul /userlinewidth exch def
	dup 1 lt {pop 1} if 10 mul /udl exch def} def
/PL {stroke userlinewidth setlinewidth
	Rounded {1 setlinejoin 1 setlinecap} if} def
3.8 setmiterlimit
% Default Line colors
/LCw {1 1 1} def
/LCb {0 0 0} def
/LCa {0 0 0} def
/LC0 {1 0 0} def
/LC1 {0 1 0} def
/LC2 {0 0 1} def
/LC3 {1 0 1} def
/LC4 {0 1 1} def
/LC5 {1 1 0} def
/LC6 {0 0 0} def
/LC7 {1 0.3 0} def
/LC8 {0.5 0.5 0.5} def
% Default Line Types
/LTw {PL [] 1 setgray} def
/LTb {BL [] LCb DL} def
/LTa {AL [1 udl mul 2 udl mul] 0 setdash LCa setrgbcolor} def
/LT0 {PL [] LC0 DL} def
/LT1 {PL [4 dl1 2 dl2] LC1 DL} def
/LT2 {PL [2 dl1 3 dl2] LC2 DL} def
/LT3 {PL [1 dl1 1.5 dl2] LC3 DL} def
/LT4 {PL [6 dl1 2 dl2 1 dl1 2 dl2] LC4 DL} def
/LT5 {PL [3 dl1 3 dl2 1 dl1 3 dl2] LC5 DL} def
/LT6 {PL [2 dl1 2 dl2 2 dl1 6 dl2] LC6 DL} def
/LT7 {PL [1 dl1 2 dl2 6 dl1 2 dl2 1 dl1 2 dl2] LC7 DL} def
/LT8 {PL [2 dl1 2 dl2 2 dl1 2 dl2 2 dl1 2 dl2 2 dl1 4 dl2] LC8 DL} def
/Pnt {stroke [] 0 setdash gsave 1 setlinecap M 0 0 V stroke grestore} def
/Dia {stroke [] 0 setdash 2 copy vpt add M
  hpt neg vpt neg V hpt vpt neg V
  hpt vpt V hpt neg vpt V closepath stroke
  Pnt} def
/Pls {stroke [] 0 setdash vpt sub M 0 vpt2 V
  currentpoint stroke M
  hpt neg vpt neg R hpt2 0 V stroke
 } def
/Box {stroke [] 0 setdash 2 copy exch hpt sub exch vpt add M
  0 vpt2 neg V hpt2 0 V 0 vpt2 V
  hpt2 neg 0 V closepath stroke
  Pnt} def
/Crs {stroke [] 0 setdash exch hpt sub exch vpt add M
  hpt2 vpt2 neg V currentpoint stroke M
  hpt2 neg 0 R hpt2 vpt2 V stroke} def
/TriU {stroke [] 0 setdash 2 copy vpt 1.12 mul add M
  hpt neg vpt -1.62 mul V
  hpt 2 mul 0 V
  hpt neg vpt 1.62 mul V closepath stroke
  Pnt} def
/Star {2 copy Pls Crs} def
/BoxF {stroke [] 0 setdash exch hpt sub exch vpt add M
  0 vpt2 neg V hpt2 0 V 0 vpt2 V
  hpt2 neg 0 V closepath fill} def
/TriUF {stroke [] 0 setdash vpt 1.12 mul add M
  hpt neg vpt -1.62 mul V
  hpt 2 mul 0 V
  hpt neg vpt 1.62 mul V closepath fill} def
/TriD {stroke [] 0 setdash 2 copy vpt 1.12 mul sub M
  hpt neg vpt 1.62 mul V
  hpt 2 mul 0 V
  hpt neg vpt -1.62 mul V closepath stroke
  Pnt} def
/TriDF {stroke [] 0 setdash vpt 1.12 mul sub M
  hpt neg vpt 1.62 mul V
  hpt 2 mul 0 V
  hpt neg vpt -1.62 mul V closepath fill} def
/DiaF {stroke [] 0 setdash vpt add M
  hpt neg vpt neg V hpt vpt neg V
  hpt vpt V hpt neg vpt V closepath fill} def
/Pent {stroke [] 0 setdash 2 copy gsave
  translate 0 hpt M 4 {72 rotate 0 hpt L} repeat
  closepath stroke grestore Pnt} def
/PentF {stroke [] 0 setdash gsave
  translate 0 hpt M 4 {72 rotate 0 hpt L} repeat
  closepath fill grestore} def
/Circle {stroke [] 0 setdash 2 copy
  hpt 0 360 arc stroke Pnt} def
/CircleF {stroke [] 0 setdash hpt 0 360 arc fill} def
/C0 {BL [] 0 setdash 2 copy moveto vpt 90 450 arc} bind def
/C1 {BL [] 0 setdash 2 copy moveto
	2 copy vpt 0 90 arc closepath fill
	vpt 0 360 arc closepath} bind def
/C2 {BL [] 0 setdash 2 copy moveto
	2 copy vpt 90 180 arc closepath fill
	vpt 0 360 arc closepath} bind def
/C3 {BL [] 0 setdash 2 copy moveto
	2 copy vpt 0 180 arc closepath fill
	vpt 0 360 arc closepath} bind def
/C4 {BL [] 0 setdash 2 copy moveto
	2 copy vpt 180 270 arc closepath fill
	vpt 0 360 arc closepath} bind def
/C5 {BL [] 0 setdash 2 copy moveto
	2 copy vpt 0 90 arc
	2 copy moveto
	2 copy vpt 180 270 arc closepath fill
	vpt 0 360 arc} bind def
/C6 {BL [] 0 setdash 2 copy moveto
	2 copy vpt 90 270 arc closepath fill
	vpt 0 360 arc closepath} bind def
/C7 {BL [] 0 setdash 2 copy moveto
	2 copy vpt 0 270 arc closepath fill
	vpt 0 360 arc closepath} bind def
/C8 {BL [] 0 setdash 2 copy moveto
	2 copy vpt 270 360 arc closepath fill
	vpt 0 360 arc closepath} bind def
/C9 {BL [] 0 setdash 2 copy moveto
	2 copy vpt 270 450 arc closepath fill
	vpt 0 360 arc closepath} bind def
/C10 {BL [] 0 setdash 2 copy 2 copy moveto vpt 270 360 arc closepath fill
	2 copy moveto
	2 copy vpt 90 180 arc closepath fill
	vpt 0 360 arc closepath} bind def
/C11 {BL [] 0 setdash 2 copy moveto
	2 copy vpt 0 180 arc closepath fill
	2 copy moveto
	2 copy vpt 270 360 arc closepath fill
	vpt 0 360 arc closepath} bind def
/C12 {BL [] 0 setdash 2 copy moveto
	2 copy vpt 180 360 arc closepath fill
	vpt 0 360 arc closepath} bind def
/C13 {BL [] 0 setdash 2 copy moveto
	2 copy vpt 0 90 arc closepath fill
	2 copy moveto
	2 copy vpt 180 360 arc closepath fill
	vpt 0 360 arc closepath} bind def
/C14 {BL [] 0 setdash 2 copy moveto
	2 copy vpt 90 360 arc closepath fill
	vpt 0 360 arc} bind def
/C15 {BL [] 0 setdash 2 copy vpt 0 360 arc closepath fill
	vpt 0 360 arc closepath} bind def
/Rec {newpath 4 2 roll moveto 1 index 0 rlineto 0 exch rlineto
	neg 0 rlineto closepath} bind def
/Square {dup Rec} bind def
/Bsquare {vpt sub exch vpt sub exch vpt2 Square} bind def
/S0 {BL [] 0 setdash 2 copy moveto 0 vpt rlineto BL Bsquare} bind def
/S1 {BL [] 0 setdash 2 copy vpt Square fill Bsquare} bind def
/S2 {BL [] 0 setdash 2 copy exch vpt sub exch vpt Square fill Bsquare} bind def
/S3 {BL [] 0 setdash 2 copy exch vpt sub exch vpt2 vpt Rec fill Bsquare} bind def
/S4 {BL [] 0 setdash 2 copy exch vpt sub exch vpt sub vpt Square fill Bsquare} bind def
/S5 {BL [] 0 setdash 2 copy 2 copy vpt Square fill
	exch vpt sub exch vpt sub vpt Square fill Bsquare} bind def
/S6 {BL [] 0 setdash 2 copy exch vpt sub exch vpt sub vpt vpt2 Rec fill Bsquare} bind def
/S7 {BL [] 0 setdash 2 copy exch vpt sub exch vpt sub vpt vpt2 Rec fill
	2 copy vpt Square fill Bsquare} bind def
/S8 {BL [] 0 setdash 2 copy vpt sub vpt Square fill Bsquare} bind def
/S9 {BL [] 0 setdash 2 copy vpt sub vpt vpt2 Rec fill Bsquare} bind def
/S10 {BL [] 0 setdash 2 copy vpt sub vpt Square fill 2 copy exch vpt sub exch vpt Square fill
	Bsquare} bind def
/S11 {BL [] 0 setdash 2 copy vpt sub vpt Square fill 2 copy exch vpt sub exch vpt2 vpt Rec fill
	Bsquare} bind def
/S12 {BL [] 0 setdash 2 copy exch vpt sub exch vpt sub vpt2 vpt Rec fill Bsquare} bind def
/S13 {BL [] 0 setdash 2 copy exch vpt sub exch vpt sub vpt2 vpt Rec fill
	2 copy vpt Square fill Bsquare} bind def
/S14 {BL [] 0 setdash 2 copy exch vpt sub exch vpt sub vpt2 vpt Rec fill
	2 copy exch vpt sub exch vpt Square fill Bsquare} bind def
/S15 {BL [] 0 setdash 2 copy Bsquare fill Bsquare} bind def
/D0 {gsave translate 45 rotate 0 0 S0 stroke grestore} bind def
/D1 {gsave translate 45 rotate 0 0 S1 stroke grestore} bind def
/D2 {gsave translate 45 rotate 0 0 S2 stroke grestore} bind def
/D3 {gsave translate 45 rotate 0 0 S3 stroke grestore} bind def
/D4 {gsave translate 45 rotate 0 0 S4 stroke grestore} bind def
/D5 {gsave translate 45 rotate 0 0 S5 stroke grestore} bind def
/D6 {gsave translate 45 rotate 0 0 S6 stroke grestore} bind def
/D7 {gsave translate 45 rotate 0 0 S7 stroke grestore} bind def
/D8 {gsave translate 45 rotate 0 0 S8 stroke grestore} bind def
/D9 {gsave translate 45 rotate 0 0 S9 stroke grestore} bind def
/D10 {gsave translate 45 rotate 0 0 S10 stroke grestore} bind def
/D11 {gsave translate 45 rotate 0 0 S11 stroke grestore} bind def
/D12 {gsave translate 45 rotate 0 0 S12 stroke grestore} bind def
/D13 {gsave translate 45 rotate 0 0 S13 stroke grestore} bind def
/D14 {gsave translate 45 rotate 0 0 S14 stroke grestore} bind def
/D15 {gsave translate 45 rotate 0 0 S15 stroke grestore} bind def
/DiaE {stroke [] 0 setdash vpt add M
  hpt neg vpt neg V hpt vpt neg V
  hpt vpt V hpt neg vpt V closepath stroke} def
/BoxE {stroke [] 0 setdash exch hpt sub exch vpt add M
  0 vpt2 neg V hpt2 0 V 0 vpt2 V
  hpt2 neg 0 V closepath stroke} def
/TriUE {stroke [] 0 setdash vpt 1.12 mul add M
  hpt neg vpt -1.62 mul V
  hpt 2 mul 0 V
  hpt neg vpt 1.62 mul V closepath stroke} def
/TriDE {stroke [] 0 setdash vpt 1.12 mul sub M
  hpt neg vpt 1.62 mul V
  hpt 2 mul 0 V
  hpt neg vpt -1.62 mul V closepath stroke} def
/PentE {stroke [] 0 setdash gsave
  translate 0 hpt M 4 {72 rotate 0 hpt L} repeat
  closepath stroke grestore} def
/CircE {stroke [] 0 setdash 
  hpt 0 360 arc stroke} def
/Opaque {gsave closepath 1 setgray fill grestore 0 setgray closepath} def
/DiaW {stroke [] 0 setdash vpt add M
  hpt neg vpt neg V hpt vpt neg V
  hpt vpt V hpt neg vpt V Opaque stroke} def
/BoxW {stroke [] 0 setdash exch hpt sub exch vpt add M
  0 vpt2 neg V hpt2 0 V 0 vpt2 V
  hpt2 neg 0 V Opaque stroke} def
/TriUW {stroke [] 0 setdash vpt 1.12 mul add M
  hpt neg vpt -1.62 mul V
  hpt 2 mul 0 V
  hpt neg vpt 1.62 mul V Opaque stroke} def
/TriDW {stroke [] 0 setdash vpt 1.12 mul sub M
  hpt neg vpt 1.62 mul V
  hpt 2 mul 0 V
  hpt neg vpt -1.62 mul V Opaque stroke} def
/PentW {stroke [] 0 setdash gsave
  translate 0 hpt M 4 {72 rotate 0 hpt L} repeat
  Opaque stroke grestore} def
/CircW {stroke [] 0 setdash 
  hpt 0 360 arc Opaque stroke} def
/BoxFill {gsave Rec 1 setgray fill grestore} def
/Density {
  /Fillden exch def
  currentrgbcolor
  /ColB exch def /ColG exch def /ColR exch def
  /ColR ColR Fillden mul Fillden sub 1 add def
  /ColG ColG Fillden mul Fillden sub 1 add def
  /ColB ColB Fillden mul Fillden sub 1 add def
  ColR ColG ColB setrgbcolor} def
/BoxColFill {gsave Rec PolyFill} def
/PolyFill {gsave Density fill grestore grestore} def
/h {rlineto rlineto rlineto gsave closepath fill grestore} bind def
%
% PostScript Level 1 Pattern Fill routine for rectangles
% Usage: x y w h s a XX PatternFill
%	x,y = lower left corner of box to be filled
%	w,h = width and height of box
%	  a = angle in degrees between lines and x-axis
%	 XX = 0/1 for no/yes cross-hatch
%
/PatternFill {gsave /PFa [ 9 2 roll ] def
  PFa 0 get PFa 2 get 2 div add PFa 1 get PFa 3 get 2 div add translate
  PFa 2 get -2 div PFa 3 get -2 div PFa 2 get PFa 3 get Rec
  gsave 1 setgray fill grestore clip
  currentlinewidth 0.5 mul setlinewidth
  /PFs PFa 2 get dup mul PFa 3 get dup mul add sqrt def
  0 0 M PFa 5 get rotate PFs -2 div dup translate
  0 1 PFs PFa 4 get div 1 add floor cvi
	{PFa 4 get mul 0 M 0 PFs V} for
  0 PFa 6 get ne {
	0 1 PFs PFa 4 get div 1 add floor cvi
	{PFa 4 get mul 0 2 1 roll M PFs 0 V} for
 } if
  stroke grestore} def
%
/languagelevel where
 {pop languagelevel} {1} ifelse
 2 lt
	{/InterpretLevel1 true def}
	{/InterpretLevel1 Level1 def}
 ifelse
%
% PostScript level 2 pattern fill definitions
%
/Level2PatternFill {
/Tile8x8 {/PaintType 2 /PatternType 1 /TilingType 1 /BBox [0 0 8 8] /XStep 8 /YStep 8}
	bind def
/KeepColor {currentrgbcolor [/Pattern /DeviceRGB] setcolorspace} bind def
<< Tile8x8
 /PaintProc {0.5 setlinewidth pop 0 0 M 8 8 L 0 8 M 8 0 L stroke} 
>> matrix makepattern
/Pat1 exch def
<< Tile8x8
 /PaintProc {0.5 setlinewidth pop 0 0 M 8 8 L 0 8 M 8 0 L stroke
	0 4 M 4 8 L 8 4 L 4 0 L 0 4 L stroke}
>> matrix makepattern
/Pat2 exch def
<< Tile8x8
 /PaintProc {0.5 setlinewidth pop 0 0 M 0 8 L
	8 8 L 8 0 L 0 0 L fill}
>> matrix makepattern
/Pat3 exch def
<< Tile8x8
 /PaintProc {0.5 setlinewidth pop -4 8 M 8 -4 L
	0 12 M 12 0 L stroke}
>> matrix makepattern
/Pat4 exch def
<< Tile8x8
 /PaintProc {0.5 setlinewidth pop -4 0 M 8 12 L
	0 -4 M 12 8 L stroke}
>> matrix makepattern
/Pat5 exch def
<< Tile8x8
 /PaintProc {0.5 setlinewidth pop -2 8 M 4 -4 L
	0 12 M 8 -4 L 4 12 M 10 0 L stroke}
>> matrix makepattern
/Pat6 exch def
<< Tile8x8
 /PaintProc {0.5 setlinewidth pop -2 0 M 4 12 L
	0 -4 M 8 12 L 4 -4 M 10 8 L stroke}
>> matrix makepattern
/Pat7 exch def
<< Tile8x8
 /PaintProc {0.5 setlinewidth pop 8 -2 M -4 4 L
	12 0 M -4 8 L 12 4 M 0 10 L stroke}
>> matrix makepattern
/Pat8 exch def
<< Tile8x8
 /PaintProc {0.5 setlinewidth pop 0 -2 M 12 4 L
	-4 0 M 12 8 L -4 4 M 8 10 L stroke}
>> matrix makepattern
/Pat9 exch def
/Pattern1 {PatternBgnd KeepColor Pat1 setpattern} bind def
/Pattern2 {PatternBgnd KeepColor Pat2 setpattern} bind def
/Pattern3 {PatternBgnd KeepColor Pat3 setpattern} bind def
/Pattern4 {PatternBgnd KeepColor Landscape {Pat5} {Pat4} ifelse setpattern} bind def
/Pattern5 {PatternBgnd KeepColor Landscape {Pat4} {Pat5} ifelse setpattern} bind def
/Pattern6 {PatternBgnd KeepColor Landscape {Pat9} {Pat6} ifelse setpattern} bind def
/Pattern7 {PatternBgnd KeepColor Landscape {Pat8} {Pat7} ifelse setpattern} bind def
} def
%
%
%End of PostScript Level 2 code
%
/PatternBgnd {
  TransparentPatterns {} {gsave 1 setgray fill grestore} ifelse
} def
%
% Substitute for Level 2 pattern fill codes with
% grayscale if Level 2 support is not selected.
%
/Level1PatternFill {
/Pattern1 {0.250 Density} bind def
/Pattern2 {0.500 Density} bind def
/Pattern3 {0.750 Density} bind def
/Pattern4 {0.125 Density} bind def
/Pattern5 {0.375 Density} bind def
/Pattern6 {0.625 Density} bind def
/Pattern7 {0.875 Density} bind def
} def
%
% Now test for support of Level 2 code
%
Level1 {Level1PatternFill} {Level2PatternFill} ifelse
%
/Symbol-Oblique /Symbol findfont [1 0 .167 1 0 0] makefont
dup length dict begin {1 index /FID eq {pop pop} {def} ifelse} forall
currentdict end definefont pop
/MFshow {
   { dup 5 get 3 ge
     { 5 get 3 eq {gsave} {grestore} ifelse }
     {dup dup 0 get findfont exch 1 get scalefont setfont
     [ currentpoint ] exch dup 2 get 0 exch R dup 5 get 2 ne {dup dup 6
     get exch 4 get {Gshow} {stringwidth pop 0 R} ifelse }if dup 5 get 0 eq
     {dup 3 get {2 get neg 0 exch R pop} {pop aload pop M} ifelse} {dup 5
     get 1 eq {dup 2 get exch dup 3 get exch 6 get stringwidth pop -2 div
     dup 0 R} {dup 6 get stringwidth pop -2 div 0 R 6 get
     show 2 index {aload pop M neg 3 -1 roll neg R pop pop} {pop pop pop
     pop aload pop M} ifelse }ifelse }ifelse }
     ifelse }
   forall} def
/Gswidth {dup type /stringtype eq {stringwidth} {pop (n) stringwidth} ifelse} def
/MFwidth {0 exch { dup 5 get 3 ge { 5 get 3 eq { 0 } { pop } ifelse }
 {dup 3 get{dup dup 0 get findfont exch 1 get scalefont setfont
     6 get Gswidth pop add} {pop} ifelse} ifelse} forall} def
/MLshow { currentpoint stroke M
  0 exch R
  Blacktext {gsave 0 setgray MFshow grestore} {MFshow} ifelse } bind def
/MRshow { currentpoint stroke M
  exch dup MFwidth neg 3 -1 roll R
  Blacktext {gsave 0 setgray MFshow grestore} {MFshow} ifelse } bind def
/MCshow { currentpoint stroke M
  exch dup MFwidth -2 div 3 -1 roll R
  Blacktext {gsave 0 setgray MFshow grestore} {MFshow} ifelse } bind def
/XYsave    { [( ) 1 2 true false 3 ()] } bind def
/XYrestore { [( ) 1 2 true false 4 ()] } bind def
end
%%EndProlog
gnudict begin
gsave
doclip
50 50 translate
0.050 0.050 scale
0 setgray
newpath
(Helvetica) findfont 250 scalefont setfont
1.000 UL
LTb
1225 800 M
63 0 V
5461 0 R
-63 0 V
stroke
1075 800 M
[ [(Helvetica) 250.0 0.0 true true 0 ( 0)]
] -83.3 MRshow
1.000 UL
LTb
1225 1588 M
63 0 V
5461 0 R
-63 0 V
stroke
1075 1588 M
[ [(Helvetica) 250.0 0.0 true true 0 ( 0.5)]
] -83.3 MRshow
1.000 UL
LTb
1225 2376 M
63 0 V
5461 0 R
-63 0 V
stroke
1075 2376 M
[ [(Helvetica) 250.0 0.0 true true 0 ( 1)]
] -83.3 MRshow
1.000 UL
LTb
1225 3163 M
63 0 V
5461 0 R
-63 0 V
stroke
1075 3163 M
[ [(Helvetica) 250.0 0.0 true true 0 ( 1.5)]
] -83.3 MRshow
1.000 UL
LTb
1225 3951 M
63 0 V
5461 0 R
-63 0 V
stroke
1075 3951 M
[ [(Helvetica) 250.0 0.0 true true 0 ( 2)]
] -83.3 MRshow
1.000 UL
LTb
1225 4739 M
63 0 V
5461 0 R
-63 0 V
stroke
1075 4739 M
[ [(Helvetica) 250.0 0.0 true true 0 ( 2.5)]
] -83.3 MRshow
1.000 UL
LTb
1225 800 M
0 63 V
0 3876 R
0 -63 V
stroke
1225 550 M
[ [(Helvetica) 250.0 0.0 true true 0 ( 4)]
] -83.3 MCshow
1.000 UL
LTb
1916 800 M
0 63 V
0 3876 R
0 -63 V
stroke
1916 550 M
[ [(Helvetica) 250.0 0.0 true true 0 ( 6)]
] -83.3 MCshow
1.000 UL
LTb
2606 800 M
0 63 V
0 3876 R
0 -63 V
stroke
2606 550 M
[ [(Helvetica) 250.0 0.0 true true 0 ( 8)]
] -83.3 MCshow
1.000 UL
LTb
3297 800 M
0 63 V
0 3876 R
0 -63 V
stroke
3297 550 M
[ [(Helvetica) 250.0 0.0 true true 0 ( 10)]
] -83.3 MCshow
1.000 UL
LTb
3987 800 M
0 63 V
0 3876 R
0 -63 V
stroke
3987 550 M
[ [(Helvetica) 250.0 0.0 true true 0 ( 12)]
] -83.3 MCshow
1.000 UL
LTb
4678 800 M
0 63 V
0 3876 R
0 -63 V
stroke
4678 550 M
[ [(Helvetica) 250.0 0.0 true true 0 ( 14)]
] -83.3 MCshow
1.000 UL
LTb
5368 800 M
0 63 V
0 3876 R
0 -63 V
stroke
5368 550 M
[ [(Helvetica) 250.0 0.0 true true 0 ( 16)]
] -83.3 MCshow
1.000 UL
LTb
6059 800 M
0 63 V
0 3876 R
0 -63 V
stroke
6059 550 M
[ [(Helvetica) 250.0 0.0 true true 0 ( 18)]
] -83.3 MCshow
1.000 UL
LTb
6749 800 M
0 63 V
0 3876 R
0 -63 V
stroke
6749 550 M
[ [(Helvetica) 250.0 0.0 true true 0 ( 20)]
] -83.3 MCshow
1.000 UL
LTb
1.000 UL
LTb
1225 4739 N
0 -3939 V
5524 0 V
0 3939 V
-5524 0 V
Z stroke
LCb setrgbcolor
200 2769 M
currentpoint gsave translate -270 rotate 0 0 moveto
[ [(Helvetica) 250.0 0.0 true true 0 (Time \(sec\))]
] -83.3 MCshow
grestore
LTb
LCb setrgbcolor
3987 175 M
[ [(Helvetica) 250.0 0.0 true true 0 (Number of Segments)]
] -83.3 MCshow
LTb
1.000 UP
1.000 UL
LTb
% Begin plot #1
1.000 UP
1.000 UL
LT0
1570 801 Pls
3297 802 Pls
5023 802 Pls
6749 802 Pls
1570 801 Pls
3297 801 Pls
5023 802 Pls
6749 802 Pls
1570 801 Pls
3297 801 Pls
5023 801 Pls
6749 801 Pls
1570 801 Pls
3297 801 Pls
5023 801 Pls
6749 801 Pls
1570 800 Pls
3297 800 Pls
5023 800 Pls
6749 800 Pls
1570 801 Pls
3297 801 Pls
5023 801 Pls
6749 801 Pls
1570 801 Pls
3297 801 Pls
5023 801 Pls
6749 801 Pls
1570 801 Pls
3297 801 Pls
5023 802 Pls
6749 802 Pls
1570 802 Pls
3297 802 Pls
5023 802 Pls
6749 802 Pls
1570 802 Pls
3297 803 Pls
5023 803 Pls
6749 803 Pls
1570 813 Pls
3297 813 Pls
5023 817 Pls
6749 818 Pls
1570 809 Pls
3297 812 Pls
5023 811 Pls
6749 815 Pls
1570 808 Pls
3297 811 Pls
5023 807 Pls
6749 809 Pls
1570 807 Pls
3297 806 Pls
5023 808 Pls
6749 807 Pls
1570 804 Pls
3297 805 Pls
5023 804 Pls
6749 804 Pls
1570 809 Pls
3297 809 Pls
5023 809 Pls
6749 811 Pls
1570 813 Pls
3297 815 Pls
5023 817 Pls
6749 818 Pls
1570 823 Pls
3297 823 Pls
5023 825 Pls
6749 827 Pls
1570 829 Pls
3297 832 Pls
5023 832 Pls
6749 834 Pls
1570 840 Pls
3297 839 Pls
5023 844 Pls
6749 844 Pls
1570 852 Pls
3297 856 Pls
5023 862 Pls
6749 853 Pls
1570 837 Pls
3297 836 Pls
5023 841 Pls
6749 838 Pls
1570 826 Pls
3297 841 Pls
5023 837 Pls
6749 827 Pls
1570 823 Pls
3297 828 Pls
5023 829 Pls
6749 820 Pls
1570 813 Pls
3297 818 Pls
5023 818 Pls
6749 820 Pls
1570 845 Pls
3297 843 Pls
5023 849 Pls
6749 854 Pls
1570 880 Pls
3297 874 Pls
5023 880 Pls
6749 883 Pls
1570 911 Pls
3297 911 Pls
5023 925 Pls
6749 916 Pls
1570 962 Pls
3297 965 Pls
5023 967 Pls
6749 970 Pls
1570 986 Pls
3297 995 Pls
5023 984 Pls
6749 1026 Pls
1570 918 Pls
3297 979 Pls
5023 1005 Pls
6749 1003 Pls
1570 936 Pls
3297 937 Pls
5023 928 Pls
6749 948 Pls
1570 864 Pls
3297 902 Pls
5023 916 Pls
6749 929 Pls
1570 865 Pls
3297 873 Pls
5023 870 Pls
6749 870 Pls
1570 840 Pls
3297 840 Pls
5023 833 Pls
6749 858 Pls
1570 962 Pls
3297 952 Pls
5023 963 Pls
6749 946 Pls
1570 1084 Pls
3297 1092 Pls
5023 1078 Pls
6749 1089 Pls
1570 1183 Pls
3297 1237 Pls
5023 1192 Pls
6749 1281 Pls
1570 1399 Pls
3297 1350 Pls
5023 1355 Pls
6749 1454 Pls
1570 1447 Pls
3297 1553 Pls
5023 1615 Pls
6749 1469 Pls
1570 1073 Pls
3297 1164 Pls
5023 1225 Pls
6749 1190 Pls
1570 1013 Pls
3297 1105 Pls
5023 1086 Pls
6749 1129 Pls
1570 979 Pls
3297 1028 Pls
5023 1100 Pls
6749 1036 Pls
1570 1027 Pls
3297 934 Pls
5023 1013 Pls
6749 1009 Pls
1570 894 Pls
3297 948 Pls
5023 907 Pls
6749 905 Pls
1570 1346 Pls
3297 1332 Pls
5023 1430 Pls
6749 1347 Pls
1570 1712 Pls
3297 1804 Pls
5023 1838 Pls
6749 1965 Pls
1570 2077 Pls
3297 2612 Pls
5023 2374 Pls
6749 2693 Pls
1570 3413 Pls
3297 3318 Pls
5023 3232 Pls
6749 3097 Pls
1570 3769 Pls
3297 4080 Pls
5023 4198 Pls
6749 4330 Pls
1570 801 Pls
3297 801 Pls
5023 802 Pls
6749 802 Pls
1570 801 Pls
3297 801 Pls
5023 802 Pls
6749 802 Pls
1570 801 Pls
3297 801 Pls
5023 801 Pls
6749 801 Pls
1570 800 Pls
3297 801 Pls
5023 801 Pls
6749 801 Pls
1570 800 Pls
3297 800 Pls
5023 800 Pls
6749 800 Pls
1570 801 Pls
3297 801 Pls
5023 801 Pls
6749 801 Pls
1570 801 Pls
3297 801 Pls
5023 801 Pls
6749 801 Pls
1570 801 Pls
3297 802 Pls
5023 802 Pls
6749 802 Pls
1570 802 Pls
3297 802 Pls
5023 802 Pls
6749 802 Pls
1570 802 Pls
3297 802 Pls
5023 803 Pls
6749 803 Pls
1570 815 Pls
3297 814 Pls
5023 811 Pls
6749 819 Pls
1570 810 Pls
3297 812 Pls
5023 813 Pls
6749 810 Pls
1570 809 Pls
3297 808 Pls
5023 810 Pls
6749 811 Pls
1570 808 Pls
3297 806 Pls
5023 805 Pls
6749 807 Pls
1570 805 Pls
3297 804 Pls
5023 805 Pls
6749 806 Pls
1570 809 Pls
3297 809 Pls
5023 811 Pls
6749 811 Pls
1570 815 Pls
3297 818 Pls
5023 818 Pls
6749 820 Pls
1570 825 Pls
3297 826 Pls
5023 824 Pls
6749 826 Pls
1570 827 Pls
3297 832 Pls
5023 834 Pls
6749 837 Pls
1570 838 Pls
3297 842 Pls
5023 844 Pls
6749 845 Pls
1570 852 Pls
3297 848 Pls
5023 860 Pls
6749 869 Pls
1570 839 Pls
3297 843 Pls
5023 842 Pls
6749 853 Pls
1570 829 Pls
3297 837 Pls
5023 827 Pls
6749 840 Pls
1570 824 Pls
3297 824 Pls
5023 830 Pls
6749 832 Pls
1570 815 Pls
3297 819 Pls
5023 822 Pls
6749 817 Pls
1570 837 Pls
3297 842 Pls
5023 847 Pls
6749 849 Pls
1570 867 Pls
3297 881 Pls
5023 870 Pls
6749 885 Pls
1570 917 Pls
3297 908 Pls
5023 916 Pls
6749 928 Pls
1570 943 Pls
3297 943 Pls
5023 972 Pls
6749 960 Pls
1570 980 Pls
3297 992 Pls
5023 990 Pls
6749 1026 Pls
1570 932 Pls
3297 939 Pls
5023 976 Pls
6749 974 Pls
1570 900 Pls
3297 937 Pls
5023 923 Pls
6749 949 Pls
1570 879 Pls
3297 895 Pls
5023 902 Pls
6749 912 Pls
1570 875 Pls
3297 863 Pls
5023 880 Pls
6749 884 Pls
1570 847 Pls
3297 849 Pls
5023 840 Pls
6749 841 Pls
1570 940 Pls
3297 975 Pls
5023 965 Pls
6749 972 Pls
1570 1063 Pls
3297 1094 Pls
5023 1101 Pls
6749 1113 Pls
1570 1213 Pls
3297 1226 Pls
5023 1212 Pls
6749 1258 Pls
1570 1324 Pls
3297 1399 Pls
5023 1436 Pls
6749 1378 Pls
1570 1592 Pls
3297 1625 Pls
5023 1560 Pls
6749 1517 Pls
1570 1126 Pls
3297 1091 Pls
5023 1121 Pls
6749 1253 Pls
1570 1020 Pls
3297 1047 Pls
5023 1130 Pls
6749 1122 Pls
1570 1005 Pls
3297 1033 Pls
5023 1059 Pls
6749 1096 Pls
1570 978 Pls
3297 967 Pls
5023 956 Pls
6749 1058 Pls
1570 900 Pls
3297 943 Pls
5023 922 Pls
6749 942 Pls
1570 1378 Pls
3297 1429 Pls
5023 1450 Pls
6749 1399 Pls
1570 2101 Pls
3297 1928 Pls
5023 2039 Pls
6749 1995 Pls
1570 2618 Pls
3297 2463 Pls
5023 2491 Pls
6749 2504 Pls
1570 3541 Pls
3297 3002 Pls
5023 3043 Pls
6749 3476 Pls
1570 3354 Pls
3297 3923 Pls
5023 4037 Pls
6749 4104 Pls
1570 803 Pls
3297 801 Pls
5023 801 Pls
6749 802 Pls
1570 801 Pls
3297 801 Pls
5023 802 Pls
6749 801 Pls
1570 801 Pls
3297 801 Pls
5023 801 Pls
6749 801 Pls
1570 801 Pls
3297 801 Pls
5023 801 Pls
6749 801 Pls
1570 800 Pls
3297 800 Pls
5023 800 Pls
6749 800 Pls
1570 801 Pls
3297 801 Pls
5023 801 Pls
6749 801 Pls
1570 801 Pls
3297 801 Pls
5023 801 Pls
6749 801 Pls
1570 801 Pls
3297 801 Pls
5023 802 Pls
6749 802 Pls
1570 802 Pls
3297 802 Pls
5023 802 Pls
6749 802 Pls
1570 802 Pls
3297 802 Pls
5023 802 Pls
6749 803 Pls
1570 813 Pls
3297 814 Pls
5023 817 Pls
6749 819 Pls
1570 809 Pls
3297 811 Pls
5023 810 Pls
6749 815 Pls
1570 808 Pls
3297 809 Pls
5023 810 Pls
6749 812 Pls
1570 805 Pls
3297 806 Pls
5023 806 Pls
6749 808 Pls
1570 805 Pls
3297 805 Pls
5023 804 Pls
6749 805 Pls
1570 809 Pls
3297 809 Pls
5023 809 Pls
6749 811 Pls
1570 816 Pls
3297 817 Pls
5023 818 Pls
6749 819 Pls
1570 823 Pls
3297 828 Pls
5023 824 Pls
6749 827 Pls
1570 830 Pls
3297 832 Pls
5023 835 Pls
6749 833 Pls
1570 843 Pls
3297 845 Pls
5023 844 Pls
6749 842 Pls
1570 840 Pls
3297 853 Pls
5023 854 Pls
6749 866 Pls
1570 835 Pls
3297 845 Pls
5023 844 Pls
6749 847 Pls
1570 834 Pls
3297 832 Pls
5023 844 Pls
6749 831 Pls
1570 829 Pls
3297 819 Pls
5023 827 Pls
6749 834 Pls
1570 816 Pls
3297 818 Pls
5023 815 Pls
6749 817 Pls
1570 844 Pls
3297 848 Pls
5023 853 Pls
6749 845 Pls
1570 882 Pls
3297 883 Pls
5023 882 Pls
6749 886 Pls
1570 912 Pls
3297 919 Pls
5023 917 Pls
6749 915 Pls
1570 971 Pls
3297 962 Pls
5023 951 Pls
6749 973 Pls
1570 991 Pls
3297 996 Pls
5023 1001 Pls
6749 1027 Pls
1570 952 Pls
3297 946 Pls
5023 988 Pls
6749 978 Pls
1570 925 Pls
3297 926 Pls
5023 927 Pls
6749 956 Pls
1570 872 Pls
3297 894 Pls
5023 913 Pls
6749 902 Pls
1570 865 Pls
3297 883 Pls
5023 867 Pls
6749 861 Pls
1570 847 Pls
3297 844 Pls
5023 854 Pls
6749 864 Pls
1570 961 Pls
3297 952 Pls
5023 953 Pls
6749 958 Pls
1570 1099 Pls
3297 1080 Pls
5023 1050 Pls
6749 1111 Pls
1570 1202 Pls
3297 1198 Pls
5023 1197 Pls
6749 1265 Pls
1570 1334 Pls
3297 1400 Pls
5023 1404 Pls
6749 1462 Pls
1570 1457 Pls
3297 1449 Pls
5023 1583 Pls
6749 1593 Pls
1570 1120 Pls
3297 1112 Pls
5023 1208 Pls
6749 1225 Pls
1570 1037 Pls
3297 1190 Pls
5023 1129 Pls
6749 1234 Pls
1570 981 Pls
3297 1040 Pls
5023 1011 Pls
6749 1111 Pls
1570 952 Pls
3297 973 Pls
5023 960 Pls
6749 983 Pls
1570 898 Pls
3297 920 Pls
5023 902 Pls
6749 911 Pls
1570 1419 Pls
3297 1282 Pls
5023 1464 Pls
6749 1435 Pls
1570 1867 Pls
3297 1938 Pls
5023 1838 Pls
6749 2101 Pls
1570 2385 Pls
3297 2399 Pls
5023 2731 Pls
6749 2708 Pls
1570 3278 Pls
3297 3041 Pls
5023 3232 Pls
6749 3489 Pls
1570 3790 Pls
3297 3962 Pls
5023 3500 Pls
6749 3923 Pls
1570 801 Pls
3297 801 Pls
5023 802 Pls
6749 802 Pls
1570 801 Pls
3297 801 Pls
5023 801 Pls
6749 801 Pls
1570 801 Pls
3297 801 Pls
5023 801 Pls
6749 801 Pls
1570 800 Pls
3297 801 Pls
5023 801 Pls
6749 801 Pls
1570 800 Pls
3297 800 Pls
5023 800 Pls
6749 800 Pls
1570 801 Pls
3297 801 Pls
5023 801 Pls
6749 801 Pls
1570 801 Pls
3297 801 Pls
5023 801 Pls
6749 801 Pls
1570 801 Pls
3297 802 Pls
5023 802 Pls
6749 802 Pls
1570 802 Pls
3297 802 Pls
5023 802 Pls
6749 802 Pls
1570 802 Pls
3297 803 Pls
5023 803 Pls
6749 803 Pls
1570 816 Pls
3297 811 Pls
5023 816 Pls
6749 817 Pls
1570 811 Pls
3297 811 Pls
5023 816 Pls
6749 813 Pls
1570 808 Pls
3297 808 Pls
5023 808 Pls
6749 810 Pls
1570 807 Pls
3297 805 Pls
5023 809 Pls
6749 807 Pls
1570 805 Pls
3297 805 Pls
5023 803 Pls
6749 805 Pls
1570 809 Pls
3297 809 Pls
5023 810 Pls
6749 812 Pls
1570 816 Pls
3297 816 Pls
5023 818 Pls
6749 820 Pls
1570 820 Pls
3297 823 Pls
5023 827 Pls
6749 828 Pls
1570 832 Pls
3297 833 Pls
5023 834 Pls
6749 835 Pls
1570 837 Pls
3297 838 Pls
5023 842 Pls
6749 844 Pls
1570 847 Pls
3297 851 Pls
5023 847 Pls
6749 865 Pls
1570 839 Pls
3297 840 Pls
5023 842 Pls
6749 841 Pls
1570 831 Pls
3297 831 Pls
5023 824 Pls
6749 838 Pls
1570 829 Pls
3297 824 Pls
5023 829 Pls
6749 823 Pls
1570 813 Pls
3297 817 Pls
5023 821 Pls
6749 818 Pls
1570 846 Pls
3297 845 Pls
5023 843 Pls
6749 846 Pls
1570 884 Pls
3297 878 Pls
5023 883 Pls
6749 874 Pls
1570 926 Pls
3297 922 Pls
5023 913 Pls
6749 921 Pls
1570 945 Pls
3297 954 Pls
5023 958 Pls
6749 970 Pls
1570 1014 Pls
3297 1010 Pls
5023 983 Pls
6749 1001 Pls
1570 958 Pls
3297 1004 Pls
5023 953 Pls
6749 978 Pls
1570 906 Pls
3297 940 Pls
5023 933 Pls
6749 950 Pls
1570 883 Pls
3297 911 Pls
5023 940 Pls
6749 908 Pls
1570 863 Pls
3297 880 Pls
5023 889 Pls
6749 852 Pls
1570 844 Pls
3297 851 Pls
5023 866 Pls
6749 870 Pls
1570 937 Pls
3297 958 Pls
5023 958 Pls
6749 962 Pls
1570 1066 Pls
3297 1099 Pls
5023 1092 Pls
6749 1099 Pls
1570 1200 Pls
3297 1202 Pls
5023 1241 Pls
6749 1256 Pls
1570 1502 Pls
3297 1316 Pls
5023 1293 Pls
6749 1390 Pls
1570 1603 Pls
3297 1472 Pls
5023 1556 Pls
6749 1599 Pls
1570 1123 Pls
3297 1109 Pls
5023 1249 Pls
6749 1162 Pls
1570 1079 Pls
3297 1060 Pls
5023 1123 Pls
6749 1077 Pls
1570 958 Pls
3297 1052 Pls
5023 1046 Pls
6749 1082 Pls
1570 938 Pls
3297 966 Pls
5023 972 Pls
6749 973 Pls
1570 908 Pls
3297 887 Pls
5023 902 Pls
6749 927 Pls
1570 1297 Pls
3297 1350 Pls
5023 1435 Pls
6749 1418 Pls
1570 1888 Pls
3297 2023 Pls
5023 1859 Pls
6749 2096 Pls
1570 2485 Pls
3297 2769 Pls
5023 2486 Pls
6749 2680 Pls
1570 2856 Pls
3297 3026 Pls
5023 3213 Pls
6749 3468 Pls
1570 3942 Pls
3297 3755 Pls
5023 4056 Pls
6749 4025 Pls
1570 801 Pls
3297 801 Pls
5023 802 Pls
6749 802 Pls
1570 801 Pls
3297 801 Pls
5023 801 Pls
6749 802 Pls
1570 801 Pls
3297 801 Pls
5023 801 Pls
6749 801 Pls
1570 801 Pls
3297 801 Pls
5023 801 Pls
6749 801 Pls
1570 800 Pls
3297 801 Pls
5023 800 Pls
6749 801 Pls
1570 801 Pls
3297 801 Pls
5023 801 Pls
6749 801 Pls
1570 801 Pls
3297 801 Pls
5023 801 Pls
6749 801 Pls
1570 801 Pls
3297 802 Pls
5023 802 Pls
6749 802 Pls
1570 802 Pls
3297 802 Pls
5023 803 Pls
6749 802 Pls
1570 802 Pls
3297 803 Pls
5023 803 Pls
6749 803 Pls
1570 814 Pls
3297 818 Pls
5023 814 Pls
6749 818 Pls
1570 809 Pls
3297 812 Pls
5023 811 Pls
6749 813 Pls
1570 809 Pls
3297 809 Pls
5023 810 Pls
6749 811 Pls
1570 807 Pls
3297 807 Pls
5023 808 Pls
6749 808 Pls
1570 805 Pls
3297 805 Pls
5023 805 Pls
6749 805 Pls
1570 809 Pls
3297 810 Pls
5023 810 Pls
6749 812 Pls
1570 816 Pls
3297 814 Pls
5023 817 Pls
6749 817 Pls
1570 824 Pls
3297 827 Pls
5023 824 Pls
6749 826 Pls
1570 829 Pls
3297 835 Pls
5023 832 Pls
6749 838 Pls
1570 836 Pls
3297 841 Pls
5023 842 Pls
6749 845 Pls
1570 840 Pls
3297 845 Pls
5023 854 Pls
6749 869 Pls
1570 831 Pls
3297 836 Pls
5023 850 Pls
6749 854 Pls
1570 827 Pls
3297 839 Pls
5023 829 Pls
6749 843 Pls
1570 825 Pls
3297 820 Pls
5023 830 Pls
6749 829 Pls
1570 817 Pls
3297 819 Pls
5023 815 Pls
6749 820 Pls
1570 844 Pls
3297 847 Pls
5023 851 Pls
6749 848 Pls
1570 875 Pls
3297 884 Pls
5023 886 Pls
6749 880 Pls
1570 918 Pls
3297 904 Pls
5023 935 Pls
6749 916 Pls
1570 946 Pls
3297 958 Pls
5023 962 Pls
6749 956 Pls
1570 963 Pls
3297 988 Pls
5023 1005 Pls
6749 1028 Pls
1570 943 Pls
3297 975 Pls
5023 968 Pls
6749 958 Pls
1570 908 Pls
3297 947 Pls
5023 952 Pls
6749 963 Pls
1570 884 Pls
3297 913 Pls
5023 897 Pls
6749 905 Pls
1570 872 Pls
3297 872 Pls
5023 873 Pls
6749 873 Pls
1570 847 Pls
3297 849 Pls
5023 853 Pls
6749 850 Pls
1570 969 Pls
3297 964 Pls
5023 968 Pls
6749 948 Pls
1570 1098 Pls
3297 1054 Pls
5023 1125 Pls
6749 1086 Pls
1570 1215 Pls
3297 1199 Pls
5023 1247 Pls
6749 1232 Pls
1570 1350 Pls
3297 1371 Pls
5023 1410 Pls
6749 1377 Pls
1570 1598 Pls
3297 1566 Pls
5023 1523 Pls
6749 1566 Pls
1570 1078 Pls
3297 1057 Pls
5023 1216 Pls
6749 1190 Pls
1570 1050 Pls
3297 1063 Pls
5023 1133 Pls
6749 1090 Pls
1570 981 Pls
3297 998 Pls
5023 1042 Pls
6749 1075 Pls
1570 954 Pls
3297 955 Pls
5023 967 Pls
6749 962 Pls
1570 919 Pls
3297 890 Pls
5023 917 Pls
6749 919 Pls
1570 1339 Pls
3297 1344 Pls
5023 1379 Pls
6749 1460 Pls
1570 2046 Pls
3297 1880 Pls
5023 2124 Pls
6749 1914 Pls
1570 2489 Pls
3297 2480 Pls
5023 2633 Pls
6749 2594 Pls
1570 3326 Pls
3297 3283 Pls
5023 3312 Pls
6749 3424 Pls
1570 3881 Pls
3297 4134 Pls
5023 3544 Pls
6749 4084 Pls
1570 801 Pls
3297 801 Pls
5023 801 Pls
6749 802 Pls
1570 801 Pls
3297 801 Pls
5023 801 Pls
6749 802 Pls
1570 801 Pls
3297 801 Pls
5023 801 Pls
6749 801 Pls
1570 801 Pls
3297 801 Pls
5023 801 Pls
6749 801 Pls
1570 800 Pls
3297 800 Pls
5023 800 Pls
6749 801 Pls
1570 801 Pls
3297 801 Pls
5023 801 Pls
6749 801 Pls
1570 801 Pls
3297 801 Pls
5023 801 Pls
6749 801 Pls
1570 801 Pls
3297 802 Pls
5023 802 Pls
6749 802 Pls
1570 802 Pls
3297 802 Pls
5023 802 Pls
6749 802 Pls
1570 802 Pls
3297 803 Pls
5023 803 Pls
6749 803 Pls
1570 814 Pls
3297 816 Pls
5023 815 Pls
6749 820 Pls
1570 813 Pls
3297 809 Pls
5023 814 Pls
6749 814 Pls
1570 809 Pls
3297 809 Pls
5023 809 Pls
6749 811 Pls
1570 807 Pls
3297 808 Pls
5023 809 Pls
6749 806 Pls
1570 805 Pls
3297 805 Pls
5023 805 Pls
6749 805 Pls
1570 807 Pls
3297 810 Pls
5023 810 Pls
6749 811 Pls
1570 816 Pls
3297 816 Pls
5023 816 Pls
6749 820 Pls
1570 824 Pls
3297 826 Pls
5023 827 Pls
6749 826 Pls
1570 831 Pls
3297 833 Pls
5023 831 Pls
6749 837 Pls
1570 841 Pls
3297 840 Pls
5023 843 Pls
6749 847 Pls
1570 842 Pls
3297 860 Pls
5023 842 Pls
6749 864 Pls
1570 844 Pls
3297 843 Pls
5023 846 Pls
6749 854 Pls
1570 836 Pls
3297 831 Pls
5023 833 Pls
6749 841 Pls
1570 818 Pls
3297 820 Pls
5023 822 Pls
6749 827 Pls
1570 816 Pls
3297 818 Pls
5023 817 Pls
6749 822 Pls
1570 843 Pls
3297 852 Pls
5023 845 Pls
6749 849 Pls
1570 874 Pls
3297 875 Pls
5023 883 Pls
6749 888 Pls
1570 905 Pls
3297 914 Pls
5023 909 Pls
6749 925 Pls
1570 957 Pls
3297 951 Pls
5023 957 Pls
6749 981 Pls
1570 989 Pls
3297 1005 Pls
5023 1005 Pls
6749 1022 Pls
1570 932 Pls
3297 959 Pls
5023 965 Pls
6749 987 Pls
1570 957 Pls
3297 917 Pls
5023 939 Pls
6749 936 Pls
1570 875 Pls
3297 887 Pls
5023 914 Pls
6749 905 Pls
1570 869 Pls
3297 883 Pls
5023 863 Pls
6749 873 Pls
1570 841 Pls
3297 845 Pls
5023 850 Pls
6749 859 Pls
1570 933 Pls
3297 961 Pls
5023 944 Pls
6749 955 Pls
1570 1078 Pls
3297 1085 Pls
5023 1086 Pls
6749 1113 Pls
1570 1243 Pls
3297 1266 Pls
5023 1303 Pls
6749 1246 Pls
1570 1336 Pls
3297 1387 Pls
5023 1466 Pls
6749 1351 Pls
1570 1499 Pls
3297 1661 Pls
5023 1591 Pls
6749 1653 Pls
1570 1111 Pls
3297 1054 Pls
5023 1057 Pls
6749 1160 Pls
1570 1027 Pls
3297 1066 Pls
5023 1139 Pls
6749 1152 Pls
1570 996 Pls
3297 1018 Pls
5023 1023 Pls
6749 1059 Pls
1570 950 Pls
3297 992 Pls
5023 1008 Pls
6749 995 Pls
1570 875 Pls
3297 921 Pls
5023 911 Pls
6749 936 Pls
1570 1326 Pls
3297 1320 Pls
5023 1400 Pls
6749 1434 Pls
1570 1889 Pls
3297 1931 Pls
5023 2049 Pls
6749 2008 Pls
1570 2427 Pls
3297 2336 Pls
5023 2485 Pls
6749 2353 Pls
1570 3027 Pls
3297 3241 Pls
5023 3583 Pls
6749 3038 Pls
1570 3170 Pls
3297 4056 Pls
5023 4245 Pls
6749 3986 Pls
1570 802 Pls
3297 801 Pls
5023 802 Pls
6749 802 Pls
1570 801 Pls
3297 801 Pls
5023 802 Pls
6749 802 Pls
1570 801 Pls
3297 801 Pls
5023 801 Pls
6749 801 Pls
1570 800 Pls
3297 801 Pls
5023 801 Pls
6749 801 Pls
1570 800 Pls
3297 800 Pls
5023 801 Pls
6749 800 Pls
1570 801 Pls
3297 801 Pls
5023 801 Pls
6749 801 Pls
1570 801 Pls
3297 801 Pls
5023 801 Pls
6749 801 Pls
1570 801 Pls
3297 802 Pls
5023 802 Pls
6749 802 Pls
1570 802 Pls
3297 802 Pls
5023 802 Pls
6749 802 Pls
1570 802 Pls
3297 803 Pls
5023 803 Pls
6749 803 Pls
1570 813 Pls
3297 815 Pls
5023 815 Pls
6749 816 Pls
1570 809 Pls
3297 812 Pls
5023 814 Pls
6749 814 Pls
1570 807 Pls
3297 809 Pls
5023 808 Pls
6749 813 Pls
1570 806 Pls
3297 806 Pls
5023 806 Pls
6749 810 Pls
1570 804 Pls
3297 804 Pls
5023 805 Pls
6749 804 Pls
1570 808 Pls
3297 810 Pls
5023 812 Pls
6749 810 Pls
1570 815 Pls
3297 816 Pls
5023 819 Pls
6749 817 Pls
1570 824 Pls
3297 825 Pls
5023 825 Pls
6749 827 Pls
1570 831 Pls
3297 833 Pls
5023 834 Pls
6749 835 Pls
1570 834 Pls
3297 839 Pls
5023 843 Pls
6749 843 Pls
1570 850 Pls
3297 851 Pls
5023 868 Pls
6749 884 Pls
1570 830 Pls
3297 843 Pls
5023 848 Pls
6749 848 Pls
1570 820 Pls
3297 838 Pls
5023 840 Pls
6749 837 Pls
1570 825 Pls
3297 827 Pls
5023 823 Pls
6749 829 Pls
1570 819 Pls
3297 818 Pls
5023 822 Pls
6749 816 Pls
1570 837 Pls
3297 846 Pls
5023 847 Pls
6749 850 Pls
1570 876 Pls
3297 880 Pls
5023 886 Pls
6749 873 Pls
1570 907 Pls
3297 921 Pls
5023 915 Pls
6749 924 Pls
1570 947 Pls
3297 964 Pls
5023 974 Pls
6749 959 Pls
1570 1000 Pls
3297 1008 Pls
5023 1006 Pls
6749 1025 Pls
1570 937 Pls
3297 965 Pls
5023 1010 Pls
6749 982 Pls
1570 936 Pls
3297 920 Pls
5023 933 Pls
6749 944 Pls
1570 883 Pls
3297 894 Pls
5023 887 Pls
6749 909 Pls
1570 870 Pls
3297 857 Pls
5023 857 Pls
6749 884 Pls
1570 848 Pls
3297 846 Pls
5023 848 Pls
6749 848 Pls
1570 944 Pls
3297 950 Pls
5023 962 Pls
6749 952 Pls
1570 1081 Pls
3297 1105 Pls
5023 1094 Pls
6749 1105 Pls
1570 1225 Pls
3297 1242 Pls
5023 1211 Pls
6749 1268 Pls
1570 1399 Pls
3297 1459 Pls
5023 1398 Pls
6749 1390 Pls
1570 1560 Pls
3297 1534 Pls
5023 1583 Pls
6749 1586 Pls
1570 1079 Pls
3297 1222 Pls
5023 1156 Pls
6749 1198 Pls
1570 1018 Pls
3297 1059 Pls
5023 1181 Pls
6749 1144 Pls
1570 977 Pls
3297 1010 Pls
5023 1055 Pls
6749 1101 Pls
1570 935 Pls
3297 985 Pls
5023 989 Pls
6749 963 Pls
1570 895 Pls
3297 912 Pls
5023 954 Pls
6749 940 Pls
1570 1428 Pls
3297 1433 Pls
5023 1443 Pls
6749 1375 Pls
1570 1913 Pls
3297 1842 Pls
5023 1955 Pls
6749 1826 Pls
1570 2246 Pls
3297 2256 Pls
5023 2424 Pls
6749 2625 Pls
1570 3303 Pls
3297 3362 Pls
5023 3456 Pls
6749 3231 Pls
1570 4100 Pls
3297 3822 Pls
5023 3801 Pls
6749 4215 Pls
1570 802 Pls
3297 801 Pls
5023 802 Pls
6749 802 Pls
1570 801 Pls
3297 801 Pls
5023 802 Pls
6749 802 Pls
1570 801 Pls
3297 801 Pls
5023 801 Pls
6749 801 Pls
1570 801 Pls
3297 801 Pls
5023 801 Pls
6749 801 Pls
1570 800 Pls
3297 800 Pls
5023 801 Pls
6749 800 Pls
1570 801 Pls
3297 801 Pls
5023 801 Pls
6749 801 Pls
1570 801 Pls
3297 801 Pls
5023 801 Pls
6749 801 Pls
1570 801 Pls
3297 802 Pls
5023 802 Pls
6749 802 Pls
1570 802 Pls
3297 802 Pls
5023 802 Pls
6749 802 Pls
1570 802 Pls
3297 802 Pls
5023 803 Pls
6749 803 Pls
1570 811 Pls
3297 813 Pls
5023 818 Pls
6749 816 Pls
1570 810 Pls
3297 811 Pls
5023 813 Pls
6749 816 Pls
1570 809 Pls
3297 809 Pls
5023 809 Pls
6749 810 Pls
1570 806 Pls
3297 807 Pls
5023 806 Pls
6749 807 Pls
1570 804 Pls
3297 805 Pls
5023 804 Pls
6749 805 Pls
1570 809 Pls
3297 809 Pls
5023 810 Pls
6749 811 Pls
1570 817 Pls
3297 819 Pls
5023 817 Pls
6749 820 Pls
1570 826 Pls
3297 825 Pls
5023 827 Pls
6749 829 Pls
1570 825 Pls
3297 834 Pls
5023 834 Pls
6749 837 Pls
1570 839 Pls
3297 844 Pls
5023 840 Pls
6749 844 Pls
1570 859 Pls
3297 848 Pls
5023 847 Pls
6749 864 Pls
1570 840 Pls
3297 842 Pls
5023 840 Pls
6749 851 Pls
1570 831 Pls
3297 826 Pls
5023 828 Pls
6749 841 Pls
1570 824 Pls
3297 824 Pls
5023 829 Pls
6749 823 Pls
1570 813 Pls
3297 820 Pls
5023 822 Pls
6749 819 Pls
1570 840 Pls
3297 838 Pls
5023 846 Pls
6749 849 Pls
1570 873 Pls
3297 880 Pls
5023 886 Pls
6749 886 Pls
1570 914 Pls
3297 907 Pls
5023 915 Pls
6749 920 Pls
1570 949 Pls
3297 971 Pls
5023 962 Pls
6749 970 Pls
1570 985 Pls
3297 1001 Pls
5023 1024 Pls
6749 1012 Pls
1570 930 Pls
3297 952 Pls
5023 1008 Pls
6749 982 Pls
1570 916 Pls
3297 940 Pls
5023 936 Pls
6749 944 Pls
1570 896 Pls
3297 885 Pls
5023 918 Pls
6749 923 Pls
1570 855 Pls
3297 863 Pls
5023 869 Pls
6749 874 Pls
1570 839 Pls
3297 851 Pls
5023 882 Pls
6749 852 Pls
1570 946 Pls
3297 941 Pls
5023 954 Pls
6749 945 Pls
1570 1083 Pls
3297 1077 Pls
5023 1065 Pls
6749 1111 Pls
1570 1207 Pls
3297 1231 Pls
5023 1225 Pls
6749 1255 Pls
1570 1384 Pls
3297 1434 Pls
5023 1385 Pls
6749 1413 Pls
1570 1534 Pls
3297 1527 Pls
5023 1593 Pls
6749 1546 Pls
1570 1138 Pls
3297 1072 Pls
5023 1161 Pls
6749 1217 Pls
1570 1050 Pls
3297 1081 Pls
5023 1110 Pls
6749 1190 Pls
1570 975 Pls
3297 1073 Pls
5023 1066 Pls
6749 1066 Pls
1570 968 Pls
3297 966 Pls
5023 957 Pls
6749 1010 Pls
1570 883 Pls
3297 898 Pls
5023 935 Pls
6749 978 Pls
1570 1399 Pls
3297 1425 Pls
5023 1363 Pls
6749 1410 Pls
1570 1908 Pls
3297 1837 Pls
5023 2043 Pls
6749 1943 Pls
1570 2533 Pls
3297 2659 Pls
5023 2722 Pls
6749 2779 Pls
1570 3138 Pls
3297 3297 Pls
5023 3208 Pls
6749 3479 Pls
1570 3980 Pls
3297 4080 Pls
5023 3822 Pls
6749 3736 Pls
1570 803 Pls
3297 801 Pls
5023 802 Pls
6749 802 Pls
1570 801 Pls
3297 801 Pls
5023 801 Pls
6749 801 Pls
1570 801 Pls
3297 801 Pls
5023 801 Pls
6749 801 Pls
1570 800 Pls
3297 801 Pls
5023 801 Pls
6749 801 Pls
1570 800 Pls
3297 800 Pls
5023 800 Pls
6749 801 Pls
1570 801 Pls
3297 801 Pls
5023 801 Pls
6749 801 Pls
1570 801 Pls
3297 801 Pls
5023 801 Pls
6749 801 Pls
1570 801 Pls
3297 802 Pls
5023 802 Pls
6749 802 Pls
1570 802 Pls
3297 802 Pls
5023 802 Pls
6749 802 Pls
1570 802 Pls
3297 803 Pls
5023 803 Pls
6749 803 Pls
1570 812 Pls
3297 814 Pls
5023 814 Pls
6749 814 Pls
1570 809 Pls
3297 810 Pls
5023 811 Pls
6749 813 Pls
1570 810 Pls
3297 809 Pls
5023 809 Pls
6749 809 Pls
1570 806 Pls
3297 807 Pls
5023 808 Pls
6749 807 Pls
1570 804 Pls
3297 804 Pls
5023 805 Pls
6749 805 Pls
1570 810 Pls
3297 810 Pls
5023 811 Pls
6749 812 Pls
1570 815 Pls
3297 817 Pls
5023 818 Pls
6749 820 Pls
1570 824 Pls
3297 824 Pls
5023 825 Pls
6749 827 Pls
1570 831 Pls
3297 834 Pls
5023 835 Pls
6749 834 Pls
1570 834 Pls
3297 842 Pls
5023 843 Pls
6749 844 Pls
1570 840 Pls
3297 847 Pls
5023 860 Pls
6749 866 Pls
1570 828 Pls
3297 846 Pls
5023 856 Pls
6749 847 Pls
1570 822 Pls
3297 834 Pls
5023 822 Pls
6749 844 Pls
1570 820 Pls
3297 828 Pls
5023 824 Pls
6749 827 Pls
1570 817 Pls
3297 819 Pls
5023 815 Pls
6749 822 Pls
1570 841 Pls
3297 850 Pls
5023 848 Pls
6749 854 Pls
1570 868 Pls
3297 878 Pls
5023 885 Pls
6749 890 Pls
1570 903 Pls
3297 924 Pls
5023 914 Pls
6749 931 Pls
1570 938 Pls
3297 952 Pls
5023 943 Pls
6749 954 Pls
1570 991 Pls
3297 1003 Pls
5023 1002 Pls
6749 1013 Pls
1570 958 Pls
3297 984 Pls
5023 1003 Pls
6749 1008 Pls
1570 923 Pls
3297 944 Pls
5023 927 Pls
6749 956 Pls
1570 879 Pls
3297 904 Pls
5023 899 Pls
6749 903 Pls
1570 861 Pls
3297 850 Pls
5023 865 Pls
6749 899 Pls
1570 854 Pls
3297 844 Pls
5023 850 Pls
6749 841 Pls
1570 962 Pls
3297 949 Pls
5023 968 Pls
6749 953 Pls
1570 1082 Pls
3297 1061 Pls
5023 1068 Pls
6749 1123 Pls
1570 1206 Pls
3297 1261 Pls
5023 1243 Pls
6749 1260 Pls
1570 1418 Pls
3297 1369 Pls
5023 1442 Pls
6749 1382 Pls
1570 1585 Pls
3297 1569 Pls
5023 1554 Pls
6749 1565 Pls
1570 1089 Pls
3297 1122 Pls
5023 1215 Pls
6749 1117 Pls
1570 1076 Pls
3297 1122 Pls
5023 1091 Pls
6749 1073 Pls
1570 1041 Pls
3297 1003 Pls
5023 1057 Pls
6749 1110 Pls
1570 941 Pls
3297 983 Pls
5023 1012 Pls
6749 1012 Pls
1570 918 Pls
3297 916 Pls
5023 934 Pls
6749 989 Pls
1570 1368 Pls
3297 1369 Pls
5023 1422 Pls
6749 1413 Pls
1570 2028 Pls
3297 1965 Pls
5023 1800 Pls
6749 1806 Pls
1570 2465 Pls
3297 2664 Pls
5023 2664 Pls
6749 2798 Pls
1570 3290 Pls
3297 3295 Pls
5023 3695 Pls
6749 3294 Pls
1570 3823 Pls
3297 3776 Pls
5023 3602 Pls
6749 4091 Pls
1570 803 Pls
3297 801 Pls
5023 802 Pls
6749 802 Pls
1570 801 Pls
3297 801 Pls
5023 801 Pls
6749 802 Pls
1570 801 Pls
3297 801 Pls
5023 801 Pls
6749 801 Pls
1570 801 Pls
3297 800 Pls
5023 801 Pls
6749 801 Pls
1570 800 Pls
3297 800 Pls
5023 801 Pls
6749 801 Pls
1570 801 Pls
3297 801 Pls
5023 801 Pls
6749 801 Pls
1570 801 Pls
3297 801 Pls
5023 801 Pls
6749 801 Pls
1570 801 Pls
3297 802 Pls
5023 802 Pls
6749 802 Pls
1570 802 Pls
3297 802 Pls
5023 802 Pls
6749 803 Pls
1570 802 Pls
3297 803 Pls
5023 803 Pls
6749 803 Pls
1570 812 Pls
3297 814 Pls
5023 816 Pls
6749 821 Pls
1570 809 Pls
3297 809 Pls
5023 811 Pls
6749 814 Pls
1570 809 Pls
3297 807 Pls
5023 808 Pls
6749 810 Pls
1570 808 Pls
3297 807 Pls
5023 808 Pls
6749 807 Pls
1570 804 Pls
3297 804 Pls
5023 805 Pls
6749 805 Pls
1570 810 Pls
3297 809 Pls
5023 812 Pls
6749 812 Pls
1570 818 Pls
3297 815 Pls
5023 817 Pls
6749 817 Pls
1570 822 Pls
3297 822 Pls
5023 825 Pls
6749 826 Pls
1570 828 Pls
3297 829 Pls
5023 832 Pls
6749 833 Pls
1570 841 Pls
3297 843 Pls
5023 843 Pls
6749 842 Pls
1570 845 Pls
3297 848 Pls
5023 862 Pls
6749 866 Pls
1570 838 Pls
3297 836 Pls
5023 845 Pls
6749 846 Pls
1570 823 Pls
3297 839 Pls
5023 831 Pls
6749 830 Pls
1570 829 Pls
3297 824 Pls
5023 821 Pls
6749 825 Pls
1570 815 Pls
3297 817 Pls
5023 819 Pls
6749 813 Pls
1570 835 Pls
3297 841 Pls
5023 848 Pls
6749 844 Pls
1570 862 Pls
3297 879 Pls
5023 881 Pls
6749 878 Pls
1570 921 Pls
3297 915 Pls
5023 919 Pls
6749 922 Pls
1570 952 Pls
3297 971 Pls
5023 949 Pls
6749 974 Pls
1570 990 Pls
3297 1016 Pls
5023 1002 Pls
6749 1017 Pls
1570 946 Pls
3297 928 Pls
5023 1017 Pls
6749 1017 Pls
1570 924 Pls
3297 947 Pls
5023 945 Pls
6749 967 Pls
1570 883 Pls
3297 886 Pls
5023 897 Pls
6749 913 Pls
1570 871 Pls
3297 860 Pls
5023 860 Pls
6749 871 Pls
1570 843 Pls
3297 847 Pls
5023 850 Pls
6749 850 Pls
1570 932 Pls
3297 971 Pls
5023 964 Pls
6749 962 Pls
1570 1104 Pls
3297 1060 Pls
5023 1078 Pls
6749 1063 Pls
1570 1251 Pls
3297 1252 Pls
5023 1216 Pls
6749 1279 Pls
1570 1378 Pls
3297 1356 Pls
5023 1420 Pls
6749 1468 Pls
1570 1556 Pls
3297 1544 Pls
5023 1509 Pls
6749 1618 Pls
1570 1053 Pls
3297 1111 Pls
5023 1157 Pls
6749 1194 Pls
1570 1060 Pls
3297 1129 Pls
5023 1070 Pls
6749 1099 Pls
1570 1060 Pls
3297 1011 Pls
5023 1032 Pls
6749 1048 Pls
1570 949 Pls
3297 987 Pls
5023 1027 Pls
6749 991 Pls
1570 902 Pls
3297 944 Pls
5023 954 Pls
6749 953 Pls
1570 1363 Pls
3297 1354 Pls
5023 1371 Pls
6749 1444 Pls
1570 1898 Pls
3297 1929 Pls
5023 1965 Pls
6749 2075 Pls
1570 2636 Pls
3297 2530 Pls
5023 2675 Pls
6749 2835 Pls
1570 2950 Pls
3297 3109 Pls
5023 3343 Pls
6749 3172 Pls
1570 3845 Pls
3297 3960 Pls
5023 3951 Pls
6749 4262 Pls
1570 803 Pls
3297 802 Pls
5023 802 Pls
6749 802 Pls
1570 801 Pls
3297 801 Pls
5023 801 Pls
6749 801 Pls
1570 801 Pls
3297 801 Pls
5023 801 Pls
6749 801 Pls
1570 800 Pls
3297 801 Pls
5023 801 Pls
6749 801 Pls
1570 800 Pls
3297 801 Pls
5023 801 Pls
6749 801 Pls
1570 801 Pls
3297 801 Pls
5023 801 Pls
6749 801 Pls
1570 801 Pls
3297 801 Pls
5023 801 Pls
6749 801 Pls
1570 801 Pls
3297 802 Pls
5023 802 Pls
6749 802 Pls
1570 802 Pls
3297 802 Pls
5023 802 Pls
6749 803 Pls
1570 802 Pls
3297 802 Pls
5023 803 Pls
6749 803 Pls
1570 812 Pls
3297 811 Pls
5023 818 Pls
6749 815 Pls
1570 810 Pls
3297 812 Pls
5023 813 Pls
6749 812 Pls
1570 808 Pls
3297 809 Pls
5023 811 Pls
6749 811 Pls
1570 808 Pls
3297 806 Pls
5023 807 Pls
6749 809 Pls
1570 805 Pls
3297 805 Pls
5023 806 Pls
6749 805 Pls
1570 808 Pls
3297 809 Pls
5023 810 Pls
6749 812 Pls
1570 815 Pls
3297 817 Pls
5023 817 Pls
6749 818 Pls
1570 823 Pls
3297 826 Pls
5023 827 Pls
6749 828 Pls
1570 830 Pls
3297 834 Pls
5023 832 Pls
6749 836 Pls
1570 840 Pls
3297 839 Pls
5023 839 Pls
6749 845 Pls
1570 838 Pls
3297 846 Pls
5023 854 Pls
6749 868 Pls
1570 852 Pls
3297 831 Pls
5023 841 Pls
6749 850 Pls
1570 827 Pls
3297 828 Pls
5023 833 Pls
6749 836 Pls
1570 823 Pls
3297 830 Pls
5023 820 Pls
6749 827 Pls
1570 818 Pls
3297 818 Pls
5023 820 Pls
6749 821 Pls
1570 844 Pls
3297 846 Pls
5023 848 Pls
6749 851 Pls
1570 875 Pls
3297 874 Pls
5023 894 Pls
6749 893 Pls
1570 922 Pls
3297 927 Pls
5023 921 Pls
6749 930 Pls
1570 943 Pls
3297 962 Pls
5023 965 Pls
6749 956 Pls
1570 990 Pls
3297 991 Pls
5023 1022 Pls
6749 1027 Pls
1570 920 Pls
3297 982 Pls
5023 977 Pls
6749 968 Pls
1570 900 Pls
3297 902 Pls
5023 937 Pls
6749 922 Pls
1570 870 Pls
3297 897 Pls
5023 922 Pls
6749 927 Pls
1570 873 Pls
3297 871 Pls
5023 869 Pls
6749 875 Pls
1570 833 Pls
3297 842 Pls
5023 850 Pls
6749 848 Pls
1570 956 Pls
3297 963 Pls
5023 970 Pls
6749 949 Pls
1570 1081 Pls
3297 1117 Pls
5023 1096 Pls
6749 1095 Pls
1570 1226 Pls
3297 1207 Pls
5023 1249 Pls
6749 1261 Pls
1570 1309 Pls
3297 1361 Pls
5023 1389 Pls
6749 1406 Pls
1570 1510 Pls
3297 1520 Pls
5023 1667 Pls
6749 1606 Pls
1570 1117 Pls
3297 1080 Pls
5023 1238 Pls
6749 1209 Pls
1570 1117 Pls
3297 1092 Pls
5023 1189 Pls
6749 1156 Pls
1570 1043 Pls
3297 1010 Pls
5023 1085 Pls
6749 1031 Pls
1570 973 Pls
3297 983 Pls
5023 1006 Pls
6749 1049 Pls
1570 916 Pls
3297 934 Pls
5023 909 Pls
6749 929 Pls
1570 1343 Pls
3297 1454 Pls
5023 1374 Pls
6749 1463 Pls
1570 2029 Pls
3297 1955 Pls
5023 1904 Pls
6749 1968 Pls
1570 2660 Pls
3297 2554 Pls
5023 2762 Pls
6749 2474 Pls
1570 3112 Pls
3297 3273 Pls
5023 3448 Pls
6749 3337 Pls
1570 3798 Pls
3297 4149 Pls
5023 4151 Pls
6749 4079 Pls
1570 802 Pls
3297 802 Pls
5023 801 Pls
6749 802 Pls
1570 801 Pls
3297 801 Pls
5023 801 Pls
6749 802 Pls
1570 801 Pls
3297 801 Pls
5023 801 Pls
6749 801 Pls
1570 801 Pls
3297 801 Pls
5023 801 Pls
6749 801 Pls
1570 800 Pls
3297 800 Pls
5023 800 Pls
6749 801 Pls
1570 801 Pls
3297 801 Pls
5023 801 Pls
6749 801 Pls
1570 801 Pls
3297 801 Pls
5023 801 Pls
6749 801 Pls
1570 801 Pls
3297 802 Pls
5023 802 Pls
6749 802 Pls
1570 802 Pls
3297 802 Pls
5023 802 Pls
6749 802 Pls
1570 802 Pls
3297 802 Pls
5023 803 Pls
6749 803 Pls
1570 811 Pls
3297 813 Pls
5023 815 Pls
6749 818 Pls
1570 813 Pls
3297 814 Pls
5023 809 Pls
6749 812 Pls
1570 808 Pls
3297 808 Pls
5023 807 Pls
6749 811 Pls
1570 806 Pls
3297 806 Pls
5023 806 Pls
6749 808 Pls
1570 805 Pls
3297 805 Pls
5023 805 Pls
6749 805 Pls
1570 809 Pls
3297 808 Pls
5023 810 Pls
6749 813 Pls
1570 817 Pls
3297 816 Pls
5023 819 Pls
6749 818 Pls
1570 825 Pls
3297 824 Pls
5023 828 Pls
6749 827 Pls
1570 829 Pls
3297 830 Pls
5023 835 Pls
6749 837 Pls
1570 838 Pls
3297 844 Pls
5023 845 Pls
6749 844 Pls
1570 845 Pls
3297 853 Pls
5023 866 Pls
6749 861 Pls
1570 841 Pls
3297 847 Pls
5023 841 Pls
6749 838 Pls
1570 828 Pls
3297 829 Pls
5023 829 Pls
6749 829 Pls
1570 828 Pls
3297 821 Pls
5023 829 Pls
6749 831 Pls
1570 818 Pls
3297 816 Pls
5023 818 Pls
6749 817 Pls
1570 845 Pls
3297 847 Pls
5023 843 Pls
6749 850 Pls
1570 876 Pls
3297 883 Pls
5023 877 Pls
6749 886 Pls
1570 912 Pls
3297 919 Pls
5023 932 Pls
6749 921 Pls
1570 946 Pls
3297 951 Pls
5023 966 Pls
6749 960 Pls
1570 993 Pls
3297 991 Pls
5023 1004 Pls
6749 1026 Pls
1570 965 Pls
3297 946 Pls
5023 981 Pls
6749 983 Pls
1570 897 Pls
3297 928 Pls
5023 982 Pls
6749 946 Pls
1570 894 Pls
3297 888 Pls
5023 882 Pls
6749 905 Pls
1570 880 Pls
3297 852 Pls
5023 888 Pls
6749 888 Pls
1570 845 Pls
3297 850 Pls
5023 841 Pls
6749 860 Pls
1570 948 Pls
3297 955 Pls
5023 955 Pls
6749 973 Pls
1570 1089 Pls
3297 1090 Pls
5023 1065 Pls
6749 1102 Pls
1570 1167 Pls
3297 1196 Pls
5023 1210 Pls
6749 1212 Pls
1570 1418 Pls
3297 1369 Pls
5023 1394 Pls
6749 1405 Pls
1570 1461 Pls
3297 1540 Pls
5023 1538 Pls
6749 1570 Pls
1570 1076 Pls
3297 1282 Pls
5023 1155 Pls
6749 1241 Pls
1570 1028 Pls
3297 1137 Pls
5023 1111 Pls
6749 1168 Pls
1570 981 Pls
3297 1005 Pls
5023 1059 Pls
6749 1038 Pls
1570 970 Pls
3297 960 Pls
5023 967 Pls
6749 1025 Pls
1570 898 Pls
3297 890 Pls
5023 938 Pls
6749 952 Pls
1570 1319 Pls
3297 1438 Pls
5023 1339 Pls
6749 1480 Pls
1570 1983 Pls
3297 1949 Pls
5023 1855 Pls
6749 2015 Pls
1570 2540 Pls
3297 2629 Pls
5023 2522 Pls
6749 2737 Pls
1570 3178 Pls
3297 3099 Pls
5023 3193 Pls
6749 3129 Pls
1570 4188 Pls
3297 4208 Pls
5023 4067 Pls
6749 4202 Pls
1570 801 Pls
3297 801 Pls
5023 802 Pls
6749 802 Pls
1570 801 Pls
3297 801 Pls
5023 801 Pls
6749 801 Pls
1570 801 Pls
3297 801 Pls
5023 801 Pls
6749 801 Pls
1570 800 Pls
3297 801 Pls
5023 801 Pls
6749 801 Pls
1570 800 Pls
3297 800 Pls
5023 800 Pls
6749 800 Pls
1570 801 Pls
3297 801 Pls
5023 801 Pls
6749 801 Pls
1570 801 Pls
3297 801 Pls
5023 801 Pls
6749 802 Pls
1570 801 Pls
3297 802 Pls
5023 802 Pls
6749 802 Pls
1570 802 Pls
3297 802 Pls
5023 802 Pls
6749 802 Pls
1570 802 Pls
3297 802 Pls
5023 803 Pls
6749 803 Pls
1570 814 Pls
3297 814 Pls
5023 814 Pls
6749 820 Pls
1570 808 Pls
3297 811 Pls
5023 811 Pls
6749 812 Pls
1570 807 Pls
3297 807 Pls
5023 809 Pls
6749 810 Pls
1570 805 Pls
3297 805 Pls
5023 808 Pls
6749 808 Pls
1570 804 Pls
3297 804 Pls
5023 807 Pls
6749 805 Pls
1570 811 Pls
3297 809 Pls
5023 810 Pls
6749 810 Pls
1570 820 Pls
3297 818 Pls
5023 817 Pls
6749 820 Pls
1570 823 Pls
3297 822 Pls
5023 826 Pls
6749 826 Pls
1570 827 Pls
3297 831 Pls
5023 836 Pls
6749 835 Pls
1570 840 Pls
3297 834 Pls
5023 842 Pls
6749 840 Pls
1570 847 Pls
3297 843 Pls
5023 848 Pls
6749 870 Pls
1570 837 Pls
3297 847 Pls
5023 838 Pls
6749 842 Pls
1570 832 Pls
3297 827 Pls
5023 840 Pls
6749 840 Pls
1570 822 Pls
3297 826 Pls
5023 824 Pls
6749 824 Pls
1570 819 Pls
3297 817 Pls
5023 816 Pls
6749 819 Pls
1570 840 Pls
3297 847 Pls
5023 848 Pls
6749 845 Pls
1570 878 Pls
3297 887 Pls
5023 888 Pls
6749 887 Pls
1570 892 Pls
3297 909 Pls
5023 925 Pls
6749 923 Pls
1570 966 Pls
3297 952 Pls
5023 952 Pls
6749 962 Pls
1570 993 Pls
3297 1015 Pls
5023 992 Pls
6749 1030 Pls
1570 952 Pls
3297 988 Pls
5023 958 Pls
6749 1018 Pls
1570 943 Pls
3297 942 Pls
5023 959 Pls
6749 942 Pls
1570 886 Pls
3297 904 Pls
5023 907 Pls
6749 928 Pls
1570 876 Pls
3297 868 Pls
5023 878 Pls
6749 878 Pls
1570 843 Pls
3297 840 Pls
5023 844 Pls
6749 845 Pls
1570 960 Pls
3297 968 Pls
5023 969 Pls
6749 962 Pls
1570 1095 Pls
3297 1080 Pls
5023 1082 Pls
6749 1047 Pls
1570 1245 Pls
3297 1231 Pls
5023 1247 Pls
6749 1266 Pls
1570 1373 Pls
3297 1411 Pls
5023 1425 Pls
6749 1377 Pls
1570 1543 Pls
3297 1523 Pls
5023 1475 Pls
6749 1553 Pls
1570 1100 Pls
3297 1129 Pls
5023 1147 Pls
6749 1299 Pls
1570 1024 Pls
3297 1063 Pls
5023 1102 Pls
6749 1109 Pls
1570 969 Pls
3297 1070 Pls
5023 1046 Pls
6749 1030 Pls
1570 928 Pls
3297 1017 Pls
5023 971 Pls
6749 1012 Pls
1570 912 Pls
3297 914 Pls
5023 915 Pls
6749 918 Pls
1570 1377 Pls
3297 1412 Pls
5023 1379 Pls
6749 1358 Pls
1570 2038 Pls
3297 2040 Pls
5023 2115 Pls
6749 2240 Pls
1570 2471 Pls
3297 2608 Pls
5023 2417 Pls
6749 2557 Pls
1570 3179 Pls
3297 2987 Pls
5023 3321 Pls
6749 3424 Pls
1570 4228 Pls
3297 4357 Pls
5023 4126 Pls
6749 4353 Pls
1570 803 Pls
3297 801 Pls
5023 801 Pls
6749 802 Pls
1570 801 Pls
3297 801 Pls
5023 801 Pls
6749 802 Pls
1570 801 Pls
3297 801 Pls
5023 801 Pls
6749 801 Pls
1570 800 Pls
3297 801 Pls
5023 801 Pls
6749 801 Pls
1570 801 Pls
3297 800 Pls
5023 800 Pls
6749 800 Pls
1570 800 Pls
3297 801 Pls
5023 801 Pls
6749 801 Pls
1570 801 Pls
3297 801 Pls
5023 801 Pls
6749 801 Pls
1570 801 Pls
3297 802 Pls
5023 802 Pls
6749 802 Pls
1570 802 Pls
3297 802 Pls
5023 802 Pls
6749 803 Pls
1570 802 Pls
3297 803 Pls
5023 803 Pls
6749 803 Pls
1570 811 Pls
3297 816 Pls
5023 814 Pls
6749 815 Pls
1570 809 Pls
3297 811 Pls
5023 810 Pls
6749 813 Pls
1570 806 Pls
3297 809 Pls
5023 808 Pls
6749 809 Pls
1570 805 Pls
3297 808 Pls
5023 808 Pls
6749 808 Pls
1570 804 Pls
3297 804 Pls
5023 807 Pls
6749 805 Pls
1570 810 Pls
3297 809 Pls
5023 809 Pls
6749 810 Pls
1570 818 Pls
3297 816 Pls
5023 818 Pls
6749 818 Pls
1570 823 Pls
3297 825 Pls
5023 825 Pls
6749 826 Pls
1570 835 Pls
3297 831 Pls
5023 833 Pls
6749 837 Pls
1570 837 Pls
3297 842 Pls
5023 842 Pls
6749 846 Pls
1570 846 Pls
3297 851 Pls
5023 853 Pls
6749 867 Pls
1570 837 Pls
3297 849 Pls
5023 849 Pls
6749 847 Pls
1570 833 Pls
3297 837 Pls
5023 828 Pls
6749 832 Pls
1570 822 Pls
3297 821 Pls
5023 824 Pls
6749 826 Pls
1570 812 Pls
3297 819 Pls
5023 815 Pls
6749 815 Pls
1570 843 Pls
3297 848 Pls
5023 843 Pls
6749 849 Pls
1570 881 Pls
3297 884 Pls
5023 884 Pls
6749 889 Pls
1570 915 Pls
3297 916 Pls
5023 917 Pls
6749 929 Pls
1570 967 Pls
3297 948 Pls
5023 950 Pls
6749 966 Pls
1570 999 Pls
3297 984 Pls
5023 977 Pls
6749 1031 Pls
1570 924 Pls
3297 975 Pls
5023 949 Pls
6749 993 Pls
1570 913 Pls
3297 888 Pls
5023 950 Pls
6749 944 Pls
1570 865 Pls
3297 913 Pls
5023 913 Pls
6749 933 Pls
1570 857 Pls
3297 863 Pls
5023 877 Pls
6749 864 Pls
1570 842 Pls
3297 842 Pls
5023 844 Pls
6749 840 Pls
1570 949 Pls
3297 953 Pls
5023 960 Pls
6749 955 Pls
1570 1081 Pls
3297 1080 Pls
5023 1111 Pls
6749 1119 Pls
1570 1214 Pls
3297 1163 Pls
5023 1280 Pls
6749 1250 Pls
1570 1339 Pls
3297 1347 Pls
5023 1396 Pls
6749 1418 Pls
1570 1511 Pls
3297 1516 Pls
5023 1540 Pls
6749 1625 Pls
1570 1139 Pls
3297 1150 Pls
5023 1204 Pls
6749 1196 Pls
1570 1116 Pls
3297 1124 Pls
5023 1197 Pls
6749 1122 Pls
1570 1020 Pls
3297 1083 Pls
5023 1060 Pls
6749 1051 Pls
1570 998 Pls
3297 990 Pls
5023 998 Pls
6749 1022 Pls
1570 893 Pls
3297 936 Pls
5023 906 Pls
6749 885 Pls
1570 1365 Pls
3297 1346 Pls
5023 1327 Pls
6749 1366 Pls
1570 1926 Pls
3297 1922 Pls
5023 1942 Pls
6749 1932 Pls
1570 2729 Pls
3297 2604 Pls
5023 2630 Pls
6749 2622 Pls
1570 3598 Pls
3297 3076 Pls
5023 3287 Pls
6749 3296 Pls
1570 3872 Pls
3297 4152 Pls
5023 3814 Pls
6749 4029 Pls
1570 803 Pls
3297 802 Pls
5023 802 Pls
6749 802 Pls
1570 801 Pls
3297 801 Pls
5023 801 Pls
6749 801 Pls
1570 801 Pls
3297 801 Pls
5023 801 Pls
6749 802 Pls
1570 800 Pls
3297 800 Pls
5023 801 Pls
6749 801 Pls
1570 800 Pls
3297 800 Pls
5023 800 Pls
6749 800 Pls
1570 801 Pls
3297 801 Pls
5023 801 Pls
6749 801 Pls
1570 801 Pls
3297 801 Pls
5023 801 Pls
6749 801 Pls
1570 801 Pls
3297 801 Pls
5023 802 Pls
6749 802 Pls
1570 802 Pls
3297 802 Pls
5023 802 Pls
6749 802 Pls
1570 802 Pls
3297 802 Pls
5023 803 Pls
6749 803 Pls
1570 813 Pls
3297 814 Pls
5023 815 Pls
6749 817 Pls
1570 810 Pls
3297 811 Pls
5023 812 Pls
6749 811 Pls
1570 810 Pls
3297 808 Pls
5023 808 Pls
6749 814 Pls
1570 806 Pls
3297 806 Pls
5023 807 Pls
6749 807 Pls
1570 804 Pls
3297 805 Pls
5023 804 Pls
6749 804 Pls
1570 810 Pls
3297 811 Pls
5023 810 Pls
6749 810 Pls
1570 817 Pls
3297 817 Pls
5023 818 Pls
6749 818 Pls
1570 821 Pls
3297 827 Pls
5023 827 Pls
6749 827 Pls
1570 831 Pls
3297 830 Pls
5023 833 Pls
6749 835 Pls
1570 841 Pls
3297 841 Pls
5023 844 Pls
6749 843 Pls
1570 849 Pls
3297 855 Pls
5023 868 Pls
6749 858 Pls
1570 833 Pls
3297 835 Pls
5023 844 Pls
6749 837 Pls
1570 835 Pls
3297 829 Pls
5023 836 Pls
6749 848 Pls
1570 823 Pls
3297 819 Pls
5023 828 Pls
6749 825 Pls
1570 815 Pls
3297 819 Pls
5023 814 Pls
6749 817 Pls
1570 832 Pls
3297 844 Pls
5023 847 Pls
6749 852 Pls
1570 885 Pls
3297 877 Pls
5023 881 Pls
6749 886 Pls
1570 921 Pls
3297 913 Pls
5023 901 Pls
6749 916 Pls
1570 953 Pls
3297 939 Pls
5023 952 Pls
6749 960 Pls
1570 1021 Pls
3297 1010 Pls
5023 1013 Pls
6749 1030 Pls
1570 921 Pls
3297 934 Pls
5023 944 Pls
6749 968 Pls
1570 947 Pls
3297 929 Pls
5023 943 Pls
6749 992 Pls
1570 879 Pls
3297 881 Pls
5023 913 Pls
6749 907 Pls
1570 865 Pls
3297 875 Pls
5023 892 Pls
6749 886 Pls
1570 837 Pls
3297 847 Pls
5023 849 Pls
6749 842 Pls
1570 927 Pls
3297 959 Pls
5023 959 Pls
6749 965 Pls
1570 1041 Pls
3297 1063 Pls
5023 1098 Pls
6749 1089 Pls
1570 1181 Pls
3297 1237 Pls
5023 1272 Pls
6749 1274 Pls
1570 1330 Pls
3297 1382 Pls
5023 1412 Pls
6749 1452 Pls
1570 1521 Pls
3297 1562 Pls
5023 1604 Pls
6749 1632 Pls
1570 1129 Pls
3297 1155 Pls
5023 1250 Pls
6749 1205 Pls
1570 1102 Pls
3297 1133 Pls
5023 1221 Pls
6749 1117 Pls
1570 1041 Pls
3297 1037 Pls
5023 1118 Pls
6749 1083 Pls
1570 928 Pls
3297 981 Pls
5023 939 Pls
6749 1020 Pls
1570 926 Pls
3297 935 Pls
5023 947 Pls
6749 954 Pls
1570 1350 Pls
3297 1341 Pls
5023 1388 Pls
6749 1376 Pls
1570 1926 Pls
3297 1929 Pls
5023 2016 Pls
6749 2063 Pls
1570 2619 Pls
3297 2505 Pls
5023 2604 Pls
6749 2580 Pls
1570 3384 Pls
3297 3208 Pls
5023 3252 Pls
6749 3573 Pls
1570 3280 Pls
3297 4283 Pls
5023 3636 Pls
6749 3898 Pls
1570 801 Pls
3297 801 Pls
5023 802 Pls
6749 802 Pls
1570 801 Pls
3297 801 Pls
5023 801 Pls
6749 802 Pls
1570 801 Pls
3297 801 Pls
5023 801 Pls
6749 801 Pls
1570 801 Pls
3297 801 Pls
5023 801 Pls
6749 801 Pls
1570 800 Pls
3297 800 Pls
5023 801 Pls
6749 801 Pls
1570 801 Pls
3297 801 Pls
5023 801 Pls
6749 801 Pls
1570 801 Pls
3297 801 Pls
5023 801 Pls
6749 801 Pls
1570 801 Pls
3297 801 Pls
5023 802 Pls
6749 802 Pls
1570 802 Pls
3297 802 Pls
5023 802 Pls
6749 802 Pls
1570 802 Pls
3297 803 Pls
5023 803 Pls
6749 803 Pls
1570 814 Pls
3297 815 Pls
5023 813 Pls
6749 815 Pls
1570 812 Pls
3297 811 Pls
5023 812 Pls
6749 813 Pls
1570 808 Pls
3297 810 Pls
5023 809 Pls
6749 811 Pls
1570 806 Pls
3297 807 Pls
5023 809 Pls
6749 807 Pls
1570 805 Pls
3297 805 Pls
5023 805 Pls
6749 804 Pls
1570 810 Pls
3297 812 Pls
5023 811 Pls
6749 810 Pls
1570 815 Pls
3297 816 Pls
5023 820 Pls
6749 819 Pls
1570 826 Pls
3297 825 Pls
5023 824 Pls
6749 827 Pls
1570 830 Pls
3297 835 Pls
5023 831 Pls
6749 836 Pls
1570 837 Pls
3297 846 Pls
5023 840 Pls
6749 846 Pls
1570 851 Pls
3297 857 Pls
5023 857 Pls
6749 873 Pls
1570 839 Pls
3297 848 Pls
5023 848 Pls
6749 849 Pls
1570 832 Pls
3297 832 Pls
5023 826 Pls
6749 845 Pls
1570 824 Pls
3297 826 Pls
5023 822 Pls
6749 823 Pls
1570 819 Pls
3297 814 Pls
5023 820 Pls
6749 819 Pls
1570 837 Pls
3297 848 Pls
5023 846 Pls
6749 849 Pls
1570 876 Pls
3297 863 Pls
5023 887 Pls
6749 885 Pls
1570 894 Pls
3297 915 Pls
5023 916 Pls
6749 931 Pls
1570 970 Pls
3297 951 Pls
5023 971 Pls
6749 984 Pls
1570 1002 Pls
3297 992 Pls
5023 1009 Pls
6749 1004 Pls
1570 936 Pls
3297 974 Pls
5023 940 Pls
6749 995 Pls
1570 902 Pls
3297 928 Pls
5023 948 Pls
6749 979 Pls
1570 882 Pls
3297 913 Pls
5023 911 Pls
6749 930 Pls
1570 855 Pls
3297 866 Pls
5023 876 Pls
6749 882 Pls
1570 848 Pls
3297 843 Pls
5023 854 Pls
6749 862 Pls
1570 976 Pls
3297 960 Pls
5023 955 Pls
6749 968 Pls
1570 1031 Pls
3297 1086 Pls
5023 1070 Pls
6749 1081 Pls
1570 1188 Pls
3297 1185 Pls
5023 1258 Pls
6749 1229 Pls
1570 1369 Pls
3297 1361 Pls
5023 1390 Pls
6749 1430 Pls
1570 1572 Pls
3297 1518 Pls
5023 1535 Pls
6749 1605 Pls
1570 1122 Pls
3297 1103 Pls
5023 1188 Pls
6749 1224 Pls
1570 1048 Pls
3297 1113 Pls
5023 1186 Pls
6749 1154 Pls
1570 1020 Pls
3297 1057 Pls
5023 1084 Pls
6749 1024 Pls
1570 928 Pls
3297 978 Pls
5023 1069 Pls
6749 975 Pls
1570 919 Pls
3297 934 Pls
5023 915 Pls
6749 944 Pls
1570 1257 Pls
3297 1406 Pls
5023 1391 Pls
6749 1349 Pls
1570 1918 Pls
3297 2044 Pls
5023 1906 Pls
6749 1917 Pls
1570 2374 Pls
3297 2580 Pls
5023 2687 Pls
6749 2578 Pls
1570 3193 Pls
3297 3443 Pls
5023 3497 Pls
6749 3410 Pls
1570 4237 Pls
3297 3906 Pls
5023 3887 Pls
6749 3799 Pls
1570 803 Pls
3297 801 Pls
5023 802 Pls
6749 802 Pls
1570 801 Pls
3297 801 Pls
5023 801 Pls
6749 801 Pls
1570 801 Pls
3297 801 Pls
5023 801 Pls
6749 801 Pls
1570 800 Pls
3297 800 Pls
5023 801 Pls
6749 801 Pls
1570 800 Pls
3297 800 Pls
5023 801 Pls
6749 801 Pls
1570 800 Pls
3297 801 Pls
5023 801 Pls
6749 801 Pls
1570 801 Pls
3297 801 Pls
5023 801 Pls
6749 801 Pls
1570 801 Pls
3297 801 Pls
5023 802 Pls
6749 802 Pls
1570 802 Pls
3297 802 Pls
5023 802 Pls
6749 802 Pls
1570 802 Pls
3297 803 Pls
5023 803 Pls
6749 803 Pls
1570 812 Pls
3297 813 Pls
5023 817 Pls
6749 812 Pls
1570 810 Pls
3297 808 Pls
5023 813 Pls
6749 813 Pls
1570 807 Pls
3297 809 Pls
5023 810 Pls
6749 811 Pls
1570 805 Pls
3297 806 Pls
5023 808 Pls
6749 807 Pls
1570 803 Pls
3297 805 Pls
5023 804 Pls
6749 806 Pls
1570 810 Pls
3297 810 Pls
5023 811 Pls
6749 811 Pls
1570 815 Pls
3297 817 Pls
5023 818 Pls
6749 818 Pls
1570 826 Pls
3297 829 Pls
5023 826 Pls
6749 828 Pls
1570 831 Pls
3297 835 Pls
5023 834 Pls
6749 835 Pls
1570 841 Pls
3297 844 Pls
5023 842 Pls
6749 844 Pls
1570 849 Pls
3297 869 Pls
5023 856 Pls
6749 882 Pls
1570 836 Pls
3297 834 Pls
5023 849 Pls
6749 844 Pls
1570 837 Pls
3297 839 Pls
5023 847 Pls
6749 835 Pls
1570 827 Pls
3297 829 Pls
5023 827 Pls
6749 830 Pls
1570 815 Pls
3297 813 Pls
5023 817 Pls
6749 820 Pls
1570 848 Pls
3297 845 Pls
5023 846 Pls
6749 845 Pls
1570 876 Pls
3297 888 Pls
5023 885 Pls
6749 884 Pls
1570 921 Pls
3297 907 Pls
5023 906 Pls
6749 939 Pls
1570 937 Pls
3297 958 Pls
5023 957 Pls
6749 958 Pls
1570 998 Pls
3297 977 Pls
5023 1005 Pls
6749 1024 Pls
1570 944 Pls
3297 960 Pls
5023 958 Pls
6749 998 Pls
1570 948 Pls
3297 916 Pls
5023 909 Pls
6749 918 Pls
1570 888 Pls
3297 907 Pls
5023 897 Pls
6749 929 Pls
1570 870 Pls
3297 863 Pls
5023 873 Pls
6749 888 Pls
1570 840 Pls
3297 851 Pls
5023 852 Pls
6749 850 Pls
1570 952 Pls
3297 944 Pls
5023 937 Pls
6749 969 Pls
1570 1041 Pls
3297 1089 Pls
5023 1099 Pls
6749 1073 Pls
1570 1179 Pls
3297 1202 Pls
5023 1234 Pls
6749 1264 Pls
1570 1371 Pls
3297 1444 Pls
5023 1426 Pls
6749 1386 Pls
1570 1560 Pls
3297 1550 Pls
5023 1605 Pls
6749 1619 Pls
1570 1113 Pls
3297 1111 Pls
5023 1147 Pls
6749 1132 Pls
1570 1054 Pls
3297 1111 Pls
5023 1116 Pls
6749 1122 Pls
1570 1000 Pls
3297 1057 Pls
5023 1040 Pls
6749 1077 Pls
1570 945 Pls
3297 1026 Pls
5023 956 Pls
6749 989 Pls
1570 910 Pls
3297 908 Pls
5023 939 Pls
6749 935 Pls
1570 1307 Pls
3297 1372 Pls
5023 1481 Pls
6749 1261 Pls
1570 1877 Pls
3297 1831 Pls
5023 1884 Pls
6749 2111 Pls
1570 2534 Pls
3297 2635 Pls
5023 2780 Pls
6749 2740 Pls
1570 3131 Pls
3297 2944 Pls
5023 3078 Pls
6749 3531 Pls
1570 4009 Pls
3297 4100 Pls
5023 3802 Pls
6749 4026 Pls
1570 803 Pls
3297 802 Pls
5023 802 Pls
6749 802 Pls
1570 801 Pls
3297 801 Pls
5023 801 Pls
6749 802 Pls
1570 801 Pls
3297 801 Pls
5023 801 Pls
6749 801 Pls
1570 801 Pls
3297 801 Pls
5023 801 Pls
6749 801 Pls
1570 800 Pls
3297 801 Pls
5023 800 Pls
6749 800 Pls
1570 801 Pls
3297 801 Pls
5023 801 Pls
6749 801 Pls
1570 801 Pls
3297 801 Pls
5023 801 Pls
6749 801 Pls
1570 801 Pls
3297 801 Pls
5023 802 Pls
6749 802 Pls
1570 802 Pls
3297 802 Pls
5023 802 Pls
6749 803 Pls
1570 802 Pls
3297 802 Pls
5023 803 Pls
6749 803 Pls
1570 811 Pls
3297 812 Pls
5023 813 Pls
6749 819 Pls
1570 810 Pls
3297 810 Pls
5023 813 Pls
6749 812 Pls
1570 807 Pls
3297 809 Pls
5023 809 Pls
6749 809 Pls
1570 807 Pls
3297 807 Pls
5023 807 Pls
6749 808 Pls
1570 804 Pls
3297 805 Pls
5023 805 Pls
6749 805 Pls
1570 808 Pls
3297 809 Pls
5023 809 Pls
6749 811 Pls
1570 815 Pls
3297 819 Pls
5023 817 Pls
6749 818 Pls
1570 823 Pls
3297 824 Pls
5023 826 Pls
6749 827 Pls
1570 830 Pls
3297 834 Pls
5023 833 Pls
6749 835 Pls
1570 838 Pls
3297 840 Pls
5023 842 Pls
6749 848 Pls
1570 849 Pls
3297 847 Pls
5023 861 Pls
6749 886 Pls
1570 832 Pls
3297 840 Pls
5023 838 Pls
6749 842 Pls
1570 835 Pls
3297 842 Pls
5023 840 Pls
6749 835 Pls
1570 824 Pls
3297 826 Pls
5023 826 Pls
6749 829 Pls
1570 819 Pls
3297 820 Pls
5023 815 Pls
6749 822 Pls
1570 849 Pls
3297 841 Pls
5023 846 Pls
6749 844 Pls
1570 876 Pls
3297 882 Pls
5023 872 Pls
6749 878 Pls
1570 906 Pls
3297 911 Pls
5023 923 Pls
6749 923 Pls
1570 940 Pls
3297 953 Pls
5023 977 Pls
6749 962 Pls
1570 1004 Pls
3297 1001 Pls
5023 1002 Pls
6749 1020 Pls
1570 934 Pls
3297 957 Pls
5023 969 Pls
6749 981 Pls
1570 902 Pls
3297 917 Pls
5023 925 Pls
6749 977 Pls
1570 870 Pls
3297 873 Pls
5023 896 Pls
6749 887 Pls
1570 849 Pls
3297 863 Pls
5023 874 Pls
6749 881 Pls
1570 852 Pls
3297 851 Pls
5023 846 Pls
6749 852 Pls
1570 954 Pls
3297 965 Pls
5023 955 Pls
6749 970 Pls
1570 1103 Pls
3297 1041 Pls
5023 1048 Pls
6749 1084 Pls
1570 1157 Pls
3297 1237 Pls
5023 1289 Pls
6749 1211 Pls
1570 1318 Pls
3297 1394 Pls
5023 1429 Pls
6749 1402 Pls
1570 1527 Pls
3297 1565 Pls
5023 1429 Pls
6749 1626 Pls
1570 1115 Pls
3297 1252 Pls
5023 1164 Pls
6749 1198 Pls
1570 1032 Pls
3297 991 Pls
5023 1024 Pls
6749 1156 Pls
1570 1014 Pls
3297 996 Pls
5023 1035 Pls
6749 1024 Pls
1570 997 Pls
3297 969 Pls
5023 962 Pls
6749 980 Pls
1570 913 Pls
3297 894 Pls
5023 919 Pls
6749 896 Pls
1570 1384 Pls
3297 1412 Pls
5023 1336 Pls
6749 1349 Pls
1570 1871 Pls
3297 1914 Pls
5023 1816 Pls
6749 1898 Pls
1570 2244 Pls
3297 2424 Pls
5023 2587 Pls
6749 2575 Pls
1570 3045 Pls
3297 3360 Pls
5023 3492 Pls
6749 3353 Pls
1570 3870 Pls
3297 3818 Pls
5023 3925 Pls
6749 3879 Pls
% End plot #1
% Begin plot #2
1.000 UL
LT1
LCb setrgbcolor
5636 4551 M
[ [(Helvetica) 250.0 0.0 true true 0 (Average)]
] -83.3 MRshow
LT1
5786 4551 M
663 0 V
1570 1067 M
1727 10 V
1726 7 V
1726 10 V
% End plot #2
% Begin plot #3
stroke
LT2
LCb setrgbcolor
5636 4301 M
[ [(Helvetica) 250.0 0.0 true true 0 (Min)]
] -83.3 MRshow
LT2
5786 4301 M
663 0 V
1570 800 M
1727 0 V
1726 0 V
1726 0 V
% End plot #3
% Begin plot #4
stroke
LT3
LCb setrgbcolor
5636 4051 M
[ [(Helvetica) 250.0 0.0 true true 0 (Max)]
] -83.3 MRshow
LT3
5786 4051 M
663 0 V
1570 4237 M
1727 120 V
5023 4245 L
1726 108 V
% End plot #4
stroke
LTb
1225 4739 N
0 -3939 V
5524 0 V
0 3939 V
-5524 0 V
Z stroke
1.000 UP
1.000 UL
LTb
stroke
grestore
end
showpage
%%Trailer
%%DocumentFonts: Helvetica
