%!PS-Adobe-2.0 EPSF-2.0
%%Title: n_num_segments.f1.eps
%%Creator: gnuplot 4.4 patchlevel 3
%%CreationDate: Tue Jun  4 13:15:17 2013
%%DocumentFonts: (atend)
%%BoundingBox: 50 50 410 302
%%EndComments
%%BeginProlog
/gnudict 256 dict def
gnudict begin
%
% The following true/false flags may be edited by hand if desired.
% The unit line width and grayscale image gamma correction may also be changed.
%
/Color true def
/Blacktext false def
/Solid false def
/Dashlength 1 def
/Landscape false def
/Level1 false def
/Rounded false def
/ClipToBoundingBox false def
/TransparentPatterns false def
/gnulinewidth 5.000 def
/userlinewidth gnulinewidth def
/Gamma 1.0 def
%
/vshift -83 def
/dl1 {
  10.0 Dashlength mul mul
  Rounded { currentlinewidth 0.75 mul sub dup 0 le { pop 0.01 } if } if
} def
/dl2 {
  10.0 Dashlength mul mul
  Rounded { currentlinewidth 0.75 mul add } if
} def
/hpt_ 31.5 def
/vpt_ 31.5 def
/hpt hpt_ def
/vpt vpt_ def
Level1 {} {
/SDict 10 dict def
systemdict /pdfmark known not {
  userdict /pdfmark systemdict /cleartomark get put
} if
SDict begin [
  /Title (n_num_segments.f1.eps)
  /Subject (gnuplot plot)
  /Creator (gnuplot 4.4 patchlevel 3)
  /Author (xjia)
%  /Producer (gnuplot)
%  /Keywords ()
  /CreationDate (Tue Jun  4 13:15:17 2013)
  /DOCINFO pdfmark
end
} ifelse
/doclip {
  ClipToBoundingBox {
    newpath 50 50 moveto 410 50 lineto 410 302 lineto 50 302 lineto closepath
    clip
  } if
} def
%
% Gnuplot Prolog Version 4.4 (August 2010)
%
%/SuppressPDFMark true def
%
/M {moveto} bind def
/L {lineto} bind def
/R {rmoveto} bind def
/V {rlineto} bind def
/N {newpath moveto} bind def
/Z {closepath} bind def
/C {setrgbcolor} bind def
/f {rlineto fill} bind def
/g {setgray} bind def
/Gshow {show} def   % May be redefined later in the file to support UTF-8
/vpt2 vpt 2 mul def
/hpt2 hpt 2 mul def
/Lshow {currentpoint stroke M 0 vshift R 
	Blacktext {gsave 0 setgray show grestore} {show} ifelse} def
/Rshow {currentpoint stroke M dup stringwidth pop neg vshift R
	Blacktext {gsave 0 setgray show grestore} {show} ifelse} def
/Cshow {currentpoint stroke M dup stringwidth pop -2 div vshift R 
	Blacktext {gsave 0 setgray show grestore} {show} ifelse} def
/UP {dup vpt_ mul /vpt exch def hpt_ mul /hpt exch def
  /hpt2 hpt 2 mul def /vpt2 vpt 2 mul def} def
/DL {Color {setrgbcolor Solid {pop []} if 0 setdash}
 {pop pop pop 0 setgray Solid {pop []} if 0 setdash} ifelse} def
/BL {stroke userlinewidth 2 mul setlinewidth
	Rounded {1 setlinejoin 1 setlinecap} if} def
/AL {stroke userlinewidth 2 div setlinewidth
	Rounded {1 setlinejoin 1 setlinecap} if} def
/UL {dup gnulinewidth mul /userlinewidth exch def
	dup 1 lt {pop 1} if 10 mul /udl exch def} def
/PL {stroke userlinewidth setlinewidth
	Rounded {1 setlinejoin 1 setlinecap} if} def
3.8 setmiterlimit
% Default Line colors
/LCw {1 1 1} def
/LCb {0 0 0} def
/LCa {0 0 0} def
/LC0 {1 0 0} def
/LC1 {0 1 0} def
/LC2 {0 0 1} def
/LC3 {1 0 1} def
/LC4 {0 1 1} def
/LC5 {1 1 0} def
/LC6 {0 0 0} def
/LC7 {1 0.3 0} def
/LC8 {0.5 0.5 0.5} def
% Default Line Types
/LTw {PL [] 1 setgray} def
/LTb {BL [] LCb DL} def
/LTa {AL [1 udl mul 2 udl mul] 0 setdash LCa setrgbcolor} def
/LT0 {PL [] LC0 DL} def
/LT1 {PL [4 dl1 2 dl2] LC1 DL} def
/LT2 {PL [2 dl1 3 dl2] LC2 DL} def
/LT3 {PL [1 dl1 1.5 dl2] LC3 DL} def
/LT4 {PL [6 dl1 2 dl2 1 dl1 2 dl2] LC4 DL} def
/LT5 {PL [3 dl1 3 dl2 1 dl1 3 dl2] LC5 DL} def
/LT6 {PL [2 dl1 2 dl2 2 dl1 6 dl2] LC6 DL} def
/LT7 {PL [1 dl1 2 dl2 6 dl1 2 dl2 1 dl1 2 dl2] LC7 DL} def
/LT8 {PL [2 dl1 2 dl2 2 dl1 2 dl2 2 dl1 2 dl2 2 dl1 4 dl2] LC8 DL} def
/Pnt {stroke [] 0 setdash gsave 1 setlinecap M 0 0 V stroke grestore} def
/Dia {stroke [] 0 setdash 2 copy vpt add M
  hpt neg vpt neg V hpt vpt neg V
  hpt vpt V hpt neg vpt V closepath stroke
  Pnt} def
/Pls {stroke [] 0 setdash vpt sub M 0 vpt2 V
  currentpoint stroke M
  hpt neg vpt neg R hpt2 0 V stroke
 } def
/Box {stroke [] 0 setdash 2 copy exch hpt sub exch vpt add M
  0 vpt2 neg V hpt2 0 V 0 vpt2 V
  hpt2 neg 0 V closepath stroke
  Pnt} def
/Crs {stroke [] 0 setdash exch hpt sub exch vpt add M
  hpt2 vpt2 neg V currentpoint stroke M
  hpt2 neg 0 R hpt2 vpt2 V stroke} def
/TriU {stroke [] 0 setdash 2 copy vpt 1.12 mul add M
  hpt neg vpt -1.62 mul V
  hpt 2 mul 0 V
  hpt neg vpt 1.62 mul V closepath stroke
  Pnt} def
/Star {2 copy Pls Crs} def
/BoxF {stroke [] 0 setdash exch hpt sub exch vpt add M
  0 vpt2 neg V hpt2 0 V 0 vpt2 V
  hpt2 neg 0 V closepath fill} def
/TriUF {stroke [] 0 setdash vpt 1.12 mul add M
  hpt neg vpt -1.62 mul V
  hpt 2 mul 0 V
  hpt neg vpt 1.62 mul V closepath fill} def
/TriD {stroke [] 0 setdash 2 copy vpt 1.12 mul sub M
  hpt neg vpt 1.62 mul V
  hpt 2 mul 0 V
  hpt neg vpt -1.62 mul V closepath stroke
  Pnt} def
/TriDF {stroke [] 0 setdash vpt 1.12 mul sub M
  hpt neg vpt 1.62 mul V
  hpt 2 mul 0 V
  hpt neg vpt -1.62 mul V closepath fill} def
/DiaF {stroke [] 0 setdash vpt add M
  hpt neg vpt neg V hpt vpt neg V
  hpt vpt V hpt neg vpt V closepath fill} def
/Pent {stroke [] 0 setdash 2 copy gsave
  translate 0 hpt M 4 {72 rotate 0 hpt L} repeat
  closepath stroke grestore Pnt} def
/PentF {stroke [] 0 setdash gsave
  translate 0 hpt M 4 {72 rotate 0 hpt L} repeat
  closepath fill grestore} def
/Circle {stroke [] 0 setdash 2 copy
  hpt 0 360 arc stroke Pnt} def
/CircleF {stroke [] 0 setdash hpt 0 360 arc fill} def
/C0 {BL [] 0 setdash 2 copy moveto vpt 90 450 arc} bind def
/C1 {BL [] 0 setdash 2 copy moveto
	2 copy vpt 0 90 arc closepath fill
	vpt 0 360 arc closepath} bind def
/C2 {BL [] 0 setdash 2 copy moveto
	2 copy vpt 90 180 arc closepath fill
	vpt 0 360 arc closepath} bind def
/C3 {BL [] 0 setdash 2 copy moveto
	2 copy vpt 0 180 arc closepath fill
	vpt 0 360 arc closepath} bind def
/C4 {BL [] 0 setdash 2 copy moveto
	2 copy vpt 180 270 arc closepath fill
	vpt 0 360 arc closepath} bind def
/C5 {BL [] 0 setdash 2 copy moveto
	2 copy vpt 0 90 arc
	2 copy moveto
	2 copy vpt 180 270 arc closepath fill
	vpt 0 360 arc} bind def
/C6 {BL [] 0 setdash 2 copy moveto
	2 copy vpt 90 270 arc closepath fill
	vpt 0 360 arc closepath} bind def
/C7 {BL [] 0 setdash 2 copy moveto
	2 copy vpt 0 270 arc closepath fill
	vpt 0 360 arc closepath} bind def
/C8 {BL [] 0 setdash 2 copy moveto
	2 copy vpt 270 360 arc closepath fill
	vpt 0 360 arc closepath} bind def
/C9 {BL [] 0 setdash 2 copy moveto
	2 copy vpt 270 450 arc closepath fill
	vpt 0 360 arc closepath} bind def
/C10 {BL [] 0 setdash 2 copy 2 copy moveto vpt 270 360 arc closepath fill
	2 copy moveto
	2 copy vpt 90 180 arc closepath fill
	vpt 0 360 arc closepath} bind def
/C11 {BL [] 0 setdash 2 copy moveto
	2 copy vpt 0 180 arc closepath fill
	2 copy moveto
	2 copy vpt 270 360 arc closepath fill
	vpt 0 360 arc closepath} bind def
/C12 {BL [] 0 setdash 2 copy moveto
	2 copy vpt 180 360 arc closepath fill
	vpt 0 360 arc closepath} bind def
/C13 {BL [] 0 setdash 2 copy moveto
	2 copy vpt 0 90 arc closepath fill
	2 copy moveto
	2 copy vpt 180 360 arc closepath fill
	vpt 0 360 arc closepath} bind def
/C14 {BL [] 0 setdash 2 copy moveto
	2 copy vpt 90 360 arc closepath fill
	vpt 0 360 arc} bind def
/C15 {BL [] 0 setdash 2 copy vpt 0 360 arc closepath fill
	vpt 0 360 arc closepath} bind def
/Rec {newpath 4 2 roll moveto 1 index 0 rlineto 0 exch rlineto
	neg 0 rlineto closepath} bind def
/Square {dup Rec} bind def
/Bsquare {vpt sub exch vpt sub exch vpt2 Square} bind def
/S0 {BL [] 0 setdash 2 copy moveto 0 vpt rlineto BL Bsquare} bind def
/S1 {BL [] 0 setdash 2 copy vpt Square fill Bsquare} bind def
/S2 {BL [] 0 setdash 2 copy exch vpt sub exch vpt Square fill Bsquare} bind def
/S3 {BL [] 0 setdash 2 copy exch vpt sub exch vpt2 vpt Rec fill Bsquare} bind def
/S4 {BL [] 0 setdash 2 copy exch vpt sub exch vpt sub vpt Square fill Bsquare} bind def
/S5 {BL [] 0 setdash 2 copy 2 copy vpt Square fill
	exch vpt sub exch vpt sub vpt Square fill Bsquare} bind def
/S6 {BL [] 0 setdash 2 copy exch vpt sub exch vpt sub vpt vpt2 Rec fill Bsquare} bind def
/S7 {BL [] 0 setdash 2 copy exch vpt sub exch vpt sub vpt vpt2 Rec fill
	2 copy vpt Square fill Bsquare} bind def
/S8 {BL [] 0 setdash 2 copy vpt sub vpt Square fill Bsquare} bind def
/S9 {BL [] 0 setdash 2 copy vpt sub vpt vpt2 Rec fill Bsquare} bind def
/S10 {BL [] 0 setdash 2 copy vpt sub vpt Square fill 2 copy exch vpt sub exch vpt Square fill
	Bsquare} bind def
/S11 {BL [] 0 setdash 2 copy vpt sub vpt Square fill 2 copy exch vpt sub exch vpt2 vpt Rec fill
	Bsquare} bind def
/S12 {BL [] 0 setdash 2 copy exch vpt sub exch vpt sub vpt2 vpt Rec fill Bsquare} bind def
/S13 {BL [] 0 setdash 2 copy exch vpt sub exch vpt sub vpt2 vpt Rec fill
	2 copy vpt Square fill Bsquare} bind def
/S14 {BL [] 0 setdash 2 copy exch vpt sub exch vpt sub vpt2 vpt Rec fill
	2 copy exch vpt sub exch vpt Square fill Bsquare} bind def
/S15 {BL [] 0 setdash 2 copy Bsquare fill Bsquare} bind def
/D0 {gsave translate 45 rotate 0 0 S0 stroke grestore} bind def
/D1 {gsave translate 45 rotate 0 0 S1 stroke grestore} bind def
/D2 {gsave translate 45 rotate 0 0 S2 stroke grestore} bind def
/D3 {gsave translate 45 rotate 0 0 S3 stroke grestore} bind def
/D4 {gsave translate 45 rotate 0 0 S4 stroke grestore} bind def
/D5 {gsave translate 45 rotate 0 0 S5 stroke grestore} bind def
/D6 {gsave translate 45 rotate 0 0 S6 stroke grestore} bind def
/D7 {gsave translate 45 rotate 0 0 S7 stroke grestore} bind def
/D8 {gsave translate 45 rotate 0 0 S8 stroke grestore} bind def
/D9 {gsave translate 45 rotate 0 0 S9 stroke grestore} bind def
/D10 {gsave translate 45 rotate 0 0 S10 stroke grestore} bind def
/D11 {gsave translate 45 rotate 0 0 S11 stroke grestore} bind def
/D12 {gsave translate 45 rotate 0 0 S12 stroke grestore} bind def
/D13 {gsave translate 45 rotate 0 0 S13 stroke grestore} bind def
/D14 {gsave translate 45 rotate 0 0 S14 stroke grestore} bind def
/D15 {gsave translate 45 rotate 0 0 S15 stroke grestore} bind def
/DiaE {stroke [] 0 setdash vpt add M
  hpt neg vpt neg V hpt vpt neg V
  hpt vpt V hpt neg vpt V closepath stroke} def
/BoxE {stroke [] 0 setdash exch hpt sub exch vpt add M
  0 vpt2 neg V hpt2 0 V 0 vpt2 V
  hpt2 neg 0 V closepath stroke} def
/TriUE {stroke [] 0 setdash vpt 1.12 mul add M
  hpt neg vpt -1.62 mul V
  hpt 2 mul 0 V
  hpt neg vpt 1.62 mul V closepath stroke} def
/TriDE {stroke [] 0 setdash vpt 1.12 mul sub M
  hpt neg vpt 1.62 mul V
  hpt 2 mul 0 V
  hpt neg vpt -1.62 mul V closepath stroke} def
/PentE {stroke [] 0 setdash gsave
  translate 0 hpt M 4 {72 rotate 0 hpt L} repeat
  closepath stroke grestore} def
/CircE {stroke [] 0 setdash 
  hpt 0 360 arc stroke} def
/Opaque {gsave closepath 1 setgray fill grestore 0 setgray closepath} def
/DiaW {stroke [] 0 setdash vpt add M
  hpt neg vpt neg V hpt vpt neg V
  hpt vpt V hpt neg vpt V Opaque stroke} def
/BoxW {stroke [] 0 setdash exch hpt sub exch vpt add M
  0 vpt2 neg V hpt2 0 V 0 vpt2 V
  hpt2 neg 0 V Opaque stroke} def
/TriUW {stroke [] 0 setdash vpt 1.12 mul add M
  hpt neg vpt -1.62 mul V
  hpt 2 mul 0 V
  hpt neg vpt 1.62 mul V Opaque stroke} def
/TriDW {stroke [] 0 setdash vpt 1.12 mul sub M
  hpt neg vpt 1.62 mul V
  hpt 2 mul 0 V
  hpt neg vpt -1.62 mul V Opaque stroke} def
/PentW {stroke [] 0 setdash gsave
  translate 0 hpt M 4 {72 rotate 0 hpt L} repeat
  Opaque stroke grestore} def
/CircW {stroke [] 0 setdash 
  hpt 0 360 arc Opaque stroke} def
/BoxFill {gsave Rec 1 setgray fill grestore} def
/Density {
  /Fillden exch def
  currentrgbcolor
  /ColB exch def /ColG exch def /ColR exch def
  /ColR ColR Fillden mul Fillden sub 1 add def
  /ColG ColG Fillden mul Fillden sub 1 add def
  /ColB ColB Fillden mul Fillden sub 1 add def
  ColR ColG ColB setrgbcolor} def
/BoxColFill {gsave Rec PolyFill} def
/PolyFill {gsave Density fill grestore grestore} def
/h {rlineto rlineto rlineto gsave closepath fill grestore} bind def
%
% PostScript Level 1 Pattern Fill routine for rectangles
% Usage: x y w h s a XX PatternFill
%	x,y = lower left corner of box to be filled
%	w,h = width and height of box
%	  a = angle in degrees between lines and x-axis
%	 XX = 0/1 for no/yes cross-hatch
%
/PatternFill {gsave /PFa [ 9 2 roll ] def
  PFa 0 get PFa 2 get 2 div add PFa 1 get PFa 3 get 2 div add translate
  PFa 2 get -2 div PFa 3 get -2 div PFa 2 get PFa 3 get Rec
  gsave 1 setgray fill grestore clip
  currentlinewidth 0.5 mul setlinewidth
  /PFs PFa 2 get dup mul PFa 3 get dup mul add sqrt def
  0 0 M PFa 5 get rotate PFs -2 div dup translate
  0 1 PFs PFa 4 get div 1 add floor cvi
	{PFa 4 get mul 0 M 0 PFs V} for
  0 PFa 6 get ne {
	0 1 PFs PFa 4 get div 1 add floor cvi
	{PFa 4 get mul 0 2 1 roll M PFs 0 V} for
 } if
  stroke grestore} def
%
/languagelevel where
 {pop languagelevel} {1} ifelse
 2 lt
	{/InterpretLevel1 true def}
	{/InterpretLevel1 Level1 def}
 ifelse
%
% PostScript level 2 pattern fill definitions
%
/Level2PatternFill {
/Tile8x8 {/PaintType 2 /PatternType 1 /TilingType 1 /BBox [0 0 8 8] /XStep 8 /YStep 8}
	bind def
/KeepColor {currentrgbcolor [/Pattern /DeviceRGB] setcolorspace} bind def
<< Tile8x8
 /PaintProc {0.5 setlinewidth pop 0 0 M 8 8 L 0 8 M 8 0 L stroke} 
>> matrix makepattern
/Pat1 exch def
<< Tile8x8
 /PaintProc {0.5 setlinewidth pop 0 0 M 8 8 L 0 8 M 8 0 L stroke
	0 4 M 4 8 L 8 4 L 4 0 L 0 4 L stroke}
>> matrix makepattern
/Pat2 exch def
<< Tile8x8
 /PaintProc {0.5 setlinewidth pop 0 0 M 0 8 L
	8 8 L 8 0 L 0 0 L fill}
>> matrix makepattern
/Pat3 exch def
<< Tile8x8
 /PaintProc {0.5 setlinewidth pop -4 8 M 8 -4 L
	0 12 M 12 0 L stroke}
>> matrix makepattern
/Pat4 exch def
<< Tile8x8
 /PaintProc {0.5 setlinewidth pop -4 0 M 8 12 L
	0 -4 M 12 8 L stroke}
>> matrix makepattern
/Pat5 exch def
<< Tile8x8
 /PaintProc {0.5 setlinewidth pop -2 8 M 4 -4 L
	0 12 M 8 -4 L 4 12 M 10 0 L stroke}
>> matrix makepattern
/Pat6 exch def
<< Tile8x8
 /PaintProc {0.5 setlinewidth pop -2 0 M 4 12 L
	0 -4 M 8 12 L 4 -4 M 10 8 L stroke}
>> matrix makepattern
/Pat7 exch def
<< Tile8x8
 /PaintProc {0.5 setlinewidth pop 8 -2 M -4 4 L
	12 0 M -4 8 L 12 4 M 0 10 L stroke}
>> matrix makepattern
/Pat8 exch def
<< Tile8x8
 /PaintProc {0.5 setlinewidth pop 0 -2 M 12 4 L
	-4 0 M 12 8 L -4 4 M 8 10 L stroke}
>> matrix makepattern
/Pat9 exch def
/Pattern1 {PatternBgnd KeepColor Pat1 setpattern} bind def
/Pattern2 {PatternBgnd KeepColor Pat2 setpattern} bind def
/Pattern3 {PatternBgnd KeepColor Pat3 setpattern} bind def
/Pattern4 {PatternBgnd KeepColor Landscape {Pat5} {Pat4} ifelse setpattern} bind def
/Pattern5 {PatternBgnd KeepColor Landscape {Pat4} {Pat5} ifelse setpattern} bind def
/Pattern6 {PatternBgnd KeepColor Landscape {Pat9} {Pat6} ifelse setpattern} bind def
/Pattern7 {PatternBgnd KeepColor Landscape {Pat8} {Pat7} ifelse setpattern} bind def
} def
%
%
%End of PostScript Level 2 code
%
/PatternBgnd {
  TransparentPatterns {} {gsave 1 setgray fill grestore} ifelse
} def
%
% Substitute for Level 2 pattern fill codes with
% grayscale if Level 2 support is not selected.
%
/Level1PatternFill {
/Pattern1 {0.250 Density} bind def
/Pattern2 {0.500 Density} bind def
/Pattern3 {0.750 Density} bind def
/Pattern4 {0.125 Density} bind def
/Pattern5 {0.375 Density} bind def
/Pattern6 {0.625 Density} bind def
/Pattern7 {0.875 Density} bind def
} def
%
% Now test for support of Level 2 code
%
Level1 {Level1PatternFill} {Level2PatternFill} ifelse
%
/Symbol-Oblique /Symbol findfont [1 0 .167 1 0 0] makefont
dup length dict begin {1 index /FID eq {pop pop} {def} ifelse} forall
currentdict end definefont pop
/MFshow {
   { dup 5 get 3 ge
     { 5 get 3 eq {gsave} {grestore} ifelse }
     {dup dup 0 get findfont exch 1 get scalefont setfont
     [ currentpoint ] exch dup 2 get 0 exch R dup 5 get 2 ne {dup dup 6
     get exch 4 get {Gshow} {stringwidth pop 0 R} ifelse }if dup 5 get 0 eq
     {dup 3 get {2 get neg 0 exch R pop} {pop aload pop M} ifelse} {dup 5
     get 1 eq {dup 2 get exch dup 3 get exch 6 get stringwidth pop -2 div
     dup 0 R} {dup 6 get stringwidth pop -2 div 0 R 6 get
     show 2 index {aload pop M neg 3 -1 roll neg R pop pop} {pop pop pop
     pop aload pop M} ifelse }ifelse }ifelse }
     ifelse }
   forall} def
/Gswidth {dup type /stringtype eq {stringwidth} {pop (n) stringwidth} ifelse} def
/MFwidth {0 exch { dup 5 get 3 ge { 5 get 3 eq { 0 } { pop } ifelse }
 {dup 3 get{dup dup 0 get findfont exch 1 get scalefont setfont
     6 get Gswidth pop add} {pop} ifelse} ifelse} forall} def
/MLshow { currentpoint stroke M
  0 exch R
  Blacktext {gsave 0 setgray MFshow grestore} {MFshow} ifelse } bind def
/MRshow { currentpoint stroke M
  exch dup MFwidth neg 3 -1 roll R
  Blacktext {gsave 0 setgray MFshow grestore} {MFshow} ifelse } bind def
/MCshow { currentpoint stroke M
  exch dup MFwidth -2 div 3 -1 roll R
  Blacktext {gsave 0 setgray MFshow grestore} {MFshow} ifelse } bind def
/XYsave    { [( ) 1 2 true false 3 ()] } bind def
/XYrestore { [( ) 1 2 true false 4 ()] } bind def
end
%%EndProlog
gnudict begin
gsave
doclip
50 50 translate
0.050 0.050 scale
0 setgray
newpath
(Helvetica) findfont 250 scalefont setfont
1.000 UL
LTb
1225 800 M
63 0 V
5461 0 R
-63 0 V
stroke
1075 800 M
[ [(Helvetica) 250.0 0.0 true true 0 ( 0)]
] -83.3 MRshow
1.000 UL
LTb
1225 1194 M
63 0 V
5461 0 R
-63 0 V
stroke
1075 1194 M
[ [(Helvetica) 250.0 0.0 true true 0 ( 0.1)]
] -83.3 MRshow
1.000 UL
LTb
1225 1588 M
63 0 V
5461 0 R
-63 0 V
stroke
1075 1588 M
[ [(Helvetica) 250.0 0.0 true true 0 ( 0.2)]
] -83.3 MRshow
1.000 UL
LTb
1225 1982 M
63 0 V
5461 0 R
-63 0 V
stroke
1075 1982 M
[ [(Helvetica) 250.0 0.0 true true 0 ( 0.3)]
] -83.3 MRshow
1.000 UL
LTb
1225 2376 M
63 0 V
5461 0 R
-63 0 V
stroke
1075 2376 M
[ [(Helvetica) 250.0 0.0 true true 0 ( 0.4)]
] -83.3 MRshow
1.000 UL
LTb
1225 2770 M
63 0 V
5461 0 R
-63 0 V
stroke
1075 2770 M
[ [(Helvetica) 250.0 0.0 true true 0 ( 0.5)]
] -83.3 MRshow
1.000 UL
LTb
1225 3163 M
63 0 V
5461 0 R
-63 0 V
stroke
1075 3163 M
[ [(Helvetica) 250.0 0.0 true true 0 ( 0.6)]
] -83.3 MRshow
1.000 UL
LTb
1225 3557 M
63 0 V
5461 0 R
-63 0 V
stroke
1075 3557 M
[ [(Helvetica) 250.0 0.0 true true 0 ( 0.7)]
] -83.3 MRshow
1.000 UL
LTb
1225 3951 M
63 0 V
5461 0 R
-63 0 V
stroke
1075 3951 M
[ [(Helvetica) 250.0 0.0 true true 0 ( 0.8)]
] -83.3 MRshow
1.000 UL
LTb
1225 4345 M
63 0 V
5461 0 R
-63 0 V
stroke
1075 4345 M
[ [(Helvetica) 250.0 0.0 true true 0 ( 0.9)]
] -83.3 MRshow
1.000 UL
LTb
1225 4739 M
63 0 V
5461 0 R
-63 0 V
stroke
1075 4739 M
[ [(Helvetica) 250.0 0.0 true true 0 ( 1)]
] -83.3 MRshow
1.000 UL
LTb
1225 800 M
0 63 V
0 3876 R
0 -63 V
stroke
1225 550 M
[ [(Helvetica) 250.0 0.0 true true 0 ( 4)]
] -83.3 MCshow
1.000 UL
LTb
1916 800 M
0 63 V
0 3876 R
0 -63 V
stroke
1916 550 M
[ [(Helvetica) 250.0 0.0 true true 0 ( 6)]
] -83.3 MCshow
1.000 UL
LTb
2606 800 M
0 63 V
0 3876 R
0 -63 V
stroke
2606 550 M
[ [(Helvetica) 250.0 0.0 true true 0 ( 8)]
] -83.3 MCshow
1.000 UL
LTb
3297 800 M
0 63 V
0 3876 R
0 -63 V
stroke
3297 550 M
[ [(Helvetica) 250.0 0.0 true true 0 ( 10)]
] -83.3 MCshow
1.000 UL
LTb
3987 800 M
0 63 V
0 3876 R
0 -63 V
stroke
3987 550 M
[ [(Helvetica) 250.0 0.0 true true 0 ( 12)]
] -83.3 MCshow
1.000 UL
LTb
4678 800 M
0 63 V
0 3876 R
0 -63 V
stroke
4678 550 M
[ [(Helvetica) 250.0 0.0 true true 0 ( 14)]
] -83.3 MCshow
1.000 UL
LTb
5368 800 M
0 63 V
0 3876 R
0 -63 V
stroke
5368 550 M
[ [(Helvetica) 250.0 0.0 true true 0 ( 16)]
] -83.3 MCshow
1.000 UL
LTb
6059 800 M
0 63 V
0 3876 R
0 -63 V
stroke
6059 550 M
[ [(Helvetica) 250.0 0.0 true true 0 ( 18)]
] -83.3 MCshow
1.000 UL
LTb
6749 800 M
0 63 V
0 3876 R
0 -63 V
stroke
6749 550 M
[ [(Helvetica) 250.0 0.0 true true 0 ( 20)]
] -83.3 MCshow
1.000 UL
LTb
1.000 UL
LTb
1225 4739 N
0 -3939 V
5524 0 V
0 3939 V
-5524 0 V
Z stroke
LCb setrgbcolor
200 2769 M
currentpoint gsave translate -270 rotate 0 0 moveto
[ [(Helvetica) 250.0 0.0 true true 0 (F1)]
] -83.3 MCshow
grestore
LTb
LCb setrgbcolor
3987 175 M
[ [(Helvetica) 250.0 0.0 true true 0 (Number of Segments)]
] -83.3 MCshow
LTb
1.000 UP
1.000 UL
LTb
% Begin plot #1
1.000 UP
1.000 UL
LT0
1570 3842 Pls
3297 2973 Pls
5023 2603 Pls
6749 2223 Pls
1570 3782 Pls
3297 2757 Pls
5023 2960 Pls
6749 2276 Pls
1570 3424 Pls
3297 2844 Pls
5023 2252 Pls
6749 2135 Pls
1570 3316 Pls
3297 2551 Pls
5023 2117 Pls
6749 2097 Pls
1570 2985 Pls
3297 2204 Pls
5023 1888 Pls
6749 1426 Pls
1570 1720 Pls
3297 1947 Pls
5023 1480 Pls
6749 1342 Pls
1570 1987 Pls
3297 1640 Pls
5023 2010 Pls
6749 1484 Pls
1570 2722 Pls
3297 1871 Pls
5023 2233 Pls
6749 2139 Pls
1570 2720 Pls
3297 1936 Pls
5023 1912 Pls
6749 2336 Pls
1570 2845 Pls
3297 2347 Pls
5023 2497 Pls
6749 2319 Pls
1570 4122 Pls
3297 3349 Pls
5023 2929 Pls
6749 2599 Pls
1570 4093 Pls
3297 2886 Pls
5023 2576 Pls
6749 2289 Pls
1570 4118 Pls
3297 3182 Pls
5023 2283 Pls
6749 2295 Pls
1570 3514 Pls
3297 2765 Pls
5023 2370 Pls
6749 2168 Pls
1570 3247 Pls
3297 2225 Pls
5023 2004 Pls
6749 1736 Pls
1570 1662 Pls
3297 2088 Pls
5023 1826 Pls
6749 1649 Pls
1570 2191 Pls
3297 2317 Pls
5023 1877 Pls
6749 2083 Pls
1570 2058 Pls
3297 2456 Pls
5023 2321 Pls
6749 2376 Pls
1570 2005 Pls
3297 2479 Pls
5023 2488 Pls
6749 2684 Pls
1570 2159 Pls
3297 2363 Pls
5023 2624 Pls
6749 2786 Pls
1570 4374 Pls
3297 3504 Pls
5023 2772 Pls
6749 2400 Pls
1570 3599 Pls
3297 3201 Pls
5023 2846 Pls
6749 2392 Pls
1570 3804 Pls
3297 3276 Pls
5023 2861 Pls
6749 1856 Pls
1570 3865 Pls
3297 3400 Pls
5023 2725 Pls
6749 1928 Pls
1570 3464 Pls
3297 2751 Pls
5023 2584 Pls
6749 2280 Pls
1570 2267 Pls
3297 1878 Pls
5023 1852 Pls
6749 1931 Pls
1570 1988 Pls
3297 1805 Pls
5023 2177 Pls
6749 2015 Pls
1570 1637 Pls
3297 2268 Pls
5023 2247 Pls
6749 2638 Pls
1570 1824 Pls
3297 1994 Pls
5023 2341 Pls
6749 2281 Pls
1570 1540 Pls
3297 1978 Pls
5023 2386 Pls
6749 2627 Pls
1570 4102 Pls
3297 3476 Pls
5023 2951 Pls
6749 2603 Pls
1570 4194 Pls
3297 3230 Pls
5023 2789 Pls
6749 2413 Pls
1570 3881 Pls
3297 3352 Pls
5023 2726 Pls
6749 2695 Pls
1570 4045 Pls
3297 3392 Pls
5023 2743 Pls
6749 2251 Pls
1570 3673 Pls
3297 2756 Pls
5023 2155 Pls
6749 2417 Pls
1570 1878 Pls
3297 1874 Pls
5023 1789 Pls
6749 1720 Pls
1570 1650 Pls
3297 1917 Pls
5023 1977 Pls
6749 2050 Pls
1570 1473 Pls
3297 1749 Pls
5023 2178 Pls
6749 2078 Pls
1570 1385 Pls
3297 1722 Pls
5023 2040 Pls
6749 2128 Pls
1570 1351 Pls
3297 1757 Pls
5023 1870 Pls
6749 2392 Pls
1570 3965 Pls
3297 3298 Pls
5023 2955 Pls
6749 2420 Pls
1570 3944 Pls
3297 3490 Pls
5023 3089 Pls
6749 2525 Pls
1570 4124 Pls
3297 3503 Pls
5023 2936 Pls
6749 2313 Pls
1570 4052 Pls
3297 2610 Pls
5023 2906 Pls
6749 2372 Pls
1570 3823 Pls
3297 3116 Pls
5023 2455 Pls
6749 1874 Pls
1570 1440 Pls
3297 1941 Pls
5023 1594 Pls
6749 1915 Pls
1570 1473 Pls
3297 1734 Pls
5023 1877 Pls
6749 2002 Pls
1570 1415 Pls
3297 1631 Pls
5023 1938 Pls
6749 1866 Pls
1570 1173 Pls
3297 1645 Pls
5023 1769 Pls
6749 2028 Pls
1570 1244 Pls
3297 1556 Pls
5023 1766 Pls
6749 1977 Pls
1570 3576 Pls
3297 3074 Pls
5023 2687 Pls
6749 1943 Pls
1570 3561 Pls
3297 2881 Pls
5023 2677 Pls
6749 2296 Pls
1570 3729 Pls
3297 2947 Pls
5023 2261 Pls
6749 2296 Pls
1570 3023 Pls
3297 2816 Pls
5023 2043 Pls
6749 1916 Pls
1570 3081 Pls
3297 2283 Pls
5023 2035 Pls
6749 1447 Pls
1570 2051 Pls
3297 1545 Pls
5023 1583 Pls
6749 1427 Pls
1570 1962 Pls
3297 1828 Pls
5023 1670 Pls
6749 1593 Pls
1570 2572 Pls
3297 2062 Pls
5023 1953 Pls
6749 1632 Pls
1570 2855 Pls
3297 1998 Pls
5023 1609 Pls
6749 1679 Pls
1570 2806 Pls
3297 2171 Pls
5023 1910 Pls
6749 2151 Pls
1570 4279 Pls
3297 3086 Pls
5023 2474 Pls
6749 2569 Pls
1570 4073 Pls
3297 3282 Pls
5023 2717 Pls
6749 2136 Pls
1570 3925 Pls
3297 3153 Pls
5023 2305 Pls
6749 2202 Pls
1570 3732 Pls
3297 3123 Pls
5023 2219 Pls
6749 1869 Pls
1570 3441 Pls
3297 2548 Pls
5023 2052 Pls
6749 1965 Pls
1570 2582 Pls
3297 1569 Pls
5023 1543 Pls
6749 1467 Pls
1570 2663 Pls
3297 1951 Pls
5023 1980 Pls
6749 1936 Pls
1570 2442 Pls
3297 2182 Pls
5023 1971 Pls
6749 2109 Pls
1570 2557 Pls
3297 2556 Pls
5023 2257 Pls
6749 2242 Pls
1570 2332 Pls
3297 2160 Pls
5023 2033 Pls
6749 2241 Pls
1570 4270 Pls
3297 3575 Pls
5023 2698 Pls
6749 2549 Pls
1570 4066 Pls
3297 3174 Pls
5023 2671 Pls
6749 2427 Pls
1570 4025 Pls
3297 3445 Pls
5023 2559 Pls
6749 2609 Pls
1570 3777 Pls
3297 3182 Pls
5023 2800 Pls
6749 2480 Pls
1570 3358 Pls
3297 2953 Pls
5023 2245 Pls
6749 1944 Pls
1570 2324 Pls
3297 1898 Pls
5023 2046 Pls
6749 1557 Pls
1570 2499 Pls
3297 2290 Pls
5023 2066 Pls
6749 2108 Pls
1570 1718 Pls
3297 2302 Pls
5023 2137 Pls
6749 2251 Pls
1570 2018 Pls
3297 2337 Pls
5023 1937 Pls
6749 2386 Pls
1570 1912 Pls
3297 2152 Pls
5023 2505 Pls
6749 2431 Pls
1570 3962 Pls
3297 3524 Pls
5023 2834 Pls
6749 2687 Pls
1570 4174 Pls
3297 3513 Pls
5023 2805 Pls
6749 2685 Pls
1570 4168 Pls
3297 3283 Pls
5023 2835 Pls
6749 2457 Pls
1570 4091 Pls
3297 3261 Pls
5023 2945 Pls
6749 2424 Pls
1570 3612 Pls
3297 2738 Pls
5023 2318 Pls
6749 1819 Pls
1570 1535 Pls
3297 1792 Pls
5023 1483 Pls
6749 1449 Pls
1570 1791 Pls
3297 1997 Pls
5023 1800 Pls
6749 2097 Pls
1570 1495 Pls
3297 1704 Pls
5023 1988 Pls
6749 1959 Pls
1570 1782 Pls
3297 1891 Pls
5023 2033 Pls
6749 2396 Pls
1570 1573 Pls
3297 1580 Pls
5023 2178 Pls
6749 2154 Pls
1570 4253 Pls
3297 3665 Pls
5023 2918 Pls
6749 2842 Pls
1570 4128 Pls
3297 3418 Pls
5023 2931 Pls
6749 2468 Pls
1570 4085 Pls
3297 3373 Pls
5023 3083 Pls
6749 2467 Pls
1570 4151 Pls
3297 2984 Pls
5023 2765 Pls
6749 2834 Pls
1570 3353 Pls
3297 3211 Pls
5023 2313 Pls
6749 2200 Pls
1570 1855 Pls
3297 1817 Pls
5023 1623 Pls
6749 2098 Pls
1570 1697 Pls
3297 2037 Pls
5023 1789 Pls
6749 2341 Pls
1570 1553 Pls
3297 1857 Pls
5023 1932 Pls
6749 1877 Pls
1570 1312 Pls
3297 1761 Pls
5023 1878 Pls
6749 2033 Pls
1570 1419 Pls
3297 1557 Pls
5023 1850 Pls
6749 2106 Pls
1570 3872 Pls
3297 2822 Pls
5023 2391 Pls
6749 2117 Pls
1570 3566 Pls
3297 2478 Pls
5023 2607 Pls
6749 2233 Pls
1570 3505 Pls
3297 2653 Pls
5023 2016 Pls
6749 1977 Pls
1570 3580 Pls
3297 2550 Pls
5023 2008 Pls
6749 1843 Pls
1570 2893 Pls
3297 2085 Pls
5023 1712 Pls
6749 1719 Pls
1570 1858 Pls
3297 1476 Pls
5023 1466 Pls
6749 1280 Pls
1570 2813 Pls
3297 1958 Pls
5023 1490 Pls
6749 1509 Pls
1570 2278 Pls
3297 2206 Pls
5023 1826 Pls
6749 1634 Pls
1570 2875 Pls
3297 1778 Pls
5023 1942 Pls
6749 1989 Pls
1570 2800 Pls
3297 2573 Pls
5023 2093 Pls
6749 1984 Pls
1570 4122 Pls
3297 3143 Pls
5023 2832 Pls
6749 2641 Pls
1570 3879 Pls
3297 3000 Pls
5023 2444 Pls
6749 2264 Pls
1570 4042 Pls
3297 3029 Pls
5023 2812 Pls
6749 2172 Pls
1570 3343 Pls
3297 2906 Pls
5023 2299 Pls
6749 2047 Pls
1570 3610 Pls
3297 2520 Pls
5023 1966 Pls
6749 1809 Pls
1570 1997 Pls
3297 1798 Pls
5023 1582 Pls
6749 1551 Pls
1570 2813 Pls
3297 2377 Pls
5023 1724 Pls
6749 1781 Pls
1570 2394 Pls
3297 2256 Pls
5023 2030 Pls
6749 1755 Pls
1570 2611 Pls
3297 2542 Pls
5023 2083 Pls
6749 2395 Pls
1570 2397 Pls
3297 2599 Pls
5023 2399 Pls
6749 2233 Pls
1570 4395 Pls
3297 3373 Pls
5023 2908 Pls
6749 2702 Pls
1570 4084 Pls
3297 3422 Pls
5023 3036 Pls
6749 2395 Pls
1570 4202 Pls
3297 3114 Pls
5023 2826 Pls
6749 2145 Pls
1570 3964 Pls
3297 3280 Pls
5023 2626 Pls
6749 2256 Pls
1570 3518 Pls
3297 2587 Pls
5023 2262 Pls
6749 2062 Pls
1570 2654 Pls
3297 1675 Pls
5023 1750 Pls
6749 1405 Pls
1570 2313 Pls
3297 1640 Pls
5023 1813 Pls
6749 1803 Pls
1570 2306 Pls
3297 1930 Pls
5023 1992 Pls
6749 2161 Pls
1570 2157 Pls
3297 2204 Pls
5023 2355 Pls
6749 2090 Pls
1570 1989 Pls
3297 1935 Pls
5023 2306 Pls
6749 2238 Pls
1570 4331 Pls
3297 3322 Pls
5023 3078 Pls
6749 2653 Pls
1570 4038 Pls
3297 3590 Pls
5023 2678 Pls
6749 2513 Pls
1570 4144 Pls
3297 3335 Pls
5023 2915 Pls
6749 2565 Pls
1570 3776 Pls
3297 3030 Pls
5023 2662 Pls
6749 1984 Pls
1570 3926 Pls
3297 2895 Pls
5023 2298 Pls
6749 2076 Pls
1570 2062 Pls
3297 1935 Pls
5023 1941 Pls
6749 1523 Pls
1570 2004 Pls
3297 1762 Pls
5023 2161 Pls
6749 1845 Pls
1570 2124 Pls
3297 2332 Pls
5023 2102 Pls
6749 1880 Pls
1570 1870 Pls
3297 1994 Pls
5023 2159 Pls
6749 1997 Pls
1570 1942 Pls
3297 2223 Pls
5023 2134 Pls
6749 2133 Pls
1570 4197 Pls
3297 3604 Pls
5023 2840 Pls
6749 2795 Pls
1570 4463 Pls
3297 3647 Pls
5023 2841 Pls
6749 2862 Pls
1570 4020 Pls
3297 3353 Pls
5023 2876 Pls
6749 2875 Pls
1570 3719 Pls
3297 3406 Pls
5023 2661 Pls
6749 2660 Pls
1570 3409 Pls
3297 2807 Pls
5023 2434 Pls
6749 2077 Pls
1570 1680 Pls
3297 2042 Pls
5023 1406 Pls
6749 1638 Pls
1570 1676 Pls
3297 1817 Pls
5023 2195 Pls
6749 1786 Pls
1570 1610 Pls
3297 1881 Pls
5023 1874 Pls
6749 1929 Pls
1570 1614 Pls
3297 1959 Pls
5023 1917 Pls
6749 2017 Pls
1570 1577 Pls
3297 1680 Pls
5023 1908 Pls
6749 1960 Pls
1570 4096 Pls
3297 2643 Pls
5023 2495 Pls
6749 2316 Pls
1570 3724 Pls
3297 2525 Pls
5023 2447 Pls
6749 1721 Pls
1570 3725 Pls
3297 2661 Pls
5023 2374 Pls
6749 2046 Pls
1570 2990 Pls
3297 2301 Pls
5023 2257 Pls
6749 1871 Pls
1570 3246 Pls
3297 2324 Pls
5023 1703 Pls
6749 1420 Pls
1570 2278 Pls
3297 1705 Pls
5023 1493 Pls
6749 1111 Pls
1570 1982 Pls
3297 1537 Pls
5023 1641 Pls
6749 1111 Pls
1570 2783 Pls
3297 2156 Pls
5023 1704 Pls
6749 1672 Pls
1570 2726 Pls
3297 2639 Pls
5023 1894 Pls
6749 1594 Pls
1570 2943 Pls
3297 1889 Pls
5023 1742 Pls
6749 1783 Pls
1570 3926 Pls
3297 3307 Pls
5023 3059 Pls
6749 2343 Pls
1570 3597 Pls
3297 3026 Pls
5023 2865 Pls
6749 2487 Pls
1570 3737 Pls
3297 3205 Pls
5023 2516 Pls
6749 2347 Pls
1570 3617 Pls
3297 2763 Pls
5023 2532 Pls
6749 2399 Pls
1570 3471 Pls
3297 2433 Pls
5023 1811 Pls
6749 1828 Pls
1570 2595 Pls
3297 1640 Pls
5023 1424 Pls
6749 1348 Pls
1570 2356 Pls
3297 2012 Pls
5023 1792 Pls
6749 1947 Pls
1570 2404 Pls
3297 2542 Pls
5023 2123 Pls
6749 1671 Pls
1570 2672 Pls
3297 2349 Pls
5023 2306 Pls
6749 1926 Pls
1570 3100 Pls
3297 2595 Pls
5023 2259 Pls
6749 2146 Pls
1570 4227 Pls
3297 3364 Pls
5023 2655 Pls
6749 2494 Pls
1570 3968 Pls
3297 3257 Pls
5023 2592 Pls
6749 2479 Pls
1570 4005 Pls
3297 3224 Pls
5023 2350 Pls
6749 2460 Pls
1570 4147 Pls
3297 3008 Pls
5023 2606 Pls
6749 2003 Pls
1570 3934 Pls
3297 2436 Pls
5023 2241 Pls
6749 1805 Pls
1570 2172 Pls
3297 2115 Pls
5023 1991 Pls
6749 1459 Pls
1570 1777 Pls
3297 2297 Pls
5023 1793 Pls
6749 1982 Pls
1570 2531 Pls
3297 1936 Pls
5023 2186 Pls
6749 1998 Pls
1570 2372 Pls
3297 2856 Pls
5023 2083 Pls
6749 1714 Pls
1570 2155 Pls
3297 1899 Pls
5023 2172 Pls
6749 2276 Pls
1570 4141 Pls
3297 3606 Pls
5023 2659 Pls
6749 2652 Pls
1570 4292 Pls
3297 3614 Pls
5023 2872 Pls
6749 2835 Pls
1570 4088 Pls
3297 3443 Pls
5023 3128 Pls
6749 2358 Pls
1570 4144 Pls
3297 3398 Pls
5023 2795 Pls
6749 2245 Pls
1570 3750 Pls
3297 3179 Pls
5023 2606 Pls
6749 2422 Pls
1570 2233 Pls
3297 1716 Pls
5023 1641 Pls
6749 1571 Pls
1570 2200 Pls
3297 1870 Pls
5023 1779 Pls
6749 1966 Pls
1570 2147 Pls
3297 2273 Pls
5023 1983 Pls
6749 2056 Pls
1570 1812 Pls
3297 1981 Pls
5023 2108 Pls
6749 1800 Pls
1570 2085 Pls
3297 2471 Pls
5023 2084 Pls
6749 2019 Pls
1570 4335 Pls
3297 3132 Pls
5023 3262 Pls
6749 2469 Pls
1570 4121 Pls
3297 3549 Pls
5023 3279 Pls
6749 2291 Pls
1570 3964 Pls
3297 3487 Pls
5023 2855 Pls
6749 2556 Pls
1570 4066 Pls
3297 3097 Pls
5023 2810 Pls
6749 2364 Pls
1570 3815 Pls
3297 2720 Pls
5023 2208 Pls
6749 2175 Pls
1570 2382 Pls
3297 2038 Pls
5023 1641 Pls
6749 1732 Pls
1570 1867 Pls
3297 2012 Pls
5023 2183 Pls
6749 1594 Pls
1570 1821 Pls
3297 1816 Pls
5023 2000 Pls
6749 2006 Pls
1570 1637 Pls
3297 2103 Pls
5023 2133 Pls
6749 1918 Pls
1570 1587 Pls
3297 1918 Pls
5023 2207 Pls
6749 1872 Pls
1570 3613 Pls
3297 2862 Pls
5023 2633 Pls
6749 1942 Pls
1570 3781 Pls
3297 2878 Pls
5023 2326 Pls
6749 2212 Pls
1570 3071 Pls
3297 3137 Pls
5023 2443 Pls
6749 2023 Pls
1570 3728 Pls
3297 2608 Pls
5023 2036 Pls
6749 1453 Pls
1570 2657 Pls
3297 2324 Pls
5023 1855 Pls
6749 1726 Pls
1570 1588 Pls
3297 1308 Pls
5023 1307 Pls
6749 1284 Pls
1570 2192 Pls
3297 1794 Pls
5023 1536 Pls
6749 1454 Pls
1570 3516 Pls
3297 1742 Pls
5023 1392 Pls
6749 1567 Pls
1570 2988 Pls
3297 1915 Pls
5023 1732 Pls
6749 1649 Pls
1570 3086 Pls
3297 2479 Pls
5023 1929 Pls
6749 1528 Pls
1570 3958 Pls
3297 3302 Pls
5023 2719 Pls
6749 2367 Pls
1570 3887 Pls
3297 2847 Pls
5023 2773 Pls
6749 2302 Pls
1570 3987 Pls
3297 2939 Pls
5023 2628 Pls
6749 2187 Pls
1570 3788 Pls
3297 2889 Pls
5023 2360 Pls
6749 2183 Pls
1570 3133 Pls
3297 2583 Pls
5023 2159 Pls
6749 1921 Pls
1570 2601 Pls
3297 1707 Pls
5023 1294 Pls
6749 1422 Pls
1570 2624 Pls
3297 2708 Pls
5023 1930 Pls
6749 1723 Pls
1570 2535 Pls
3297 2210 Pls
5023 1701 Pls
6749 1710 Pls
1570 3040 Pls
3297 2606 Pls
5023 2147 Pls
6749 1771 Pls
1570 3026 Pls
3297 2402 Pls
5023 2165 Pls
6749 2138 Pls
1570 4007 Pls
3297 3345 Pls
5023 3099 Pls
6749 2675 Pls
1570 4245 Pls
3297 3256 Pls
5023 2736 Pls
6749 2734 Pls
1570 4367 Pls
3297 3429 Pls
5023 2546 Pls
6749 2511 Pls
1570 3613 Pls
3297 2988 Pls
5023 2977 Pls
6749 2409 Pls
1570 3231 Pls
3297 2482 Pls
5023 2162 Pls
6749 1961 Pls
1570 2746 Pls
3297 2179 Pls
5023 1563 Pls
6749 1465 Pls
1570 3085 Pls
3297 2198 Pls
5023 1640 Pls
6749 1871 Pls
1570 2000 Pls
3297 2426 Pls
5023 1894 Pls
6749 1939 Pls
1570 2687 Pls
3297 2398 Pls
5023 2158 Pls
6749 2238 Pls
1570 2704 Pls
3297 2519 Pls
5023 2444 Pls
6749 1939 Pls
1570 4367 Pls
3297 3679 Pls
5023 2979 Pls
6749 2450 Pls
1570 3948 Pls
3297 3639 Pls
5023 2864 Pls
6749 2545 Pls
1570 4187 Pls
3297 3302 Pls
5023 2622 Pls
6749 2283 Pls
1570 4216 Pls
3297 3176 Pls
5023 2822 Pls
6749 2521 Pls
1570 4078 Pls
3297 2882 Pls
5023 2388 Pls
6749 2232 Pls
1570 2751 Pls
3297 1941 Pls
5023 1784 Pls
6749 1404 Pls
1570 2299 Pls
3297 2333 Pls
5023 1720 Pls
6749 1698 Pls
1570 2088 Pls
3297 2294 Pls
5023 1993 Pls
6749 2114 Pls
1570 2283 Pls
3297 2053 Pls
5023 2141 Pls
6749 2109 Pls
1570 1972 Pls
3297 2269 Pls
5023 1984 Pls
6749 2098 Pls
1570 3911 Pls
3297 3114 Pls
5023 2889 Pls
6749 2585 Pls
1570 4253 Pls
3297 3225 Pls
5023 3073 Pls
6749 2290 Pls
1570 4229 Pls
3297 3116 Pls
5023 3070 Pls
6749 2599 Pls
1570 4407 Pls
3297 3492 Pls
5023 2726 Pls
6749 2190 Pls
1570 3992 Pls
3297 2710 Pls
5023 2459 Pls
6749 2047 Pls
1570 2245 Pls
3297 2405 Pls
5023 1636 Pls
6749 1551 Pls
1570 1787 Pls
3297 2110 Pls
5023 1795 Pls
6749 1951 Pls
1570 2022 Pls
3297 2021 Pls
5023 1919 Pls
6749 1997 Pls
1570 1769 Pls
3297 2021 Pls
5023 1885 Pls
6749 1831 Pls
1570 1605 Pls
3297 2041 Pls
5023 2119 Pls
6749 2175 Pls
1570 3621 Pls
3297 2812 Pls
5023 2421 Pls
6749 2228 Pls
1570 3949 Pls
3297 2862 Pls
5023 2229 Pls
6749 2214 Pls
1570 4082 Pls
3297 2875 Pls
5023 2139 Pls
6749 2141 Pls
1570 3568 Pls
3297 2717 Pls
5023 2003 Pls
6749 1632 Pls
1570 3088 Pls
3297 2316 Pls
5023 1779 Pls
6749 1726 Pls
1570 2271 Pls
3297 1387 Pls
5023 1371 Pls
6749 1320 Pls
1570 2376 Pls
3297 1534 Pls
5023 1490 Pls
6749 1436 Pls
1570 3454 Pls
3297 2358 Pls
5023 1706 Pls
6749 2106 Pls
1570 3610 Pls
3297 2172 Pls
5023 1652 Pls
6749 1616 Pls
1570 3253 Pls
3297 2367 Pls
5023 1899 Pls
6749 1916 Pls
1570 4177 Pls
3297 3387 Pls
5023 2854 Pls
6749 2599 Pls
1570 3898 Pls
3297 2853 Pls
5023 2828 Pls
6749 2452 Pls
1570 4039 Pls
3297 3356 Pls
5023 2535 Pls
6749 2451 Pls
1570 3553 Pls
3297 3077 Pls
5023 2648 Pls
6749 2024 Pls
1570 3614 Pls
3297 2232 Pls
5023 2176 Pls
6749 2011 Pls
1570 2728 Pls
3297 1963 Pls
5023 1570 Pls
6749 1305 Pls
1570 3189 Pls
3297 1828 Pls
5023 1683 Pls
6749 1514 Pls
1570 3005 Pls
3297 2394 Pls
5023 1927 Pls
6749 1935 Pls
1570 2773 Pls
3297 2397 Pls
5023 2271 Pls
6749 2049 Pls
1570 2670 Pls
3297 2394 Pls
5023 2072 Pls
6749 2224 Pls
1570 4063 Pls
3297 3660 Pls
5023 2822 Pls
6749 2842 Pls
1570 4387 Pls
3297 3291 Pls
5023 2778 Pls
6749 2501 Pls
1570 4326 Pls
3297 3191 Pls
5023 2658 Pls
6749 2460 Pls
1570 3607 Pls
3297 3198 Pls
5023 2476 Pls
6749 2259 Pls
1570 3448 Pls
3297 2478 Pls
5023 1940 Pls
6749 2086 Pls
1570 2676 Pls
3297 1725 Pls
5023 1557 Pls
6749 1523 Pls
1570 2894 Pls
3297 2329 Pls
5023 1806 Pls
6749 1533 Pls
1570 3624 Pls
3297 2077 Pls
5023 2191 Pls
6749 1832 Pls
1570 2427 Pls
3297 2626 Pls
5023 2405 Pls
6749 2027 Pls
1570 2464 Pls
3297 2229 Pls
5023 1861 Pls
6749 2027 Pls
1570 4162 Pls
3297 3608 Pls
5023 2706 Pls
6749 2634 Pls
1570 4216 Pls
3297 3320 Pls
5023 2768 Pls
6749 2409 Pls
1570 4176 Pls
3297 3215 Pls
5023 2944 Pls
6749 2604 Pls
1570 3882 Pls
3297 3503 Pls
5023 2367 Pls
6749 2335 Pls
1570 3705 Pls
3297 2914 Pls
5023 2898 Pls
6749 2117 Pls
1570 2455 Pls
3297 1904 Pls
5023 1668 Pls
6749 1538 Pls
1570 2298 Pls
3297 1972 Pls
5023 1743 Pls
6749 1801 Pls
1570 2472 Pls
3297 2205 Pls
5023 1995 Pls
6749 1803 Pls
1570 2837 Pls
3297 2188 Pls
5023 2277 Pls
6749 1958 Pls
1570 2268 Pls
3297 2334 Pls
5023 2118 Pls
6749 1882 Pls
1570 4335 Pls
3297 3436 Pls
5023 3111 Pls
6749 2607 Pls
1570 4052 Pls
3297 3411 Pls
5023 3064 Pls
6749 2870 Pls
1570 4174 Pls
3297 3429 Pls
5023 3021 Pls
6749 2451 Pls
1570 4101 Pls
3297 3211 Pls
5023 2809 Pls
6749 2762 Pls
1570 3377 Pls
3297 2963 Pls
5023 2487 Pls
6749 2141 Pls
1570 2281 Pls
3297 2093 Pls
5023 1518 Pls
6749 1554 Pls
1570 2075 Pls
3297 2025 Pls
5023 1768 Pls
6749 1886 Pls
1570 2416 Pls
3297 2231 Pls
5023 2159 Pls
6749 2318 Pls
1570 2072 Pls
3297 2258 Pls
5023 1650 Pls
6749 2106 Pls
1570 2095 Pls
3297 2246 Pls
5023 2107 Pls
6749 2237 Pls
1570 3450 Pls
3297 2666 Pls
5023 2906 Pls
6749 2129 Pls
1570 3716 Pls
3297 2520 Pls
5023 2777 Pls
6749 2107 Pls
1570 3711 Pls
3297 2829 Pls
5023 2550 Pls
6749 1880 Pls
1570 3174 Pls
3297 2279 Pls
5023 2259 Pls
6749 1913 Pls
1570 3272 Pls
3297 2376 Pls
5023 1713 Pls
6749 1603 Pls
1570 2181 Pls
3297 1036 Pls
5023 1168 Pls
6749 1254 Pls
1570 2290 Pls
3297 1545 Pls
5023 1714 Pls
6749 1384 Pls
1570 2961 Pls
3297 2188 Pls
5023 1577 Pls
6749 1521 Pls
1570 2608 Pls
3297 2117 Pls
5023 1773 Pls
6749 1485 Pls
1570 3782 Pls
3297 2584 Pls
5023 1823 Pls
6749 1796 Pls
1570 3970 Pls
3297 3423 Pls
5023 2457 Pls
6749 2371 Pls
1570 3938 Pls
3297 2979 Pls
5023 2850 Pls
6749 2355 Pls
1570 3264 Pls
3297 2996 Pls
5023 2699 Pls
6749 2199 Pls
1570 4022 Pls
3297 2663 Pls
5023 2214 Pls
6749 2294 Pls
1570 3485 Pls
3297 2693 Pls
5023 2144 Pls
6749 1735 Pls
1570 2341 Pls
3297 1632 Pls
5023 1544 Pls
6749 1283 Pls
1570 3261 Pls
3297 2015 Pls
5023 1679 Pls
6749 1766 Pls
1570 2528 Pls
3297 2006 Pls
5023 1971 Pls
6749 1641 Pls
1570 3023 Pls
3297 2201 Pls
5023 1998 Pls
6749 1792 Pls
1570 3458 Pls
3297 2428 Pls
5023 2227 Pls
6749 2167 Pls
1570 4116 Pls
3297 3563 Pls
5023 2968 Pls
6749 2766 Pls
1570 3855 Pls
3297 3359 Pls
5023 2908 Pls
6749 2541 Pls
1570 3419 Pls
3297 3430 Pls
5023 2996 Pls
6749 2362 Pls
1570 4160 Pls
3297 3282 Pls
5023 2529 Pls
6749 2376 Pls
1570 3756 Pls
3297 2633 Pls
5023 2463 Pls
6749 1889 Pls
1570 2436 Pls
3297 1624 Pls
5023 1696 Pls
6749 1454 Pls
1570 2735 Pls
3297 2446 Pls
5023 1849 Pls
6749 1684 Pls
1570 3146 Pls
3297 2462 Pls
5023 2139 Pls
6749 2168 Pls
1570 2947 Pls
3297 2212 Pls
5023 2004 Pls
6749 1784 Pls
1570 2575 Pls
3297 2161 Pls
5023 2173 Pls
6749 2071 Pls
1570 4198 Pls
3297 3408 Pls
5023 3124 Pls
6749 2464 Pls
1570 4298 Pls
3297 3344 Pls
5023 3102 Pls
6749 2772 Pls
1570 4049 Pls
3297 3225 Pls
5023 2516 Pls
6749 2545 Pls
1570 4129 Pls
3297 2866 Pls
5023 2270 Pls
6749 2313 Pls
1570 3746 Pls
3297 2715 Pls
5023 2619 Pls
6749 2286 Pls
1570 2375 Pls
3297 2369 Pls
5023 1736 Pls
6749 1465 Pls
1570 2838 Pls
3297 1692 Pls
5023 2116 Pls
6749 2024 Pls
1570 2352 Pls
3297 2120 Pls
5023 2319 Pls
6749 2168 Pls
1570 2364 Pls
3297 2325 Pls
5023 1979 Pls
6749 2241 Pls
1570 2489 Pls
3297 2326 Pls
5023 2124 Pls
6749 2277 Pls
1570 4378 Pls
3297 3887 Pls
5023 3065 Pls
6749 2684 Pls
1570 3902 Pls
3297 3468 Pls
5023 3268 Pls
6749 2571 Pls
1570 3856 Pls
3297 3573 Pls
5023 2701 Pls
6749 2916 Pls
1570 3887 Pls
3297 3159 Pls
5023 2900 Pls
6749 2007 Pls
1570 3937 Pls
3297 2925 Pls
5023 2664 Pls
6749 2171 Pls
1570 2929 Pls
3297 1902 Pls
5023 1772 Pls
6749 1504 Pls
1570 2127 Pls
3297 2008 Pls
5023 1573 Pls
6749 1866 Pls
1570 2260 Pls
3297 2316 Pls
5023 2045 Pls
6749 1986 Pls
1570 2108 Pls
3297 2278 Pls
5023 1821 Pls
6749 2070 Pls
1570 1841 Pls
3297 2124 Pls
5023 2052 Pls
6749 2239 Pls
1570 3621 Pls
3297 2899 Pls
5023 2566 Pls
6749 2108 Pls
1570 3304 Pls
3297 3139 Pls
5023 2342 Pls
6749 2230 Pls
1570 3844 Pls
3297 2505 Pls
5023 1996 Pls
6749 2030 Pls
1570 3570 Pls
3297 2719 Pls
5023 2078 Pls
6749 2042 Pls
1570 2972 Pls
3297 2125 Pls
5023 1810 Pls
6749 1453 Pls
1570 2376 Pls
3297 1652 Pls
5023 1330 Pls
6749 1147 Pls
1570 2398 Pls
3297 1552 Pls
5023 1500 Pls
6749 1355 Pls
1570 3141 Pls
3297 2082 Pls
5023 1636 Pls
6749 1394 Pls
1570 2806 Pls
3297 1945 Pls
5023 1835 Pls
6749 1463 Pls
1570 2526 Pls
3297 2262 Pls
5023 2045 Pls
6749 1758 Pls
1570 3895 Pls
3297 3271 Pls
5023 2941 Pls
6749 2503 Pls
1570 4201 Pls
3297 3217 Pls
5023 2920 Pls
6749 2378 Pls
1570 3941 Pls
3297 3104 Pls
5023 2698 Pls
6749 2322 Pls
1570 3777 Pls
3297 2954 Pls
5023 2346 Pls
6749 1918 Pls
1570 3471 Pls
3297 2781 Pls
5023 1906 Pls
6749 1967 Pls
1570 2152 Pls
3297 1545 Pls
5023 1794 Pls
6749 1383 Pls
1570 2258 Pls
3297 2096 Pls
5023 1741 Pls
6749 1583 Pls
1570 2164 Pls
3297 2234 Pls
5023 2068 Pls
6749 1519 Pls
1570 3781 Pls
3297 2595 Pls
5023 2189 Pls
6749 1622 Pls
1570 2999 Pls
3297 2702 Pls
5023 2246 Pls
6749 1752 Pls
1570 4296 Pls
3297 3172 Pls
5023 2789 Pls
6749 2650 Pls
1570 4223 Pls
3297 3078 Pls
5023 2775 Pls
6749 2688 Pls
1570 4269 Pls
3297 3196 Pls
5023 2715 Pls
6749 2627 Pls
1570 3540 Pls
3297 3272 Pls
5023 2475 Pls
6749 2075 Pls
1570 3330 Pls
3297 3101 Pls
5023 2528 Pls
6749 1958 Pls
1570 2278 Pls
3297 1718 Pls
5023 1201 Pls
6749 1560 Pls
1570 2996 Pls
3297 2313 Pls
5023 1944 Pls
6749 1798 Pls
1570 2869 Pls
3297 2278 Pls
5023 1969 Pls
6749 1890 Pls
1570 2833 Pls
3297 2398 Pls
5023 2194 Pls
6749 1733 Pls
1570 3021 Pls
3297 2591 Pls
5023 2202 Pls
6749 1948 Pls
1570 4168 Pls
3297 3543 Pls
5023 3144 Pls
6749 2705 Pls
1570 4272 Pls
3297 3676 Pls
5023 3025 Pls
6749 2495 Pls
1570 4188 Pls
3297 3326 Pls
5023 3118 Pls
6749 2499 Pls
1570 3574 Pls
3297 3224 Pls
5023 2713 Pls
6749 2299 Pls
1570 3794 Pls
3297 2895 Pls
5023 2821 Pls
6749 1959 Pls
1570 2153 Pls
3297 2099 Pls
5023 1806 Pls
6749 1516 Pls
1570 2580 Pls
3297 2387 Pls
5023 1983 Pls
6749 1804 Pls
1570 2373 Pls
3297 2294 Pls
5023 2096 Pls
6749 1724 Pls
1570 2550 Pls
3297 2357 Pls
5023 2052 Pls
6749 1876 Pls
1570 2463 Pls
3297 2461 Pls
5023 2188 Pls
6749 2086 Pls
1570 4388 Pls
3297 3754 Pls
5023 3131 Pls
6749 2897 Pls
1570 4050 Pls
3297 3588 Pls
5023 3381 Pls
6749 2955 Pls
1570 3895 Pls
3297 3506 Pls
5023 2887 Pls
6749 2558 Pls
1570 4112 Pls
3297 3188 Pls
5023 2638 Pls
6749 2385 Pls
1570 3482 Pls
3297 2889 Pls
5023 2494 Pls
6749 2284 Pls
1570 2765 Pls
3297 1895 Pls
5023 1713 Pls
6749 1483 Pls
1570 2213 Pls
3297 2765 Pls
5023 1570 Pls
6749 1665 Pls
1570 2357 Pls
3297 2277 Pls
5023 1895 Pls
6749 1714 Pls
1570 2007 Pls
3297 2400 Pls
5023 2184 Pls
6749 1930 Pls
1570 1991 Pls
3297 1712 Pls
5023 2240 Pls
6749 2243 Pls
1570 3515 Pls
3297 3369 Pls
5023 2784 Pls
6749 2362 Pls
1570 4005 Pls
3297 2746 Pls
5023 2347 Pls
6749 2069 Pls
1570 3689 Pls
3297 2791 Pls
5023 2289 Pls
6749 2129 Pls
1570 3138 Pls
3297 2618 Pls
5023 2316 Pls
6749 1875 Pls
1570 2968 Pls
3297 2298 Pls
5023 1897 Pls
6749 1719 Pls
1570 2121 Pls
3297 1545 Pls
5023 1109 Pls
6749 1111 Pls
1570 2586 Pls
3297 2024 Pls
5023 1630 Pls
6749 1254 Pls
1570 2676 Pls
3297 1842 Pls
5023 1545 Pls
6749 1494 Pls
1570 3255 Pls
3297 1811 Pls
5023 1829 Pls
6749 1423 Pls
1570 2841 Pls
3297 1905 Pls
5023 1687 Pls
6749 1453 Pls
1570 4128 Pls
3297 3104 Pls
5023 2648 Pls
6749 2194 Pls
1570 4042 Pls
3297 3308 Pls
5023 2441 Pls
6749 2319 Pls
1570 3934 Pls
3297 3002 Pls
5023 2641 Pls
6749 2246 Pls
1570 3161 Pls
3297 2856 Pls
5023 2390 Pls
6749 2146 Pls
1570 3542 Pls
3297 2516 Pls
5023 2111 Pls
6749 1922 Pls
1570 1805 Pls
3297 1844 Pls
5023 1486 Pls
6749 1404 Pls
1570 3068 Pls
3297 2092 Pls
5023 1819 Pls
6749 1805 Pls
1570 2633 Pls
3297 2280 Pls
5023 1989 Pls
6749 1715 Pls
1570 3136 Pls
3297 2570 Pls
5023 1756 Pls
6749 1907 Pls
1570 3380 Pls
3297 2410 Pls
5023 2346 Pls
6749 1849 Pls
1570 4138 Pls
3297 3174 Pls
5023 2848 Pls
6749 2558 Pls
1570 4272 Pls
3297 3476 Pls
5023 3003 Pls
6749 2246 Pls
1570 4044 Pls
3297 3244 Pls
5023 2418 Pls
6749 2648 Pls
1570 3525 Pls
3297 3149 Pls
5023 2367 Pls
6749 2214 Pls
1570 3568 Pls
3297 2812 Pls
5023 2065 Pls
6749 2084 Pls
1570 2543 Pls
3297 1897 Pls
5023 1703 Pls
6749 1407 Pls
1570 3085 Pls
3297 2006 Pls
5023 1957 Pls
6749 1603 Pls
1570 2737 Pls
3297 2531 Pls
5023 2101 Pls
6749 1726 Pls
1570 2720 Pls
3297 2550 Pls
5023 2583 Pls
6749 1986 Pls
1570 2612 Pls
3297 2408 Pls
5023 2052 Pls
6749 2002 Pls
1570 4246 Pls
3297 3430 Pls
5023 3039 Pls
6749 2658 Pls
1570 3901 Pls
3297 3630 Pls
5023 2946 Pls
6749 2521 Pls
1570 4070 Pls
3297 2970 Pls
5023 2528 Pls
6749 2317 Pls
1570 3895 Pls
3297 2488 Pls
5023 2305 Pls
6749 2509 Pls
1570 3744 Pls
3297 2824 Pls
5023 2316 Pls
6749 1795 Pls
1570 2374 Pls
3297 2126 Pls
5023 1692 Pls
6749 1744 Pls
1570 2787 Pls
3297 1908 Pls
5023 2134 Pls
6749 1673 Pls
1570 2633 Pls
3297 2004 Pls
5023 1823 Pls
6749 2150 Pls
1570 2441 Pls
3297 2634 Pls
5023 1757 Pls
6749 2204 Pls
1570 2094 Pls
3297 2147 Pls
5023 2086 Pls
6749 2290 Pls
1570 4122 Pls
3297 3354 Pls
5023 3236 Pls
6749 2713 Pls
1570 4370 Pls
3297 3654 Pls
5023 2940 Pls
6749 2319 Pls
1570 4278 Pls
3297 3557 Pls
5023 2912 Pls
6749 2640 Pls
1570 3794 Pls
3297 3384 Pls
5023 3017 Pls
6749 2356 Pls
1570 3946 Pls
3297 3181 Pls
5023 2619 Pls
6749 2499 Pls
1570 2735 Pls
3297 2125 Pls
5023 1811 Pls
6749 1578 Pls
1570 2336 Pls
3297 1906 Pls
5023 2066 Pls
6749 2055 Pls
1570 2578 Pls
3297 1943 Pls
5023 2008 Pls
6749 1958 Pls
1570 2452 Pls
3297 2393 Pls
5023 1829 Pls
6749 1935 Pls
1570 2297 Pls
3297 1963 Pls
5023 2071 Pls
6749 1994 Pls
1570 4026 Pls
3297 2826 Pls
5023 2311 Pls
6749 2112 Pls
1570 3737 Pls
3297 2910 Pls
5023 2383 Pls
6749 2105 Pls
1570 3568 Pls
3297 2752 Pls
5023 2598 Pls
6749 2224 Pls
1570 3437 Pls
3297 2335 Pls
5023 2117 Pls
6749 1853 Pls
1570 2976 Pls
3297 2189 Pls
5023 1938 Pls
6749 1610 Pls
1570 2271 Pls
3297 1482 Pls
5023 1208 Pls
6749 1209 Pls
1570 2060 Pls
3297 1298 Pls
5023 1711 Pls
6749 1395 Pls
1570 2803 Pls
3297 1670 Pls
5023 1550 Pls
6749 1554 Pls
1570 3148 Pls
3297 2226 Pls
5023 1645 Pls
6749 1508 Pls
1570 2957 Pls
3297 2474 Pls
5023 2175 Pls
6749 1808 Pls
1570 3892 Pls
3297 3341 Pls
5023 2496 Pls
6749 2393 Pls
1570 3767 Pls
3297 3216 Pls
5023 2489 Pls
6749 2269 Pls
1570 4122 Pls
3297 2973 Pls
5023 2378 Pls
6749 2084 Pls
1570 3796 Pls
3297 2725 Pls
5023 2444 Pls
6749 1892 Pls
1570 2888 Pls
3297 2793 Pls
5023 2053 Pls
6749 1836 Pls
1570 2398 Pls
3297 1480 Pls
5023 1371 Pls
6749 1464 Pls
1570 2616 Pls
3297 2390 Pls
5023 1953 Pls
6749 1629 Pls
1570 2971 Pls
3297 2354 Pls
5023 1880 Pls
6749 1675 Pls
1570 3047 Pls
3297 2550 Pls
5023 2215 Pls
6749 2116 Pls
1570 3453 Pls
3297 2200 Pls
5023 2034 Pls
6749 2038 Pls
1570 4292 Pls
3297 2956 Pls
5023 3060 Pls
6749 2604 Pls
1570 4302 Pls
3297 3183 Pls
5023 2774 Pls
6749 2519 Pls
1570 3888 Pls
3297 3455 Pls
5023 2682 Pls
6749 2209 Pls
1570 4004 Pls
3297 3075 Pls
5023 2582 Pls
6749 2314 Pls
1570 3593 Pls
3297 3003 Pls
5023 2001 Pls
6749 1860 Pls
1570 2528 Pls
3297 1893 Pls
5023 1644 Pls
6749 1378 Pls
1570 2844 Pls
3297 2242 Pls
5023 1694 Pls
6749 1740 Pls
1570 3141 Pls
3297 2325 Pls
5023 1902 Pls
6749 1640 Pls
1570 3111 Pls
3297 2380 Pls
5023 2252 Pls
6749 1657 Pls
1570 3217 Pls
3297 2423 Pls
5023 2335 Pls
6749 1716 Pls
1570 4084 Pls
3297 3344 Pls
5023 3189 Pls
6749 2574 Pls
1570 4489 Pls
3297 3404 Pls
5023 3086 Pls
6749 2537 Pls
1570 3639 Pls
3297 3267 Pls
5023 2738 Pls
6749 2610 Pls
1570 3958 Pls
3297 2955 Pls
5023 2701 Pls
6749 2317 Pls
1570 3773 Pls
3297 3244 Pls
5023 2263 Pls
6749 2184 Pls
1570 2731 Pls
3297 2078 Pls
5023 1720 Pls
6749 1488 Pls
1570 2623 Pls
3297 2436 Pls
5023 1895 Pls
6749 1653 Pls
1570 2503 Pls
3297 2330 Pls
5023 2142 Pls
6749 1765 Pls
1570 2543 Pls
3297 2587 Pls
5023 2298 Pls
6749 1724 Pls
1570 2458 Pls
3297 2572 Pls
5023 2068 Pls
6749 2112 Pls
1570 4195 Pls
3297 3487 Pls
5023 2747 Pls
6749 2482 Pls
1570 4270 Pls
3297 3174 Pls
5023 2779 Pls
6749 2260 Pls
1570 4204 Pls
3297 3430 Pls
5023 2868 Pls
6749 2449 Pls
1570 4361 Pls
3297 3484 Pls
5023 3039 Pls
6749 2332 Pls
1570 3943 Pls
3297 3121 Pls
5023 2702 Pls
6749 2417 Pls
1570 2995 Pls
3297 2089 Pls
5023 2114 Pls
6749 1661 Pls
1570 2798 Pls
3297 1900 Pls
5023 2167 Pls
6749 1933 Pls
1570 2944 Pls
3297 2390 Pls
5023 1770 Pls
6749 1654 Pls
1570 2417 Pls
3297 2297 Pls
5023 2003 Pls
6749 1986 Pls
1570 2129 Pls
3297 2434 Pls
5023 2261 Pls
6749 1990 Pls
1570 3887 Pls
3297 2626 Pls
5023 2597 Pls
6749 2152 Pls
1570 3606 Pls
3297 2997 Pls
5023 2390 Pls
6749 1816 Pls
1570 3588 Pls
3297 2995 Pls
5023 2304 Pls
6749 2122 Pls
1570 3323 Pls
3297 2523 Pls
5023 1886 Pls
6749 1799 Pls
1570 3312 Pls
3297 2208 Pls
5023 2136 Pls
6749 1630 Pls
1570 1745 Pls
3297 1258 Pls
5023 1161 Pls
6749 1151 Pls
1570 2683 Pls
3297 1595 Pls
5023 1266 Pls
6749 1395 Pls
1570 3130 Pls
3297 1898 Pls
5023 1485 Pls
6749 1440 Pls
1570 3330 Pls
3297 2057 Pls
5023 2017 Pls
6749 1566 Pls
1570 2976 Pls
3297 2221 Pls
5023 1685 Pls
6749 1427 Pls
1570 4295 Pls
3297 3062 Pls
5023 3002 Pls
6749 2367 Pls
1570 4099 Pls
3297 3035 Pls
5023 2964 Pls
6749 2635 Pls
1570 3971 Pls
3297 3281 Pls
5023 2760 Pls
6749 2477 Pls
1570 3756 Pls
3297 2998 Pls
5023 2415 Pls
6749 2177 Pls
1570 3084 Pls
3297 2551 Pls
5023 2057 Pls
6749 1811 Pls
1570 2668 Pls
3297 2136 Pls
5023 1438 Pls
6749 1183 Pls
1570 2278 Pls
3297 2065 Pls
5023 1793 Pls
6749 1528 Pls
1570 3300 Pls
3297 1962 Pls
5023 1886 Pls
6749 1596 Pls
1570 2803 Pls
3297 2188 Pls
5023 2224 Pls
6749 1719 Pls
1570 3085 Pls
3297 2774 Pls
5023 2416 Pls
6749 1551 Pls
1570 4233 Pls
3297 3414 Pls
5023 2994 Pls
6749 2478 Pls
1570 4312 Pls
3297 3400 Pls
5023 2421 Pls
6749 2423 Pls
1570 3902 Pls
3297 2836 Pls
5023 2750 Pls
6749 2323 Pls
1570 3685 Pls
3297 3515 Pls
5023 1990 Pls
6749 2355 Pls
1570 3215 Pls
3297 2703 Pls
5023 2550 Pls
6749 2120 Pls
1570 2655 Pls
3297 1649 Pls
5023 1588 Pls
6749 1396 Pls
1570 3115 Pls
3297 2345 Pls
5023 1886 Pls
6749 1727 Pls
1570 2784 Pls
3297 2234 Pls
5023 2097 Pls
6749 1856 Pls
1570 3185 Pls
3297 2389 Pls
5023 1826 Pls
6749 2023 Pls
1570 3592 Pls
3297 2577 Pls
5023 2251 Pls
6749 2014 Pls
1570 4063 Pls
3297 3518 Pls
5023 2779 Pls
6749 2515 Pls
1570 4089 Pls
3297 3458 Pls
5023 3148 Pls
6749 2423 Pls
1570 3947 Pls
3297 3104 Pls
5023 3005 Pls
6749 2423 Pls
1570 3750 Pls
3297 3188 Pls
5023 2864 Pls
6749 2352 Pls
1570 3253 Pls
3297 2815 Pls
5023 2262 Pls
6749 2183 Pls
1570 2733 Pls
3297 1770 Pls
5023 1090 Pls
6749 1218 Pls
1570 3176 Pls
3297 2132 Pls
5023 1941 Pls
6749 1724 Pls
1570 2965 Pls
3297 2303 Pls
5023 1884 Pls
6749 1971 Pls
1570 3256 Pls
3297 2479 Pls
5023 2084 Pls
6749 1948 Pls
1570 3048 Pls
3297 2922 Pls
5023 2212 Pls
6749 2120 Pls
1570 4384 Pls
3297 3489 Pls
5023 3183 Pls
6749 2775 Pls
1570 4423 Pls
3297 3495 Pls
5023 3300 Pls
6749 2561 Pls
1570 4151 Pls
3297 3260 Pls
5023 2936 Pls
6749 2526 Pls
1570 3932 Pls
3297 3305 Pls
5023 2977 Pls
6749 2684 Pls
1570 3981 Pls
3297 3170 Pls
5023 2253 Pls
6749 2143 Pls
1570 3038 Pls
3297 1756 Pls
5023 2037 Pls
6749 1616 Pls
1570 2552 Pls
3297 2304 Pls
5023 2226 Pls
6749 1845 Pls
1570 2460 Pls
3297 2543 Pls
5023 1733 Pls
6749 2082 Pls
1570 3396 Pls
3297 2218 Pls
5023 1784 Pls
6749 1927 Pls
1570 2897 Pls
3297 2503 Pls
5023 2039 Pls
6749 1932 Pls
1570 3803 Pls
3297 3412 Pls
5023 2463 Pls
6749 2152 Pls
1570 3649 Pls
3297 3214 Pls
5023 2603 Pls
6749 2174 Pls
1570 3728 Pls
3297 2203 Pls
5023 2135 Pls
6749 2004 Pls
1570 3778 Pls
3297 2599 Pls
5023 2232 Pls
6749 1776 Pls
1570 2968 Pls
3297 2197 Pls
5023 1798 Pls
6749 1651 Pls
1570 2008 Pls
3297 1638 Pls
5023 1253 Pls
6749 1183 Pls
1570 2376 Pls
3297 1885 Pls
5023 1451 Pls
6749 1234 Pls
1570 2871 Pls
3297 2068 Pls
5023 1578 Pls
6749 1313 Pls
1570 3047 Pls
3297 2117 Pls
5023 1696 Pls
6749 1403 Pls
1570 3158 Pls
3297 2443 Pls
5023 1682 Pls
6749 1457 Pls
1570 4161 Pls
3297 3636 Pls
5023 2509 Pls
6749 2514 Pls
1570 3986 Pls
3297 3668 Pls
5023 2772 Pls
6749 2298 Pls
1570 3686 Pls
3297 2942 Pls
5023 2638 Pls
6749 2061 Pls
1570 3503 Pls
3297 2711 Pls
5023 2220 Pls
6749 2103 Pls
1570 2995 Pls
3297 2860 Pls
5023 2106 Pls
6749 1580 Pls
1570 2691 Pls
3297 1609 Pls
5023 1386 Pls
6749 1333 Pls
1570 2608 Pls
3297 2014 Pls
5023 1729 Pls
6749 1623 Pls
1570 2726 Pls
3297 2372 Pls
5023 1691 Pls
6749 1505 Pls
1570 3687 Pls
3297 2585 Pls
5023 2079 Pls
6749 1785 Pls
1570 3452 Pls
3297 2146 Pls
5023 1700 Pls
6749 1795 Pls
1570 4296 Pls
3297 3527 Pls
5023 2991 Pls
6749 2203 Pls
1570 4378 Pls
3297 3211 Pls
5023 2909 Pls
6749 2261 Pls
1570 3695 Pls
3297 3326 Pls
5023 2706 Pls
6749 2309 Pls
1570 4252 Pls
3297 3053 Pls
5023 2740 Pls
6749 2283 Pls
1570 3095 Pls
3297 2527 Pls
5023 2112 Pls
6749 1761 Pls
1570 2346 Pls
3297 1559 Pls
5023 1769 Pls
6749 1398 Pls
1570 3283 Pls
3297 2239 Pls
5023 1998 Pls
6749 1835 Pls
1570 3537 Pls
3297 2160 Pls
5023 1905 Pls
6749 1925 Pls
1570 3621 Pls
3297 2889 Pls
5023 2190 Pls
6749 1818 Pls
1570 3009 Pls
3297 2760 Pls
5023 2243 Pls
6749 1644 Pls
1570 4204 Pls
3297 3315 Pls
5023 2922 Pls
6749 2505 Pls
1570 3724 Pls
3297 3399 Pls
5023 2952 Pls
6749 2525 Pls
1570 4387 Pls
3297 3562 Pls
5023 2575 Pls
6749 2145 Pls
1570 3964 Pls
3297 2954 Pls
5023 2844 Pls
6749 2572 Pls
1570 3625 Pls
3297 2935 Pls
5023 2314 Pls
6749 2098 Pls
1570 2823 Pls
3297 2102 Pls
5023 1817 Pls
6749 1216 Pls
1570 3068 Pls
3297 2299 Pls
5023 1834 Pls
6749 1682 Pls
1570 3018 Pls
3297 2490 Pls
5023 1957 Pls
6749 1949 Pls
1570 3651 Pls
3297 2812 Pls
5023 1998 Pls
6749 1904 Pls
1570 3281 Pls
3297 2220 Pls
5023 2284 Pls
6749 2138 Pls
1570 4378 Pls
3297 3935 Pls
5023 3008 Pls
6749 2953 Pls
1570 4191 Pls
3297 3419 Pls
5023 3091 Pls
6749 2639 Pls
1570 3998 Pls
3297 3399 Pls
5023 2983 Pls
6749 2542 Pls
1570 3667 Pls
3297 3173 Pls
5023 2710 Pls
6749 2754 Pls
1570 3868 Pls
3297 2935 Pls
5023 2529 Pls
6749 2333 Pls
1570 2841 Pls
3297 2365 Pls
5023 1552 Pls
6749 1489 Pls
1570 3272 Pls
3297 2544 Pls
5023 2212 Pls
6749 1916 Pls
1570 3133 Pls
3297 2247 Pls
5023 2151 Pls
6749 2030 Pls
1570 3472 Pls
3297 2707 Pls
5023 2158 Pls
6749 2049 Pls
1570 3001 Pls
3297 2285 Pls
5023 2149 Pls
6749 1957 Pls
1570 3777 Pls
3297 2771 Pls
5023 2077 Pls
6749 1890 Pls
1570 3651 Pls
3297 2994 Pls
5023 2208 Pls
6749 1972 Pls
1570 3857 Pls
3297 2364 Pls
5023 2173 Pls
6749 1955 Pls
1570 3308 Pls
3297 2526 Pls
5023 1940 Pls
6749 2031 Pls
1570 3038 Pls
3297 1909 Pls
5023 1715 Pls
6749 1365 Pls
1570 1850 Pls
3297 1638 Pls
5023 1155 Pls
6749 1108 Pls
1570 2271 Pls
3297 1638 Pls
5023 1312 Pls
6749 1466 Pls
1570 2736 Pls
3297 2000 Pls
5023 1654 Pls
6749 1279 Pls
1570 3381 Pls
3297 2665 Pls
5023 1833 Pls
6749 1398 Pls
1570 3524 Pls
3297 1784 Pls
5023 1774 Pls
6749 1486 Pls
1570 4123 Pls
3297 3226 Pls
5023 2283 Pls
6749 2560 Pls
1570 3987 Pls
3297 3326 Pls
5023 2550 Pls
6749 2230 Pls
1570 3727 Pls
3297 2997 Pls
5023 2411 Pls
6749 2263 Pls
1570 3463 Pls
3297 2385 Pls
5023 2514 Pls
6749 2284 Pls
1570 3698 Pls
3297 2222 Pls
5023 2426 Pls
6749 1697 Pls
1570 2280 Pls
3297 1859 Pls
5023 1544 Pls
6749 1140 Pls
1570 2664 Pls
3297 2156 Pls
5023 1670 Pls
6749 1540 Pls
1570 2923 Pls
3297 1963 Pls
5023 2156 Pls
6749 1763 Pls
1570 3870 Pls
3297 2443 Pls
5023 1828 Pls
6749 1833 Pls
1570 3396 Pls
3297 2802 Pls
5023 2021 Pls
6749 1994 Pls
1570 4101 Pls
3297 3523 Pls
5023 2839 Pls
6749 2765 Pls
1570 4246 Pls
3297 3618 Pls
5023 2454 Pls
6749 2373 Pls
1570 4371 Pls
3297 3392 Pls
5023 2802 Pls
6749 2417 Pls
1570 3776 Pls
3297 3431 Pls
5023 2494 Pls
6749 1989 Pls
1570 3820 Pls
3297 2583 Pls
5023 2133 Pls
6749 1900 Pls
1570 2841 Pls
3297 1745 Pls
5023 1641 Pls
6749 1440 Pls
1570 2963 Pls
3297 1760 Pls
5023 1733 Pls
6749 1580 Pls
1570 3424 Pls
3297 2832 Pls
5023 1905 Pls
6749 1835 Pls
1570 2958 Pls
3297 2730 Pls
5023 2205 Pls
6749 1896 Pls
1570 3658 Pls
3297 2392 Pls
5023 2402 Pls
6749 1967 Pls
1570 4200 Pls
3297 3841 Pls
5023 2593 Pls
6749 2767 Pls
1570 4309 Pls
3297 3591 Pls
5023 3198 Pls
6749 2483 Pls
1570 3987 Pls
3297 3599 Pls
5023 2587 Pls
6749 2722 Pls
1570 4280 Pls
3297 3433 Pls
5023 2444 Pls
6749 2289 Pls
1570 3829 Pls
3297 2631 Pls
5023 2403 Pls
6749 2156 Pls
1570 2888 Pls
3297 1938 Pls
5023 1575 Pls
6749 1685 Pls
1570 3213 Pls
3297 2382 Pls
5023 2014 Pls
6749 1985 Pls
1570 3322 Pls
3297 2456 Pls
5023 2032 Pls
6749 1815 Pls
1570 3867 Pls
3297 2410 Pls
5023 2057 Pls
6749 2217 Pls
1570 2843 Pls
3297 2848 Pls
5023 2399 Pls
6749 2056 Pls
1570 4423 Pls
3297 3530 Pls
5023 2879 Pls
6749 2810 Pls
1570 4364 Pls
3297 3550 Pls
5023 2835 Pls
6749 2617 Pls
1570 3988 Pls
3297 3727 Pls
5023 3071 Pls
6749 2501 Pls
1570 3912 Pls
3297 3353 Pls
5023 2765 Pls
6749 2496 Pls
1570 3960 Pls
3297 3217 Pls
5023 2528 Pls
6749 2268 Pls
1570 2616 Pls
3297 2416 Pls
5023 1800 Pls
6749 1530 Pls
1570 2944 Pls
3297 1681 Pls
5023 1637 Pls
6749 1374 Pls
1570 3258 Pls
3297 2203 Pls
5023 2029 Pls
6749 1987 Pls
1570 3064 Pls
3297 2579 Pls
5023 2364 Pls
6749 1767 Pls
1570 3120 Pls
3297 2179 Pls
5023 2107 Pls
6749 2082 Pls
1570 3574 Pls
3297 2799 Pls
5023 2153 Pls
6749 2531 Pls
1570 3876 Pls
3297 3097 Pls
5023 2573 Pls
6749 2112 Pls
1570 3851 Pls
3297 2525 Pls
5023 2405 Pls
6749 1969 Pls
1570 3551 Pls
3297 2457 Pls
5023 2027 Pls
6749 1932 Pls
1570 3137 Pls
3297 2006 Pls
5023 1832 Pls
6749 1685 Pls
1570 2376 Pls
3297 1394 Pls
5023 1306 Pls
6749 1190 Pls
1570 2818 Pls
3297 1874 Pls
5023 1502 Pls
6749 1140 Pls
1570 2901 Pls
3297 1387 Pls
5023 1787 Pls
6749 1612 Pls
1570 2818 Pls
3297 1914 Pls
5023 1774 Pls
6749 1742 Pls
1570 2631 Pls
3297 2211 Pls
5023 1933 Pls
6749 1674 Pls
1570 3684 Pls
3297 3364 Pls
5023 2769 Pls
6749 2227 Pls
1570 3942 Pls
3297 3094 Pls
5023 2443 Pls
6749 2410 Pls
1570 3998 Pls
3297 2826 Pls
5023 2517 Pls
6749 2163 Pls
1570 3489 Pls
3297 2926 Pls
5023 2569 Pls
6749 2160 Pls
1570 3317 Pls
3297 2191 Pls
5023 2192 Pls
6749 1852 Pls
1570 2008 Pls
3297 1899 Pls
5023 1399 Pls
6749 1254 Pls
1570 2713 Pls
3297 2003 Pls
5023 1358 Pls
6749 1538 Pls
1570 3028 Pls
3297 2408 Pls
5023 2034 Pls
6749 1795 Pls
1570 3399 Pls
3297 2529 Pls
5023 1832 Pls
6749 1742 Pls
1570 3129 Pls
3297 2606 Pls
5023 1777 Pls
6749 1573 Pls
1570 4272 Pls
3297 3242 Pls
5023 2837 Pls
6749 2606 Pls
1570 4082 Pls
3297 3510 Pls
5023 2750 Pls
6749 2420 Pls
1570 3941 Pls
3297 3362 Pls
5023 2550 Pls
6749 2358 Pls
1570 3973 Pls
3297 2943 Pls
5023 2509 Pls
6749 2371 Pls
1570 3242 Pls
3297 2492 Pls
5023 2058 Pls
6749 1880 Pls
1570 2850 Pls
3297 1861 Pls
5023 1682 Pls
6749 1644 Pls
1570 2993 Pls
3297 2015 Pls
5023 1903 Pls
6749 1593 Pls
1570 3425 Pls
3297 2493 Pls
5023 2020 Pls
6749 1614 Pls
1570 3143 Pls
3297 2508 Pls
5023 2329 Pls
6749 1853 Pls
1570 3709 Pls
3297 2999 Pls
5023 2185 Pls
6749 1542 Pls
1570 4255 Pls
3297 3701 Pls
5023 2859 Pls
6749 2848 Pls
1570 4003 Pls
3297 3093 Pls
5023 3175 Pls
6749 2336 Pls
1570 3452 Pls
3297 3477 Pls
5023 2692 Pls
6749 2519 Pls
1570 4012 Pls
3297 3170 Pls
5023 2383 Pls
6749 2303 Pls
1570 3736 Pls
3297 2710 Pls
5023 2105 Pls
6749 2050 Pls
1570 2685 Pls
3297 1978 Pls
5023 1523 Pls
6749 1671 Pls
1570 3094 Pls
3297 2493 Pls
5023 1981 Pls
6749 1719 Pls
1570 3576 Pls
3297 3067 Pls
5023 1977 Pls
6749 1677 Pls
1570 3502 Pls
3297 2707 Pls
5023 2172 Pls
6749 1767 Pls
1570 3381 Pls
3297 2714 Pls
5023 2014 Pls
6749 1961 Pls
1570 4254 Pls
3297 3581 Pls
5023 3064 Pls
6749 2547 Pls
1570 4367 Pls
3297 3794 Pls
5023 3191 Pls
6749 2717 Pls
1570 4218 Pls
3297 3645 Pls
5023 2944 Pls
6749 2482 Pls
1570 4001 Pls
3297 3224 Pls
5023 2909 Pls
6749 2401 Pls
1570 3803 Pls
3297 2917 Pls
5023 2346 Pls
6749 1960 Pls
1570 3490 Pls
3297 2593 Pls
5023 1983 Pls
6749 1310 Pls
1570 3134 Pls
3297 2686 Pls
5023 1884 Pls
6749 1655 Pls
1570 2887 Pls
3297 2570 Pls
5023 1828 Pls
6749 1817 Pls
1570 3001 Pls
3297 2594 Pls
5023 2065 Pls
6749 1928 Pls
1570 3210 Pls
3297 2783 Pls
5023 2410 Pls
6749 2010 Pls
1570 4033 Pls
3297 3151 Pls
5023 2509 Pls
6749 2381 Pls
1570 3501 Pls
3297 3143 Pls
5023 2199 Pls
6749 2084 Pls
1570 3450 Pls
3297 3014 Pls
5023 2091 Pls
6749 2168 Pls
1570 3113 Pls
3297 2513 Pls
5023 2132 Pls
6749 1711 Pls
1570 2743 Pls
3297 2066 Pls
5023 1701 Pls
6749 1555 Pls
1570 2166 Pls
3297 1337 Pls
5023 1115 Pls
6749 1033 Pls
1570 2362 Pls
3297 1846 Pls
5023 1312 Pls
6749 1183 Pls
1570 2998 Pls
3297 1791 Pls
5023 1630 Pls
6749 1382 Pls
1570 2694 Pls
3297 1727 Pls
5023 1625 Pls
6749 1469 Pls
1570 2811 Pls
3297 2305 Pls
5023 1543 Pls
6749 1226 Pls
1570 4324 Pls
3297 3009 Pls
5023 2962 Pls
6749 2457 Pls
1570 3983 Pls
3297 3215 Pls
5023 2378 Pls
6749 2130 Pls
1570 4064 Pls
3297 2899 Pls
5023 2463 Pls
6749 2485 Pls
1570 3768 Pls
3297 2896 Pls
5023 2551 Pls
6749 2382 Pls
1570 3908 Pls
3297 2159 Pls
5023 2038 Pls
6749 1744 Pls
1570 2428 Pls
3297 1692 Pls
5023 1589 Pls
6749 1354 Pls
1570 3336 Pls
3297 2049 Pls
5023 1596 Pls
6749 1463 Pls
1570 3043 Pls
3297 2224 Pls
5023 1502 Pls
6749 1624 Pls
1570 3283 Pls
3297 2581 Pls
5023 1907 Pls
6749 1957 Pls
1570 3328 Pls
3297 2350 Pls
5023 2066 Pls
6749 1753 Pls
1570 4159 Pls
3297 3531 Pls
5023 3027 Pls
6749 2486 Pls
1570 3687 Pls
3297 3518 Pls
5023 2979 Pls
6749 2171 Pls
1570 4315 Pls
3297 3140 Pls
5023 2511 Pls
6749 2666 Pls
1570 3816 Pls
3297 2963 Pls
5023 2614 Pls
6749 2157 Pls
1570 3534 Pls
3297 2780 Pls
5023 1928 Pls
6749 2150 Pls
1570 3038 Pls
3297 2295 Pls
5023 1399 Pls
6749 1661 Pls
1570 2612 Pls
3297 2261 Pls
5023 1716 Pls
6749 1554 Pls
1570 2861 Pls
3297 2466 Pls
5023 2173 Pls
6749 1730 Pls
1570 3375 Pls
3297 2929 Pls
5023 2114 Pls
6749 1665 Pls
1570 3564 Pls
3297 2837 Pls
5023 2423 Pls
6749 1907 Pls
1570 4155 Pls
3297 3186 Pls
5023 2905 Pls
6749 2648 Pls
1570 4407 Pls
3297 3479 Pls
5023 3014 Pls
6749 2848 Pls
1570 4207 Pls
3297 3598 Pls
5023 3148 Pls
6749 2578 Pls
1570 4109 Pls
3297 3239 Pls
5023 2910 Pls
6749 2301 Pls
1570 3253 Pls
3297 3134 Pls
5023 2289 Pls
6749 1754 Pls
1570 2867 Pls
3297 2280 Pls
5023 1823 Pls
6749 1596 Pls
1570 2991 Pls
3297 2195 Pls
5023 1982 Pls
6749 1697 Pls
1570 3432 Pls
3297 2530 Pls
5023 1962 Pls
6749 1720 Pls
1570 3214 Pls
3297 2679 Pls
5023 2252 Pls
6749 1615 Pls
1570 3265 Pls
3297 2362 Pls
5023 2147 Pls
6749 1767 Pls
1570 4246 Pls
3297 3902 Pls
5023 3326 Pls
6749 2687 Pls
1570 4292 Pls
3297 3429 Pls
5023 3300 Pls
6749 2658 Pls
1570 4112 Pls
3297 3593 Pls
5023 3066 Pls
6749 2665 Pls
1570 3977 Pls
3297 3065 Pls
5023 2613 Pls
6749 2685 Pls
1570 3936 Pls
3297 3362 Pls
5023 2578 Pls
6749 2241 Pls
1570 2691 Pls
3297 2086 Pls
5023 1580 Pls
6749 1560 Pls
1570 3064 Pls
3297 2429 Pls
5023 2072 Pls
6749 1671 Pls
1570 3305 Pls
3297 2714 Pls
5023 2306 Pls
6749 1838 Pls
1570 3046 Pls
3297 2595 Pls
5023 2304 Pls
6749 1860 Pls
1570 3624 Pls
3297 2760 Pls
5023 2448 Pls
6749 1776 Pls
1570 4016 Pls
3297 2879 Pls
5023 2751 Pls
6749 2188 Pls
1570 3540 Pls
3297 2704 Pls
5023 2489 Pls
6749 2201 Pls
1570 3483 Pls
3297 2436 Pls
5023 2080 Pls
6749 2072 Pls
1570 3297 Pls
3297 2232 Pls
5023 2299 Pls
6749 1749 Pls
1570 2841 Pls
3297 2301 Pls
5023 1877 Pls
6749 1542 Pls
1570 1850 Pls
3297 1337 Pls
5023 1214 Pls
6749 1111 Pls
1570 2871 Pls
3297 1531 Pls
5023 1307 Pls
6749 1179 Pls
1570 2736 Pls
3297 1767 Pls
5023 1823 Pls
6749 1530 Pls
1570 3051 Pls
3297 1708 Pls
5023 1922 Pls
6749 1466 Pls
1570 2728 Pls
3297 2246 Pls
5023 1797 Pls
6749 1365 Pls
1570 4162 Pls
3297 2967 Pls
5023 2787 Pls
6749 2415 Pls
1570 4276 Pls
3297 2919 Pls
5023 2572 Pls
6749 2393 Pls
1570 3965 Pls
3297 2916 Pls
5023 2441 Pls
6749 2500 Pls
1570 3660 Pls
3297 2984 Pls
5023 2591 Pls
6749 2089 Pls
1570 3559 Pls
3297 2384 Pls
5023 2184 Pls
6749 1837 Pls
1570 1955 Pls
3297 1480 Pls
5023 1389 Pls
6749 1215 Pls
1570 2762 Pls
3297 1945 Pls
5023 1300 Pls
6749 1726 Pls
1570 3422 Pls
3297 2111 Pls
5023 1909 Pls
6749 1622 Pls
1570 3358 Pls
3297 2588 Pls
5023 2363 Pls
6749 1591 Pls
1570 3572 Pls
3297 2020 Pls
5023 2091 Pls
6749 1589 Pls
1570 4085 Pls
3297 3427 Pls
5023 3098 Pls
6749 2480 Pls
1570 4197 Pls
3297 3202 Pls
5023 2732 Pls
6749 2618 Pls
1570 4147 Pls
3297 2901 Pls
5023 2411 Pls
6749 2355 Pls
1570 3884 Pls
3297 3173 Pls
5023 2765 Pls
6749 2161 Pls
1570 3485 Pls
3297 2568 Pls
5023 2046 Pls
6749 1867 Pls
1570 2746 Pls
3297 2203 Pls
5023 1755 Pls
6749 1459 Pls
1570 2796 Pls
3297 2826 Pls
5023 1820 Pls
6749 1647 Pls
1570 3584 Pls
3297 2048 Pls
5023 2108 Pls
6749 1635 Pls
1570 3555 Pls
3297 2226 Pls
5023 1833 Pls
6749 1712 Pls
1570 3178 Pls
3297 2977 Pls
5023 2351 Pls
6749 2080 Pls
1570 4378 Pls
3297 3644 Pls
5023 2738 Pls
6749 2646 Pls
1570 4079 Pls
3297 3315 Pls
5023 2940 Pls
6749 2664 Pls
1570 3932 Pls
3297 3449 Pls
5023 2979 Pls
6749 2871 Pls
1570 3964 Pls
3297 2879 Pls
5023 2467 Pls
6749 2385 Pls
1570 3846 Pls
3297 2502 Pls
5023 2269 Pls
6749 2416 Pls
1570 2700 Pls
3297 1791 Pls
5023 1786 Pls
6749 1576 Pls
1570 3546 Pls
3297 2454 Pls
5023 1782 Pls
6749 1554 Pls
1570 3479 Pls
3297 2827 Pls
5023 2004 Pls
6749 1989 Pls
1570 3216 Pls
3297 2897 Pls
5023 2110 Pls
6749 1782 Pls
1570 3382 Pls
3297 2855 Pls
5023 2491 Pls
6749 1950 Pls
1570 4413 Pls
3297 3492 Pls
5023 3074 Pls
6749 2709 Pls
1570 4124 Pls
3297 3757 Pls
5023 3204 Pls
6749 2596 Pls
1570 4266 Pls
3297 3577 Pls
5023 2957 Pls
6749 2130 Pls
1570 3672 Pls
3297 3487 Pls
5023 3145 Pls
6749 2394 Pls
1570 3899 Pls
3297 2727 Pls
5023 2588 Pls
6749 2224 Pls
1570 3370 Pls
3297 1973 Pls
5023 1671 Pls
6749 1581 Pls
1570 3102 Pls
3297 2398 Pls
5023 2230 Pls
6749 1847 Pls
1570 3422 Pls
3297 2673 Pls
5023 1979 Pls
6749 2035 Pls
1570 3402 Pls
3297 2548 Pls
5023 1859 Pls
6749 1775 Pls
1570 3094 Pls
3297 2537 Pls
5023 2177 Pls
6749 2184 Pls
1570 3947 Pls
3297 2951 Pls
5023 2587 Pls
6749 2034 Pls
1570 3321 Pls
3297 2759 Pls
5023 2674 Pls
6749 2176 Pls
1570 3921 Pls
3297 2395 Pls
5023 2209 Pls
6749 2037 Pls
1570 3347 Pls
3297 2304 Pls
5023 1896 Pls
6749 1916 Pls
1570 3156 Pls
3297 2144 Pls
5023 2143 Pls
6749 1542 Pls
1570 2113 Pls
3297 1194 Pls
5023 1161 Pls
6749 1151 Pls
1570 2743 Pls
3297 1480 Pls
5023 1492 Pls
6749 1258 Pls
1570 2841 Pls
3297 2032 Pls
5023 1496 Pls
6749 1326 Pls
1570 2976 Pls
3297 1973 Pls
5023 1786 Pls
6749 1600 Pls
1570 2953 Pls
3297 2310 Pls
5023 1842 Pls
6749 1825 Pls
1570 3924 Pls
3297 2687 Pls
5023 2730 Pls
6749 2146 Pls
1570 4141 Pls
3297 2696 Pls
5023 2388 Pls
6749 2335 Pls
1570 4088 Pls
3297 3211 Pls
5023 2805 Pls
6749 2394 Pls
1570 3636 Pls
3297 2506 Pls
5023 2575 Pls
6749 2037 Pls
1570 3085 Pls
3297 2819 Pls
5023 2016 Pls
6749 1939 Pls
1570 2691 Pls
3297 1821 Pls
5023 1109 Pls
6749 1108 Pls
1570 2766 Pls
3297 1945 Pls
5023 1641 Pls
6749 1440 Pls
1570 2481 Pls
3297 2003 Pls
5023 2020 Pls
6749 1642 Pls
1570 3259 Pls
3297 2050 Pls
5023 1912 Pls
6749 1726 Pls
1570 3781 Pls
3297 2355 Pls
5023 2014 Pls
6749 1616 Pls
1570 4034 Pls
3297 3624 Pls
5023 2903 Pls
6749 2643 Pls
1570 4387 Pls
3297 3207 Pls
5023 2786 Pls
6749 2482 Pls
1570 4180 Pls
3297 3397 Pls
5023 2791 Pls
6749 1941 Pls
1570 4127 Pls
3297 2706 Pls
5023 2494 Pls
6749 2377 Pls
1570 3465 Pls
3297 2426 Pls
5023 2358 Pls
6749 2071 Pls
1570 2661 Pls
3297 1743 Pls
5023 1723 Pls
6749 1459 Pls
1570 2717 Pls
3297 1807 Pls
5023 1857 Pls
6749 1378 Pls
1570 3261 Pls
3297 2719 Pls
5023 2062 Pls
6749 1577 Pls
1570 3876 Pls
3297 2793 Pls
5023 1854 Pls
6749 1880 Pls
1570 3942 Pls
3297 3085 Pls
5023 2005 Pls
6749 1927 Pls
1570 4008 Pls
3297 3515 Pls
5023 2934 Pls
6749 2768 Pls
1570 4141 Pls
3297 3529 Pls
5023 2625 Pls
6749 2536 Pls
1570 4148 Pls
3297 3514 Pls
5023 2616 Pls
6749 2516 Pls
1570 4131 Pls
3297 3258 Pls
5023 2509 Pls
6749 2197 Pls
1570 3417 Pls
3297 2971 Pls
5023 2392 Pls
6749 2141 Pls
1570 2593 Pls
3297 1964 Pls
5023 1946 Pls
6749 1499 Pls
1570 3752 Pls
3297 2461 Pls
5023 2024 Pls
6749 1573 Pls
1570 3572 Pls
3297 2607 Pls
5023 2086 Pls
6749 1690 Pls
1570 3694 Pls
3297 2483 Pls
5023 1922 Pls
6749 2247 Pls
1570 3418 Pls
3297 2882 Pls
5023 2056 Pls
6749 2116 Pls
1570 4292 Pls
3297 3285 Pls
5023 2911 Pls
6749 2317 Pls
1570 4174 Pls
3297 3662 Pls
5023 2977 Pls
6749 2481 Pls
1570 4090 Pls
3297 3422 Pls
5023 2816 Pls
6749 2576 Pls
1570 3814 Pls
3297 3458 Pls
5023 2613 Pls
6749 2619 Pls
1570 4055 Pls
3297 2721 Pls
5023 2315 Pls
6749 2114 Pls
1570 3115 Pls
3297 2144 Pls
5023 1378 Pls
6749 1639 Pls
1570 3323 Pls
3297 2380 Pls
5023 2230 Pls
6749 1794 Pls
1570 3351 Pls
3297 2204 Pls
5023 1764 Pls
6749 1907 Pls
1570 3366 Pls
3297 2762 Pls
5023 2254 Pls
6749 1772 Pls
1570 3599 Pls
3297 2509 Pls
5023 2359 Pls
6749 2092 Pls
1570 3426 Pls
3297 3076 Pls
5023 2585 Pls
6749 2109 Pls
1570 3618 Pls
3297 2803 Pls
5023 2461 Pls
6749 2232 Pls
1570 3791 Pls
3297 2959 Pls
5023 2556 Pls
6749 1887 Pls
1570 3071 Pls
3297 2599 Pls
5023 1948 Pls
6749 1632 Pls
1570 2841 Pls
3297 2362 Pls
5023 1561 Pls
6749 1651 Pls
1570 2218 Pls
3297 1337 Pls
5023 1109 Pls
6749 1033 Pls
1570 2481 Pls
3297 1480 Pls
5023 1411 Pls
6749 1440 Pls
1570 2818 Pls
3297 1969 Pls
5023 1341 Pls
6749 1526 Pls
1570 2950 Pls
3297 1899 Pls
5023 1803 Pls
6749 1557 Pls
1570 2736 Pls
3297 2227 Pls
5023 1845 Pls
6749 1466 Pls
1570 4195 Pls
3297 3179 Pls
5023 2641 Pls
6749 2568 Pls
1570 4045 Pls
3297 3175 Pls
5023 2625 Pls
6749 2361 Pls
1570 3543 Pls
3297 3004 Pls
5023 2855 Pls
6749 1852 Pls
1570 3810 Pls
3297 2956 Pls
5023 2337 Pls
6749 2064 Pls
1570 3283 Pls
3297 2420 Pls
5023 2273 Pls
6749 1836 Pls
1570 2346 Pls
3297 1523 Pls
5023 1531 Pls
6749 1215 Pls
1570 2871 Pls
3297 1648 Pls
5023 1733 Pls
6749 1534 Pls
1570 2691 Pls
3297 2303 Pls
5023 1879 Pls
6749 1668 Pls
1570 3490 Pls
3297 2169 Pls
5023 2194 Pls
6749 1697 Pls
1570 3274 Pls
3297 2519 Pls
5023 2016 Pls
6749 1675 Pls
1570 4272 Pls
3297 3084 Pls
5023 2790 Pls
6749 2783 Pls
1570 4076 Pls
3297 3326 Pls
5023 3189 Pls
6749 2343 Pls
1570 4151 Pls
3297 3382 Pls
5023 2797 Pls
6749 2357 Pls
1570 3726 Pls
3297 3187 Pls
5023 2372 Pls
6749 2489 Pls
1570 3803 Pls
3297 2727 Pls
5023 1962 Pls
6749 2070 Pls
1570 2376 Pls
3297 2052 Pls
5023 1682 Pls
6749 1498 Pls
1570 3464 Pls
3297 2611 Pls
5023 2148 Pls
6749 1536 Pls
1570 3674 Pls
3297 2600 Pls
5023 1929 Pls
6749 1620 Pls
1570 3349 Pls
3297 2441 Pls
5023 1914 Pls
6749 1766 Pls
1570 3467 Pls
3297 2750 Pls
5023 2145 Pls
6749 1938 Pls
1570 4239 Pls
3297 3466 Pls
5023 2865 Pls
6749 2504 Pls
1570 4190 Pls
3297 3384 Pls
5023 3031 Pls
6749 2839 Pls
1570 4217 Pls
3297 2986 Pls
5023 2666 Pls
6749 2582 Pls
1570 3982 Pls
3297 3137 Pls
5023 2596 Pls
6749 2145 Pls
1570 3937 Pls
3297 2919 Pls
5023 2413 Pls
6749 2134 Pls
1570 3441 Pls
3297 1833 Pls
5023 1439 Pls
6749 1548 Pls
1570 3349 Pls
3297 2500 Pls
5023 1790 Pls
6749 1716 Pls
1570 3837 Pls
3297 2696 Pls
5023 1830 Pls
6749 2012 Pls
1570 3304 Pls
3297 2713 Pls
5023 2065 Pls
6749 1952 Pls
1570 3865 Pls
3297 2866 Pls
5023 2397 Pls
6749 1863 Pls
1570 4462 Pls
3297 3865 Pls
5023 3165 Pls
6749 2710 Pls
1570 4283 Pls
3297 3636 Pls
5023 2880 Pls
6749 2669 Pls
1570 4104 Pls
3297 3624 Pls
5023 2705 Pls
6749 2586 Pls
1570 4158 Pls
3297 3356 Pls
5023 2730 Pls
6749 2268 Pls
1570 4093 Pls
3297 2537 Pls
5023 2704 Pls
6749 2022 Pls
1570 2751 Pls
3297 1965 Pls
5023 1724 Pls
6749 1672 Pls
1570 3539 Pls
3297 2277 Pls
5023 2042 Pls
6749 1778 Pls
1570 3818 Pls
3297 2744 Pls
5023 2140 Pls
6749 1637 Pls
1570 3962 Pls
3297 2407 Pls
5023 1816 Pls
6749 1890 Pls
1570 2838 Pls
3297 2919 Pls
5023 2193 Pls
6749 1898 Pls
% End plot #1
% Begin plot #2
1.000 UL
LT1
LCb setrgbcolor
5636 4551 M
[ [(Helvetica) 250.0 0.0 true true 0 (Average)]
] -83.3 MRshow
LT1
5786 4551 M
663 0 V
1570 3279 M
3297 2616 L
5023 2240 L
6749 2015 L
% End plot #2
% Begin plot #3
stroke
LT2
LCb setrgbcolor
5636 4301 M
[ [(Helvetica) 250.0 0.0 true true 0 (Min)]
] -83.3 MRshow
LT2
5786 4301 M
663 0 V
1570 1173 M
3297 1036 L
1726 54 V
1726 -57 V
% End plot #3
% Begin plot #4
stroke
LT3
LCb setrgbcolor
5636 4051 M
[ [(Helvetica) 250.0 0.0 true true 0 (Max)]
] -83.3 MRshow
LT3
5786 4051 M
663 0 V
1570 4489 M
3297 3935 L
5023 3381 L
6749 2955 L
% End plot #4
stroke
LTb
1225 4739 N
0 -3939 V
5524 0 V
0 3939 V
-5524 0 V
Z stroke
1.000 UP
1.000 UL
LTb
stroke
grestore
end
showpage
%%Trailer
%%DocumentFonts: Helvetica
