%!PS-Adobe-2.0 EPSF-2.0
%%Title: n_num_segments.recall.eps
%%Creator: gnuplot 4.4 patchlevel 3
%%CreationDate: Tue Jun  4 13:15:17 2013
%%DocumentFonts: (atend)
%%BoundingBox: 50 50 410 302
%%EndComments
%%BeginProlog
/gnudict 256 dict def
gnudict begin
%
% The following true/false flags may be edited by hand if desired.
% The unit line width and grayscale image gamma correction may also be changed.
%
/Color true def
/Blacktext false def
/Solid false def
/Dashlength 1 def
/Landscape false def
/Level1 false def
/Rounded false def
/ClipToBoundingBox false def
/TransparentPatterns false def
/gnulinewidth 5.000 def
/userlinewidth gnulinewidth def
/Gamma 1.0 def
%
/vshift -83 def
/dl1 {
  10.0 Dashlength mul mul
  Rounded { currentlinewidth 0.75 mul sub dup 0 le { pop 0.01 } if } if
} def
/dl2 {
  10.0 Dashlength mul mul
  Rounded { currentlinewidth 0.75 mul add } if
} def
/hpt_ 31.5 def
/vpt_ 31.5 def
/hpt hpt_ def
/vpt vpt_ def
Level1 {} {
/SDict 10 dict def
systemdict /pdfmark known not {
  userdict /pdfmark systemdict /cleartomark get put
} if
SDict begin [
  /Title (n_num_segments.recall.eps)
  /Subject (gnuplot plot)
  /Creator (gnuplot 4.4 patchlevel 3)
  /Author (xjia)
%  /Producer (gnuplot)
%  /Keywords ()
  /CreationDate (Tue Jun  4 13:15:17 2013)
  /DOCINFO pdfmark
end
} ifelse
/doclip {
  ClipToBoundingBox {
    newpath 50 50 moveto 410 50 lineto 410 302 lineto 50 302 lineto closepath
    clip
  } if
} def
%
% Gnuplot Prolog Version 4.4 (August 2010)
%
%/SuppressPDFMark true def
%
/M {moveto} bind def
/L {lineto} bind def
/R {rmoveto} bind def
/V {rlineto} bind def
/N {newpath moveto} bind def
/Z {closepath} bind def
/C {setrgbcolor} bind def
/f {rlineto fill} bind def
/g {setgray} bind def
/Gshow {show} def   % May be redefined later in the file to support UTF-8
/vpt2 vpt 2 mul def
/hpt2 hpt 2 mul def
/Lshow {currentpoint stroke M 0 vshift R 
	Blacktext {gsave 0 setgray show grestore} {show} ifelse} def
/Rshow {currentpoint stroke M dup stringwidth pop neg vshift R
	Blacktext {gsave 0 setgray show grestore} {show} ifelse} def
/Cshow {currentpoint stroke M dup stringwidth pop -2 div vshift R 
	Blacktext {gsave 0 setgray show grestore} {show} ifelse} def
/UP {dup vpt_ mul /vpt exch def hpt_ mul /hpt exch def
  /hpt2 hpt 2 mul def /vpt2 vpt 2 mul def} def
/DL {Color {setrgbcolor Solid {pop []} if 0 setdash}
 {pop pop pop 0 setgray Solid {pop []} if 0 setdash} ifelse} def
/BL {stroke userlinewidth 2 mul setlinewidth
	Rounded {1 setlinejoin 1 setlinecap} if} def
/AL {stroke userlinewidth 2 div setlinewidth
	Rounded {1 setlinejoin 1 setlinecap} if} def
/UL {dup gnulinewidth mul /userlinewidth exch def
	dup 1 lt {pop 1} if 10 mul /udl exch def} def
/PL {stroke userlinewidth setlinewidth
	Rounded {1 setlinejoin 1 setlinecap} if} def
3.8 setmiterlimit
% Default Line colors
/LCw {1 1 1} def
/LCb {0 0 0} def
/LCa {0 0 0} def
/LC0 {1 0 0} def
/LC1 {0 1 0} def
/LC2 {0 0 1} def
/LC3 {1 0 1} def
/LC4 {0 1 1} def
/LC5 {1 1 0} def
/LC6 {0 0 0} def
/LC7 {1 0.3 0} def
/LC8 {0.5 0.5 0.5} def
% Default Line Types
/LTw {PL [] 1 setgray} def
/LTb {BL [] LCb DL} def
/LTa {AL [1 udl mul 2 udl mul] 0 setdash LCa setrgbcolor} def
/LT0 {PL [] LC0 DL} def
/LT1 {PL [4 dl1 2 dl2] LC1 DL} def
/LT2 {PL [2 dl1 3 dl2] LC2 DL} def
/LT3 {PL [1 dl1 1.5 dl2] LC3 DL} def
/LT4 {PL [6 dl1 2 dl2 1 dl1 2 dl2] LC4 DL} def
/LT5 {PL [3 dl1 3 dl2 1 dl1 3 dl2] LC5 DL} def
/LT6 {PL [2 dl1 2 dl2 2 dl1 6 dl2] LC6 DL} def
/LT7 {PL [1 dl1 2 dl2 6 dl1 2 dl2 1 dl1 2 dl2] LC7 DL} def
/LT8 {PL [2 dl1 2 dl2 2 dl1 2 dl2 2 dl1 2 dl2 2 dl1 4 dl2] LC8 DL} def
/Pnt {stroke [] 0 setdash gsave 1 setlinecap M 0 0 V stroke grestore} def
/Dia {stroke [] 0 setdash 2 copy vpt add M
  hpt neg vpt neg V hpt vpt neg V
  hpt vpt V hpt neg vpt V closepath stroke
  Pnt} def
/Pls {stroke [] 0 setdash vpt sub M 0 vpt2 V
  currentpoint stroke M
  hpt neg vpt neg R hpt2 0 V stroke
 } def
/Box {stroke [] 0 setdash 2 copy exch hpt sub exch vpt add M
  0 vpt2 neg V hpt2 0 V 0 vpt2 V
  hpt2 neg 0 V closepath stroke
  Pnt} def
/Crs {stroke [] 0 setdash exch hpt sub exch vpt add M
  hpt2 vpt2 neg V currentpoint stroke M
  hpt2 neg 0 R hpt2 vpt2 V stroke} def
/TriU {stroke [] 0 setdash 2 copy vpt 1.12 mul add M
  hpt neg vpt -1.62 mul V
  hpt 2 mul 0 V
  hpt neg vpt 1.62 mul V closepath stroke
  Pnt} def
/Star {2 copy Pls Crs} def
/BoxF {stroke [] 0 setdash exch hpt sub exch vpt add M
  0 vpt2 neg V hpt2 0 V 0 vpt2 V
  hpt2 neg 0 V closepath fill} def
/TriUF {stroke [] 0 setdash vpt 1.12 mul add M
  hpt neg vpt -1.62 mul V
  hpt 2 mul 0 V
  hpt neg vpt 1.62 mul V closepath fill} def
/TriD {stroke [] 0 setdash 2 copy vpt 1.12 mul sub M
  hpt neg vpt 1.62 mul V
  hpt 2 mul 0 V
  hpt neg vpt -1.62 mul V closepath stroke
  Pnt} def
/TriDF {stroke [] 0 setdash vpt 1.12 mul sub M
  hpt neg vpt 1.62 mul V
  hpt 2 mul 0 V
  hpt neg vpt -1.62 mul V closepath fill} def
/DiaF {stroke [] 0 setdash vpt add M
  hpt neg vpt neg V hpt vpt neg V
  hpt vpt V hpt neg vpt V closepath fill} def
/Pent {stroke [] 0 setdash 2 copy gsave
  translate 0 hpt M 4 {72 rotate 0 hpt L} repeat
  closepath stroke grestore Pnt} def
/PentF {stroke [] 0 setdash gsave
  translate 0 hpt M 4 {72 rotate 0 hpt L} repeat
  closepath fill grestore} def
/Circle {stroke [] 0 setdash 2 copy
  hpt 0 360 arc stroke Pnt} def
/CircleF {stroke [] 0 setdash hpt 0 360 arc fill} def
/C0 {BL [] 0 setdash 2 copy moveto vpt 90 450 arc} bind def
/C1 {BL [] 0 setdash 2 copy moveto
	2 copy vpt 0 90 arc closepath fill
	vpt 0 360 arc closepath} bind def
/C2 {BL [] 0 setdash 2 copy moveto
	2 copy vpt 90 180 arc closepath fill
	vpt 0 360 arc closepath} bind def
/C3 {BL [] 0 setdash 2 copy moveto
	2 copy vpt 0 180 arc closepath fill
	vpt 0 360 arc closepath} bind def
/C4 {BL [] 0 setdash 2 copy moveto
	2 copy vpt 180 270 arc closepath fill
	vpt 0 360 arc closepath} bind def
/C5 {BL [] 0 setdash 2 copy moveto
	2 copy vpt 0 90 arc
	2 copy moveto
	2 copy vpt 180 270 arc closepath fill
	vpt 0 360 arc} bind def
/C6 {BL [] 0 setdash 2 copy moveto
	2 copy vpt 90 270 arc closepath fill
	vpt 0 360 arc closepath} bind def
/C7 {BL [] 0 setdash 2 copy moveto
	2 copy vpt 0 270 arc closepath fill
	vpt 0 360 arc closepath} bind def
/C8 {BL [] 0 setdash 2 copy moveto
	2 copy vpt 270 360 arc closepath fill
	vpt 0 360 arc closepath} bind def
/C9 {BL [] 0 setdash 2 copy moveto
	2 copy vpt 270 450 arc closepath fill
	vpt 0 360 arc closepath} bind def
/C10 {BL [] 0 setdash 2 copy 2 copy moveto vpt 270 360 arc closepath fill
	2 copy moveto
	2 copy vpt 90 180 arc closepath fill
	vpt 0 360 arc closepath} bind def
/C11 {BL [] 0 setdash 2 copy moveto
	2 copy vpt 0 180 arc closepath fill
	2 copy moveto
	2 copy vpt 270 360 arc closepath fill
	vpt 0 360 arc closepath} bind def
/C12 {BL [] 0 setdash 2 copy moveto
	2 copy vpt 180 360 arc closepath fill
	vpt 0 360 arc closepath} bind def
/C13 {BL [] 0 setdash 2 copy moveto
	2 copy vpt 0 90 arc closepath fill
	2 copy moveto
	2 copy vpt 180 360 arc closepath fill
	vpt 0 360 arc closepath} bind def
/C14 {BL [] 0 setdash 2 copy moveto
	2 copy vpt 90 360 arc closepath fill
	vpt 0 360 arc} bind def
/C15 {BL [] 0 setdash 2 copy vpt 0 360 arc closepath fill
	vpt 0 360 arc closepath} bind def
/Rec {newpath 4 2 roll moveto 1 index 0 rlineto 0 exch rlineto
	neg 0 rlineto closepath} bind def
/Square {dup Rec} bind def
/Bsquare {vpt sub exch vpt sub exch vpt2 Square} bind def
/S0 {BL [] 0 setdash 2 copy moveto 0 vpt rlineto BL Bsquare} bind def
/S1 {BL [] 0 setdash 2 copy vpt Square fill Bsquare} bind def
/S2 {BL [] 0 setdash 2 copy exch vpt sub exch vpt Square fill Bsquare} bind def
/S3 {BL [] 0 setdash 2 copy exch vpt sub exch vpt2 vpt Rec fill Bsquare} bind def
/S4 {BL [] 0 setdash 2 copy exch vpt sub exch vpt sub vpt Square fill Bsquare} bind def
/S5 {BL [] 0 setdash 2 copy 2 copy vpt Square fill
	exch vpt sub exch vpt sub vpt Square fill Bsquare} bind def
/S6 {BL [] 0 setdash 2 copy exch vpt sub exch vpt sub vpt vpt2 Rec fill Bsquare} bind def
/S7 {BL [] 0 setdash 2 copy exch vpt sub exch vpt sub vpt vpt2 Rec fill
	2 copy vpt Square fill Bsquare} bind def
/S8 {BL [] 0 setdash 2 copy vpt sub vpt Square fill Bsquare} bind def
/S9 {BL [] 0 setdash 2 copy vpt sub vpt vpt2 Rec fill Bsquare} bind def
/S10 {BL [] 0 setdash 2 copy vpt sub vpt Square fill 2 copy exch vpt sub exch vpt Square fill
	Bsquare} bind def
/S11 {BL [] 0 setdash 2 copy vpt sub vpt Square fill 2 copy exch vpt sub exch vpt2 vpt Rec fill
	Bsquare} bind def
/S12 {BL [] 0 setdash 2 copy exch vpt sub exch vpt sub vpt2 vpt Rec fill Bsquare} bind def
/S13 {BL [] 0 setdash 2 copy exch vpt sub exch vpt sub vpt2 vpt Rec fill
	2 copy vpt Square fill Bsquare} bind def
/S14 {BL [] 0 setdash 2 copy exch vpt sub exch vpt sub vpt2 vpt Rec fill
	2 copy exch vpt sub exch vpt Square fill Bsquare} bind def
/S15 {BL [] 0 setdash 2 copy Bsquare fill Bsquare} bind def
/D0 {gsave translate 45 rotate 0 0 S0 stroke grestore} bind def
/D1 {gsave translate 45 rotate 0 0 S1 stroke grestore} bind def
/D2 {gsave translate 45 rotate 0 0 S2 stroke grestore} bind def
/D3 {gsave translate 45 rotate 0 0 S3 stroke grestore} bind def
/D4 {gsave translate 45 rotate 0 0 S4 stroke grestore} bind def
/D5 {gsave translate 45 rotate 0 0 S5 stroke grestore} bind def
/D6 {gsave translate 45 rotate 0 0 S6 stroke grestore} bind def
/D7 {gsave translate 45 rotate 0 0 S7 stroke grestore} bind def
/D8 {gsave translate 45 rotate 0 0 S8 stroke grestore} bind def
/D9 {gsave translate 45 rotate 0 0 S9 stroke grestore} bind def
/D10 {gsave translate 45 rotate 0 0 S10 stroke grestore} bind def
/D11 {gsave translate 45 rotate 0 0 S11 stroke grestore} bind def
/D12 {gsave translate 45 rotate 0 0 S12 stroke grestore} bind def
/D13 {gsave translate 45 rotate 0 0 S13 stroke grestore} bind def
/D14 {gsave translate 45 rotate 0 0 S14 stroke grestore} bind def
/D15 {gsave translate 45 rotate 0 0 S15 stroke grestore} bind def
/DiaE {stroke [] 0 setdash vpt add M
  hpt neg vpt neg V hpt vpt neg V
  hpt vpt V hpt neg vpt V closepath stroke} def
/BoxE {stroke [] 0 setdash exch hpt sub exch vpt add M
  0 vpt2 neg V hpt2 0 V 0 vpt2 V
  hpt2 neg 0 V closepath stroke} def
/TriUE {stroke [] 0 setdash vpt 1.12 mul add M
  hpt neg vpt -1.62 mul V
  hpt 2 mul 0 V
  hpt neg vpt 1.62 mul V closepath stroke} def
/TriDE {stroke [] 0 setdash vpt 1.12 mul sub M
  hpt neg vpt 1.62 mul V
  hpt 2 mul 0 V
  hpt neg vpt -1.62 mul V closepath stroke} def
/PentE {stroke [] 0 setdash gsave
  translate 0 hpt M 4 {72 rotate 0 hpt L} repeat
  closepath stroke grestore} def
/CircE {stroke [] 0 setdash 
  hpt 0 360 arc stroke} def
/Opaque {gsave closepath 1 setgray fill grestore 0 setgray closepath} def
/DiaW {stroke [] 0 setdash vpt add M
  hpt neg vpt neg V hpt vpt neg V
  hpt vpt V hpt neg vpt V Opaque stroke} def
/BoxW {stroke [] 0 setdash exch hpt sub exch vpt add M
  0 vpt2 neg V hpt2 0 V 0 vpt2 V
  hpt2 neg 0 V Opaque stroke} def
/TriUW {stroke [] 0 setdash vpt 1.12 mul add M
  hpt neg vpt -1.62 mul V
  hpt 2 mul 0 V
  hpt neg vpt 1.62 mul V Opaque stroke} def
/TriDW {stroke [] 0 setdash vpt 1.12 mul sub M
  hpt neg vpt 1.62 mul V
  hpt 2 mul 0 V
  hpt neg vpt -1.62 mul V Opaque stroke} def
/PentW {stroke [] 0 setdash gsave
  translate 0 hpt M 4 {72 rotate 0 hpt L} repeat
  Opaque stroke grestore} def
/CircW {stroke [] 0 setdash 
  hpt 0 360 arc Opaque stroke} def
/BoxFill {gsave Rec 1 setgray fill grestore} def
/Density {
  /Fillden exch def
  currentrgbcolor
  /ColB exch def /ColG exch def /ColR exch def
  /ColR ColR Fillden mul Fillden sub 1 add def
  /ColG ColG Fillden mul Fillden sub 1 add def
  /ColB ColB Fillden mul Fillden sub 1 add def
  ColR ColG ColB setrgbcolor} def
/BoxColFill {gsave Rec PolyFill} def
/PolyFill {gsave Density fill grestore grestore} def
/h {rlineto rlineto rlineto gsave closepath fill grestore} bind def
%
% PostScript Level 1 Pattern Fill routine for rectangles
% Usage: x y w h s a XX PatternFill
%	x,y = lower left corner of box to be filled
%	w,h = width and height of box
%	  a = angle in degrees between lines and x-axis
%	 XX = 0/1 for no/yes cross-hatch
%
/PatternFill {gsave /PFa [ 9 2 roll ] def
  PFa 0 get PFa 2 get 2 div add PFa 1 get PFa 3 get 2 div add translate
  PFa 2 get -2 div PFa 3 get -2 div PFa 2 get PFa 3 get Rec
  gsave 1 setgray fill grestore clip
  currentlinewidth 0.5 mul setlinewidth
  /PFs PFa 2 get dup mul PFa 3 get dup mul add sqrt def
  0 0 M PFa 5 get rotate PFs -2 div dup translate
  0 1 PFs PFa 4 get div 1 add floor cvi
	{PFa 4 get mul 0 M 0 PFs V} for
  0 PFa 6 get ne {
	0 1 PFs PFa 4 get div 1 add floor cvi
	{PFa 4 get mul 0 2 1 roll M PFs 0 V} for
 } if
  stroke grestore} def
%
/languagelevel where
 {pop languagelevel} {1} ifelse
 2 lt
	{/InterpretLevel1 true def}
	{/InterpretLevel1 Level1 def}
 ifelse
%
% PostScript level 2 pattern fill definitions
%
/Level2PatternFill {
/Tile8x8 {/PaintType 2 /PatternType 1 /TilingType 1 /BBox [0 0 8 8] /XStep 8 /YStep 8}
	bind def
/KeepColor {currentrgbcolor [/Pattern /DeviceRGB] setcolorspace} bind def
<< Tile8x8
 /PaintProc {0.5 setlinewidth pop 0 0 M 8 8 L 0 8 M 8 0 L stroke} 
>> matrix makepattern
/Pat1 exch def
<< Tile8x8
 /PaintProc {0.5 setlinewidth pop 0 0 M 8 8 L 0 8 M 8 0 L stroke
	0 4 M 4 8 L 8 4 L 4 0 L 0 4 L stroke}
>> matrix makepattern
/Pat2 exch def
<< Tile8x8
 /PaintProc {0.5 setlinewidth pop 0 0 M 0 8 L
	8 8 L 8 0 L 0 0 L fill}
>> matrix makepattern
/Pat3 exch def
<< Tile8x8
 /PaintProc {0.5 setlinewidth pop -4 8 M 8 -4 L
	0 12 M 12 0 L stroke}
>> matrix makepattern
/Pat4 exch def
<< Tile8x8
 /PaintProc {0.5 setlinewidth pop -4 0 M 8 12 L
	0 -4 M 12 8 L stroke}
>> matrix makepattern
/Pat5 exch def
<< Tile8x8
 /PaintProc {0.5 setlinewidth pop -2 8 M 4 -4 L
	0 12 M 8 -4 L 4 12 M 10 0 L stroke}
>> matrix makepattern
/Pat6 exch def
<< Tile8x8
 /PaintProc {0.5 setlinewidth pop -2 0 M 4 12 L
	0 -4 M 8 12 L 4 -4 M 10 8 L stroke}
>> matrix makepattern
/Pat7 exch def
<< Tile8x8
 /PaintProc {0.5 setlinewidth pop 8 -2 M -4 4 L
	12 0 M -4 8 L 12 4 M 0 10 L stroke}
>> matrix makepattern
/Pat8 exch def
<< Tile8x8
 /PaintProc {0.5 setlinewidth pop 0 -2 M 12 4 L
	-4 0 M 12 8 L -4 4 M 8 10 L stroke}
>> matrix makepattern
/Pat9 exch def
/Pattern1 {PatternBgnd KeepColor Pat1 setpattern} bind def
/Pattern2 {PatternBgnd KeepColor Pat2 setpattern} bind def
/Pattern3 {PatternBgnd KeepColor Pat3 setpattern} bind def
/Pattern4 {PatternBgnd KeepColor Landscape {Pat5} {Pat4} ifelse setpattern} bind def
/Pattern5 {PatternBgnd KeepColor Landscape {Pat4} {Pat5} ifelse setpattern} bind def
/Pattern6 {PatternBgnd KeepColor Landscape {Pat9} {Pat6} ifelse setpattern} bind def
/Pattern7 {PatternBgnd KeepColor Landscape {Pat8} {Pat7} ifelse setpattern} bind def
} def
%
%
%End of PostScript Level 2 code
%
/PatternBgnd {
  TransparentPatterns {} {gsave 1 setgray fill grestore} ifelse
} def
%
% Substitute for Level 2 pattern fill codes with
% grayscale if Level 2 support is not selected.
%
/Level1PatternFill {
/Pattern1 {0.250 Density} bind def
/Pattern2 {0.500 Density} bind def
/Pattern3 {0.750 Density} bind def
/Pattern4 {0.125 Density} bind def
/Pattern5 {0.375 Density} bind def
/Pattern6 {0.625 Density} bind def
/Pattern7 {0.875 Density} bind def
} def
%
% Now test for support of Level 2 code
%
Level1 {Level1PatternFill} {Level2PatternFill} ifelse
%
/Symbol-Oblique /Symbol findfont [1 0 .167 1 0 0] makefont
dup length dict begin {1 index /FID eq {pop pop} {def} ifelse} forall
currentdict end definefont pop
/MFshow {
   { dup 5 get 3 ge
     { 5 get 3 eq {gsave} {grestore} ifelse }
     {dup dup 0 get findfont exch 1 get scalefont setfont
     [ currentpoint ] exch dup 2 get 0 exch R dup 5 get 2 ne {dup dup 6
     get exch 4 get {Gshow} {stringwidth pop 0 R} ifelse }if dup 5 get 0 eq
     {dup 3 get {2 get neg 0 exch R pop} {pop aload pop M} ifelse} {dup 5
     get 1 eq {dup 2 get exch dup 3 get exch 6 get stringwidth pop -2 div
     dup 0 R} {dup 6 get stringwidth pop -2 div 0 R 6 get
     show 2 index {aload pop M neg 3 -1 roll neg R pop pop} {pop pop pop
     pop aload pop M} ifelse }ifelse }ifelse }
     ifelse }
   forall} def
/Gswidth {dup type /stringtype eq {stringwidth} {pop (n) stringwidth} ifelse} def
/MFwidth {0 exch { dup 5 get 3 ge { 5 get 3 eq { 0 } { pop } ifelse }
 {dup 3 get{dup dup 0 get findfont exch 1 get scalefont setfont
     6 get Gswidth pop add} {pop} ifelse} ifelse} forall} def
/MLshow { currentpoint stroke M
  0 exch R
  Blacktext {gsave 0 setgray MFshow grestore} {MFshow} ifelse } bind def
/MRshow { currentpoint stroke M
  exch dup MFwidth neg 3 -1 roll R
  Blacktext {gsave 0 setgray MFshow grestore} {MFshow} ifelse } bind def
/MCshow { currentpoint stroke M
  exch dup MFwidth -2 div 3 -1 roll R
  Blacktext {gsave 0 setgray MFshow grestore} {MFshow} ifelse } bind def
/XYsave    { [( ) 1 2 true false 3 ()] } bind def
/XYrestore { [( ) 1 2 true false 4 ()] } bind def
end
%%EndProlog
gnudict begin
gsave
doclip
50 50 translate
0.050 0.050 scale
0 setgray
newpath
(Helvetica) findfont 250 scalefont setfont
1.000 UL
LTb
1225 800 M
63 0 V
5461 0 R
-63 0 V
stroke
1075 800 M
[ [(Helvetica) 250.0 0.0 true true 0 ( 0)]
] -83.3 MRshow
1.000 UL
LTb
1225 1194 M
63 0 V
5461 0 R
-63 0 V
stroke
1075 1194 M
[ [(Helvetica) 250.0 0.0 true true 0 ( 0.1)]
] -83.3 MRshow
1.000 UL
LTb
1225 1588 M
63 0 V
5461 0 R
-63 0 V
stroke
1075 1588 M
[ [(Helvetica) 250.0 0.0 true true 0 ( 0.2)]
] -83.3 MRshow
1.000 UL
LTb
1225 1982 M
63 0 V
5461 0 R
-63 0 V
stroke
1075 1982 M
[ [(Helvetica) 250.0 0.0 true true 0 ( 0.3)]
] -83.3 MRshow
1.000 UL
LTb
1225 2376 M
63 0 V
5461 0 R
-63 0 V
stroke
1075 2376 M
[ [(Helvetica) 250.0 0.0 true true 0 ( 0.4)]
] -83.3 MRshow
1.000 UL
LTb
1225 2770 M
63 0 V
5461 0 R
-63 0 V
stroke
1075 2770 M
[ [(Helvetica) 250.0 0.0 true true 0 ( 0.5)]
] -83.3 MRshow
1.000 UL
LTb
1225 3163 M
63 0 V
5461 0 R
-63 0 V
stroke
1075 3163 M
[ [(Helvetica) 250.0 0.0 true true 0 ( 0.6)]
] -83.3 MRshow
1.000 UL
LTb
1225 3557 M
63 0 V
5461 0 R
-63 0 V
stroke
1075 3557 M
[ [(Helvetica) 250.0 0.0 true true 0 ( 0.7)]
] -83.3 MRshow
1.000 UL
LTb
1225 3951 M
63 0 V
5461 0 R
-63 0 V
stroke
1075 3951 M
[ [(Helvetica) 250.0 0.0 true true 0 ( 0.8)]
] -83.3 MRshow
1.000 UL
LTb
1225 4345 M
63 0 V
5461 0 R
-63 0 V
stroke
1075 4345 M
[ [(Helvetica) 250.0 0.0 true true 0 ( 0.9)]
] -83.3 MRshow
1.000 UL
LTb
1225 4739 M
63 0 V
5461 0 R
-63 0 V
stroke
1075 4739 M
[ [(Helvetica) 250.0 0.0 true true 0 ( 1)]
] -83.3 MRshow
1.000 UL
LTb
1225 800 M
0 63 V
0 3876 R
0 -63 V
stroke
1225 550 M
[ [(Helvetica) 250.0 0.0 true true 0 ( 4)]
] -83.3 MCshow
1.000 UL
LTb
1916 800 M
0 63 V
0 3876 R
0 -63 V
stroke
1916 550 M
[ [(Helvetica) 250.0 0.0 true true 0 ( 6)]
] -83.3 MCshow
1.000 UL
LTb
2606 800 M
0 63 V
0 3876 R
0 -63 V
stroke
2606 550 M
[ [(Helvetica) 250.0 0.0 true true 0 ( 8)]
] -83.3 MCshow
1.000 UL
LTb
3297 800 M
0 63 V
0 3876 R
0 -63 V
stroke
3297 550 M
[ [(Helvetica) 250.0 0.0 true true 0 ( 10)]
] -83.3 MCshow
1.000 UL
LTb
3987 800 M
0 63 V
0 3876 R
0 -63 V
stroke
3987 550 M
[ [(Helvetica) 250.0 0.0 true true 0 ( 12)]
] -83.3 MCshow
1.000 UL
LTb
4678 800 M
0 63 V
0 3876 R
0 -63 V
stroke
4678 550 M
[ [(Helvetica) 250.0 0.0 true true 0 ( 14)]
] -83.3 MCshow
1.000 UL
LTb
5368 800 M
0 63 V
0 3876 R
0 -63 V
stroke
5368 550 M
[ [(Helvetica) 250.0 0.0 true true 0 ( 16)]
] -83.3 MCshow
1.000 UL
LTb
6059 800 M
0 63 V
0 3876 R
0 -63 V
stroke
6059 550 M
[ [(Helvetica) 250.0 0.0 true true 0 ( 18)]
] -83.3 MCshow
1.000 UL
LTb
6749 800 M
0 63 V
0 3876 R
0 -63 V
stroke
6749 550 M
[ [(Helvetica) 250.0 0.0 true true 0 ( 20)]
] -83.3 MCshow
1.000 UL
LTb
1.000 UL
LTb
1225 4739 N
0 -3939 V
5524 0 V
0 3939 V
-5524 0 V
Z stroke
LCb setrgbcolor
200 2769 M
currentpoint gsave translate -270 rotate 0 0 moveto
[ [(Helvetica) 250.0 0.0 true true 0 (Recall)]
] -83.3 MCshow
grestore
LTb
LCb setrgbcolor
3987 175 M
[ [(Helvetica) 250.0 0.0 true true 0 (Number of Segments)]
] -83.3 MCshow
LTb
1.000 UP
1.000 UL
LTb
% Begin plot #1
1.000 UP
1.000 UL
LT0
1570 3388 Pls
3297 2391 Pls
5023 2015 Pls
6749 1700 Pls
1570 3367 Pls
3297 2174 Pls
5023 2383 Pls
6749 1764 Pls
1570 2878 Pls
3297 2194 Pls
5023 1717 Pls
6749 1649 Pls
1570 2776 Pls
3297 1931 Pls
5023 1617 Pls
6749 1595 Pls
1570 2428 Pls
3297 1684 Pls
5023 1452 Pls
6749 1146 Pls
1570 1489 Pls
3297 1544 Pls
5023 1194 Pls
6749 1111 Pls
1570 1883 Pls
3297 1369 Pls
5023 1588 Pls
6749 1215 Pls
1570 2770 Pls
3297 1500 Pls
5023 1728 Pls
6749 1629 Pls
1570 2868 Pls
3297 1675 Pls
5023 1560 Pls
6749 1816 Pls
1570 2966 Pls
3297 1982 Pls
5023 2010 Pls
6749 1774 Pls
1570 3860 Pls
3297 2797 Pls
5023 2348 Pls
6749 2024 Pls
1570 3702 Pls
3297 2344 Pls
5023 1977 Pls
6749 1760 Pls
1570 3823 Pls
3297 2621 Pls
5023 1761 Pls
6749 1759 Pls
1570 3054 Pls
3297 2168 Pls
5023 1856 Pls
6749 1656 Pls
1570 2753 Pls
3297 1716 Pls
5023 1531 Pls
6749 1356 Pls
1570 1686 Pls
3297 1894 Pls
5023 1532 Pls
6749 1318 Pls
1570 2770 Pls
3297 2244 Pls
5023 1616 Pls
6749 1733 Pls
1570 2966 Pls
3297 2551 Pls
5023 2151 Pls
6749 2023 Pls
1570 3360 Pls
3297 2770 Pls
5023 2460 Pls
6749 2417 Pls
1570 3853 Pls
3297 2813 Pls
5023 2488 Pls
6749 2645 Pls
1570 4189 Pls
3297 3080 Pls
5023 2174 Pls
6749 1875 Pls
1570 3200 Pls
3297 2595 Pls
5023 2225 Pls
6749 1853 Pls
1570 3553 Pls
3297 2862 Pls
5023 2270 Pls
6749 1426 Pls
1570 3495 Pls
3297 2842 Pls
5023 2110 Pls
6749 1483 Pls
1570 2930 Pls
3297 2154 Pls
5023 1991 Pls
6749 1765 Pls
1570 2770 Pls
3297 1763 Pls
5023 1672 Pls
6749 1671 Pls
1570 3557 Pls
3297 1982 Pls
5023 2122 Pls
6749 1878 Pls
1570 3262 Pls
3297 3207 Pls
5023 2573 Pls
6749 2707 Pls
1570 4345 Pls
3297 2945 Pls
5023 2966 Pls
6749 2438 Pls
1570 3853 Pls
3297 3207 Pls
5023 3192 Pls
6749 3101 Pls
1570 3786 Pls
3297 3180 Pls
5023 2353 Pls
6749 2043 Pls
1570 4061 Pls
3297 2811 Pls
5023 2202 Pls
6749 1877 Pls
1570 3550 Pls
3297 2904 Pls
5023 2154 Pls
6749 2077 Pls
1570 3829 Pls
3297 2749 Pls
5023 2171 Pls
6749 1736 Pls
1570 3327 Pls
3297 2189 Pls
5023 1653 Pls
6749 1859 Pls
1570 2966 Pls
3297 2201 Pls
5023 1672 Pls
6749 1567 Pls
1570 3459 Pls
3297 2507 Pls
5023 2235 Pls
6749 2168 Pls
1570 4050 Pls
3297 3120 Pls
5023 2995 Pls
6749 2438 Pls
1570 3853 Pls
3297 3295 Pls
5023 3079 Pls
6749 2894 Pls
1570 4148 Pls
3297 3557 Pls
5023 3023 Pls
6749 3433 Pls
1570 3786 Pls
3297 2864 Pls
5023 2578 Pls
6749 1864 Pls
1570 3477 Pls
3297 3097 Pls
5023 2544 Pls
6749 1942 Pls
1570 3710 Pls
3297 2915 Pls
5023 2301 Pls
6749 1818 Pls
1570 3626 Pls
3297 2055 Pls
5023 2296 Pls
6749 1841 Pls
1570 3346 Pls
3297 2525 Pls
5023 1900 Pls
6749 1446 Pls
1570 2770 Pls
3297 2244 Pls
5023 1728 Pls
6749 1961 Pls
1570 3951 Pls
3297 2945 Pls
5023 2516 Pls
6749 2521 Pls
1570 4444 Pls
3297 3338 Pls
5023 3163 Pls
6749 2624 Pls
1570 3557 Pls
3297 3864 Pls
5023 3360 Pls
6749 3184 Pls
1570 4641 Pls
3297 3907 Pls
5023 3388 Pls
6749 3371 Pls
1570 3017 Pls
3297 2447 Pls
5023 2114 Pls
6749 1520 Pls
1570 3180 Pls
3297 2246 Pls
5023 2077 Pls
6749 1765 Pls
1570 3234 Pls
3297 2347 Pls
5023 1734 Pls
6749 1756 Pls
1570 2421 Pls
3297 2177 Pls
5023 1568 Pls
6749 1475 Pls
1570 2468 Pls
3297 1749 Pls
5023 1547 Pls
6749 1162 Pls
1570 1785 Pls
3297 1281 Pls
5023 1278 Pls
6749 1152 Pls
1570 1686 Pls
3297 1456 Pls
5023 1335 Pls
6749 1256 Pls
1570 2277 Pls
3297 1719 Pls
5023 1560 Pls
6749 1277 Pls
1570 2868 Pls
3297 1588 Pls
5023 1278 Pls
6749 1318 Pls
1570 2770 Pls
3297 1763 Pls
5023 1475 Pls
6749 1671 Pls
1570 4140 Pls
3297 2506 Pls
5023 1921 Pls
6749 1988 Pls
1570 3653 Pls
3297 2748 Pls
5023 2122 Pls
6749 1649 Pls
1570 3480 Pls
3297 2525 Pls
5023 1770 Pls
6749 1659 Pls
1570 3280 Pls
3297 2485 Pls
5023 1686 Pls
6749 1442 Pls
1570 2846 Pls
3297 1969 Pls
5023 1571 Pls
6749 1498 Pls
1570 2573 Pls
3297 1325 Pls
5023 1250 Pls
6749 1194 Pls
1570 2573 Pls
3297 1719 Pls
5023 1616 Pls
6749 1526 Pls
1570 2966 Pls
3297 1894 Pls
5023 1785 Pls
6749 1712 Pls
1570 3065 Pls
3297 2419 Pls
5023 1982 Pls
6749 1816 Pls
1570 3262 Pls
3297 2201 Pls
5023 1785 Pls
6749 1857 Pls
1570 4045 Pls
3297 2983 Pls
5023 2078 Pls
6749 1973 Pls
1570 3751 Pls
3297 2779 Pls
5023 2053 Pls
6749 1846 Pls
1570 3654 Pls
3297 2874 Pls
5023 1965 Pls
6749 2008 Pls
1570 3298 Pls
3297 2576 Pls
5023 2203 Pls
6749 1902 Pls
1570 2844 Pls
3297 2423 Pls
5023 1717 Pls
6749 1493 Pls
1570 2474 Pls
3297 1675 Pls
5023 1644 Pls
6749 1298 Pls
1570 3557 Pls
3297 2419 Pls
5023 1841 Pls
6749 1816 Pls
1570 2573 Pls
3297 2507 Pls
5023 2038 Pls
6749 1961 Pls
1570 3656 Pls
3297 2901 Pls
5023 1954 Pls
6749 2272 Pls
1570 4050 Pls
3297 2813 Pls
5023 2854 Pls
6749 2334 Pls
1570 3782 Pls
3297 2999 Pls
5023 2322 Pls
6749 2101 Pls
1570 3816 Pls
3297 3054 Pls
5023 2247 Pls
6749 2131 Pls
1570 3865 Pls
3297 2788 Pls
5023 2219 Pls
6749 1927 Pls
1570 3860 Pls
3297 2694 Pls
5023 2309 Pls
6749 1854 Pls
1570 3096 Pls
3297 2153 Pls
5023 1775 Pls
6749 1393 Pls
1570 1883 Pls
3297 1675 Pls
5023 1306 Pls
6749 1256 Pls
1570 2868 Pls
3297 2201 Pls
5023 1785 Pls
6749 1940 Pls
1570 3065 Pls
3297 2201 Pls
5023 2122 Pls
6749 2085 Pls
1570 3951 Pls
3297 2901 Pls
5023 2404 Pls
6749 2645 Pls
1570 3360 Pls
3297 2376 Pls
5023 2910 Pls
6749 2562 Pls
1570 4022 Pls
3297 3187 Pls
5023 2341 Pls
6749 2266 Pls
1570 3845 Pls
3297 2864 Pls
5023 2298 Pls
6749 1887 Pls
1570 3885 Pls
3297 2799 Pls
5023 2488 Pls
6749 1899 Pls
1570 3772 Pls
3297 2400 Pls
5023 2206 Pls
6749 2232 Pls
1570 2844 Pls
3297 2568 Pls
5023 1787 Pls
6749 1717 Pls
1570 2770 Pls
3297 1894 Pls
5023 1588 Pls
6749 1857 Pls
1570 3360 Pls
3297 2769 Pls
5023 2038 Pls
6749 2479 Pls
1570 3360 Pls
3297 3120 Pls
5023 2629 Pls
6749 2230 Pls
1570 3262 Pls
3297 3295 Pls
5023 2713 Pls
6749 2707 Pls
1570 4345 Pls
3297 2813 Pls
5023 2938 Pls
6749 2998 Pls
1570 3422 Pls
3297 2231 Pls
5023 1834 Pls
6749 1609 Pls
1570 3075 Pls
3297 1920 Pls
5023 2035 Pls
6749 1703 Pls
1570 2997 Pls
3297 2060 Pls
5023 1546 Pls
6749 1499 Pls
1570 3045 Pls
3297 1998 Pls
5023 1533 Pls
6749 1425 Pls
1570 2310 Pls
3297 1606 Pls
5023 1327 Pls
6749 1329 Pls
1570 1489 Pls
3297 1194 Pls
5023 1194 Pls
6749 1070 Pls
1570 2474 Pls
3297 1588 Pls
5023 1194 Pls
6749 1215 Pls
1570 1982 Pls
3297 1763 Pls
5023 1447 Pls
6749 1277 Pls
1570 2573 Pls
3297 1544 Pls
5023 1503 Pls
6749 1526 Pls
1570 2573 Pls
3297 2025 Pls
5023 1616 Pls
6749 1546 Pls
1570 3730 Pls
3297 2573 Pls
5023 2241 Pls
6749 2026 Pls
1570 3534 Pls
3297 2442 Pls
5023 1950 Pls
6749 1727 Pls
1570 3619 Pls
3297 2413 Pls
5023 2205 Pls
6749 1665 Pls
1570 2779 Pls
3297 2299 Pls
5023 1792 Pls
6749 1558 Pls
1570 3055 Pls
3297 1927 Pls
5023 1510 Pls
6749 1390 Pls
1570 1785 Pls
3297 1456 Pls
5023 1278 Pls
6749 1235 Pls
1570 2573 Pls
3297 1938 Pls
5023 1419 Pls
6749 1422 Pls
1570 2376 Pls
3297 2025 Pls
5023 1700 Pls
6749 1463 Pls
1570 2770 Pls
3297 2332 Pls
5023 1672 Pls
6749 1940 Pls
1570 2966 Pls
3297 2507 Pls
5023 2010 Pls
6749 1795 Pls
1570 4154 Pls
3297 2823 Pls
5023 2295 Pls
6749 2106 Pls
1570 3663 Pls
3297 2829 Pls
5023 2472 Pls
6749 1852 Pls
1570 3962 Pls
3297 2540 Pls
5023 2232 Pls
6749 1681 Pls
1570 3488 Pls
3297 2646 Pls
5023 2033 Pls
6749 1750 Pls
1570 2983 Pls
3297 2001 Pls
5023 1735 Pls
6749 1576 Pls
1570 2573 Pls
3297 1413 Pls
5023 1475 Pls
6749 1152 Pls
1570 2966 Pls
3297 1544 Pls
5023 1588 Pls
6749 1505 Pls
1570 2966 Pls
3297 1938 Pls
5023 1841 Pls
6749 1878 Pls
1570 3065 Pls
3297 2332 Pls
5023 2179 Pls
6749 1857 Pls
1570 3163 Pls
3297 2157 Pls
5023 2432 Pls
6749 1982 Pls
1570 4047 Pls
3297 2738 Pls
5023 2432 Pls
6749 2078 Pls
1570 3779 Pls
3297 2999 Pls
5023 2125 Pls
6749 1916 Pls
1570 3909 Pls
3297 2801 Pls
5023 2302 Pls
6749 1978 Pls
1570 3556 Pls
3297 2514 Pls
5023 2071 Pls
6749 1538 Pls
1570 3436 Pls
3297 2288 Pls
5023 1746 Pls
6749 1590 Pls
1570 2277 Pls
3297 1763 Pls
5023 1672 Pls
6749 1256 Pls
1570 2671 Pls
3297 1807 Pls
5023 2010 Pls
6749 1609 Pls
1570 3459 Pls
3297 2813 Pls
5023 2066 Pls
6749 1774 Pls
1570 3557 Pls
3297 2638 Pls
5023 2404 Pls
6749 1961 Pls
1570 4148 Pls
3297 3032 Pls
5023 2544 Pls
6749 2251 Pls
1570 4047 Pls
3297 3133 Pls
5023 2265 Pls
6749 2143 Pls
1570 4405 Pls
3297 3217 Pls
5023 2224 Pls
6749 2215 Pls
1570 3614 Pls
3297 2739 Pls
5023 2256 Pls
6749 2261 Pls
1570 3314 Pls
3297 2855 Pls
5023 2082 Pls
6749 2127 Pls
1570 2914 Pls
3297 2218 Pls
5023 1860 Pls
6749 1584 Pls
1570 1982 Pls
3297 1894 Pls
5023 1278 Pls
6749 1443 Pls
1570 2573 Pls
3297 2157 Pls
5023 2207 Pls
6749 1671 Pls
1570 3163 Pls
3297 2682 Pls
5023 2094 Pls
6749 1899 Pls
1570 3557 Pls
3297 3251 Pls
5023 2460 Pls
6749 2189 Pls
1570 3951 Pls
3297 2857 Pls
5023 2629 Pls
6749 2376 Pls
1570 3707 Pls
3297 2048 Pls
5023 1926 Pls
6749 1750 Pls
1570 3166 Pls
3297 1986 Pls
5023 1901 Pls
6749 1347 Pls
1570 3194 Pls
3297 2117 Pls
5023 1808 Pls
6749 1570 Pls
1570 2499 Pls
3297 1795 Pls
5023 1723 Pls
6749 1438 Pls
1570 2651 Pls
3297 1785 Pls
5023 1328 Pls
6749 1145 Pls
1570 1785 Pls
3297 1369 Pls
5023 1222 Pls
6749 966 Pls
1570 1686 Pls
3297 1238 Pls
5023 1278 Pls
6749 966 Pls
1570 2474 Pls
3297 1719 Pls
5023 1363 Pls
6749 1339 Pls
1570 2376 Pls
3297 2113 Pls
5023 1475 Pls
6749 1256 Pls
1570 2671 Pls
3297 1544 Pls
5023 1363 Pls
6749 1380 Pls
1570 3515 Pls
3297 2701 Pls
5023 2435 Pls
6749 1816 Pls
1570 3115 Pls
3297 2498 Pls
5023 2237 Pls
6749 1928 Pls
1570 3235 Pls
3297 2582 Pls
5023 1931 Pls
6749 1778 Pls
1570 3076 Pls
3297 2170 Pls
5023 1958 Pls
6749 1831 Pls
1570 2941 Pls
3297 1895 Pls
5023 1409 Pls
6749 1407 Pls
1570 2179 Pls
3297 1369 Pls
5023 1166 Pls
6749 1111 Pls
1570 2376 Pls
3297 1675 Pls
5023 1419 Pls
6749 1505 Pls
1570 2573 Pls
3297 2201 Pls
5023 1700 Pls
6749 1318 Pls
1570 2573 Pls
3297 2025 Pls
5023 1869 Pls
6749 1505 Pls
1570 3557 Pls
3297 2288 Pls
5023 1869 Pls
6749 1691 Pls
1570 4003 Pls
3297 2908 Pls
5023 2051 Pls
6749 1925 Pls
1570 3505 Pls
3297 2690 Pls
5023 2005 Pls
6749 1902 Pls
1570 3644 Pls
3297 2610 Pls
5023 1848 Pls
6749 1890 Pls
1570 3760 Pls
3297 2450 Pls
5023 2042 Pls
6749 1544 Pls
1570 3442 Pls
3297 1887 Pls
5023 1731 Pls
6749 1389 Pls
1570 2179 Pls
3297 1807 Pls
5023 1616 Pls
6749 1194 Pls
1570 1982 Pls
3297 1938 Pls
5023 1532 Pls
6749 1650 Pls
1570 3065 Pls
3297 1807 Pls
5023 1925 Pls
6749 1671 Pls
1570 3656 Pls
3297 2988 Pls
5023 1869 Pls
6749 1422 Pls
1570 3459 Pls
3297 2025 Pls
5023 1982 Pls
6749 2023 Pls
1570 3786 Pls
3297 3092 Pls
5023 2103 Pls
6749 2083 Pls
1570 3971 Pls
3297 3174 Pls
5023 2329 Pls
6749 2226 Pls
1570 3744 Pls
3297 2865 Pls
5023 2477 Pls
6749 1826 Pls
1570 3733 Pls
3297 2836 Pls
5023 2188 Pls
6749 1712 Pls
1570 3286 Pls
3297 2601 Pls
5023 1987 Pls
6749 1864 Pls
1570 2573 Pls
3297 1588 Pls
5023 1419 Pls
6749 1277 Pls
1570 2966 Pls
3297 1807 Pls
5023 1560 Pls
6749 1671 Pls
1570 3459 Pls
3297 2376 Pls
5023 1897 Pls
6749 1899 Pls
1570 2868 Pls
3297 2376 Pls
5023 2179 Pls
6749 1629 Pls
1570 3557 Pls
3297 2857 Pls
5023 2263 Pls
6749 1982 Pls
1570 4062 Pls
3297 2621 Pls
5023 2632 Pls
6749 1947 Pls
1570 3746 Pls
3297 3015 Pls
5023 2656 Pls
6749 1798 Pls
1570 3736 Pls
3297 2977 Pls
5023 2241 Pls
6749 1996 Pls
1570 3675 Pls
3297 2513 Pls
5023 2226 Pls
6749 1802 Pls
1570 3310 Pls
3297 2158 Pls
5023 1665 Pls
6749 1655 Pls
1570 2868 Pls
3297 1894 Pls
5023 1391 Pls
6749 1422 Pls
1570 2966 Pls
3297 2113 Pls
5023 2151 Pls
6749 1401 Pls
1570 2966 Pls
3297 2157 Pls
5023 2038 Pls
6749 1899 Pls
1570 3459 Pls
3297 3120 Pls
5023 2460 Pls
6749 1920 Pls
1570 3656 Pls
3297 2988 Pls
5023 2769 Pls
6749 2044 Pls
1570 3179 Pls
3297 2264 Pls
5023 2042 Pls
6749 1499 Pls
1570 3315 Pls
3297 2255 Pls
5023 1790 Pls
6749 1673 Pls
1570 2529 Pls
3297 2504 Pls
5023 1880 Pls
6749 1534 Pls
1570 3154 Pls
3297 2022 Pls
5023 1552 Pls
6749 1163 Pls
1570 2060 Pls
3297 1785 Pls
5023 1427 Pls
6749 1332 Pls
1570 1292 Pls
3297 1106 Pls
5023 1081 Pls
6749 1070 Pls
1570 1785 Pls
3297 1413 Pls
5023 1222 Pls
6749 1173 Pls
1570 2966 Pls
3297 1369 Pls
5023 1138 Pls
6749 1256 Pls
1570 2671 Pls
3297 1544 Pls
5023 1363 Pls
6749 1298 Pls
1570 2868 Pls
3297 1938 Pls
5023 1475 Pls
6749 1215 Pls
1570 3566 Pls
3297 2686 Pls
5023 2148 Pls
6749 1829 Pls
1570 3460 Pls
3297 2206 Pls
5023 2205 Pls
6749 1764 Pls
1570 3678 Pls
3297 2351 Pls
5023 2045 Pls
6749 1692 Pls
1570 3387 Pls
3297 2296 Pls
5023 1806 Pls
6749 1653 Pls
1570 2606 Pls
3297 1983 Pls
5023 1640 Pls
6749 1463 Pls
1570 2080 Pls
3297 1369 Pls
5023 1081 Pls
6749 1173 Pls
1570 2474 Pls
3297 2244 Pls
5023 1532 Pls
6749 1360 Pls
1570 2671 Pls
3297 1938 Pls
5023 1391 Pls
6749 1380 Pls
1570 2966 Pls
3297 2157 Pls
5023 1785 Pls
6749 1422 Pls
1570 3262 Pls
3297 2069 Pls
5023 1785 Pls
6749 1733 Pls
1570 3584 Pls
3297 2717 Pls
5023 2468 Pls
6749 2069 Pls
1570 3913 Pls
3297 2714 Pls
5023 2186 Pls
6749 2135 Pls
1570 4101 Pls
3297 2857 Pls
5023 1991 Pls
6749 1920 Pls
1570 3151 Pls
3297 2392 Pls
5023 2331 Pls
6749 1850 Pls
1570 2692 Pls
3297 1908 Pls
5023 1695 Pls
6749 1504 Pls
1570 2671 Pls
3297 1807 Pls
5023 1278 Pls
6749 1194 Pls
1570 3163 Pls
3297 1850 Pls
5023 1363 Pls
6749 1546 Pls
1570 2277 Pls
3297 2113 Pls
5023 1644 Pls
6749 1588 Pls
1570 3557 Pls
3297 2332 Pls
5023 1925 Pls
6749 1837 Pls
1570 3360 Pls
3297 2507 Pls
5023 2263 Pls
6749 1650 Pls
1570 4101 Pls
3297 3183 Pls
5023 2355 Pls
6749 1899 Pls
1570 3619 Pls
3297 3114 Pls
5023 2317 Pls
6749 1985 Pls
1570 3874 Pls
3297 2686 Pls
5023 2020 Pls
6749 1757 Pls
1570 3857 Pls
3297 2614 Pls
5023 2288 Pls
6749 1957 Pls
1570 3647 Pls
3297 2282 Pls
5023 1827 Pls
6749 1697 Pls
1570 2770 Pls
3297 1588 Pls
5023 1475 Pls
6749 1173 Pls
1570 2868 Pls
3297 2288 Pls
5023 1532 Pls
6749 1380 Pls
1570 2966 Pls
3297 2376 Pls
5023 1813 Pls
6749 1795 Pls
1570 3754 Pls
3297 2201 Pls
5023 2151 Pls
6749 1899 Pls
1570 3262 Pls
3297 2594 Pls
5023 1954 Pls
6749 2023 Pls
1570 3501 Pls
3297 2559 Pls
5023 2332 Pls
6749 2011 Pls
1570 3914 Pls
3297 2655 Pls
5023 2436 Pls
6749 1755 Pls
1570 3899 Pls
3297 2536 Pls
5023 2460 Pls
6749 1999 Pls
1570 4221 Pls
3297 2912 Pls
5023 2116 Pls
6749 1682 Pls
1570 3627 Pls
3297 2150 Pls
5023 1880 Pls
6749 1579 Pls
1570 2573 Pls
3297 2113 Pls
5023 1363 Pls
6749 1318 Pls
1570 2474 Pls
3297 2069 Pls
5023 1700 Pls
6749 1671 Pls
1570 3360 Pls
3297 2157 Pls
5023 1954 Pls
6749 1837 Pls
1570 3262 Pls
3297 2463 Pls
5023 2066 Pls
6749 1754 Pls
1570 3459 Pls
3297 2813 Pls
5023 2601 Pls
6749 2313 Pls
1570 3080 Pls
3297 2194 Pls
5023 1855 Pls
6749 1714 Pls
1570 3485 Pls
3297 2237 Pls
5023 1696 Pls
6749 1681 Pls
1570 3665 Pls
3297 2251 Pls
5023 1635 Pls
6749 1642 Pls
1570 2948 Pls
3297 2131 Pls
5023 1527 Pls
6749 1284 Pls
1570 2454 Pls
3297 1749 Pls
5023 1379 Pls
6749 1332 Pls
1570 1883 Pls
3297 1150 Pls
5023 1109 Pls
6749 1111 Pls
1570 1883 Pls
3297 1238 Pls
5023 1194 Pls
6749 1152 Pls
1570 2966 Pls
3297 1850 Pls
5023 1335 Pls
6749 1629 Pls
1570 3163 Pls
3297 1719 Pls
5023 1306 Pls
6749 1277 Pls
1570 2868 Pls
3297 1850 Pls
5023 1475 Pls
6749 1463 Pls
1570 3788 Pls
3297 2817 Pls
5023 2252 Pls
6749 2002 Pls
1570 3578 Pls
3297 2316 Pls
5023 2229 Pls
6749 1870 Pls
1570 3720 Pls
3297 2731 Pls
5023 1945 Pls
6749 1886 Pls
1570 3003 Pls
3297 2429 Pls
5023 2050 Pls
6749 1561 Pls
1570 3080 Pls
3297 1735 Pls
5023 1671 Pls
6749 1541 Pls
1570 2376 Pls
3297 1544 Pls
5023 1278 Pls
6749 1090 Pls
1570 2671 Pls
3297 1456 Pls
5023 1363 Pls
6749 1215 Pls
1570 2868 Pls
3297 1982 Pls
5023 1532 Pls
6749 1505 Pls
1570 2376 Pls
3297 2113 Pls
5023 1785 Pls
6749 1609 Pls
1570 2671 Pls
3297 2069 Pls
5023 1700 Pls
6749 1774 Pls
1570 3733 Pls
3297 3123 Pls
5023 2195 Pls
6749 2242 Pls
1570 4110 Pls
3297 2731 Pls
5023 2157 Pls
6749 1900 Pls
1570 4045 Pls
3297 2589 Pls
5023 2049 Pls
6749 1860 Pls
1570 3129 Pls
3297 2591 Pls
5023 1897 Pls
6749 1707 Pls
1570 2987 Pls
3297 1923 Pls
5023 1499 Pls
6749 1597 Pls
1570 2376 Pls
3297 1456 Pls
5023 1278 Pls
6749 1215 Pls
1570 3163 Pls
3297 2025 Pls
5023 1447 Pls
6749 1256 Pls
1570 3557 Pls
3297 1982 Pls
5023 1813 Pls
6749 1505 Pls
1570 2770 Pls
3297 2376 Pls
5023 2038 Pls
6749 1691 Pls
1570 3557 Pls
3297 2244 Pls
5023 1588 Pls
6749 1712 Pls
1570 3878 Pls
3297 3138 Pls
5023 2087 Pls
6749 2051 Pls
1570 3964 Pls
3297 2698 Pls
5023 2175 Pls
6749 1845 Pls
1570 3781 Pls
3297 2629 Pls
5023 2344 Pls
6749 2010 Pls
1570 3505 Pls
3297 2928 Pls
5023 1839 Pls
6749 1813 Pls
1570 3205 Pls
3297 2323 Pls
5023 2265 Pls
6749 1625 Pls
1570 2376 Pls
3297 1632 Pls
5023 1363 Pls
6749 1235 Pls
1570 2868 Pls
3297 1850 Pls
5023 1475 Pls
6749 1505 Pls
1570 3065 Pls
3297 2069 Pls
5023 1841 Pls
6749 1567 Pls
1570 3656 Pls
3297 2463 Pls
5023 2066 Pls
6749 1650 Pls
1570 3754 Pls
3297 2726 Pls
5023 2038 Pls
6749 1650 Pls
1570 4090 Pls
3297 2865 Pls
5023 2478 Pls
6749 2018 Pls
1570 3706 Pls
3297 2835 Pls
5023 2414 Pls
6749 2268 Pls
1570 3958 Pls
3297 2916 Pls
5023 2367 Pls
6749 1865 Pls
1570 3719 Pls
3297 2607 Pls
5023 2170 Pls
6749 2166 Pls
1570 2868 Pls
3297 2347 Pls
5023 1922 Pls
6749 1646 Pls
1570 2277 Pls
3297 1807 Pls
5023 1306 Pls
6749 1277 Pls
1570 2671 Pls
3297 1982 Pls
5023 1588 Pls
6749 1609 Pls
1570 3656 Pls
3297 2638 Pls
5023 2235 Pls
6749 2127 Pls
1570 3754 Pls
3297 2770 Pls
5023 1672 Pls
6749 2002 Pls
1570 4345 Pls
3297 2769 Pls
5023 2291 Pls
6749 2168 Pls
1570 2927 Pls
3297 2102 Pls
5023 2277 Pls
6749 1639 Pls
1570 3263 Pls
3297 1927 Pls
5023 2158 Pls
6749 1593 Pls
1570 3274 Pls
3297 2278 Pls
5023 1981 Pls
6749 1441 Pls
1570 2593 Pls
3297 1742 Pls
5023 1745 Pls
6749 1459 Pls
1570 2638 Pls
3297 1810 Pls
5023 1330 Pls
6749 1257 Pls
1570 1785 Pls
3297 931 Pls
5023 997 Pls
6749 1049 Pls
1570 1982 Pls
3297 1238 Pls
5023 1335 Pls
6749 1132 Pls
1570 2573 Pls
3297 1675 Pls
5023 1278 Pls
6749 1215 Pls
1570 2080 Pls
3297 1632 Pls
5023 1391 Pls
6749 1194 Pls
1570 3557 Pls
3297 2069 Pls
5023 1475 Pls
6749 1401 Pls
1570 3643 Pls
3297 2857 Pls
5023 1968 Pls
6749 1815 Pls
1570 3466 Pls
3297 2338 Pls
5023 2207 Pls
6749 1800 Pls
1570 2803 Pls
3297 2388 Pls
5023 2086 Pls
6749 1697 Pls
1570 3562 Pls
3297 2090 Pls
5023 1682 Pls
6749 1735 Pls
1570 2905 Pls
3297 2098 Pls
5023 1624 Pls
6749 1350 Pls
1570 2179 Pls
3297 1325 Pls
5023 1222 Pls
6749 1070 Pls
1570 2868 Pls
3297 1544 Pls
5023 1335 Pls
6749 1380 Pls
1570 2474 Pls
3297 1719 Pls
5023 1588 Pls
6749 1277 Pls
1570 3065 Pls
3297 1894 Pls
5023 1560 Pls
6749 1401 Pls
1570 3557 Pls
3297 2069 Pls
5023 1841 Pls
6749 1671 Pls
1570 3719 Pls
3297 3054 Pls
5023 2353 Pls
6749 2146 Pls
1570 3427 Pls
3297 2762 Pls
5023 2294 Pls
6749 1959 Pls
1570 2953 Pls
3297 2858 Pls
5023 2359 Pls
6749 1797 Pls
1570 3762 Pls
3297 2690 Pls
5023 1929 Pls
6749 1828 Pls
1570 3208 Pls
3297 2061 Pls
5023 1892 Pls
6749 1444 Pls
1570 1982 Pls
3297 1325 Pls
5023 1363 Pls
6749 1194 Pls
1570 2770 Pls
3297 2025 Pls
5023 1532 Pls
6749 1360 Pls
1570 3459 Pls
3297 2201 Pls
5023 1728 Pls
6749 1754 Pls
1570 3360 Pls
3297 2069 Pls
5023 1728 Pls
6749 1505 Pls
1570 3065 Pls
3297 2157 Pls
5023 1925 Pls
6749 1733 Pls
1570 3844 Pls
3297 2852 Pls
5023 2494 Pls
6749 1890 Pls
1570 4052 Pls
3297 2763 Pls
5023 2469 Pls
6749 2160 Pls
1570 3788 Pls
3297 2614 Pls
5023 1981 Pls
6749 1978 Pls
1570 3698 Pls
3297 2279 Pls
5023 1734 Pls
6749 1786 Pls
1570 3241 Pls
3297 2126 Pls
5023 2005 Pls
6749 1751 Pls
1570 2376 Pls
3297 1894 Pls
5023 1419 Pls
6749 1215 Pls
1570 3262 Pls
3297 1544 Pls
5023 1785 Pls
6749 1609 Pls
1570 2966 Pls
3297 2157 Pls
5023 2038 Pls
6749 1816 Pls
1570 3459 Pls
3297 2419 Pls
5023 1841 Pls
6749 1961 Pls
1570 3656 Pls
3297 2507 Pls
5023 2038 Pls
6749 1940 Pls
1570 4103 Pls
3297 3398 Pls
5023 2440 Pls
6749 2059 Pls
1570 3471 Pls
3297 2986 Pls
5023 2659 Pls
6749 1984 Pls
1570 3453 Pls
3297 3031 Pls
5023 2097 Pls
6749 2301 Pls
1570 3453 Pls
3297 2531 Pls
5023 2287 Pls
6749 1562 Pls
1570 3510 Pls
3297 2294 Pls
5023 2057 Pls
6749 1669 Pls
1570 3262 Pls
3297 1632 Pls
5023 1447 Pls
6749 1256 Pls
1570 2573 Pls
3297 1938 Pls
5023 1391 Pls
6749 1609 Pls
1570 3557 Pls
3297 2507 Pls
5023 1954 Pls
6749 1754 Pls
1570 3459 Pls
3297 2813 Pls
5023 1869 Pls
6749 1940 Pls
1570 3262 Pls
3297 2551 Pls
5023 2179 Pls
6749 2106 Pls
1570 3080 Pls
3297 2320 Pls
5023 2008 Pls
6749 1622 Pls
1570 2716 Pls
3297 2530 Pls
5023 1783 Pls
6749 1701 Pls
1570 3304 Pls
3297 1935 Pls
5023 1540 Pls
6749 1551 Pls
1570 3065 Pls
3297 2142 Pls
5023 1575 Pls
6749 1545 Pls
1570 2362 Pls
3297 1620 Pls
5023 1397 Pls
6749 1163 Pls
1570 1883 Pls
3297 1281 Pls
5023 1109 Pls
6749 987 Pls
1570 1982 Pls
3297 1238 Pls
5023 1194 Pls
6749 1111 Pls
1570 2573 Pls
3297 1632 Pls
5023 1278 Pls
6749 1152 Pls
1570 2376 Pls
3297 1588 Pls
5023 1447 Pls
6749 1173 Pls
1570 2080 Pls
3297 1894 Pls
5023 1588 Pls
6749 1360 Pls
1570 3449 Pls
3297 2670 Pls
5023 2344 Pls
6749 1958 Pls
1570 3860 Pls
3297 2608 Pls
5023 2299 Pls
6749 1839 Pls
1570 3487 Pls
3297 2476 Pls
5023 2109 Pls
6749 1786 Pls
1570 3298 Pls
3297 2310 Pls
5023 1807 Pls
6749 1492 Pls
1570 2915 Pls
3297 2137 Pls
5023 1477 Pls
6749 1508 Pls
1570 1785 Pls
3297 1238 Pls
5023 1391 Pls
6749 1132 Pls
1570 1982 Pls
3297 1719 Pls
5023 1363 Pls
6749 1256 Pls
1570 2080 Pls
3297 1807 Pls
5023 1616 Pls
6749 1235 Pls
1570 3754 Pls
3297 2157 Pls
5023 1757 Pls
6749 1298 Pls
1570 2770 Pls
3297 2244 Pls
5023 1813 Pls
6749 1401 Pls
1570 3999 Pls
3297 2576 Pls
5023 2141 Pls
6749 2040 Pls
1570 3890 Pls
3297 2493 Pls
5023 2201 Pls
6749 2070 Pls
1570 3922 Pls
3297 2540 Pls
5023 2147 Pls
6749 2012 Pls
1570 3001 Pls
3297 2612 Pls
5023 1920 Pls
6749 1583 Pls
1570 2758 Pls
3297 2485 Pls
5023 1937 Pls
6749 1485 Pls
1570 2080 Pls
3297 1413 Pls
5023 1025 Pls
6749 1235 Pls
1570 3065 Pls
3297 1982 Pls
5023 1560 Pls
6749 1401 Pls
1570 3065 Pls
3297 1938 Pls
5023 1644 Pls
6749 1526 Pls
1570 3360 Pls
3297 2201 Pls
5023 1925 Pls
6749 1401 Pls
1570 3459 Pls
3297 2682 Pls
5023 1841 Pls
6749 1609 Pls
1570 3941 Pls
3297 2942 Pls
5023 2521 Pls
6749 2097 Pls
1570 3927 Pls
3297 3154 Pls
5023 2379 Pls
6749 1936 Pls
1570 3903 Pls
3297 2710 Pls
5023 2470 Pls
6749 1921 Pls
1570 3087 Pls
3297 2646 Pls
5023 2091 Pls
6749 1745 Pls
1570 3274 Pls
3297 2310 Pls
5023 2212 Pls
6749 1495 Pls
1570 2080 Pls
3297 1763 Pls
5023 1475 Pls
6749 1256 Pls
1570 2671 Pls
3297 2157 Pls
5023 1728 Pls
6749 1463 Pls
1570 2868 Pls
3297 2201 Pls
5023 1897 Pls
6749 1422 Pls
1570 3557 Pls
3297 2244 Pls
5023 1841 Pls
6749 1588 Pls
1570 3557 Pls
3297 2594 Pls
5023 2038 Pls
6749 1837 Pls
1570 4190 Pls
3297 3317 Pls
5023 2540 Pls
6749 2287 Pls
1570 3663 Pls
3297 3005 Pls
5023 2771 Pls
6749 2344 Pls
1570 3453 Pls
3297 2917 Pls
5023 2262 Pls
6749 1990 Pls
1570 3703 Pls
3297 2554 Pls
5023 2020 Pls
6749 1808 Pls
1570 3032 Pls
3297 2283 Pls
5023 1916 Pls
6749 1737 Pls
1570 2770 Pls
3297 1588 Pls
5023 1475 Pls
6749 1277 Pls
1570 3065 Pls
3297 2507 Pls
5023 1419 Pls
6749 1380 Pls
1570 3557 Pls
3297 2332 Pls
5023 1700 Pls
6749 1505 Pls
1570 2966 Pls
3297 2813 Pls
5023 2010 Pls
6749 1774 Pls
1570 3262 Pls
3297 2025 Pls
5023 2376 Pls
6749 2106 Pls
1570 3013 Pls
3297 2731 Pls
5023 2176 Pls
6749 1788 Pls
1570 3550 Pls
3297 2176 Pls
5023 1797 Pls
6749 1574 Pls
1570 3181 Pls
3297 2174 Pls
5023 1758 Pls
6749 1618 Pls
1570 2544 Pls
3297 2023 Pls
5023 1756 Pls
6749 1440 Pls
1570 2389 Pls
3297 1745 Pls
5023 1450 Pls
6749 1329 Pls
1570 1686 Pls
3297 1238 Pls
5023 969 Pls
6749 966 Pls
1570 2080 Pls
3297 1588 Pls
5023 1278 Pls
6749 1049 Pls
1570 2179 Pls
3297 1456 Pls
5023 1250 Pls
6749 1194 Pls
1570 2868 Pls
3297 1456 Pls
5023 1419 Pls
6749 1152 Pls
1570 2376 Pls
3297 1500 Pls
5023 1335 Pls
6749 1173 Pls
1570 3886 Pls
3297 2454 Pls
5023 2060 Pls
6749 1667 Pls
1570 3663 Pls
3297 2741 Pls
5023 1884 Pls
6749 1784 Pls
1570 3519 Pls
3297 2470 Pls
5023 2049 Pls
6749 1721 Pls
1570 2591 Pls
3297 2242 Pls
5023 1850 Pls
6749 1656 Pls
1570 2936 Pls
3297 1950 Pls
5023 1600 Pls
6749 1472 Pls
1570 1489 Pls
3297 1456 Pls
5023 1194 Pls
6749 1132 Pls
1570 2671 Pls
3297 1719 Pls
5023 1419 Pls
6749 1401 Pls
1570 2474 Pls
3297 1850 Pls
5023 1532 Pls
6749 1339 Pls
1570 3065 Pls
3297 2113 Pls
5023 1391 Pls
6749 1463 Pls
1570 3656 Pls
3297 2025 Pls
5023 1869 Pls
6749 1463 Pls
1570 3781 Pls
3297 2602 Pls
5023 2240 Pls
6749 1953 Pls
1570 3939 Pls
3297 2907 Pls
5023 2381 Pls
6749 1730 Pls
1570 3626 Pls
3297 2605 Pls
5023 1860 Pls
6749 2047 Pls
1570 2947 Pls
3297 2525 Pls
5023 1813 Pls
6749 1681 Pls
1570 2998 Pls
3297 2194 Pls
5023 1596 Pls
6749 1586 Pls
1570 2277 Pls
3297 1500 Pls
5023 1363 Pls
6749 1152 Pls
1570 3163 Pls
3297 1632 Pls
5023 1560 Pls
6749 1277 Pls
1570 2770 Pls
3297 2069 Pls
5023 1644 Pls
6749 1380 Pls
1570 2966 Pls
3297 2288 Pls
5023 2122 Pls
6749 1650 Pls
1570 2966 Pls
3297 2288 Pls
5023 1672 Pls
6749 1567 Pls
1570 3906 Pls
3297 2828 Pls
5023 2399 Pls
6749 2056 Pls
1570 3619 Pls
3297 3048 Pls
5023 2287 Pls
6749 1933 Pls
1570 3647 Pls
3297 2429 Pls
5023 1959 Pls
6749 1785 Pls
1570 3509 Pls
3297 1977 Pls
5023 1770 Pls
6749 1895 Pls
1570 3348 Pls
3297 2279 Pls
5023 1751 Pls
6749 1389 Pls
1570 2179 Pls
3297 1719 Pls
5023 1363 Pls
6749 1380 Pls
1570 2770 Pls
3297 1675 Pls
5023 1785 Pls
6749 1380 Pls
1570 3065 Pls
3297 1807 Pls
5023 1503 Pls
6749 1754 Pls
1570 2868 Pls
3297 2507 Pls
5023 1532 Pls
6749 1816 Pls
1570 3065 Pls
3297 2157 Pls
5023 1925 Pls
6749 1899 Pls
1570 3846 Pls
3297 2775 Pls
5023 2622 Pls
6749 2090 Pls
1570 4197 Pls
3297 3132 Pls
5023 2340 Pls
6749 1767 Pls
1570 4061 Pls
3297 2976 Pls
5023 2288 Pls
6749 2061 Pls
1570 3476 Pls
3297 2790 Pls
5023 2387 Pls
6749 1810 Pls
1570 3501 Pls
3297 2590 Pls
5023 1991 Pls
6749 1901 Pls
1570 2671 Pls
3297 1763 Pls
5023 1503 Pls
6749 1277 Pls
1570 2868 Pls
3297 1763 Pls
5023 1700 Pls
6749 1754 Pls
1570 3557 Pls
3297 1938 Pls
5023 1841 Pls
6749 1650 Pls
1570 3656 Pls
3297 2638 Pls
5023 1728 Pls
6749 1691 Pls
1570 3656 Pls
3297 2332 Pls
5023 2179 Pls
6749 1795 Pls
1570 3635 Pls
3297 2227 Pls
5023 1794 Pls
6749 1616 Pls
1570 3275 Pls
3297 2262 Pls
5023 1862 Pls
6749 1609 Pls
1570 2998 Pls
3297 2154 Pls
5023 2008 Pls
6749 1686 Pls
1570 2880 Pls
3297 1830 Pls
5023 1617 Pls
6749 1424 Pls
1570 2336 Pls
3297 1667 Pls
5023 1473 Pls
6749 1258 Pls
1570 1785 Pls
3297 1194 Pls
5023 1025 Pls
6749 1028 Pls
1570 1686 Pls
3297 1106 Pls
5023 1335 Pls
6749 1132 Pls
1570 2277 Pls
3297 1325 Pls
5023 1222 Pls
6749 1235 Pls
1570 2573 Pls
3297 1719 Pls
5023 1306 Pls
6749 1194 Pls
1570 2671 Pls
3297 1982 Pls
5023 1672 Pls
6749 1401 Pls
1570 3498 Pls
3297 2740 Pls
5023 1916 Pls
6749 1830 Pls
1570 3460 Pls
3297 2634 Pls
5023 1902 Pls
6749 1736 Pls
1570 3705 Pls
3297 2386 Pls
5023 1808 Pls
6749 1586 Pls
1570 3329 Pls
3297 2105 Pls
5023 1876 Pls
6749 1456 Pls
1570 2297 Pls
3297 2161 Pls
5023 1563 Pls
6749 1412 Pls
1570 1982 Pls
3297 1194 Pls
5023 1138 Pls
6749 1173 Pls
1570 2179 Pls
3297 1894 Pls
5023 1503 Pls
6749 1277 Pls
1570 2868 Pls
3297 1938 Pls
5023 1475 Pls
6749 1318 Pls
1570 2966 Pls
3297 2201 Pls
5023 1785 Pls
6749 1650 Pls
1570 3459 Pls
3297 1894 Pls
5023 1616 Pls
6749 1588 Pls
1570 3980 Pls
3297 2436 Pls
5023 2458 Pls
6749 2016 Pls
1570 4007 Pls
3297 2582 Pls
5023 2157 Pls
6749 1940 Pls
1570 3460 Pls
3297 2864 Pls
5023 2109 Pls
6749 1699 Pls
1570 3642 Pls
3297 2461 Pls
5023 2024 Pls
6749 1767 Pls
1570 3138 Pls
3297 2352 Pls
5023 1546 Pls
6749 1447 Pls
1570 2277 Pls
3297 1544 Pls
5023 1306 Pls
6749 1132 Pls
1570 2671 Pls
3297 1894 Pls
5023 1391 Pls
6749 1401 Pls
1570 3360 Pls
3297 1982 Pls
5023 1503 Pls
6749 1318 Pls
1570 3459 Pls
3297 2025 Pls
5023 1869 Pls
6749 1360 Pls
1570 3656 Pls
3297 2201 Pls
5023 1925 Pls
6749 1422 Pls
1570 3758 Pls
3297 2809 Pls
5023 2572 Pls
6749 1967 Pls
1570 4290 Pls
3297 2829 Pls
5023 2449 Pls
6749 2007 Pls
1570 3200 Pls
3297 2678 Pls
5023 2144 Pls
6749 2028 Pls
1570 3611 Pls
3297 2409 Pls
5023 2102 Pls
6749 1787 Pls
1570 3360 Pls
3297 2609 Pls
5023 1747 Pls
6749 1655 Pls
1570 2671 Pls
3297 1632 Pls
5023 1363 Pls
6749 1215 Pls
1570 2868 Pls
3297 2025 Pls
5023 1588 Pls
6749 1339 Pls
1570 2966 Pls
3297 2113 Pls
5023 1813 Pls
6749 1484 Pls
1570 3163 Pls
3297 2463 Pls
5023 1982 Pls
6749 1463 Pls
1570 3163 Pls
3297 2682 Pls
5023 2010 Pls
6749 1774 Pls
1570 3934 Pls
3297 2934 Pls
5023 2174 Pls
6749 1891 Pls
1570 3962 Pls
3297 2602 Pls
5023 2181 Pls
6749 1733 Pls
1570 3923 Pls
3297 2847 Pls
5023 2239 Pls
6749 1864 Pls
1570 4062 Pls
3297 2886 Pls
5023 2410 Pls
6749 1792 Pls
1570 3473 Pls
3297 2477 Pls
5023 2079 Pls
6749 1858 Pls
1570 2770 Pls
3297 1675 Pls
5023 1728 Pls
6749 1360 Pls
1570 3163 Pls
3297 1763 Pls
5023 1869 Pls
6749 1588 Pls
1570 3262 Pls
3297 2288 Pls
5023 1560 Pls
6749 1380 Pls
1570 3853 Pls
3297 2638 Pls
5023 1925 Pls
6749 1795 Pls
1570 3459 Pls
3297 2726 Pls
5023 2094 Pls
6749 1795 Pls
1570 3474 Pls
3297 2034 Pls
5023 2003 Pls
6749 1635 Pls
1570 3117 Pls
3297 2408 Pls
5023 1824 Pls
6749 1403 Pls
1570 3048 Pls
3297 2363 Pls
5023 1744 Pls
6749 1617 Pls
1570 2696 Pls
3297 1978 Pls
5023 1457 Pls
6749 1378 Pls
1570 2704 Pls
3297 1692 Pls
5023 1617 Pls
6749 1274 Pls
1570 1391 Pls
3297 1063 Pls
5023 997 Pls
6749 987 Pls
1570 2179 Pls
3297 1281 Pls
5023 1053 Pls
6749 1132 Pls
1570 2573 Pls
3297 1500 Pls
5023 1194 Pls
6749 1152 Pls
1570 2770 Pls
3297 1588 Pls
5023 1532 Pls
6749 1235 Pls
1570 2376 Pls
3297 1719 Pls
5023 1335 Pls
6749 1152 Pls
1570 3955 Pls
3297 2490 Pls
5023 2391 Pls
6749 1794 Pls
1570 3718 Pls
3297 2376 Pls
5023 2313 Pls
6749 2052 Pls
1570 3542 Pls
3297 2663 Pls
5023 2171 Pls
6749 1885 Pls
1570 3368 Pls
3297 2372 Pls
5023 1831 Pls
6749 1655 Pls
1570 2567 Pls
3297 1960 Pls
5023 1588 Pls
6749 1405 Pls
1570 2179 Pls
3297 1632 Pls
5023 1166 Pls
6749 1007 Pls
1570 1883 Pls
3297 1588 Pls
5023 1391 Pls
6749 1215 Pls
1570 2966 Pls
3297 1544 Pls
5023 1475 Pls
6749 1256 Pls
1570 2376 Pls
3297 1763 Pls
5023 1757 Pls
6749 1360 Pls
1570 2671 Pls
3297 2201 Pls
5023 1897 Pls
6749 1235 Pls
1570 3939 Pls
3297 2770 Pls
5023 2357 Pls
6749 1914 Pls
1570 4018 Pls
3297 2831 Pls
5023 1855 Pls
6749 1839 Pls
1570 3499 Pls
3297 2281 Pls
5023 2137 Pls
6749 1780 Pls
1570 3244 Pls
3297 2890 Pls
5023 1523 Pls
6749 1783 Pls
1570 2657 Pls
3297 2142 Pls
5023 1947 Pls
6749 1620 Pls
1570 2277 Pls
3297 1325 Pls
5023 1250 Pls
6749 1132 Pls
1570 2671 Pls
3297 1938 Pls
5023 1475 Pls
6749 1360 Pls
1570 2474 Pls
3297 1807 Pls
5023 1672 Pls
6749 1443 Pls
1570 2966 Pls
3297 2113 Pls
5023 1447 Pls
6749 1546 Pls
1570 3754 Pls
3297 2244 Pls
5023 1813 Pls
6749 1588 Pls
1570 3749 Pls
3297 2921 Pls
5023 2181 Pls
6749 1925 Pls
1570 3738 Pls
3297 2835 Pls
5023 2505 Pls
6749 1839 Pls
1570 3481 Pls
3297 2522 Pls
5023 2369 Pls
6749 1839 Pls
1570 3187 Pls
3297 2577 Pls
5023 2288 Pls
6749 1815 Pls
1570 2633 Pls
3297 2182 Pls
5023 1721 Pls
6749 1653 Pls
1570 2376 Pls
3297 1413 Pls
5023 969 Pls
6749 1028 Pls
1570 2966 Pls
3297 1763 Pls
5023 1560 Pls
6749 1380 Pls
1570 2966 Pls
3297 1938 Pls
5023 1532 Pls
6749 1588 Pls
1570 3853 Pls
3297 2244 Pls
5023 1700 Pls
6749 1567 Pls
1570 3754 Pls
3297 2769 Pls
5023 1785 Pls
6749 1712 Pls
1570 4180 Pls
3297 2931 Pls
5023 2547 Pls
6749 2176 Pls
1570 4175 Pls
3297 2961 Pls
5023 2649 Pls
6749 1948 Pls
1570 3795 Pls
3297 2702 Pls
5023 2301 Pls
6749 1953 Pls
1570 3627 Pls
3297 2700 Pls
5023 2357 Pls
6749 2064 Pls
1570 3535 Pls
3297 2545 Pls
5023 1757 Pls
6749 1634 Pls
1570 2868 Pls
3297 1456 Pls
5023 1616 Pls
6749 1277 Pls
1570 2474 Pls
3297 1938 Pls
5023 1728 Pls
6749 1484 Pls
1570 2671 Pls
3297 2201 Pls
5023 1447 Pls
6749 1712 Pls
1570 4148 Pls
3297 2025 Pls
5023 1503 Pls
6749 1546 Pls
1570 3754 Pls
3297 2376 Pls
5023 1813 Pls
6749 1588 Pls
1570 3320 Pls
3297 2801 Pls
5023 1928 Pls
6749 1637 Pls
1570 3118 Pls
3297 2629 Pls
5023 2015 Pls
6749 1655 Pls
1570 3221 Pls
3297 1728 Pls
5023 1632 Pls
6749 1546 Pls
1570 3220 Pls
3297 1991 Pls
5023 1691 Pls
6749 1398 Pls
1570 2389 Pls
3297 1670 Pls
5023 1379 Pls
6749 1291 Pls
1570 1588 Pls
3297 1281 Pls
5023 1053 Pls
6749 1007 Pls
1570 1883 Pls
3297 1456 Pls
5023 1166 Pls
6749 1049 Pls
1570 2376 Pls
3297 1588 Pls
5023 1250 Pls
6749 1090 Pls
1570 2671 Pls
3297 1632 Pls
5023 1335 Pls
6749 1152 Pls
1570 2671 Pls
3297 1938 Pls
5023 1306 Pls
6749 1173 Pls
1570 3783 Pls
3297 3057 Pls
5023 1930 Pls
6749 1932 Pls
1570 3521 Pls
3297 3073 Pls
5023 2154 Pls
6749 1794 Pls
1570 3212 Pls
3297 2326 Pls
5023 2020 Pls
6749 1580 Pls
1570 3014 Pls
3297 2111 Pls
5023 1707 Pls
6749 1594 Pls
1570 2426 Pls
3297 2250 Pls
5023 1601 Pls
6749 1258 Pls
1570 2179 Pls
3297 1281 Pls
5023 1138 Pls
6749 1090 Pls
1570 2080 Pls
3297 1544 Pls
5023 1363 Pls
6749 1277 Pls
1570 2376 Pls
3297 1894 Pls
5023 1335 Pls
6749 1194 Pls
1570 3262 Pls
3297 2069 Pls
5023 1644 Pls
6749 1401 Pls
1570 3065 Pls
3297 1675 Pls
5023 1335 Pls
6749 1380 Pls
1570 4011 Pls
3297 2959 Pls
5023 2373 Pls
6749 1697 Pls
1570 4103 Pls
3297 2568 Pls
5023 2281 Pls
6749 1714 Pls
1570 3271 Pls
3297 2692 Pls
5023 2107 Pls
6749 1764 Pls
1570 3941 Pls
3297 2465 Pls
5023 2115 Pls
6749 1739 Pls
1570 2557 Pls
3297 1946 Pls
5023 1611 Pls
6749 1370 Pls
1570 1883 Pls
3297 1238 Pls
5023 1363 Pls
6749 1132 Pls
1570 2966 Pls
3297 1763 Pls
5023 1560 Pls
6749 1422 Pls
1570 3163 Pls
3297 1719 Pls
5023 1475 Pls
6749 1484 Pls
1570 3360 Pls
3297 2376 Pls
5023 1700 Pls
6749 1422 Pls
1570 3163 Pls
3297 2244 Pls
5023 1757 Pls
6749 1318 Pls
1570 3865 Pls
3297 2762 Pls
5023 2294 Pls
6749 1914 Pls
1570 3284 Pls
3297 2837 Pls
5023 2338 Pls
6749 1945 Pls
1570 4145 Pls
3297 2984 Pls
5023 1995 Pls
6749 1623 Pls
1570 3567 Pls
3297 2310 Pls
5023 2223 Pls
6749 1974 Pls
1570 3176 Pls
3297 2302 Pls
5023 1783 Pls
6749 1590 Pls
1570 2376 Pls
3297 1632 Pls
5023 1419 Pls
6749 1028 Pls
1570 2770 Pls
3297 1807 Pls
5023 1447 Pls
6749 1318 Pls
1570 3360 Pls
3297 2201 Pls
5023 1560 Pls
6749 1526 Pls
1570 3656 Pls
3297 2288 Pls
5023 1644 Pls
6749 1526 Pls
1570 3459 Pls
3297 1982 Pls
5023 1925 Pls
6749 1671 Pls
1570 4131 Pls
3297 3453 Pls
5023 2418 Pls
6749 2312 Pls
1570 3864 Pls
3297 2841 Pls
5023 2457 Pls
6749 2016 Pls
1570 3557 Pls
3297 2840 Pls
5023 2342 Pls
6749 1948 Pls
1570 3213 Pls
3297 2597 Pls
5023 2111 Pls
6749 2149 Pls
1570 3445 Pls
3297 2357 Pls
5023 1936 Pls
6749 1792 Pls
1570 2474 Pls
3297 1894 Pls
5023 1250 Pls
6749 1215 Pls
1570 3065 Pls
3297 2113 Pls
5023 1813 Pls
6749 1526 Pls
1570 3163 Pls
3297 1894 Pls
5023 1700 Pls
6749 1629 Pls
1570 3754 Pls
3297 2507 Pls
5023 1757 Pls
6749 1650 Pls
1570 3262 Pls
3297 2025 Pls
5023 1813 Pls
6749 1609 Pls
1570 3298 Pls
3297 2237 Pls
5023 1612 Pls
6749 1453 Pls
1570 3142 Pls
3297 2380 Pls
5023 1691 Pls
6749 1506 Pls
1570 3413 Pls
3297 1819 Pls
5023 1677 Pls
6749 1481 Pls
1570 2778 Pls
3297 1987 Pls
5023 1499 Pls
6749 1544 Pls
1570 2415 Pls
3297 1473 Pls
5023 1333 Pls
6749 1109 Pls
1570 1489 Pls
3297 1281 Pls
5023 997 Pls
6749 966 Pls
1570 1785 Pls
3297 1281 Pls
5023 1081 Pls
6749 1173 Pls
1570 2277 Pls
3297 1544 Pls
5023 1306 Pls
6749 1070 Pls
1570 2868 Pls
3297 2069 Pls
5023 1419 Pls
6749 1132 Pls
1570 3065 Pls
3297 1413 Pls
5023 1363 Pls
6749 1194 Pls
1570 3800 Pls
3297 2671 Pls
5023 1761 Pls
6749 1946 Pls
1570 3594 Pls
3297 2692 Pls
5023 1968 Pls
6749 1687 Pls
1570 3252 Pls
3297 2407 Pls
5023 1881 Pls
6749 1718 Pls
1570 2998 Pls
3297 1889 Pls
5023 1952 Pls
6749 1732 Pls
1570 3193 Pls
3297 1737 Pls
5023 1867 Pls
6749 1319 Pls
1570 1883 Pls
3297 1456 Pls
5023 1222 Pls
6749 987 Pls
1570 2376 Pls
3297 1675 Pls
5023 1306 Pls
6749 1215 Pls
1570 2474 Pls
3297 1544 Pls
5023 1644 Pls
6749 1360 Pls
1570 3557 Pls
3297 1938 Pls
5023 1447 Pls
6749 1401 Pls
1570 2868 Pls
3297 2288 Pls
5023 1588 Pls
6749 1526 Pls
1570 3740 Pls
3297 2938 Pls
5023 2222 Pls
6749 2128 Pls
1570 3909 Pls
3297 3056 Pls
5023 1888 Pls
6749 1857 Pls
1570 4079 Pls
3297 2803 Pls
5023 2167 Pls
6749 1829 Pls
1570 3297 Pls
3297 2844 Pls
5023 1916 Pls
6749 1520 Pls
1570 3348 Pls
3297 1983 Pls
5023 1643 Pls
6749 1456 Pls
1570 2277 Pls
3297 1369 Pls
5023 1278 Pls
6749 1152 Pls
1570 2474 Pls
3297 1413 Pls
5023 1363 Pls
6749 1256 Pls
1570 3360 Pls
3297 2332 Pls
5023 1475 Pls
6749 1443 Pls
1570 2671 Pls
3297 2113 Pls
5023 1728 Pls
6749 1484 Pls
1570 3360 Pls
3297 1982 Pls
5023 1869 Pls
6749 1505 Pls
1570 3925 Pls
3297 3319 Pls
5023 2047 Pls
6749 2146 Pls
1570 4013 Pls
3297 2979 Pls
5023 2548 Pls
6749 1926 Pls
1570 3596 Pls
3297 3000 Pls
5023 2032 Pls
6749 2089 Pls
1570 3927 Pls
3297 2821 Pls
5023 1908 Pls
6749 1733 Pls
1570 3290 Pls
3297 2049 Pls
5023 1838 Pls
6749 1636 Pls
1570 2573 Pls
3297 1544 Pls
5023 1250 Pls
6749 1318 Pls
1570 2770 Pls
3297 1894 Pls
5023 1532 Pls
6749 1526 Pls
1570 2966 Pls
3297 2025 Pls
5023 1588 Pls
6749 1422 Pls
1570 3557 Pls
3297 1982 Pls
5023 1616 Pls
6749 1733 Pls
1570 2868 Pls
3297 2463 Pls
5023 1982 Pls
6749 1609 Pls
1570 4203 Pls
3297 3055 Pls
5023 2331 Pls
6749 2190 Pls
1570 4117 Pls
3297 2962 Pls
5023 2200 Pls
6749 2055 Pls
1570 3719 Pls
3297 3232 Pls
5023 2452 Pls
6749 1916 Pls
1570 3445 Pls
3297 2735 Pls
5023 2169 Pls
6749 1950 Pls
1570 3501 Pls
3297 2628 Pls
5023 1959 Pls
6749 1772 Pls
1570 2179 Pls
3297 1894 Pls
5023 1419 Pls
6749 1235 Pls
1570 2966 Pls
3297 1500 Pls
5023 1335 Pls
6749 1132 Pls
1570 3360 Pls
3297 1807 Pls
5023 1616 Pls
6749 1546 Pls
1570 3360 Pls
3297 2376 Pls
5023 1869 Pls
6749 1401 Pls
1570 3163 Pls
3297 2069 Pls
5023 1757 Pls
6749 1629 Pls
1570 3087 Pls
3297 2196 Pls
5023 1672 Pls
6749 1920 Pls
1570 3516 Pls
3297 2491 Pls
5023 1966 Pls
6749 1625 Pls
1570 3399 Pls
3297 1986 Pls
5023 1850 Pls
6749 1514 Pls
1570 3008 Pls
3297 1909 Pls
5023 1567 Pls
6749 1475 Pls
1570 2546 Pls
3297 1541 Pls
5023 1404 Pls
6749 1309 Pls
1570 1883 Pls
3297 1150 Pls
5023 1081 Pls
6749 1007 Pls
1570 2277 Pls
3297 1456 Pls
5023 1194 Pls
6749 987 Pls
1570 2277 Pls
3297 1150 Pls
5023 1391 Pls
6749 1256 Pls
1570 2376 Pls
3297 1500 Pls
5023 1363 Pls
6749 1360 Pls
1570 2179 Pls
3297 1675 Pls
5023 1503 Pls
6749 1298 Pls
1570 3221 Pls
3297 2742 Pls
5023 2152 Pls
6749 1697 Pls
1570 3520 Pls
3297 2538 Pls
5023 1877 Pls
6749 1844 Pls
1570 3620 Pls
3297 2227 Pls
5023 1934 Pls
6749 1647 Pls
1570 3013 Pls
3297 2336 Pls
5023 1964 Pls
6749 1647 Pls
1570 2790 Pls
3297 1694 Pls
5023 1679 Pls
6749 1423 Pls
1570 1588 Pls
3297 1500 Pls
5023 1138 Pls
6749 1049 Pls
1570 2179 Pls
3297 1544 Pls
5023 1109 Pls
6749 1215 Pls
1570 2474 Pls
3297 1982 Pls
5023 1560 Pls
6749 1380 Pls
1570 2868 Pls
3297 1982 Pls
5023 1447 Pls
6749 1360 Pls
1570 2868 Pls
3297 2113 Pls
5023 1391 Pls
6749 1256 Pls
1570 3983 Pls
3297 2623 Pls
5023 2212 Pls
6749 1997 Pls
1570 3761 Pls
3297 2885 Pls
5023 2137 Pls
6749 1854 Pls
1570 3550 Pls
3297 2744 Pls
5023 1968 Pls
6749 1791 Pls
1570 3499 Pls
3297 2369 Pls
5023 1930 Pls
6749 1789 Pls
1570 2713 Pls
3297 1945 Pls
5023 1569 Pls
6749 1441 Pls
1570 2474 Pls
3297 1456 Pls
5023 1306 Pls
6749 1277 Pls
1570 2573 Pls
3297 1588 Pls
5023 1475 Pls
6749 1256 Pls
1570 2966 Pls
3297 1982 Pls
5023 1560 Pls
6749 1277 Pls
1570 2868 Pls
3297 2025 Pls
5023 1813 Pls
6749 1443 Pls
1570 3656 Pls
3297 2463 Pls
5023 1728 Pls
6749 1235 Pls
1570 3951 Pls
3297 3190 Pls
5023 2250 Pls
6749 2206 Pls
1570 3710 Pls
3297 2456 Pls
5023 2574 Pls
6749 1831 Pls
1570 2983 Pls
3297 2844 Pls
5023 2106 Pls
6749 1942 Pls
1570 3633 Pls
3297 2545 Pls
5023 1814 Pls
6749 1760 Pls
1570 3243 Pls
3297 2150 Pls
5023 1624 Pls
6749 1584 Pls
1570 2179 Pls
3297 1544 Pls
5023 1222 Pls
6749 1298 Pls
1570 2671 Pls
3297 1982 Pls
5023 1532 Pls
6749 1360 Pls
1570 3360 Pls
3297 2463 Pls
5023 1560 Pls
6749 1318 Pls
1570 3360 Pls
3297 2244 Pls
5023 1700 Pls
6749 1380 Pls
1570 3557 Pls
3297 2332 Pls
5023 1644 Pls
6749 1567 Pls
1570 3943 Pls
3297 3090 Pls
5023 2414 Pls
6749 1984 Pls
1570 4107 Pls
3297 3271 Pls
5023 2537 Pls
6749 2102 Pls
1570 3886 Pls
3297 3115 Pls
5023 2323 Pls
6749 1922 Pls
1570 3636 Pls
3297 2591 Pls
5023 2271 Pls
6749 1824 Pls
1570 3320 Pls
3297 2332 Pls
5023 1807 Pls
6749 1541 Pls
1570 3065 Pls
3297 2025 Pls
5023 1503 Pls
6749 1090 Pls
1570 2966 Pls
3297 2288 Pls
5023 1503 Pls
6749 1298 Pls
1570 2671 Pls
3297 2113 Pls
5023 1503 Pls
6749 1443 Pls
1570 2966 Pls
3297 2157 Pls
5023 1672 Pls
6749 1526 Pls
1570 3360 Pls
3297 2332 Pls
5023 2010 Pls
6749 1588 Pls
1570 3605 Pls
3297 2537 Pls
5023 1930 Pls
6749 1792 Pls
1570 2969 Pls
3297 2498 Pls
5023 1666 Pls
6749 1586 Pls
1570 2848 Pls
3297 2355 Pls
5023 1594 Pls
6749 1641 Pls
1570 2526 Pls
3297 1941 Pls
5023 1631 Pls
6749 1325 Pls
1570 2192 Pls
3297 1581 Pls
5023 1325 Pls
6749 1222 Pls
1570 1686 Pls
3297 1106 Pls
5023 969 Pls
6749 924 Pls
1570 1982 Pls
3297 1456 Pls
5023 1081 Pls
6749 1007 Pls
1570 2474 Pls
3297 1413 Pls
5023 1278 Pls
6749 1132 Pls
1570 2277 Pls
3297 1369 Pls
5023 1278 Pls
6749 1173 Pls
1570 2376 Pls
3297 1850 Pls
5023 1222 Pls
6749 1028 Pls
1570 4038 Pls
3297 2417 Pls
5023 2361 Pls
6749 1895 Pls
1570 3515 Pls
3297 2619 Pls
5023 1815 Pls
6749 1638 Pls
1570 3626 Pls
3297 2320 Pls
5023 1892 Pls
6749 1894 Pls
1570 3297 Pls
3297 2307 Pls
5023 1958 Pls
6749 1821 Pls
1570 3398 Pls
3297 1642 Pls
5023 1555 Pls
6749 1353 Pls
1570 1883 Pls
3297 1325 Pls
5023 1250 Pls
6749 1111 Pls
1570 2770 Pls
3297 1588 Pls
5023 1278 Pls
6749 1173 Pls
1570 2474 Pls
3297 1763 Pls
5023 1194 Pls
6749 1277 Pls
1570 2770 Pls
3297 1982 Pls
5023 1475 Pls
6749 1505 Pls
1570 2868 Pls
3297 1850 Pls
5023 1616 Pls
6749 1360 Pls
1570 3803 Pls
3297 2965 Pls
5023 2377 Pls
6749 1946 Pls
1570 3294 Pls
3297 2921 Pls
5023 2337 Pls
6749 1685 Pls
1570 3993 Pls
3297 2535 Pls
5023 1949 Pls
6749 2061 Pls
1570 3441 Pls
3297 2347 Pls
5023 2014 Pls
6749 1638 Pls
1570 2980 Pls
3297 2171 Pls
5023 1480 Pls
6749 1646 Pls
1570 2671 Pls
3297 1763 Pls
5023 1138 Pls
6749 1298 Pls
1570 2179 Pls
3297 1763 Pls
5023 1335 Pls
6749 1256 Pls
1570 2474 Pls
3297 1982 Pls
5023 1672 Pls
6749 1339 Pls
1570 3262 Pls
3297 2419 Pls
5023 1644 Pls
6749 1298 Pls
1570 3163 Pls
3297 2244 Pls
5023 1841 Pls
6749 1484 Pls
1570 3771 Pls
3297 2528 Pls
5023 2320 Pls
6749 2055 Pls
1570 4153 Pls
3297 2852 Pls
5023 2373 Pls
6749 2206 Pls
1570 3866 Pls
3297 3050 Pls
5023 2514 Pls
6749 2023 Pls
1570 3726 Pls
3297 2629 Pls
5023 2265 Pls
6749 1773 Pls
1570 2696 Pls
3297 2558 Pls
5023 1770 Pls
6749 1357 Pls
1570 2474 Pls
3297 1763 Pls
5023 1419 Pls
6749 1256 Pls
1570 2671 Pls
3297 1763 Pls
5023 1532 Pls
6749 1339 Pls
1570 3163 Pls
3297 2025 Pls
5023 1532 Pls
6749 1339 Pls
1570 3065 Pls
3297 2201 Pls
5023 1757 Pls
6749 1298 Pls
1570 3163 Pls
3297 1894 Pls
5023 1757 Pls
6749 1380 Pls
1570 3962 Pls
3297 3390 Pls
5023 2696 Pls
6749 2065 Pls
1570 4103 Pls
3297 2825 Pls
5023 2666 Pls
6749 2039 Pls
1570 3703 Pls
3297 3027 Pls
5023 2425 Pls
6749 2040 Pls
1570 3642 Pls
3297 2472 Pls
5023 2053 Pls
6749 2069 Pls
1570 3562 Pls
3297 2734 Pls
5023 1993 Pls
6749 1703 Pls
1570 2277 Pls
3297 1632 Pls
5023 1278 Pls
6749 1235 Pls
1570 2966 Pls
3297 1938 Pls
5023 1644 Pls
6749 1318 Pls
1570 3360 Pls
3297 2201 Pls
5023 1757 Pls
6749 1443 Pls
1570 2966 Pls
3297 2069 Pls
5023 1897 Pls
6749 1463 Pls
1570 4148 Pls
3297 2332 Pls
5023 2010 Pls
6749 1401 Pls
1570 3649 Pls
3297 2247 Pls
5023 2128 Pls
6749 1666 Pls
1570 2982 Pls
3297 2099 Pls
5023 1915 Pls
6749 1689 Pls
1570 2966 Pls
3297 1888 Pls
5023 1578 Pls
6749 1594 Pls
1570 2709 Pls
3297 1740 Pls
5023 1746 Pls
6749 1365 Pls
1570 2244 Pls
3297 1753 Pls
5023 1434 Pls
6749 1220 Pls
1570 1489 Pls
3297 1106 Pls
5023 1025 Pls
6749 966 Pls
1570 2277 Pls
3297 1238 Pls
5023 1081 Pls
6749 1007 Pls
1570 2277 Pls
3297 1369 Pls
5023 1419 Pls
6749 1215 Pls
1570 2474 Pls
3297 1369 Pls
5023 1475 Pls
6749 1173 Pls
1570 2277 Pls
3297 1719 Pls
5023 1419 Pls
6749 1111 Pls
1570 3781 Pls
3297 2392 Pls
5023 2171 Pls
6749 1845 Pls
1570 3958 Pls
3297 2362 Pls
5023 1976 Pls
6749 1830 Pls
1570 3499 Pls
3297 2348 Pls
5023 1875 Pls
6749 1908 Pls
1570 3144 Pls
3297 2343 Pls
5023 2026 Pls
6749 1606 Pls
1570 2981 Pls
3297 1866 Pls
5023 1666 Pls
6749 1422 Pls
1570 1588 Pls
3297 1194 Pls
5023 1138 Pls
6749 1028 Pls
1570 2376 Pls
3297 1544 Pls
5023 1081 Pls
6749 1339 Pls
1570 2868 Pls
3297 1632 Pls
5023 1475 Pls
6749 1277 Pls
1570 2868 Pls
3297 2025 Pls
5023 1813 Pls
6749 1256 Pls
1570 3163 Pls
3297 1632 Pls
5023 1588 Pls
6749 1256 Pls
1570 3738 Pls
3297 2803 Pls
5023 2494 Pls
6749 1903 Pls
1570 3803 Pls
3297 2609 Pls
5023 2134 Pls
6749 1991 Pls
1570 3767 Pls
3297 2346 Pls
5023 1874 Pls
6749 1811 Pls
1570 3459 Pls
3297 2560 Pls
5023 2144 Pls
6749 1666 Pls
1570 2955 Pls
3297 1992 Pls
5023 1568 Pls
6749 1449 Pls
1570 2277 Pls
3297 1675 Pls
5023 1391 Pls
6749 1173 Pls
1570 2376 Pls
3297 2201 Pls
5023 1419 Pls
6749 1298 Pls
1570 3163 Pls
3297 1632 Pls
5023 1616 Pls
6749 1298 Pls
1570 3065 Pls
3297 1763 Pls
5023 1447 Pls
6749 1339 Pls
1570 3163 Pls
3297 2419 Pls
5023 1813 Pls
6749 1609 Pls
1570 4131 Pls
3297 3081 Pls
5023 2144 Pls
6749 2049 Pls
1570 3768 Pls
3297 2781 Pls
5023 2302 Pls
6749 2105 Pls
1570 3445 Pls
3297 2853 Pls
5023 2337 Pls
6749 2215 Pls
1570 3487 Pls
3297 2296 Pls
5023 1893 Pls
6749 1808 Pls
1570 3371 Pls
3297 1982 Pls
5023 1757 Pls
6749 1836 Pls
1570 2277 Pls
3297 1456 Pls
5023 1391 Pls
6749 1256 Pls
1570 3065 Pls
3297 1938 Pls
5023 1391 Pls
6749 1235 Pls
1570 3163 Pls
3297 2288 Pls
5023 1560 Pls
6749 1526 Pls
1570 3262 Pls
3297 2332 Pls
5023 1644 Pls
6749 1401 Pls
1570 3262 Pls
3297 2288 Pls
5023 1954 Pls
6749 1526 Pls
1570 4161 Pls
3297 2881 Pls
5023 2492 Pls
6749 2167 Pls
1570 3786 Pls
3297 3234 Pls
5023 2620 Pls
6749 1984 Pls
1570 3959 Pls
3297 3068 Pls
5023 2328 Pls
6749 1638 Pls
1570 3230 Pls
3297 2942 Pls
5023 2514 Pls
6749 1865 Pls
1570 3466 Pls
3297 2150 Pls
5023 2014 Pls
6749 1684 Pls
1570 2868 Pls
3297 1588 Pls
5023 1306 Pls
6749 1256 Pls
1570 2868 Pls
3297 1938 Pls
5023 1700 Pls
6749 1422 Pls
1570 3262 Pls
3297 2201 Pls
5023 1616 Pls
6749 1588 Pls
1570 3065 Pls
3297 2113 Pls
5023 1475 Pls
6749 1422 Pls
1570 3656 Pls
3297 1982 Pls
5023 1757 Pls
6749 1712 Pls
1570 3457 Pls
3297 2298 Pls
5023 2016 Pls
6749 1563 Pls
1570 2797 Pls
3297 2241 Pls
5023 2047 Pls
6749 1662 Pls
1570 3410 Pls
3297 1877 Pls
5023 1695 Pls
6749 1553 Pls
1570 2768 Pls
3297 1770 Pls
5023 1458 Pls
6749 1475 Pls
1570 2546 Pls
3297 1645 Pls
5023 1612 Pls
6749 1218 Pls
1570 1686 Pls
3297 1019 Pls
5023 997 Pls
6749 987 Pls
1570 2179 Pls
3297 1194 Pls
5023 1194 Pls
6749 1049 Pls
1570 2376 Pls
3297 1588 Pls
5023 1194 Pls
6749 1090 Pls
1570 2376 Pls
3297 1544 Pls
5023 1391 Pls
6749 1256 Pls
1570 2376 Pls
3297 1763 Pls
5023 1419 Pls
6749 1401 Pls
1570 3515 Pls
3297 2081 Pls
5023 2117 Pls
6749 1644 Pls
1570 3761 Pls
3297 2118 Pls
5023 1845 Pls
6749 1785 Pls
1570 3707 Pls
3297 2568 Pls
5023 2169 Pls
6749 1829 Pls
1570 3084 Pls
3297 1977 Pls
5023 1965 Pls
6749 1553 Pls
1570 2481 Pls
3297 2194 Pls
5023 1546 Pls
6749 1480 Pls
1570 2179 Pls
3297 1413 Pls
5023 969 Pls
6749 966 Pls
1570 2277 Pls
3297 1544 Pls
5023 1278 Pls
6749 1152 Pls
1570 1982 Pls
3297 1544 Pls
5023 1560 Pls
6749 1298 Pls
1570 2966 Pls
3297 1588 Pls
5023 1475 Pls
6749 1339 Pls
1570 3459 Pls
3297 1850 Pls
5023 1532 Pls
6749 1277 Pls
1570 3589 Pls
3297 3080 Pls
5023 2286 Pls
6749 2034 Pls
1570 4138 Pls
3297 2598 Pls
5023 2153 Pls
6749 1907 Pls
1570 3796 Pls
3297 2787 Pls
5023 2221 Pls
6749 1490 Pls
1570 3732 Pls
3297 2130 Pls
5023 1907 Pls
6749 1808 Pls
1570 2953 Pls
3297 1910 Pls
5023 1816 Pls
6749 1573 Pls
1570 2179 Pls
3297 1369 Pls
5023 1335 Pls
6749 1173 Pls
1570 2277 Pls
3297 1413 Pls
5023 1447 Pls
6749 1132 Pls
1570 2868 Pls
3297 2157 Pls
5023 1616 Pls
6749 1256 Pls
1570 3557 Pls
3297 2288 Pls
5023 1475 Pls
6749 1443 Pls
1570 3656 Pls
3297 2551 Pls
5023 1560 Pls
6749 1505 Pls
1570 3705 Pls
3297 2964 Pls
5023 2308 Pls
6749 2131 Pls
1570 3758 Pls
3297 2927 Pls
5023 2015 Pls
6749 1928 Pls
1570 3851 Pls
3297 2931 Pls
5023 2011 Pls
6749 1922 Pls
1570 3719 Pls
3297 2714 Pls
5023 1930 Pls
6749 1669 Pls
1570 2857 Pls
3297 2350 Pls
5023 1810 Pls
6749 1624 Pls
1570 2179 Pls
3297 1500 Pls
5023 1503 Pls
6749 1215 Pls
1570 3262 Pls
3297 1938 Pls
5023 1588 Pls
6749 1235 Pls
1570 3262 Pls
3297 2113 Pls
5023 1588 Pls
6749 1339 Pls
1570 3656 Pls
3297 2069 Pls
5023 1532 Pls
6749 1733 Pls
1570 3262 Pls
3297 2332 Pls
5023 1588 Pls
6749 1671 Pls
1570 4041 Pls
3297 2700 Pls
5023 2368 Pls
6749 1769 Pls
1570 3895 Pls
3297 3157 Pls
5023 2369 Pls
6749 1926 Pls
1570 3703 Pls
3297 2823 Pls
5023 2204 Pls
6749 1989 Pls
1570 3369 Pls
3297 2850 Pls
5023 2053 Pls
6749 1992 Pls
1570 3610 Pls
3297 2092 Pls
5023 1795 Pls
6749 1617 Pls
1570 2770 Pls
3297 1675 Pls
5023 1138 Pls
6749 1298 Pls
1570 2966 Pls
3297 1894 Pls
5023 1757 Pls
6749 1401 Pls
1570 3163 Pls
3297 1807 Pls
5023 1419 Pls
6749 1484 Pls
1570 3360 Pls
3297 2419 Pls
5023 1757 Pls
6749 1422 Pls
1570 3656 Pls
3297 2025 Pls
5023 1841 Pls
6749 1650 Pls
1570 2945 Pls
3297 2463 Pls
5023 1994 Pls
6749 1603 Pls
1570 3087 Pls
3297 2158 Pls
5023 1903 Pls
6749 1706 Pls
1570 3313 Pls
3297 2332 Pls
5023 1959 Pls
6749 1455 Pls
1570 2513 Pls
3297 1991 Pls
5023 1500 Pls
6749 1284 Pls
1570 2244 Pls
3297 1813 Pls
5023 1232 Pls
6749 1291 Pls
1570 1686 Pls
3297 1106 Pls
5023 969 Pls
6749 924 Pls
1570 1982 Pls
3297 1194 Pls
5023 1138 Pls
6749 1152 Pls
1570 2277 Pls
3297 1544 Pls
5023 1109 Pls
6749 1215 Pls
1570 2474 Pls
3297 1456 Pls
5023 1419 Pls
6749 1235 Pls
1570 2277 Pls
3297 1719 Pls
5023 1419 Pls
6749 1173 Pls
1570 3839 Pls
3297 2582 Pls
5023 2056 Pls
6749 1972 Pls
1570 3699 Pls
3297 2607 Pls
5023 2015 Pls
6749 1800 Pls
1570 3059 Pls
3297 2473 Pls
5023 2241 Pls
6749 1423 Pls
1570 3353 Pls
3297 2369 Pls
5023 1803 Pls
6749 1592 Pls
1570 2741 Pls
3297 1852 Pls
5023 1730 Pls
6749 1420 Pls
1570 1982 Pls
3297 1238 Pls
5023 1222 Pls
6749 1028 Pls
1570 2376 Pls
3297 1369 Pls
5023 1363 Pls
6749 1215 Pls
1570 2179 Pls
3297 1850 Pls
5023 1447 Pls
6749 1298 Pls
1570 3065 Pls
3297 1675 Pls
5023 1672 Pls
6749 1318 Pls
1570 2966 Pls
3297 1982 Pls
5023 1560 Pls
6749 1318 Pls
1570 3930 Pls
3297 2484 Pls
5023 2174 Pls
6749 2149 Pls
1570 3753 Pls
3297 2773 Pls
5023 2560 Pls
6749 1789 Pls
1570 3846 Pls
3297 2746 Pls
5023 2207 Pls
6749 1797 Pls
1570 3307 Pls
3297 2546 Pls
5023 1854 Pls
6749 1894 Pls
1570 3281 Pls
3297 2150 Pls
5023 1505 Pls
6749 1574 Pls
1570 1883 Pls
3297 1588 Pls
5023 1335 Pls
6749 1194 Pls
1570 2966 Pls
3297 2069 Pls
5023 1644 Pls
6749 1235 Pls
1570 3557 Pls
3297 2069 Pls
5023 1503 Pls
6749 1298 Pls
1570 3065 Pls
3297 1938 Pls
5023 1503 Pls
6749 1380 Pls
1570 3065 Pls
3297 2157 Pls
5023 1672 Pls
6749 1484 Pls
1570 3929 Pls
3297 2867 Pls
5023 2244 Pls
6749 1930 Pls
1570 3807 Pls
3297 2773 Pls
5023 2382 Pls
6749 2201 Pls
1570 3948 Pls
3297 2352 Pls
5023 2102 Pls
6749 2006 Pls
1570 3522 Pls
3297 2504 Pls
5023 2006 Pls
6749 1623 Pls
1570 3543 Pls
3297 2366 Pls
5023 1828 Pls
6749 1625 Pls
1570 2868 Pls
3297 1456 Pls
5023 1166 Pls
6749 1235 Pls
1570 2966 Pls
3297 1982 Pls
5023 1391 Pls
6749 1339 Pls
1570 3459 Pls
3297 2244 Pls
5023 1447 Pls
6749 1526 Pls
1570 3065 Pls
3297 2244 Pls
5023 1616 Pls
6749 1505 Pls
1570 3459 Pls
3297 2376 Pls
5023 1869 Pls
6749 1443 Pls
1570 4269 Pls
3297 3371 Pls
5023 2532 Pls
6749 2085 Pls
1570 3964 Pls
3297 3071 Pls
5023 2282 Pls
6749 2055 Pls
1570 3686 Pls
3297 3025 Pls
5023 2110 Pls
6749 1963 Pls
1570 3854 Pls
3297 2735 Pls
5023 2099 Pls
6749 1717 Pls
1570 3725 Pls
3297 1976 Pls
5023 2086 Pls
6749 1569 Pls
1570 2376 Pls
3297 1544 Pls
5023 1363 Pls
6749 1318 Pls
1570 3163 Pls
3297 1807 Pls
5023 1560 Pls
6749 1380 Pls
1570 3459 Pls
3297 2463 Pls
5023 1644 Pls
6749 1298 Pls
1570 4050 Pls
3297 1850 Pls
5023 1419 Pls
6749 1484 Pls
1570 2868 Pls
3297 2419 Pls
5023 1757 Pls
6749 1484 Pls
% End plot #1
% Begin plot #2
1.000 UL
LT1
LCb setrgbcolor
5636 4551 M
[ [(Helvetica) 250.0 0.0 true true 0 (Average)]
] -83.3 MRshow
LT1
5786 4551 M
663 0 V
1570 3141 M
3297 2225 L
5023 1824 L
6749 1615 L
% End plot #2
% Begin plot #3
stroke
LT2
LCb setrgbcolor
5636 4301 M
[ [(Helvetica) 250.0 0.0 true true 0 (Min)]
] -83.3 MRshow
LT2
5786 4301 M
663 0 V
1570 1292 M
3297 931 L
1726 38 V
6749 924 L
% End plot #3
% Begin plot #4
stroke
LT3
LCb setrgbcolor
5636 4051 M
[ [(Helvetica) 250.0 0.0 true true 0 (Max)]
] -83.3 MRshow
LT3
5786 4051 M
663 0 V
1570 4641 M
3297 3907 L
5023 3388 L
1726 45 V
% End plot #4
stroke
LTb
1225 4739 N
0 -3939 V
5524 0 V
0 3939 V
-5524 0 V
Z stroke
1.000 UP
1.000 UL
LTb
stroke
grestore
end
showpage
%%Trailer
%%DocumentFonts: Helvetica
