%!PS-Adobe-2.0 EPSF-2.0
%%Title: n_orig_length.time.eps
%%Creator: gnuplot 4.4 patchlevel 3
%%CreationDate: Tue Jun  4 13:06:59 2013
%%DocumentFonts: (atend)
%%BoundingBox: 50 50 410 302
%%EndComments
%%BeginProlog
/gnudict 256 dict def
gnudict begin
%
% The following true/false flags may be edited by hand if desired.
% The unit line width and grayscale image gamma correction may also be changed.
%
/Color true def
/Blacktext false def
/Solid false def
/Dashlength 1 def
/Landscape false def
/Level1 false def
/Rounded false def
/ClipToBoundingBox false def
/TransparentPatterns false def
/gnulinewidth 5.000 def
/userlinewidth gnulinewidth def
/Gamma 1.0 def
%
/vshift -83 def
/dl1 {
  10.0 Dashlength mul mul
  Rounded { currentlinewidth 0.75 mul sub dup 0 le { pop 0.01 } if } if
} def
/dl2 {
  10.0 Dashlength mul mul
  Rounded { currentlinewidth 0.75 mul add } if
} def
/hpt_ 31.5 def
/vpt_ 31.5 def
/hpt hpt_ def
/vpt vpt_ def
Level1 {} {
/SDict 10 dict def
systemdict /pdfmark known not {
  userdict /pdfmark systemdict /cleartomark get put
} if
SDict begin [
  /Title (n_orig_length.time.eps)
  /Subject (gnuplot plot)
  /Creator (gnuplot 4.4 patchlevel 3)
  /Author (xjia)
%  /Producer (gnuplot)
%  /Keywords ()
  /CreationDate (Tue Jun  4 13:06:59 2013)
  /DOCINFO pdfmark
end
} ifelse
/doclip {
  ClipToBoundingBox {
    newpath 50 50 moveto 410 50 lineto 410 302 lineto 50 302 lineto closepath
    clip
  } if
} def
%
% Gnuplot Prolog Version 4.4 (August 2010)
%
%/SuppressPDFMark true def
%
/M {moveto} bind def
/L {lineto} bind def
/R {rmoveto} bind def
/V {rlineto} bind def
/N {newpath moveto} bind def
/Z {closepath} bind def
/C {setrgbcolor} bind def
/f {rlineto fill} bind def
/g {setgray} bind def
/Gshow {show} def   % May be redefined later in the file to support UTF-8
/vpt2 vpt 2 mul def
/hpt2 hpt 2 mul def
/Lshow {currentpoint stroke M 0 vshift R 
	Blacktext {gsave 0 setgray show grestore} {show} ifelse} def
/Rshow {currentpoint stroke M dup stringwidth pop neg vshift R
	Blacktext {gsave 0 setgray show grestore} {show} ifelse} def
/Cshow {currentpoint stroke M dup stringwidth pop -2 div vshift R 
	Blacktext {gsave 0 setgray show grestore} {show} ifelse} def
/UP {dup vpt_ mul /vpt exch def hpt_ mul /hpt exch def
  /hpt2 hpt 2 mul def /vpt2 vpt 2 mul def} def
/DL {Color {setrgbcolor Solid {pop []} if 0 setdash}
 {pop pop pop 0 setgray Solid {pop []} if 0 setdash} ifelse} def
/BL {stroke userlinewidth 2 mul setlinewidth
	Rounded {1 setlinejoin 1 setlinecap} if} def
/AL {stroke userlinewidth 2 div setlinewidth
	Rounded {1 setlinejoin 1 setlinecap} if} def
/UL {dup gnulinewidth mul /userlinewidth exch def
	dup 1 lt {pop 1} if 10 mul /udl exch def} def
/PL {stroke userlinewidth setlinewidth
	Rounded {1 setlinejoin 1 setlinecap} if} def
3.8 setmiterlimit
% Default Line colors
/LCw {1 1 1} def
/LCb {0 0 0} def
/LCa {0 0 0} def
/LC0 {1 0 0} def
/LC1 {0 1 0} def
/LC2 {0 0 1} def
/LC3 {1 0 1} def
/LC4 {0 1 1} def
/LC5 {1 1 0} def
/LC6 {0 0 0} def
/LC7 {1 0.3 0} def
/LC8 {0.5 0.5 0.5} def
% Default Line Types
/LTw {PL [] 1 setgray} def
/LTb {BL [] LCb DL} def
/LTa {AL [1 udl mul 2 udl mul] 0 setdash LCa setrgbcolor} def
/LT0 {PL [] LC0 DL} def
/LT1 {PL [4 dl1 2 dl2] LC1 DL} def
/LT2 {PL [2 dl1 3 dl2] LC2 DL} def
/LT3 {PL [1 dl1 1.5 dl2] LC3 DL} def
/LT4 {PL [6 dl1 2 dl2 1 dl1 2 dl2] LC4 DL} def
/LT5 {PL [3 dl1 3 dl2 1 dl1 3 dl2] LC5 DL} def
/LT6 {PL [2 dl1 2 dl2 2 dl1 6 dl2] LC6 DL} def
/LT7 {PL [1 dl1 2 dl2 6 dl1 2 dl2 1 dl1 2 dl2] LC7 DL} def
/LT8 {PL [2 dl1 2 dl2 2 dl1 2 dl2 2 dl1 2 dl2 2 dl1 4 dl2] LC8 DL} def
/Pnt {stroke [] 0 setdash gsave 1 setlinecap M 0 0 V stroke grestore} def
/Dia {stroke [] 0 setdash 2 copy vpt add M
  hpt neg vpt neg V hpt vpt neg V
  hpt vpt V hpt neg vpt V closepath stroke
  Pnt} def
/Pls {stroke [] 0 setdash vpt sub M 0 vpt2 V
  currentpoint stroke M
  hpt neg vpt neg R hpt2 0 V stroke
 } def
/Box {stroke [] 0 setdash 2 copy exch hpt sub exch vpt add M
  0 vpt2 neg V hpt2 0 V 0 vpt2 V
  hpt2 neg 0 V closepath stroke
  Pnt} def
/Crs {stroke [] 0 setdash exch hpt sub exch vpt add M
  hpt2 vpt2 neg V currentpoint stroke M
  hpt2 neg 0 R hpt2 vpt2 V stroke} def
/TriU {stroke [] 0 setdash 2 copy vpt 1.12 mul add M
  hpt neg vpt -1.62 mul V
  hpt 2 mul 0 V
  hpt neg vpt 1.62 mul V closepath stroke
  Pnt} def
/Star {2 copy Pls Crs} def
/BoxF {stroke [] 0 setdash exch hpt sub exch vpt add M
  0 vpt2 neg V hpt2 0 V 0 vpt2 V
  hpt2 neg 0 V closepath fill} def
/TriUF {stroke [] 0 setdash vpt 1.12 mul add M
  hpt neg vpt -1.62 mul V
  hpt 2 mul 0 V
  hpt neg vpt 1.62 mul V closepath fill} def
/TriD {stroke [] 0 setdash 2 copy vpt 1.12 mul sub M
  hpt neg vpt 1.62 mul V
  hpt 2 mul 0 V
  hpt neg vpt -1.62 mul V closepath stroke
  Pnt} def
/TriDF {stroke [] 0 setdash vpt 1.12 mul sub M
  hpt neg vpt 1.62 mul V
  hpt 2 mul 0 V
  hpt neg vpt -1.62 mul V closepath fill} def
/DiaF {stroke [] 0 setdash vpt add M
  hpt neg vpt neg V hpt vpt neg V
  hpt vpt V hpt neg vpt V closepath fill} def
/Pent {stroke [] 0 setdash 2 copy gsave
  translate 0 hpt M 4 {72 rotate 0 hpt L} repeat
  closepath stroke grestore Pnt} def
/PentF {stroke [] 0 setdash gsave
  translate 0 hpt M 4 {72 rotate 0 hpt L} repeat
  closepath fill grestore} def
/Circle {stroke [] 0 setdash 2 copy
  hpt 0 360 arc stroke Pnt} def
/CircleF {stroke [] 0 setdash hpt 0 360 arc fill} def
/C0 {BL [] 0 setdash 2 copy moveto vpt 90 450 arc} bind def
/C1 {BL [] 0 setdash 2 copy moveto
	2 copy vpt 0 90 arc closepath fill
	vpt 0 360 arc closepath} bind def
/C2 {BL [] 0 setdash 2 copy moveto
	2 copy vpt 90 180 arc closepath fill
	vpt 0 360 arc closepath} bind def
/C3 {BL [] 0 setdash 2 copy moveto
	2 copy vpt 0 180 arc closepath fill
	vpt 0 360 arc closepath} bind def
/C4 {BL [] 0 setdash 2 copy moveto
	2 copy vpt 180 270 arc closepath fill
	vpt 0 360 arc closepath} bind def
/C5 {BL [] 0 setdash 2 copy moveto
	2 copy vpt 0 90 arc
	2 copy moveto
	2 copy vpt 180 270 arc closepath fill
	vpt 0 360 arc} bind def
/C6 {BL [] 0 setdash 2 copy moveto
	2 copy vpt 90 270 arc closepath fill
	vpt 0 360 arc closepath} bind def
/C7 {BL [] 0 setdash 2 copy moveto
	2 copy vpt 0 270 arc closepath fill
	vpt 0 360 arc closepath} bind def
/C8 {BL [] 0 setdash 2 copy moveto
	2 copy vpt 270 360 arc closepath fill
	vpt 0 360 arc closepath} bind def
/C9 {BL [] 0 setdash 2 copy moveto
	2 copy vpt 270 450 arc closepath fill
	vpt 0 360 arc closepath} bind def
/C10 {BL [] 0 setdash 2 copy 2 copy moveto vpt 270 360 arc closepath fill
	2 copy moveto
	2 copy vpt 90 180 arc closepath fill
	vpt 0 360 arc closepath} bind def
/C11 {BL [] 0 setdash 2 copy moveto
	2 copy vpt 0 180 arc closepath fill
	2 copy moveto
	2 copy vpt 270 360 arc closepath fill
	vpt 0 360 arc closepath} bind def
/C12 {BL [] 0 setdash 2 copy moveto
	2 copy vpt 180 360 arc closepath fill
	vpt 0 360 arc closepath} bind def
/C13 {BL [] 0 setdash 2 copy moveto
	2 copy vpt 0 90 arc closepath fill
	2 copy moveto
	2 copy vpt 180 360 arc closepath fill
	vpt 0 360 arc closepath} bind def
/C14 {BL [] 0 setdash 2 copy moveto
	2 copy vpt 90 360 arc closepath fill
	vpt 0 360 arc} bind def
/C15 {BL [] 0 setdash 2 copy vpt 0 360 arc closepath fill
	vpt 0 360 arc closepath} bind def
/Rec {newpath 4 2 roll moveto 1 index 0 rlineto 0 exch rlineto
	neg 0 rlineto closepath} bind def
/Square {dup Rec} bind def
/Bsquare {vpt sub exch vpt sub exch vpt2 Square} bind def
/S0 {BL [] 0 setdash 2 copy moveto 0 vpt rlineto BL Bsquare} bind def
/S1 {BL [] 0 setdash 2 copy vpt Square fill Bsquare} bind def
/S2 {BL [] 0 setdash 2 copy exch vpt sub exch vpt Square fill Bsquare} bind def
/S3 {BL [] 0 setdash 2 copy exch vpt sub exch vpt2 vpt Rec fill Bsquare} bind def
/S4 {BL [] 0 setdash 2 copy exch vpt sub exch vpt sub vpt Square fill Bsquare} bind def
/S5 {BL [] 0 setdash 2 copy 2 copy vpt Square fill
	exch vpt sub exch vpt sub vpt Square fill Bsquare} bind def
/S6 {BL [] 0 setdash 2 copy exch vpt sub exch vpt sub vpt vpt2 Rec fill Bsquare} bind def
/S7 {BL [] 0 setdash 2 copy exch vpt sub exch vpt sub vpt vpt2 Rec fill
	2 copy vpt Square fill Bsquare} bind def
/S8 {BL [] 0 setdash 2 copy vpt sub vpt Square fill Bsquare} bind def
/S9 {BL [] 0 setdash 2 copy vpt sub vpt vpt2 Rec fill Bsquare} bind def
/S10 {BL [] 0 setdash 2 copy vpt sub vpt Square fill 2 copy exch vpt sub exch vpt Square fill
	Bsquare} bind def
/S11 {BL [] 0 setdash 2 copy vpt sub vpt Square fill 2 copy exch vpt sub exch vpt2 vpt Rec fill
	Bsquare} bind def
/S12 {BL [] 0 setdash 2 copy exch vpt sub exch vpt sub vpt2 vpt Rec fill Bsquare} bind def
/S13 {BL [] 0 setdash 2 copy exch vpt sub exch vpt sub vpt2 vpt Rec fill
	2 copy vpt Square fill Bsquare} bind def
/S14 {BL [] 0 setdash 2 copy exch vpt sub exch vpt sub vpt2 vpt Rec fill
	2 copy exch vpt sub exch vpt Square fill Bsquare} bind def
/S15 {BL [] 0 setdash 2 copy Bsquare fill Bsquare} bind def
/D0 {gsave translate 45 rotate 0 0 S0 stroke grestore} bind def
/D1 {gsave translate 45 rotate 0 0 S1 stroke grestore} bind def
/D2 {gsave translate 45 rotate 0 0 S2 stroke grestore} bind def
/D3 {gsave translate 45 rotate 0 0 S3 stroke grestore} bind def
/D4 {gsave translate 45 rotate 0 0 S4 stroke grestore} bind def
/D5 {gsave translate 45 rotate 0 0 S5 stroke grestore} bind def
/D6 {gsave translate 45 rotate 0 0 S6 stroke grestore} bind def
/D7 {gsave translate 45 rotate 0 0 S7 stroke grestore} bind def
/D8 {gsave translate 45 rotate 0 0 S8 stroke grestore} bind def
/D9 {gsave translate 45 rotate 0 0 S9 stroke grestore} bind def
/D10 {gsave translate 45 rotate 0 0 S10 stroke grestore} bind def
/D11 {gsave translate 45 rotate 0 0 S11 stroke grestore} bind def
/D12 {gsave translate 45 rotate 0 0 S12 stroke grestore} bind def
/D13 {gsave translate 45 rotate 0 0 S13 stroke grestore} bind def
/D14 {gsave translate 45 rotate 0 0 S14 stroke grestore} bind def
/D15 {gsave translate 45 rotate 0 0 S15 stroke grestore} bind def
/DiaE {stroke [] 0 setdash vpt add M
  hpt neg vpt neg V hpt vpt neg V
  hpt vpt V hpt neg vpt V closepath stroke} def
/BoxE {stroke [] 0 setdash exch hpt sub exch vpt add M
  0 vpt2 neg V hpt2 0 V 0 vpt2 V
  hpt2 neg 0 V closepath stroke} def
/TriUE {stroke [] 0 setdash vpt 1.12 mul add M
  hpt neg vpt -1.62 mul V
  hpt 2 mul 0 V
  hpt neg vpt 1.62 mul V closepath stroke} def
/TriDE {stroke [] 0 setdash vpt 1.12 mul sub M
  hpt neg vpt 1.62 mul V
  hpt 2 mul 0 V
  hpt neg vpt -1.62 mul V closepath stroke} def
/PentE {stroke [] 0 setdash gsave
  translate 0 hpt M 4 {72 rotate 0 hpt L} repeat
  closepath stroke grestore} def
/CircE {stroke [] 0 setdash 
  hpt 0 360 arc stroke} def
/Opaque {gsave closepath 1 setgray fill grestore 0 setgray closepath} def
/DiaW {stroke [] 0 setdash vpt add M
  hpt neg vpt neg V hpt vpt neg V
  hpt vpt V hpt neg vpt V Opaque stroke} def
/BoxW {stroke [] 0 setdash exch hpt sub exch vpt add M
  0 vpt2 neg V hpt2 0 V 0 vpt2 V
  hpt2 neg 0 V Opaque stroke} def
/TriUW {stroke [] 0 setdash vpt 1.12 mul add M
  hpt neg vpt -1.62 mul V
  hpt 2 mul 0 V
  hpt neg vpt 1.62 mul V Opaque stroke} def
/TriDW {stroke [] 0 setdash vpt 1.12 mul sub M
  hpt neg vpt 1.62 mul V
  hpt 2 mul 0 V
  hpt neg vpt -1.62 mul V Opaque stroke} def
/PentW {stroke [] 0 setdash gsave
  translate 0 hpt M 4 {72 rotate 0 hpt L} repeat
  Opaque stroke grestore} def
/CircW {stroke [] 0 setdash 
  hpt 0 360 arc Opaque stroke} def
/BoxFill {gsave Rec 1 setgray fill grestore} def
/Density {
  /Fillden exch def
  currentrgbcolor
  /ColB exch def /ColG exch def /ColR exch def
  /ColR ColR Fillden mul Fillden sub 1 add def
  /ColG ColG Fillden mul Fillden sub 1 add def
  /ColB ColB Fillden mul Fillden sub 1 add def
  ColR ColG ColB setrgbcolor} def
/BoxColFill {gsave Rec PolyFill} def
/PolyFill {gsave Density fill grestore grestore} def
/h {rlineto rlineto rlineto gsave closepath fill grestore} bind def
%
% PostScript Level 1 Pattern Fill routine for rectangles
% Usage: x y w h s a XX PatternFill
%	x,y = lower left corner of box to be filled
%	w,h = width and height of box
%	  a = angle in degrees between lines and x-axis
%	 XX = 0/1 for no/yes cross-hatch
%
/PatternFill {gsave /PFa [ 9 2 roll ] def
  PFa 0 get PFa 2 get 2 div add PFa 1 get PFa 3 get 2 div add translate
  PFa 2 get -2 div PFa 3 get -2 div PFa 2 get PFa 3 get Rec
  gsave 1 setgray fill grestore clip
  currentlinewidth 0.5 mul setlinewidth
  /PFs PFa 2 get dup mul PFa 3 get dup mul add sqrt def
  0 0 M PFa 5 get rotate PFs -2 div dup translate
  0 1 PFs PFa 4 get div 1 add floor cvi
	{PFa 4 get mul 0 M 0 PFs V} for
  0 PFa 6 get ne {
	0 1 PFs PFa 4 get div 1 add floor cvi
	{PFa 4 get mul 0 2 1 roll M PFs 0 V} for
 } if
  stroke grestore} def
%
/languagelevel where
 {pop languagelevel} {1} ifelse
 2 lt
	{/InterpretLevel1 true def}
	{/InterpretLevel1 Level1 def}
 ifelse
%
% PostScript level 2 pattern fill definitions
%
/Level2PatternFill {
/Tile8x8 {/PaintType 2 /PatternType 1 /TilingType 1 /BBox [0 0 8 8] /XStep 8 /YStep 8}
	bind def
/KeepColor {currentrgbcolor [/Pattern /DeviceRGB] setcolorspace} bind def
<< Tile8x8
 /PaintProc {0.5 setlinewidth pop 0 0 M 8 8 L 0 8 M 8 0 L stroke} 
>> matrix makepattern
/Pat1 exch def
<< Tile8x8
 /PaintProc {0.5 setlinewidth pop 0 0 M 8 8 L 0 8 M 8 0 L stroke
	0 4 M 4 8 L 8 4 L 4 0 L 0 4 L stroke}
>> matrix makepattern
/Pat2 exch def
<< Tile8x8
 /PaintProc {0.5 setlinewidth pop 0 0 M 0 8 L
	8 8 L 8 0 L 0 0 L fill}
>> matrix makepattern
/Pat3 exch def
<< Tile8x8
 /PaintProc {0.5 setlinewidth pop -4 8 M 8 -4 L
	0 12 M 12 0 L stroke}
>> matrix makepattern
/Pat4 exch def
<< Tile8x8
 /PaintProc {0.5 setlinewidth pop -4 0 M 8 12 L
	0 -4 M 12 8 L stroke}
>> matrix makepattern
/Pat5 exch def
<< Tile8x8
 /PaintProc {0.5 setlinewidth pop -2 8 M 4 -4 L
	0 12 M 8 -4 L 4 12 M 10 0 L stroke}
>> matrix makepattern
/Pat6 exch def
<< Tile8x8
 /PaintProc {0.5 setlinewidth pop -2 0 M 4 12 L
	0 -4 M 8 12 L 4 -4 M 10 8 L stroke}
>> matrix makepattern
/Pat7 exch def
<< Tile8x8
 /PaintProc {0.5 setlinewidth pop 8 -2 M -4 4 L
	12 0 M -4 8 L 12 4 M 0 10 L stroke}
>> matrix makepattern
/Pat8 exch def
<< Tile8x8
 /PaintProc {0.5 setlinewidth pop 0 -2 M 12 4 L
	-4 0 M 12 8 L -4 4 M 8 10 L stroke}
>> matrix makepattern
/Pat9 exch def
/Pattern1 {PatternBgnd KeepColor Pat1 setpattern} bind def
/Pattern2 {PatternBgnd KeepColor Pat2 setpattern} bind def
/Pattern3 {PatternBgnd KeepColor Pat3 setpattern} bind def
/Pattern4 {PatternBgnd KeepColor Landscape {Pat5} {Pat4} ifelse setpattern} bind def
/Pattern5 {PatternBgnd KeepColor Landscape {Pat4} {Pat5} ifelse setpattern} bind def
/Pattern6 {PatternBgnd KeepColor Landscape {Pat9} {Pat6} ifelse setpattern} bind def
/Pattern7 {PatternBgnd KeepColor Landscape {Pat8} {Pat7} ifelse setpattern} bind def
} def
%
%
%End of PostScript Level 2 code
%
/PatternBgnd {
  TransparentPatterns {} {gsave 1 setgray fill grestore} ifelse
} def
%
% Substitute for Level 2 pattern fill codes with
% grayscale if Level 2 support is not selected.
%
/Level1PatternFill {
/Pattern1 {0.250 Density} bind def
/Pattern2 {0.500 Density} bind def
/Pattern3 {0.750 Density} bind def
/Pattern4 {0.125 Density} bind def
/Pattern5 {0.375 Density} bind def
/Pattern6 {0.625 Density} bind def
/Pattern7 {0.875 Density} bind def
} def
%
% Now test for support of Level 2 code
%
Level1 {Level1PatternFill} {Level2PatternFill} ifelse
%
/Symbol-Oblique /Symbol findfont [1 0 .167 1 0 0] makefont
dup length dict begin {1 index /FID eq {pop pop} {def} ifelse} forall
currentdict end definefont pop
/MFshow {
   { dup 5 get 3 ge
     { 5 get 3 eq {gsave} {grestore} ifelse }
     {dup dup 0 get findfont exch 1 get scalefont setfont
     [ currentpoint ] exch dup 2 get 0 exch R dup 5 get 2 ne {dup dup 6
     get exch 4 get {Gshow} {stringwidth pop 0 R} ifelse }if dup 5 get 0 eq
     {dup 3 get {2 get neg 0 exch R pop} {pop aload pop M} ifelse} {dup 5
     get 1 eq {dup 2 get exch dup 3 get exch 6 get stringwidth pop -2 div
     dup 0 R} {dup 6 get stringwidth pop -2 div 0 R 6 get
     show 2 index {aload pop M neg 3 -1 roll neg R pop pop} {pop pop pop
     pop aload pop M} ifelse }ifelse }ifelse }
     ifelse }
   forall} def
/Gswidth {dup type /stringtype eq {stringwidth} {pop (n) stringwidth} ifelse} def
/MFwidth {0 exch { dup 5 get 3 ge { 5 get 3 eq { 0 } { pop } ifelse }
 {dup 3 get{dup dup 0 get findfont exch 1 get scalefont setfont
     6 get Gswidth pop add} {pop} ifelse} ifelse} forall} def
/MLshow { currentpoint stroke M
  0 exch R
  Blacktext {gsave 0 setgray MFshow grestore} {MFshow} ifelse } bind def
/MRshow { currentpoint stroke M
  exch dup MFwidth neg 3 -1 roll R
  Blacktext {gsave 0 setgray MFshow grestore} {MFshow} ifelse } bind def
/MCshow { currentpoint stroke M
  exch dup MFwidth -2 div 3 -1 roll R
  Blacktext {gsave 0 setgray MFshow grestore} {MFshow} ifelse } bind def
/XYsave    { [( ) 1 2 true false 3 ()] } bind def
/XYrestore { [( ) 1 2 true false 4 ()] } bind def
end
%%EndProlog
gnudict begin
gsave
doclip
50 50 translate
0.050 0.050 scale
0 setgray
newpath
(Helvetica) findfont 250 scalefont setfont
1.000 UL
LTb
1225 800 M
63 0 V
5461 0 R
-63 0 V
stroke
1075 800 M
[ [(Helvetica) 250.0 0.0 true true 0 ( 0)]
] -83.3 MRshow
1.000 UL
LTb
1225 1588 M
63 0 V
5461 0 R
-63 0 V
stroke
1075 1588 M
[ [(Helvetica) 250.0 0.0 true true 0 ( 0.5)]
] -83.3 MRshow
1.000 UL
LTb
1225 2376 M
63 0 V
5461 0 R
-63 0 V
stroke
1075 2376 M
[ [(Helvetica) 250.0 0.0 true true 0 ( 1)]
] -83.3 MRshow
1.000 UL
LTb
1225 3163 M
63 0 V
5461 0 R
-63 0 V
stroke
1075 3163 M
[ [(Helvetica) 250.0 0.0 true true 0 ( 1.5)]
] -83.3 MRshow
1.000 UL
LTb
1225 3951 M
63 0 V
5461 0 R
-63 0 V
stroke
1075 3951 M
[ [(Helvetica) 250.0 0.0 true true 0 ( 2)]
] -83.3 MRshow
1.000 UL
LTb
1225 4739 M
63 0 V
5461 0 R
-63 0 V
stroke
1075 4739 M
[ [(Helvetica) 250.0 0.0 true true 0 ( 2.5)]
] -83.3 MRshow
1.000 UL
LTb
1225 800 M
0 63 V
0 3876 R
0 -63 V
stroke
1225 550 M
[ [(Helvetica) 250.0 0.0 true true 0 ( 20)]
] -83.3 MCshow
1.000 UL
LTb
1916 800 M
0 63 V
0 3876 R
0 -63 V
stroke
1916 550 M
[ [(Helvetica) 250.0 0.0 true true 0 ( 30)]
] -83.3 MCshow
1.000 UL
LTb
2606 800 M
0 63 V
0 3876 R
0 -63 V
stroke
2606 550 M
[ [(Helvetica) 250.0 0.0 true true 0 ( 40)]
] -83.3 MCshow
1.000 UL
LTb
3297 800 M
0 63 V
0 3876 R
0 -63 V
stroke
3297 550 M
[ [(Helvetica) 250.0 0.0 true true 0 ( 50)]
] -83.3 MCshow
1.000 UL
LTb
3987 800 M
0 63 V
0 3876 R
0 -63 V
stroke
3987 550 M
[ [(Helvetica) 250.0 0.0 true true 0 ( 60)]
] -83.3 MCshow
1.000 UL
LTb
4678 800 M
0 63 V
0 3876 R
0 -63 V
stroke
4678 550 M
[ [(Helvetica) 250.0 0.0 true true 0 ( 70)]
] -83.3 MCshow
1.000 UL
LTb
5368 800 M
0 63 V
0 3876 R
0 -63 V
stroke
5368 550 M
[ [(Helvetica) 250.0 0.0 true true 0 ( 80)]
] -83.3 MCshow
1.000 UL
LTb
6059 800 M
0 63 V
0 3876 R
0 -63 V
stroke
6059 550 M
[ [(Helvetica) 250.0 0.0 true true 0 ( 90)]
] -83.3 MCshow
1.000 UL
LTb
6749 800 M
0 63 V
0 3876 R
0 -63 V
stroke
6749 550 M
[ [(Helvetica) 250.0 0.0 true true 0 ( 100)]
] -83.3 MCshow
1.000 UL
LTb
1.000 UL
LTb
1225 4739 N
0 -3939 V
5524 0 V
0 3939 V
-5524 0 V
Z stroke
LCb setrgbcolor
200 2769 M
currentpoint gsave translate -270 rotate 0 0 moveto
[ [(Helvetica) 250.0 0.0 true true 0 (Time \(sec\))]
] -83.3 MCshow
grestore
LTb
LCb setrgbcolor
3987 175 M
[ [(Helvetica) 250.0 0.0 true true 0 (Original Length)]
] -83.3 MCshow
LTb
1.000 UP
1.000 UL
LTb
% Begin plot #1
1.000 UP
1.000 UL
LT0
1225 801 Pls
1225 802 Pls
1225 802 Pls
1225 802 Pls
1225 801 Pls
1225 801 Pls
1225 802 Pls
1225 802 Pls
1225 801 Pls
1225 801 Pls
1225 801 Pls
1225 801 Pls
1225 801 Pls
1225 801 Pls
1225 801 Pls
1225 801 Pls
1225 800 Pls
1225 800 Pls
1225 800 Pls
1225 800 Pls
1225 801 Pls
1225 801 Pls
1225 801 Pls
1225 801 Pls
1225 801 Pls
1225 801 Pls
1225 801 Pls
1225 801 Pls
1225 801 Pls
1225 801 Pls
1225 802 Pls
1225 802 Pls
1225 802 Pls
1225 802 Pls
1225 802 Pls
1225 802 Pls
1225 802 Pls
1225 803 Pls
1225 803 Pls
1225 803 Pls
2606 813 Pls
2606 813 Pls
2606 817 Pls
2606 818 Pls
2606 809 Pls
2606 812 Pls
2606 811 Pls
2606 815 Pls
2606 808 Pls
2606 811 Pls
2606 807 Pls
2606 809 Pls
2606 807 Pls
2606 806 Pls
2606 808 Pls
2606 807 Pls
2606 804 Pls
2606 805 Pls
2606 804 Pls
2606 804 Pls
2606 809 Pls
2606 809 Pls
2606 809 Pls
2606 811 Pls
2606 813 Pls
2606 815 Pls
2606 817 Pls
2606 818 Pls
2606 823 Pls
2606 823 Pls
2606 825 Pls
2606 827 Pls
2606 829 Pls
2606 832 Pls
2606 832 Pls
2606 834 Pls
2606 840 Pls
2606 839 Pls
2606 844 Pls
2606 844 Pls
3987 852 Pls
3987 856 Pls
3987 862 Pls
3987 853 Pls
3987 837 Pls
3987 836 Pls
3987 841 Pls
3987 838 Pls
3987 826 Pls
3987 841 Pls
3987 837 Pls
3987 827 Pls
3987 823 Pls
3987 828 Pls
3987 829 Pls
3987 820 Pls
3987 813 Pls
3987 818 Pls
3987 818 Pls
3987 820 Pls
3987 845 Pls
3987 843 Pls
3987 849 Pls
3987 854 Pls
3987 880 Pls
3987 874 Pls
3987 880 Pls
3987 883 Pls
3987 911 Pls
3987 911 Pls
3987 925 Pls
3987 916 Pls
3987 962 Pls
3987 965 Pls
3987 967 Pls
3987 970 Pls
3987 986 Pls
3987 995 Pls
3987 984 Pls
3987 1026 Pls
5368 918 Pls
5368 979 Pls
5368 1005 Pls
5368 1003 Pls
5368 936 Pls
5368 937 Pls
5368 928 Pls
5368 948 Pls
5368 864 Pls
5368 902 Pls
5368 916 Pls
5368 929 Pls
5368 865 Pls
5368 873 Pls
5368 870 Pls
5368 870 Pls
5368 840 Pls
5368 840 Pls
5368 833 Pls
5368 858 Pls
5368 962 Pls
5368 952 Pls
5368 963 Pls
5368 946 Pls
5368 1084 Pls
5368 1092 Pls
5368 1078 Pls
5368 1089 Pls
5368 1183 Pls
5368 1237 Pls
5368 1192 Pls
5368 1281 Pls
5368 1399 Pls
5368 1350 Pls
5368 1355 Pls
5368 1454 Pls
5368 1447 Pls
5368 1553 Pls
5368 1615 Pls
5368 1469 Pls
6749 1073 Pls
6749 1164 Pls
6749 1225 Pls
6749 1190 Pls
6749 1013 Pls
6749 1105 Pls
6749 1086 Pls
6749 1129 Pls
6749 979 Pls
6749 1028 Pls
6749 1100 Pls
6749 1036 Pls
6749 1027 Pls
6749 934 Pls
6749 1013 Pls
6749 1009 Pls
6749 894 Pls
6749 948 Pls
6749 907 Pls
6749 905 Pls
6749 1346 Pls
6749 1332 Pls
6749 1430 Pls
6749 1347 Pls
6749 1712 Pls
6749 1804 Pls
6749 1838 Pls
6749 1965 Pls
6749 2077 Pls
6749 2612 Pls
6749 2374 Pls
6749 2693 Pls
6749 3413 Pls
6749 3318 Pls
6749 3232 Pls
6749 3097 Pls
6749 3769 Pls
6749 4080 Pls
6749 4198 Pls
6749 4330 Pls
1225 801 Pls
1225 801 Pls
1225 802 Pls
1225 802 Pls
1225 801 Pls
1225 801 Pls
1225 802 Pls
1225 802 Pls
1225 801 Pls
1225 801 Pls
1225 801 Pls
1225 801 Pls
1225 800 Pls
1225 801 Pls
1225 801 Pls
1225 801 Pls
1225 800 Pls
1225 800 Pls
1225 800 Pls
1225 800 Pls
1225 801 Pls
1225 801 Pls
1225 801 Pls
1225 801 Pls
1225 801 Pls
1225 801 Pls
1225 801 Pls
1225 801 Pls
1225 801 Pls
1225 802 Pls
1225 802 Pls
1225 802 Pls
1225 802 Pls
1225 802 Pls
1225 802 Pls
1225 802 Pls
1225 802 Pls
1225 802 Pls
1225 803 Pls
1225 803 Pls
2606 815 Pls
2606 814 Pls
2606 811 Pls
2606 819 Pls
2606 810 Pls
2606 812 Pls
2606 813 Pls
2606 810 Pls
2606 809 Pls
2606 808 Pls
2606 810 Pls
2606 811 Pls
2606 808 Pls
2606 806 Pls
2606 805 Pls
2606 807 Pls
2606 805 Pls
2606 804 Pls
2606 805 Pls
2606 806 Pls
2606 809 Pls
2606 809 Pls
2606 811 Pls
2606 811 Pls
2606 815 Pls
2606 818 Pls
2606 818 Pls
2606 820 Pls
2606 825 Pls
2606 826 Pls
2606 824 Pls
2606 826 Pls
2606 827 Pls
2606 832 Pls
2606 834 Pls
2606 837 Pls
2606 838 Pls
2606 842 Pls
2606 844 Pls
2606 845 Pls
3987 852 Pls
3987 848 Pls
3987 860 Pls
3987 869 Pls
3987 839 Pls
3987 843 Pls
3987 842 Pls
3987 853 Pls
3987 829 Pls
3987 837 Pls
3987 827 Pls
3987 840 Pls
3987 824 Pls
3987 824 Pls
3987 830 Pls
3987 832 Pls
3987 815 Pls
3987 819 Pls
3987 822 Pls
3987 817 Pls
3987 837 Pls
3987 842 Pls
3987 847 Pls
3987 849 Pls
3987 867 Pls
3987 881 Pls
3987 870 Pls
3987 885 Pls
3987 917 Pls
3987 908 Pls
3987 916 Pls
3987 928 Pls
3987 943 Pls
3987 943 Pls
3987 972 Pls
3987 960 Pls
3987 980 Pls
3987 992 Pls
3987 990 Pls
3987 1026 Pls
5368 932 Pls
5368 939 Pls
5368 976 Pls
5368 974 Pls
5368 900 Pls
5368 937 Pls
5368 923 Pls
5368 949 Pls
5368 879 Pls
5368 895 Pls
5368 902 Pls
5368 912 Pls
5368 875 Pls
5368 863 Pls
5368 880 Pls
5368 884 Pls
5368 847 Pls
5368 849 Pls
5368 840 Pls
5368 841 Pls
5368 940 Pls
5368 975 Pls
5368 965 Pls
5368 972 Pls
5368 1063 Pls
5368 1094 Pls
5368 1101 Pls
5368 1113 Pls
5368 1213 Pls
5368 1226 Pls
5368 1212 Pls
5368 1258 Pls
5368 1324 Pls
5368 1399 Pls
5368 1436 Pls
5368 1378 Pls
5368 1592 Pls
5368 1625 Pls
5368 1560 Pls
5368 1517 Pls
6749 1126 Pls
6749 1091 Pls
6749 1121 Pls
6749 1253 Pls
6749 1020 Pls
6749 1047 Pls
6749 1130 Pls
6749 1122 Pls
6749 1005 Pls
6749 1033 Pls
6749 1059 Pls
6749 1096 Pls
6749 978 Pls
6749 967 Pls
6749 956 Pls
6749 1058 Pls
6749 900 Pls
6749 943 Pls
6749 922 Pls
6749 942 Pls
6749 1378 Pls
6749 1429 Pls
6749 1450 Pls
6749 1399 Pls
6749 2101 Pls
6749 1928 Pls
6749 2039 Pls
6749 1995 Pls
6749 2618 Pls
6749 2463 Pls
6749 2491 Pls
6749 2504 Pls
6749 3541 Pls
6749 3002 Pls
6749 3043 Pls
6749 3476 Pls
6749 3354 Pls
6749 3923 Pls
6749 4037 Pls
6749 4104 Pls
1225 803 Pls
1225 801 Pls
1225 801 Pls
1225 802 Pls
1225 801 Pls
1225 801 Pls
1225 802 Pls
1225 801 Pls
1225 801 Pls
1225 801 Pls
1225 801 Pls
1225 801 Pls
1225 801 Pls
1225 801 Pls
1225 801 Pls
1225 801 Pls
1225 800 Pls
1225 800 Pls
1225 800 Pls
1225 800 Pls
1225 801 Pls
1225 801 Pls
1225 801 Pls
1225 801 Pls
1225 801 Pls
1225 801 Pls
1225 801 Pls
1225 801 Pls
1225 801 Pls
1225 801 Pls
1225 802 Pls
1225 802 Pls
1225 802 Pls
1225 802 Pls
1225 802 Pls
1225 802 Pls
1225 802 Pls
1225 802 Pls
1225 802 Pls
1225 803 Pls
2606 813 Pls
2606 814 Pls
2606 817 Pls
2606 819 Pls
2606 809 Pls
2606 811 Pls
2606 810 Pls
2606 815 Pls
2606 808 Pls
2606 809 Pls
2606 810 Pls
2606 812 Pls
2606 805 Pls
2606 806 Pls
2606 806 Pls
2606 808 Pls
2606 805 Pls
2606 805 Pls
2606 804 Pls
2606 805 Pls
2606 809 Pls
2606 809 Pls
2606 809 Pls
2606 811 Pls
2606 816 Pls
2606 817 Pls
2606 818 Pls
2606 819 Pls
2606 823 Pls
2606 828 Pls
2606 824 Pls
2606 827 Pls
2606 830 Pls
2606 832 Pls
2606 835 Pls
2606 833 Pls
2606 843 Pls
2606 845 Pls
2606 844 Pls
2606 842 Pls
3987 840 Pls
3987 853 Pls
3987 854 Pls
3987 866 Pls
3987 835 Pls
3987 845 Pls
3987 844 Pls
3987 847 Pls
3987 834 Pls
3987 832 Pls
3987 844 Pls
3987 831 Pls
3987 829 Pls
3987 819 Pls
3987 827 Pls
3987 834 Pls
3987 816 Pls
3987 818 Pls
3987 815 Pls
3987 817 Pls
3987 844 Pls
3987 848 Pls
3987 853 Pls
3987 845 Pls
3987 882 Pls
3987 883 Pls
3987 882 Pls
3987 886 Pls
3987 912 Pls
3987 919 Pls
3987 917 Pls
3987 915 Pls
3987 971 Pls
3987 962 Pls
3987 951 Pls
3987 973 Pls
3987 991 Pls
3987 996 Pls
3987 1001 Pls
3987 1027 Pls
5368 952 Pls
5368 946 Pls
5368 988 Pls
5368 978 Pls
5368 925 Pls
5368 926 Pls
5368 927 Pls
5368 956 Pls
5368 872 Pls
5368 894 Pls
5368 913 Pls
5368 902 Pls
5368 865 Pls
5368 883 Pls
5368 867 Pls
5368 861 Pls
5368 847 Pls
5368 844 Pls
5368 854 Pls
5368 864 Pls
5368 961 Pls
5368 952 Pls
5368 953 Pls
5368 958 Pls
5368 1099 Pls
5368 1080 Pls
5368 1050 Pls
5368 1111 Pls
5368 1202 Pls
5368 1198 Pls
5368 1197 Pls
5368 1265 Pls
5368 1334 Pls
5368 1400 Pls
5368 1404 Pls
5368 1462 Pls
5368 1457 Pls
5368 1449 Pls
5368 1583 Pls
5368 1593 Pls
6749 1120 Pls
6749 1112 Pls
6749 1208 Pls
6749 1225 Pls
6749 1037 Pls
6749 1190 Pls
6749 1129 Pls
6749 1234 Pls
6749 981 Pls
6749 1040 Pls
6749 1011 Pls
6749 1111 Pls
6749 952 Pls
6749 973 Pls
6749 960 Pls
6749 983 Pls
6749 898 Pls
6749 920 Pls
6749 902 Pls
6749 911 Pls
6749 1419 Pls
6749 1282 Pls
6749 1464 Pls
6749 1435 Pls
6749 1867 Pls
6749 1938 Pls
6749 1838 Pls
6749 2101 Pls
6749 2385 Pls
6749 2399 Pls
6749 2731 Pls
6749 2708 Pls
6749 3278 Pls
6749 3041 Pls
6749 3232 Pls
6749 3489 Pls
6749 3790 Pls
6749 3962 Pls
6749 3500 Pls
6749 3923 Pls
1225 801 Pls
1225 801 Pls
1225 802 Pls
1225 802 Pls
1225 801 Pls
1225 801 Pls
1225 801 Pls
1225 801 Pls
1225 801 Pls
1225 801 Pls
1225 801 Pls
1225 801 Pls
1225 800 Pls
1225 801 Pls
1225 801 Pls
1225 801 Pls
1225 800 Pls
1225 800 Pls
1225 800 Pls
1225 800 Pls
1225 801 Pls
1225 801 Pls
1225 801 Pls
1225 801 Pls
1225 801 Pls
1225 801 Pls
1225 801 Pls
1225 801 Pls
1225 801 Pls
1225 802 Pls
1225 802 Pls
1225 802 Pls
1225 802 Pls
1225 802 Pls
1225 802 Pls
1225 802 Pls
1225 802 Pls
1225 803 Pls
1225 803 Pls
1225 803 Pls
2606 816 Pls
2606 811 Pls
2606 816 Pls
2606 817 Pls
2606 811 Pls
2606 811 Pls
2606 816 Pls
2606 813 Pls
2606 808 Pls
2606 808 Pls
2606 808 Pls
2606 810 Pls
2606 807 Pls
2606 805 Pls
2606 809 Pls
2606 807 Pls
2606 805 Pls
2606 805 Pls
2606 803 Pls
2606 805 Pls
2606 809 Pls
2606 809 Pls
2606 810 Pls
2606 812 Pls
2606 816 Pls
2606 816 Pls
2606 818 Pls
2606 820 Pls
2606 820 Pls
2606 823 Pls
2606 827 Pls
2606 828 Pls
2606 832 Pls
2606 833 Pls
2606 834 Pls
2606 835 Pls
2606 837 Pls
2606 838 Pls
2606 842 Pls
2606 844 Pls
3987 847 Pls
3987 851 Pls
3987 847 Pls
3987 865 Pls
3987 839 Pls
3987 840 Pls
3987 842 Pls
3987 841 Pls
3987 831 Pls
3987 831 Pls
3987 824 Pls
3987 838 Pls
3987 829 Pls
3987 824 Pls
3987 829 Pls
3987 823 Pls
3987 813 Pls
3987 817 Pls
3987 821 Pls
3987 818 Pls
3987 846 Pls
3987 845 Pls
3987 843 Pls
3987 846 Pls
3987 884 Pls
3987 878 Pls
3987 883 Pls
3987 874 Pls
3987 926 Pls
3987 922 Pls
3987 913 Pls
3987 921 Pls
3987 945 Pls
3987 954 Pls
3987 958 Pls
3987 970 Pls
3987 1014 Pls
3987 1010 Pls
3987 983 Pls
3987 1001 Pls
5368 958 Pls
5368 1004 Pls
5368 953 Pls
5368 978 Pls
5368 906 Pls
5368 940 Pls
5368 933 Pls
5368 950 Pls
5368 883 Pls
5368 911 Pls
5368 940 Pls
5368 908 Pls
5368 863 Pls
5368 880 Pls
5368 889 Pls
5368 852 Pls
5368 844 Pls
5368 851 Pls
5368 866 Pls
5368 870 Pls
5368 937 Pls
5368 958 Pls
5368 958 Pls
5368 962 Pls
5368 1066 Pls
5368 1099 Pls
5368 1092 Pls
5368 1099 Pls
5368 1200 Pls
5368 1202 Pls
5368 1241 Pls
5368 1256 Pls
5368 1502 Pls
5368 1316 Pls
5368 1293 Pls
5368 1390 Pls
5368 1603 Pls
5368 1472 Pls
5368 1556 Pls
5368 1599 Pls
6749 1123 Pls
6749 1109 Pls
6749 1249 Pls
6749 1162 Pls
6749 1079 Pls
6749 1060 Pls
6749 1123 Pls
6749 1077 Pls
6749 958 Pls
6749 1052 Pls
6749 1046 Pls
6749 1082 Pls
6749 938 Pls
6749 966 Pls
6749 972 Pls
6749 973 Pls
6749 908 Pls
6749 887 Pls
6749 902 Pls
6749 927 Pls
6749 1297 Pls
6749 1350 Pls
6749 1435 Pls
6749 1418 Pls
6749 1888 Pls
6749 2023 Pls
6749 1859 Pls
6749 2096 Pls
6749 2485 Pls
6749 2769 Pls
6749 2486 Pls
6749 2680 Pls
6749 2856 Pls
6749 3026 Pls
6749 3213 Pls
6749 3468 Pls
6749 3942 Pls
6749 3755 Pls
6749 4056 Pls
6749 4025 Pls
1225 801 Pls
1225 801 Pls
1225 802 Pls
1225 802 Pls
1225 801 Pls
1225 801 Pls
1225 801 Pls
1225 802 Pls
1225 801 Pls
1225 801 Pls
1225 801 Pls
1225 801 Pls
1225 801 Pls
1225 801 Pls
1225 801 Pls
1225 801 Pls
1225 800 Pls
1225 801 Pls
1225 800 Pls
1225 801 Pls
1225 801 Pls
1225 801 Pls
1225 801 Pls
1225 801 Pls
1225 801 Pls
1225 801 Pls
1225 801 Pls
1225 801 Pls
1225 801 Pls
1225 802 Pls
1225 802 Pls
1225 802 Pls
1225 802 Pls
1225 802 Pls
1225 803 Pls
1225 802 Pls
1225 802 Pls
1225 803 Pls
1225 803 Pls
1225 803 Pls
2606 814 Pls
2606 818 Pls
2606 814 Pls
2606 818 Pls
2606 809 Pls
2606 812 Pls
2606 811 Pls
2606 813 Pls
2606 809 Pls
2606 809 Pls
2606 810 Pls
2606 811 Pls
2606 807 Pls
2606 807 Pls
2606 808 Pls
2606 808 Pls
2606 805 Pls
2606 805 Pls
2606 805 Pls
2606 805 Pls
2606 809 Pls
2606 810 Pls
2606 810 Pls
2606 812 Pls
2606 816 Pls
2606 814 Pls
2606 817 Pls
2606 817 Pls
2606 824 Pls
2606 827 Pls
2606 824 Pls
2606 826 Pls
2606 829 Pls
2606 835 Pls
2606 832 Pls
2606 838 Pls
2606 836 Pls
2606 841 Pls
2606 842 Pls
2606 845 Pls
3987 840 Pls
3987 845 Pls
3987 854 Pls
3987 869 Pls
3987 831 Pls
3987 836 Pls
3987 850 Pls
3987 854 Pls
3987 827 Pls
3987 839 Pls
3987 829 Pls
3987 843 Pls
3987 825 Pls
3987 820 Pls
3987 830 Pls
3987 829 Pls
3987 817 Pls
3987 819 Pls
3987 815 Pls
3987 820 Pls
3987 844 Pls
3987 847 Pls
3987 851 Pls
3987 848 Pls
3987 875 Pls
3987 884 Pls
3987 886 Pls
3987 880 Pls
3987 918 Pls
3987 904 Pls
3987 935 Pls
3987 916 Pls
3987 946 Pls
3987 958 Pls
3987 962 Pls
3987 956 Pls
3987 963 Pls
3987 988 Pls
3987 1005 Pls
3987 1028 Pls
5368 943 Pls
5368 975 Pls
5368 968 Pls
5368 958 Pls
5368 908 Pls
5368 947 Pls
5368 952 Pls
5368 963 Pls
5368 884 Pls
5368 913 Pls
5368 897 Pls
5368 905 Pls
5368 872 Pls
5368 872 Pls
5368 873 Pls
5368 873 Pls
5368 847 Pls
5368 849 Pls
5368 853 Pls
5368 850 Pls
5368 969 Pls
5368 964 Pls
5368 968 Pls
5368 948 Pls
5368 1098 Pls
5368 1054 Pls
5368 1125 Pls
5368 1086 Pls
5368 1215 Pls
5368 1199 Pls
5368 1247 Pls
5368 1232 Pls
5368 1350 Pls
5368 1371 Pls
5368 1410 Pls
5368 1377 Pls
5368 1598 Pls
5368 1566 Pls
5368 1523 Pls
5368 1566 Pls
6749 1078 Pls
6749 1057 Pls
6749 1216 Pls
6749 1190 Pls
6749 1050 Pls
6749 1063 Pls
6749 1133 Pls
6749 1090 Pls
6749 981 Pls
6749 998 Pls
6749 1042 Pls
6749 1075 Pls
6749 954 Pls
6749 955 Pls
6749 967 Pls
6749 962 Pls
6749 919 Pls
6749 890 Pls
6749 917 Pls
6749 919 Pls
6749 1339 Pls
6749 1344 Pls
6749 1379 Pls
6749 1460 Pls
6749 2046 Pls
6749 1880 Pls
6749 2124 Pls
6749 1914 Pls
6749 2489 Pls
6749 2480 Pls
6749 2633 Pls
6749 2594 Pls
6749 3326 Pls
6749 3283 Pls
6749 3312 Pls
6749 3424 Pls
6749 3881 Pls
6749 4134 Pls
6749 3544 Pls
6749 4084 Pls
1225 801 Pls
1225 801 Pls
1225 801 Pls
1225 802 Pls
1225 801 Pls
1225 801 Pls
1225 801 Pls
1225 802 Pls
1225 801 Pls
1225 801 Pls
1225 801 Pls
1225 801 Pls
1225 801 Pls
1225 801 Pls
1225 801 Pls
1225 801 Pls
1225 800 Pls
1225 800 Pls
1225 800 Pls
1225 801 Pls
1225 801 Pls
1225 801 Pls
1225 801 Pls
1225 801 Pls
1225 801 Pls
1225 801 Pls
1225 801 Pls
1225 801 Pls
1225 801 Pls
1225 802 Pls
1225 802 Pls
1225 802 Pls
1225 802 Pls
1225 802 Pls
1225 802 Pls
1225 802 Pls
1225 802 Pls
1225 803 Pls
1225 803 Pls
1225 803 Pls
2606 814 Pls
2606 816 Pls
2606 815 Pls
2606 820 Pls
2606 813 Pls
2606 809 Pls
2606 814 Pls
2606 814 Pls
2606 809 Pls
2606 809 Pls
2606 809 Pls
2606 811 Pls
2606 807 Pls
2606 808 Pls
2606 809 Pls
2606 806 Pls
2606 805 Pls
2606 805 Pls
2606 805 Pls
2606 805 Pls
2606 807 Pls
2606 810 Pls
2606 810 Pls
2606 811 Pls
2606 816 Pls
2606 816 Pls
2606 816 Pls
2606 820 Pls
2606 824 Pls
2606 826 Pls
2606 827 Pls
2606 826 Pls
2606 831 Pls
2606 833 Pls
2606 831 Pls
2606 837 Pls
2606 841 Pls
2606 840 Pls
2606 843 Pls
2606 847 Pls
3987 842 Pls
3987 860 Pls
3987 842 Pls
3987 864 Pls
3987 844 Pls
3987 843 Pls
3987 846 Pls
3987 854 Pls
3987 836 Pls
3987 831 Pls
3987 833 Pls
3987 841 Pls
3987 818 Pls
3987 820 Pls
3987 822 Pls
3987 827 Pls
3987 816 Pls
3987 818 Pls
3987 817 Pls
3987 822 Pls
3987 843 Pls
3987 852 Pls
3987 845 Pls
3987 849 Pls
3987 874 Pls
3987 875 Pls
3987 883 Pls
3987 888 Pls
3987 905 Pls
3987 914 Pls
3987 909 Pls
3987 925 Pls
3987 957 Pls
3987 951 Pls
3987 957 Pls
3987 981 Pls
3987 989 Pls
3987 1005 Pls
3987 1005 Pls
3987 1022 Pls
5368 932 Pls
5368 959 Pls
5368 965 Pls
5368 987 Pls
5368 957 Pls
5368 917 Pls
5368 939 Pls
5368 936 Pls
5368 875 Pls
5368 887 Pls
5368 914 Pls
5368 905 Pls
5368 869 Pls
5368 883 Pls
5368 863 Pls
5368 873 Pls
5368 841 Pls
5368 845 Pls
5368 850 Pls
5368 859 Pls
5368 933 Pls
5368 961 Pls
5368 944 Pls
5368 955 Pls
5368 1078 Pls
5368 1085 Pls
5368 1086 Pls
5368 1113 Pls
5368 1243 Pls
5368 1266 Pls
5368 1303 Pls
5368 1246 Pls
5368 1336 Pls
5368 1387 Pls
5368 1466 Pls
5368 1351 Pls
5368 1499 Pls
5368 1661 Pls
5368 1591 Pls
5368 1653 Pls
6749 1111 Pls
6749 1054 Pls
6749 1057 Pls
6749 1160 Pls
6749 1027 Pls
6749 1066 Pls
6749 1139 Pls
6749 1152 Pls
6749 996 Pls
6749 1018 Pls
6749 1023 Pls
6749 1059 Pls
6749 950 Pls
6749 992 Pls
6749 1008 Pls
6749 995 Pls
6749 875 Pls
6749 921 Pls
6749 911 Pls
6749 936 Pls
6749 1326 Pls
6749 1320 Pls
6749 1400 Pls
6749 1434 Pls
6749 1889 Pls
6749 1931 Pls
6749 2049 Pls
6749 2008 Pls
6749 2427 Pls
6749 2336 Pls
6749 2485 Pls
6749 2353 Pls
6749 3027 Pls
6749 3241 Pls
6749 3583 Pls
6749 3038 Pls
6749 3170 Pls
6749 4056 Pls
6749 4245 Pls
6749 3986 Pls
1225 802 Pls
1225 801 Pls
1225 802 Pls
1225 802 Pls
1225 801 Pls
1225 801 Pls
1225 802 Pls
1225 802 Pls
1225 801 Pls
1225 801 Pls
1225 801 Pls
1225 801 Pls
1225 800 Pls
1225 801 Pls
1225 801 Pls
1225 801 Pls
1225 800 Pls
1225 800 Pls
1225 801 Pls
1225 800 Pls
1225 801 Pls
1225 801 Pls
1225 801 Pls
1225 801 Pls
1225 801 Pls
1225 801 Pls
1225 801 Pls
1225 801 Pls
1225 801 Pls
1225 802 Pls
1225 802 Pls
1225 802 Pls
1225 802 Pls
1225 802 Pls
1225 802 Pls
1225 802 Pls
1225 802 Pls
1225 803 Pls
1225 803 Pls
1225 803 Pls
2606 813 Pls
2606 815 Pls
2606 815 Pls
2606 816 Pls
2606 809 Pls
2606 812 Pls
2606 814 Pls
2606 814 Pls
2606 807 Pls
2606 809 Pls
2606 808 Pls
2606 813 Pls
2606 806 Pls
2606 806 Pls
2606 806 Pls
2606 810 Pls
2606 804 Pls
2606 804 Pls
2606 805 Pls
2606 804 Pls
2606 808 Pls
2606 810 Pls
2606 812 Pls
2606 810 Pls
2606 815 Pls
2606 816 Pls
2606 819 Pls
2606 817 Pls
2606 824 Pls
2606 825 Pls
2606 825 Pls
2606 827 Pls
2606 831 Pls
2606 833 Pls
2606 834 Pls
2606 835 Pls
2606 834 Pls
2606 839 Pls
2606 843 Pls
2606 843 Pls
3987 850 Pls
3987 851 Pls
3987 868 Pls
3987 884 Pls
3987 830 Pls
3987 843 Pls
3987 848 Pls
3987 848 Pls
3987 820 Pls
3987 838 Pls
3987 840 Pls
3987 837 Pls
3987 825 Pls
3987 827 Pls
3987 823 Pls
3987 829 Pls
3987 819 Pls
3987 818 Pls
3987 822 Pls
3987 816 Pls
3987 837 Pls
3987 846 Pls
3987 847 Pls
3987 850 Pls
3987 876 Pls
3987 880 Pls
3987 886 Pls
3987 873 Pls
3987 907 Pls
3987 921 Pls
3987 915 Pls
3987 924 Pls
3987 947 Pls
3987 964 Pls
3987 974 Pls
3987 959 Pls
3987 1000 Pls
3987 1008 Pls
3987 1006 Pls
3987 1025 Pls
5368 937 Pls
5368 965 Pls
5368 1010 Pls
5368 982 Pls
5368 936 Pls
5368 920 Pls
5368 933 Pls
5368 944 Pls
5368 883 Pls
5368 894 Pls
5368 887 Pls
5368 909 Pls
5368 870 Pls
5368 857 Pls
5368 857 Pls
5368 884 Pls
5368 848 Pls
5368 846 Pls
5368 848 Pls
5368 848 Pls
5368 944 Pls
5368 950 Pls
5368 962 Pls
5368 952 Pls
5368 1081 Pls
5368 1105 Pls
5368 1094 Pls
5368 1105 Pls
5368 1225 Pls
5368 1242 Pls
5368 1211 Pls
5368 1268 Pls
5368 1399 Pls
5368 1459 Pls
5368 1398 Pls
5368 1390 Pls
5368 1560 Pls
5368 1534 Pls
5368 1583 Pls
5368 1586 Pls
6749 1079 Pls
6749 1222 Pls
6749 1156 Pls
6749 1198 Pls
6749 1018 Pls
6749 1059 Pls
6749 1181 Pls
6749 1144 Pls
6749 977 Pls
6749 1010 Pls
6749 1055 Pls
6749 1101 Pls
6749 935 Pls
6749 985 Pls
6749 989 Pls
6749 963 Pls
6749 895 Pls
6749 912 Pls
6749 954 Pls
6749 940 Pls
6749 1428 Pls
6749 1433 Pls
6749 1443 Pls
6749 1375 Pls
6749 1913 Pls
6749 1842 Pls
6749 1955 Pls
6749 1826 Pls
6749 2246 Pls
6749 2256 Pls
6749 2424 Pls
6749 2625 Pls
6749 3303 Pls
6749 3362 Pls
6749 3456 Pls
6749 3231 Pls
6749 4100 Pls
6749 3822 Pls
6749 3801 Pls
6749 4215 Pls
1225 802 Pls
1225 801 Pls
1225 802 Pls
1225 802 Pls
1225 801 Pls
1225 801 Pls
1225 802 Pls
1225 802 Pls
1225 801 Pls
1225 801 Pls
1225 801 Pls
1225 801 Pls
1225 801 Pls
1225 801 Pls
1225 801 Pls
1225 801 Pls
1225 800 Pls
1225 800 Pls
1225 801 Pls
1225 800 Pls
1225 801 Pls
1225 801 Pls
1225 801 Pls
1225 801 Pls
1225 801 Pls
1225 801 Pls
1225 801 Pls
1225 801 Pls
1225 801 Pls
1225 802 Pls
1225 802 Pls
1225 802 Pls
1225 802 Pls
1225 802 Pls
1225 802 Pls
1225 802 Pls
1225 802 Pls
1225 802 Pls
1225 803 Pls
1225 803 Pls
2606 811 Pls
2606 813 Pls
2606 818 Pls
2606 816 Pls
2606 810 Pls
2606 811 Pls
2606 813 Pls
2606 816 Pls
2606 809 Pls
2606 809 Pls
2606 809 Pls
2606 810 Pls
2606 806 Pls
2606 807 Pls
2606 806 Pls
2606 807 Pls
2606 804 Pls
2606 805 Pls
2606 804 Pls
2606 805 Pls
2606 809 Pls
2606 809 Pls
2606 810 Pls
2606 811 Pls
2606 817 Pls
2606 819 Pls
2606 817 Pls
2606 820 Pls
2606 826 Pls
2606 825 Pls
2606 827 Pls
2606 829 Pls
2606 825 Pls
2606 834 Pls
2606 834 Pls
2606 837 Pls
2606 839 Pls
2606 844 Pls
2606 840 Pls
2606 844 Pls
3987 859 Pls
3987 848 Pls
3987 847 Pls
3987 864 Pls
3987 840 Pls
3987 842 Pls
3987 840 Pls
3987 851 Pls
3987 831 Pls
3987 826 Pls
3987 828 Pls
3987 841 Pls
3987 824 Pls
3987 824 Pls
3987 829 Pls
3987 823 Pls
3987 813 Pls
3987 820 Pls
3987 822 Pls
3987 819 Pls
3987 840 Pls
3987 838 Pls
3987 846 Pls
3987 849 Pls
3987 873 Pls
3987 880 Pls
3987 886 Pls
3987 886 Pls
3987 914 Pls
3987 907 Pls
3987 915 Pls
3987 920 Pls
3987 949 Pls
3987 971 Pls
3987 962 Pls
3987 970 Pls
3987 985 Pls
3987 1001 Pls
3987 1024 Pls
3987 1012 Pls
5368 930 Pls
5368 952 Pls
5368 1008 Pls
5368 982 Pls
5368 916 Pls
5368 940 Pls
5368 936 Pls
5368 944 Pls
5368 896 Pls
5368 885 Pls
5368 918 Pls
5368 923 Pls
5368 855 Pls
5368 863 Pls
5368 869 Pls
5368 874 Pls
5368 839 Pls
5368 851 Pls
5368 882 Pls
5368 852 Pls
5368 946 Pls
5368 941 Pls
5368 954 Pls
5368 945 Pls
5368 1083 Pls
5368 1077 Pls
5368 1065 Pls
5368 1111 Pls
5368 1207 Pls
5368 1231 Pls
5368 1225 Pls
5368 1255 Pls
5368 1384 Pls
5368 1434 Pls
5368 1385 Pls
5368 1413 Pls
5368 1534 Pls
5368 1527 Pls
5368 1593 Pls
5368 1546 Pls
6749 1138 Pls
6749 1072 Pls
6749 1161 Pls
6749 1217 Pls
6749 1050 Pls
6749 1081 Pls
6749 1110 Pls
6749 1190 Pls
6749 975 Pls
6749 1073 Pls
6749 1066 Pls
6749 1066 Pls
6749 968 Pls
6749 966 Pls
6749 957 Pls
6749 1010 Pls
6749 883 Pls
6749 898 Pls
6749 935 Pls
6749 978 Pls
6749 1399 Pls
6749 1425 Pls
6749 1363 Pls
6749 1410 Pls
6749 1908 Pls
6749 1837 Pls
6749 2043 Pls
6749 1943 Pls
6749 2533 Pls
6749 2659 Pls
6749 2722 Pls
6749 2779 Pls
6749 3138 Pls
6749 3297 Pls
6749 3208 Pls
6749 3479 Pls
6749 3980 Pls
6749 4080 Pls
6749 3822 Pls
6749 3736 Pls
1225 803 Pls
1225 801 Pls
1225 802 Pls
1225 802 Pls
1225 801 Pls
1225 801 Pls
1225 801 Pls
1225 801 Pls
1225 801 Pls
1225 801 Pls
1225 801 Pls
1225 801 Pls
1225 800 Pls
1225 801 Pls
1225 801 Pls
1225 801 Pls
1225 800 Pls
1225 800 Pls
1225 800 Pls
1225 801 Pls
1225 801 Pls
1225 801 Pls
1225 801 Pls
1225 801 Pls
1225 801 Pls
1225 801 Pls
1225 801 Pls
1225 801 Pls
1225 801 Pls
1225 802 Pls
1225 802 Pls
1225 802 Pls
1225 802 Pls
1225 802 Pls
1225 802 Pls
1225 802 Pls
1225 802 Pls
1225 803 Pls
1225 803 Pls
1225 803 Pls
2606 812 Pls
2606 814 Pls
2606 814 Pls
2606 814 Pls
2606 809 Pls
2606 810 Pls
2606 811 Pls
2606 813 Pls
2606 810 Pls
2606 809 Pls
2606 809 Pls
2606 809 Pls
2606 806 Pls
2606 807 Pls
2606 808 Pls
2606 807 Pls
2606 804 Pls
2606 804 Pls
2606 805 Pls
2606 805 Pls
2606 810 Pls
2606 810 Pls
2606 811 Pls
2606 812 Pls
2606 815 Pls
2606 817 Pls
2606 818 Pls
2606 820 Pls
2606 824 Pls
2606 824 Pls
2606 825 Pls
2606 827 Pls
2606 831 Pls
2606 834 Pls
2606 835 Pls
2606 834 Pls
2606 834 Pls
2606 842 Pls
2606 843 Pls
2606 844 Pls
3987 840 Pls
3987 847 Pls
3987 860 Pls
3987 866 Pls
3987 828 Pls
3987 846 Pls
3987 856 Pls
3987 847 Pls
3987 822 Pls
3987 834 Pls
3987 822 Pls
3987 844 Pls
3987 820 Pls
3987 828 Pls
3987 824 Pls
3987 827 Pls
3987 817 Pls
3987 819 Pls
3987 815 Pls
3987 822 Pls
3987 841 Pls
3987 850 Pls
3987 848 Pls
3987 854 Pls
3987 868 Pls
3987 878 Pls
3987 885 Pls
3987 890 Pls
3987 903 Pls
3987 924 Pls
3987 914 Pls
3987 931 Pls
3987 938 Pls
3987 952 Pls
3987 943 Pls
3987 954 Pls
3987 991 Pls
3987 1003 Pls
3987 1002 Pls
3987 1013 Pls
5368 958 Pls
5368 984 Pls
5368 1003 Pls
5368 1008 Pls
5368 923 Pls
5368 944 Pls
5368 927 Pls
5368 956 Pls
5368 879 Pls
5368 904 Pls
5368 899 Pls
5368 903 Pls
5368 861 Pls
5368 850 Pls
5368 865 Pls
5368 899 Pls
5368 854 Pls
5368 844 Pls
5368 850 Pls
5368 841 Pls
5368 962 Pls
5368 949 Pls
5368 968 Pls
5368 953 Pls
5368 1082 Pls
5368 1061 Pls
5368 1068 Pls
5368 1123 Pls
5368 1206 Pls
5368 1261 Pls
5368 1243 Pls
5368 1260 Pls
5368 1418 Pls
5368 1369 Pls
5368 1442 Pls
5368 1382 Pls
5368 1585 Pls
5368 1569 Pls
5368 1554 Pls
5368 1565 Pls
6749 1089 Pls
6749 1122 Pls
6749 1215 Pls
6749 1117 Pls
6749 1076 Pls
6749 1122 Pls
6749 1091 Pls
6749 1073 Pls
6749 1041 Pls
6749 1003 Pls
6749 1057 Pls
6749 1110 Pls
6749 941 Pls
6749 983 Pls
6749 1012 Pls
6749 1012 Pls
6749 918 Pls
6749 916 Pls
6749 934 Pls
6749 989 Pls
6749 1368 Pls
6749 1369 Pls
6749 1422 Pls
6749 1413 Pls
6749 2028 Pls
6749 1965 Pls
6749 1800 Pls
6749 1806 Pls
6749 2465 Pls
6749 2664 Pls
6749 2664 Pls
6749 2798 Pls
6749 3290 Pls
6749 3295 Pls
6749 3695 Pls
6749 3294 Pls
6749 3823 Pls
6749 3776 Pls
6749 3602 Pls
6749 4091 Pls
1225 803 Pls
1225 801 Pls
1225 802 Pls
1225 802 Pls
1225 801 Pls
1225 801 Pls
1225 801 Pls
1225 802 Pls
1225 801 Pls
1225 801 Pls
1225 801 Pls
1225 801 Pls
1225 801 Pls
1225 800 Pls
1225 801 Pls
1225 801 Pls
1225 800 Pls
1225 800 Pls
1225 801 Pls
1225 801 Pls
1225 801 Pls
1225 801 Pls
1225 801 Pls
1225 801 Pls
1225 801 Pls
1225 801 Pls
1225 801 Pls
1225 801 Pls
1225 801 Pls
1225 802 Pls
1225 802 Pls
1225 802 Pls
1225 802 Pls
1225 802 Pls
1225 802 Pls
1225 803 Pls
1225 802 Pls
1225 803 Pls
1225 803 Pls
1225 803 Pls
2606 812 Pls
2606 814 Pls
2606 816 Pls
2606 821 Pls
2606 809 Pls
2606 809 Pls
2606 811 Pls
2606 814 Pls
2606 809 Pls
2606 807 Pls
2606 808 Pls
2606 810 Pls
2606 808 Pls
2606 807 Pls
2606 808 Pls
2606 807 Pls
2606 804 Pls
2606 804 Pls
2606 805 Pls
2606 805 Pls
2606 810 Pls
2606 809 Pls
2606 812 Pls
2606 812 Pls
2606 818 Pls
2606 815 Pls
2606 817 Pls
2606 817 Pls
2606 822 Pls
2606 822 Pls
2606 825 Pls
2606 826 Pls
2606 828 Pls
2606 829 Pls
2606 832 Pls
2606 833 Pls
2606 841 Pls
2606 843 Pls
2606 843 Pls
2606 842 Pls
3987 845 Pls
3987 848 Pls
3987 862 Pls
3987 866 Pls
3987 838 Pls
3987 836 Pls
3987 845 Pls
3987 846 Pls
3987 823 Pls
3987 839 Pls
3987 831 Pls
3987 830 Pls
3987 829 Pls
3987 824 Pls
3987 821 Pls
3987 825 Pls
3987 815 Pls
3987 817 Pls
3987 819 Pls
3987 813 Pls
3987 835 Pls
3987 841 Pls
3987 848 Pls
3987 844 Pls
3987 862 Pls
3987 879 Pls
3987 881 Pls
3987 878 Pls
3987 921 Pls
3987 915 Pls
3987 919 Pls
3987 922 Pls
3987 952 Pls
3987 971 Pls
3987 949 Pls
3987 974 Pls
3987 990 Pls
3987 1016 Pls
3987 1002 Pls
3987 1017 Pls
5368 946 Pls
5368 928 Pls
5368 1017 Pls
5368 1017 Pls
5368 924 Pls
5368 947 Pls
5368 945 Pls
5368 967 Pls
5368 883 Pls
5368 886 Pls
5368 897 Pls
5368 913 Pls
5368 871 Pls
5368 860 Pls
5368 860 Pls
5368 871 Pls
5368 843 Pls
5368 847 Pls
5368 850 Pls
5368 850 Pls
5368 932 Pls
5368 971 Pls
5368 964 Pls
5368 962 Pls
5368 1104 Pls
5368 1060 Pls
5368 1078 Pls
5368 1063 Pls
5368 1251 Pls
5368 1252 Pls
5368 1216 Pls
5368 1279 Pls
5368 1378 Pls
5368 1356 Pls
5368 1420 Pls
5368 1468 Pls
5368 1556 Pls
5368 1544 Pls
5368 1509 Pls
5368 1618 Pls
6749 1053 Pls
6749 1111 Pls
6749 1157 Pls
6749 1194 Pls
6749 1060 Pls
6749 1129 Pls
6749 1070 Pls
6749 1099 Pls
6749 1060 Pls
6749 1011 Pls
6749 1032 Pls
6749 1048 Pls
6749 949 Pls
6749 987 Pls
6749 1027 Pls
6749 991 Pls
6749 902 Pls
6749 944 Pls
6749 954 Pls
6749 953 Pls
6749 1363 Pls
6749 1354 Pls
6749 1371 Pls
6749 1444 Pls
6749 1898 Pls
6749 1929 Pls
6749 1965 Pls
6749 2075 Pls
6749 2636 Pls
6749 2530 Pls
6749 2675 Pls
6749 2835 Pls
6749 2950 Pls
6749 3109 Pls
6749 3343 Pls
6749 3172 Pls
6749 3845 Pls
6749 3960 Pls
6749 3951 Pls
6749 4262 Pls
1225 803 Pls
1225 802 Pls
1225 802 Pls
1225 802 Pls
1225 801 Pls
1225 801 Pls
1225 801 Pls
1225 801 Pls
1225 801 Pls
1225 801 Pls
1225 801 Pls
1225 801 Pls
1225 800 Pls
1225 801 Pls
1225 801 Pls
1225 801 Pls
1225 800 Pls
1225 801 Pls
1225 801 Pls
1225 801 Pls
1225 801 Pls
1225 801 Pls
1225 801 Pls
1225 801 Pls
1225 801 Pls
1225 801 Pls
1225 801 Pls
1225 801 Pls
1225 801 Pls
1225 802 Pls
1225 802 Pls
1225 802 Pls
1225 802 Pls
1225 802 Pls
1225 802 Pls
1225 803 Pls
1225 802 Pls
1225 802 Pls
1225 803 Pls
1225 803 Pls
2606 812 Pls
2606 811 Pls
2606 818 Pls
2606 815 Pls
2606 810 Pls
2606 812 Pls
2606 813 Pls
2606 812 Pls
2606 808 Pls
2606 809 Pls
2606 811 Pls
2606 811 Pls
2606 808 Pls
2606 806 Pls
2606 807 Pls
2606 809 Pls
2606 805 Pls
2606 805 Pls
2606 806 Pls
2606 805 Pls
2606 808 Pls
2606 809 Pls
2606 810 Pls
2606 812 Pls
2606 815 Pls
2606 817 Pls
2606 817 Pls
2606 818 Pls
2606 823 Pls
2606 826 Pls
2606 827 Pls
2606 828 Pls
2606 830 Pls
2606 834 Pls
2606 832 Pls
2606 836 Pls
2606 840 Pls
2606 839 Pls
2606 839 Pls
2606 845 Pls
3987 838 Pls
3987 846 Pls
3987 854 Pls
3987 868 Pls
3987 852 Pls
3987 831 Pls
3987 841 Pls
3987 850 Pls
3987 827 Pls
3987 828 Pls
3987 833 Pls
3987 836 Pls
3987 823 Pls
3987 830 Pls
3987 820 Pls
3987 827 Pls
3987 818 Pls
3987 818 Pls
3987 820 Pls
3987 821 Pls
3987 844 Pls
3987 846 Pls
3987 848 Pls
3987 851 Pls
3987 875 Pls
3987 874 Pls
3987 894 Pls
3987 893 Pls
3987 922 Pls
3987 927 Pls
3987 921 Pls
3987 930 Pls
3987 943 Pls
3987 962 Pls
3987 965 Pls
3987 956 Pls
3987 990 Pls
3987 991 Pls
3987 1022 Pls
3987 1027 Pls
5368 920 Pls
5368 982 Pls
5368 977 Pls
5368 968 Pls
5368 900 Pls
5368 902 Pls
5368 937 Pls
5368 922 Pls
5368 870 Pls
5368 897 Pls
5368 922 Pls
5368 927 Pls
5368 873 Pls
5368 871 Pls
5368 869 Pls
5368 875 Pls
5368 833 Pls
5368 842 Pls
5368 850 Pls
5368 848 Pls
5368 956 Pls
5368 963 Pls
5368 970 Pls
5368 949 Pls
5368 1081 Pls
5368 1117 Pls
5368 1096 Pls
5368 1095 Pls
5368 1226 Pls
5368 1207 Pls
5368 1249 Pls
5368 1261 Pls
5368 1309 Pls
5368 1361 Pls
5368 1389 Pls
5368 1406 Pls
5368 1510 Pls
5368 1520 Pls
5368 1667 Pls
5368 1606 Pls
6749 1117 Pls
6749 1080 Pls
6749 1238 Pls
6749 1209 Pls
6749 1117 Pls
6749 1092 Pls
6749 1189 Pls
6749 1156 Pls
6749 1043 Pls
6749 1010 Pls
6749 1085 Pls
6749 1031 Pls
6749 973 Pls
6749 983 Pls
6749 1006 Pls
6749 1049 Pls
6749 916 Pls
6749 934 Pls
6749 909 Pls
6749 929 Pls
6749 1343 Pls
6749 1454 Pls
6749 1374 Pls
6749 1463 Pls
6749 2029 Pls
6749 1955 Pls
6749 1904 Pls
6749 1968 Pls
6749 2660 Pls
6749 2554 Pls
6749 2762 Pls
6749 2474 Pls
6749 3112 Pls
6749 3273 Pls
6749 3448 Pls
6749 3337 Pls
6749 3798 Pls
6749 4149 Pls
6749 4151 Pls
6749 4079 Pls
1225 802 Pls
1225 802 Pls
1225 801 Pls
1225 802 Pls
1225 801 Pls
1225 801 Pls
1225 801 Pls
1225 802 Pls
1225 801 Pls
1225 801 Pls
1225 801 Pls
1225 801 Pls
1225 801 Pls
1225 801 Pls
1225 801 Pls
1225 801 Pls
1225 800 Pls
1225 800 Pls
1225 800 Pls
1225 801 Pls
1225 801 Pls
1225 801 Pls
1225 801 Pls
1225 801 Pls
1225 801 Pls
1225 801 Pls
1225 801 Pls
1225 801 Pls
1225 801 Pls
1225 802 Pls
1225 802 Pls
1225 802 Pls
1225 802 Pls
1225 802 Pls
1225 802 Pls
1225 802 Pls
1225 802 Pls
1225 802 Pls
1225 803 Pls
1225 803 Pls
2606 811 Pls
2606 813 Pls
2606 815 Pls
2606 818 Pls
2606 813 Pls
2606 814 Pls
2606 809 Pls
2606 812 Pls
2606 808 Pls
2606 808 Pls
2606 807 Pls
2606 811 Pls
2606 806 Pls
2606 806 Pls
2606 806 Pls
2606 808 Pls
2606 805 Pls
2606 805 Pls
2606 805 Pls
2606 805 Pls
2606 809 Pls
2606 808 Pls
2606 810 Pls
2606 813 Pls
2606 817 Pls
2606 816 Pls
2606 819 Pls
2606 818 Pls
2606 825 Pls
2606 824 Pls
2606 828 Pls
2606 827 Pls
2606 829 Pls
2606 830 Pls
2606 835 Pls
2606 837 Pls
2606 838 Pls
2606 844 Pls
2606 845 Pls
2606 844 Pls
3987 845 Pls
3987 853 Pls
3987 866 Pls
3987 861 Pls
3987 841 Pls
3987 847 Pls
3987 841 Pls
3987 838 Pls
3987 828 Pls
3987 829 Pls
3987 829 Pls
3987 829 Pls
3987 828 Pls
3987 821 Pls
3987 829 Pls
3987 831 Pls
3987 818 Pls
3987 816 Pls
3987 818 Pls
3987 817 Pls
3987 845 Pls
3987 847 Pls
3987 843 Pls
3987 850 Pls
3987 876 Pls
3987 883 Pls
3987 877 Pls
3987 886 Pls
3987 912 Pls
3987 919 Pls
3987 932 Pls
3987 921 Pls
3987 946 Pls
3987 951 Pls
3987 966 Pls
3987 960 Pls
3987 993 Pls
3987 991 Pls
3987 1004 Pls
3987 1026 Pls
5368 965 Pls
5368 946 Pls
5368 981 Pls
5368 983 Pls
5368 897 Pls
5368 928 Pls
5368 982 Pls
5368 946 Pls
5368 894 Pls
5368 888 Pls
5368 882 Pls
5368 905 Pls
5368 880 Pls
5368 852 Pls
5368 888 Pls
5368 888 Pls
5368 845 Pls
5368 850 Pls
5368 841 Pls
5368 860 Pls
5368 948 Pls
5368 955 Pls
5368 955 Pls
5368 973 Pls
5368 1089 Pls
5368 1090 Pls
5368 1065 Pls
5368 1102 Pls
5368 1167 Pls
5368 1196 Pls
5368 1210 Pls
5368 1212 Pls
5368 1418 Pls
5368 1369 Pls
5368 1394 Pls
5368 1405 Pls
5368 1461 Pls
5368 1540 Pls
5368 1538 Pls
5368 1570 Pls
6749 1076 Pls
6749 1282 Pls
6749 1155 Pls
6749 1241 Pls
6749 1028 Pls
6749 1137 Pls
6749 1111 Pls
6749 1168 Pls
6749 981 Pls
6749 1005 Pls
6749 1059 Pls
6749 1038 Pls
6749 970 Pls
6749 960 Pls
6749 967 Pls
6749 1025 Pls
6749 898 Pls
6749 890 Pls
6749 938 Pls
6749 952 Pls
6749 1319 Pls
6749 1438 Pls
6749 1339 Pls
6749 1480 Pls
6749 1983 Pls
6749 1949 Pls
6749 1855 Pls
6749 2015 Pls
6749 2540 Pls
6749 2629 Pls
6749 2522 Pls
6749 2737 Pls
6749 3178 Pls
6749 3099 Pls
6749 3193 Pls
6749 3129 Pls
6749 4188 Pls
6749 4208 Pls
6749 4067 Pls
6749 4202 Pls
1225 801 Pls
1225 801 Pls
1225 802 Pls
1225 802 Pls
1225 801 Pls
1225 801 Pls
1225 801 Pls
1225 801 Pls
1225 801 Pls
1225 801 Pls
1225 801 Pls
1225 801 Pls
1225 800 Pls
1225 801 Pls
1225 801 Pls
1225 801 Pls
1225 800 Pls
1225 800 Pls
1225 800 Pls
1225 800 Pls
1225 801 Pls
1225 801 Pls
1225 801 Pls
1225 801 Pls
1225 801 Pls
1225 801 Pls
1225 801 Pls
1225 802 Pls
1225 801 Pls
1225 802 Pls
1225 802 Pls
1225 802 Pls
1225 802 Pls
1225 802 Pls
1225 802 Pls
1225 802 Pls
1225 802 Pls
1225 802 Pls
1225 803 Pls
1225 803 Pls
2606 814 Pls
2606 814 Pls
2606 814 Pls
2606 820 Pls
2606 808 Pls
2606 811 Pls
2606 811 Pls
2606 812 Pls
2606 807 Pls
2606 807 Pls
2606 809 Pls
2606 810 Pls
2606 805 Pls
2606 805 Pls
2606 808 Pls
2606 808 Pls
2606 804 Pls
2606 804 Pls
2606 807 Pls
2606 805 Pls
2606 811 Pls
2606 809 Pls
2606 810 Pls
2606 810 Pls
2606 820 Pls
2606 818 Pls
2606 817 Pls
2606 820 Pls
2606 823 Pls
2606 822 Pls
2606 826 Pls
2606 826 Pls
2606 827 Pls
2606 831 Pls
2606 836 Pls
2606 835 Pls
2606 840 Pls
2606 834 Pls
2606 842 Pls
2606 840 Pls
3987 847 Pls
3987 843 Pls
3987 848 Pls
3987 870 Pls
3987 837 Pls
3987 847 Pls
3987 838 Pls
3987 842 Pls
3987 832 Pls
3987 827 Pls
3987 840 Pls
3987 840 Pls
3987 822 Pls
3987 826 Pls
3987 824 Pls
3987 824 Pls
3987 819 Pls
3987 817 Pls
3987 816 Pls
3987 819 Pls
3987 840 Pls
3987 847 Pls
3987 848 Pls
3987 845 Pls
3987 878 Pls
3987 887 Pls
3987 888 Pls
3987 887 Pls
3987 892 Pls
3987 909 Pls
3987 925 Pls
3987 923 Pls
3987 966 Pls
3987 952 Pls
3987 952 Pls
3987 962 Pls
3987 993 Pls
3987 1015 Pls
3987 992 Pls
3987 1030 Pls
5368 952 Pls
5368 988 Pls
5368 958 Pls
5368 1018 Pls
5368 943 Pls
5368 942 Pls
5368 959 Pls
5368 942 Pls
5368 886 Pls
5368 904 Pls
5368 907 Pls
5368 928 Pls
5368 876 Pls
5368 868 Pls
5368 878 Pls
5368 878 Pls
5368 843 Pls
5368 840 Pls
5368 844 Pls
5368 845 Pls
5368 960 Pls
5368 968 Pls
5368 969 Pls
5368 962 Pls
5368 1095 Pls
5368 1080 Pls
5368 1082 Pls
5368 1047 Pls
5368 1245 Pls
5368 1231 Pls
5368 1247 Pls
5368 1266 Pls
5368 1373 Pls
5368 1411 Pls
5368 1425 Pls
5368 1377 Pls
5368 1543 Pls
5368 1523 Pls
5368 1475 Pls
5368 1553 Pls
6749 1100 Pls
6749 1129 Pls
6749 1147 Pls
6749 1299 Pls
6749 1024 Pls
6749 1063 Pls
6749 1102 Pls
6749 1109 Pls
6749 969 Pls
6749 1070 Pls
6749 1046 Pls
6749 1030 Pls
6749 928 Pls
6749 1017 Pls
6749 971 Pls
6749 1012 Pls
6749 912 Pls
6749 914 Pls
6749 915 Pls
6749 918 Pls
6749 1377 Pls
6749 1412 Pls
6749 1379 Pls
6749 1358 Pls
6749 2038 Pls
6749 2040 Pls
6749 2115 Pls
6749 2240 Pls
6749 2471 Pls
6749 2608 Pls
6749 2417 Pls
6749 2557 Pls
6749 3179 Pls
6749 2987 Pls
6749 3321 Pls
6749 3424 Pls
6749 4228 Pls
6749 4357 Pls
6749 4126 Pls
6749 4353 Pls
1225 803 Pls
1225 801 Pls
1225 801 Pls
1225 802 Pls
1225 801 Pls
1225 801 Pls
1225 801 Pls
1225 802 Pls
1225 801 Pls
1225 801 Pls
1225 801 Pls
1225 801 Pls
1225 800 Pls
1225 801 Pls
1225 801 Pls
1225 801 Pls
1225 801 Pls
1225 800 Pls
1225 800 Pls
1225 800 Pls
1225 800 Pls
1225 801 Pls
1225 801 Pls
1225 801 Pls
1225 801 Pls
1225 801 Pls
1225 801 Pls
1225 801 Pls
1225 801 Pls
1225 802 Pls
1225 802 Pls
1225 802 Pls
1225 802 Pls
1225 802 Pls
1225 802 Pls
1225 803 Pls
1225 802 Pls
1225 803 Pls
1225 803 Pls
1225 803 Pls
2606 811 Pls
2606 816 Pls
2606 814 Pls
2606 815 Pls
2606 809 Pls
2606 811 Pls
2606 810 Pls
2606 813 Pls
2606 806 Pls
2606 809 Pls
2606 808 Pls
2606 809 Pls
2606 805 Pls
2606 808 Pls
2606 808 Pls
2606 808 Pls
2606 804 Pls
2606 804 Pls
2606 807 Pls
2606 805 Pls
2606 810 Pls
2606 809 Pls
2606 809 Pls
2606 810 Pls
2606 818 Pls
2606 816 Pls
2606 818 Pls
2606 818 Pls
2606 823 Pls
2606 825 Pls
2606 825 Pls
2606 826 Pls
2606 835 Pls
2606 831 Pls
2606 833 Pls
2606 837 Pls
2606 837 Pls
2606 842 Pls
2606 842 Pls
2606 846 Pls
3987 846 Pls
3987 851 Pls
3987 853 Pls
3987 867 Pls
3987 837 Pls
3987 849 Pls
3987 849 Pls
3987 847 Pls
3987 833 Pls
3987 837 Pls
3987 828 Pls
3987 832 Pls
3987 822 Pls
3987 821 Pls
3987 824 Pls
3987 826 Pls
3987 812 Pls
3987 819 Pls
3987 815 Pls
3987 815 Pls
3987 843 Pls
3987 848 Pls
3987 843 Pls
3987 849 Pls
3987 881 Pls
3987 884 Pls
3987 884 Pls
3987 889 Pls
3987 915 Pls
3987 916 Pls
3987 917 Pls
3987 929 Pls
3987 967 Pls
3987 948 Pls
3987 950 Pls
3987 966 Pls
3987 999 Pls
3987 984 Pls
3987 977 Pls
3987 1031 Pls
5368 924 Pls
5368 975 Pls
5368 949 Pls
5368 993 Pls
5368 913 Pls
5368 888 Pls
5368 950 Pls
5368 944 Pls
5368 865 Pls
5368 913 Pls
5368 913 Pls
5368 933 Pls
5368 857 Pls
5368 863 Pls
5368 877 Pls
5368 864 Pls
5368 842 Pls
5368 842 Pls
5368 844 Pls
5368 840 Pls
5368 949 Pls
5368 953 Pls
5368 960 Pls
5368 955 Pls
5368 1081 Pls
5368 1080 Pls
5368 1111 Pls
5368 1119 Pls
5368 1214 Pls
5368 1163 Pls
5368 1280 Pls
5368 1250 Pls
5368 1339 Pls
5368 1347 Pls
5368 1396 Pls
5368 1418 Pls
5368 1511 Pls
5368 1516 Pls
5368 1540 Pls
5368 1625 Pls
6749 1139 Pls
6749 1150 Pls
6749 1204 Pls
6749 1196 Pls
6749 1116 Pls
6749 1124 Pls
6749 1197 Pls
6749 1122 Pls
6749 1020 Pls
6749 1083 Pls
6749 1060 Pls
6749 1051 Pls
6749 998 Pls
6749 990 Pls
6749 998 Pls
6749 1022 Pls
6749 893 Pls
6749 936 Pls
6749 906 Pls
6749 885 Pls
6749 1365 Pls
6749 1346 Pls
6749 1327 Pls
6749 1366 Pls
6749 1926 Pls
6749 1922 Pls
6749 1942 Pls
6749 1932 Pls
6749 2729 Pls
6749 2604 Pls
6749 2630 Pls
6749 2622 Pls
6749 3598 Pls
6749 3076 Pls
6749 3287 Pls
6749 3296 Pls
6749 3872 Pls
6749 4152 Pls
6749 3814 Pls
6749 4029 Pls
1225 803 Pls
1225 802 Pls
1225 802 Pls
1225 802 Pls
1225 801 Pls
1225 801 Pls
1225 801 Pls
1225 801 Pls
1225 801 Pls
1225 801 Pls
1225 801 Pls
1225 802 Pls
1225 800 Pls
1225 800 Pls
1225 801 Pls
1225 801 Pls
1225 800 Pls
1225 800 Pls
1225 800 Pls
1225 800 Pls
1225 801 Pls
1225 801 Pls
1225 801 Pls
1225 801 Pls
1225 801 Pls
1225 801 Pls
1225 801 Pls
1225 801 Pls
1225 801 Pls
1225 801 Pls
1225 802 Pls
1225 802 Pls
1225 802 Pls
1225 802 Pls
1225 802 Pls
1225 802 Pls
1225 802 Pls
1225 802 Pls
1225 803 Pls
1225 803 Pls
2606 813 Pls
2606 814 Pls
2606 815 Pls
2606 817 Pls
2606 810 Pls
2606 811 Pls
2606 812 Pls
2606 811 Pls
2606 810 Pls
2606 808 Pls
2606 808 Pls
2606 814 Pls
2606 806 Pls
2606 806 Pls
2606 807 Pls
2606 807 Pls
2606 804 Pls
2606 805 Pls
2606 804 Pls
2606 804 Pls
2606 810 Pls
2606 811 Pls
2606 810 Pls
2606 810 Pls
2606 817 Pls
2606 817 Pls
2606 818 Pls
2606 818 Pls
2606 821 Pls
2606 827 Pls
2606 827 Pls
2606 827 Pls
2606 831 Pls
2606 830 Pls
2606 833 Pls
2606 835 Pls
2606 841 Pls
2606 841 Pls
2606 844 Pls
2606 843 Pls
3987 849 Pls
3987 855 Pls
3987 868 Pls
3987 858 Pls
3987 833 Pls
3987 835 Pls
3987 844 Pls
3987 837 Pls
3987 835 Pls
3987 829 Pls
3987 836 Pls
3987 848 Pls
3987 823 Pls
3987 819 Pls
3987 828 Pls
3987 825 Pls
3987 815 Pls
3987 819 Pls
3987 814 Pls
3987 817 Pls
3987 832 Pls
3987 844 Pls
3987 847 Pls
3987 852 Pls
3987 885 Pls
3987 877 Pls
3987 881 Pls
3987 886 Pls
3987 921 Pls
3987 913 Pls
3987 901 Pls
3987 916 Pls
3987 953 Pls
3987 939 Pls
3987 952 Pls
3987 960 Pls
3987 1021 Pls
3987 1010 Pls
3987 1013 Pls
3987 1030 Pls
5368 921 Pls
5368 934 Pls
5368 944 Pls
5368 968 Pls
5368 947 Pls
5368 929 Pls
5368 943 Pls
5368 992 Pls
5368 879 Pls
5368 881 Pls
5368 913 Pls
5368 907 Pls
5368 865 Pls
5368 875 Pls
5368 892 Pls
5368 886 Pls
5368 837 Pls
5368 847 Pls
5368 849 Pls
5368 842 Pls
5368 927 Pls
5368 959 Pls
5368 959 Pls
5368 965 Pls
5368 1041 Pls
5368 1063 Pls
5368 1098 Pls
5368 1089 Pls
5368 1181 Pls
5368 1237 Pls
5368 1272 Pls
5368 1274 Pls
5368 1330 Pls
5368 1382 Pls
5368 1412 Pls
5368 1452 Pls
5368 1521 Pls
5368 1562 Pls
5368 1604 Pls
5368 1632 Pls
6749 1129 Pls
6749 1155 Pls
6749 1250 Pls
6749 1205 Pls
6749 1102 Pls
6749 1133 Pls
6749 1221 Pls
6749 1117 Pls
6749 1041 Pls
6749 1037 Pls
6749 1118 Pls
6749 1083 Pls
6749 928 Pls
6749 981 Pls
6749 939 Pls
6749 1020 Pls
6749 926 Pls
6749 935 Pls
6749 947 Pls
6749 954 Pls
6749 1350 Pls
6749 1341 Pls
6749 1388 Pls
6749 1376 Pls
6749 1926 Pls
6749 1929 Pls
6749 2016 Pls
6749 2063 Pls
6749 2619 Pls
6749 2505 Pls
6749 2604 Pls
6749 2580 Pls
6749 3384 Pls
6749 3208 Pls
6749 3252 Pls
6749 3573 Pls
6749 3280 Pls
6749 4283 Pls
6749 3636 Pls
6749 3898 Pls
1225 801 Pls
1225 801 Pls
1225 802 Pls
1225 802 Pls
1225 801 Pls
1225 801 Pls
1225 801 Pls
1225 802 Pls
1225 801 Pls
1225 801 Pls
1225 801 Pls
1225 801 Pls
1225 801 Pls
1225 801 Pls
1225 801 Pls
1225 801 Pls
1225 800 Pls
1225 800 Pls
1225 801 Pls
1225 801 Pls
1225 801 Pls
1225 801 Pls
1225 801 Pls
1225 801 Pls
1225 801 Pls
1225 801 Pls
1225 801 Pls
1225 801 Pls
1225 801 Pls
1225 801 Pls
1225 802 Pls
1225 802 Pls
1225 802 Pls
1225 802 Pls
1225 802 Pls
1225 802 Pls
1225 802 Pls
1225 803 Pls
1225 803 Pls
1225 803 Pls
2606 814 Pls
2606 815 Pls
2606 813 Pls
2606 815 Pls
2606 812 Pls
2606 811 Pls
2606 812 Pls
2606 813 Pls
2606 808 Pls
2606 810 Pls
2606 809 Pls
2606 811 Pls
2606 806 Pls
2606 807 Pls
2606 809 Pls
2606 807 Pls
2606 805 Pls
2606 805 Pls
2606 805 Pls
2606 804 Pls
2606 810 Pls
2606 812 Pls
2606 811 Pls
2606 810 Pls
2606 815 Pls
2606 816 Pls
2606 820 Pls
2606 819 Pls
2606 826 Pls
2606 825 Pls
2606 824 Pls
2606 827 Pls
2606 830 Pls
2606 835 Pls
2606 831 Pls
2606 836 Pls
2606 837 Pls
2606 846 Pls
2606 840 Pls
2606 846 Pls
3987 851 Pls
3987 857 Pls
3987 857 Pls
3987 873 Pls
3987 839 Pls
3987 848 Pls
3987 848 Pls
3987 849 Pls
3987 832 Pls
3987 832 Pls
3987 826 Pls
3987 845 Pls
3987 824 Pls
3987 826 Pls
3987 822 Pls
3987 823 Pls
3987 819 Pls
3987 814 Pls
3987 820 Pls
3987 819 Pls
3987 837 Pls
3987 848 Pls
3987 846 Pls
3987 849 Pls
3987 876 Pls
3987 863 Pls
3987 887 Pls
3987 885 Pls
3987 894 Pls
3987 915 Pls
3987 916 Pls
3987 931 Pls
3987 970 Pls
3987 951 Pls
3987 971 Pls
3987 984 Pls
3987 1002 Pls
3987 992 Pls
3987 1009 Pls
3987 1004 Pls
5368 936 Pls
5368 974 Pls
5368 940 Pls
5368 995 Pls
5368 902 Pls
5368 928 Pls
5368 948 Pls
5368 979 Pls
5368 882 Pls
5368 913 Pls
5368 911 Pls
5368 930 Pls
5368 855 Pls
5368 866 Pls
5368 876 Pls
5368 882 Pls
5368 848 Pls
5368 843 Pls
5368 854 Pls
5368 862 Pls
5368 976 Pls
5368 960 Pls
5368 955 Pls
5368 968 Pls
5368 1031 Pls
5368 1086 Pls
5368 1070 Pls
5368 1081 Pls
5368 1188 Pls
5368 1185 Pls
5368 1258 Pls
5368 1229 Pls
5368 1369 Pls
5368 1361 Pls
5368 1390 Pls
5368 1430 Pls
5368 1572 Pls
5368 1518 Pls
5368 1535 Pls
5368 1605 Pls
6749 1122 Pls
6749 1103 Pls
6749 1188 Pls
6749 1224 Pls
6749 1048 Pls
6749 1113 Pls
6749 1186 Pls
6749 1154 Pls
6749 1020 Pls
6749 1057 Pls
6749 1084 Pls
6749 1024 Pls
6749 928 Pls
6749 978 Pls
6749 1069 Pls
6749 975 Pls
6749 919 Pls
6749 934 Pls
6749 915 Pls
6749 944 Pls
6749 1257 Pls
6749 1406 Pls
6749 1391 Pls
6749 1349 Pls
6749 1918 Pls
6749 2044 Pls
6749 1906 Pls
6749 1917 Pls
6749 2374 Pls
6749 2580 Pls
6749 2687 Pls
6749 2578 Pls
6749 3193 Pls
6749 3443 Pls
6749 3497 Pls
6749 3410 Pls
6749 4237 Pls
6749 3906 Pls
6749 3887 Pls
6749 3799 Pls
1225 803 Pls
1225 801 Pls
1225 802 Pls
1225 802 Pls
1225 801 Pls
1225 801 Pls
1225 801 Pls
1225 801 Pls
1225 801 Pls
1225 801 Pls
1225 801 Pls
1225 801 Pls
1225 800 Pls
1225 800 Pls
1225 801 Pls
1225 801 Pls
1225 800 Pls
1225 800 Pls
1225 801 Pls
1225 801 Pls
1225 800 Pls
1225 801 Pls
1225 801 Pls
1225 801 Pls
1225 801 Pls
1225 801 Pls
1225 801 Pls
1225 801 Pls
1225 801 Pls
1225 801 Pls
1225 802 Pls
1225 802 Pls
1225 802 Pls
1225 802 Pls
1225 802 Pls
1225 802 Pls
1225 802 Pls
1225 803 Pls
1225 803 Pls
1225 803 Pls
2606 812 Pls
2606 813 Pls
2606 817 Pls
2606 812 Pls
2606 810 Pls
2606 808 Pls
2606 813 Pls
2606 813 Pls
2606 807 Pls
2606 809 Pls
2606 810 Pls
2606 811 Pls
2606 805 Pls
2606 806 Pls
2606 808 Pls
2606 807 Pls
2606 803 Pls
2606 805 Pls
2606 804 Pls
2606 806 Pls
2606 810 Pls
2606 810 Pls
2606 811 Pls
2606 811 Pls
2606 815 Pls
2606 817 Pls
2606 818 Pls
2606 818 Pls
2606 826 Pls
2606 829 Pls
2606 826 Pls
2606 828 Pls
2606 831 Pls
2606 835 Pls
2606 834 Pls
2606 835 Pls
2606 841 Pls
2606 844 Pls
2606 842 Pls
2606 844 Pls
3987 849 Pls
3987 869 Pls
3987 856 Pls
3987 882 Pls
3987 836 Pls
3987 834 Pls
3987 849 Pls
3987 844 Pls
3987 837 Pls
3987 839 Pls
3987 847 Pls
3987 835 Pls
3987 827 Pls
3987 829 Pls
3987 827 Pls
3987 830 Pls
3987 815 Pls
3987 813 Pls
3987 817 Pls
3987 820 Pls
3987 848 Pls
3987 845 Pls
3987 846 Pls
3987 845 Pls
3987 876 Pls
3987 888 Pls
3987 885 Pls
3987 884 Pls
3987 921 Pls
3987 907 Pls
3987 906 Pls
3987 939 Pls
3987 937 Pls
3987 958 Pls
3987 957 Pls
3987 958 Pls
3987 998 Pls
3987 977 Pls
3987 1005 Pls
3987 1024 Pls
5368 944 Pls
5368 960 Pls
5368 958 Pls
5368 998 Pls
5368 948 Pls
5368 916 Pls
5368 909 Pls
5368 918 Pls
5368 888 Pls
5368 907 Pls
5368 897 Pls
5368 929 Pls
5368 870 Pls
5368 863 Pls
5368 873 Pls
5368 888 Pls
5368 840 Pls
5368 851 Pls
5368 852 Pls
5368 850 Pls
5368 952 Pls
5368 944 Pls
5368 937 Pls
5368 969 Pls
5368 1041 Pls
5368 1089 Pls
5368 1099 Pls
5368 1073 Pls
5368 1179 Pls
5368 1202 Pls
5368 1234 Pls
5368 1264 Pls
5368 1371 Pls
5368 1444 Pls
5368 1426 Pls
5368 1386 Pls
5368 1560 Pls
5368 1550 Pls
5368 1605 Pls
5368 1619 Pls
6749 1113 Pls
6749 1111 Pls
6749 1147 Pls
6749 1132 Pls
6749 1054 Pls
6749 1111 Pls
6749 1116 Pls
6749 1122 Pls
6749 1000 Pls
6749 1057 Pls
6749 1040 Pls
6749 1077 Pls
6749 945 Pls
6749 1026 Pls
6749 956 Pls
6749 989 Pls
6749 910 Pls
6749 908 Pls
6749 939 Pls
6749 935 Pls
6749 1307 Pls
6749 1372 Pls
6749 1481 Pls
6749 1261 Pls
6749 1877 Pls
6749 1831 Pls
6749 1884 Pls
6749 2111 Pls
6749 2534 Pls
6749 2635 Pls
6749 2780 Pls
6749 2740 Pls
6749 3131 Pls
6749 2944 Pls
6749 3078 Pls
6749 3531 Pls
6749 4009 Pls
6749 4100 Pls
6749 3802 Pls
6749 4026 Pls
1225 803 Pls
1225 802 Pls
1225 802 Pls
1225 802 Pls
1225 801 Pls
1225 801 Pls
1225 801 Pls
1225 802 Pls
1225 801 Pls
1225 801 Pls
1225 801 Pls
1225 801 Pls
1225 801 Pls
1225 801 Pls
1225 801 Pls
1225 801 Pls
1225 800 Pls
1225 801 Pls
1225 800 Pls
1225 800 Pls
1225 801 Pls
1225 801 Pls
1225 801 Pls
1225 801 Pls
1225 801 Pls
1225 801 Pls
1225 801 Pls
1225 801 Pls
1225 801 Pls
1225 801 Pls
1225 802 Pls
1225 802 Pls
1225 802 Pls
1225 802 Pls
1225 802 Pls
1225 803 Pls
1225 802 Pls
1225 802 Pls
1225 803 Pls
1225 803 Pls
2606 811 Pls
2606 812 Pls
2606 813 Pls
2606 819 Pls
2606 810 Pls
2606 810 Pls
2606 813 Pls
2606 812 Pls
2606 807 Pls
2606 809 Pls
2606 809 Pls
2606 809 Pls
2606 807 Pls
2606 807 Pls
2606 807 Pls
2606 808 Pls
2606 804 Pls
2606 805 Pls
2606 805 Pls
2606 805 Pls
2606 808 Pls
2606 809 Pls
2606 809 Pls
2606 811 Pls
2606 815 Pls
2606 819 Pls
2606 817 Pls
2606 818 Pls
2606 823 Pls
2606 824 Pls
2606 826 Pls
2606 827 Pls
2606 830 Pls
2606 834 Pls
2606 833 Pls
2606 835 Pls
2606 838 Pls
2606 840 Pls
2606 842 Pls
2606 848 Pls
3987 849 Pls
3987 847 Pls
3987 861 Pls
3987 886 Pls
3987 832 Pls
3987 840 Pls
3987 838 Pls
3987 842 Pls
3987 835 Pls
3987 842 Pls
3987 840 Pls
3987 835 Pls
3987 824 Pls
3987 826 Pls
3987 826 Pls
3987 829 Pls
3987 819 Pls
3987 820 Pls
3987 815 Pls
3987 822 Pls
3987 849 Pls
3987 841 Pls
3987 846 Pls
3987 844 Pls
3987 876 Pls
3987 882 Pls
3987 872 Pls
3987 878 Pls
3987 906 Pls
3987 911 Pls
3987 923 Pls
3987 923 Pls
3987 940 Pls
3987 953 Pls
3987 977 Pls
3987 962 Pls
3987 1004 Pls
3987 1001 Pls
3987 1002 Pls
3987 1020 Pls
5368 934 Pls
5368 957 Pls
5368 969 Pls
5368 981 Pls
5368 902 Pls
5368 917 Pls
5368 925 Pls
5368 977 Pls
5368 870 Pls
5368 873 Pls
5368 896 Pls
5368 887 Pls
5368 849 Pls
5368 863 Pls
5368 874 Pls
5368 881 Pls
5368 852 Pls
5368 851 Pls
5368 846 Pls
5368 852 Pls
5368 954 Pls
5368 965 Pls
5368 955 Pls
5368 970 Pls
5368 1103 Pls
5368 1041 Pls
5368 1048 Pls
5368 1084 Pls
5368 1157 Pls
5368 1237 Pls
5368 1289 Pls
5368 1211 Pls
5368 1318 Pls
5368 1394 Pls
5368 1429 Pls
5368 1402 Pls
5368 1527 Pls
5368 1565 Pls
5368 1429 Pls
5368 1626 Pls
6749 1115 Pls
6749 1252 Pls
6749 1164 Pls
6749 1198 Pls
6749 1032 Pls
6749 991 Pls
6749 1024 Pls
6749 1156 Pls
6749 1014 Pls
6749 996 Pls
6749 1035 Pls
6749 1024 Pls
6749 997 Pls
6749 969 Pls
6749 962 Pls
6749 980 Pls
6749 913 Pls
6749 894 Pls
6749 919 Pls
6749 896 Pls
6749 1384 Pls
6749 1412 Pls
6749 1336 Pls
6749 1349 Pls
6749 1871 Pls
6749 1914 Pls
6749 1816 Pls
6749 1898 Pls
6749 2244 Pls
6749 2424 Pls
6749 2587 Pls
6749 2575 Pls
6749 3045 Pls
6749 3360 Pls
6749 3492 Pls
6749 3353 Pls
6749 3870 Pls
6749 3818 Pls
6749 3925 Pls
6749 3879 Pls
% End plot #1
% Begin plot #2
1.000 UL
LT1
LCb setrgbcolor
2425 4551 M
[ [(Helvetica) 250.0 0.0 true true 0 (Average)]
] -83.3 MRshow
LT1
2575 4551 M
663 0 V
1225 801 M
1381 16 V
1381 61 V
1381 196 V
1381 757 V
% End plot #2
% Begin plot #3
stroke
LT2
LCb setrgbcolor
2425 4301 M
[ [(Helvetica) 250.0 0.0 true true 0 (Min)]
] -83.3 MRshow
LT2
2575 4301 M
663 0 V
1225 800 M
1381 3 V
1381 9 V
1381 21 V
1381 42 V
% End plot #3
% Begin plot #4
stroke
LT3
LCb setrgbcolor
2425 4051 M
[ [(Helvetica) 250.0 0.0 true true 0 (Max)]
] -83.3 MRshow
LT3
2575 4051 M
663 0 V
1225 803 M
1381 45 V
1381 183 V
1381 636 V
6749 4357 L
% End plot #4
stroke
LTb
1225 4739 N
0 -3939 V
5524 0 V
0 3939 V
-5524 0 V
Z stroke
1.000 UP
1.000 UL
LTb
stroke
grestore
end
showpage
%%Trailer
%%DocumentFonts: Helvetica
