%!PS-Adobe-2.0 EPSF-2.0
%%Title: n_orig_length.recall.eps
%%Creator: gnuplot 4.4 patchlevel 3
%%CreationDate: Tue Jun  4 13:06:59 2013
%%DocumentFonts: (atend)
%%BoundingBox: 50 50 410 302
%%EndComments
%%BeginProlog
/gnudict 256 dict def
gnudict begin
%
% The following true/false flags may be edited by hand if desired.
% The unit line width and grayscale image gamma correction may also be changed.
%
/Color true def
/Blacktext false def
/Solid false def
/Dashlength 1 def
/Landscape false def
/Level1 false def
/Rounded false def
/ClipToBoundingBox false def
/TransparentPatterns false def
/gnulinewidth 5.000 def
/userlinewidth gnulinewidth def
/Gamma 1.0 def
%
/vshift -83 def
/dl1 {
  10.0 Dashlength mul mul
  Rounded { currentlinewidth 0.75 mul sub dup 0 le { pop 0.01 } if } if
} def
/dl2 {
  10.0 Dashlength mul mul
  Rounded { currentlinewidth 0.75 mul add } if
} def
/hpt_ 31.5 def
/vpt_ 31.5 def
/hpt hpt_ def
/vpt vpt_ def
Level1 {} {
/SDict 10 dict def
systemdict /pdfmark known not {
  userdict /pdfmark systemdict /cleartomark get put
} if
SDict begin [
  /Title (n_orig_length.recall.eps)
  /Subject (gnuplot plot)
  /Creator (gnuplot 4.4 patchlevel 3)
  /Author (xjia)
%  /Producer (gnuplot)
%  /Keywords ()
  /CreationDate (Tue Jun  4 13:06:59 2013)
  /DOCINFO pdfmark
end
} ifelse
/doclip {
  ClipToBoundingBox {
    newpath 50 50 moveto 410 50 lineto 410 302 lineto 50 302 lineto closepath
    clip
  } if
} def
%
% Gnuplot Prolog Version 4.4 (August 2010)
%
%/SuppressPDFMark true def
%
/M {moveto} bind def
/L {lineto} bind def
/R {rmoveto} bind def
/V {rlineto} bind def
/N {newpath moveto} bind def
/Z {closepath} bind def
/C {setrgbcolor} bind def
/f {rlineto fill} bind def
/g {setgray} bind def
/Gshow {show} def   % May be redefined later in the file to support UTF-8
/vpt2 vpt 2 mul def
/hpt2 hpt 2 mul def
/Lshow {currentpoint stroke M 0 vshift R 
	Blacktext {gsave 0 setgray show grestore} {show} ifelse} def
/Rshow {currentpoint stroke M dup stringwidth pop neg vshift R
	Blacktext {gsave 0 setgray show grestore} {show} ifelse} def
/Cshow {currentpoint stroke M dup stringwidth pop -2 div vshift R 
	Blacktext {gsave 0 setgray show grestore} {show} ifelse} def
/UP {dup vpt_ mul /vpt exch def hpt_ mul /hpt exch def
  /hpt2 hpt 2 mul def /vpt2 vpt 2 mul def} def
/DL {Color {setrgbcolor Solid {pop []} if 0 setdash}
 {pop pop pop 0 setgray Solid {pop []} if 0 setdash} ifelse} def
/BL {stroke userlinewidth 2 mul setlinewidth
	Rounded {1 setlinejoin 1 setlinecap} if} def
/AL {stroke userlinewidth 2 div setlinewidth
	Rounded {1 setlinejoin 1 setlinecap} if} def
/UL {dup gnulinewidth mul /userlinewidth exch def
	dup 1 lt {pop 1} if 10 mul /udl exch def} def
/PL {stroke userlinewidth setlinewidth
	Rounded {1 setlinejoin 1 setlinecap} if} def
3.8 setmiterlimit
% Default Line colors
/LCw {1 1 1} def
/LCb {0 0 0} def
/LCa {0 0 0} def
/LC0 {1 0 0} def
/LC1 {0 1 0} def
/LC2 {0 0 1} def
/LC3 {1 0 1} def
/LC4 {0 1 1} def
/LC5 {1 1 0} def
/LC6 {0 0 0} def
/LC7 {1 0.3 0} def
/LC8 {0.5 0.5 0.5} def
% Default Line Types
/LTw {PL [] 1 setgray} def
/LTb {BL [] LCb DL} def
/LTa {AL [1 udl mul 2 udl mul] 0 setdash LCa setrgbcolor} def
/LT0 {PL [] LC0 DL} def
/LT1 {PL [4 dl1 2 dl2] LC1 DL} def
/LT2 {PL [2 dl1 3 dl2] LC2 DL} def
/LT3 {PL [1 dl1 1.5 dl2] LC3 DL} def
/LT4 {PL [6 dl1 2 dl2 1 dl1 2 dl2] LC4 DL} def
/LT5 {PL [3 dl1 3 dl2 1 dl1 3 dl2] LC5 DL} def
/LT6 {PL [2 dl1 2 dl2 2 dl1 6 dl2] LC6 DL} def
/LT7 {PL [1 dl1 2 dl2 6 dl1 2 dl2 1 dl1 2 dl2] LC7 DL} def
/LT8 {PL [2 dl1 2 dl2 2 dl1 2 dl2 2 dl1 2 dl2 2 dl1 4 dl2] LC8 DL} def
/Pnt {stroke [] 0 setdash gsave 1 setlinecap M 0 0 V stroke grestore} def
/Dia {stroke [] 0 setdash 2 copy vpt add M
  hpt neg vpt neg V hpt vpt neg V
  hpt vpt V hpt neg vpt V closepath stroke
  Pnt} def
/Pls {stroke [] 0 setdash vpt sub M 0 vpt2 V
  currentpoint stroke M
  hpt neg vpt neg R hpt2 0 V stroke
 } def
/Box {stroke [] 0 setdash 2 copy exch hpt sub exch vpt add M
  0 vpt2 neg V hpt2 0 V 0 vpt2 V
  hpt2 neg 0 V closepath stroke
  Pnt} def
/Crs {stroke [] 0 setdash exch hpt sub exch vpt add M
  hpt2 vpt2 neg V currentpoint stroke M
  hpt2 neg 0 R hpt2 vpt2 V stroke} def
/TriU {stroke [] 0 setdash 2 copy vpt 1.12 mul add M
  hpt neg vpt -1.62 mul V
  hpt 2 mul 0 V
  hpt neg vpt 1.62 mul V closepath stroke
  Pnt} def
/Star {2 copy Pls Crs} def
/BoxF {stroke [] 0 setdash exch hpt sub exch vpt add M
  0 vpt2 neg V hpt2 0 V 0 vpt2 V
  hpt2 neg 0 V closepath fill} def
/TriUF {stroke [] 0 setdash vpt 1.12 mul add M
  hpt neg vpt -1.62 mul V
  hpt 2 mul 0 V
  hpt neg vpt 1.62 mul V closepath fill} def
/TriD {stroke [] 0 setdash 2 copy vpt 1.12 mul sub M
  hpt neg vpt 1.62 mul V
  hpt 2 mul 0 V
  hpt neg vpt -1.62 mul V closepath stroke
  Pnt} def
/TriDF {stroke [] 0 setdash vpt 1.12 mul sub M
  hpt neg vpt 1.62 mul V
  hpt 2 mul 0 V
  hpt neg vpt -1.62 mul V closepath fill} def
/DiaF {stroke [] 0 setdash vpt add M
  hpt neg vpt neg V hpt vpt neg V
  hpt vpt V hpt neg vpt V closepath fill} def
/Pent {stroke [] 0 setdash 2 copy gsave
  translate 0 hpt M 4 {72 rotate 0 hpt L} repeat
  closepath stroke grestore Pnt} def
/PentF {stroke [] 0 setdash gsave
  translate 0 hpt M 4 {72 rotate 0 hpt L} repeat
  closepath fill grestore} def
/Circle {stroke [] 0 setdash 2 copy
  hpt 0 360 arc stroke Pnt} def
/CircleF {stroke [] 0 setdash hpt 0 360 arc fill} def
/C0 {BL [] 0 setdash 2 copy moveto vpt 90 450 arc} bind def
/C1 {BL [] 0 setdash 2 copy moveto
	2 copy vpt 0 90 arc closepath fill
	vpt 0 360 arc closepath} bind def
/C2 {BL [] 0 setdash 2 copy moveto
	2 copy vpt 90 180 arc closepath fill
	vpt 0 360 arc closepath} bind def
/C3 {BL [] 0 setdash 2 copy moveto
	2 copy vpt 0 180 arc closepath fill
	vpt 0 360 arc closepath} bind def
/C4 {BL [] 0 setdash 2 copy moveto
	2 copy vpt 180 270 arc closepath fill
	vpt 0 360 arc closepath} bind def
/C5 {BL [] 0 setdash 2 copy moveto
	2 copy vpt 0 90 arc
	2 copy moveto
	2 copy vpt 180 270 arc closepath fill
	vpt 0 360 arc} bind def
/C6 {BL [] 0 setdash 2 copy moveto
	2 copy vpt 90 270 arc closepath fill
	vpt 0 360 arc closepath} bind def
/C7 {BL [] 0 setdash 2 copy moveto
	2 copy vpt 0 270 arc closepath fill
	vpt 0 360 arc closepath} bind def
/C8 {BL [] 0 setdash 2 copy moveto
	2 copy vpt 270 360 arc closepath fill
	vpt 0 360 arc closepath} bind def
/C9 {BL [] 0 setdash 2 copy moveto
	2 copy vpt 270 450 arc closepath fill
	vpt 0 360 arc closepath} bind def
/C10 {BL [] 0 setdash 2 copy 2 copy moveto vpt 270 360 arc closepath fill
	2 copy moveto
	2 copy vpt 90 180 arc closepath fill
	vpt 0 360 arc closepath} bind def
/C11 {BL [] 0 setdash 2 copy moveto
	2 copy vpt 0 180 arc closepath fill
	2 copy moveto
	2 copy vpt 270 360 arc closepath fill
	vpt 0 360 arc closepath} bind def
/C12 {BL [] 0 setdash 2 copy moveto
	2 copy vpt 180 360 arc closepath fill
	vpt 0 360 arc closepath} bind def
/C13 {BL [] 0 setdash 2 copy moveto
	2 copy vpt 0 90 arc closepath fill
	2 copy moveto
	2 copy vpt 180 360 arc closepath fill
	vpt 0 360 arc closepath} bind def
/C14 {BL [] 0 setdash 2 copy moveto
	2 copy vpt 90 360 arc closepath fill
	vpt 0 360 arc} bind def
/C15 {BL [] 0 setdash 2 copy vpt 0 360 arc closepath fill
	vpt 0 360 arc closepath} bind def
/Rec {newpath 4 2 roll moveto 1 index 0 rlineto 0 exch rlineto
	neg 0 rlineto closepath} bind def
/Square {dup Rec} bind def
/Bsquare {vpt sub exch vpt sub exch vpt2 Square} bind def
/S0 {BL [] 0 setdash 2 copy moveto 0 vpt rlineto BL Bsquare} bind def
/S1 {BL [] 0 setdash 2 copy vpt Square fill Bsquare} bind def
/S2 {BL [] 0 setdash 2 copy exch vpt sub exch vpt Square fill Bsquare} bind def
/S3 {BL [] 0 setdash 2 copy exch vpt sub exch vpt2 vpt Rec fill Bsquare} bind def
/S4 {BL [] 0 setdash 2 copy exch vpt sub exch vpt sub vpt Square fill Bsquare} bind def
/S5 {BL [] 0 setdash 2 copy 2 copy vpt Square fill
	exch vpt sub exch vpt sub vpt Square fill Bsquare} bind def
/S6 {BL [] 0 setdash 2 copy exch vpt sub exch vpt sub vpt vpt2 Rec fill Bsquare} bind def
/S7 {BL [] 0 setdash 2 copy exch vpt sub exch vpt sub vpt vpt2 Rec fill
	2 copy vpt Square fill Bsquare} bind def
/S8 {BL [] 0 setdash 2 copy vpt sub vpt Square fill Bsquare} bind def
/S9 {BL [] 0 setdash 2 copy vpt sub vpt vpt2 Rec fill Bsquare} bind def
/S10 {BL [] 0 setdash 2 copy vpt sub vpt Square fill 2 copy exch vpt sub exch vpt Square fill
	Bsquare} bind def
/S11 {BL [] 0 setdash 2 copy vpt sub vpt Square fill 2 copy exch vpt sub exch vpt2 vpt Rec fill
	Bsquare} bind def
/S12 {BL [] 0 setdash 2 copy exch vpt sub exch vpt sub vpt2 vpt Rec fill Bsquare} bind def
/S13 {BL [] 0 setdash 2 copy exch vpt sub exch vpt sub vpt2 vpt Rec fill
	2 copy vpt Square fill Bsquare} bind def
/S14 {BL [] 0 setdash 2 copy exch vpt sub exch vpt sub vpt2 vpt Rec fill
	2 copy exch vpt sub exch vpt Square fill Bsquare} bind def
/S15 {BL [] 0 setdash 2 copy Bsquare fill Bsquare} bind def
/D0 {gsave translate 45 rotate 0 0 S0 stroke grestore} bind def
/D1 {gsave translate 45 rotate 0 0 S1 stroke grestore} bind def
/D2 {gsave translate 45 rotate 0 0 S2 stroke grestore} bind def
/D3 {gsave translate 45 rotate 0 0 S3 stroke grestore} bind def
/D4 {gsave translate 45 rotate 0 0 S4 stroke grestore} bind def
/D5 {gsave translate 45 rotate 0 0 S5 stroke grestore} bind def
/D6 {gsave translate 45 rotate 0 0 S6 stroke grestore} bind def
/D7 {gsave translate 45 rotate 0 0 S7 stroke grestore} bind def
/D8 {gsave translate 45 rotate 0 0 S8 stroke grestore} bind def
/D9 {gsave translate 45 rotate 0 0 S9 stroke grestore} bind def
/D10 {gsave translate 45 rotate 0 0 S10 stroke grestore} bind def
/D11 {gsave translate 45 rotate 0 0 S11 stroke grestore} bind def
/D12 {gsave translate 45 rotate 0 0 S12 stroke grestore} bind def
/D13 {gsave translate 45 rotate 0 0 S13 stroke grestore} bind def
/D14 {gsave translate 45 rotate 0 0 S14 stroke grestore} bind def
/D15 {gsave translate 45 rotate 0 0 S15 stroke grestore} bind def
/DiaE {stroke [] 0 setdash vpt add M
  hpt neg vpt neg V hpt vpt neg V
  hpt vpt V hpt neg vpt V closepath stroke} def
/BoxE {stroke [] 0 setdash exch hpt sub exch vpt add M
  0 vpt2 neg V hpt2 0 V 0 vpt2 V
  hpt2 neg 0 V closepath stroke} def
/TriUE {stroke [] 0 setdash vpt 1.12 mul add M
  hpt neg vpt -1.62 mul V
  hpt 2 mul 0 V
  hpt neg vpt 1.62 mul V closepath stroke} def
/TriDE {stroke [] 0 setdash vpt 1.12 mul sub M
  hpt neg vpt 1.62 mul V
  hpt 2 mul 0 V
  hpt neg vpt -1.62 mul V closepath stroke} def
/PentE {stroke [] 0 setdash gsave
  translate 0 hpt M 4 {72 rotate 0 hpt L} repeat
  closepath stroke grestore} def
/CircE {stroke [] 0 setdash 
  hpt 0 360 arc stroke} def
/Opaque {gsave closepath 1 setgray fill grestore 0 setgray closepath} def
/DiaW {stroke [] 0 setdash vpt add M
  hpt neg vpt neg V hpt vpt neg V
  hpt vpt V hpt neg vpt V Opaque stroke} def
/BoxW {stroke [] 0 setdash exch hpt sub exch vpt add M
  0 vpt2 neg V hpt2 0 V 0 vpt2 V
  hpt2 neg 0 V Opaque stroke} def
/TriUW {stroke [] 0 setdash vpt 1.12 mul add M
  hpt neg vpt -1.62 mul V
  hpt 2 mul 0 V
  hpt neg vpt 1.62 mul V Opaque stroke} def
/TriDW {stroke [] 0 setdash vpt 1.12 mul sub M
  hpt neg vpt 1.62 mul V
  hpt 2 mul 0 V
  hpt neg vpt -1.62 mul V Opaque stroke} def
/PentW {stroke [] 0 setdash gsave
  translate 0 hpt M 4 {72 rotate 0 hpt L} repeat
  Opaque stroke grestore} def
/CircW {stroke [] 0 setdash 
  hpt 0 360 arc Opaque stroke} def
/BoxFill {gsave Rec 1 setgray fill grestore} def
/Density {
  /Fillden exch def
  currentrgbcolor
  /ColB exch def /ColG exch def /ColR exch def
  /ColR ColR Fillden mul Fillden sub 1 add def
  /ColG ColG Fillden mul Fillden sub 1 add def
  /ColB ColB Fillden mul Fillden sub 1 add def
  ColR ColG ColB setrgbcolor} def
/BoxColFill {gsave Rec PolyFill} def
/PolyFill {gsave Density fill grestore grestore} def
/h {rlineto rlineto rlineto gsave closepath fill grestore} bind def
%
% PostScript Level 1 Pattern Fill routine for rectangles
% Usage: x y w h s a XX PatternFill
%	x,y = lower left corner of box to be filled
%	w,h = width and height of box
%	  a = angle in degrees between lines and x-axis
%	 XX = 0/1 for no/yes cross-hatch
%
/PatternFill {gsave /PFa [ 9 2 roll ] def
  PFa 0 get PFa 2 get 2 div add PFa 1 get PFa 3 get 2 div add translate
  PFa 2 get -2 div PFa 3 get -2 div PFa 2 get PFa 3 get Rec
  gsave 1 setgray fill grestore clip
  currentlinewidth 0.5 mul setlinewidth
  /PFs PFa 2 get dup mul PFa 3 get dup mul add sqrt def
  0 0 M PFa 5 get rotate PFs -2 div dup translate
  0 1 PFs PFa 4 get div 1 add floor cvi
	{PFa 4 get mul 0 M 0 PFs V} for
  0 PFa 6 get ne {
	0 1 PFs PFa 4 get div 1 add floor cvi
	{PFa 4 get mul 0 2 1 roll M PFs 0 V} for
 } if
  stroke grestore} def
%
/languagelevel where
 {pop languagelevel} {1} ifelse
 2 lt
	{/InterpretLevel1 true def}
	{/InterpretLevel1 Level1 def}
 ifelse
%
% PostScript level 2 pattern fill definitions
%
/Level2PatternFill {
/Tile8x8 {/PaintType 2 /PatternType 1 /TilingType 1 /BBox [0 0 8 8] /XStep 8 /YStep 8}
	bind def
/KeepColor {currentrgbcolor [/Pattern /DeviceRGB] setcolorspace} bind def
<< Tile8x8
 /PaintProc {0.5 setlinewidth pop 0 0 M 8 8 L 0 8 M 8 0 L stroke} 
>> matrix makepattern
/Pat1 exch def
<< Tile8x8
 /PaintProc {0.5 setlinewidth pop 0 0 M 8 8 L 0 8 M 8 0 L stroke
	0 4 M 4 8 L 8 4 L 4 0 L 0 4 L stroke}
>> matrix makepattern
/Pat2 exch def
<< Tile8x8
 /PaintProc {0.5 setlinewidth pop 0 0 M 0 8 L
	8 8 L 8 0 L 0 0 L fill}
>> matrix makepattern
/Pat3 exch def
<< Tile8x8
 /PaintProc {0.5 setlinewidth pop -4 8 M 8 -4 L
	0 12 M 12 0 L stroke}
>> matrix makepattern
/Pat4 exch def
<< Tile8x8
 /PaintProc {0.5 setlinewidth pop -4 0 M 8 12 L
	0 -4 M 12 8 L stroke}
>> matrix makepattern
/Pat5 exch def
<< Tile8x8
 /PaintProc {0.5 setlinewidth pop -2 8 M 4 -4 L
	0 12 M 8 -4 L 4 12 M 10 0 L stroke}
>> matrix makepattern
/Pat6 exch def
<< Tile8x8
 /PaintProc {0.5 setlinewidth pop -2 0 M 4 12 L
	0 -4 M 8 12 L 4 -4 M 10 8 L stroke}
>> matrix makepattern
/Pat7 exch def
<< Tile8x8
 /PaintProc {0.5 setlinewidth pop 8 -2 M -4 4 L
	12 0 M -4 8 L 12 4 M 0 10 L stroke}
>> matrix makepattern
/Pat8 exch def
<< Tile8x8
 /PaintProc {0.5 setlinewidth pop 0 -2 M 12 4 L
	-4 0 M 12 8 L -4 4 M 8 10 L stroke}
>> matrix makepattern
/Pat9 exch def
/Pattern1 {PatternBgnd KeepColor Pat1 setpattern} bind def
/Pattern2 {PatternBgnd KeepColor Pat2 setpattern} bind def
/Pattern3 {PatternBgnd KeepColor Pat3 setpattern} bind def
/Pattern4 {PatternBgnd KeepColor Landscape {Pat5} {Pat4} ifelse setpattern} bind def
/Pattern5 {PatternBgnd KeepColor Landscape {Pat4} {Pat5} ifelse setpattern} bind def
/Pattern6 {PatternBgnd KeepColor Landscape {Pat9} {Pat6} ifelse setpattern} bind def
/Pattern7 {PatternBgnd KeepColor Landscape {Pat8} {Pat7} ifelse setpattern} bind def
} def
%
%
%End of PostScript Level 2 code
%
/PatternBgnd {
  TransparentPatterns {} {gsave 1 setgray fill grestore} ifelse
} def
%
% Substitute for Level 2 pattern fill codes with
% grayscale if Level 2 support is not selected.
%
/Level1PatternFill {
/Pattern1 {0.250 Density} bind def
/Pattern2 {0.500 Density} bind def
/Pattern3 {0.750 Density} bind def
/Pattern4 {0.125 Density} bind def
/Pattern5 {0.375 Density} bind def
/Pattern6 {0.625 Density} bind def
/Pattern7 {0.875 Density} bind def
} def
%
% Now test for support of Level 2 code
%
Level1 {Level1PatternFill} {Level2PatternFill} ifelse
%
/Symbol-Oblique /Symbol findfont [1 0 .167 1 0 0] makefont
dup length dict begin {1 index /FID eq {pop pop} {def} ifelse} forall
currentdict end definefont pop
/MFshow {
   { dup 5 get 3 ge
     { 5 get 3 eq {gsave} {grestore} ifelse }
     {dup dup 0 get findfont exch 1 get scalefont setfont
     [ currentpoint ] exch dup 2 get 0 exch R dup 5 get 2 ne {dup dup 6
     get exch 4 get {Gshow} {stringwidth pop 0 R} ifelse }if dup 5 get 0 eq
     {dup 3 get {2 get neg 0 exch R pop} {pop aload pop M} ifelse} {dup 5
     get 1 eq {dup 2 get exch dup 3 get exch 6 get stringwidth pop -2 div
     dup 0 R} {dup 6 get stringwidth pop -2 div 0 R 6 get
     show 2 index {aload pop M neg 3 -1 roll neg R pop pop} {pop pop pop
     pop aload pop M} ifelse }ifelse }ifelse }
     ifelse }
   forall} def
/Gswidth {dup type /stringtype eq {stringwidth} {pop (n) stringwidth} ifelse} def
/MFwidth {0 exch { dup 5 get 3 ge { 5 get 3 eq { 0 } { pop } ifelse }
 {dup 3 get{dup dup 0 get findfont exch 1 get scalefont setfont
     6 get Gswidth pop add} {pop} ifelse} ifelse} forall} def
/MLshow { currentpoint stroke M
  0 exch R
  Blacktext {gsave 0 setgray MFshow grestore} {MFshow} ifelse } bind def
/MRshow { currentpoint stroke M
  exch dup MFwidth neg 3 -1 roll R
  Blacktext {gsave 0 setgray MFshow grestore} {MFshow} ifelse } bind def
/MCshow { currentpoint stroke M
  exch dup MFwidth -2 div 3 -1 roll R
  Blacktext {gsave 0 setgray MFshow grestore} {MFshow} ifelse } bind def
/XYsave    { [( ) 1 2 true false 3 ()] } bind def
/XYrestore { [( ) 1 2 true false 4 ()] } bind def
end
%%EndProlog
gnudict begin
gsave
doclip
50 50 translate
0.050 0.050 scale
0 setgray
newpath
(Helvetica) findfont 250 scalefont setfont
1.000 UL
LTb
1225 800 M
63 0 V
5461 0 R
-63 0 V
stroke
1075 800 M
[ [(Helvetica) 250.0 0.0 true true 0 ( 0)]
] -83.3 MRshow
1.000 UL
LTb
1225 1194 M
63 0 V
5461 0 R
-63 0 V
stroke
1075 1194 M
[ [(Helvetica) 250.0 0.0 true true 0 ( 0.1)]
] -83.3 MRshow
1.000 UL
LTb
1225 1588 M
63 0 V
5461 0 R
-63 0 V
stroke
1075 1588 M
[ [(Helvetica) 250.0 0.0 true true 0 ( 0.2)]
] -83.3 MRshow
1.000 UL
LTb
1225 1982 M
63 0 V
5461 0 R
-63 0 V
stroke
1075 1982 M
[ [(Helvetica) 250.0 0.0 true true 0 ( 0.3)]
] -83.3 MRshow
1.000 UL
LTb
1225 2376 M
63 0 V
5461 0 R
-63 0 V
stroke
1075 2376 M
[ [(Helvetica) 250.0 0.0 true true 0 ( 0.4)]
] -83.3 MRshow
1.000 UL
LTb
1225 2770 M
63 0 V
5461 0 R
-63 0 V
stroke
1075 2770 M
[ [(Helvetica) 250.0 0.0 true true 0 ( 0.5)]
] -83.3 MRshow
1.000 UL
LTb
1225 3163 M
63 0 V
5461 0 R
-63 0 V
stroke
1075 3163 M
[ [(Helvetica) 250.0 0.0 true true 0 ( 0.6)]
] -83.3 MRshow
1.000 UL
LTb
1225 3557 M
63 0 V
5461 0 R
-63 0 V
stroke
1075 3557 M
[ [(Helvetica) 250.0 0.0 true true 0 ( 0.7)]
] -83.3 MRshow
1.000 UL
LTb
1225 3951 M
63 0 V
5461 0 R
-63 0 V
stroke
1075 3951 M
[ [(Helvetica) 250.0 0.0 true true 0 ( 0.8)]
] -83.3 MRshow
1.000 UL
LTb
1225 4345 M
63 0 V
5461 0 R
-63 0 V
stroke
1075 4345 M
[ [(Helvetica) 250.0 0.0 true true 0 ( 0.9)]
] -83.3 MRshow
1.000 UL
LTb
1225 4739 M
63 0 V
5461 0 R
-63 0 V
stroke
1075 4739 M
[ [(Helvetica) 250.0 0.0 true true 0 ( 1)]
] -83.3 MRshow
1.000 UL
LTb
1225 800 M
0 63 V
0 3876 R
0 -63 V
stroke
1225 550 M
[ [(Helvetica) 250.0 0.0 true true 0 ( 20)]
] -83.3 MCshow
1.000 UL
LTb
1916 800 M
0 63 V
0 3876 R
0 -63 V
stroke
1916 550 M
[ [(Helvetica) 250.0 0.0 true true 0 ( 30)]
] -83.3 MCshow
1.000 UL
LTb
2606 800 M
0 63 V
0 3876 R
0 -63 V
stroke
2606 550 M
[ [(Helvetica) 250.0 0.0 true true 0 ( 40)]
] -83.3 MCshow
1.000 UL
LTb
3297 800 M
0 63 V
0 3876 R
0 -63 V
stroke
3297 550 M
[ [(Helvetica) 250.0 0.0 true true 0 ( 50)]
] -83.3 MCshow
1.000 UL
LTb
3987 800 M
0 63 V
0 3876 R
0 -63 V
stroke
3987 550 M
[ [(Helvetica) 250.0 0.0 true true 0 ( 60)]
] -83.3 MCshow
1.000 UL
LTb
4678 800 M
0 63 V
0 3876 R
0 -63 V
stroke
4678 550 M
[ [(Helvetica) 250.0 0.0 true true 0 ( 70)]
] -83.3 MCshow
1.000 UL
LTb
5368 800 M
0 63 V
0 3876 R
0 -63 V
stroke
5368 550 M
[ [(Helvetica) 250.0 0.0 true true 0 ( 80)]
] -83.3 MCshow
1.000 UL
LTb
6059 800 M
0 63 V
0 3876 R
0 -63 V
stroke
6059 550 M
[ [(Helvetica) 250.0 0.0 true true 0 ( 90)]
] -83.3 MCshow
1.000 UL
LTb
6749 800 M
0 63 V
0 3876 R
0 -63 V
stroke
6749 550 M
[ [(Helvetica) 250.0 0.0 true true 0 ( 100)]
] -83.3 MCshow
1.000 UL
LTb
1.000 UL
LTb
1225 4739 N
0 -3939 V
5524 0 V
0 3939 V
-5524 0 V
Z stroke
LCb setrgbcolor
200 2769 M
currentpoint gsave translate -270 rotate 0 0 moveto
[ [(Helvetica) 250.0 0.0 true true 0 (Recall)]
] -83.3 MCshow
grestore
LTb
LCb setrgbcolor
3987 175 M
[ [(Helvetica) 250.0 0.0 true true 0 (Original Length)]
] -83.3 MCshow
LTb
1.000 UP
1.000 UL
LTb
% Begin plot #1
1.000 UP
1.000 UL
LT0
1225 3388 Pls
1225 2391 Pls
1225 2015 Pls
1225 1700 Pls
1225 3367 Pls
1225 2174 Pls
1225 2383 Pls
1225 1764 Pls
1225 2878 Pls
1225 2194 Pls
1225 1717 Pls
1225 1649 Pls
1225 2776 Pls
1225 1931 Pls
1225 1617 Pls
1225 1595 Pls
1225 2428 Pls
1225 1684 Pls
1225 1452 Pls
1225 1146 Pls
1225 1489 Pls
1225 1544 Pls
1225 1194 Pls
1225 1111 Pls
1225 1883 Pls
1225 1369 Pls
1225 1588 Pls
1225 1215 Pls
1225 2770 Pls
1225 1500 Pls
1225 1728 Pls
1225 1629 Pls
1225 2868 Pls
1225 1675 Pls
1225 1560 Pls
1225 1816 Pls
1225 2966 Pls
1225 1982 Pls
1225 2010 Pls
1225 1774 Pls
2606 3860 Pls
2606 2797 Pls
2606 2348 Pls
2606 2024 Pls
2606 3702 Pls
2606 2344 Pls
2606 1977 Pls
2606 1760 Pls
2606 3823 Pls
2606 2621 Pls
2606 1761 Pls
2606 1759 Pls
2606 3054 Pls
2606 2168 Pls
2606 1856 Pls
2606 1656 Pls
2606 2753 Pls
2606 1716 Pls
2606 1531 Pls
2606 1356 Pls
2606 1686 Pls
2606 1894 Pls
2606 1532 Pls
2606 1318 Pls
2606 2770 Pls
2606 2244 Pls
2606 1616 Pls
2606 1733 Pls
2606 2966 Pls
2606 2551 Pls
2606 2151 Pls
2606 2023 Pls
2606 3360 Pls
2606 2770 Pls
2606 2460 Pls
2606 2417 Pls
2606 3853 Pls
2606 2813 Pls
2606 2488 Pls
2606 2645 Pls
3987 4189 Pls
3987 3080 Pls
3987 2174 Pls
3987 1875 Pls
3987 3200 Pls
3987 2595 Pls
3987 2225 Pls
3987 1853 Pls
3987 3553 Pls
3987 2862 Pls
3987 2270 Pls
3987 1426 Pls
3987 3495 Pls
3987 2842 Pls
3987 2110 Pls
3987 1483 Pls
3987 2930 Pls
3987 2154 Pls
3987 1991 Pls
3987 1765 Pls
3987 2770 Pls
3987 1763 Pls
3987 1672 Pls
3987 1671 Pls
3987 3557 Pls
3987 1982 Pls
3987 2122 Pls
3987 1878 Pls
3987 3262 Pls
3987 3207 Pls
3987 2573 Pls
3987 2707 Pls
3987 4345 Pls
3987 2945 Pls
3987 2966 Pls
3987 2438 Pls
3987 3853 Pls
3987 3207 Pls
3987 3192 Pls
3987 3101 Pls
5368 3786 Pls
5368 3180 Pls
5368 2353 Pls
5368 2043 Pls
5368 4061 Pls
5368 2811 Pls
5368 2202 Pls
5368 1877 Pls
5368 3550 Pls
5368 2904 Pls
5368 2154 Pls
5368 2077 Pls
5368 3829 Pls
5368 2749 Pls
5368 2171 Pls
5368 1736 Pls
5368 3327 Pls
5368 2189 Pls
5368 1653 Pls
5368 1859 Pls
5368 2966 Pls
5368 2201 Pls
5368 1672 Pls
5368 1567 Pls
5368 3459 Pls
5368 2507 Pls
5368 2235 Pls
5368 2168 Pls
5368 4050 Pls
5368 3120 Pls
5368 2995 Pls
5368 2438 Pls
5368 3853 Pls
5368 3295 Pls
5368 3079 Pls
5368 2894 Pls
5368 4148 Pls
5368 3557 Pls
5368 3023 Pls
5368 3433 Pls
6749 3786 Pls
6749 2864 Pls
6749 2578 Pls
6749 1864 Pls
6749 3477 Pls
6749 3097 Pls
6749 2544 Pls
6749 1942 Pls
6749 3710 Pls
6749 2915 Pls
6749 2301 Pls
6749 1818 Pls
6749 3626 Pls
6749 2055 Pls
6749 2296 Pls
6749 1841 Pls
6749 3346 Pls
6749 2525 Pls
6749 1900 Pls
6749 1446 Pls
6749 2770 Pls
6749 2244 Pls
6749 1728 Pls
6749 1961 Pls
6749 3951 Pls
6749 2945 Pls
6749 2516 Pls
6749 2521 Pls
6749 4444 Pls
6749 3338 Pls
6749 3163 Pls
6749 2624 Pls
6749 3557 Pls
6749 3864 Pls
6749 3360 Pls
6749 3184 Pls
6749 4641 Pls
6749 3907 Pls
6749 3388 Pls
6749 3371 Pls
1225 3017 Pls
1225 2447 Pls
1225 2114 Pls
1225 1520 Pls
1225 3180 Pls
1225 2246 Pls
1225 2077 Pls
1225 1765 Pls
1225 3234 Pls
1225 2347 Pls
1225 1734 Pls
1225 1756 Pls
1225 2421 Pls
1225 2177 Pls
1225 1568 Pls
1225 1475 Pls
1225 2468 Pls
1225 1749 Pls
1225 1547 Pls
1225 1162 Pls
1225 1785 Pls
1225 1281 Pls
1225 1278 Pls
1225 1152 Pls
1225 1686 Pls
1225 1456 Pls
1225 1335 Pls
1225 1256 Pls
1225 2277 Pls
1225 1719 Pls
1225 1560 Pls
1225 1277 Pls
1225 2868 Pls
1225 1588 Pls
1225 1278 Pls
1225 1318 Pls
1225 2770 Pls
1225 1763 Pls
1225 1475 Pls
1225 1671 Pls
2606 4140 Pls
2606 2506 Pls
2606 1921 Pls
2606 1988 Pls
2606 3653 Pls
2606 2748 Pls
2606 2122 Pls
2606 1649 Pls
2606 3480 Pls
2606 2525 Pls
2606 1770 Pls
2606 1659 Pls
2606 3280 Pls
2606 2485 Pls
2606 1686 Pls
2606 1442 Pls
2606 2846 Pls
2606 1969 Pls
2606 1571 Pls
2606 1498 Pls
2606 2573 Pls
2606 1325 Pls
2606 1250 Pls
2606 1194 Pls
2606 2573 Pls
2606 1719 Pls
2606 1616 Pls
2606 1526 Pls
2606 2966 Pls
2606 1894 Pls
2606 1785 Pls
2606 1712 Pls
2606 3065 Pls
2606 2419 Pls
2606 1982 Pls
2606 1816 Pls
2606 3262 Pls
2606 2201 Pls
2606 1785 Pls
2606 1857 Pls
3987 4045 Pls
3987 2983 Pls
3987 2078 Pls
3987 1973 Pls
3987 3751 Pls
3987 2779 Pls
3987 2053 Pls
3987 1846 Pls
3987 3654 Pls
3987 2874 Pls
3987 1965 Pls
3987 2008 Pls
3987 3298 Pls
3987 2576 Pls
3987 2203 Pls
3987 1902 Pls
3987 2844 Pls
3987 2423 Pls
3987 1717 Pls
3987 1493 Pls
3987 2474 Pls
3987 1675 Pls
3987 1644 Pls
3987 1298 Pls
3987 3557 Pls
3987 2419 Pls
3987 1841 Pls
3987 1816 Pls
3987 2573 Pls
3987 2507 Pls
3987 2038 Pls
3987 1961 Pls
3987 3656 Pls
3987 2901 Pls
3987 1954 Pls
3987 2272 Pls
3987 4050 Pls
3987 2813 Pls
3987 2854 Pls
3987 2334 Pls
5368 3782 Pls
5368 2999 Pls
5368 2322 Pls
5368 2101 Pls
5368 3816 Pls
5368 3054 Pls
5368 2247 Pls
5368 2131 Pls
5368 3865 Pls
5368 2788 Pls
5368 2219 Pls
5368 1927 Pls
5368 3860 Pls
5368 2694 Pls
5368 2309 Pls
5368 1854 Pls
5368 3096 Pls
5368 2153 Pls
5368 1775 Pls
5368 1393 Pls
5368 1883 Pls
5368 1675 Pls
5368 1306 Pls
5368 1256 Pls
5368 2868 Pls
5368 2201 Pls
5368 1785 Pls
5368 1940 Pls
5368 3065 Pls
5368 2201 Pls
5368 2122 Pls
5368 2085 Pls
5368 3951 Pls
5368 2901 Pls
5368 2404 Pls
5368 2645 Pls
5368 3360 Pls
5368 2376 Pls
5368 2910 Pls
5368 2562 Pls
6749 4022 Pls
6749 3187 Pls
6749 2341 Pls
6749 2266 Pls
6749 3845 Pls
6749 2864 Pls
6749 2298 Pls
6749 1887 Pls
6749 3885 Pls
6749 2799 Pls
6749 2488 Pls
6749 1899 Pls
6749 3772 Pls
6749 2400 Pls
6749 2206 Pls
6749 2232 Pls
6749 2844 Pls
6749 2568 Pls
6749 1787 Pls
6749 1717 Pls
6749 2770 Pls
6749 1894 Pls
6749 1588 Pls
6749 1857 Pls
6749 3360 Pls
6749 2769 Pls
6749 2038 Pls
6749 2479 Pls
6749 3360 Pls
6749 3120 Pls
6749 2629 Pls
6749 2230 Pls
6749 3262 Pls
6749 3295 Pls
6749 2713 Pls
6749 2707 Pls
6749 4345 Pls
6749 2813 Pls
6749 2938 Pls
6749 2998 Pls
1225 3422 Pls
1225 2231 Pls
1225 1834 Pls
1225 1609 Pls
1225 3075 Pls
1225 1920 Pls
1225 2035 Pls
1225 1703 Pls
1225 2997 Pls
1225 2060 Pls
1225 1546 Pls
1225 1499 Pls
1225 3045 Pls
1225 1998 Pls
1225 1533 Pls
1225 1425 Pls
1225 2310 Pls
1225 1606 Pls
1225 1327 Pls
1225 1329 Pls
1225 1489 Pls
1225 1194 Pls
1225 1194 Pls
1225 1070 Pls
1225 2474 Pls
1225 1588 Pls
1225 1194 Pls
1225 1215 Pls
1225 1982 Pls
1225 1763 Pls
1225 1447 Pls
1225 1277 Pls
1225 2573 Pls
1225 1544 Pls
1225 1503 Pls
1225 1526 Pls
1225 2573 Pls
1225 2025 Pls
1225 1616 Pls
1225 1546 Pls
2606 3730 Pls
2606 2573 Pls
2606 2241 Pls
2606 2026 Pls
2606 3534 Pls
2606 2442 Pls
2606 1950 Pls
2606 1727 Pls
2606 3619 Pls
2606 2413 Pls
2606 2205 Pls
2606 1665 Pls
2606 2779 Pls
2606 2299 Pls
2606 1792 Pls
2606 1558 Pls
2606 3055 Pls
2606 1927 Pls
2606 1510 Pls
2606 1390 Pls
2606 1785 Pls
2606 1456 Pls
2606 1278 Pls
2606 1235 Pls
2606 2573 Pls
2606 1938 Pls
2606 1419 Pls
2606 1422 Pls
2606 2376 Pls
2606 2025 Pls
2606 1700 Pls
2606 1463 Pls
2606 2770 Pls
2606 2332 Pls
2606 1672 Pls
2606 1940 Pls
2606 2966 Pls
2606 2507 Pls
2606 2010 Pls
2606 1795 Pls
3987 4154 Pls
3987 2823 Pls
3987 2295 Pls
3987 2106 Pls
3987 3663 Pls
3987 2829 Pls
3987 2472 Pls
3987 1852 Pls
3987 3962 Pls
3987 2540 Pls
3987 2232 Pls
3987 1681 Pls
3987 3488 Pls
3987 2646 Pls
3987 2033 Pls
3987 1750 Pls
3987 2983 Pls
3987 2001 Pls
3987 1735 Pls
3987 1576 Pls
3987 2573 Pls
3987 1413 Pls
3987 1475 Pls
3987 1152 Pls
3987 2966 Pls
3987 1544 Pls
3987 1588 Pls
3987 1505 Pls
3987 2966 Pls
3987 1938 Pls
3987 1841 Pls
3987 1878 Pls
3987 3065 Pls
3987 2332 Pls
3987 2179 Pls
3987 1857 Pls
3987 3163 Pls
3987 2157 Pls
3987 2432 Pls
3987 1982 Pls
5368 4047 Pls
5368 2738 Pls
5368 2432 Pls
5368 2078 Pls
5368 3779 Pls
5368 2999 Pls
5368 2125 Pls
5368 1916 Pls
5368 3909 Pls
5368 2801 Pls
5368 2302 Pls
5368 1978 Pls
5368 3556 Pls
5368 2514 Pls
5368 2071 Pls
5368 1538 Pls
5368 3436 Pls
5368 2288 Pls
5368 1746 Pls
5368 1590 Pls
5368 2277 Pls
5368 1763 Pls
5368 1672 Pls
5368 1256 Pls
5368 2671 Pls
5368 1807 Pls
5368 2010 Pls
5368 1609 Pls
5368 3459 Pls
5368 2813 Pls
5368 2066 Pls
5368 1774 Pls
5368 3557 Pls
5368 2638 Pls
5368 2404 Pls
5368 1961 Pls
5368 4148 Pls
5368 3032 Pls
5368 2544 Pls
5368 2251 Pls
6749 4047 Pls
6749 3133 Pls
6749 2265 Pls
6749 2143 Pls
6749 4405 Pls
6749 3217 Pls
6749 2224 Pls
6749 2215 Pls
6749 3614 Pls
6749 2739 Pls
6749 2256 Pls
6749 2261 Pls
6749 3314 Pls
6749 2855 Pls
6749 2082 Pls
6749 2127 Pls
6749 2914 Pls
6749 2218 Pls
6749 1860 Pls
6749 1584 Pls
6749 1982 Pls
6749 1894 Pls
6749 1278 Pls
6749 1443 Pls
6749 2573 Pls
6749 2157 Pls
6749 2207 Pls
6749 1671 Pls
6749 3163 Pls
6749 2682 Pls
6749 2094 Pls
6749 1899 Pls
6749 3557 Pls
6749 3251 Pls
6749 2460 Pls
6749 2189 Pls
6749 3951 Pls
6749 2857 Pls
6749 2629 Pls
6749 2376 Pls
1225 3707 Pls
1225 2048 Pls
1225 1926 Pls
1225 1750 Pls
1225 3166 Pls
1225 1986 Pls
1225 1901 Pls
1225 1347 Pls
1225 3194 Pls
1225 2117 Pls
1225 1808 Pls
1225 1570 Pls
1225 2499 Pls
1225 1795 Pls
1225 1723 Pls
1225 1438 Pls
1225 2651 Pls
1225 1785 Pls
1225 1328 Pls
1225 1145 Pls
1225 1785 Pls
1225 1369 Pls
1225 1222 Pls
1225 966 Pls
1225 1686 Pls
1225 1238 Pls
1225 1278 Pls
1225 966 Pls
1225 2474 Pls
1225 1719 Pls
1225 1363 Pls
1225 1339 Pls
1225 2376 Pls
1225 2113 Pls
1225 1475 Pls
1225 1256 Pls
1225 2671 Pls
1225 1544 Pls
1225 1363 Pls
1225 1380 Pls
2606 3515 Pls
2606 2701 Pls
2606 2435 Pls
2606 1816 Pls
2606 3115 Pls
2606 2498 Pls
2606 2237 Pls
2606 1928 Pls
2606 3235 Pls
2606 2582 Pls
2606 1931 Pls
2606 1778 Pls
2606 3076 Pls
2606 2170 Pls
2606 1958 Pls
2606 1831 Pls
2606 2941 Pls
2606 1895 Pls
2606 1409 Pls
2606 1407 Pls
2606 2179 Pls
2606 1369 Pls
2606 1166 Pls
2606 1111 Pls
2606 2376 Pls
2606 1675 Pls
2606 1419 Pls
2606 1505 Pls
2606 2573 Pls
2606 2201 Pls
2606 1700 Pls
2606 1318 Pls
2606 2573 Pls
2606 2025 Pls
2606 1869 Pls
2606 1505 Pls
2606 3557 Pls
2606 2288 Pls
2606 1869 Pls
2606 1691 Pls
3987 4003 Pls
3987 2908 Pls
3987 2051 Pls
3987 1925 Pls
3987 3505 Pls
3987 2690 Pls
3987 2005 Pls
3987 1902 Pls
3987 3644 Pls
3987 2610 Pls
3987 1848 Pls
3987 1890 Pls
3987 3760 Pls
3987 2450 Pls
3987 2042 Pls
3987 1544 Pls
3987 3442 Pls
3987 1887 Pls
3987 1731 Pls
3987 1389 Pls
3987 2179 Pls
3987 1807 Pls
3987 1616 Pls
3987 1194 Pls
3987 1982 Pls
3987 1938 Pls
3987 1532 Pls
3987 1650 Pls
3987 3065 Pls
3987 1807 Pls
3987 1925 Pls
3987 1671 Pls
3987 3656 Pls
3987 2988 Pls
3987 1869 Pls
3987 1422 Pls
3987 3459 Pls
3987 2025 Pls
3987 1982 Pls
3987 2023 Pls
5368 3786 Pls
5368 3092 Pls
5368 2103 Pls
5368 2083 Pls
5368 3971 Pls
5368 3174 Pls
5368 2329 Pls
5368 2226 Pls
5368 3744 Pls
5368 2865 Pls
5368 2477 Pls
5368 1826 Pls
5368 3733 Pls
5368 2836 Pls
5368 2188 Pls
5368 1712 Pls
5368 3286 Pls
5368 2601 Pls
5368 1987 Pls
5368 1864 Pls
5368 2573 Pls
5368 1588 Pls
5368 1419 Pls
5368 1277 Pls
5368 2966 Pls
5368 1807 Pls
5368 1560 Pls
5368 1671 Pls
5368 3459 Pls
5368 2376 Pls
5368 1897 Pls
5368 1899 Pls
5368 2868 Pls
5368 2376 Pls
5368 2179 Pls
5368 1629 Pls
5368 3557 Pls
5368 2857 Pls
5368 2263 Pls
5368 1982 Pls
6749 4062 Pls
6749 2621 Pls
6749 2632 Pls
6749 1947 Pls
6749 3746 Pls
6749 3015 Pls
6749 2656 Pls
6749 1798 Pls
6749 3736 Pls
6749 2977 Pls
6749 2241 Pls
6749 1996 Pls
6749 3675 Pls
6749 2513 Pls
6749 2226 Pls
6749 1802 Pls
6749 3310 Pls
6749 2158 Pls
6749 1665 Pls
6749 1655 Pls
6749 2868 Pls
6749 1894 Pls
6749 1391 Pls
6749 1422 Pls
6749 2966 Pls
6749 2113 Pls
6749 2151 Pls
6749 1401 Pls
6749 2966 Pls
6749 2157 Pls
6749 2038 Pls
6749 1899 Pls
6749 3459 Pls
6749 3120 Pls
6749 2460 Pls
6749 1920 Pls
6749 3656 Pls
6749 2988 Pls
6749 2769 Pls
6749 2044 Pls
1225 3179 Pls
1225 2264 Pls
1225 2042 Pls
1225 1499 Pls
1225 3315 Pls
1225 2255 Pls
1225 1790 Pls
1225 1673 Pls
1225 2529 Pls
1225 2504 Pls
1225 1880 Pls
1225 1534 Pls
1225 3154 Pls
1225 2022 Pls
1225 1552 Pls
1225 1163 Pls
1225 2060 Pls
1225 1785 Pls
1225 1427 Pls
1225 1332 Pls
1225 1292 Pls
1225 1106 Pls
1225 1081 Pls
1225 1070 Pls
1225 1785 Pls
1225 1413 Pls
1225 1222 Pls
1225 1173 Pls
1225 2966 Pls
1225 1369 Pls
1225 1138 Pls
1225 1256 Pls
1225 2671 Pls
1225 1544 Pls
1225 1363 Pls
1225 1298 Pls
1225 2868 Pls
1225 1938 Pls
1225 1475 Pls
1225 1215 Pls
2606 3566 Pls
2606 2686 Pls
2606 2148 Pls
2606 1829 Pls
2606 3460 Pls
2606 2206 Pls
2606 2205 Pls
2606 1764 Pls
2606 3678 Pls
2606 2351 Pls
2606 2045 Pls
2606 1692 Pls
2606 3387 Pls
2606 2296 Pls
2606 1806 Pls
2606 1653 Pls
2606 2606 Pls
2606 1983 Pls
2606 1640 Pls
2606 1463 Pls
2606 2080 Pls
2606 1369 Pls
2606 1081 Pls
2606 1173 Pls
2606 2474 Pls
2606 2244 Pls
2606 1532 Pls
2606 1360 Pls
2606 2671 Pls
2606 1938 Pls
2606 1391 Pls
2606 1380 Pls
2606 2966 Pls
2606 2157 Pls
2606 1785 Pls
2606 1422 Pls
2606 3262 Pls
2606 2069 Pls
2606 1785 Pls
2606 1733 Pls
3987 3584 Pls
3987 2717 Pls
3987 2468 Pls
3987 2069 Pls
3987 3913 Pls
3987 2714 Pls
3987 2186 Pls
3987 2135 Pls
3987 4101 Pls
3987 2857 Pls
3987 1991 Pls
3987 1920 Pls
3987 3151 Pls
3987 2392 Pls
3987 2331 Pls
3987 1850 Pls
3987 2692 Pls
3987 1908 Pls
3987 1695 Pls
3987 1504 Pls
3987 2671 Pls
3987 1807 Pls
3987 1278 Pls
3987 1194 Pls
3987 3163 Pls
3987 1850 Pls
3987 1363 Pls
3987 1546 Pls
3987 2277 Pls
3987 2113 Pls
3987 1644 Pls
3987 1588 Pls
3987 3557 Pls
3987 2332 Pls
3987 1925 Pls
3987 1837 Pls
3987 3360 Pls
3987 2507 Pls
3987 2263 Pls
3987 1650 Pls
5368 4101 Pls
5368 3183 Pls
5368 2355 Pls
5368 1899 Pls
5368 3619 Pls
5368 3114 Pls
5368 2317 Pls
5368 1985 Pls
5368 3874 Pls
5368 2686 Pls
5368 2020 Pls
5368 1757 Pls
5368 3857 Pls
5368 2614 Pls
5368 2288 Pls
5368 1957 Pls
5368 3647 Pls
5368 2282 Pls
5368 1827 Pls
5368 1697 Pls
5368 2770 Pls
5368 1588 Pls
5368 1475 Pls
5368 1173 Pls
5368 2868 Pls
5368 2288 Pls
5368 1532 Pls
5368 1380 Pls
5368 2966 Pls
5368 2376 Pls
5368 1813 Pls
5368 1795 Pls
5368 3754 Pls
5368 2201 Pls
5368 2151 Pls
5368 1899 Pls
5368 3262 Pls
5368 2594 Pls
5368 1954 Pls
5368 2023 Pls
6749 3501 Pls
6749 2559 Pls
6749 2332 Pls
6749 2011 Pls
6749 3914 Pls
6749 2655 Pls
6749 2436 Pls
6749 1755 Pls
6749 3899 Pls
6749 2536 Pls
6749 2460 Pls
6749 1999 Pls
6749 4221 Pls
6749 2912 Pls
6749 2116 Pls
6749 1682 Pls
6749 3627 Pls
6749 2150 Pls
6749 1880 Pls
6749 1579 Pls
6749 2573 Pls
6749 2113 Pls
6749 1363 Pls
6749 1318 Pls
6749 2474 Pls
6749 2069 Pls
6749 1700 Pls
6749 1671 Pls
6749 3360 Pls
6749 2157 Pls
6749 1954 Pls
6749 1837 Pls
6749 3262 Pls
6749 2463 Pls
6749 2066 Pls
6749 1754 Pls
6749 3459 Pls
6749 2813 Pls
6749 2601 Pls
6749 2313 Pls
1225 3080 Pls
1225 2194 Pls
1225 1855 Pls
1225 1714 Pls
1225 3485 Pls
1225 2237 Pls
1225 1696 Pls
1225 1681 Pls
1225 3665 Pls
1225 2251 Pls
1225 1635 Pls
1225 1642 Pls
1225 2948 Pls
1225 2131 Pls
1225 1527 Pls
1225 1284 Pls
1225 2454 Pls
1225 1749 Pls
1225 1379 Pls
1225 1332 Pls
1225 1883 Pls
1225 1150 Pls
1225 1109 Pls
1225 1111 Pls
1225 1883 Pls
1225 1238 Pls
1225 1194 Pls
1225 1152 Pls
1225 2966 Pls
1225 1850 Pls
1225 1335 Pls
1225 1629 Pls
1225 3163 Pls
1225 1719 Pls
1225 1306 Pls
1225 1277 Pls
1225 2868 Pls
1225 1850 Pls
1225 1475 Pls
1225 1463 Pls
2606 3788 Pls
2606 2817 Pls
2606 2252 Pls
2606 2002 Pls
2606 3578 Pls
2606 2316 Pls
2606 2229 Pls
2606 1870 Pls
2606 3720 Pls
2606 2731 Pls
2606 1945 Pls
2606 1886 Pls
2606 3003 Pls
2606 2429 Pls
2606 2050 Pls
2606 1561 Pls
2606 3080 Pls
2606 1735 Pls
2606 1671 Pls
2606 1541 Pls
2606 2376 Pls
2606 1544 Pls
2606 1278 Pls
2606 1090 Pls
2606 2671 Pls
2606 1456 Pls
2606 1363 Pls
2606 1215 Pls
2606 2868 Pls
2606 1982 Pls
2606 1532 Pls
2606 1505 Pls
2606 2376 Pls
2606 2113 Pls
2606 1785 Pls
2606 1609 Pls
2606 2671 Pls
2606 2069 Pls
2606 1700 Pls
2606 1774 Pls
3987 3733 Pls
3987 3123 Pls
3987 2195 Pls
3987 2242 Pls
3987 4110 Pls
3987 2731 Pls
3987 2157 Pls
3987 1900 Pls
3987 4045 Pls
3987 2589 Pls
3987 2049 Pls
3987 1860 Pls
3987 3129 Pls
3987 2591 Pls
3987 1897 Pls
3987 1707 Pls
3987 2987 Pls
3987 1923 Pls
3987 1499 Pls
3987 1597 Pls
3987 2376 Pls
3987 1456 Pls
3987 1278 Pls
3987 1215 Pls
3987 3163 Pls
3987 2025 Pls
3987 1447 Pls
3987 1256 Pls
3987 3557 Pls
3987 1982 Pls
3987 1813 Pls
3987 1505 Pls
3987 2770 Pls
3987 2376 Pls
3987 2038 Pls
3987 1691 Pls
3987 3557 Pls
3987 2244 Pls
3987 1588 Pls
3987 1712 Pls
5368 3878 Pls
5368 3138 Pls
5368 2087 Pls
5368 2051 Pls
5368 3964 Pls
5368 2698 Pls
5368 2175 Pls
5368 1845 Pls
5368 3781 Pls
5368 2629 Pls
5368 2344 Pls
5368 2010 Pls
5368 3505 Pls
5368 2928 Pls
5368 1839 Pls
5368 1813 Pls
5368 3205 Pls
5368 2323 Pls
5368 2265 Pls
5368 1625 Pls
5368 2376 Pls
5368 1632 Pls
5368 1363 Pls
5368 1235 Pls
5368 2868 Pls
5368 1850 Pls
5368 1475 Pls
5368 1505 Pls
5368 3065 Pls
5368 2069 Pls
5368 1841 Pls
5368 1567 Pls
5368 3656 Pls
5368 2463 Pls
5368 2066 Pls
5368 1650 Pls
5368 3754 Pls
5368 2726 Pls
5368 2038 Pls
5368 1650 Pls
6749 4090 Pls
6749 2865 Pls
6749 2478 Pls
6749 2018 Pls
6749 3706 Pls
6749 2835 Pls
6749 2414 Pls
6749 2268 Pls
6749 3958 Pls
6749 2916 Pls
6749 2367 Pls
6749 1865 Pls
6749 3719 Pls
6749 2607 Pls
6749 2170 Pls
6749 2166 Pls
6749 2868 Pls
6749 2347 Pls
6749 1922 Pls
6749 1646 Pls
6749 2277 Pls
6749 1807 Pls
6749 1306 Pls
6749 1277 Pls
6749 2671 Pls
6749 1982 Pls
6749 1588 Pls
6749 1609 Pls
6749 3656 Pls
6749 2638 Pls
6749 2235 Pls
6749 2127 Pls
6749 3754 Pls
6749 2770 Pls
6749 1672 Pls
6749 2002 Pls
6749 4345 Pls
6749 2769 Pls
6749 2291 Pls
6749 2168 Pls
1225 2927 Pls
1225 2102 Pls
1225 2277 Pls
1225 1639 Pls
1225 3263 Pls
1225 1927 Pls
1225 2158 Pls
1225 1593 Pls
1225 3274 Pls
1225 2278 Pls
1225 1981 Pls
1225 1441 Pls
1225 2593 Pls
1225 1742 Pls
1225 1745 Pls
1225 1459 Pls
1225 2638 Pls
1225 1810 Pls
1225 1330 Pls
1225 1257 Pls
1225 1785 Pls
1225 931 Pls
1225 997 Pls
1225 1049 Pls
1225 1982 Pls
1225 1238 Pls
1225 1335 Pls
1225 1132 Pls
1225 2573 Pls
1225 1675 Pls
1225 1278 Pls
1225 1215 Pls
1225 2080 Pls
1225 1632 Pls
1225 1391 Pls
1225 1194 Pls
1225 3557 Pls
1225 2069 Pls
1225 1475 Pls
1225 1401 Pls
2606 3643 Pls
2606 2857 Pls
2606 1968 Pls
2606 1815 Pls
2606 3466 Pls
2606 2338 Pls
2606 2207 Pls
2606 1800 Pls
2606 2803 Pls
2606 2388 Pls
2606 2086 Pls
2606 1697 Pls
2606 3562 Pls
2606 2090 Pls
2606 1682 Pls
2606 1735 Pls
2606 2905 Pls
2606 2098 Pls
2606 1624 Pls
2606 1350 Pls
2606 2179 Pls
2606 1325 Pls
2606 1222 Pls
2606 1070 Pls
2606 2868 Pls
2606 1544 Pls
2606 1335 Pls
2606 1380 Pls
2606 2474 Pls
2606 1719 Pls
2606 1588 Pls
2606 1277 Pls
2606 3065 Pls
2606 1894 Pls
2606 1560 Pls
2606 1401 Pls
2606 3557 Pls
2606 2069 Pls
2606 1841 Pls
2606 1671 Pls
3987 3719 Pls
3987 3054 Pls
3987 2353 Pls
3987 2146 Pls
3987 3427 Pls
3987 2762 Pls
3987 2294 Pls
3987 1959 Pls
3987 2953 Pls
3987 2858 Pls
3987 2359 Pls
3987 1797 Pls
3987 3762 Pls
3987 2690 Pls
3987 1929 Pls
3987 1828 Pls
3987 3208 Pls
3987 2061 Pls
3987 1892 Pls
3987 1444 Pls
3987 1982 Pls
3987 1325 Pls
3987 1363 Pls
3987 1194 Pls
3987 2770 Pls
3987 2025 Pls
3987 1532 Pls
3987 1360 Pls
3987 3459 Pls
3987 2201 Pls
3987 1728 Pls
3987 1754 Pls
3987 3360 Pls
3987 2069 Pls
3987 1728 Pls
3987 1505 Pls
3987 3065 Pls
3987 2157 Pls
3987 1925 Pls
3987 1733 Pls
5368 3844 Pls
5368 2852 Pls
5368 2494 Pls
5368 1890 Pls
5368 4052 Pls
5368 2763 Pls
5368 2469 Pls
5368 2160 Pls
5368 3788 Pls
5368 2614 Pls
5368 1981 Pls
5368 1978 Pls
5368 3698 Pls
5368 2279 Pls
5368 1734 Pls
5368 1786 Pls
5368 3241 Pls
5368 2126 Pls
5368 2005 Pls
5368 1751 Pls
5368 2376 Pls
5368 1894 Pls
5368 1419 Pls
5368 1215 Pls
5368 3262 Pls
5368 1544 Pls
5368 1785 Pls
5368 1609 Pls
5368 2966 Pls
5368 2157 Pls
5368 2038 Pls
5368 1816 Pls
5368 3459 Pls
5368 2419 Pls
5368 1841 Pls
5368 1961 Pls
5368 3656 Pls
5368 2507 Pls
5368 2038 Pls
5368 1940 Pls
6749 4103 Pls
6749 3398 Pls
6749 2440 Pls
6749 2059 Pls
6749 3471 Pls
6749 2986 Pls
6749 2659 Pls
6749 1984 Pls
6749 3453 Pls
6749 3031 Pls
6749 2097 Pls
6749 2301 Pls
6749 3453 Pls
6749 2531 Pls
6749 2287 Pls
6749 1562 Pls
6749 3510 Pls
6749 2294 Pls
6749 2057 Pls
6749 1669 Pls
6749 3262 Pls
6749 1632 Pls
6749 1447 Pls
6749 1256 Pls
6749 2573 Pls
6749 1938 Pls
6749 1391 Pls
6749 1609 Pls
6749 3557 Pls
6749 2507 Pls
6749 1954 Pls
6749 1754 Pls
6749 3459 Pls
6749 2813 Pls
6749 1869 Pls
6749 1940 Pls
6749 3262 Pls
6749 2551 Pls
6749 2179 Pls
6749 2106 Pls
1225 3080 Pls
1225 2320 Pls
1225 2008 Pls
1225 1622 Pls
1225 2716 Pls
1225 2530 Pls
1225 1783 Pls
1225 1701 Pls
1225 3304 Pls
1225 1935 Pls
1225 1540 Pls
1225 1551 Pls
1225 3065 Pls
1225 2142 Pls
1225 1575 Pls
1225 1545 Pls
1225 2362 Pls
1225 1620 Pls
1225 1397 Pls
1225 1163 Pls
1225 1883 Pls
1225 1281 Pls
1225 1109 Pls
1225 987 Pls
1225 1982 Pls
1225 1238 Pls
1225 1194 Pls
1225 1111 Pls
1225 2573 Pls
1225 1632 Pls
1225 1278 Pls
1225 1152 Pls
1225 2376 Pls
1225 1588 Pls
1225 1447 Pls
1225 1173 Pls
1225 2080 Pls
1225 1894 Pls
1225 1588 Pls
1225 1360 Pls
2606 3449 Pls
2606 2670 Pls
2606 2344 Pls
2606 1958 Pls
2606 3860 Pls
2606 2608 Pls
2606 2299 Pls
2606 1839 Pls
2606 3487 Pls
2606 2476 Pls
2606 2109 Pls
2606 1786 Pls
2606 3298 Pls
2606 2310 Pls
2606 1807 Pls
2606 1492 Pls
2606 2915 Pls
2606 2137 Pls
2606 1477 Pls
2606 1508 Pls
2606 1785 Pls
2606 1238 Pls
2606 1391 Pls
2606 1132 Pls
2606 1982 Pls
2606 1719 Pls
2606 1363 Pls
2606 1256 Pls
2606 2080 Pls
2606 1807 Pls
2606 1616 Pls
2606 1235 Pls
2606 3754 Pls
2606 2157 Pls
2606 1757 Pls
2606 1298 Pls
2606 2770 Pls
2606 2244 Pls
2606 1813 Pls
2606 1401 Pls
3987 3999 Pls
3987 2576 Pls
3987 2141 Pls
3987 2040 Pls
3987 3890 Pls
3987 2493 Pls
3987 2201 Pls
3987 2070 Pls
3987 3922 Pls
3987 2540 Pls
3987 2147 Pls
3987 2012 Pls
3987 3001 Pls
3987 2612 Pls
3987 1920 Pls
3987 1583 Pls
3987 2758 Pls
3987 2485 Pls
3987 1937 Pls
3987 1485 Pls
3987 2080 Pls
3987 1413 Pls
3987 1025 Pls
3987 1235 Pls
3987 3065 Pls
3987 1982 Pls
3987 1560 Pls
3987 1401 Pls
3987 3065 Pls
3987 1938 Pls
3987 1644 Pls
3987 1526 Pls
3987 3360 Pls
3987 2201 Pls
3987 1925 Pls
3987 1401 Pls
3987 3459 Pls
3987 2682 Pls
3987 1841 Pls
3987 1609 Pls
5368 3941 Pls
5368 2942 Pls
5368 2521 Pls
5368 2097 Pls
5368 3927 Pls
5368 3154 Pls
5368 2379 Pls
5368 1936 Pls
5368 3903 Pls
5368 2710 Pls
5368 2470 Pls
5368 1921 Pls
5368 3087 Pls
5368 2646 Pls
5368 2091 Pls
5368 1745 Pls
5368 3274 Pls
5368 2310 Pls
5368 2212 Pls
5368 1495 Pls
5368 2080 Pls
5368 1763 Pls
5368 1475 Pls
5368 1256 Pls
5368 2671 Pls
5368 2157 Pls
5368 1728 Pls
5368 1463 Pls
5368 2868 Pls
5368 2201 Pls
5368 1897 Pls
5368 1422 Pls
5368 3557 Pls
5368 2244 Pls
5368 1841 Pls
5368 1588 Pls
5368 3557 Pls
5368 2594 Pls
5368 2038 Pls
5368 1837 Pls
6749 4190 Pls
6749 3317 Pls
6749 2540 Pls
6749 2287 Pls
6749 3663 Pls
6749 3005 Pls
6749 2771 Pls
6749 2344 Pls
6749 3453 Pls
6749 2917 Pls
6749 2262 Pls
6749 1990 Pls
6749 3703 Pls
6749 2554 Pls
6749 2020 Pls
6749 1808 Pls
6749 3032 Pls
6749 2283 Pls
6749 1916 Pls
6749 1737 Pls
6749 2770 Pls
6749 1588 Pls
6749 1475 Pls
6749 1277 Pls
6749 3065 Pls
6749 2507 Pls
6749 1419 Pls
6749 1380 Pls
6749 3557 Pls
6749 2332 Pls
6749 1700 Pls
6749 1505 Pls
6749 2966 Pls
6749 2813 Pls
6749 2010 Pls
6749 1774 Pls
6749 3262 Pls
6749 2025 Pls
6749 2376 Pls
6749 2106 Pls
1225 3013 Pls
1225 2731 Pls
1225 2176 Pls
1225 1788 Pls
1225 3550 Pls
1225 2176 Pls
1225 1797 Pls
1225 1574 Pls
1225 3181 Pls
1225 2174 Pls
1225 1758 Pls
1225 1618 Pls
1225 2544 Pls
1225 2023 Pls
1225 1756 Pls
1225 1440 Pls
1225 2389 Pls
1225 1745 Pls
1225 1450 Pls
1225 1329 Pls
1225 1686 Pls
1225 1238 Pls
1225 969 Pls
1225 966 Pls
1225 2080 Pls
1225 1588 Pls
1225 1278 Pls
1225 1049 Pls
1225 2179 Pls
1225 1456 Pls
1225 1250 Pls
1225 1194 Pls
1225 2868 Pls
1225 1456 Pls
1225 1419 Pls
1225 1152 Pls
1225 2376 Pls
1225 1500 Pls
1225 1335 Pls
1225 1173 Pls
2606 3886 Pls
2606 2454 Pls
2606 2060 Pls
2606 1667 Pls
2606 3663 Pls
2606 2741 Pls
2606 1884 Pls
2606 1784 Pls
2606 3519 Pls
2606 2470 Pls
2606 2049 Pls
2606 1721 Pls
2606 2591 Pls
2606 2242 Pls
2606 1850 Pls
2606 1656 Pls
2606 2936 Pls
2606 1950 Pls
2606 1600 Pls
2606 1472 Pls
2606 1489 Pls
2606 1456 Pls
2606 1194 Pls
2606 1132 Pls
2606 2671 Pls
2606 1719 Pls
2606 1419 Pls
2606 1401 Pls
2606 2474 Pls
2606 1850 Pls
2606 1532 Pls
2606 1339 Pls
2606 3065 Pls
2606 2113 Pls
2606 1391 Pls
2606 1463 Pls
2606 3656 Pls
2606 2025 Pls
2606 1869 Pls
2606 1463 Pls
3987 3781 Pls
3987 2602 Pls
3987 2240 Pls
3987 1953 Pls
3987 3939 Pls
3987 2907 Pls
3987 2381 Pls
3987 1730 Pls
3987 3626 Pls
3987 2605 Pls
3987 1860 Pls
3987 2047 Pls
3987 2947 Pls
3987 2525 Pls
3987 1813 Pls
3987 1681 Pls
3987 2998 Pls
3987 2194 Pls
3987 1596 Pls
3987 1586 Pls
3987 2277 Pls
3987 1500 Pls
3987 1363 Pls
3987 1152 Pls
3987 3163 Pls
3987 1632 Pls
3987 1560 Pls
3987 1277 Pls
3987 2770 Pls
3987 2069 Pls
3987 1644 Pls
3987 1380 Pls
3987 2966 Pls
3987 2288 Pls
3987 2122 Pls
3987 1650 Pls
3987 2966 Pls
3987 2288 Pls
3987 1672 Pls
3987 1567 Pls
5368 3906 Pls
5368 2828 Pls
5368 2399 Pls
5368 2056 Pls
5368 3619 Pls
5368 3048 Pls
5368 2287 Pls
5368 1933 Pls
5368 3647 Pls
5368 2429 Pls
5368 1959 Pls
5368 1785 Pls
5368 3509 Pls
5368 1977 Pls
5368 1770 Pls
5368 1895 Pls
5368 3348 Pls
5368 2279 Pls
5368 1751 Pls
5368 1389 Pls
5368 2179 Pls
5368 1719 Pls
5368 1363 Pls
5368 1380 Pls
5368 2770 Pls
5368 1675 Pls
5368 1785 Pls
5368 1380 Pls
5368 3065 Pls
5368 1807 Pls
5368 1503 Pls
5368 1754 Pls
5368 2868 Pls
5368 2507 Pls
5368 1532 Pls
5368 1816 Pls
5368 3065 Pls
5368 2157 Pls
5368 1925 Pls
5368 1899 Pls
6749 3846 Pls
6749 2775 Pls
6749 2622 Pls
6749 2090 Pls
6749 4197 Pls
6749 3132 Pls
6749 2340 Pls
6749 1767 Pls
6749 4061 Pls
6749 2976 Pls
6749 2288 Pls
6749 2061 Pls
6749 3476 Pls
6749 2790 Pls
6749 2387 Pls
6749 1810 Pls
6749 3501 Pls
6749 2590 Pls
6749 1991 Pls
6749 1901 Pls
6749 2671 Pls
6749 1763 Pls
6749 1503 Pls
6749 1277 Pls
6749 2868 Pls
6749 1763 Pls
6749 1700 Pls
6749 1754 Pls
6749 3557 Pls
6749 1938 Pls
6749 1841 Pls
6749 1650 Pls
6749 3656 Pls
6749 2638 Pls
6749 1728 Pls
6749 1691 Pls
6749 3656 Pls
6749 2332 Pls
6749 2179 Pls
6749 1795 Pls
1225 3635 Pls
1225 2227 Pls
1225 1794 Pls
1225 1616 Pls
1225 3275 Pls
1225 2262 Pls
1225 1862 Pls
1225 1609 Pls
1225 2998 Pls
1225 2154 Pls
1225 2008 Pls
1225 1686 Pls
1225 2880 Pls
1225 1830 Pls
1225 1617 Pls
1225 1424 Pls
1225 2336 Pls
1225 1667 Pls
1225 1473 Pls
1225 1258 Pls
1225 1785 Pls
1225 1194 Pls
1225 1025 Pls
1225 1028 Pls
1225 1686 Pls
1225 1106 Pls
1225 1335 Pls
1225 1132 Pls
1225 2277 Pls
1225 1325 Pls
1225 1222 Pls
1225 1235 Pls
1225 2573 Pls
1225 1719 Pls
1225 1306 Pls
1225 1194 Pls
1225 2671 Pls
1225 1982 Pls
1225 1672 Pls
1225 1401 Pls
2606 3498 Pls
2606 2740 Pls
2606 1916 Pls
2606 1830 Pls
2606 3460 Pls
2606 2634 Pls
2606 1902 Pls
2606 1736 Pls
2606 3705 Pls
2606 2386 Pls
2606 1808 Pls
2606 1586 Pls
2606 3329 Pls
2606 2105 Pls
2606 1876 Pls
2606 1456 Pls
2606 2297 Pls
2606 2161 Pls
2606 1563 Pls
2606 1412 Pls
2606 1982 Pls
2606 1194 Pls
2606 1138 Pls
2606 1173 Pls
2606 2179 Pls
2606 1894 Pls
2606 1503 Pls
2606 1277 Pls
2606 2868 Pls
2606 1938 Pls
2606 1475 Pls
2606 1318 Pls
2606 2966 Pls
2606 2201 Pls
2606 1785 Pls
2606 1650 Pls
2606 3459 Pls
2606 1894 Pls
2606 1616 Pls
2606 1588 Pls
3987 3980 Pls
3987 2436 Pls
3987 2458 Pls
3987 2016 Pls
3987 4007 Pls
3987 2582 Pls
3987 2157 Pls
3987 1940 Pls
3987 3460 Pls
3987 2864 Pls
3987 2109 Pls
3987 1699 Pls
3987 3642 Pls
3987 2461 Pls
3987 2024 Pls
3987 1767 Pls
3987 3138 Pls
3987 2352 Pls
3987 1546 Pls
3987 1447 Pls
3987 2277 Pls
3987 1544 Pls
3987 1306 Pls
3987 1132 Pls
3987 2671 Pls
3987 1894 Pls
3987 1391 Pls
3987 1401 Pls
3987 3360 Pls
3987 1982 Pls
3987 1503 Pls
3987 1318 Pls
3987 3459 Pls
3987 2025 Pls
3987 1869 Pls
3987 1360 Pls
3987 3656 Pls
3987 2201 Pls
3987 1925 Pls
3987 1422 Pls
5368 3758 Pls
5368 2809 Pls
5368 2572 Pls
5368 1967 Pls
5368 4290 Pls
5368 2829 Pls
5368 2449 Pls
5368 2007 Pls
5368 3200 Pls
5368 2678 Pls
5368 2144 Pls
5368 2028 Pls
5368 3611 Pls
5368 2409 Pls
5368 2102 Pls
5368 1787 Pls
5368 3360 Pls
5368 2609 Pls
5368 1747 Pls
5368 1655 Pls
5368 2671 Pls
5368 1632 Pls
5368 1363 Pls
5368 1215 Pls
5368 2868 Pls
5368 2025 Pls
5368 1588 Pls
5368 1339 Pls
5368 2966 Pls
5368 2113 Pls
5368 1813 Pls
5368 1484 Pls
5368 3163 Pls
5368 2463 Pls
5368 1982 Pls
5368 1463 Pls
5368 3163 Pls
5368 2682 Pls
5368 2010 Pls
5368 1774 Pls
6749 3934 Pls
6749 2934 Pls
6749 2174 Pls
6749 1891 Pls
6749 3962 Pls
6749 2602 Pls
6749 2181 Pls
6749 1733 Pls
6749 3923 Pls
6749 2847 Pls
6749 2239 Pls
6749 1864 Pls
6749 4062 Pls
6749 2886 Pls
6749 2410 Pls
6749 1792 Pls
6749 3473 Pls
6749 2477 Pls
6749 2079 Pls
6749 1858 Pls
6749 2770 Pls
6749 1675 Pls
6749 1728 Pls
6749 1360 Pls
6749 3163 Pls
6749 1763 Pls
6749 1869 Pls
6749 1588 Pls
6749 3262 Pls
6749 2288 Pls
6749 1560 Pls
6749 1380 Pls
6749 3853 Pls
6749 2638 Pls
6749 1925 Pls
6749 1795 Pls
6749 3459 Pls
6749 2726 Pls
6749 2094 Pls
6749 1795 Pls
1225 3474 Pls
1225 2034 Pls
1225 2003 Pls
1225 1635 Pls
1225 3117 Pls
1225 2408 Pls
1225 1824 Pls
1225 1403 Pls
1225 3048 Pls
1225 2363 Pls
1225 1744 Pls
1225 1617 Pls
1225 2696 Pls
1225 1978 Pls
1225 1457 Pls
1225 1378 Pls
1225 2704 Pls
1225 1692 Pls
1225 1617 Pls
1225 1274 Pls
1225 1391 Pls
1225 1063 Pls
1225 997 Pls
1225 987 Pls
1225 2179 Pls
1225 1281 Pls
1225 1053 Pls
1225 1132 Pls
1225 2573 Pls
1225 1500 Pls
1225 1194 Pls
1225 1152 Pls
1225 2770 Pls
1225 1588 Pls
1225 1532 Pls
1225 1235 Pls
1225 2376 Pls
1225 1719 Pls
1225 1335 Pls
1225 1152 Pls
2606 3955 Pls
2606 2490 Pls
2606 2391 Pls
2606 1794 Pls
2606 3718 Pls
2606 2376 Pls
2606 2313 Pls
2606 2052 Pls
2606 3542 Pls
2606 2663 Pls
2606 2171 Pls
2606 1885 Pls
2606 3368 Pls
2606 2372 Pls
2606 1831 Pls
2606 1655 Pls
2606 2567 Pls
2606 1960 Pls
2606 1588 Pls
2606 1405 Pls
2606 2179 Pls
2606 1632 Pls
2606 1166 Pls
2606 1007 Pls
2606 1883 Pls
2606 1588 Pls
2606 1391 Pls
2606 1215 Pls
2606 2966 Pls
2606 1544 Pls
2606 1475 Pls
2606 1256 Pls
2606 2376 Pls
2606 1763 Pls
2606 1757 Pls
2606 1360 Pls
2606 2671 Pls
2606 2201 Pls
2606 1897 Pls
2606 1235 Pls
3987 3939 Pls
3987 2770 Pls
3987 2357 Pls
3987 1914 Pls
3987 4018 Pls
3987 2831 Pls
3987 1855 Pls
3987 1839 Pls
3987 3499 Pls
3987 2281 Pls
3987 2137 Pls
3987 1780 Pls
3987 3244 Pls
3987 2890 Pls
3987 1523 Pls
3987 1783 Pls
3987 2657 Pls
3987 2142 Pls
3987 1947 Pls
3987 1620 Pls
3987 2277 Pls
3987 1325 Pls
3987 1250 Pls
3987 1132 Pls
3987 2671 Pls
3987 1938 Pls
3987 1475 Pls
3987 1360 Pls
3987 2474 Pls
3987 1807 Pls
3987 1672 Pls
3987 1443 Pls
3987 2966 Pls
3987 2113 Pls
3987 1447 Pls
3987 1546 Pls
3987 3754 Pls
3987 2244 Pls
3987 1813 Pls
3987 1588 Pls
5368 3749 Pls
5368 2921 Pls
5368 2181 Pls
5368 1925 Pls
5368 3738 Pls
5368 2835 Pls
5368 2505 Pls
5368 1839 Pls
5368 3481 Pls
5368 2522 Pls
5368 2369 Pls
5368 1839 Pls
5368 3187 Pls
5368 2577 Pls
5368 2288 Pls
5368 1815 Pls
5368 2633 Pls
5368 2182 Pls
5368 1721 Pls
5368 1653 Pls
5368 2376 Pls
5368 1413 Pls
5368 969 Pls
5368 1028 Pls
5368 2966 Pls
5368 1763 Pls
5368 1560 Pls
5368 1380 Pls
5368 2966 Pls
5368 1938 Pls
5368 1532 Pls
5368 1588 Pls
5368 3853 Pls
5368 2244 Pls
5368 1700 Pls
5368 1567 Pls
5368 3754 Pls
5368 2769 Pls
5368 1785 Pls
5368 1712 Pls
6749 4180 Pls
6749 2931 Pls
6749 2547 Pls
6749 2176 Pls
6749 4175 Pls
6749 2961 Pls
6749 2649 Pls
6749 1948 Pls
6749 3795 Pls
6749 2702 Pls
6749 2301 Pls
6749 1953 Pls
6749 3627 Pls
6749 2700 Pls
6749 2357 Pls
6749 2064 Pls
6749 3535 Pls
6749 2545 Pls
6749 1757 Pls
6749 1634 Pls
6749 2868 Pls
6749 1456 Pls
6749 1616 Pls
6749 1277 Pls
6749 2474 Pls
6749 1938 Pls
6749 1728 Pls
6749 1484 Pls
6749 2671 Pls
6749 2201 Pls
6749 1447 Pls
6749 1712 Pls
6749 4148 Pls
6749 2025 Pls
6749 1503 Pls
6749 1546 Pls
6749 3754 Pls
6749 2376 Pls
6749 1813 Pls
6749 1588 Pls
1225 3320 Pls
1225 2801 Pls
1225 1928 Pls
1225 1637 Pls
1225 3118 Pls
1225 2629 Pls
1225 2015 Pls
1225 1655 Pls
1225 3221 Pls
1225 1728 Pls
1225 1632 Pls
1225 1546 Pls
1225 3220 Pls
1225 1991 Pls
1225 1691 Pls
1225 1398 Pls
1225 2389 Pls
1225 1670 Pls
1225 1379 Pls
1225 1291 Pls
1225 1588 Pls
1225 1281 Pls
1225 1053 Pls
1225 1007 Pls
1225 1883 Pls
1225 1456 Pls
1225 1166 Pls
1225 1049 Pls
1225 2376 Pls
1225 1588 Pls
1225 1250 Pls
1225 1090 Pls
1225 2671 Pls
1225 1632 Pls
1225 1335 Pls
1225 1152 Pls
1225 2671 Pls
1225 1938 Pls
1225 1306 Pls
1225 1173 Pls
2606 3783 Pls
2606 3057 Pls
2606 1930 Pls
2606 1932 Pls
2606 3521 Pls
2606 3073 Pls
2606 2154 Pls
2606 1794 Pls
2606 3212 Pls
2606 2326 Pls
2606 2020 Pls
2606 1580 Pls
2606 3014 Pls
2606 2111 Pls
2606 1707 Pls
2606 1594 Pls
2606 2426 Pls
2606 2250 Pls
2606 1601 Pls
2606 1258 Pls
2606 2179 Pls
2606 1281 Pls
2606 1138 Pls
2606 1090 Pls
2606 2080 Pls
2606 1544 Pls
2606 1363 Pls
2606 1277 Pls
2606 2376 Pls
2606 1894 Pls
2606 1335 Pls
2606 1194 Pls
2606 3262 Pls
2606 2069 Pls
2606 1644 Pls
2606 1401 Pls
2606 3065 Pls
2606 1675 Pls
2606 1335 Pls
2606 1380 Pls
3987 4011 Pls
3987 2959 Pls
3987 2373 Pls
3987 1697 Pls
3987 4103 Pls
3987 2568 Pls
3987 2281 Pls
3987 1714 Pls
3987 3271 Pls
3987 2692 Pls
3987 2107 Pls
3987 1764 Pls
3987 3941 Pls
3987 2465 Pls
3987 2115 Pls
3987 1739 Pls
3987 2557 Pls
3987 1946 Pls
3987 1611 Pls
3987 1370 Pls
3987 1883 Pls
3987 1238 Pls
3987 1363 Pls
3987 1132 Pls
3987 2966 Pls
3987 1763 Pls
3987 1560 Pls
3987 1422 Pls
3987 3163 Pls
3987 1719 Pls
3987 1475 Pls
3987 1484 Pls
3987 3360 Pls
3987 2376 Pls
3987 1700 Pls
3987 1422 Pls
3987 3163 Pls
3987 2244 Pls
3987 1757 Pls
3987 1318 Pls
5368 3865 Pls
5368 2762 Pls
5368 2294 Pls
5368 1914 Pls
5368 3284 Pls
5368 2837 Pls
5368 2338 Pls
5368 1945 Pls
5368 4145 Pls
5368 2984 Pls
5368 1995 Pls
5368 1623 Pls
5368 3567 Pls
5368 2310 Pls
5368 2223 Pls
5368 1974 Pls
5368 3176 Pls
5368 2302 Pls
5368 1783 Pls
5368 1590 Pls
5368 2376 Pls
5368 1632 Pls
5368 1419 Pls
5368 1028 Pls
5368 2770 Pls
5368 1807 Pls
5368 1447 Pls
5368 1318 Pls
5368 3360 Pls
5368 2201 Pls
5368 1560 Pls
5368 1526 Pls
5368 3656 Pls
5368 2288 Pls
5368 1644 Pls
5368 1526 Pls
5368 3459 Pls
5368 1982 Pls
5368 1925 Pls
5368 1671 Pls
6749 4131 Pls
6749 3453 Pls
6749 2418 Pls
6749 2312 Pls
6749 3864 Pls
6749 2841 Pls
6749 2457 Pls
6749 2016 Pls
6749 3557 Pls
6749 2840 Pls
6749 2342 Pls
6749 1948 Pls
6749 3213 Pls
6749 2597 Pls
6749 2111 Pls
6749 2149 Pls
6749 3445 Pls
6749 2357 Pls
6749 1936 Pls
6749 1792 Pls
6749 2474 Pls
6749 1894 Pls
6749 1250 Pls
6749 1215 Pls
6749 3065 Pls
6749 2113 Pls
6749 1813 Pls
6749 1526 Pls
6749 3163 Pls
6749 1894 Pls
6749 1700 Pls
6749 1629 Pls
6749 3754 Pls
6749 2507 Pls
6749 1757 Pls
6749 1650 Pls
6749 3262 Pls
6749 2025 Pls
6749 1813 Pls
6749 1609 Pls
1225 3298 Pls
1225 2237 Pls
1225 1612 Pls
1225 1453 Pls
1225 3142 Pls
1225 2380 Pls
1225 1691 Pls
1225 1506 Pls
1225 3413 Pls
1225 1819 Pls
1225 1677 Pls
1225 1481 Pls
1225 2778 Pls
1225 1987 Pls
1225 1499 Pls
1225 1544 Pls
1225 2415 Pls
1225 1473 Pls
1225 1333 Pls
1225 1109 Pls
1225 1489 Pls
1225 1281 Pls
1225 997 Pls
1225 966 Pls
1225 1785 Pls
1225 1281 Pls
1225 1081 Pls
1225 1173 Pls
1225 2277 Pls
1225 1544 Pls
1225 1306 Pls
1225 1070 Pls
1225 2868 Pls
1225 2069 Pls
1225 1419 Pls
1225 1132 Pls
1225 3065 Pls
1225 1413 Pls
1225 1363 Pls
1225 1194 Pls
2606 3800 Pls
2606 2671 Pls
2606 1761 Pls
2606 1946 Pls
2606 3594 Pls
2606 2692 Pls
2606 1968 Pls
2606 1687 Pls
2606 3252 Pls
2606 2407 Pls
2606 1881 Pls
2606 1718 Pls
2606 2998 Pls
2606 1889 Pls
2606 1952 Pls
2606 1732 Pls
2606 3193 Pls
2606 1737 Pls
2606 1867 Pls
2606 1319 Pls
2606 1883 Pls
2606 1456 Pls
2606 1222 Pls
2606 987 Pls
2606 2376 Pls
2606 1675 Pls
2606 1306 Pls
2606 1215 Pls
2606 2474 Pls
2606 1544 Pls
2606 1644 Pls
2606 1360 Pls
2606 3557 Pls
2606 1938 Pls
2606 1447 Pls
2606 1401 Pls
2606 2868 Pls
2606 2288 Pls
2606 1588 Pls
2606 1526 Pls
3987 3740 Pls
3987 2938 Pls
3987 2222 Pls
3987 2128 Pls
3987 3909 Pls
3987 3056 Pls
3987 1888 Pls
3987 1857 Pls
3987 4079 Pls
3987 2803 Pls
3987 2167 Pls
3987 1829 Pls
3987 3297 Pls
3987 2844 Pls
3987 1916 Pls
3987 1520 Pls
3987 3348 Pls
3987 1983 Pls
3987 1643 Pls
3987 1456 Pls
3987 2277 Pls
3987 1369 Pls
3987 1278 Pls
3987 1152 Pls
3987 2474 Pls
3987 1413 Pls
3987 1363 Pls
3987 1256 Pls
3987 3360 Pls
3987 2332 Pls
3987 1475 Pls
3987 1443 Pls
3987 2671 Pls
3987 2113 Pls
3987 1728 Pls
3987 1484 Pls
3987 3360 Pls
3987 1982 Pls
3987 1869 Pls
3987 1505 Pls
5368 3925 Pls
5368 3319 Pls
5368 2047 Pls
5368 2146 Pls
5368 4013 Pls
5368 2979 Pls
5368 2548 Pls
5368 1926 Pls
5368 3596 Pls
5368 3000 Pls
5368 2032 Pls
5368 2089 Pls
5368 3927 Pls
5368 2821 Pls
5368 1908 Pls
5368 1733 Pls
5368 3290 Pls
5368 2049 Pls
5368 1838 Pls
5368 1636 Pls
5368 2573 Pls
5368 1544 Pls
5368 1250 Pls
5368 1318 Pls
5368 2770 Pls
5368 1894 Pls
5368 1532 Pls
5368 1526 Pls
5368 2966 Pls
5368 2025 Pls
5368 1588 Pls
5368 1422 Pls
5368 3557 Pls
5368 1982 Pls
5368 1616 Pls
5368 1733 Pls
5368 2868 Pls
5368 2463 Pls
5368 1982 Pls
5368 1609 Pls
6749 4203 Pls
6749 3055 Pls
6749 2331 Pls
6749 2190 Pls
6749 4117 Pls
6749 2962 Pls
6749 2200 Pls
6749 2055 Pls
6749 3719 Pls
6749 3232 Pls
6749 2452 Pls
6749 1916 Pls
6749 3445 Pls
6749 2735 Pls
6749 2169 Pls
6749 1950 Pls
6749 3501 Pls
6749 2628 Pls
6749 1959 Pls
6749 1772 Pls
6749 2179 Pls
6749 1894 Pls
6749 1419 Pls
6749 1235 Pls
6749 2966 Pls
6749 1500 Pls
6749 1335 Pls
6749 1132 Pls
6749 3360 Pls
6749 1807 Pls
6749 1616 Pls
6749 1546 Pls
6749 3360 Pls
6749 2376 Pls
6749 1869 Pls
6749 1401 Pls
6749 3163 Pls
6749 2069 Pls
6749 1757 Pls
6749 1629 Pls
1225 3087 Pls
1225 2196 Pls
1225 1672 Pls
1225 1920 Pls
1225 3516 Pls
1225 2491 Pls
1225 1966 Pls
1225 1625 Pls
1225 3399 Pls
1225 1986 Pls
1225 1850 Pls
1225 1514 Pls
1225 3008 Pls
1225 1909 Pls
1225 1567 Pls
1225 1475 Pls
1225 2546 Pls
1225 1541 Pls
1225 1404 Pls
1225 1309 Pls
1225 1883 Pls
1225 1150 Pls
1225 1081 Pls
1225 1007 Pls
1225 2277 Pls
1225 1456 Pls
1225 1194 Pls
1225 987 Pls
1225 2277 Pls
1225 1150 Pls
1225 1391 Pls
1225 1256 Pls
1225 2376 Pls
1225 1500 Pls
1225 1363 Pls
1225 1360 Pls
1225 2179 Pls
1225 1675 Pls
1225 1503 Pls
1225 1298 Pls
2606 3221 Pls
2606 2742 Pls
2606 2152 Pls
2606 1697 Pls
2606 3520 Pls
2606 2538 Pls
2606 1877 Pls
2606 1844 Pls
2606 3620 Pls
2606 2227 Pls
2606 1934 Pls
2606 1647 Pls
2606 3013 Pls
2606 2336 Pls
2606 1964 Pls
2606 1647 Pls
2606 2790 Pls
2606 1694 Pls
2606 1679 Pls
2606 1423 Pls
2606 1588 Pls
2606 1500 Pls
2606 1138 Pls
2606 1049 Pls
2606 2179 Pls
2606 1544 Pls
2606 1109 Pls
2606 1215 Pls
2606 2474 Pls
2606 1982 Pls
2606 1560 Pls
2606 1380 Pls
2606 2868 Pls
2606 1982 Pls
2606 1447 Pls
2606 1360 Pls
2606 2868 Pls
2606 2113 Pls
2606 1391 Pls
2606 1256 Pls
3987 3983 Pls
3987 2623 Pls
3987 2212 Pls
3987 1997 Pls
3987 3761 Pls
3987 2885 Pls
3987 2137 Pls
3987 1854 Pls
3987 3550 Pls
3987 2744 Pls
3987 1968 Pls
3987 1791 Pls
3987 3499 Pls
3987 2369 Pls
3987 1930 Pls
3987 1789 Pls
3987 2713 Pls
3987 1945 Pls
3987 1569 Pls
3987 1441 Pls
3987 2474 Pls
3987 1456 Pls
3987 1306 Pls
3987 1277 Pls
3987 2573 Pls
3987 1588 Pls
3987 1475 Pls
3987 1256 Pls
3987 2966 Pls
3987 1982 Pls
3987 1560 Pls
3987 1277 Pls
3987 2868 Pls
3987 2025 Pls
3987 1813 Pls
3987 1443 Pls
3987 3656 Pls
3987 2463 Pls
3987 1728 Pls
3987 1235 Pls
5368 3951 Pls
5368 3190 Pls
5368 2250 Pls
5368 2206 Pls
5368 3710 Pls
5368 2456 Pls
5368 2574 Pls
5368 1831 Pls
5368 2983 Pls
5368 2844 Pls
5368 2106 Pls
5368 1942 Pls
5368 3633 Pls
5368 2545 Pls
5368 1814 Pls
5368 1760 Pls
5368 3243 Pls
5368 2150 Pls
5368 1624 Pls
5368 1584 Pls
5368 2179 Pls
5368 1544 Pls
5368 1222 Pls
5368 1298 Pls
5368 2671 Pls
5368 1982 Pls
5368 1532 Pls
5368 1360 Pls
5368 3360 Pls
5368 2463 Pls
5368 1560 Pls
5368 1318 Pls
5368 3360 Pls
5368 2244 Pls
5368 1700 Pls
5368 1380 Pls
5368 3557 Pls
5368 2332 Pls
5368 1644 Pls
5368 1567 Pls
6749 3943 Pls
6749 3090 Pls
6749 2414 Pls
6749 1984 Pls
6749 4107 Pls
6749 3271 Pls
6749 2537 Pls
6749 2102 Pls
6749 3886 Pls
6749 3115 Pls
6749 2323 Pls
6749 1922 Pls
6749 3636 Pls
6749 2591 Pls
6749 2271 Pls
6749 1824 Pls
6749 3320 Pls
6749 2332 Pls
6749 1807 Pls
6749 1541 Pls
6749 3065 Pls
6749 2025 Pls
6749 1503 Pls
6749 1090 Pls
6749 2966 Pls
6749 2288 Pls
6749 1503 Pls
6749 1298 Pls
6749 2671 Pls
6749 2113 Pls
6749 1503 Pls
6749 1443 Pls
6749 2966 Pls
6749 2157 Pls
6749 1672 Pls
6749 1526 Pls
6749 3360 Pls
6749 2332 Pls
6749 2010 Pls
6749 1588 Pls
1225 3605 Pls
1225 2537 Pls
1225 1930 Pls
1225 1792 Pls
1225 2969 Pls
1225 2498 Pls
1225 1666 Pls
1225 1586 Pls
1225 2848 Pls
1225 2355 Pls
1225 1594 Pls
1225 1641 Pls
1225 2526 Pls
1225 1941 Pls
1225 1631 Pls
1225 1325 Pls
1225 2192 Pls
1225 1581 Pls
1225 1325 Pls
1225 1222 Pls
1225 1686 Pls
1225 1106 Pls
1225 969 Pls
1225 924 Pls
1225 1982 Pls
1225 1456 Pls
1225 1081 Pls
1225 1007 Pls
1225 2474 Pls
1225 1413 Pls
1225 1278 Pls
1225 1132 Pls
1225 2277 Pls
1225 1369 Pls
1225 1278 Pls
1225 1173 Pls
1225 2376 Pls
1225 1850 Pls
1225 1222 Pls
1225 1028 Pls
2606 4038 Pls
2606 2417 Pls
2606 2361 Pls
2606 1895 Pls
2606 3515 Pls
2606 2619 Pls
2606 1815 Pls
2606 1638 Pls
2606 3626 Pls
2606 2320 Pls
2606 1892 Pls
2606 1894 Pls
2606 3297 Pls
2606 2307 Pls
2606 1958 Pls
2606 1821 Pls
2606 3398 Pls
2606 1642 Pls
2606 1555 Pls
2606 1353 Pls
2606 1883 Pls
2606 1325 Pls
2606 1250 Pls
2606 1111 Pls
2606 2770 Pls
2606 1588 Pls
2606 1278 Pls
2606 1173 Pls
2606 2474 Pls
2606 1763 Pls
2606 1194 Pls
2606 1277 Pls
2606 2770 Pls
2606 1982 Pls
2606 1475 Pls
2606 1505 Pls
2606 2868 Pls
2606 1850 Pls
2606 1616 Pls
2606 1360 Pls
3987 3803 Pls
3987 2965 Pls
3987 2377 Pls
3987 1946 Pls
3987 3294 Pls
3987 2921 Pls
3987 2337 Pls
3987 1685 Pls
3987 3993 Pls
3987 2535 Pls
3987 1949 Pls
3987 2061 Pls
3987 3441 Pls
3987 2347 Pls
3987 2014 Pls
3987 1638 Pls
3987 2980 Pls
3987 2171 Pls
3987 1480 Pls
3987 1646 Pls
3987 2671 Pls
3987 1763 Pls
3987 1138 Pls
3987 1298 Pls
3987 2179 Pls
3987 1763 Pls
3987 1335 Pls
3987 1256 Pls
3987 2474 Pls
3987 1982 Pls
3987 1672 Pls
3987 1339 Pls
3987 3262 Pls
3987 2419 Pls
3987 1644 Pls
3987 1298 Pls
3987 3163 Pls
3987 2244 Pls
3987 1841 Pls
3987 1484 Pls
5368 3771 Pls
5368 2528 Pls
5368 2320 Pls
5368 2055 Pls
5368 4153 Pls
5368 2852 Pls
5368 2373 Pls
5368 2206 Pls
5368 3866 Pls
5368 3050 Pls
5368 2514 Pls
5368 2023 Pls
5368 3726 Pls
5368 2629 Pls
5368 2265 Pls
5368 1773 Pls
5368 2696 Pls
5368 2558 Pls
5368 1770 Pls
5368 1357 Pls
5368 2474 Pls
5368 1763 Pls
5368 1419 Pls
5368 1256 Pls
5368 2671 Pls
5368 1763 Pls
5368 1532 Pls
5368 1339 Pls
5368 3163 Pls
5368 2025 Pls
5368 1532 Pls
5368 1339 Pls
5368 3065 Pls
5368 2201 Pls
5368 1757 Pls
5368 1298 Pls
5368 3163 Pls
5368 1894 Pls
5368 1757 Pls
5368 1380 Pls
6749 3962 Pls
6749 3390 Pls
6749 2696 Pls
6749 2065 Pls
6749 4103 Pls
6749 2825 Pls
6749 2666 Pls
6749 2039 Pls
6749 3703 Pls
6749 3027 Pls
6749 2425 Pls
6749 2040 Pls
6749 3642 Pls
6749 2472 Pls
6749 2053 Pls
6749 2069 Pls
6749 3562 Pls
6749 2734 Pls
6749 1993 Pls
6749 1703 Pls
6749 2277 Pls
6749 1632 Pls
6749 1278 Pls
6749 1235 Pls
6749 2966 Pls
6749 1938 Pls
6749 1644 Pls
6749 1318 Pls
6749 3360 Pls
6749 2201 Pls
6749 1757 Pls
6749 1443 Pls
6749 2966 Pls
6749 2069 Pls
6749 1897 Pls
6749 1463 Pls
6749 4148 Pls
6749 2332 Pls
6749 2010 Pls
6749 1401 Pls
1225 3649 Pls
1225 2247 Pls
1225 2128 Pls
1225 1666 Pls
1225 2982 Pls
1225 2099 Pls
1225 1915 Pls
1225 1689 Pls
1225 2966 Pls
1225 1888 Pls
1225 1578 Pls
1225 1594 Pls
1225 2709 Pls
1225 1740 Pls
1225 1746 Pls
1225 1365 Pls
1225 2244 Pls
1225 1753 Pls
1225 1434 Pls
1225 1220 Pls
1225 1489 Pls
1225 1106 Pls
1225 1025 Pls
1225 966 Pls
1225 2277 Pls
1225 1238 Pls
1225 1081 Pls
1225 1007 Pls
1225 2277 Pls
1225 1369 Pls
1225 1419 Pls
1225 1215 Pls
1225 2474 Pls
1225 1369 Pls
1225 1475 Pls
1225 1173 Pls
1225 2277 Pls
1225 1719 Pls
1225 1419 Pls
1225 1111 Pls
2606 3781 Pls
2606 2392 Pls
2606 2171 Pls
2606 1845 Pls
2606 3958 Pls
2606 2362 Pls
2606 1976 Pls
2606 1830 Pls
2606 3499 Pls
2606 2348 Pls
2606 1875 Pls
2606 1908 Pls
2606 3144 Pls
2606 2343 Pls
2606 2026 Pls
2606 1606 Pls
2606 2981 Pls
2606 1866 Pls
2606 1666 Pls
2606 1422 Pls
2606 1588 Pls
2606 1194 Pls
2606 1138 Pls
2606 1028 Pls
2606 2376 Pls
2606 1544 Pls
2606 1081 Pls
2606 1339 Pls
2606 2868 Pls
2606 1632 Pls
2606 1475 Pls
2606 1277 Pls
2606 2868 Pls
2606 2025 Pls
2606 1813 Pls
2606 1256 Pls
2606 3163 Pls
2606 1632 Pls
2606 1588 Pls
2606 1256 Pls
3987 3738 Pls
3987 2803 Pls
3987 2494 Pls
3987 1903 Pls
3987 3803 Pls
3987 2609 Pls
3987 2134 Pls
3987 1991 Pls
3987 3767 Pls
3987 2346 Pls
3987 1874 Pls
3987 1811 Pls
3987 3459 Pls
3987 2560 Pls
3987 2144 Pls
3987 1666 Pls
3987 2955 Pls
3987 1992 Pls
3987 1568 Pls
3987 1449 Pls
3987 2277 Pls
3987 1675 Pls
3987 1391 Pls
3987 1173 Pls
3987 2376 Pls
3987 2201 Pls
3987 1419 Pls
3987 1298 Pls
3987 3163 Pls
3987 1632 Pls
3987 1616 Pls
3987 1298 Pls
3987 3065 Pls
3987 1763 Pls
3987 1447 Pls
3987 1339 Pls
3987 3163 Pls
3987 2419 Pls
3987 1813 Pls
3987 1609 Pls
5368 4131 Pls
5368 3081 Pls
5368 2144 Pls
5368 2049 Pls
5368 3768 Pls
5368 2781 Pls
5368 2302 Pls
5368 2105 Pls
5368 3445 Pls
5368 2853 Pls
5368 2337 Pls
5368 2215 Pls
5368 3487 Pls
5368 2296 Pls
5368 1893 Pls
5368 1808 Pls
5368 3371 Pls
5368 1982 Pls
5368 1757 Pls
5368 1836 Pls
5368 2277 Pls
5368 1456 Pls
5368 1391 Pls
5368 1256 Pls
5368 3065 Pls
5368 1938 Pls
5368 1391 Pls
5368 1235 Pls
5368 3163 Pls
5368 2288 Pls
5368 1560 Pls
5368 1526 Pls
5368 3262 Pls
5368 2332 Pls
5368 1644 Pls
5368 1401 Pls
5368 3262 Pls
5368 2288 Pls
5368 1954 Pls
5368 1526 Pls
6749 4161 Pls
6749 2881 Pls
6749 2492 Pls
6749 2167 Pls
6749 3786 Pls
6749 3234 Pls
6749 2620 Pls
6749 1984 Pls
6749 3959 Pls
6749 3068 Pls
6749 2328 Pls
6749 1638 Pls
6749 3230 Pls
6749 2942 Pls
6749 2514 Pls
6749 1865 Pls
6749 3466 Pls
6749 2150 Pls
6749 2014 Pls
6749 1684 Pls
6749 2868 Pls
6749 1588 Pls
6749 1306 Pls
6749 1256 Pls
6749 2868 Pls
6749 1938 Pls
6749 1700 Pls
6749 1422 Pls
6749 3262 Pls
6749 2201 Pls
6749 1616 Pls
6749 1588 Pls
6749 3065 Pls
6749 2113 Pls
6749 1475 Pls
6749 1422 Pls
6749 3656 Pls
6749 1982 Pls
6749 1757 Pls
6749 1712 Pls
1225 3457 Pls
1225 2298 Pls
1225 2016 Pls
1225 1563 Pls
1225 2797 Pls
1225 2241 Pls
1225 2047 Pls
1225 1662 Pls
1225 3410 Pls
1225 1877 Pls
1225 1695 Pls
1225 1553 Pls
1225 2768 Pls
1225 1770 Pls
1225 1458 Pls
1225 1475 Pls
1225 2546 Pls
1225 1645 Pls
1225 1612 Pls
1225 1218 Pls
1225 1686 Pls
1225 1019 Pls
1225 997 Pls
1225 987 Pls
1225 2179 Pls
1225 1194 Pls
1225 1194 Pls
1225 1049 Pls
1225 2376 Pls
1225 1588 Pls
1225 1194 Pls
1225 1090 Pls
1225 2376 Pls
1225 1544 Pls
1225 1391 Pls
1225 1256 Pls
1225 2376 Pls
1225 1763 Pls
1225 1419 Pls
1225 1401 Pls
2606 3515 Pls
2606 2081 Pls
2606 2117 Pls
2606 1644 Pls
2606 3761 Pls
2606 2118 Pls
2606 1845 Pls
2606 1785 Pls
2606 3707 Pls
2606 2568 Pls
2606 2169 Pls
2606 1829 Pls
2606 3084 Pls
2606 1977 Pls
2606 1965 Pls
2606 1553 Pls
2606 2481 Pls
2606 2194 Pls
2606 1546 Pls
2606 1480 Pls
2606 2179 Pls
2606 1413 Pls
2606 969 Pls
2606 966 Pls
2606 2277 Pls
2606 1544 Pls
2606 1278 Pls
2606 1152 Pls
2606 1982 Pls
2606 1544 Pls
2606 1560 Pls
2606 1298 Pls
2606 2966 Pls
2606 1588 Pls
2606 1475 Pls
2606 1339 Pls
2606 3459 Pls
2606 1850 Pls
2606 1532 Pls
2606 1277 Pls
3987 3589 Pls
3987 3080 Pls
3987 2286 Pls
3987 2034 Pls
3987 4138 Pls
3987 2598 Pls
3987 2153 Pls
3987 1907 Pls
3987 3796 Pls
3987 2787 Pls
3987 2221 Pls
3987 1490 Pls
3987 3732 Pls
3987 2130 Pls
3987 1907 Pls
3987 1808 Pls
3987 2953 Pls
3987 1910 Pls
3987 1816 Pls
3987 1573 Pls
3987 2179 Pls
3987 1369 Pls
3987 1335 Pls
3987 1173 Pls
3987 2277 Pls
3987 1413 Pls
3987 1447 Pls
3987 1132 Pls
3987 2868 Pls
3987 2157 Pls
3987 1616 Pls
3987 1256 Pls
3987 3557 Pls
3987 2288 Pls
3987 1475 Pls
3987 1443 Pls
3987 3656 Pls
3987 2551 Pls
3987 1560 Pls
3987 1505 Pls
5368 3705 Pls
5368 2964 Pls
5368 2308 Pls
5368 2131 Pls
5368 3758 Pls
5368 2927 Pls
5368 2015 Pls
5368 1928 Pls
5368 3851 Pls
5368 2931 Pls
5368 2011 Pls
5368 1922 Pls
5368 3719 Pls
5368 2714 Pls
5368 1930 Pls
5368 1669 Pls
5368 2857 Pls
5368 2350 Pls
5368 1810 Pls
5368 1624 Pls
5368 2179 Pls
5368 1500 Pls
5368 1503 Pls
5368 1215 Pls
5368 3262 Pls
5368 1938 Pls
5368 1588 Pls
5368 1235 Pls
5368 3262 Pls
5368 2113 Pls
5368 1588 Pls
5368 1339 Pls
5368 3656 Pls
5368 2069 Pls
5368 1532 Pls
5368 1733 Pls
5368 3262 Pls
5368 2332 Pls
5368 1588 Pls
5368 1671 Pls
6749 4041 Pls
6749 2700 Pls
6749 2368 Pls
6749 1769 Pls
6749 3895 Pls
6749 3157 Pls
6749 2369 Pls
6749 1926 Pls
6749 3703 Pls
6749 2823 Pls
6749 2204 Pls
6749 1989 Pls
6749 3369 Pls
6749 2850 Pls
6749 2053 Pls
6749 1992 Pls
6749 3610 Pls
6749 2092 Pls
6749 1795 Pls
6749 1617 Pls
6749 2770 Pls
6749 1675 Pls
6749 1138 Pls
6749 1298 Pls
6749 2966 Pls
6749 1894 Pls
6749 1757 Pls
6749 1401 Pls
6749 3163 Pls
6749 1807 Pls
6749 1419 Pls
6749 1484 Pls
6749 3360 Pls
6749 2419 Pls
6749 1757 Pls
6749 1422 Pls
6749 3656 Pls
6749 2025 Pls
6749 1841 Pls
6749 1650 Pls
1225 2945 Pls
1225 2463 Pls
1225 1994 Pls
1225 1603 Pls
1225 3087 Pls
1225 2158 Pls
1225 1903 Pls
1225 1706 Pls
1225 3313 Pls
1225 2332 Pls
1225 1959 Pls
1225 1455 Pls
1225 2513 Pls
1225 1991 Pls
1225 1500 Pls
1225 1284 Pls
1225 2244 Pls
1225 1813 Pls
1225 1232 Pls
1225 1291 Pls
1225 1686 Pls
1225 1106 Pls
1225 969 Pls
1225 924 Pls
1225 1982 Pls
1225 1194 Pls
1225 1138 Pls
1225 1152 Pls
1225 2277 Pls
1225 1544 Pls
1225 1109 Pls
1225 1215 Pls
1225 2474 Pls
1225 1456 Pls
1225 1419 Pls
1225 1235 Pls
1225 2277 Pls
1225 1719 Pls
1225 1419 Pls
1225 1173 Pls
2606 3839 Pls
2606 2582 Pls
2606 2056 Pls
2606 1972 Pls
2606 3699 Pls
2606 2607 Pls
2606 2015 Pls
2606 1800 Pls
2606 3059 Pls
2606 2473 Pls
2606 2241 Pls
2606 1423 Pls
2606 3353 Pls
2606 2369 Pls
2606 1803 Pls
2606 1592 Pls
2606 2741 Pls
2606 1852 Pls
2606 1730 Pls
2606 1420 Pls
2606 1982 Pls
2606 1238 Pls
2606 1222 Pls
2606 1028 Pls
2606 2376 Pls
2606 1369 Pls
2606 1363 Pls
2606 1215 Pls
2606 2179 Pls
2606 1850 Pls
2606 1447 Pls
2606 1298 Pls
2606 3065 Pls
2606 1675 Pls
2606 1672 Pls
2606 1318 Pls
2606 2966 Pls
2606 1982 Pls
2606 1560 Pls
2606 1318 Pls
3987 3930 Pls
3987 2484 Pls
3987 2174 Pls
3987 2149 Pls
3987 3753 Pls
3987 2773 Pls
3987 2560 Pls
3987 1789 Pls
3987 3846 Pls
3987 2746 Pls
3987 2207 Pls
3987 1797 Pls
3987 3307 Pls
3987 2546 Pls
3987 1854 Pls
3987 1894 Pls
3987 3281 Pls
3987 2150 Pls
3987 1505 Pls
3987 1574 Pls
3987 1883 Pls
3987 1588 Pls
3987 1335 Pls
3987 1194 Pls
3987 2966 Pls
3987 2069 Pls
3987 1644 Pls
3987 1235 Pls
3987 3557 Pls
3987 2069 Pls
3987 1503 Pls
3987 1298 Pls
3987 3065 Pls
3987 1938 Pls
3987 1503 Pls
3987 1380 Pls
3987 3065 Pls
3987 2157 Pls
3987 1672 Pls
3987 1484 Pls
5368 3929 Pls
5368 2867 Pls
5368 2244 Pls
5368 1930 Pls
5368 3807 Pls
5368 2773 Pls
5368 2382 Pls
5368 2201 Pls
5368 3948 Pls
5368 2352 Pls
5368 2102 Pls
5368 2006 Pls
5368 3522 Pls
5368 2504 Pls
5368 2006 Pls
5368 1623 Pls
5368 3543 Pls
5368 2366 Pls
5368 1828 Pls
5368 1625 Pls
5368 2868 Pls
5368 1456 Pls
5368 1166 Pls
5368 1235 Pls
5368 2966 Pls
5368 1982 Pls
5368 1391 Pls
5368 1339 Pls
5368 3459 Pls
5368 2244 Pls
5368 1447 Pls
5368 1526 Pls
5368 3065 Pls
5368 2244 Pls
5368 1616 Pls
5368 1505 Pls
5368 3459 Pls
5368 2376 Pls
5368 1869 Pls
5368 1443 Pls
6749 4269 Pls
6749 3371 Pls
6749 2532 Pls
6749 2085 Pls
6749 3964 Pls
6749 3071 Pls
6749 2282 Pls
6749 2055 Pls
6749 3686 Pls
6749 3025 Pls
6749 2110 Pls
6749 1963 Pls
6749 3854 Pls
6749 2735 Pls
6749 2099 Pls
6749 1717 Pls
6749 3725 Pls
6749 1976 Pls
6749 2086 Pls
6749 1569 Pls
6749 2376 Pls
6749 1544 Pls
6749 1363 Pls
6749 1318 Pls
6749 3163 Pls
6749 1807 Pls
6749 1560 Pls
6749 1380 Pls
6749 3459 Pls
6749 2463 Pls
6749 1644 Pls
6749 1298 Pls
6749 4050 Pls
6749 1850 Pls
6749 1419 Pls
6749 1484 Pls
6749 2868 Pls
6749 2419 Pls
6749 1757 Pls
6749 1484 Pls
% End plot #1
% Begin plot #2
1.000 UL
LT1
LCb setrgbcolor
2425 4551 M
[ [(Helvetica) 250.0 0.0 true true 0 (Average)]
] -83.3 MRshow
LT1
2575 4551 M
663 0 V
1225 1813 M
1381 271 V
1381 185 V
1381 103 V
1381 96 V
% End plot #2
% Begin plot #3
stroke
LT2
LCb setrgbcolor
2425 4301 M
[ [(Helvetica) 250.0 0.0 true true 0 (Min)]
] -83.3 MRshow
LT2
2575 4301 M
663 0 V
1225 924 M
1381 42 V
1381 59 V
5368 969 L
1381 121 V
% End plot #3
% Begin plot #4
stroke
LT3
LCb setrgbcolor
2425 4051 M
[ [(Helvetica) 250.0 0.0 true true 0 (Max)]
] -83.3 MRshow
LT3
2575 4051 M
663 0 V
1225 3707 M
1381 433 V
1381 205 V
1381 -55 V
1381 351 V
% End plot #4
stroke
LTb
1225 4739 N
0 -3939 V
5524 0 V
0 3939 V
-5524 0 V
Z stroke
1.000 UP
1.000 UL
LTb
stroke
grestore
end
showpage
%%Trailer
%%DocumentFonts: Helvetica
