%!PS-Adobe-2.0 EPSF-2.0
%%Title: n_orig_length.f1.eps
%%Creator: gnuplot 4.4 patchlevel 3
%%CreationDate: Tue Jun  4 13:06:59 2013
%%DocumentFonts: (atend)
%%BoundingBox: 50 50 410 302
%%EndComments
%%BeginProlog
/gnudict 256 dict def
gnudict begin
%
% The following true/false flags may be edited by hand if desired.
% The unit line width and grayscale image gamma correction may also be changed.
%
/Color true def
/Blacktext false def
/Solid false def
/Dashlength 1 def
/Landscape false def
/Level1 false def
/Rounded false def
/ClipToBoundingBox false def
/TransparentPatterns false def
/gnulinewidth 5.000 def
/userlinewidth gnulinewidth def
/Gamma 1.0 def
%
/vshift -83 def
/dl1 {
  10.0 Dashlength mul mul
  Rounded { currentlinewidth 0.75 mul sub dup 0 le { pop 0.01 } if } if
} def
/dl2 {
  10.0 Dashlength mul mul
  Rounded { currentlinewidth 0.75 mul add } if
} def
/hpt_ 31.5 def
/vpt_ 31.5 def
/hpt hpt_ def
/vpt vpt_ def
Level1 {} {
/SDict 10 dict def
systemdict /pdfmark known not {
  userdict /pdfmark systemdict /cleartomark get put
} if
SDict begin [
  /Title (n_orig_length.f1.eps)
  /Subject (gnuplot plot)
  /Creator (gnuplot 4.4 patchlevel 3)
  /Author (xjia)
%  /Producer (gnuplot)
%  /Keywords ()
  /CreationDate (Tue Jun  4 13:06:59 2013)
  /DOCINFO pdfmark
end
} ifelse
/doclip {
  ClipToBoundingBox {
    newpath 50 50 moveto 410 50 lineto 410 302 lineto 50 302 lineto closepath
    clip
  } if
} def
%
% Gnuplot Prolog Version 4.4 (August 2010)
%
%/SuppressPDFMark true def
%
/M {moveto} bind def
/L {lineto} bind def
/R {rmoveto} bind def
/V {rlineto} bind def
/N {newpath moveto} bind def
/Z {closepath} bind def
/C {setrgbcolor} bind def
/f {rlineto fill} bind def
/g {setgray} bind def
/Gshow {show} def   % May be redefined later in the file to support UTF-8
/vpt2 vpt 2 mul def
/hpt2 hpt 2 mul def
/Lshow {currentpoint stroke M 0 vshift R 
	Blacktext {gsave 0 setgray show grestore} {show} ifelse} def
/Rshow {currentpoint stroke M dup stringwidth pop neg vshift R
	Blacktext {gsave 0 setgray show grestore} {show} ifelse} def
/Cshow {currentpoint stroke M dup stringwidth pop -2 div vshift R 
	Blacktext {gsave 0 setgray show grestore} {show} ifelse} def
/UP {dup vpt_ mul /vpt exch def hpt_ mul /hpt exch def
  /hpt2 hpt 2 mul def /vpt2 vpt 2 mul def} def
/DL {Color {setrgbcolor Solid {pop []} if 0 setdash}
 {pop pop pop 0 setgray Solid {pop []} if 0 setdash} ifelse} def
/BL {stroke userlinewidth 2 mul setlinewidth
	Rounded {1 setlinejoin 1 setlinecap} if} def
/AL {stroke userlinewidth 2 div setlinewidth
	Rounded {1 setlinejoin 1 setlinecap} if} def
/UL {dup gnulinewidth mul /userlinewidth exch def
	dup 1 lt {pop 1} if 10 mul /udl exch def} def
/PL {stroke userlinewidth setlinewidth
	Rounded {1 setlinejoin 1 setlinecap} if} def
3.8 setmiterlimit
% Default Line colors
/LCw {1 1 1} def
/LCb {0 0 0} def
/LCa {0 0 0} def
/LC0 {1 0 0} def
/LC1 {0 1 0} def
/LC2 {0 0 1} def
/LC3 {1 0 1} def
/LC4 {0 1 1} def
/LC5 {1 1 0} def
/LC6 {0 0 0} def
/LC7 {1 0.3 0} def
/LC8 {0.5 0.5 0.5} def
% Default Line Types
/LTw {PL [] 1 setgray} def
/LTb {BL [] LCb DL} def
/LTa {AL [1 udl mul 2 udl mul] 0 setdash LCa setrgbcolor} def
/LT0 {PL [] LC0 DL} def
/LT1 {PL [4 dl1 2 dl2] LC1 DL} def
/LT2 {PL [2 dl1 3 dl2] LC2 DL} def
/LT3 {PL [1 dl1 1.5 dl2] LC3 DL} def
/LT4 {PL [6 dl1 2 dl2 1 dl1 2 dl2] LC4 DL} def
/LT5 {PL [3 dl1 3 dl2 1 dl1 3 dl2] LC5 DL} def
/LT6 {PL [2 dl1 2 dl2 2 dl1 6 dl2] LC6 DL} def
/LT7 {PL [1 dl1 2 dl2 6 dl1 2 dl2 1 dl1 2 dl2] LC7 DL} def
/LT8 {PL [2 dl1 2 dl2 2 dl1 2 dl2 2 dl1 2 dl2 2 dl1 4 dl2] LC8 DL} def
/Pnt {stroke [] 0 setdash gsave 1 setlinecap M 0 0 V stroke grestore} def
/Dia {stroke [] 0 setdash 2 copy vpt add M
  hpt neg vpt neg V hpt vpt neg V
  hpt vpt V hpt neg vpt V closepath stroke
  Pnt} def
/Pls {stroke [] 0 setdash vpt sub M 0 vpt2 V
  currentpoint stroke M
  hpt neg vpt neg R hpt2 0 V stroke
 } def
/Box {stroke [] 0 setdash 2 copy exch hpt sub exch vpt add M
  0 vpt2 neg V hpt2 0 V 0 vpt2 V
  hpt2 neg 0 V closepath stroke
  Pnt} def
/Crs {stroke [] 0 setdash exch hpt sub exch vpt add M
  hpt2 vpt2 neg V currentpoint stroke M
  hpt2 neg 0 R hpt2 vpt2 V stroke} def
/TriU {stroke [] 0 setdash 2 copy vpt 1.12 mul add M
  hpt neg vpt -1.62 mul V
  hpt 2 mul 0 V
  hpt neg vpt 1.62 mul V closepath stroke
  Pnt} def
/Star {2 copy Pls Crs} def
/BoxF {stroke [] 0 setdash exch hpt sub exch vpt add M
  0 vpt2 neg V hpt2 0 V 0 vpt2 V
  hpt2 neg 0 V closepath fill} def
/TriUF {stroke [] 0 setdash vpt 1.12 mul add M
  hpt neg vpt -1.62 mul V
  hpt 2 mul 0 V
  hpt neg vpt 1.62 mul V closepath fill} def
/TriD {stroke [] 0 setdash 2 copy vpt 1.12 mul sub M
  hpt neg vpt 1.62 mul V
  hpt 2 mul 0 V
  hpt neg vpt -1.62 mul V closepath stroke
  Pnt} def
/TriDF {stroke [] 0 setdash vpt 1.12 mul sub M
  hpt neg vpt 1.62 mul V
  hpt 2 mul 0 V
  hpt neg vpt -1.62 mul V closepath fill} def
/DiaF {stroke [] 0 setdash vpt add M
  hpt neg vpt neg V hpt vpt neg V
  hpt vpt V hpt neg vpt V closepath fill} def
/Pent {stroke [] 0 setdash 2 copy gsave
  translate 0 hpt M 4 {72 rotate 0 hpt L} repeat
  closepath stroke grestore Pnt} def
/PentF {stroke [] 0 setdash gsave
  translate 0 hpt M 4 {72 rotate 0 hpt L} repeat
  closepath fill grestore} def
/Circle {stroke [] 0 setdash 2 copy
  hpt 0 360 arc stroke Pnt} def
/CircleF {stroke [] 0 setdash hpt 0 360 arc fill} def
/C0 {BL [] 0 setdash 2 copy moveto vpt 90 450 arc} bind def
/C1 {BL [] 0 setdash 2 copy moveto
	2 copy vpt 0 90 arc closepath fill
	vpt 0 360 arc closepath} bind def
/C2 {BL [] 0 setdash 2 copy moveto
	2 copy vpt 90 180 arc closepath fill
	vpt 0 360 arc closepath} bind def
/C3 {BL [] 0 setdash 2 copy moveto
	2 copy vpt 0 180 arc closepath fill
	vpt 0 360 arc closepath} bind def
/C4 {BL [] 0 setdash 2 copy moveto
	2 copy vpt 180 270 arc closepath fill
	vpt 0 360 arc closepath} bind def
/C5 {BL [] 0 setdash 2 copy moveto
	2 copy vpt 0 90 arc
	2 copy moveto
	2 copy vpt 180 270 arc closepath fill
	vpt 0 360 arc} bind def
/C6 {BL [] 0 setdash 2 copy moveto
	2 copy vpt 90 270 arc closepath fill
	vpt 0 360 arc closepath} bind def
/C7 {BL [] 0 setdash 2 copy moveto
	2 copy vpt 0 270 arc closepath fill
	vpt 0 360 arc closepath} bind def
/C8 {BL [] 0 setdash 2 copy moveto
	2 copy vpt 270 360 arc closepath fill
	vpt 0 360 arc closepath} bind def
/C9 {BL [] 0 setdash 2 copy moveto
	2 copy vpt 270 450 arc closepath fill
	vpt 0 360 arc closepath} bind def
/C10 {BL [] 0 setdash 2 copy 2 copy moveto vpt 270 360 arc closepath fill
	2 copy moveto
	2 copy vpt 90 180 arc closepath fill
	vpt 0 360 arc closepath} bind def
/C11 {BL [] 0 setdash 2 copy moveto
	2 copy vpt 0 180 arc closepath fill
	2 copy moveto
	2 copy vpt 270 360 arc closepath fill
	vpt 0 360 arc closepath} bind def
/C12 {BL [] 0 setdash 2 copy moveto
	2 copy vpt 180 360 arc closepath fill
	vpt 0 360 arc closepath} bind def
/C13 {BL [] 0 setdash 2 copy moveto
	2 copy vpt 0 90 arc closepath fill
	2 copy moveto
	2 copy vpt 180 360 arc closepath fill
	vpt 0 360 arc closepath} bind def
/C14 {BL [] 0 setdash 2 copy moveto
	2 copy vpt 90 360 arc closepath fill
	vpt 0 360 arc} bind def
/C15 {BL [] 0 setdash 2 copy vpt 0 360 arc closepath fill
	vpt 0 360 arc closepath} bind def
/Rec {newpath 4 2 roll moveto 1 index 0 rlineto 0 exch rlineto
	neg 0 rlineto closepath} bind def
/Square {dup Rec} bind def
/Bsquare {vpt sub exch vpt sub exch vpt2 Square} bind def
/S0 {BL [] 0 setdash 2 copy moveto 0 vpt rlineto BL Bsquare} bind def
/S1 {BL [] 0 setdash 2 copy vpt Square fill Bsquare} bind def
/S2 {BL [] 0 setdash 2 copy exch vpt sub exch vpt Square fill Bsquare} bind def
/S3 {BL [] 0 setdash 2 copy exch vpt sub exch vpt2 vpt Rec fill Bsquare} bind def
/S4 {BL [] 0 setdash 2 copy exch vpt sub exch vpt sub vpt Square fill Bsquare} bind def
/S5 {BL [] 0 setdash 2 copy 2 copy vpt Square fill
	exch vpt sub exch vpt sub vpt Square fill Bsquare} bind def
/S6 {BL [] 0 setdash 2 copy exch vpt sub exch vpt sub vpt vpt2 Rec fill Bsquare} bind def
/S7 {BL [] 0 setdash 2 copy exch vpt sub exch vpt sub vpt vpt2 Rec fill
	2 copy vpt Square fill Bsquare} bind def
/S8 {BL [] 0 setdash 2 copy vpt sub vpt Square fill Bsquare} bind def
/S9 {BL [] 0 setdash 2 copy vpt sub vpt vpt2 Rec fill Bsquare} bind def
/S10 {BL [] 0 setdash 2 copy vpt sub vpt Square fill 2 copy exch vpt sub exch vpt Square fill
	Bsquare} bind def
/S11 {BL [] 0 setdash 2 copy vpt sub vpt Square fill 2 copy exch vpt sub exch vpt2 vpt Rec fill
	Bsquare} bind def
/S12 {BL [] 0 setdash 2 copy exch vpt sub exch vpt sub vpt2 vpt Rec fill Bsquare} bind def
/S13 {BL [] 0 setdash 2 copy exch vpt sub exch vpt sub vpt2 vpt Rec fill
	2 copy vpt Square fill Bsquare} bind def
/S14 {BL [] 0 setdash 2 copy exch vpt sub exch vpt sub vpt2 vpt Rec fill
	2 copy exch vpt sub exch vpt Square fill Bsquare} bind def
/S15 {BL [] 0 setdash 2 copy Bsquare fill Bsquare} bind def
/D0 {gsave translate 45 rotate 0 0 S0 stroke grestore} bind def
/D1 {gsave translate 45 rotate 0 0 S1 stroke grestore} bind def
/D2 {gsave translate 45 rotate 0 0 S2 stroke grestore} bind def
/D3 {gsave translate 45 rotate 0 0 S3 stroke grestore} bind def
/D4 {gsave translate 45 rotate 0 0 S4 stroke grestore} bind def
/D5 {gsave translate 45 rotate 0 0 S5 stroke grestore} bind def
/D6 {gsave translate 45 rotate 0 0 S6 stroke grestore} bind def
/D7 {gsave translate 45 rotate 0 0 S7 stroke grestore} bind def
/D8 {gsave translate 45 rotate 0 0 S8 stroke grestore} bind def
/D9 {gsave translate 45 rotate 0 0 S9 stroke grestore} bind def
/D10 {gsave translate 45 rotate 0 0 S10 stroke grestore} bind def
/D11 {gsave translate 45 rotate 0 0 S11 stroke grestore} bind def
/D12 {gsave translate 45 rotate 0 0 S12 stroke grestore} bind def
/D13 {gsave translate 45 rotate 0 0 S13 stroke grestore} bind def
/D14 {gsave translate 45 rotate 0 0 S14 stroke grestore} bind def
/D15 {gsave translate 45 rotate 0 0 S15 stroke grestore} bind def
/DiaE {stroke [] 0 setdash vpt add M
  hpt neg vpt neg V hpt vpt neg V
  hpt vpt V hpt neg vpt V closepath stroke} def
/BoxE {stroke [] 0 setdash exch hpt sub exch vpt add M
  0 vpt2 neg V hpt2 0 V 0 vpt2 V
  hpt2 neg 0 V closepath stroke} def
/TriUE {stroke [] 0 setdash vpt 1.12 mul add M
  hpt neg vpt -1.62 mul V
  hpt 2 mul 0 V
  hpt neg vpt 1.62 mul V closepath stroke} def
/TriDE {stroke [] 0 setdash vpt 1.12 mul sub M
  hpt neg vpt 1.62 mul V
  hpt 2 mul 0 V
  hpt neg vpt -1.62 mul V closepath stroke} def
/PentE {stroke [] 0 setdash gsave
  translate 0 hpt M 4 {72 rotate 0 hpt L} repeat
  closepath stroke grestore} def
/CircE {stroke [] 0 setdash 
  hpt 0 360 arc stroke} def
/Opaque {gsave closepath 1 setgray fill grestore 0 setgray closepath} def
/DiaW {stroke [] 0 setdash vpt add M
  hpt neg vpt neg V hpt vpt neg V
  hpt vpt V hpt neg vpt V Opaque stroke} def
/BoxW {stroke [] 0 setdash exch hpt sub exch vpt add M
  0 vpt2 neg V hpt2 0 V 0 vpt2 V
  hpt2 neg 0 V Opaque stroke} def
/TriUW {stroke [] 0 setdash vpt 1.12 mul add M
  hpt neg vpt -1.62 mul V
  hpt 2 mul 0 V
  hpt neg vpt 1.62 mul V Opaque stroke} def
/TriDW {stroke [] 0 setdash vpt 1.12 mul sub M
  hpt neg vpt 1.62 mul V
  hpt 2 mul 0 V
  hpt neg vpt -1.62 mul V Opaque stroke} def
/PentW {stroke [] 0 setdash gsave
  translate 0 hpt M 4 {72 rotate 0 hpt L} repeat
  Opaque stroke grestore} def
/CircW {stroke [] 0 setdash 
  hpt 0 360 arc Opaque stroke} def
/BoxFill {gsave Rec 1 setgray fill grestore} def
/Density {
  /Fillden exch def
  currentrgbcolor
  /ColB exch def /ColG exch def /ColR exch def
  /ColR ColR Fillden mul Fillden sub 1 add def
  /ColG ColG Fillden mul Fillden sub 1 add def
  /ColB ColB Fillden mul Fillden sub 1 add def
  ColR ColG ColB setrgbcolor} def
/BoxColFill {gsave Rec PolyFill} def
/PolyFill {gsave Density fill grestore grestore} def
/h {rlineto rlineto rlineto gsave closepath fill grestore} bind def
%
% PostScript Level 1 Pattern Fill routine for rectangles
% Usage: x y w h s a XX PatternFill
%	x,y = lower left corner of box to be filled
%	w,h = width and height of box
%	  a = angle in degrees between lines and x-axis
%	 XX = 0/1 for no/yes cross-hatch
%
/PatternFill {gsave /PFa [ 9 2 roll ] def
  PFa 0 get PFa 2 get 2 div add PFa 1 get PFa 3 get 2 div add translate
  PFa 2 get -2 div PFa 3 get -2 div PFa 2 get PFa 3 get Rec
  gsave 1 setgray fill grestore clip
  currentlinewidth 0.5 mul setlinewidth
  /PFs PFa 2 get dup mul PFa 3 get dup mul add sqrt def
  0 0 M PFa 5 get rotate PFs -2 div dup translate
  0 1 PFs PFa 4 get div 1 add floor cvi
	{PFa 4 get mul 0 M 0 PFs V} for
  0 PFa 6 get ne {
	0 1 PFs PFa 4 get div 1 add floor cvi
	{PFa 4 get mul 0 2 1 roll M PFs 0 V} for
 } if
  stroke grestore} def
%
/languagelevel where
 {pop languagelevel} {1} ifelse
 2 lt
	{/InterpretLevel1 true def}
	{/InterpretLevel1 Level1 def}
 ifelse
%
% PostScript level 2 pattern fill definitions
%
/Level2PatternFill {
/Tile8x8 {/PaintType 2 /PatternType 1 /TilingType 1 /BBox [0 0 8 8] /XStep 8 /YStep 8}
	bind def
/KeepColor {currentrgbcolor [/Pattern /DeviceRGB] setcolorspace} bind def
<< Tile8x8
 /PaintProc {0.5 setlinewidth pop 0 0 M 8 8 L 0 8 M 8 0 L stroke} 
>> matrix makepattern
/Pat1 exch def
<< Tile8x8
 /PaintProc {0.5 setlinewidth pop 0 0 M 8 8 L 0 8 M 8 0 L stroke
	0 4 M 4 8 L 8 4 L 4 0 L 0 4 L stroke}
>> matrix makepattern
/Pat2 exch def
<< Tile8x8
 /PaintProc {0.5 setlinewidth pop 0 0 M 0 8 L
	8 8 L 8 0 L 0 0 L fill}
>> matrix makepattern
/Pat3 exch def
<< Tile8x8
 /PaintProc {0.5 setlinewidth pop -4 8 M 8 -4 L
	0 12 M 12 0 L stroke}
>> matrix makepattern
/Pat4 exch def
<< Tile8x8
 /PaintProc {0.5 setlinewidth pop -4 0 M 8 12 L
	0 -4 M 12 8 L stroke}
>> matrix makepattern
/Pat5 exch def
<< Tile8x8
 /PaintProc {0.5 setlinewidth pop -2 8 M 4 -4 L
	0 12 M 8 -4 L 4 12 M 10 0 L stroke}
>> matrix makepattern
/Pat6 exch def
<< Tile8x8
 /PaintProc {0.5 setlinewidth pop -2 0 M 4 12 L
	0 -4 M 8 12 L 4 -4 M 10 8 L stroke}
>> matrix makepattern
/Pat7 exch def
<< Tile8x8
 /PaintProc {0.5 setlinewidth pop 8 -2 M -4 4 L
	12 0 M -4 8 L 12 4 M 0 10 L stroke}
>> matrix makepattern
/Pat8 exch def
<< Tile8x8
 /PaintProc {0.5 setlinewidth pop 0 -2 M 12 4 L
	-4 0 M 12 8 L -4 4 M 8 10 L stroke}
>> matrix makepattern
/Pat9 exch def
/Pattern1 {PatternBgnd KeepColor Pat1 setpattern} bind def
/Pattern2 {PatternBgnd KeepColor Pat2 setpattern} bind def
/Pattern3 {PatternBgnd KeepColor Pat3 setpattern} bind def
/Pattern4 {PatternBgnd KeepColor Landscape {Pat5} {Pat4} ifelse setpattern} bind def
/Pattern5 {PatternBgnd KeepColor Landscape {Pat4} {Pat5} ifelse setpattern} bind def
/Pattern6 {PatternBgnd KeepColor Landscape {Pat9} {Pat6} ifelse setpattern} bind def
/Pattern7 {PatternBgnd KeepColor Landscape {Pat8} {Pat7} ifelse setpattern} bind def
} def
%
%
%End of PostScript Level 2 code
%
/PatternBgnd {
  TransparentPatterns {} {gsave 1 setgray fill grestore} ifelse
} def
%
% Substitute for Level 2 pattern fill codes with
% grayscale if Level 2 support is not selected.
%
/Level1PatternFill {
/Pattern1 {0.250 Density} bind def
/Pattern2 {0.500 Density} bind def
/Pattern3 {0.750 Density} bind def
/Pattern4 {0.125 Density} bind def
/Pattern5 {0.375 Density} bind def
/Pattern6 {0.625 Density} bind def
/Pattern7 {0.875 Density} bind def
} def
%
% Now test for support of Level 2 code
%
Level1 {Level1PatternFill} {Level2PatternFill} ifelse
%
/Symbol-Oblique /Symbol findfont [1 0 .167 1 0 0] makefont
dup length dict begin {1 index /FID eq {pop pop} {def} ifelse} forall
currentdict end definefont pop
/MFshow {
   { dup 5 get 3 ge
     { 5 get 3 eq {gsave} {grestore} ifelse }
     {dup dup 0 get findfont exch 1 get scalefont setfont
     [ currentpoint ] exch dup 2 get 0 exch R dup 5 get 2 ne {dup dup 6
     get exch 4 get {Gshow} {stringwidth pop 0 R} ifelse }if dup 5 get 0 eq
     {dup 3 get {2 get neg 0 exch R pop} {pop aload pop M} ifelse} {dup 5
     get 1 eq {dup 2 get exch dup 3 get exch 6 get stringwidth pop -2 div
     dup 0 R} {dup 6 get stringwidth pop -2 div 0 R 6 get
     show 2 index {aload pop M neg 3 -1 roll neg R pop pop} {pop pop pop
     pop aload pop M} ifelse }ifelse }ifelse }
     ifelse }
   forall} def
/Gswidth {dup type /stringtype eq {stringwidth} {pop (n) stringwidth} ifelse} def
/MFwidth {0 exch { dup 5 get 3 ge { 5 get 3 eq { 0 } { pop } ifelse }
 {dup 3 get{dup dup 0 get findfont exch 1 get scalefont setfont
     6 get Gswidth pop add} {pop} ifelse} ifelse} forall} def
/MLshow { currentpoint stroke M
  0 exch R
  Blacktext {gsave 0 setgray MFshow grestore} {MFshow} ifelse } bind def
/MRshow { currentpoint stroke M
  exch dup MFwidth neg 3 -1 roll R
  Blacktext {gsave 0 setgray MFshow grestore} {MFshow} ifelse } bind def
/MCshow { currentpoint stroke M
  exch dup MFwidth -2 div 3 -1 roll R
  Blacktext {gsave 0 setgray MFshow grestore} {MFshow} ifelse } bind def
/XYsave    { [( ) 1 2 true false 3 ()] } bind def
/XYrestore { [( ) 1 2 true false 4 ()] } bind def
end
%%EndProlog
gnudict begin
gsave
doclip
50 50 translate
0.050 0.050 scale
0 setgray
newpath
(Helvetica) findfont 250 scalefont setfont
1.000 UL
LTb
1225 800 M
63 0 V
5461 0 R
-63 0 V
stroke
1075 800 M
[ [(Helvetica) 250.0 0.0 true true 0 ( 0)]
] -83.3 MRshow
1.000 UL
LTb
1225 1194 M
63 0 V
5461 0 R
-63 0 V
stroke
1075 1194 M
[ [(Helvetica) 250.0 0.0 true true 0 ( 0.1)]
] -83.3 MRshow
1.000 UL
LTb
1225 1588 M
63 0 V
5461 0 R
-63 0 V
stroke
1075 1588 M
[ [(Helvetica) 250.0 0.0 true true 0 ( 0.2)]
] -83.3 MRshow
1.000 UL
LTb
1225 1982 M
63 0 V
5461 0 R
-63 0 V
stroke
1075 1982 M
[ [(Helvetica) 250.0 0.0 true true 0 ( 0.3)]
] -83.3 MRshow
1.000 UL
LTb
1225 2376 M
63 0 V
5461 0 R
-63 0 V
stroke
1075 2376 M
[ [(Helvetica) 250.0 0.0 true true 0 ( 0.4)]
] -83.3 MRshow
1.000 UL
LTb
1225 2770 M
63 0 V
5461 0 R
-63 0 V
stroke
1075 2770 M
[ [(Helvetica) 250.0 0.0 true true 0 ( 0.5)]
] -83.3 MRshow
1.000 UL
LTb
1225 3163 M
63 0 V
5461 0 R
-63 0 V
stroke
1075 3163 M
[ [(Helvetica) 250.0 0.0 true true 0 ( 0.6)]
] -83.3 MRshow
1.000 UL
LTb
1225 3557 M
63 0 V
5461 0 R
-63 0 V
stroke
1075 3557 M
[ [(Helvetica) 250.0 0.0 true true 0 ( 0.7)]
] -83.3 MRshow
1.000 UL
LTb
1225 3951 M
63 0 V
5461 0 R
-63 0 V
stroke
1075 3951 M
[ [(Helvetica) 250.0 0.0 true true 0 ( 0.8)]
] -83.3 MRshow
1.000 UL
LTb
1225 4345 M
63 0 V
5461 0 R
-63 0 V
stroke
1075 4345 M
[ [(Helvetica) 250.0 0.0 true true 0 ( 0.9)]
] -83.3 MRshow
1.000 UL
LTb
1225 4739 M
63 0 V
5461 0 R
-63 0 V
stroke
1075 4739 M
[ [(Helvetica) 250.0 0.0 true true 0 ( 1)]
] -83.3 MRshow
1.000 UL
LTb
1225 800 M
0 63 V
0 3876 R
0 -63 V
stroke
1225 550 M
[ [(Helvetica) 250.0 0.0 true true 0 ( 20)]
] -83.3 MCshow
1.000 UL
LTb
1916 800 M
0 63 V
0 3876 R
0 -63 V
stroke
1916 550 M
[ [(Helvetica) 250.0 0.0 true true 0 ( 30)]
] -83.3 MCshow
1.000 UL
LTb
2606 800 M
0 63 V
0 3876 R
0 -63 V
stroke
2606 550 M
[ [(Helvetica) 250.0 0.0 true true 0 ( 40)]
] -83.3 MCshow
1.000 UL
LTb
3297 800 M
0 63 V
0 3876 R
0 -63 V
stroke
3297 550 M
[ [(Helvetica) 250.0 0.0 true true 0 ( 50)]
] -83.3 MCshow
1.000 UL
LTb
3987 800 M
0 63 V
0 3876 R
0 -63 V
stroke
3987 550 M
[ [(Helvetica) 250.0 0.0 true true 0 ( 60)]
] -83.3 MCshow
1.000 UL
LTb
4678 800 M
0 63 V
0 3876 R
0 -63 V
stroke
4678 550 M
[ [(Helvetica) 250.0 0.0 true true 0 ( 70)]
] -83.3 MCshow
1.000 UL
LTb
5368 800 M
0 63 V
0 3876 R
0 -63 V
stroke
5368 550 M
[ [(Helvetica) 250.0 0.0 true true 0 ( 80)]
] -83.3 MCshow
1.000 UL
LTb
6059 800 M
0 63 V
0 3876 R
0 -63 V
stroke
6059 550 M
[ [(Helvetica) 250.0 0.0 true true 0 ( 90)]
] -83.3 MCshow
1.000 UL
LTb
6749 800 M
0 63 V
0 3876 R
0 -63 V
stroke
6749 550 M
[ [(Helvetica) 250.0 0.0 true true 0 ( 100)]
] -83.3 MCshow
1.000 UL
LTb
1.000 UL
LTb
1225 4739 N
0 -3939 V
5524 0 V
0 3939 V
-5524 0 V
Z stroke
LCb setrgbcolor
200 2769 M
currentpoint gsave translate -270 rotate 0 0 moveto
[ [(Helvetica) 250.0 0.0 true true 0 (F1)]
] -83.3 MCshow
grestore
LTb
LCb setrgbcolor
3987 175 M
[ [(Helvetica) 250.0 0.0 true true 0 (Original Length)]
] -83.3 MCshow
LTb
1.000 UP
1.000 UL
LTb
% Begin plot #1
1.000 UP
1.000 UL
LT0
1225 3842 Pls
1225 2973 Pls
1225 2603 Pls
1225 2223 Pls
1225 3782 Pls
1225 2757 Pls
1225 2960 Pls
1225 2276 Pls
1225 3424 Pls
1225 2844 Pls
1225 2252 Pls
1225 2135 Pls
1225 3316 Pls
1225 2551 Pls
1225 2117 Pls
1225 2097 Pls
1225 2985 Pls
1225 2204 Pls
1225 1888 Pls
1225 1426 Pls
1225 1720 Pls
1225 1947 Pls
1225 1480 Pls
1225 1342 Pls
1225 1987 Pls
1225 1640 Pls
1225 2010 Pls
1225 1484 Pls
1225 2722 Pls
1225 1871 Pls
1225 2233 Pls
1225 2139 Pls
1225 2720 Pls
1225 1936 Pls
1225 1912 Pls
1225 2336 Pls
1225 2845 Pls
1225 2347 Pls
1225 2497 Pls
1225 2319 Pls
2606 4122 Pls
2606 3349 Pls
2606 2929 Pls
2606 2599 Pls
2606 4093 Pls
2606 2886 Pls
2606 2576 Pls
2606 2289 Pls
2606 4118 Pls
2606 3182 Pls
2606 2283 Pls
2606 2295 Pls
2606 3514 Pls
2606 2765 Pls
2606 2370 Pls
2606 2168 Pls
2606 3247 Pls
2606 2225 Pls
2606 2004 Pls
2606 1736 Pls
2606 1662 Pls
2606 2088 Pls
2606 1826 Pls
2606 1649 Pls
2606 2191 Pls
2606 2317 Pls
2606 1877 Pls
2606 2083 Pls
2606 2058 Pls
2606 2456 Pls
2606 2321 Pls
2606 2376 Pls
2606 2005 Pls
2606 2479 Pls
2606 2488 Pls
2606 2684 Pls
2606 2159 Pls
2606 2363 Pls
2606 2624 Pls
2606 2786 Pls
3987 4374 Pls
3987 3504 Pls
3987 2772 Pls
3987 2400 Pls
3987 3599 Pls
3987 3201 Pls
3987 2846 Pls
3987 2392 Pls
3987 3804 Pls
3987 3276 Pls
3987 2861 Pls
3987 1856 Pls
3987 3865 Pls
3987 3400 Pls
3987 2725 Pls
3987 1928 Pls
3987 3464 Pls
3987 2751 Pls
3987 2584 Pls
3987 2280 Pls
3987 2267 Pls
3987 1878 Pls
3987 1852 Pls
3987 1931 Pls
3987 1988 Pls
3987 1805 Pls
3987 2177 Pls
3987 2015 Pls
3987 1637 Pls
3987 2268 Pls
3987 2247 Pls
3987 2638 Pls
3987 1824 Pls
3987 1994 Pls
3987 2341 Pls
3987 2281 Pls
3987 1540 Pls
3987 1978 Pls
3987 2386 Pls
3987 2627 Pls
5368 4102 Pls
5368 3476 Pls
5368 2951 Pls
5368 2603 Pls
5368 4194 Pls
5368 3230 Pls
5368 2789 Pls
5368 2413 Pls
5368 3881 Pls
5368 3352 Pls
5368 2726 Pls
5368 2695 Pls
5368 4045 Pls
5368 3392 Pls
5368 2743 Pls
5368 2251 Pls
5368 3673 Pls
5368 2756 Pls
5368 2155 Pls
5368 2417 Pls
5368 1878 Pls
5368 1874 Pls
5368 1789 Pls
5368 1720 Pls
5368 1650 Pls
5368 1917 Pls
5368 1977 Pls
5368 2050 Pls
5368 1473 Pls
5368 1749 Pls
5368 2178 Pls
5368 2078 Pls
5368 1385 Pls
5368 1722 Pls
5368 2040 Pls
5368 2128 Pls
5368 1351 Pls
5368 1757 Pls
5368 1870 Pls
5368 2392 Pls
6749 3965 Pls
6749 3298 Pls
6749 2955 Pls
6749 2420 Pls
6749 3944 Pls
6749 3490 Pls
6749 3089 Pls
6749 2525 Pls
6749 4124 Pls
6749 3503 Pls
6749 2936 Pls
6749 2313 Pls
6749 4052 Pls
6749 2610 Pls
6749 2906 Pls
6749 2372 Pls
6749 3823 Pls
6749 3116 Pls
6749 2455 Pls
6749 1874 Pls
6749 1440 Pls
6749 1941 Pls
6749 1594 Pls
6749 1915 Pls
6749 1473 Pls
6749 1734 Pls
6749 1877 Pls
6749 2002 Pls
6749 1415 Pls
6749 1631 Pls
6749 1938 Pls
6749 1866 Pls
6749 1173 Pls
6749 1645 Pls
6749 1769 Pls
6749 2028 Pls
6749 1244 Pls
6749 1556 Pls
6749 1766 Pls
6749 1977 Pls
1225 3576 Pls
1225 3074 Pls
1225 2687 Pls
1225 1943 Pls
1225 3561 Pls
1225 2881 Pls
1225 2677 Pls
1225 2296 Pls
1225 3729 Pls
1225 2947 Pls
1225 2261 Pls
1225 2296 Pls
1225 3023 Pls
1225 2816 Pls
1225 2043 Pls
1225 1916 Pls
1225 3081 Pls
1225 2283 Pls
1225 2035 Pls
1225 1447 Pls
1225 2051 Pls
1225 1545 Pls
1225 1583 Pls
1225 1427 Pls
1225 1962 Pls
1225 1828 Pls
1225 1670 Pls
1225 1593 Pls
1225 2572 Pls
1225 2062 Pls
1225 1953 Pls
1225 1632 Pls
1225 2855 Pls
1225 1998 Pls
1225 1609 Pls
1225 1679 Pls
1225 2806 Pls
1225 2171 Pls
1225 1910 Pls
1225 2151 Pls
2606 4279 Pls
2606 3086 Pls
2606 2474 Pls
2606 2569 Pls
2606 4073 Pls
2606 3282 Pls
2606 2717 Pls
2606 2136 Pls
2606 3925 Pls
2606 3153 Pls
2606 2305 Pls
2606 2202 Pls
2606 3732 Pls
2606 3123 Pls
2606 2219 Pls
2606 1869 Pls
2606 3441 Pls
2606 2548 Pls
2606 2052 Pls
2606 1965 Pls
2606 2582 Pls
2606 1569 Pls
2606 1543 Pls
2606 1467 Pls
2606 2663 Pls
2606 1951 Pls
2606 1980 Pls
2606 1936 Pls
2606 2442 Pls
2606 2182 Pls
2606 1971 Pls
2606 2109 Pls
2606 2557 Pls
2606 2556 Pls
2606 2257 Pls
2606 2242 Pls
2606 2332 Pls
2606 2160 Pls
2606 2033 Pls
2606 2241 Pls
3987 4270 Pls
3987 3575 Pls
3987 2698 Pls
3987 2549 Pls
3987 4066 Pls
3987 3174 Pls
3987 2671 Pls
3987 2427 Pls
3987 4025 Pls
3987 3445 Pls
3987 2559 Pls
3987 2609 Pls
3987 3777 Pls
3987 3182 Pls
3987 2800 Pls
3987 2480 Pls
3987 3358 Pls
3987 2953 Pls
3987 2245 Pls
3987 1944 Pls
3987 2324 Pls
3987 1898 Pls
3987 2046 Pls
3987 1557 Pls
3987 2499 Pls
3987 2290 Pls
3987 2066 Pls
3987 2108 Pls
3987 1718 Pls
3987 2302 Pls
3987 2137 Pls
3987 2251 Pls
3987 2018 Pls
3987 2337 Pls
3987 1937 Pls
3987 2386 Pls
3987 1912 Pls
3987 2152 Pls
3987 2505 Pls
3987 2431 Pls
5368 3962 Pls
5368 3524 Pls
5368 2834 Pls
5368 2687 Pls
5368 4174 Pls
5368 3513 Pls
5368 2805 Pls
5368 2685 Pls
5368 4168 Pls
5368 3283 Pls
5368 2835 Pls
5368 2457 Pls
5368 4091 Pls
5368 3261 Pls
5368 2945 Pls
5368 2424 Pls
5368 3612 Pls
5368 2738 Pls
5368 2318 Pls
5368 1819 Pls
5368 1535 Pls
5368 1792 Pls
5368 1483 Pls
5368 1449 Pls
5368 1791 Pls
5368 1997 Pls
5368 1800 Pls
5368 2097 Pls
5368 1495 Pls
5368 1704 Pls
5368 1988 Pls
5368 1959 Pls
5368 1782 Pls
5368 1891 Pls
5368 2033 Pls
5368 2396 Pls
5368 1573 Pls
5368 1580 Pls
5368 2178 Pls
5368 2154 Pls
6749 4253 Pls
6749 3665 Pls
6749 2918 Pls
6749 2842 Pls
6749 4128 Pls
6749 3418 Pls
6749 2931 Pls
6749 2468 Pls
6749 4085 Pls
6749 3373 Pls
6749 3083 Pls
6749 2467 Pls
6749 4151 Pls
6749 2984 Pls
6749 2765 Pls
6749 2834 Pls
6749 3353 Pls
6749 3211 Pls
6749 2313 Pls
6749 2200 Pls
6749 1855 Pls
6749 1817 Pls
6749 1623 Pls
6749 2098 Pls
6749 1697 Pls
6749 2037 Pls
6749 1789 Pls
6749 2341 Pls
6749 1553 Pls
6749 1857 Pls
6749 1932 Pls
6749 1877 Pls
6749 1312 Pls
6749 1761 Pls
6749 1878 Pls
6749 2033 Pls
6749 1419 Pls
6749 1557 Pls
6749 1850 Pls
6749 2106 Pls
1225 3872 Pls
1225 2822 Pls
1225 2391 Pls
1225 2117 Pls
1225 3566 Pls
1225 2478 Pls
1225 2607 Pls
1225 2233 Pls
1225 3505 Pls
1225 2653 Pls
1225 2016 Pls
1225 1977 Pls
1225 3580 Pls
1225 2550 Pls
1225 2008 Pls
1225 1843 Pls
1225 2893 Pls
1225 2085 Pls
1225 1712 Pls
1225 1719 Pls
1225 1858 Pls
1225 1476 Pls
1225 1466 Pls
1225 1280 Pls
1225 2813 Pls
1225 1958 Pls
1225 1490 Pls
1225 1509 Pls
1225 2278 Pls
1225 2206 Pls
1225 1826 Pls
1225 1634 Pls
1225 2875 Pls
1225 1778 Pls
1225 1942 Pls
1225 1989 Pls
1225 2800 Pls
1225 2573 Pls
1225 2093 Pls
1225 1984 Pls
2606 4122 Pls
2606 3143 Pls
2606 2832 Pls
2606 2641 Pls
2606 3879 Pls
2606 3000 Pls
2606 2444 Pls
2606 2264 Pls
2606 4042 Pls
2606 3029 Pls
2606 2812 Pls
2606 2172 Pls
2606 3343 Pls
2606 2906 Pls
2606 2299 Pls
2606 2047 Pls
2606 3610 Pls
2606 2520 Pls
2606 1966 Pls
2606 1809 Pls
2606 1997 Pls
2606 1798 Pls
2606 1582 Pls
2606 1551 Pls
2606 2813 Pls
2606 2377 Pls
2606 1724 Pls
2606 1781 Pls
2606 2394 Pls
2606 2256 Pls
2606 2030 Pls
2606 1755 Pls
2606 2611 Pls
2606 2542 Pls
2606 2083 Pls
2606 2395 Pls
2606 2397 Pls
2606 2599 Pls
2606 2399 Pls
2606 2233 Pls
3987 4395 Pls
3987 3373 Pls
3987 2908 Pls
3987 2702 Pls
3987 4084 Pls
3987 3422 Pls
3987 3036 Pls
3987 2395 Pls
3987 4202 Pls
3987 3114 Pls
3987 2826 Pls
3987 2145 Pls
3987 3964 Pls
3987 3280 Pls
3987 2626 Pls
3987 2256 Pls
3987 3518 Pls
3987 2587 Pls
3987 2262 Pls
3987 2062 Pls
3987 2654 Pls
3987 1675 Pls
3987 1750 Pls
3987 1405 Pls
3987 2313 Pls
3987 1640 Pls
3987 1813 Pls
3987 1803 Pls
3987 2306 Pls
3987 1930 Pls
3987 1992 Pls
3987 2161 Pls
3987 2157 Pls
3987 2204 Pls
3987 2355 Pls
3987 2090 Pls
3987 1989 Pls
3987 1935 Pls
3987 2306 Pls
3987 2238 Pls
5368 4331 Pls
5368 3322 Pls
5368 3078 Pls
5368 2653 Pls
5368 4038 Pls
5368 3590 Pls
5368 2678 Pls
5368 2513 Pls
5368 4144 Pls
5368 3335 Pls
5368 2915 Pls
5368 2565 Pls
5368 3776 Pls
5368 3030 Pls
5368 2662 Pls
5368 1984 Pls
5368 3926 Pls
5368 2895 Pls
5368 2298 Pls
5368 2076 Pls
5368 2062 Pls
5368 1935 Pls
5368 1941 Pls
5368 1523 Pls
5368 2004 Pls
5368 1762 Pls
5368 2161 Pls
5368 1845 Pls
5368 2124 Pls
5368 2332 Pls
5368 2102 Pls
5368 1880 Pls
5368 1870 Pls
5368 1994 Pls
5368 2159 Pls
5368 1997 Pls
5368 1942 Pls
5368 2223 Pls
5368 2134 Pls
5368 2133 Pls
6749 4197 Pls
6749 3604 Pls
6749 2840 Pls
6749 2795 Pls
6749 4463 Pls
6749 3647 Pls
6749 2841 Pls
6749 2862 Pls
6749 4020 Pls
6749 3353 Pls
6749 2876 Pls
6749 2875 Pls
6749 3719 Pls
6749 3406 Pls
6749 2661 Pls
6749 2660 Pls
6749 3409 Pls
6749 2807 Pls
6749 2434 Pls
6749 2077 Pls
6749 1680 Pls
6749 2042 Pls
6749 1406 Pls
6749 1638 Pls
6749 1676 Pls
6749 1817 Pls
6749 2195 Pls
6749 1786 Pls
6749 1610 Pls
6749 1881 Pls
6749 1874 Pls
6749 1929 Pls
6749 1614 Pls
6749 1959 Pls
6749 1917 Pls
6749 2017 Pls
6749 1577 Pls
6749 1680 Pls
6749 1908 Pls
6749 1960 Pls
1225 4096 Pls
1225 2643 Pls
1225 2495 Pls
1225 2316 Pls
1225 3724 Pls
1225 2525 Pls
1225 2447 Pls
1225 1721 Pls
1225 3725 Pls
1225 2661 Pls
1225 2374 Pls
1225 2046 Pls
1225 2990 Pls
1225 2301 Pls
1225 2257 Pls
1225 1871 Pls
1225 3246 Pls
1225 2324 Pls
1225 1703 Pls
1225 1420 Pls
1225 2278 Pls
1225 1705 Pls
1225 1493 Pls
1225 1111 Pls
1225 1982 Pls
1225 1537 Pls
1225 1641 Pls
1225 1111 Pls
1225 2783 Pls
1225 2156 Pls
1225 1704 Pls
1225 1672 Pls
1225 2726 Pls
1225 2639 Pls
1225 1894 Pls
1225 1594 Pls
1225 2943 Pls
1225 1889 Pls
1225 1742 Pls
1225 1783 Pls
2606 3926 Pls
2606 3307 Pls
2606 3059 Pls
2606 2343 Pls
2606 3597 Pls
2606 3026 Pls
2606 2865 Pls
2606 2487 Pls
2606 3737 Pls
2606 3205 Pls
2606 2516 Pls
2606 2347 Pls
2606 3617 Pls
2606 2763 Pls
2606 2532 Pls
2606 2399 Pls
2606 3471 Pls
2606 2433 Pls
2606 1811 Pls
2606 1828 Pls
2606 2595 Pls
2606 1640 Pls
2606 1424 Pls
2606 1348 Pls
2606 2356 Pls
2606 2012 Pls
2606 1792 Pls
2606 1947 Pls
2606 2404 Pls
2606 2542 Pls
2606 2123 Pls
2606 1671 Pls
2606 2672 Pls
2606 2349 Pls
2606 2306 Pls
2606 1926 Pls
2606 3100 Pls
2606 2595 Pls
2606 2259 Pls
2606 2146 Pls
3987 4227 Pls
3987 3364 Pls
3987 2655 Pls
3987 2494 Pls
3987 3968 Pls
3987 3257 Pls
3987 2592 Pls
3987 2479 Pls
3987 4005 Pls
3987 3224 Pls
3987 2350 Pls
3987 2460 Pls
3987 4147 Pls
3987 3008 Pls
3987 2606 Pls
3987 2003 Pls
3987 3934 Pls
3987 2436 Pls
3987 2241 Pls
3987 1805 Pls
3987 2172 Pls
3987 2115 Pls
3987 1991 Pls
3987 1459 Pls
3987 1777 Pls
3987 2297 Pls
3987 1793 Pls
3987 1982 Pls
3987 2531 Pls
3987 1936 Pls
3987 2186 Pls
3987 1998 Pls
3987 2372 Pls
3987 2856 Pls
3987 2083 Pls
3987 1714 Pls
3987 2155 Pls
3987 1899 Pls
3987 2172 Pls
3987 2276 Pls
5368 4141 Pls
5368 3606 Pls
5368 2659 Pls
5368 2652 Pls
5368 4292 Pls
5368 3614 Pls
5368 2872 Pls
5368 2835 Pls
5368 4088 Pls
5368 3443 Pls
5368 3128 Pls
5368 2358 Pls
5368 4144 Pls
5368 3398 Pls
5368 2795 Pls
5368 2245 Pls
5368 3750 Pls
5368 3179 Pls
5368 2606 Pls
5368 2422 Pls
5368 2233 Pls
5368 1716 Pls
5368 1641 Pls
5368 1571 Pls
5368 2200 Pls
5368 1870 Pls
5368 1779 Pls
5368 1966 Pls
5368 2147 Pls
5368 2273 Pls
5368 1983 Pls
5368 2056 Pls
5368 1812 Pls
5368 1981 Pls
5368 2108 Pls
5368 1800 Pls
5368 2085 Pls
5368 2471 Pls
5368 2084 Pls
5368 2019 Pls
6749 4335 Pls
6749 3132 Pls
6749 3262 Pls
6749 2469 Pls
6749 4121 Pls
6749 3549 Pls
6749 3279 Pls
6749 2291 Pls
6749 3964 Pls
6749 3487 Pls
6749 2855 Pls
6749 2556 Pls
6749 4066 Pls
6749 3097 Pls
6749 2810 Pls
6749 2364 Pls
6749 3815 Pls
6749 2720 Pls
6749 2208 Pls
6749 2175 Pls
6749 2382 Pls
6749 2038 Pls
6749 1641 Pls
6749 1732 Pls
6749 1867 Pls
6749 2012 Pls
6749 2183 Pls
6749 1594 Pls
6749 1821 Pls
6749 1816 Pls
6749 2000 Pls
6749 2006 Pls
6749 1637 Pls
6749 2103 Pls
6749 2133 Pls
6749 1918 Pls
6749 1587 Pls
6749 1918 Pls
6749 2207 Pls
6749 1872 Pls
1225 3613 Pls
1225 2862 Pls
1225 2633 Pls
1225 1942 Pls
1225 3781 Pls
1225 2878 Pls
1225 2326 Pls
1225 2212 Pls
1225 3071 Pls
1225 3137 Pls
1225 2443 Pls
1225 2023 Pls
1225 3728 Pls
1225 2608 Pls
1225 2036 Pls
1225 1453 Pls
1225 2657 Pls
1225 2324 Pls
1225 1855 Pls
1225 1726 Pls
1225 1588 Pls
1225 1308 Pls
1225 1307 Pls
1225 1284 Pls
1225 2192 Pls
1225 1794 Pls
1225 1536 Pls
1225 1454 Pls
1225 3516 Pls
1225 1742 Pls
1225 1392 Pls
1225 1567 Pls
1225 2988 Pls
1225 1915 Pls
1225 1732 Pls
1225 1649 Pls
1225 3086 Pls
1225 2479 Pls
1225 1929 Pls
1225 1528 Pls
2606 3958 Pls
2606 3302 Pls
2606 2719 Pls
2606 2367 Pls
2606 3887 Pls
2606 2847 Pls
2606 2773 Pls
2606 2302 Pls
2606 3987 Pls
2606 2939 Pls
2606 2628 Pls
2606 2187 Pls
2606 3788 Pls
2606 2889 Pls
2606 2360 Pls
2606 2183 Pls
2606 3133 Pls
2606 2583 Pls
2606 2159 Pls
2606 1921 Pls
2606 2601 Pls
2606 1707 Pls
2606 1294 Pls
2606 1422 Pls
2606 2624 Pls
2606 2708 Pls
2606 1930 Pls
2606 1723 Pls
2606 2535 Pls
2606 2210 Pls
2606 1701 Pls
2606 1710 Pls
2606 3040 Pls
2606 2606 Pls
2606 2147 Pls
2606 1771 Pls
2606 3026 Pls
2606 2402 Pls
2606 2165 Pls
2606 2138 Pls
3987 4007 Pls
3987 3345 Pls
3987 3099 Pls
3987 2675 Pls
3987 4245 Pls
3987 3256 Pls
3987 2736 Pls
3987 2734 Pls
3987 4367 Pls
3987 3429 Pls
3987 2546 Pls
3987 2511 Pls
3987 3613 Pls
3987 2988 Pls
3987 2977 Pls
3987 2409 Pls
3987 3231 Pls
3987 2482 Pls
3987 2162 Pls
3987 1961 Pls
3987 2746 Pls
3987 2179 Pls
3987 1563 Pls
3987 1465 Pls
3987 3085 Pls
3987 2198 Pls
3987 1640 Pls
3987 1871 Pls
3987 2000 Pls
3987 2426 Pls
3987 1894 Pls
3987 1939 Pls
3987 2687 Pls
3987 2398 Pls
3987 2158 Pls
3987 2238 Pls
3987 2704 Pls
3987 2519 Pls
3987 2444 Pls
3987 1939 Pls
5368 4367 Pls
5368 3679 Pls
5368 2979 Pls
5368 2450 Pls
5368 3948 Pls
5368 3639 Pls
5368 2864 Pls
5368 2545 Pls
5368 4187 Pls
5368 3302 Pls
5368 2622 Pls
5368 2283 Pls
5368 4216 Pls
5368 3176 Pls
5368 2822 Pls
5368 2521 Pls
5368 4078 Pls
5368 2882 Pls
5368 2388 Pls
5368 2232 Pls
5368 2751 Pls
5368 1941 Pls
5368 1784 Pls
5368 1404 Pls
5368 2299 Pls
5368 2333 Pls
5368 1720 Pls
5368 1698 Pls
5368 2088 Pls
5368 2294 Pls
5368 1993 Pls
5368 2114 Pls
5368 2283 Pls
5368 2053 Pls
5368 2141 Pls
5368 2109 Pls
5368 1972 Pls
5368 2269 Pls
5368 1984 Pls
5368 2098 Pls
6749 3911 Pls
6749 3114 Pls
6749 2889 Pls
6749 2585 Pls
6749 4253 Pls
6749 3225 Pls
6749 3073 Pls
6749 2290 Pls
6749 4229 Pls
6749 3116 Pls
6749 3070 Pls
6749 2599 Pls
6749 4407 Pls
6749 3492 Pls
6749 2726 Pls
6749 2190 Pls
6749 3992 Pls
6749 2710 Pls
6749 2459 Pls
6749 2047 Pls
6749 2245 Pls
6749 2405 Pls
6749 1636 Pls
6749 1551 Pls
6749 1787 Pls
6749 2110 Pls
6749 1795 Pls
6749 1951 Pls
6749 2022 Pls
6749 2021 Pls
6749 1919 Pls
6749 1997 Pls
6749 1769 Pls
6749 2021 Pls
6749 1885 Pls
6749 1831 Pls
6749 1605 Pls
6749 2041 Pls
6749 2119 Pls
6749 2175 Pls
1225 3621 Pls
1225 2812 Pls
1225 2421 Pls
1225 2228 Pls
1225 3949 Pls
1225 2862 Pls
1225 2229 Pls
1225 2214 Pls
1225 4082 Pls
1225 2875 Pls
1225 2139 Pls
1225 2141 Pls
1225 3568 Pls
1225 2717 Pls
1225 2003 Pls
1225 1632 Pls
1225 3088 Pls
1225 2316 Pls
1225 1779 Pls
1225 1726 Pls
1225 2271 Pls
1225 1387 Pls
1225 1371 Pls
1225 1320 Pls
1225 2376 Pls
1225 1534 Pls
1225 1490 Pls
1225 1436 Pls
1225 3454 Pls
1225 2358 Pls
1225 1706 Pls
1225 2106 Pls
1225 3610 Pls
1225 2172 Pls
1225 1652 Pls
1225 1616 Pls
1225 3253 Pls
1225 2367 Pls
1225 1899 Pls
1225 1916 Pls
2606 4177 Pls
2606 3387 Pls
2606 2854 Pls
2606 2599 Pls
2606 3898 Pls
2606 2853 Pls
2606 2828 Pls
2606 2452 Pls
2606 4039 Pls
2606 3356 Pls
2606 2535 Pls
2606 2451 Pls
2606 3553 Pls
2606 3077 Pls
2606 2648 Pls
2606 2024 Pls
2606 3614 Pls
2606 2232 Pls
2606 2176 Pls
2606 2011 Pls
2606 2728 Pls
2606 1963 Pls
2606 1570 Pls
2606 1305 Pls
2606 3189 Pls
2606 1828 Pls
2606 1683 Pls
2606 1514 Pls
2606 3005 Pls
2606 2394 Pls
2606 1927 Pls
2606 1935 Pls
2606 2773 Pls
2606 2397 Pls
2606 2271 Pls
2606 2049 Pls
2606 2670 Pls
2606 2394 Pls
2606 2072 Pls
2606 2224 Pls
3987 4063 Pls
3987 3660 Pls
3987 2822 Pls
3987 2842 Pls
3987 4387 Pls
3987 3291 Pls
3987 2778 Pls
3987 2501 Pls
3987 4326 Pls
3987 3191 Pls
3987 2658 Pls
3987 2460 Pls
3987 3607 Pls
3987 3198 Pls
3987 2476 Pls
3987 2259 Pls
3987 3448 Pls
3987 2478 Pls
3987 1940 Pls
3987 2086 Pls
3987 2676 Pls
3987 1725 Pls
3987 1557 Pls
3987 1523 Pls
3987 2894 Pls
3987 2329 Pls
3987 1806 Pls
3987 1533 Pls
3987 3624 Pls
3987 2077 Pls
3987 2191 Pls
3987 1832 Pls
3987 2427 Pls
3987 2626 Pls
3987 2405 Pls
3987 2027 Pls
3987 2464 Pls
3987 2229 Pls
3987 1861 Pls
3987 2027 Pls
5368 4162 Pls
5368 3608 Pls
5368 2706 Pls
5368 2634 Pls
5368 4216 Pls
5368 3320 Pls
5368 2768 Pls
5368 2409 Pls
5368 4176 Pls
5368 3215 Pls
5368 2944 Pls
5368 2604 Pls
5368 3882 Pls
5368 3503 Pls
5368 2367 Pls
5368 2335 Pls
5368 3705 Pls
5368 2914 Pls
5368 2898 Pls
5368 2117 Pls
5368 2455 Pls
5368 1904 Pls
5368 1668 Pls
5368 1538 Pls
5368 2298 Pls
5368 1972 Pls
5368 1743 Pls
5368 1801 Pls
5368 2472 Pls
5368 2205 Pls
5368 1995 Pls
5368 1803 Pls
5368 2837 Pls
5368 2188 Pls
5368 2277 Pls
5368 1958 Pls
5368 2268 Pls
5368 2334 Pls
5368 2118 Pls
5368 1882 Pls
6749 4335 Pls
6749 3436 Pls
6749 3111 Pls
6749 2607 Pls
6749 4052 Pls
6749 3411 Pls
6749 3064 Pls
6749 2870 Pls
6749 4174 Pls
6749 3429 Pls
6749 3021 Pls
6749 2451 Pls
6749 4101 Pls
6749 3211 Pls
6749 2809 Pls
6749 2762 Pls
6749 3377 Pls
6749 2963 Pls
6749 2487 Pls
6749 2141 Pls
6749 2281 Pls
6749 2093 Pls
6749 1518 Pls
6749 1554 Pls
6749 2075 Pls
6749 2025 Pls
6749 1768 Pls
6749 1886 Pls
6749 2416 Pls
6749 2231 Pls
6749 2159 Pls
6749 2318 Pls
6749 2072 Pls
6749 2258 Pls
6749 1650 Pls
6749 2106 Pls
6749 2095 Pls
6749 2246 Pls
6749 2107 Pls
6749 2237 Pls
1225 3450 Pls
1225 2666 Pls
1225 2906 Pls
1225 2129 Pls
1225 3716 Pls
1225 2520 Pls
1225 2777 Pls
1225 2107 Pls
1225 3711 Pls
1225 2829 Pls
1225 2550 Pls
1225 1880 Pls
1225 3174 Pls
1225 2279 Pls
1225 2259 Pls
1225 1913 Pls
1225 3272 Pls
1225 2376 Pls
1225 1713 Pls
1225 1603 Pls
1225 2181 Pls
1225 1036 Pls
1225 1168 Pls
1225 1254 Pls
1225 2290 Pls
1225 1545 Pls
1225 1714 Pls
1225 1384 Pls
1225 2961 Pls
1225 2188 Pls
1225 1577 Pls
1225 1521 Pls
1225 2608 Pls
1225 2117 Pls
1225 1773 Pls
1225 1485 Pls
1225 3782 Pls
1225 2584 Pls
1225 1823 Pls
1225 1796 Pls
2606 3970 Pls
2606 3423 Pls
2606 2457 Pls
2606 2371 Pls
2606 3938 Pls
2606 2979 Pls
2606 2850 Pls
2606 2355 Pls
2606 3264 Pls
2606 2996 Pls
2606 2699 Pls
2606 2199 Pls
2606 4022 Pls
2606 2663 Pls
2606 2214 Pls
2606 2294 Pls
2606 3485 Pls
2606 2693 Pls
2606 2144 Pls
2606 1735 Pls
2606 2341 Pls
2606 1632 Pls
2606 1544 Pls
2606 1283 Pls
2606 3261 Pls
2606 2015 Pls
2606 1679 Pls
2606 1766 Pls
2606 2528 Pls
2606 2006 Pls
2606 1971 Pls
2606 1641 Pls
2606 3023 Pls
2606 2201 Pls
2606 1998 Pls
2606 1792 Pls
2606 3458 Pls
2606 2428 Pls
2606 2227 Pls
2606 2167 Pls
3987 4116 Pls
3987 3563 Pls
3987 2968 Pls
3987 2766 Pls
3987 3855 Pls
3987 3359 Pls
3987 2908 Pls
3987 2541 Pls
3987 3419 Pls
3987 3430 Pls
3987 2996 Pls
3987 2362 Pls
3987 4160 Pls
3987 3282 Pls
3987 2529 Pls
3987 2376 Pls
3987 3756 Pls
3987 2633 Pls
3987 2463 Pls
3987 1889 Pls
3987 2436 Pls
3987 1624 Pls
3987 1696 Pls
3987 1454 Pls
3987 2735 Pls
3987 2446 Pls
3987 1849 Pls
3987 1684 Pls
3987 3146 Pls
3987 2462 Pls
3987 2139 Pls
3987 2168 Pls
3987 2947 Pls
3987 2212 Pls
3987 2004 Pls
3987 1784 Pls
3987 2575 Pls
3987 2161 Pls
3987 2173 Pls
3987 2071 Pls
5368 4198 Pls
5368 3408 Pls
5368 3124 Pls
5368 2464 Pls
5368 4298 Pls
5368 3344 Pls
5368 3102 Pls
5368 2772 Pls
5368 4049 Pls
5368 3225 Pls
5368 2516 Pls
5368 2545 Pls
5368 4129 Pls
5368 2866 Pls
5368 2270 Pls
5368 2313 Pls
5368 3746 Pls
5368 2715 Pls
5368 2619 Pls
5368 2286 Pls
5368 2375 Pls
5368 2369 Pls
5368 1736 Pls
5368 1465 Pls
5368 2838 Pls
5368 1692 Pls
5368 2116 Pls
5368 2024 Pls
5368 2352 Pls
5368 2120 Pls
5368 2319 Pls
5368 2168 Pls
5368 2364 Pls
5368 2325 Pls
5368 1979 Pls
5368 2241 Pls
5368 2489 Pls
5368 2326 Pls
5368 2124 Pls
5368 2277 Pls
6749 4378 Pls
6749 3887 Pls
6749 3065 Pls
6749 2684 Pls
6749 3902 Pls
6749 3468 Pls
6749 3268 Pls
6749 2571 Pls
6749 3856 Pls
6749 3573 Pls
6749 2701 Pls
6749 2916 Pls
6749 3887 Pls
6749 3159 Pls
6749 2900 Pls
6749 2007 Pls
6749 3937 Pls
6749 2925 Pls
6749 2664 Pls
6749 2171 Pls
6749 2929 Pls
6749 1902 Pls
6749 1772 Pls
6749 1504 Pls
6749 2127 Pls
6749 2008 Pls
6749 1573 Pls
6749 1866 Pls
6749 2260 Pls
6749 2316 Pls
6749 2045 Pls
6749 1986 Pls
6749 2108 Pls
6749 2278 Pls
6749 1821 Pls
6749 2070 Pls
6749 1841 Pls
6749 2124 Pls
6749 2052 Pls
6749 2239 Pls
1225 3621 Pls
1225 2899 Pls
1225 2566 Pls
1225 2108 Pls
1225 3304 Pls
1225 3139 Pls
1225 2342 Pls
1225 2230 Pls
1225 3844 Pls
1225 2505 Pls
1225 1996 Pls
1225 2030 Pls
1225 3570 Pls
1225 2719 Pls
1225 2078 Pls
1225 2042 Pls
1225 2972 Pls
1225 2125 Pls
1225 1810 Pls
1225 1453 Pls
1225 2376 Pls
1225 1652 Pls
1225 1330 Pls
1225 1147 Pls
1225 2398 Pls
1225 1552 Pls
1225 1500 Pls
1225 1355 Pls
1225 3141 Pls
1225 2082 Pls
1225 1636 Pls
1225 1394 Pls
1225 2806 Pls
1225 1945 Pls
1225 1835 Pls
1225 1463 Pls
1225 2526 Pls
1225 2262 Pls
1225 2045 Pls
1225 1758 Pls
2606 3895 Pls
2606 3271 Pls
2606 2941 Pls
2606 2503 Pls
2606 4201 Pls
2606 3217 Pls
2606 2920 Pls
2606 2378 Pls
2606 3941 Pls
2606 3104 Pls
2606 2698 Pls
2606 2322 Pls
2606 3777 Pls
2606 2954 Pls
2606 2346 Pls
2606 1918 Pls
2606 3471 Pls
2606 2781 Pls
2606 1906 Pls
2606 1967 Pls
2606 2152 Pls
2606 1545 Pls
2606 1794 Pls
2606 1383 Pls
2606 2258 Pls
2606 2096 Pls
2606 1741 Pls
2606 1583 Pls
2606 2164 Pls
2606 2234 Pls
2606 2068 Pls
2606 1519 Pls
2606 3781 Pls
2606 2595 Pls
2606 2189 Pls
2606 1622 Pls
2606 2999 Pls
2606 2702 Pls
2606 2246 Pls
2606 1752 Pls
3987 4296 Pls
3987 3172 Pls
3987 2789 Pls
3987 2650 Pls
3987 4223 Pls
3987 3078 Pls
3987 2775 Pls
3987 2688 Pls
3987 4269 Pls
3987 3196 Pls
3987 2715 Pls
3987 2627 Pls
3987 3540 Pls
3987 3272 Pls
3987 2475 Pls
3987 2075 Pls
3987 3330 Pls
3987 3101 Pls
3987 2528 Pls
3987 1958 Pls
3987 2278 Pls
3987 1718 Pls
3987 1201 Pls
3987 1560 Pls
3987 2996 Pls
3987 2313 Pls
3987 1944 Pls
3987 1798 Pls
3987 2869 Pls
3987 2278 Pls
3987 1969 Pls
3987 1890 Pls
3987 2833 Pls
3987 2398 Pls
3987 2194 Pls
3987 1733 Pls
3987 3021 Pls
3987 2591 Pls
3987 2202 Pls
3987 1948 Pls
5368 4168 Pls
5368 3543 Pls
5368 3144 Pls
5368 2705 Pls
5368 4272 Pls
5368 3676 Pls
5368 3025 Pls
5368 2495 Pls
5368 4188 Pls
5368 3326 Pls
5368 3118 Pls
5368 2499 Pls
5368 3574 Pls
5368 3224 Pls
5368 2713 Pls
5368 2299 Pls
5368 3794 Pls
5368 2895 Pls
5368 2821 Pls
5368 1959 Pls
5368 2153 Pls
5368 2099 Pls
5368 1806 Pls
5368 1516 Pls
5368 2580 Pls
5368 2387 Pls
5368 1983 Pls
5368 1804 Pls
5368 2373 Pls
5368 2294 Pls
5368 2096 Pls
5368 1724 Pls
5368 2550 Pls
5368 2357 Pls
5368 2052 Pls
5368 1876 Pls
5368 2463 Pls
5368 2461 Pls
5368 2188 Pls
5368 2086 Pls
6749 4388 Pls
6749 3754 Pls
6749 3131 Pls
6749 2897 Pls
6749 4050 Pls
6749 3588 Pls
6749 3381 Pls
6749 2955 Pls
6749 3895 Pls
6749 3506 Pls
6749 2887 Pls
6749 2558 Pls
6749 4112 Pls
6749 3188 Pls
6749 2638 Pls
6749 2385 Pls
6749 3482 Pls
6749 2889 Pls
6749 2494 Pls
6749 2284 Pls
6749 2765 Pls
6749 1895 Pls
6749 1713 Pls
6749 1483 Pls
6749 2213 Pls
6749 2765 Pls
6749 1570 Pls
6749 1665 Pls
6749 2357 Pls
6749 2277 Pls
6749 1895 Pls
6749 1714 Pls
6749 2007 Pls
6749 2400 Pls
6749 2184 Pls
6749 1930 Pls
6749 1991 Pls
6749 1712 Pls
6749 2240 Pls
6749 2243 Pls
1225 3515 Pls
1225 3369 Pls
1225 2784 Pls
1225 2362 Pls
1225 4005 Pls
1225 2746 Pls
1225 2347 Pls
1225 2069 Pls
1225 3689 Pls
1225 2791 Pls
1225 2289 Pls
1225 2129 Pls
1225 3138 Pls
1225 2618 Pls
1225 2316 Pls
1225 1875 Pls
1225 2968 Pls
1225 2298 Pls
1225 1897 Pls
1225 1719 Pls
1225 2121 Pls
1225 1545 Pls
1225 1109 Pls
1225 1111 Pls
1225 2586 Pls
1225 2024 Pls
1225 1630 Pls
1225 1254 Pls
1225 2676 Pls
1225 1842 Pls
1225 1545 Pls
1225 1494 Pls
1225 3255 Pls
1225 1811 Pls
1225 1829 Pls
1225 1423 Pls
1225 2841 Pls
1225 1905 Pls
1225 1687 Pls
1225 1453 Pls
2606 4128 Pls
2606 3104 Pls
2606 2648 Pls
2606 2194 Pls
2606 4042 Pls
2606 3308 Pls
2606 2441 Pls
2606 2319 Pls
2606 3934 Pls
2606 3002 Pls
2606 2641 Pls
2606 2246 Pls
2606 3161 Pls
2606 2856 Pls
2606 2390 Pls
2606 2146 Pls
2606 3542 Pls
2606 2516 Pls
2606 2111 Pls
2606 1922 Pls
2606 1805 Pls
2606 1844 Pls
2606 1486 Pls
2606 1404 Pls
2606 3068 Pls
2606 2092 Pls
2606 1819 Pls
2606 1805 Pls
2606 2633 Pls
2606 2280 Pls
2606 1989 Pls
2606 1715 Pls
2606 3136 Pls
2606 2570 Pls
2606 1756 Pls
2606 1907 Pls
2606 3380 Pls
2606 2410 Pls
2606 2346 Pls
2606 1849 Pls
3987 4138 Pls
3987 3174 Pls
3987 2848 Pls
3987 2558 Pls
3987 4272 Pls
3987 3476 Pls
3987 3003 Pls
3987 2246 Pls
3987 4044 Pls
3987 3244 Pls
3987 2418 Pls
3987 2648 Pls
3987 3525 Pls
3987 3149 Pls
3987 2367 Pls
3987 2214 Pls
3987 3568 Pls
3987 2812 Pls
3987 2065 Pls
3987 2084 Pls
3987 2543 Pls
3987 1897 Pls
3987 1703 Pls
3987 1407 Pls
3987 3085 Pls
3987 2006 Pls
3987 1957 Pls
3987 1603 Pls
3987 2737 Pls
3987 2531 Pls
3987 2101 Pls
3987 1726 Pls
3987 2720 Pls
3987 2550 Pls
3987 2583 Pls
3987 1986 Pls
3987 2612 Pls
3987 2408 Pls
3987 2052 Pls
3987 2002 Pls
5368 4246 Pls
5368 3430 Pls
5368 3039 Pls
5368 2658 Pls
5368 3901 Pls
5368 3630 Pls
5368 2946 Pls
5368 2521 Pls
5368 4070 Pls
5368 2970 Pls
5368 2528 Pls
5368 2317 Pls
5368 3895 Pls
5368 2488 Pls
5368 2305 Pls
5368 2509 Pls
5368 3744 Pls
5368 2824 Pls
5368 2316 Pls
5368 1795 Pls
5368 2374 Pls
5368 2126 Pls
5368 1692 Pls
5368 1744 Pls
5368 2787 Pls
5368 1908 Pls
5368 2134 Pls
5368 1673 Pls
5368 2633 Pls
5368 2004 Pls
5368 1823 Pls
5368 2150 Pls
5368 2441 Pls
5368 2634 Pls
5368 1757 Pls
5368 2204 Pls
5368 2094 Pls
5368 2147 Pls
5368 2086 Pls
5368 2290 Pls
6749 4122 Pls
6749 3354 Pls
6749 3236 Pls
6749 2713 Pls
6749 4370 Pls
6749 3654 Pls
6749 2940 Pls
6749 2319 Pls
6749 4278 Pls
6749 3557 Pls
6749 2912 Pls
6749 2640 Pls
6749 3794 Pls
6749 3384 Pls
6749 3017 Pls
6749 2356 Pls
6749 3946 Pls
6749 3181 Pls
6749 2619 Pls
6749 2499 Pls
6749 2735 Pls
6749 2125 Pls
6749 1811 Pls
6749 1578 Pls
6749 2336 Pls
6749 1906 Pls
6749 2066 Pls
6749 2055 Pls
6749 2578 Pls
6749 1943 Pls
6749 2008 Pls
6749 1958 Pls
6749 2452 Pls
6749 2393 Pls
6749 1829 Pls
6749 1935 Pls
6749 2297 Pls
6749 1963 Pls
6749 2071 Pls
6749 1994 Pls
1225 4026 Pls
1225 2826 Pls
1225 2311 Pls
1225 2112 Pls
1225 3737 Pls
1225 2910 Pls
1225 2383 Pls
1225 2105 Pls
1225 3568 Pls
1225 2752 Pls
1225 2598 Pls
1225 2224 Pls
1225 3437 Pls
1225 2335 Pls
1225 2117 Pls
1225 1853 Pls
1225 2976 Pls
1225 2189 Pls
1225 1938 Pls
1225 1610 Pls
1225 2271 Pls
1225 1482 Pls
1225 1208 Pls
1225 1209 Pls
1225 2060 Pls
1225 1298 Pls
1225 1711 Pls
1225 1395 Pls
1225 2803 Pls
1225 1670 Pls
1225 1550 Pls
1225 1554 Pls
1225 3148 Pls
1225 2226 Pls
1225 1645 Pls
1225 1508 Pls
1225 2957 Pls
1225 2474 Pls
1225 2175 Pls
1225 1808 Pls
2606 3892 Pls
2606 3341 Pls
2606 2496 Pls
2606 2393 Pls
2606 3767 Pls
2606 3216 Pls
2606 2489 Pls
2606 2269 Pls
2606 4122 Pls
2606 2973 Pls
2606 2378 Pls
2606 2084 Pls
2606 3796 Pls
2606 2725 Pls
2606 2444 Pls
2606 1892 Pls
2606 2888 Pls
2606 2793 Pls
2606 2053 Pls
2606 1836 Pls
2606 2398 Pls
2606 1480 Pls
2606 1371 Pls
2606 1464 Pls
2606 2616 Pls
2606 2390 Pls
2606 1953 Pls
2606 1629 Pls
2606 2971 Pls
2606 2354 Pls
2606 1880 Pls
2606 1675 Pls
2606 3047 Pls
2606 2550 Pls
2606 2215 Pls
2606 2116 Pls
2606 3453 Pls
2606 2200 Pls
2606 2034 Pls
2606 2038 Pls
3987 4292 Pls
3987 2956 Pls
3987 3060 Pls
3987 2604 Pls
3987 4302 Pls
3987 3183 Pls
3987 2774 Pls
3987 2519 Pls
3987 3888 Pls
3987 3455 Pls
3987 2682 Pls
3987 2209 Pls
3987 4004 Pls
3987 3075 Pls
3987 2582 Pls
3987 2314 Pls
3987 3593 Pls
3987 3003 Pls
3987 2001 Pls
3987 1860 Pls
3987 2528 Pls
3987 1893 Pls
3987 1644 Pls
3987 1378 Pls
3987 2844 Pls
3987 2242 Pls
3987 1694 Pls
3987 1740 Pls
3987 3141 Pls
3987 2325 Pls
3987 1902 Pls
3987 1640 Pls
3987 3111 Pls
3987 2380 Pls
3987 2252 Pls
3987 1657 Pls
3987 3217 Pls
3987 2423 Pls
3987 2335 Pls
3987 1716 Pls
5368 4084 Pls
5368 3344 Pls
5368 3189 Pls
5368 2574 Pls
5368 4489 Pls
5368 3404 Pls
5368 3086 Pls
5368 2537 Pls
5368 3639 Pls
5368 3267 Pls
5368 2738 Pls
5368 2610 Pls
5368 3958 Pls
5368 2955 Pls
5368 2701 Pls
5368 2317 Pls
5368 3773 Pls
5368 3244 Pls
5368 2263 Pls
5368 2184 Pls
5368 2731 Pls
5368 2078 Pls
5368 1720 Pls
5368 1488 Pls
5368 2623 Pls
5368 2436 Pls
5368 1895 Pls
5368 1653 Pls
5368 2503 Pls
5368 2330 Pls
5368 2142 Pls
5368 1765 Pls
5368 2543 Pls
5368 2587 Pls
5368 2298 Pls
5368 1724 Pls
5368 2458 Pls
5368 2572 Pls
5368 2068 Pls
5368 2112 Pls
6749 4195 Pls
6749 3487 Pls
6749 2747 Pls
6749 2482 Pls
6749 4270 Pls
6749 3174 Pls
6749 2779 Pls
6749 2260 Pls
6749 4204 Pls
6749 3430 Pls
6749 2868 Pls
6749 2449 Pls
6749 4361 Pls
6749 3484 Pls
6749 3039 Pls
6749 2332 Pls
6749 3943 Pls
6749 3121 Pls
6749 2702 Pls
6749 2417 Pls
6749 2995 Pls
6749 2089 Pls
6749 2114 Pls
6749 1661 Pls
6749 2798 Pls
6749 1900 Pls
6749 2167 Pls
6749 1933 Pls
6749 2944 Pls
6749 2390 Pls
6749 1770 Pls
6749 1654 Pls
6749 2417 Pls
6749 2297 Pls
6749 2003 Pls
6749 1986 Pls
6749 2129 Pls
6749 2434 Pls
6749 2261 Pls
6749 1990 Pls
1225 3887 Pls
1225 2626 Pls
1225 2597 Pls
1225 2152 Pls
1225 3606 Pls
1225 2997 Pls
1225 2390 Pls
1225 1816 Pls
1225 3588 Pls
1225 2995 Pls
1225 2304 Pls
1225 2122 Pls
1225 3323 Pls
1225 2523 Pls
1225 1886 Pls
1225 1799 Pls
1225 3312 Pls
1225 2208 Pls
1225 2136 Pls
1225 1630 Pls
1225 1745 Pls
1225 1258 Pls
1225 1161 Pls
1225 1151 Pls
1225 2683 Pls
1225 1595 Pls
1225 1266 Pls
1225 1395 Pls
1225 3130 Pls
1225 1898 Pls
1225 1485 Pls
1225 1440 Pls
1225 3330 Pls
1225 2057 Pls
1225 2017 Pls
1225 1566 Pls
1225 2976 Pls
1225 2221 Pls
1225 1685 Pls
1225 1427 Pls
2606 4295 Pls
2606 3062 Pls
2606 3002 Pls
2606 2367 Pls
2606 4099 Pls
2606 3035 Pls
2606 2964 Pls
2606 2635 Pls
2606 3971 Pls
2606 3281 Pls
2606 2760 Pls
2606 2477 Pls
2606 3756 Pls
2606 2998 Pls
2606 2415 Pls
2606 2177 Pls
2606 3084 Pls
2606 2551 Pls
2606 2057 Pls
2606 1811 Pls
2606 2668 Pls
2606 2136 Pls
2606 1438 Pls
2606 1183 Pls
2606 2278 Pls
2606 2065 Pls
2606 1793 Pls
2606 1528 Pls
2606 3300 Pls
2606 1962 Pls
2606 1886 Pls
2606 1596 Pls
2606 2803 Pls
2606 2188 Pls
2606 2224 Pls
2606 1719 Pls
2606 3085 Pls
2606 2774 Pls
2606 2416 Pls
2606 1551 Pls
3987 4233 Pls
3987 3414 Pls
3987 2994 Pls
3987 2478 Pls
3987 4312 Pls
3987 3400 Pls
3987 2421 Pls
3987 2423 Pls
3987 3902 Pls
3987 2836 Pls
3987 2750 Pls
3987 2323 Pls
3987 3685 Pls
3987 3515 Pls
3987 1990 Pls
3987 2355 Pls
3987 3215 Pls
3987 2703 Pls
3987 2550 Pls
3987 2120 Pls
3987 2655 Pls
3987 1649 Pls
3987 1588 Pls
3987 1396 Pls
3987 3115 Pls
3987 2345 Pls
3987 1886 Pls
3987 1727 Pls
3987 2784 Pls
3987 2234 Pls
3987 2097 Pls
3987 1856 Pls
3987 3185 Pls
3987 2389 Pls
3987 1826 Pls
3987 2023 Pls
3987 3592 Pls
3987 2577 Pls
3987 2251 Pls
3987 2014 Pls
5368 4063 Pls
5368 3518 Pls
5368 2779 Pls
5368 2515 Pls
5368 4089 Pls
5368 3458 Pls
5368 3148 Pls
5368 2423 Pls
5368 3947 Pls
5368 3104 Pls
5368 3005 Pls
5368 2423 Pls
5368 3750 Pls
5368 3188 Pls
5368 2864 Pls
5368 2352 Pls
5368 3253 Pls
5368 2815 Pls
5368 2262 Pls
5368 2183 Pls
5368 2733 Pls
5368 1770 Pls
5368 1090 Pls
5368 1218 Pls
5368 3176 Pls
5368 2132 Pls
5368 1941 Pls
5368 1724 Pls
5368 2965 Pls
5368 2303 Pls
5368 1884 Pls
5368 1971 Pls
5368 3256 Pls
5368 2479 Pls
5368 2084 Pls
5368 1948 Pls
5368 3048 Pls
5368 2922 Pls
5368 2212 Pls
5368 2120 Pls
6749 4384 Pls
6749 3489 Pls
6749 3183 Pls
6749 2775 Pls
6749 4423 Pls
6749 3495 Pls
6749 3300 Pls
6749 2561 Pls
6749 4151 Pls
6749 3260 Pls
6749 2936 Pls
6749 2526 Pls
6749 3932 Pls
6749 3305 Pls
6749 2977 Pls
6749 2684 Pls
6749 3981 Pls
6749 3170 Pls
6749 2253 Pls
6749 2143 Pls
6749 3038 Pls
6749 1756 Pls
6749 2037 Pls
6749 1616 Pls
6749 2552 Pls
6749 2304 Pls
6749 2226 Pls
6749 1845 Pls
6749 2460 Pls
6749 2543 Pls
6749 1733 Pls
6749 2082 Pls
6749 3396 Pls
6749 2218 Pls
6749 1784 Pls
6749 1927 Pls
6749 2897 Pls
6749 2503 Pls
6749 2039 Pls
6749 1932 Pls
1225 3803 Pls
1225 3412 Pls
1225 2463 Pls
1225 2152 Pls
1225 3649 Pls
1225 3214 Pls
1225 2603 Pls
1225 2174 Pls
1225 3728 Pls
1225 2203 Pls
1225 2135 Pls
1225 2004 Pls
1225 3778 Pls
1225 2599 Pls
1225 2232 Pls
1225 1776 Pls
1225 2968 Pls
1225 2197 Pls
1225 1798 Pls
1225 1651 Pls
1225 2008 Pls
1225 1638 Pls
1225 1253 Pls
1225 1183 Pls
1225 2376 Pls
1225 1885 Pls
1225 1451 Pls
1225 1234 Pls
1225 2871 Pls
1225 2068 Pls
1225 1578 Pls
1225 1313 Pls
1225 3047 Pls
1225 2117 Pls
1225 1696 Pls
1225 1403 Pls
1225 3158 Pls
1225 2443 Pls
1225 1682 Pls
1225 1457 Pls
2606 4161 Pls
2606 3636 Pls
2606 2509 Pls
2606 2514 Pls
2606 3986 Pls
2606 3668 Pls
2606 2772 Pls
2606 2298 Pls
2606 3686 Pls
2606 2942 Pls
2606 2638 Pls
2606 2061 Pls
2606 3503 Pls
2606 2711 Pls
2606 2220 Pls
2606 2103 Pls
2606 2995 Pls
2606 2860 Pls
2606 2106 Pls
2606 1580 Pls
2606 2691 Pls
2606 1609 Pls
2606 1386 Pls
2606 1333 Pls
2606 2608 Pls
2606 2014 Pls
2606 1729 Pls
2606 1623 Pls
2606 2726 Pls
2606 2372 Pls
2606 1691 Pls
2606 1505 Pls
2606 3687 Pls
2606 2585 Pls
2606 2079 Pls
2606 1785 Pls
2606 3452 Pls
2606 2146 Pls
2606 1700 Pls
2606 1795 Pls
3987 4296 Pls
3987 3527 Pls
3987 2991 Pls
3987 2203 Pls
3987 4378 Pls
3987 3211 Pls
3987 2909 Pls
3987 2261 Pls
3987 3695 Pls
3987 3326 Pls
3987 2706 Pls
3987 2309 Pls
3987 4252 Pls
3987 3053 Pls
3987 2740 Pls
3987 2283 Pls
3987 3095 Pls
3987 2527 Pls
3987 2112 Pls
3987 1761 Pls
3987 2346 Pls
3987 1559 Pls
3987 1769 Pls
3987 1398 Pls
3987 3283 Pls
3987 2239 Pls
3987 1998 Pls
3987 1835 Pls
3987 3537 Pls
3987 2160 Pls
3987 1905 Pls
3987 1925 Pls
3987 3621 Pls
3987 2889 Pls
3987 2190 Pls
3987 1818 Pls
3987 3009 Pls
3987 2760 Pls
3987 2243 Pls
3987 1644 Pls
5368 4204 Pls
5368 3315 Pls
5368 2922 Pls
5368 2505 Pls
5368 3724 Pls
5368 3399 Pls
5368 2952 Pls
5368 2525 Pls
5368 4387 Pls
5368 3562 Pls
5368 2575 Pls
5368 2145 Pls
5368 3964 Pls
5368 2954 Pls
5368 2844 Pls
5368 2572 Pls
5368 3625 Pls
5368 2935 Pls
5368 2314 Pls
5368 2098 Pls
5368 2823 Pls
5368 2102 Pls
5368 1817 Pls
5368 1216 Pls
5368 3068 Pls
5368 2299 Pls
5368 1834 Pls
5368 1682 Pls
5368 3018 Pls
5368 2490 Pls
5368 1957 Pls
5368 1949 Pls
5368 3651 Pls
5368 2812 Pls
5368 1998 Pls
5368 1904 Pls
5368 3281 Pls
5368 2220 Pls
5368 2284 Pls
5368 2138 Pls
6749 4378 Pls
6749 3935 Pls
6749 3008 Pls
6749 2953 Pls
6749 4191 Pls
6749 3419 Pls
6749 3091 Pls
6749 2639 Pls
6749 3998 Pls
6749 3399 Pls
6749 2983 Pls
6749 2542 Pls
6749 3667 Pls
6749 3173 Pls
6749 2710 Pls
6749 2754 Pls
6749 3868 Pls
6749 2935 Pls
6749 2529 Pls
6749 2333 Pls
6749 2841 Pls
6749 2365 Pls
6749 1552 Pls
6749 1489 Pls
6749 3272 Pls
6749 2544 Pls
6749 2212 Pls
6749 1916 Pls
6749 3133 Pls
6749 2247 Pls
6749 2151 Pls
6749 2030 Pls
6749 3472 Pls
6749 2707 Pls
6749 2158 Pls
6749 2049 Pls
6749 3001 Pls
6749 2285 Pls
6749 2149 Pls
6749 1957 Pls
1225 3777 Pls
1225 2771 Pls
1225 2077 Pls
1225 1890 Pls
1225 3651 Pls
1225 2994 Pls
1225 2208 Pls
1225 1972 Pls
1225 3857 Pls
1225 2364 Pls
1225 2173 Pls
1225 1955 Pls
1225 3308 Pls
1225 2526 Pls
1225 1940 Pls
1225 2031 Pls
1225 3038 Pls
1225 1909 Pls
1225 1715 Pls
1225 1365 Pls
1225 1850 Pls
1225 1638 Pls
1225 1155 Pls
1225 1108 Pls
1225 2271 Pls
1225 1638 Pls
1225 1312 Pls
1225 1466 Pls
1225 2736 Pls
1225 2000 Pls
1225 1654 Pls
1225 1279 Pls
1225 3381 Pls
1225 2665 Pls
1225 1833 Pls
1225 1398 Pls
1225 3524 Pls
1225 1784 Pls
1225 1774 Pls
1225 1486 Pls
2606 4123 Pls
2606 3226 Pls
2606 2283 Pls
2606 2560 Pls
2606 3987 Pls
2606 3326 Pls
2606 2550 Pls
2606 2230 Pls
2606 3727 Pls
2606 2997 Pls
2606 2411 Pls
2606 2263 Pls
2606 3463 Pls
2606 2385 Pls
2606 2514 Pls
2606 2284 Pls
2606 3698 Pls
2606 2222 Pls
2606 2426 Pls
2606 1697 Pls
2606 2280 Pls
2606 1859 Pls
2606 1544 Pls
2606 1140 Pls
2606 2664 Pls
2606 2156 Pls
2606 1670 Pls
2606 1540 Pls
2606 2923 Pls
2606 1963 Pls
2606 2156 Pls
2606 1763 Pls
2606 3870 Pls
2606 2443 Pls
2606 1828 Pls
2606 1833 Pls
2606 3396 Pls
2606 2802 Pls
2606 2021 Pls
2606 1994 Pls
3987 4101 Pls
3987 3523 Pls
3987 2839 Pls
3987 2765 Pls
3987 4246 Pls
3987 3618 Pls
3987 2454 Pls
3987 2373 Pls
3987 4371 Pls
3987 3392 Pls
3987 2802 Pls
3987 2417 Pls
3987 3776 Pls
3987 3431 Pls
3987 2494 Pls
3987 1989 Pls
3987 3820 Pls
3987 2583 Pls
3987 2133 Pls
3987 1900 Pls
3987 2841 Pls
3987 1745 Pls
3987 1641 Pls
3987 1440 Pls
3987 2963 Pls
3987 1760 Pls
3987 1733 Pls
3987 1580 Pls
3987 3424 Pls
3987 2832 Pls
3987 1905 Pls
3987 1835 Pls
3987 2958 Pls
3987 2730 Pls
3987 2205 Pls
3987 1896 Pls
3987 3658 Pls
3987 2392 Pls
3987 2402 Pls
3987 1967 Pls
5368 4200 Pls
5368 3841 Pls
5368 2593 Pls
5368 2767 Pls
5368 4309 Pls
5368 3591 Pls
5368 3198 Pls
5368 2483 Pls
5368 3987 Pls
5368 3599 Pls
5368 2587 Pls
5368 2722 Pls
5368 4280 Pls
5368 3433 Pls
5368 2444 Pls
5368 2289 Pls
5368 3829 Pls
5368 2631 Pls
5368 2403 Pls
5368 2156 Pls
5368 2888 Pls
5368 1938 Pls
5368 1575 Pls
5368 1685 Pls
5368 3213 Pls
5368 2382 Pls
5368 2014 Pls
5368 1985 Pls
5368 3322 Pls
5368 2456 Pls
5368 2032 Pls
5368 1815 Pls
5368 3867 Pls
5368 2410 Pls
5368 2057 Pls
5368 2217 Pls
5368 2843 Pls
5368 2848 Pls
5368 2399 Pls
5368 2056 Pls
6749 4423 Pls
6749 3530 Pls
6749 2879 Pls
6749 2810 Pls
6749 4364 Pls
6749 3550 Pls
6749 2835 Pls
6749 2617 Pls
6749 3988 Pls
6749 3727 Pls
6749 3071 Pls
6749 2501 Pls
6749 3912 Pls
6749 3353 Pls
6749 2765 Pls
6749 2496 Pls
6749 3960 Pls
6749 3217 Pls
6749 2528 Pls
6749 2268 Pls
6749 2616 Pls
6749 2416 Pls
6749 1800 Pls
6749 1530 Pls
6749 2944 Pls
6749 1681 Pls
6749 1637 Pls
6749 1374 Pls
6749 3258 Pls
6749 2203 Pls
6749 2029 Pls
6749 1987 Pls
6749 3064 Pls
6749 2579 Pls
6749 2364 Pls
6749 1767 Pls
6749 3120 Pls
6749 2179 Pls
6749 2107 Pls
6749 2082 Pls
1225 3574 Pls
1225 2799 Pls
1225 2153 Pls
1225 2531 Pls
1225 3876 Pls
1225 3097 Pls
1225 2573 Pls
1225 2112 Pls
1225 3851 Pls
1225 2525 Pls
1225 2405 Pls
1225 1969 Pls
1225 3551 Pls
1225 2457 Pls
1225 2027 Pls
1225 1932 Pls
1225 3137 Pls
1225 2006 Pls
1225 1832 Pls
1225 1685 Pls
1225 2376 Pls
1225 1394 Pls
1225 1306 Pls
1225 1190 Pls
1225 2818 Pls
1225 1874 Pls
1225 1502 Pls
1225 1140 Pls
1225 2901 Pls
1225 1387 Pls
1225 1787 Pls
1225 1612 Pls
1225 2818 Pls
1225 1914 Pls
1225 1774 Pls
1225 1742 Pls
1225 2631 Pls
1225 2211 Pls
1225 1933 Pls
1225 1674 Pls
2606 3684 Pls
2606 3364 Pls
2606 2769 Pls
2606 2227 Pls
2606 3942 Pls
2606 3094 Pls
2606 2443 Pls
2606 2410 Pls
2606 3998 Pls
2606 2826 Pls
2606 2517 Pls
2606 2163 Pls
2606 3489 Pls
2606 2926 Pls
2606 2569 Pls
2606 2160 Pls
2606 3317 Pls
2606 2191 Pls
2606 2192 Pls
2606 1852 Pls
2606 2008 Pls
2606 1899 Pls
2606 1399 Pls
2606 1254 Pls
2606 2713 Pls
2606 2003 Pls
2606 1358 Pls
2606 1538 Pls
2606 3028 Pls
2606 2408 Pls
2606 2034 Pls
2606 1795 Pls
2606 3399 Pls
2606 2529 Pls
2606 1832 Pls
2606 1742 Pls
2606 3129 Pls
2606 2606 Pls
2606 1777 Pls
2606 1573 Pls
3987 4272 Pls
3987 3242 Pls
3987 2837 Pls
3987 2606 Pls
3987 4082 Pls
3987 3510 Pls
3987 2750 Pls
3987 2420 Pls
3987 3941 Pls
3987 3362 Pls
3987 2550 Pls
3987 2358 Pls
3987 3973 Pls
3987 2943 Pls
3987 2509 Pls
3987 2371 Pls
3987 3242 Pls
3987 2492 Pls
3987 2058 Pls
3987 1880 Pls
3987 2850 Pls
3987 1861 Pls
3987 1682 Pls
3987 1644 Pls
3987 2993 Pls
3987 2015 Pls
3987 1903 Pls
3987 1593 Pls
3987 3425 Pls
3987 2493 Pls
3987 2020 Pls
3987 1614 Pls
3987 3143 Pls
3987 2508 Pls
3987 2329 Pls
3987 1853 Pls
3987 3709 Pls
3987 2999 Pls
3987 2185 Pls
3987 1542 Pls
5368 4255 Pls
5368 3701 Pls
5368 2859 Pls
5368 2848 Pls
5368 4003 Pls
5368 3093 Pls
5368 3175 Pls
5368 2336 Pls
5368 3452 Pls
5368 3477 Pls
5368 2692 Pls
5368 2519 Pls
5368 4012 Pls
5368 3170 Pls
5368 2383 Pls
5368 2303 Pls
5368 3736 Pls
5368 2710 Pls
5368 2105 Pls
5368 2050 Pls
5368 2685 Pls
5368 1978 Pls
5368 1523 Pls
5368 1671 Pls
5368 3094 Pls
5368 2493 Pls
5368 1981 Pls
5368 1719 Pls
5368 3576 Pls
5368 3067 Pls
5368 1977 Pls
5368 1677 Pls
5368 3502 Pls
5368 2707 Pls
5368 2172 Pls
5368 1767 Pls
5368 3381 Pls
5368 2714 Pls
5368 2014 Pls
5368 1961 Pls
6749 4254 Pls
6749 3581 Pls
6749 3064 Pls
6749 2547 Pls
6749 4367 Pls
6749 3794 Pls
6749 3191 Pls
6749 2717 Pls
6749 4218 Pls
6749 3645 Pls
6749 2944 Pls
6749 2482 Pls
6749 4001 Pls
6749 3224 Pls
6749 2909 Pls
6749 2401 Pls
6749 3803 Pls
6749 2917 Pls
6749 2346 Pls
6749 1960 Pls
6749 3490 Pls
6749 2593 Pls
6749 1983 Pls
6749 1310 Pls
6749 3134 Pls
6749 2686 Pls
6749 1884 Pls
6749 1655 Pls
6749 2887 Pls
6749 2570 Pls
6749 1828 Pls
6749 1817 Pls
6749 3001 Pls
6749 2594 Pls
6749 2065 Pls
6749 1928 Pls
6749 3210 Pls
6749 2783 Pls
6749 2410 Pls
6749 2010 Pls
1225 4033 Pls
1225 3151 Pls
1225 2509 Pls
1225 2381 Pls
1225 3501 Pls
1225 3143 Pls
1225 2199 Pls
1225 2084 Pls
1225 3450 Pls
1225 3014 Pls
1225 2091 Pls
1225 2168 Pls
1225 3113 Pls
1225 2513 Pls
1225 2132 Pls
1225 1711 Pls
1225 2743 Pls
1225 2066 Pls
1225 1701 Pls
1225 1555 Pls
1225 2166 Pls
1225 1337 Pls
1225 1115 Pls
1225 1033 Pls
1225 2362 Pls
1225 1846 Pls
1225 1312 Pls
1225 1183 Pls
1225 2998 Pls
1225 1791 Pls
1225 1630 Pls
1225 1382 Pls
1225 2694 Pls
1225 1727 Pls
1225 1625 Pls
1225 1469 Pls
1225 2811 Pls
1225 2305 Pls
1225 1543 Pls
1225 1226 Pls
2606 4324 Pls
2606 3009 Pls
2606 2962 Pls
2606 2457 Pls
2606 3983 Pls
2606 3215 Pls
2606 2378 Pls
2606 2130 Pls
2606 4064 Pls
2606 2899 Pls
2606 2463 Pls
2606 2485 Pls
2606 3768 Pls
2606 2896 Pls
2606 2551 Pls
2606 2382 Pls
2606 3908 Pls
2606 2159 Pls
2606 2038 Pls
2606 1744 Pls
2606 2428 Pls
2606 1692 Pls
2606 1589 Pls
2606 1354 Pls
2606 3336 Pls
2606 2049 Pls
2606 1596 Pls
2606 1463 Pls
2606 3043 Pls
2606 2224 Pls
2606 1502 Pls
2606 1624 Pls
2606 3283 Pls
2606 2581 Pls
2606 1907 Pls
2606 1957 Pls
2606 3328 Pls
2606 2350 Pls
2606 2066 Pls
2606 1753 Pls
3987 4159 Pls
3987 3531 Pls
3987 3027 Pls
3987 2486 Pls
3987 3687 Pls
3987 3518 Pls
3987 2979 Pls
3987 2171 Pls
3987 4315 Pls
3987 3140 Pls
3987 2511 Pls
3987 2666 Pls
3987 3816 Pls
3987 2963 Pls
3987 2614 Pls
3987 2157 Pls
3987 3534 Pls
3987 2780 Pls
3987 1928 Pls
3987 2150 Pls
3987 3038 Pls
3987 2295 Pls
3987 1399 Pls
3987 1661 Pls
3987 2612 Pls
3987 2261 Pls
3987 1716 Pls
3987 1554 Pls
3987 2861 Pls
3987 2466 Pls
3987 2173 Pls
3987 1730 Pls
3987 3375 Pls
3987 2929 Pls
3987 2114 Pls
3987 1665 Pls
3987 3564 Pls
3987 2837 Pls
3987 2423 Pls
3987 1907 Pls
5368 4155 Pls
5368 3186 Pls
5368 2905 Pls
5368 2648 Pls
5368 4407 Pls
5368 3479 Pls
5368 3014 Pls
5368 2848 Pls
5368 4207 Pls
5368 3598 Pls
5368 3148 Pls
5368 2578 Pls
5368 4109 Pls
5368 3239 Pls
5368 2910 Pls
5368 2301 Pls
5368 3253 Pls
5368 3134 Pls
5368 2289 Pls
5368 1754 Pls
5368 2867 Pls
5368 2280 Pls
5368 1823 Pls
5368 1596 Pls
5368 2991 Pls
5368 2195 Pls
5368 1982 Pls
5368 1697 Pls
5368 3432 Pls
5368 2530 Pls
5368 1962 Pls
5368 1720 Pls
5368 3214 Pls
5368 2679 Pls
5368 2252 Pls
5368 1615 Pls
5368 3265 Pls
5368 2362 Pls
5368 2147 Pls
5368 1767 Pls
6749 4246 Pls
6749 3902 Pls
6749 3326 Pls
6749 2687 Pls
6749 4292 Pls
6749 3429 Pls
6749 3300 Pls
6749 2658 Pls
6749 4112 Pls
6749 3593 Pls
6749 3066 Pls
6749 2665 Pls
6749 3977 Pls
6749 3065 Pls
6749 2613 Pls
6749 2685 Pls
6749 3936 Pls
6749 3362 Pls
6749 2578 Pls
6749 2241 Pls
6749 2691 Pls
6749 2086 Pls
6749 1580 Pls
6749 1560 Pls
6749 3064 Pls
6749 2429 Pls
6749 2072 Pls
6749 1671 Pls
6749 3305 Pls
6749 2714 Pls
6749 2306 Pls
6749 1838 Pls
6749 3046 Pls
6749 2595 Pls
6749 2304 Pls
6749 1860 Pls
6749 3624 Pls
6749 2760 Pls
6749 2448 Pls
6749 1776 Pls
1225 4016 Pls
1225 2879 Pls
1225 2751 Pls
1225 2188 Pls
1225 3540 Pls
1225 2704 Pls
1225 2489 Pls
1225 2201 Pls
1225 3483 Pls
1225 2436 Pls
1225 2080 Pls
1225 2072 Pls
1225 3297 Pls
1225 2232 Pls
1225 2299 Pls
1225 1749 Pls
1225 2841 Pls
1225 2301 Pls
1225 1877 Pls
1225 1542 Pls
1225 1850 Pls
1225 1337 Pls
1225 1214 Pls
1225 1111 Pls
1225 2871 Pls
1225 1531 Pls
1225 1307 Pls
1225 1179 Pls
1225 2736 Pls
1225 1767 Pls
1225 1823 Pls
1225 1530 Pls
1225 3051 Pls
1225 1708 Pls
1225 1922 Pls
1225 1466 Pls
1225 2728 Pls
1225 2246 Pls
1225 1797 Pls
1225 1365 Pls
2606 4162 Pls
2606 2967 Pls
2606 2787 Pls
2606 2415 Pls
2606 4276 Pls
2606 2919 Pls
2606 2572 Pls
2606 2393 Pls
2606 3965 Pls
2606 2916 Pls
2606 2441 Pls
2606 2500 Pls
2606 3660 Pls
2606 2984 Pls
2606 2591 Pls
2606 2089 Pls
2606 3559 Pls
2606 2384 Pls
2606 2184 Pls
2606 1837 Pls
2606 1955 Pls
2606 1480 Pls
2606 1389 Pls
2606 1215 Pls
2606 2762 Pls
2606 1945 Pls
2606 1300 Pls
2606 1726 Pls
2606 3422 Pls
2606 2111 Pls
2606 1909 Pls
2606 1622 Pls
2606 3358 Pls
2606 2588 Pls
2606 2363 Pls
2606 1591 Pls
2606 3572 Pls
2606 2020 Pls
2606 2091 Pls
2606 1589 Pls
3987 4085 Pls
3987 3427 Pls
3987 3098 Pls
3987 2480 Pls
3987 4197 Pls
3987 3202 Pls
3987 2732 Pls
3987 2618 Pls
3987 4147 Pls
3987 2901 Pls
3987 2411 Pls
3987 2355 Pls
3987 3884 Pls
3987 3173 Pls
3987 2765 Pls
3987 2161 Pls
3987 3485 Pls
3987 2568 Pls
3987 2046 Pls
3987 1867 Pls
3987 2746 Pls
3987 2203 Pls
3987 1755 Pls
3987 1459 Pls
3987 2796 Pls
3987 2826 Pls
3987 1820 Pls
3987 1647 Pls
3987 3584 Pls
3987 2048 Pls
3987 2108 Pls
3987 1635 Pls
3987 3555 Pls
3987 2226 Pls
3987 1833 Pls
3987 1712 Pls
3987 3178 Pls
3987 2977 Pls
3987 2351 Pls
3987 2080 Pls
5368 4378 Pls
5368 3644 Pls
5368 2738 Pls
5368 2646 Pls
5368 4079 Pls
5368 3315 Pls
5368 2940 Pls
5368 2664 Pls
5368 3932 Pls
5368 3449 Pls
5368 2979 Pls
5368 2871 Pls
5368 3964 Pls
5368 2879 Pls
5368 2467 Pls
5368 2385 Pls
5368 3846 Pls
5368 2502 Pls
5368 2269 Pls
5368 2416 Pls
5368 2700 Pls
5368 1791 Pls
5368 1786 Pls
5368 1576 Pls
5368 3546 Pls
5368 2454 Pls
5368 1782 Pls
5368 1554 Pls
5368 3479 Pls
5368 2827 Pls
5368 2004 Pls
5368 1989 Pls
5368 3216 Pls
5368 2897 Pls
5368 2110 Pls
5368 1782 Pls
5368 3382 Pls
5368 2855 Pls
5368 2491 Pls
5368 1950 Pls
6749 4413 Pls
6749 3492 Pls
6749 3074 Pls
6749 2709 Pls
6749 4124 Pls
6749 3757 Pls
6749 3204 Pls
6749 2596 Pls
6749 4266 Pls
6749 3577 Pls
6749 2957 Pls
6749 2130 Pls
6749 3672 Pls
6749 3487 Pls
6749 3145 Pls
6749 2394 Pls
6749 3899 Pls
6749 2727 Pls
6749 2588 Pls
6749 2224 Pls
6749 3370 Pls
6749 1973 Pls
6749 1671 Pls
6749 1581 Pls
6749 3102 Pls
6749 2398 Pls
6749 2230 Pls
6749 1847 Pls
6749 3422 Pls
6749 2673 Pls
6749 1979 Pls
6749 2035 Pls
6749 3402 Pls
6749 2548 Pls
6749 1859 Pls
6749 1775 Pls
6749 3094 Pls
6749 2537 Pls
6749 2177 Pls
6749 2184 Pls
1225 3947 Pls
1225 2951 Pls
1225 2587 Pls
1225 2034 Pls
1225 3321 Pls
1225 2759 Pls
1225 2674 Pls
1225 2176 Pls
1225 3921 Pls
1225 2395 Pls
1225 2209 Pls
1225 2037 Pls
1225 3347 Pls
1225 2304 Pls
1225 1896 Pls
1225 1916 Pls
1225 3156 Pls
1225 2144 Pls
1225 2143 Pls
1225 1542 Pls
1225 2113 Pls
1225 1194 Pls
1225 1161 Pls
1225 1151 Pls
1225 2743 Pls
1225 1480 Pls
1225 1492 Pls
1225 1258 Pls
1225 2841 Pls
1225 2032 Pls
1225 1496 Pls
1225 1326 Pls
1225 2976 Pls
1225 1973 Pls
1225 1786 Pls
1225 1600 Pls
1225 2953 Pls
1225 2310 Pls
1225 1842 Pls
1225 1825 Pls
2606 3924 Pls
2606 2687 Pls
2606 2730 Pls
2606 2146 Pls
2606 4141 Pls
2606 2696 Pls
2606 2388 Pls
2606 2335 Pls
2606 4088 Pls
2606 3211 Pls
2606 2805 Pls
2606 2394 Pls
2606 3636 Pls
2606 2506 Pls
2606 2575 Pls
2606 2037 Pls
2606 3085 Pls
2606 2819 Pls
2606 2016 Pls
2606 1939 Pls
2606 2691 Pls
2606 1821 Pls
2606 1109 Pls
2606 1108 Pls
2606 2766 Pls
2606 1945 Pls
2606 1641 Pls
2606 1440 Pls
2606 2481 Pls
2606 2003 Pls
2606 2020 Pls
2606 1642 Pls
2606 3259 Pls
2606 2050 Pls
2606 1912 Pls
2606 1726 Pls
2606 3781 Pls
2606 2355 Pls
2606 2014 Pls
2606 1616 Pls
3987 4034 Pls
3987 3624 Pls
3987 2903 Pls
3987 2643 Pls
3987 4387 Pls
3987 3207 Pls
3987 2786 Pls
3987 2482 Pls
3987 4180 Pls
3987 3397 Pls
3987 2791 Pls
3987 1941 Pls
3987 4127 Pls
3987 2706 Pls
3987 2494 Pls
3987 2377 Pls
3987 3465 Pls
3987 2426 Pls
3987 2358 Pls
3987 2071 Pls
3987 2661 Pls
3987 1743 Pls
3987 1723 Pls
3987 1459 Pls
3987 2717 Pls
3987 1807 Pls
3987 1857 Pls
3987 1378 Pls
3987 3261 Pls
3987 2719 Pls
3987 2062 Pls
3987 1577 Pls
3987 3876 Pls
3987 2793 Pls
3987 1854 Pls
3987 1880 Pls
3987 3942 Pls
3987 3085 Pls
3987 2005 Pls
3987 1927 Pls
5368 4008 Pls
5368 3515 Pls
5368 2934 Pls
5368 2768 Pls
5368 4141 Pls
5368 3529 Pls
5368 2625 Pls
5368 2536 Pls
5368 4148 Pls
5368 3514 Pls
5368 2616 Pls
5368 2516 Pls
5368 4131 Pls
5368 3258 Pls
5368 2509 Pls
5368 2197 Pls
5368 3417 Pls
5368 2971 Pls
5368 2392 Pls
5368 2141 Pls
5368 2593 Pls
5368 1964 Pls
5368 1946 Pls
5368 1499 Pls
5368 3752 Pls
5368 2461 Pls
5368 2024 Pls
5368 1573 Pls
5368 3572 Pls
5368 2607 Pls
5368 2086 Pls
5368 1690 Pls
5368 3694 Pls
5368 2483 Pls
5368 1922 Pls
5368 2247 Pls
5368 3418 Pls
5368 2882 Pls
5368 2056 Pls
5368 2116 Pls
6749 4292 Pls
6749 3285 Pls
6749 2911 Pls
6749 2317 Pls
6749 4174 Pls
6749 3662 Pls
6749 2977 Pls
6749 2481 Pls
6749 4090 Pls
6749 3422 Pls
6749 2816 Pls
6749 2576 Pls
6749 3814 Pls
6749 3458 Pls
6749 2613 Pls
6749 2619 Pls
6749 4055 Pls
6749 2721 Pls
6749 2315 Pls
6749 2114 Pls
6749 3115 Pls
6749 2144 Pls
6749 1378 Pls
6749 1639 Pls
6749 3323 Pls
6749 2380 Pls
6749 2230 Pls
6749 1794 Pls
6749 3351 Pls
6749 2204 Pls
6749 1764 Pls
6749 1907 Pls
6749 3366 Pls
6749 2762 Pls
6749 2254 Pls
6749 1772 Pls
6749 3599 Pls
6749 2509 Pls
6749 2359 Pls
6749 2092 Pls
1225 3426 Pls
1225 3076 Pls
1225 2585 Pls
1225 2109 Pls
1225 3618 Pls
1225 2803 Pls
1225 2461 Pls
1225 2232 Pls
1225 3791 Pls
1225 2959 Pls
1225 2556 Pls
1225 1887 Pls
1225 3071 Pls
1225 2599 Pls
1225 1948 Pls
1225 1632 Pls
1225 2841 Pls
1225 2362 Pls
1225 1561 Pls
1225 1651 Pls
1225 2218 Pls
1225 1337 Pls
1225 1109 Pls
1225 1033 Pls
1225 2481 Pls
1225 1480 Pls
1225 1411 Pls
1225 1440 Pls
1225 2818 Pls
1225 1969 Pls
1225 1341 Pls
1225 1526 Pls
1225 2950 Pls
1225 1899 Pls
1225 1803 Pls
1225 1557 Pls
1225 2736 Pls
1225 2227 Pls
1225 1845 Pls
1225 1466 Pls
2606 4195 Pls
2606 3179 Pls
2606 2641 Pls
2606 2568 Pls
2606 4045 Pls
2606 3175 Pls
2606 2625 Pls
2606 2361 Pls
2606 3543 Pls
2606 3004 Pls
2606 2855 Pls
2606 1852 Pls
2606 3810 Pls
2606 2956 Pls
2606 2337 Pls
2606 2064 Pls
2606 3283 Pls
2606 2420 Pls
2606 2273 Pls
2606 1836 Pls
2606 2346 Pls
2606 1523 Pls
2606 1531 Pls
2606 1215 Pls
2606 2871 Pls
2606 1648 Pls
2606 1733 Pls
2606 1534 Pls
2606 2691 Pls
2606 2303 Pls
2606 1879 Pls
2606 1668 Pls
2606 3490 Pls
2606 2169 Pls
2606 2194 Pls
2606 1697 Pls
2606 3274 Pls
2606 2519 Pls
2606 2016 Pls
2606 1675 Pls
3987 4272 Pls
3987 3084 Pls
3987 2790 Pls
3987 2783 Pls
3987 4076 Pls
3987 3326 Pls
3987 3189 Pls
3987 2343 Pls
3987 4151 Pls
3987 3382 Pls
3987 2797 Pls
3987 2357 Pls
3987 3726 Pls
3987 3187 Pls
3987 2372 Pls
3987 2489 Pls
3987 3803 Pls
3987 2727 Pls
3987 1962 Pls
3987 2070 Pls
3987 2376 Pls
3987 2052 Pls
3987 1682 Pls
3987 1498 Pls
3987 3464 Pls
3987 2611 Pls
3987 2148 Pls
3987 1536 Pls
3987 3674 Pls
3987 2600 Pls
3987 1929 Pls
3987 1620 Pls
3987 3349 Pls
3987 2441 Pls
3987 1914 Pls
3987 1766 Pls
3987 3467 Pls
3987 2750 Pls
3987 2145 Pls
3987 1938 Pls
5368 4239 Pls
5368 3466 Pls
5368 2865 Pls
5368 2504 Pls
5368 4190 Pls
5368 3384 Pls
5368 3031 Pls
5368 2839 Pls
5368 4217 Pls
5368 2986 Pls
5368 2666 Pls
5368 2582 Pls
5368 3982 Pls
5368 3137 Pls
5368 2596 Pls
5368 2145 Pls
5368 3937 Pls
5368 2919 Pls
5368 2413 Pls
5368 2134 Pls
5368 3441 Pls
5368 1833 Pls
5368 1439 Pls
5368 1548 Pls
5368 3349 Pls
5368 2500 Pls
5368 1790 Pls
5368 1716 Pls
5368 3837 Pls
5368 2696 Pls
5368 1830 Pls
5368 2012 Pls
5368 3304 Pls
5368 2713 Pls
5368 2065 Pls
5368 1952 Pls
5368 3865 Pls
5368 2866 Pls
5368 2397 Pls
5368 1863 Pls
6749 4462 Pls
6749 3865 Pls
6749 3165 Pls
6749 2710 Pls
6749 4283 Pls
6749 3636 Pls
6749 2880 Pls
6749 2669 Pls
6749 4104 Pls
6749 3624 Pls
6749 2705 Pls
6749 2586 Pls
6749 4158 Pls
6749 3356 Pls
6749 2730 Pls
6749 2268 Pls
6749 4093 Pls
6749 2537 Pls
6749 2704 Pls
6749 2022 Pls
6749 2751 Pls
6749 1965 Pls
6749 1724 Pls
6749 1672 Pls
6749 3539 Pls
6749 2277 Pls
6749 2042 Pls
6749 1778 Pls
6749 3818 Pls
6749 2744 Pls
6749 2140 Pls
6749 1637 Pls
6749 3962 Pls
6749 2407 Pls
6749 1816 Pls
6749 1890 Pls
6749 2838 Pls
6749 2919 Pls
6749 2193 Pls
6749 1898 Pls
% End plot #1
% Begin plot #2
1.000 UL
LT1
LCb setrgbcolor
2425 4551 M
[ [(Helvetica) 250.0 0.0 true true 0 (Average)]
] -83.3 MRshow
LT1
2575 4551 M
663 0 V
1225 2246 M
1381 256 V
1381 118 V
1381 31 V
1381 16 V
% End plot #2
% Begin plot #3
stroke
LT2
LCb setrgbcolor
2425 4301 M
[ [(Helvetica) 250.0 0.0 true true 0 (Min)]
] -83.3 MRshow
LT2
2575 4301 M
663 0 V
1225 1033 M
1381 75 V
1381 93 V
5368 1090 L
1381 83 V
% End plot #3
% Begin plot #4
stroke
LT3
LCb setrgbcolor
2425 4051 M
[ [(Helvetica) 250.0 0.0 true true 0 (Max)]
] -83.3 MRshow
LT3
2575 4051 M
663 0 V
-2013 45 R
1381 228 V
1381 71 V
1381 94 V
1381 -26 V
% End plot #4
stroke
LTb
1225 4739 N
0 -3939 V
5524 0 V
0 3939 V
-5524 0 V
Z stroke
1.000 UP
1.000 UL
LTb
stroke
grestore
end
showpage
%%Trailer
%%DocumentFonts: Helvetica
