%!PS-Adobe-2.0 EPSF-2.0
%%Title: n_orig_length.precision.eps
%%Creator: gnuplot 4.4 patchlevel 3
%%CreationDate: Tue Jun  4 13:06:59 2013
%%DocumentFonts: (atend)
%%BoundingBox: 50 50 410 302
%%EndComments
%%BeginProlog
/gnudict 256 dict def
gnudict begin
%
% The following true/false flags may be edited by hand if desired.
% The unit line width and grayscale image gamma correction may also be changed.
%
/Color true def
/Blacktext false def
/Solid false def
/Dashlength 1 def
/Landscape false def
/Level1 false def
/Rounded false def
/ClipToBoundingBox false def
/TransparentPatterns false def
/gnulinewidth 5.000 def
/userlinewidth gnulinewidth def
/Gamma 1.0 def
%
/vshift -83 def
/dl1 {
  10.0 Dashlength mul mul
  Rounded { currentlinewidth 0.75 mul sub dup 0 le { pop 0.01 } if } if
} def
/dl2 {
  10.0 Dashlength mul mul
  Rounded { currentlinewidth 0.75 mul add } if
} def
/hpt_ 31.5 def
/vpt_ 31.5 def
/hpt hpt_ def
/vpt vpt_ def
Level1 {} {
/SDict 10 dict def
systemdict /pdfmark known not {
  userdict /pdfmark systemdict /cleartomark get put
} if
SDict begin [
  /Title (n_orig_length.precision.eps)
  /Subject (gnuplot plot)
  /Creator (gnuplot 4.4 patchlevel 3)
  /Author (xjia)
%  /Producer (gnuplot)
%  /Keywords ()
  /CreationDate (Tue Jun  4 13:06:59 2013)
  /DOCINFO pdfmark
end
} ifelse
/doclip {
  ClipToBoundingBox {
    newpath 50 50 moveto 410 50 lineto 410 302 lineto 50 302 lineto closepath
    clip
  } if
} def
%
% Gnuplot Prolog Version 4.4 (August 2010)
%
%/SuppressPDFMark true def
%
/M {moveto} bind def
/L {lineto} bind def
/R {rmoveto} bind def
/V {rlineto} bind def
/N {newpath moveto} bind def
/Z {closepath} bind def
/C {setrgbcolor} bind def
/f {rlineto fill} bind def
/g {setgray} bind def
/Gshow {show} def   % May be redefined later in the file to support UTF-8
/vpt2 vpt 2 mul def
/hpt2 hpt 2 mul def
/Lshow {currentpoint stroke M 0 vshift R 
	Blacktext {gsave 0 setgray show grestore} {show} ifelse} def
/Rshow {currentpoint stroke M dup stringwidth pop neg vshift R
	Blacktext {gsave 0 setgray show grestore} {show} ifelse} def
/Cshow {currentpoint stroke M dup stringwidth pop -2 div vshift R 
	Blacktext {gsave 0 setgray show grestore} {show} ifelse} def
/UP {dup vpt_ mul /vpt exch def hpt_ mul /hpt exch def
  /hpt2 hpt 2 mul def /vpt2 vpt 2 mul def} def
/DL {Color {setrgbcolor Solid {pop []} if 0 setdash}
 {pop pop pop 0 setgray Solid {pop []} if 0 setdash} ifelse} def
/BL {stroke userlinewidth 2 mul setlinewidth
	Rounded {1 setlinejoin 1 setlinecap} if} def
/AL {stroke userlinewidth 2 div setlinewidth
	Rounded {1 setlinejoin 1 setlinecap} if} def
/UL {dup gnulinewidth mul /userlinewidth exch def
	dup 1 lt {pop 1} if 10 mul /udl exch def} def
/PL {stroke userlinewidth setlinewidth
	Rounded {1 setlinejoin 1 setlinecap} if} def
3.8 setmiterlimit
% Default Line colors
/LCw {1 1 1} def
/LCb {0 0 0} def
/LCa {0 0 0} def
/LC0 {1 0 0} def
/LC1 {0 1 0} def
/LC2 {0 0 1} def
/LC3 {1 0 1} def
/LC4 {0 1 1} def
/LC5 {1 1 0} def
/LC6 {0 0 0} def
/LC7 {1 0.3 0} def
/LC8 {0.5 0.5 0.5} def
% Default Line Types
/LTw {PL [] 1 setgray} def
/LTb {BL [] LCb DL} def
/LTa {AL [1 udl mul 2 udl mul] 0 setdash LCa setrgbcolor} def
/LT0 {PL [] LC0 DL} def
/LT1 {PL [4 dl1 2 dl2] LC1 DL} def
/LT2 {PL [2 dl1 3 dl2] LC2 DL} def
/LT3 {PL [1 dl1 1.5 dl2] LC3 DL} def
/LT4 {PL [6 dl1 2 dl2 1 dl1 2 dl2] LC4 DL} def
/LT5 {PL [3 dl1 3 dl2 1 dl1 3 dl2] LC5 DL} def
/LT6 {PL [2 dl1 2 dl2 2 dl1 6 dl2] LC6 DL} def
/LT7 {PL [1 dl1 2 dl2 6 dl1 2 dl2 1 dl1 2 dl2] LC7 DL} def
/LT8 {PL [2 dl1 2 dl2 2 dl1 2 dl2 2 dl1 2 dl2 2 dl1 4 dl2] LC8 DL} def
/Pnt {stroke [] 0 setdash gsave 1 setlinecap M 0 0 V stroke grestore} def
/Dia {stroke [] 0 setdash 2 copy vpt add M
  hpt neg vpt neg V hpt vpt neg V
  hpt vpt V hpt neg vpt V closepath stroke
  Pnt} def
/Pls {stroke [] 0 setdash vpt sub M 0 vpt2 V
  currentpoint stroke M
  hpt neg vpt neg R hpt2 0 V stroke
 } def
/Box {stroke [] 0 setdash 2 copy exch hpt sub exch vpt add M
  0 vpt2 neg V hpt2 0 V 0 vpt2 V
  hpt2 neg 0 V closepath stroke
  Pnt} def
/Crs {stroke [] 0 setdash exch hpt sub exch vpt add M
  hpt2 vpt2 neg V currentpoint stroke M
  hpt2 neg 0 R hpt2 vpt2 V stroke} def
/TriU {stroke [] 0 setdash 2 copy vpt 1.12 mul add M
  hpt neg vpt -1.62 mul V
  hpt 2 mul 0 V
  hpt neg vpt 1.62 mul V closepath stroke
  Pnt} def
/Star {2 copy Pls Crs} def
/BoxF {stroke [] 0 setdash exch hpt sub exch vpt add M
  0 vpt2 neg V hpt2 0 V 0 vpt2 V
  hpt2 neg 0 V closepath fill} def
/TriUF {stroke [] 0 setdash vpt 1.12 mul add M
  hpt neg vpt -1.62 mul V
  hpt 2 mul 0 V
  hpt neg vpt 1.62 mul V closepath fill} def
/TriD {stroke [] 0 setdash 2 copy vpt 1.12 mul sub M
  hpt neg vpt 1.62 mul V
  hpt 2 mul 0 V
  hpt neg vpt -1.62 mul V closepath stroke
  Pnt} def
/TriDF {stroke [] 0 setdash vpt 1.12 mul sub M
  hpt neg vpt 1.62 mul V
  hpt 2 mul 0 V
  hpt neg vpt -1.62 mul V closepath fill} def
/DiaF {stroke [] 0 setdash vpt add M
  hpt neg vpt neg V hpt vpt neg V
  hpt vpt V hpt neg vpt V closepath fill} def
/Pent {stroke [] 0 setdash 2 copy gsave
  translate 0 hpt M 4 {72 rotate 0 hpt L} repeat
  closepath stroke grestore Pnt} def
/PentF {stroke [] 0 setdash gsave
  translate 0 hpt M 4 {72 rotate 0 hpt L} repeat
  closepath fill grestore} def
/Circle {stroke [] 0 setdash 2 copy
  hpt 0 360 arc stroke Pnt} def
/CircleF {stroke [] 0 setdash hpt 0 360 arc fill} def
/C0 {BL [] 0 setdash 2 copy moveto vpt 90 450 arc} bind def
/C1 {BL [] 0 setdash 2 copy moveto
	2 copy vpt 0 90 arc closepath fill
	vpt 0 360 arc closepath} bind def
/C2 {BL [] 0 setdash 2 copy moveto
	2 copy vpt 90 180 arc closepath fill
	vpt 0 360 arc closepath} bind def
/C3 {BL [] 0 setdash 2 copy moveto
	2 copy vpt 0 180 arc closepath fill
	vpt 0 360 arc closepath} bind def
/C4 {BL [] 0 setdash 2 copy moveto
	2 copy vpt 180 270 arc closepath fill
	vpt 0 360 arc closepath} bind def
/C5 {BL [] 0 setdash 2 copy moveto
	2 copy vpt 0 90 arc
	2 copy moveto
	2 copy vpt 180 270 arc closepath fill
	vpt 0 360 arc} bind def
/C6 {BL [] 0 setdash 2 copy moveto
	2 copy vpt 90 270 arc closepath fill
	vpt 0 360 arc closepath} bind def
/C7 {BL [] 0 setdash 2 copy moveto
	2 copy vpt 0 270 arc closepath fill
	vpt 0 360 arc closepath} bind def
/C8 {BL [] 0 setdash 2 copy moveto
	2 copy vpt 270 360 arc closepath fill
	vpt 0 360 arc closepath} bind def
/C9 {BL [] 0 setdash 2 copy moveto
	2 copy vpt 270 450 arc closepath fill
	vpt 0 360 arc closepath} bind def
/C10 {BL [] 0 setdash 2 copy 2 copy moveto vpt 270 360 arc closepath fill
	2 copy moveto
	2 copy vpt 90 180 arc closepath fill
	vpt 0 360 arc closepath} bind def
/C11 {BL [] 0 setdash 2 copy moveto
	2 copy vpt 0 180 arc closepath fill
	2 copy moveto
	2 copy vpt 270 360 arc closepath fill
	vpt 0 360 arc closepath} bind def
/C12 {BL [] 0 setdash 2 copy moveto
	2 copy vpt 180 360 arc closepath fill
	vpt 0 360 arc closepath} bind def
/C13 {BL [] 0 setdash 2 copy moveto
	2 copy vpt 0 90 arc closepath fill
	2 copy moveto
	2 copy vpt 180 360 arc closepath fill
	vpt 0 360 arc closepath} bind def
/C14 {BL [] 0 setdash 2 copy moveto
	2 copy vpt 90 360 arc closepath fill
	vpt 0 360 arc} bind def
/C15 {BL [] 0 setdash 2 copy vpt 0 360 arc closepath fill
	vpt 0 360 arc closepath} bind def
/Rec {newpath 4 2 roll moveto 1 index 0 rlineto 0 exch rlineto
	neg 0 rlineto closepath} bind def
/Square {dup Rec} bind def
/Bsquare {vpt sub exch vpt sub exch vpt2 Square} bind def
/S0 {BL [] 0 setdash 2 copy moveto 0 vpt rlineto BL Bsquare} bind def
/S1 {BL [] 0 setdash 2 copy vpt Square fill Bsquare} bind def
/S2 {BL [] 0 setdash 2 copy exch vpt sub exch vpt Square fill Bsquare} bind def
/S3 {BL [] 0 setdash 2 copy exch vpt sub exch vpt2 vpt Rec fill Bsquare} bind def
/S4 {BL [] 0 setdash 2 copy exch vpt sub exch vpt sub vpt Square fill Bsquare} bind def
/S5 {BL [] 0 setdash 2 copy 2 copy vpt Square fill
	exch vpt sub exch vpt sub vpt Square fill Bsquare} bind def
/S6 {BL [] 0 setdash 2 copy exch vpt sub exch vpt sub vpt vpt2 Rec fill Bsquare} bind def
/S7 {BL [] 0 setdash 2 copy exch vpt sub exch vpt sub vpt vpt2 Rec fill
	2 copy vpt Square fill Bsquare} bind def
/S8 {BL [] 0 setdash 2 copy vpt sub vpt Square fill Bsquare} bind def
/S9 {BL [] 0 setdash 2 copy vpt sub vpt vpt2 Rec fill Bsquare} bind def
/S10 {BL [] 0 setdash 2 copy vpt sub vpt Square fill 2 copy exch vpt sub exch vpt Square fill
	Bsquare} bind def
/S11 {BL [] 0 setdash 2 copy vpt sub vpt Square fill 2 copy exch vpt sub exch vpt2 vpt Rec fill
	Bsquare} bind def
/S12 {BL [] 0 setdash 2 copy exch vpt sub exch vpt sub vpt2 vpt Rec fill Bsquare} bind def
/S13 {BL [] 0 setdash 2 copy exch vpt sub exch vpt sub vpt2 vpt Rec fill
	2 copy vpt Square fill Bsquare} bind def
/S14 {BL [] 0 setdash 2 copy exch vpt sub exch vpt sub vpt2 vpt Rec fill
	2 copy exch vpt sub exch vpt Square fill Bsquare} bind def
/S15 {BL [] 0 setdash 2 copy Bsquare fill Bsquare} bind def
/D0 {gsave translate 45 rotate 0 0 S0 stroke grestore} bind def
/D1 {gsave translate 45 rotate 0 0 S1 stroke grestore} bind def
/D2 {gsave translate 45 rotate 0 0 S2 stroke grestore} bind def
/D3 {gsave translate 45 rotate 0 0 S3 stroke grestore} bind def
/D4 {gsave translate 45 rotate 0 0 S4 stroke grestore} bind def
/D5 {gsave translate 45 rotate 0 0 S5 stroke grestore} bind def
/D6 {gsave translate 45 rotate 0 0 S6 stroke grestore} bind def
/D7 {gsave translate 45 rotate 0 0 S7 stroke grestore} bind def
/D8 {gsave translate 45 rotate 0 0 S8 stroke grestore} bind def
/D9 {gsave translate 45 rotate 0 0 S9 stroke grestore} bind def
/D10 {gsave translate 45 rotate 0 0 S10 stroke grestore} bind def
/D11 {gsave translate 45 rotate 0 0 S11 stroke grestore} bind def
/D12 {gsave translate 45 rotate 0 0 S12 stroke grestore} bind def
/D13 {gsave translate 45 rotate 0 0 S13 stroke grestore} bind def
/D14 {gsave translate 45 rotate 0 0 S14 stroke grestore} bind def
/D15 {gsave translate 45 rotate 0 0 S15 stroke grestore} bind def
/DiaE {stroke [] 0 setdash vpt add M
  hpt neg vpt neg V hpt vpt neg V
  hpt vpt V hpt neg vpt V closepath stroke} def
/BoxE {stroke [] 0 setdash exch hpt sub exch vpt add M
  0 vpt2 neg V hpt2 0 V 0 vpt2 V
  hpt2 neg 0 V closepath stroke} def
/TriUE {stroke [] 0 setdash vpt 1.12 mul add M
  hpt neg vpt -1.62 mul V
  hpt 2 mul 0 V
  hpt neg vpt 1.62 mul V closepath stroke} def
/TriDE {stroke [] 0 setdash vpt 1.12 mul sub M
  hpt neg vpt 1.62 mul V
  hpt 2 mul 0 V
  hpt neg vpt -1.62 mul V closepath stroke} def
/PentE {stroke [] 0 setdash gsave
  translate 0 hpt M 4 {72 rotate 0 hpt L} repeat
  closepath stroke grestore} def
/CircE {stroke [] 0 setdash 
  hpt 0 360 arc stroke} def
/Opaque {gsave closepath 1 setgray fill grestore 0 setgray closepath} def
/DiaW {stroke [] 0 setdash vpt add M
  hpt neg vpt neg V hpt vpt neg V
  hpt vpt V hpt neg vpt V Opaque stroke} def
/BoxW {stroke [] 0 setdash exch hpt sub exch vpt add M
  0 vpt2 neg V hpt2 0 V 0 vpt2 V
  hpt2 neg 0 V Opaque stroke} def
/TriUW {stroke [] 0 setdash vpt 1.12 mul add M
  hpt neg vpt -1.62 mul V
  hpt 2 mul 0 V
  hpt neg vpt 1.62 mul V Opaque stroke} def
/TriDW {stroke [] 0 setdash vpt 1.12 mul sub M
  hpt neg vpt 1.62 mul V
  hpt 2 mul 0 V
  hpt neg vpt -1.62 mul V Opaque stroke} def
/PentW {stroke [] 0 setdash gsave
  translate 0 hpt M 4 {72 rotate 0 hpt L} repeat
  Opaque stroke grestore} def
/CircW {stroke [] 0 setdash 
  hpt 0 360 arc Opaque stroke} def
/BoxFill {gsave Rec 1 setgray fill grestore} def
/Density {
  /Fillden exch def
  currentrgbcolor
  /ColB exch def /ColG exch def /ColR exch def
  /ColR ColR Fillden mul Fillden sub 1 add def
  /ColG ColG Fillden mul Fillden sub 1 add def
  /ColB ColB Fillden mul Fillden sub 1 add def
  ColR ColG ColB setrgbcolor} def
/BoxColFill {gsave Rec PolyFill} def
/PolyFill {gsave Density fill grestore grestore} def
/h {rlineto rlineto rlineto gsave closepath fill grestore} bind def
%
% PostScript Level 1 Pattern Fill routine for rectangles
% Usage: x y w h s a XX PatternFill
%	x,y = lower left corner of box to be filled
%	w,h = width and height of box
%	  a = angle in degrees between lines and x-axis
%	 XX = 0/1 for no/yes cross-hatch
%
/PatternFill {gsave /PFa [ 9 2 roll ] def
  PFa 0 get PFa 2 get 2 div add PFa 1 get PFa 3 get 2 div add translate
  PFa 2 get -2 div PFa 3 get -2 div PFa 2 get PFa 3 get Rec
  gsave 1 setgray fill grestore clip
  currentlinewidth 0.5 mul setlinewidth
  /PFs PFa 2 get dup mul PFa 3 get dup mul add sqrt def
  0 0 M PFa 5 get rotate PFs -2 div dup translate
  0 1 PFs PFa 4 get div 1 add floor cvi
	{PFa 4 get mul 0 M 0 PFs V} for
  0 PFa 6 get ne {
	0 1 PFs PFa 4 get div 1 add floor cvi
	{PFa 4 get mul 0 2 1 roll M PFs 0 V} for
 } if
  stroke grestore} def
%
/languagelevel where
 {pop languagelevel} {1} ifelse
 2 lt
	{/InterpretLevel1 true def}
	{/InterpretLevel1 Level1 def}
 ifelse
%
% PostScript level 2 pattern fill definitions
%
/Level2PatternFill {
/Tile8x8 {/PaintType 2 /PatternType 1 /TilingType 1 /BBox [0 0 8 8] /XStep 8 /YStep 8}
	bind def
/KeepColor {currentrgbcolor [/Pattern /DeviceRGB] setcolorspace} bind def
<< Tile8x8
 /PaintProc {0.5 setlinewidth pop 0 0 M 8 8 L 0 8 M 8 0 L stroke} 
>> matrix makepattern
/Pat1 exch def
<< Tile8x8
 /PaintProc {0.5 setlinewidth pop 0 0 M 8 8 L 0 8 M 8 0 L stroke
	0 4 M 4 8 L 8 4 L 4 0 L 0 4 L stroke}
>> matrix makepattern
/Pat2 exch def
<< Tile8x8
 /PaintProc {0.5 setlinewidth pop 0 0 M 0 8 L
	8 8 L 8 0 L 0 0 L fill}
>> matrix makepattern
/Pat3 exch def
<< Tile8x8
 /PaintProc {0.5 setlinewidth pop -4 8 M 8 -4 L
	0 12 M 12 0 L stroke}
>> matrix makepattern
/Pat4 exch def
<< Tile8x8
 /PaintProc {0.5 setlinewidth pop -4 0 M 8 12 L
	0 -4 M 12 8 L stroke}
>> matrix makepattern
/Pat5 exch def
<< Tile8x8
 /PaintProc {0.5 setlinewidth pop -2 8 M 4 -4 L
	0 12 M 8 -4 L 4 12 M 10 0 L stroke}
>> matrix makepattern
/Pat6 exch def
<< Tile8x8
 /PaintProc {0.5 setlinewidth pop -2 0 M 4 12 L
	0 -4 M 8 12 L 4 -4 M 10 8 L stroke}
>> matrix makepattern
/Pat7 exch def
<< Tile8x8
 /PaintProc {0.5 setlinewidth pop 8 -2 M -4 4 L
	12 0 M -4 8 L 12 4 M 0 10 L stroke}
>> matrix makepattern
/Pat8 exch def
<< Tile8x8
 /PaintProc {0.5 setlinewidth pop 0 -2 M 12 4 L
	-4 0 M 12 8 L -4 4 M 8 10 L stroke}
>> matrix makepattern
/Pat9 exch def
/Pattern1 {PatternBgnd KeepColor Pat1 setpattern} bind def
/Pattern2 {PatternBgnd KeepColor Pat2 setpattern} bind def
/Pattern3 {PatternBgnd KeepColor Pat3 setpattern} bind def
/Pattern4 {PatternBgnd KeepColor Landscape {Pat5} {Pat4} ifelse setpattern} bind def
/Pattern5 {PatternBgnd KeepColor Landscape {Pat4} {Pat5} ifelse setpattern} bind def
/Pattern6 {PatternBgnd KeepColor Landscape {Pat9} {Pat6} ifelse setpattern} bind def
/Pattern7 {PatternBgnd KeepColor Landscape {Pat8} {Pat7} ifelse setpattern} bind def
} def
%
%
%End of PostScript Level 2 code
%
/PatternBgnd {
  TransparentPatterns {} {gsave 1 setgray fill grestore} ifelse
} def
%
% Substitute for Level 2 pattern fill codes with
% grayscale if Level 2 support is not selected.
%
/Level1PatternFill {
/Pattern1 {0.250 Density} bind def
/Pattern2 {0.500 Density} bind def
/Pattern3 {0.750 Density} bind def
/Pattern4 {0.125 Density} bind def
/Pattern5 {0.375 Density} bind def
/Pattern6 {0.625 Density} bind def
/Pattern7 {0.875 Density} bind def
} def
%
% Now test for support of Level 2 code
%
Level1 {Level1PatternFill} {Level2PatternFill} ifelse
%
/Symbol-Oblique /Symbol findfont [1 0 .167 1 0 0] makefont
dup length dict begin {1 index /FID eq {pop pop} {def} ifelse} forall
currentdict end definefont pop
/MFshow {
   { dup 5 get 3 ge
     { 5 get 3 eq {gsave} {grestore} ifelse }
     {dup dup 0 get findfont exch 1 get scalefont setfont
     [ currentpoint ] exch dup 2 get 0 exch R dup 5 get 2 ne {dup dup 6
     get exch 4 get {Gshow} {stringwidth pop 0 R} ifelse }if dup 5 get 0 eq
     {dup 3 get {2 get neg 0 exch R pop} {pop aload pop M} ifelse} {dup 5
     get 1 eq {dup 2 get exch dup 3 get exch 6 get stringwidth pop -2 div
     dup 0 R} {dup 6 get stringwidth pop -2 div 0 R 6 get
     show 2 index {aload pop M neg 3 -1 roll neg R pop pop} {pop pop pop
     pop aload pop M} ifelse }ifelse }ifelse }
     ifelse }
   forall} def
/Gswidth {dup type /stringtype eq {stringwidth} {pop (n) stringwidth} ifelse} def
/MFwidth {0 exch { dup 5 get 3 ge { 5 get 3 eq { 0 } { pop } ifelse }
 {dup 3 get{dup dup 0 get findfont exch 1 get scalefont setfont
     6 get Gswidth pop add} {pop} ifelse} ifelse} forall} def
/MLshow { currentpoint stroke M
  0 exch R
  Blacktext {gsave 0 setgray MFshow grestore} {MFshow} ifelse } bind def
/MRshow { currentpoint stroke M
  exch dup MFwidth neg 3 -1 roll R
  Blacktext {gsave 0 setgray MFshow grestore} {MFshow} ifelse } bind def
/MCshow { currentpoint stroke M
  exch dup MFwidth -2 div 3 -1 roll R
  Blacktext {gsave 0 setgray MFshow grestore} {MFshow} ifelse } bind def
/XYsave    { [( ) 1 2 true false 3 ()] } bind def
/XYrestore { [( ) 1 2 true false 4 ()] } bind def
end
%%EndProlog
gnudict begin
gsave
doclip
50 50 translate
0.050 0.050 scale
0 setgray
newpath
(Helvetica) findfont 250 scalefont setfont
1.000 UL
LTb
1225 800 M
63 0 V
5461 0 R
-63 0 V
stroke
1075 800 M
[ [(Helvetica) 250.0 0.0 true true 0 ( 0)]
] -83.3 MRshow
1.000 UL
LTb
1225 1194 M
63 0 V
5461 0 R
-63 0 V
stroke
1075 1194 M
[ [(Helvetica) 250.0 0.0 true true 0 ( 0.1)]
] -83.3 MRshow
1.000 UL
LTb
1225 1588 M
63 0 V
5461 0 R
-63 0 V
stroke
1075 1588 M
[ [(Helvetica) 250.0 0.0 true true 0 ( 0.2)]
] -83.3 MRshow
1.000 UL
LTb
1225 1982 M
63 0 V
5461 0 R
-63 0 V
stroke
1075 1982 M
[ [(Helvetica) 250.0 0.0 true true 0 ( 0.3)]
] -83.3 MRshow
1.000 UL
LTb
1225 2376 M
63 0 V
5461 0 R
-63 0 V
stroke
1075 2376 M
[ [(Helvetica) 250.0 0.0 true true 0 ( 0.4)]
] -83.3 MRshow
1.000 UL
LTb
1225 2770 M
63 0 V
5461 0 R
-63 0 V
stroke
1075 2770 M
[ [(Helvetica) 250.0 0.0 true true 0 ( 0.5)]
] -83.3 MRshow
1.000 UL
LTb
1225 3163 M
63 0 V
5461 0 R
-63 0 V
stroke
1075 3163 M
[ [(Helvetica) 250.0 0.0 true true 0 ( 0.6)]
] -83.3 MRshow
1.000 UL
LTb
1225 3557 M
63 0 V
5461 0 R
-63 0 V
stroke
1075 3557 M
[ [(Helvetica) 250.0 0.0 true true 0 ( 0.7)]
] -83.3 MRshow
1.000 UL
LTb
1225 3951 M
63 0 V
5461 0 R
-63 0 V
stroke
1075 3951 M
[ [(Helvetica) 250.0 0.0 true true 0 ( 0.8)]
] -83.3 MRshow
1.000 UL
LTb
1225 4345 M
63 0 V
5461 0 R
-63 0 V
stroke
1075 4345 M
[ [(Helvetica) 250.0 0.0 true true 0 ( 0.9)]
] -83.3 MRshow
1.000 UL
LTb
1225 4739 M
63 0 V
5461 0 R
-63 0 V
stroke
1075 4739 M
[ [(Helvetica) 250.0 0.0 true true 0 ( 1)]
] -83.3 MRshow
1.000 UL
LTb
1225 800 M
0 63 V
0 3876 R
0 -63 V
stroke
1225 550 M
[ [(Helvetica) 250.0 0.0 true true 0 ( 20)]
] -83.3 MCshow
1.000 UL
LTb
1916 800 M
0 63 V
0 3876 R
0 -63 V
stroke
1916 550 M
[ [(Helvetica) 250.0 0.0 true true 0 ( 30)]
] -83.3 MCshow
1.000 UL
LTb
2606 800 M
0 63 V
0 3876 R
0 -63 V
stroke
2606 550 M
[ [(Helvetica) 250.0 0.0 true true 0 ( 40)]
] -83.3 MCshow
1.000 UL
LTb
3297 800 M
0 63 V
0 3876 R
0 -63 V
stroke
3297 550 M
[ [(Helvetica) 250.0 0.0 true true 0 ( 50)]
] -83.3 MCshow
1.000 UL
LTb
3987 800 M
0 63 V
0 3876 R
0 -63 V
stroke
3987 550 M
[ [(Helvetica) 250.0 0.0 true true 0 ( 60)]
] -83.3 MCshow
1.000 UL
LTb
4678 800 M
0 63 V
0 3876 R
0 -63 V
stroke
4678 550 M
[ [(Helvetica) 250.0 0.0 true true 0 ( 70)]
] -83.3 MCshow
1.000 UL
LTb
5368 800 M
0 63 V
0 3876 R
0 -63 V
stroke
5368 550 M
[ [(Helvetica) 250.0 0.0 true true 0 ( 80)]
] -83.3 MCshow
1.000 UL
LTb
6059 800 M
0 63 V
0 3876 R
0 -63 V
stroke
6059 550 M
[ [(Helvetica) 250.0 0.0 true true 0 ( 90)]
] -83.3 MCshow
1.000 UL
LTb
6749 800 M
0 63 V
0 3876 R
0 -63 V
stroke
6749 550 M
[ [(Helvetica) 250.0 0.0 true true 0 ( 100)]
] -83.3 MCshow
1.000 UL
LTb
1.000 UL
LTb
1225 4739 N
0 -3939 V
5524 0 V
0 3939 V
-5524 0 V
Z stroke
LCb setrgbcolor
200 2769 M
currentpoint gsave translate -270 rotate 0 0 moveto
[ [(Helvetica) 250.0 0.0 true true 0 (Precision)]
] -83.3 MCshow
grestore
LTb
LCb setrgbcolor
3987 175 M
[ [(Helvetica) 250.0 0.0 true true 0 (Original Length)]
] -83.3 MCshow
LTb
1.000 UP
1.000 UL
LTb
% Begin plot #1
1.000 UP
1.000 UL
LT0
1225 4581 Pls
1225 4494 Pls
1225 4739 Pls
1225 4641 Pls
1225 4660 Pls
1225 4739 Pls
1225 4594 Pls
1225 4683 Pls
1225 4739 Pls
1225 4739 Pls
1225 4739 Pls
1225 4581 Pls
1225 4542 Pls
1225 4739 Pls
1225 4739 Pls
1225 4739 Pls
1225 4673 Pls
1225 4739 Pls
1225 4739 Pls
1225 4739 Pls
1225 3459 Pls
1225 4279 Pls
1225 4312 Pls
1225 4739 Pls
1225 2885 Pls
1225 3846 Pls
1225 4345 Pls
1225 4739 Pls
1225 2998 Pls
1225 3984 Pls
1225 4143 Pls
1225 4739 Pls
1225 3095 Pls
1225 2441 Pls
1225 3920 Pls
1225 4739 Pls
1225 3177 Pls
1225 3887 Pls
1225 4129 Pls
1225 4739 Pls
2606 4586 Pls
2606 4618 Pls
2606 4551 Pls
2606 4621 Pls
2606 4739 Pls
2606 4651 Pls
2606 4739 Pls
2606 4711 Pls
2606 4596 Pls
2606 4595 Pls
2606 4739 Pls
2606 4470 Pls
2606 4683 Pls
2606 4739 Pls
2606 4667 Pls
2606 4683 Pls
2606 4581 Pls
2606 4739 Pls
2606 4739 Pls
2606 4641 Pls
2606 2879 Pls
2606 2572 Pls
2606 3229 Pls
2606 3635 Pls
2606 1915 Pls
2606 2570 Pls
2606 2679 Pls
2606 3067 Pls
2606 2127 Pls
2606 2573 Pls
2606 2733 Pls
2606 3349 Pls
2606 1598 Pls
2606 2319 Pls
2606 2545 Pls
2606 3093 Pls
2606 1702 Pls
2606 2100 Pls
2606 2921 Pls
2606 3042 Pls
3987 4673 Pls
3987 4422 Pls
3987 4596 Pls
3987 4560 Pls
3987 4739 Pls
3987 4660 Pls
3987 4660 Pls
3987 4421 Pls
3987 4478 Pls
3987 4310 Pls
3987 4580 Pls
3987 4626 Pls
3987 4626 Pls
3987 4660 Pls
3987 4570 Pls
3987 4739 Pls
3987 4739 Pls
3987 4739 Pls
3987 4651 Pls
3987 4577 Pls
3987 2273 Pls
3987 2230 Pls
3987 2276 Pls
3987 2638 Pls
3987 1565 Pls
3987 1715 Pls
3987 2287 Pls
3987 2301 Pls
3987 1307 Pls
3987 1870 Pls
3987 2040 Pls
3987 2603 Pls
3987 1404 Pls
3987 1631 Pls
3987 2015 Pls
3987 2210 Pls
3987 1223 Pls
3987 1586 Pls
3987 1999 Pls
3987 2329 Pls
5368 4621 Pls
5368 4222 Pls
5368 4678 Pls
5368 4498 Pls
5368 4510 Pls
5368 4296 Pls
5368 4581 Pls
5368 4564 Pls
5368 4595 Pls
5368 4392 Pls
5368 4600 Pls
5368 4667 Pls
5368 4580 Pls
5368 4739 Pls
5368 4596 Pls
5368 4564 Pls
5368 4529 Pls
5368 4690 Pls
5368 4581 Pls
5368 4651 Pls
5368 1556 Pls
5368 1728 Pls
5368 1972 Pls
5368 2023 Pls
5368 1309 Pls
5368 1688 Pls
5368 1818 Pls
5368 1982 Pls
5368 1176 Pls
5368 1400 Pls
5368 1810 Pls
5368 1864 Pls
5368 1124 Pls
5368 1369 Pls
5368 1661 Pls
5368 1782 Pls
5368 1101 Pls
5368 1382 Pls
5368 1506 Pls
5368 1954 Pls
6749 4499 Pls
6749 4497 Pls
6749 3930 Pls
6749 4739 Pls
6749 4739 Pls
6749 4412 Pls
6749 4505 Pls
6749 4618 Pls
6749 4739 Pls
6749 4739 Pls
6749 4739 Pls
6749 4512 Pls
6749 4739 Pls
6749 4739 Pls
6749 4651 Pls
6749 4739 Pls
6749 4581 Pls
6749 4739 Pls
6749 4739 Pls
6749 4524 Pls
6749 1184 Pls
6749 1912 Pls
6749 1529 Pls
6749 1887 Pls
6749 1178 Pls
6749 1400 Pls
6749 1590 Pls
6749 1738 Pls
6749 1136 Pls
6749 1299 Pls
6749 1557 Pls
6749 1563 Pls
6749 1000 Pls
6749 1291 Pls
6749 1399 Pls
6749 1632 Pls
6749 1036 Pls
6749 1231 Pls
6749 1395 Pls
6749 1565 Pls
1225 4739 Pls
1225 4739 Pls
1225 4529 Pls
1225 4608 Pls
1225 4673 Pls
1225 4739 Pls
1225 4739 Pls
1225 4690 Pls
1225 4739 Pls
1225 4626 Pls
1225 4739 Pls
1225 4739 Pls
1225 4739 Pls
1225 4739 Pls
1225 4608 Pls
1225 4739 Pls
1225 4739 Pls
1225 4739 Pls
1225 4739 Pls
1225 4739 Pls
1225 3689 Pls
1225 4188 Pls
1225 4463 Pls
1225 4739 Pls
1225 4444 Pls
1225 4148 Pls
1225 4542 Pls
1225 4739 Pls
1225 3807 Pls
1225 3879 Pls
1225 4272 Pls
1225 4739 Pls
1225 3564 Pls
1225 3721 Pls
1225 4148 Pls
1225 4739 Pls
1225 3259 Pls
1225 4037 Pls
1225 4542 Pls
1225 4739 Pls
2606 4561 Pls
2606 4739 Pls
2606 4700 Pls
2606 4450 Pls
2606 4739 Pls
2606 4520 Pls
2606 4667 Pls
2606 4739 Pls
2606 4739 Pls
2606 4739 Pls
2606 4739 Pls
2606 4739 Pls
2606 4626 Pls
2606 4739 Pls
2606 4739 Pls
2606 4581 Pls
2606 4739 Pls
2606 4739 Pls
2606 4739 Pls
2606 4739 Pls
2606 3991 Pls
2606 2875 Pls
2606 3899 Pls
2606 4153 Pls
2606 3683 Pls
2606 2491 Pls
2606 3351 Pls
2606 3576 Pls
2606 2211 Pls
2606 2737 Pls
2606 2378 Pls
2606 3489 Pls
2606 2286 Pls
2606 2819 Pls
2606 2887 Pls
2606 3786 Pls
2606 1956 Pls
2606 2160 Pls
2606 2567 Pls
2606 3490 Pls
3987 4667 Pls
3987 4690 Pls
3987 4739 Pls
3987 4651 Pls
3987 4564 Pls
3987 4454 Pls
3987 4739 Pls
3987 4624 Pls
3987 4667 Pls
3987 4660 Pls
3987 4651 Pls
3987 4602 Pls
3987 4739 Pls
3987 4739 Pls
3987 4575 Pls
3987 4703 Pls
3987 4739 Pls
3987 4581 Pls
3987 4581 Pls
3987 4739 Pls
3987 2552 Pls
3987 2507 Pls
3987 3623 Pls
3987 2794 Pls
3987 2079 Pls
3987 2385 Pls
3987 2509 Pls
3987 2730 Pls
3987 1439 Pls
3987 2296 Pls
3987 2311 Pls
3987 2781 Pls
3987 1580 Pls
3987 2056 Pls
3987 2001 Pls
3987 2687 Pls
3987 1475 Pls
3987 1838 Pls
3987 2296 Pls
3987 2577 Pls
5368 4374 Pls
5368 4641 Pls
5368 4553 Pls
5368 4497 Pls
5368 4739 Pls
5368 4650 Pls
5368 4567 Pls
5368 4485 Pls
5368 4673 Pls
5368 4589 Pls
5368 4595 Pls
5368 4739 Pls
5368 4626 Pls
5368 4641 Pls
5368 4621 Pls
5368 4739 Pls
5368 4667 Pls
5368 4739 Pls
5368 4739 Pls
5368 4739 Pls
5368 1758 Pls
5368 1999 Pls
5368 1917 Pls
5368 2066 Pls
5368 1466 Pls
5368 1939 Pls
5368 1959 Pls
5368 2599 Pls
5368 1213 Pls
5368 1477 Pls
5368 1918 Pls
5368 1894 Pls
5368 1388 Pls
5368 1547 Pls
5368 1815 Pls
5368 2243 Pls
5368 1263 Pls
5368 1323 Pls
5368 1838 Pls
5368 1919 Pls
6749 4667 Pls
6749 4644 Pls
6749 4656 Pls
6749 4580 Pls
6749 4608 Pls
6749 4570 Pls
6749 4739 Pls
6749 4564 Pls
6749 4469 Pls
6749 4739 Pls
6749 4510 Pls
6749 4711 Pls
6749 4739 Pls
6749 4596 Pls
6749 4530 Pls
6749 4651 Pls
6749 4739 Pls
6749 4739 Pls
6749 4739 Pls
6749 4598 Pls
6749 1543 Pls
6749 1826 Pls
6749 1677 Pls
6749 2533 Pls
6749 1351 Pls
6749 1723 Pls
6749 1654 Pls
6749 2257 Pls
6749 1250 Pls
6749 1487 Pls
6749 1626 Pls
6749 1689 Pls
6749 1087 Pls
6749 1397 Pls
6749 1557 Pls
6749 1719 Pls
6749 1140 Pls
6749 1270 Pls
6749 1501 Pls
6749 1735 Pls
1225 4739 Pls
1225 4739 Pls
1225 4739 Pls
1225 4739 Pls
1225 4739 Pls
1225 4739 Pls
1225 4739 Pls
1225 4739 Pls
1225 4739 Pls
1225 4739 Pls
1225 4739 Pls
1225 4739 Pls
1225 4739 Pls
1225 4641 Pls
1225 4739 Pls
1225 4739 Pls
1225 4739 Pls
1225 4739 Pls
1225 4739 Pls
1225 4739 Pls
1225 4476 Pls
1225 4411 Pls
1225 4444 Pls
1225 4739 Pls
1225 4122 Pls
1225 4056 Pls
1225 4739 Pls
1225 4739 Pls
1225 4214 Pls
1225 4148 Pls
1225 4542 Pls
1225 4739 Pls
1225 3630 Pls
1225 4258 Pls
1225 4608 Pls
1225 4739 Pls
1225 3754 Pls
1225 4312 Pls
1225 4319 Pls
1225 4739 Pls
2606 4739 Pls
2606 4626 Pls
2606 4739 Pls
2606 4739 Pls
2606 4667 Pls
2606 4739 Pls
2606 4739 Pls
2606 4555 Pls
2606 4739 Pls
2606 4739 Pls
2606 4667 Pls
2606 4626 Pls
2606 4739 Pls
2606 4739 Pls
2606 4739 Pls
2606 4739 Pls
2606 4739 Pls
2606 4739 Pls
2606 4739 Pls
2606 4739 Pls
2606 3032 Pls
2606 3262 Pls
2606 3859 Pls
2606 4581 Pls
2606 3285 Pls
2606 3721 Pls
2606 3951 Pls
2606 3689 Pls
2606 2697 Pls
2606 3236 Pls
2606 3513 Pls
2606 3476 Pls
2606 2807 Pls
2606 3544 Pls
2606 3282 Pls
2606 3677 Pls
2606 2165 Pls
2606 2937 Pls
2606 3290 Pls
2606 3458 Pls
3987 4739 Pls
3987 4591 Pls
3987 4608 Pls
3987 4539 Pls
3987 4739 Pls
3987 4651 Pls
3987 4554 Pls
3987 4667 Pls
3987 4539 Pls
3987 4739 Pls
3987 4667 Pls
3987 4706 Pls
3987 4739 Pls
3987 4739 Pls
3987 4739 Pls
3987 4700 Pls
3987 4739 Pls
3987 4739 Pls
3987 4739 Pls
3987 4651 Pls
3987 3124 Pls
3987 2861 Pls
3987 3025 Pls
3987 3610 Pls
3987 1998 Pls
3987 1800 Pls
3987 2350 Pls
3987 2926 Pls
3987 2127 Pls
3987 1968 Pls
3987 2342 Pls
3987 2827 Pls
3987 1830 Pls
3987 2149 Pls
3987 2731 Pls
3987 2690 Pls
3987 1606 Pls
3987 1828 Pls
3987 2232 Pls
3987 2790 Pls
5368 4739 Pls
5368 4608 Pls
5368 4739 Pls
5368 4636 Pls
5368 4739 Pls
5368 4673 Pls
5368 4651 Pls
5368 4739 Pls
5368 4651 Pls
5368 4580 Pls
5368 4651 Pls
5368 4713 Pls
5368 4395 Pls
5368 4739 Pls
5368 4660 Pls
5368 4739 Pls
5368 4739 Pls
5368 4690 Pls
5368 4739 Pls
5368 4596 Pls
5368 2152 Pls
5368 2494 Pls
5368 2902 Pls
5368 3131 Pls
5368 1741 Pls
5368 1829 Pls
5368 2475 Pls
5368 2299 Pls
5368 1707 Pls
5368 2112 Pls
5368 2169 Pls
5368 2106 Pls
5368 1479 Pls
5368 1717 Pls
5368 2010 Pls
5368 2079 Pls
5368 1499 Pls
5368 1885 Pls
5368 1901 Pls
5368 2041 Pls
6749 4474 Pls
6749 4595 Pls
6749 4421 Pls
6749 4739 Pls
6749 4608 Pls
6749 4464 Pls
6749 4739 Pls
6749 4739 Pls
6749 4651 Pls
6749 4739 Pls
6749 4739 Pls
6749 4586 Pls
6749 4739 Pls
6749 4739 Pls
6749 4619 Pls
6749 4356 Pls
6749 4739 Pls
6749 4739 Pls
6749 4739 Pls
6749 4739 Pls
6749 1564 Pls
6749 2391 Pls
6749 1657 Pls
6749 2203 Pls
6749 1414 Pls
6749 1672 Pls
6749 2212 Pls
6749 2091 Pls
6749 1291 Pls
6749 1593 Pls
6749 1747 Pls
6749 1983 Pls
6749 1287 Pls
6749 1564 Pls
6749 1646 Pls
6749 1896 Pls
6749 1249 Pls
6749 1367 Pls
6749 1608 Pls
6749 1731 Pls
1225 4739 Pls
1225 4673 Pls
1225 4739 Pls
1225 4739 Pls
1225 4739 Pls
1225 4739 Pls
1225 4739 Pls
1225 4739 Pls
1225 4673 Pls
1225 4739 Pls
1225 4739 Pls
1225 4739 Pls
1225 4345 Pls
1225 4345 Pls
1225 4739 Pls
1225 4739 Pls
1225 4739 Pls
1225 4739 Pls
1225 4739 Pls
1225 4739 Pls
1225 4476 Pls
1225 4542 Pls
1225 4739 Pls
1225 4739 Pls
1225 3745 Pls
1225 4542 Pls
1225 4739 Pls
1225 4739 Pls
1225 4122 Pls
1225 4109 Pls
1225 4148 Pls
1225 4739 Pls
1225 4251 Pls
1225 4188 Pls
1225 4739 Pls
1225 4739 Pls
1225 3623 Pls
1225 3886 Pls
1225 4345 Pls
1225 4739 Pls
2606 4739 Pls
2606 4626 Pls
2606 4706 Pls
2606 4667 Pls
2606 4739 Pls
2606 4739 Pls
2606 4739 Pls
2606 4596 Pls
2606 4739 Pls
2606 4739 Pls
2606 4739 Pls
2606 4739 Pls
2606 4739 Pls
2606 4739 Pls
2606 4651 Pls
2606 4739 Pls
2606 4739 Pls
2606 4739 Pls
2606 4739 Pls
2606 4739 Pls
2606 4148 Pls
2606 3347 Pls
2606 3925 Pls
2606 4082 Pls
2606 2846 Pls
2606 3657 Pls
2606 4591 Pls
2606 4495 Pls
2606 2513 Pls
2606 3694 Pls
2606 4012 Pls
2606 3940 Pls
2606 3488 Pls
2606 3137 Pls
2606 3981 Pls
2606 4161 Pls
2606 2875 Pls
2606 3337 Pls
2606 3415 Pls
2606 3933 Pls
3987 4616 Pls
3987 4424 Pls
3987 4739 Pls
3987 4739 Pls
3987 4739 Pls
3987 4739 Pls
3987 4739 Pls
3987 4739 Pls
3987 4581 Pls
3987 4739 Pls
3987 4651 Pls
3987 4667 Pls
3987 4739 Pls
3987 4739 Pls
3987 4739 Pls
3987 4695 Pls
3987 4739 Pls
3987 4626 Pls
3987 4739 Pls
3987 4739 Pls
3987 2786 Pls
3987 3253 Pls
3987 3424 Pls
3987 3597 Pls
3987 2588 Pls
3987 3255 Pls
3987 3075 Pls
3987 3028 Pls
3987 2353 Pls
3987 2198 Pls
3987 2724 Pls
3987 2925 Pls
3987 1934 Pls
3987 2822 Pls
3987 2495 Pls
3987 2775 Pls
3987 1732 Pls
3987 1904 Pls
3987 2699 Pls
3987 2725 Pls
5368 4739 Pls
5368 4683 Pls
5368 4539 Pls
5368 4553 Pls
5368 4739 Pls
5368 4370 Pls
5368 4349 Pls
5368 4610 Pls
5368 4739 Pls
5368 4690 Pls
5368 4739 Pls
5368 4667 Pls
5368 4739 Pls
5368 4678 Pls
5368 4739 Pls
5368 4626 Pls
5368 4651 Pls
5368 4551 Pls
5368 4739 Pls
5368 4611 Pls
5368 2479 Pls
5368 2258 Pls
5368 2794 Pls
5368 3076 Pls
5368 1894 Pls
5368 2282 Pls
5368 2411 Pls
5368 2646 Pls
5368 1722 Pls
5368 2312 Pls
5368 2100 Pls
5368 2302 Pls
5368 1486 Pls
5368 1758 Pls
5368 2146 Pls
5368 2203 Pls
5368 1656 Pls
5368 2247 Pls
5368 1979 Pls
5368 2132 Pls
6749 4739 Pls
6749 4646 Pls
6749 4686 Pls
6749 4636 Pls
6749 4739 Pls
6749 4683 Pls
6749 4686 Pls
6749 4693 Pls
6749 4673 Pls
6749 4683 Pls
6749 4596 Pls
6749 4596 Pls
6749 4739 Pls
6749 4739 Pls
6749 4739 Pls
6749 4739 Pls
6749 4739 Pls
6749 4476 Pls
6749 4739 Pls
6749 4739 Pls
6749 2212 Pls
6749 2446 Pls
6749 2433 Pls
6749 3034 Pls
6749 1522 Pls
6749 1954 Pls
6749 2266 Pls
6749 2061 Pls
6749 1493 Pls
6749 1661 Pls
6749 1999 Pls
6749 2236 Pls
6749 1298 Pls
6749 1723 Pls
6749 1927 Pls
6749 1938 Pls
6749 1264 Pls
6749 1555 Pls
6749 1912 Pls
6749 1767 Pls
1225 4739 Pls
1225 4739 Pls
1225 4739 Pls
1225 4739 Pls
1225 4739 Pls
1225 4739 Pls
1225 4739 Pls
1225 4739 Pls
1225 4739 Pls
1225 4739 Pls
1225 4651 Pls
1225 4739 Pls
1225 4739 Pls
1225 4739 Pls
1225 4739 Pls
1225 4739 Pls
1225 4739 Pls
1225 4739 Pls
1225 4739 Pls
1225 4739 Pls
1225 4345 Pls
1225 4739 Pls
1225 4739 Pls
1225 4739 Pls
1225 4148 Pls
1225 4608 Pls
1225 4739 Pls
1225 4739 Pls
1225 4739 Pls
1225 4739 Pls
1225 4739 Pls
1225 4739 Pls
1225 4444 Pls
1225 3853 Pls
1225 4312 Pls
1225 4739 Pls
1225 3892 Pls
1225 4345 Pls
1225 4739 Pls
1225 4739 Pls
2606 4739 Pls
2606 4739 Pls
2606 4739 Pls
2606 4683 Pls
2606 4739 Pls
2606 4739 Pls
2606 4690 Pls
2606 4739 Pls
2606 4651 Pls
2606 4739 Pls
2606 4739 Pls
2606 4739 Pls
2606 4739 Pls
2606 4641 Pls
2606 4690 Pls
2606 4739 Pls
2606 4739 Pls
2606 4739 Pls
2606 4739 Pls
2606 4739 Pls
2606 4608 Pls
2606 4279 Pls
2606 4345 Pls
2606 4181 Pls
2606 3410 Pls
2606 4115 Pls
2606 4285 Pls
2606 4154 Pls
2606 3163 Pls
2606 3318 Pls
2606 3679 Pls
2606 3698 Pls
2606 3295 Pls
2606 3881 Pls
2606 3497 Pls
2606 3773 Pls
2606 2890 Pls
2606 3133 Pls
2606 3379 Pls
2606 3569 Pls
3987 4739 Pls
3987 4739 Pls
3987 4667 Pls
3987 4739 Pls
3987 4739 Pls
3987 4510 Pls
3987 4686 Pls
3987 4645 Pls
3987 4739 Pls
3987 4678 Pls
3987 4608 Pls
3987 4739 Pls
3987 4739 Pls
3987 4739 Pls
3987 4739 Pls
3987 4739 Pls
3987 4739 Pls
3987 4739 Pls
3987 4667 Pls
3987 4739 Pls
3987 3610 Pls
3987 3362 Pls
3987 3308 Pls
3987 4469 Pls
3987 3174 Pls
3987 3652 Pls
3987 3315 Pls
3987 3042 Pls
3987 1894 Pls
3987 3243 Pls
3987 2911 Pls
3987 2901 Pls
3987 2568 Pls
3987 2652 Pls
3987 2622 Pls
3987 3465 Pls
3987 2445 Pls
3987 2586 Pls
3987 2752 Pls
3987 2589 Pls
5368 4739 Pls
5368 4667 Pls
5368 4739 Pls
5368 4739 Pls
5368 4673 Pls
5368 4739 Pls
5368 4739 Pls
5368 4646 Pls
5368 4641 Pls
5368 4739 Pls
5368 4667 Pls
5368 4739 Pls
5368 4739 Pls
5368 4580 Pls
5368 4640 Pls
5368 4739 Pls
5368 4739 Pls
5368 4739 Pls
5368 4739 Pls
5368 4739 Pls
5368 3032 Pls
5368 3252 Pls
5368 3124 Pls
5368 2547 Pls
5368 2071 Pls
5368 2492 Pls
5368 2148 Pls
5368 3080 Pls
5368 1760 Pls
5368 2259 Pls
5368 2609 Pls
5368 2867 Pls
5368 1808 Pls
5368 2030 Pls
5368 2195 Pls
5368 2525 Pls
5368 1588 Pls
5368 2133 Pls
5368 2060 Pls
5368 2266 Pls
6749 4739 Pls
6749 4739 Pls
6749 4621 Pls
6749 4535 Pls
6749 4739 Pls
6749 4739 Pls
6749 4739 Pls
6749 4739 Pls
6749 4739 Pls
6749 4739 Pls
6749 4646 Pls
6749 4739 Pls
6749 4660 Pls
6749 4678 Pls
6749 4739 Pls
6749 4739 Pls
6749 4608 Pls
6749 4739 Pls
6749 4739 Pls
6749 4739 Pls
6749 2113 Pls
6749 3170 Pls
6749 2857 Pls
6749 2362 Pls
6749 1522 Pls
6749 2377 Pls
6749 2211 Pls
6749 2659 Pls
6749 1611 Pls
6749 2019 Pls
6749 1923 Pls
6749 2300 Pls
6749 1427 Pls
6749 1799 Pls
6749 1765 Pls
6749 2004 Pls
6749 1279 Pls
6749 1716 Pls
6749 1846 Pls
6749 2087 Pls
1225 4739 Pls
1225 4739 Pls
1225 4739 Pls
1225 4739 Pls
1225 4739 Pls
1225 4739 Pls
1225 4739 Pls
1225 4739 Pls
1225 4739 Pls
1225 4739 Pls
1225 4739 Pls
1225 4739 Pls
1225 4739 Pls
1225 4739 Pls
1225 4739 Pls
1225 4739 Pls
1225 4739 Pls
1225 4739 Pls
1225 4739 Pls
1225 4739 Pls
1225 4542 Pls
1225 4739 Pls
1225 4739 Pls
1225 4739 Pls
1225 4739 Pls
1225 4739 Pls
1225 4739 Pls
1225 4739 Pls
1225 4660 Pls
1225 4641 Pls
1225 4739 Pls
1225 4739 Pls
1225 4608 Pls
1225 4641 Pls
1225 4739 Pls
1225 4739 Pls
1225 4148 Pls
1225 4286 Pls
1225 4345 Pls
1225 4739 Pls
2606 4739 Pls
2606 4739 Pls
2606 4739 Pls
2606 4706 Pls
2606 4583 Pls
2606 4524 Pls
2606 4739 Pls
2606 4739 Pls
2606 4739 Pls
2606 4739 Pls
2606 4651 Pls
2606 4739 Pls
2606 4739 Pls
2606 4739 Pls
2606 4739 Pls
2606 4739 Pls
2606 4739 Pls
2606 4739 Pls
2606 4739 Pls
2606 4739 Pls
2606 4056 Pls
2606 4542 Pls
2606 3925 Pls
2606 4220 Pls
2606 4641 Pls
2606 4082 Pls
2606 3689 Pls
2606 4017 Pls
2606 3646 Pls
2606 4089 Pls
2606 3869 Pls
2606 4420 Pls
2606 3820 Pls
2606 3155 Pls
2606 4509 Pls
2606 3931 Pls
2606 3214 Pls
2606 3218 Pls
2606 3602 Pls
2606 3783 Pls
3987 4651 Pls
3987 4739 Pls
3987 4739 Pls
3987 4559 Pls
3987 4739 Pls
3987 4625 Pls
3987 4739 Pls
3987 4739 Pls
3987 4739 Pls
3987 4739 Pls
3987 4739 Pls
3987 4739 Pls
3987 4739 Pls
3987 4739 Pls
3987 4739 Pls
3987 4739 Pls
3987 4739 Pls
3987 4626 Pls
3987 4739 Pls
3987 4739 Pls
3987 4069 Pls
3987 3131 Pls
3987 3879 Pls
3987 3984 Pls
3987 3050 Pls
3987 3155 Pls
3987 3345 Pls
3987 3225 Pls
3987 4054 Pls
3987 2498 Pls
3987 3615 Pls
3987 3117 Pls
3987 2486 Pls
3987 3107 Pls
3987 3440 Pls
3987 3150 Pls
3987 2035 Pls
3987 2312 Pls
3987 2656 Pls
3987 3170 Pls
5368 4660 Pls
5368 4559 Pls
5368 4739 Pls
5368 4739 Pls
5368 4739 Pls
5368 4739 Pls
5368 4739 Pls
5368 4739 Pls
5368 4739 Pls
5368 4678 Pls
5368 4739 Pls
5368 4739 Pls
5368 4739 Pls
5368 4739 Pls
5368 4678 Pls
5368 4686 Pls
5368 4739 Pls
5368 4739 Pls
5368 4739 Pls
5368 4739 Pls
5368 2912 Pls
5368 2879 Pls
5368 3204 Pls
5368 3912 Pls
5368 2493 Pls
5368 2796 Pls
5368 2794 Pls
5368 2890 Pls
5368 2320 Pls
5368 2540 Pls
5368 2342 Pls
5368 2699 Pls
5368 2428 Pls
5368 2037 Pls
5368 2686 Pls
5368 2793 Pls
5368 1802 Pls
5368 2139 Pls
5368 2251 Pls
5368 2377 Pls
6749 4739 Pls
6749 4739 Pls
6749 4651 Pls
6749 4651 Pls
6749 4739 Pls
6749 4739 Pls
6749 4739 Pls
6749 4650 Pls
6749 4673 Pls
6749 4667 Pls
6749 4739 Pls
6749 4739 Pls
6749 4739 Pls
6749 4651 Pls
6749 4739 Pls
6749 4646 Pls
6749 4739 Pls
6749 4739 Pls
6749 4739 Pls
6749 4678 Pls
6749 2389 Pls
6749 2722 Pls
6749 2724 Pls
6749 2966 Pls
6749 1945 Pls
6749 2268 Pls
6749 2210 Pls
6749 2789 Pls
6749 2055 Pls
6749 2057 Pls
6749 2171 Pls
6749 2641 Pls
6749 1632 Pls
6749 1981 Pls
6749 1650 Pls
6749 2294 Pls
6749 1609 Pls
6749 1995 Pls
6749 1999 Pls
6749 2349 Pls
1225 4739 Pls
1225 4739 Pls
1225 4706 Pls
1225 4739 Pls
1225 4673 Pls
1225 4739 Pls
1225 4700 Pls
1225 4739 Pls
1225 4739 Pls
1225 4739 Pls
1225 4739 Pls
1225 4739 Pls
1225 4739 Pls
1225 4739 Pls
1225 4739 Pls
1225 4739 Pls
1225 4739 Pls
1225 4739 Pls
1225 4739 Pls
1225 4739 Pls
1225 4608 Pls
1225 4345 Pls
1225 4739 Pls
1225 4739 Pls
1225 4050 Pls
1225 4739 Pls
1225 4542 Pls
1225 4739 Pls
1225 4450 Pls
1225 4608 Pls
1225 4739 Pls
1225 4739 Pls
1225 4739 Pls
1225 4739 Pls
1225 4188 Pls
1225 4739 Pls
1225 4188 Pls
1225 4383 Pls
1225 4148 Pls
1225 4739 Pls
2606 4651 Pls
2606 4686 Pls
2606 4739 Pls
2606 4739 Pls
2606 4739 Pls
2606 4739 Pls
2606 4739 Pls
2606 4739 Pls
2606 4739 Pls
2606 4739 Pls
2606 4739 Pls
2606 4739 Pls
2606 4739 Pls
2606 4739 Pls
2606 4739 Pls
2606 4739 Pls
2606 4739 Pls
2606 4739 Pls
2606 4739 Pls
2606 4739 Pls
2606 3794 Pls
2606 4279 Pls
2606 4542 Pls
2606 4214 Pls
2606 4345 Pls
2606 4476 Pls
2606 4056 Pls
2606 3872 Pls
2606 3273 Pls
2606 2754 Pls
2606 3962 Pls
2606 4739 Pls
2606 3557 Pls
2606 3107 Pls
2606 4082 Pls
2606 4089 Pls
2606 3518 Pls
2606 3523 Pls
2606 3323 Pls
2606 4237 Pls
3987 4739 Pls
3987 4714 Pls
3987 4739 Pls
3987 4678 Pls
3987 4739 Pls
3987 4739 Pls
3987 4739 Pls
3987 4706 Pls
3987 4739 Pls
3987 4739 Pls
3987 4739 Pls
3987 4667 Pls
3987 4739 Pls
3987 4739 Pls
3987 4739 Pls
3987 4476 Pls
3987 4739 Pls
3987 4739 Pls
3987 4739 Pls
3987 4739 Pls
3987 4082 Pls
3987 4188 Pls
3987 4109 Pls
3987 3636 Pls
3987 2927 Pls
3987 3689 Pls
3987 3354 Pls
3987 3019 Pls
3987 3279 Pls
3987 3247 Pls
3987 3762 Pls
3987 3477 Pls
3987 2803 Pls
3987 2834 Pls
3987 2979 Pls
3987 2538 Pls
3987 2383 Pls
3987 2331 Pls
3987 2675 Pls
3987 3109 Pls
5368 4739 Pls
5368 4706 Pls
5368 4739 Pls
5368 4678 Pls
5368 4651 Pls
5368 4739 Pls
5368 4673 Pls
5368 4739 Pls
5368 4632 Pls
5368 4739 Pls
5368 4739 Pls
5368 4678 Pls
5368 4739 Pls
5368 4739 Pls
5368 4739 Pls
5368 4739 Pls
5368 4739 Pls
5368 4739 Pls
5368 4739 Pls
5368 4739 Pls
5368 2577 Pls
5368 4056 Pls
5368 3331 Pls
5368 3658 Pls
5368 2733 Pls
5368 1980 Pls
5368 3088 Pls
5368 3560 Pls
5368 2294 Pls
5368 2185 Pls
5368 3021 Pls
5368 3128 Pls
5368 1967 Pls
5368 2329 Pls
5368 2178 Pls
5368 2861 Pls
5368 2038 Pls
5368 2223 Pls
5368 2378 Pls
5368 3014 Pls
6749 4739 Pls
6749 4739 Pls
6749 4678 Pls
6749 4739 Pls
6749 4660 Pls
6749 4549 Pls
6749 4739 Pls
6749 4607 Pls
6749 4667 Pls
6749 4700 Pls
6749 4739 Pls
6749 4739 Pls
6749 4739 Pls
6749 4739 Pls
6749 4651 Pls
6749 4739 Pls
6749 4641 Pls
6749 4739 Pls
6749 4651 Pls
6749 4739 Pls
6749 2840 Pls
6749 2656 Pls
6749 3451 Pls
6749 2619 Pls
6749 1944 Pls
6749 2166 Pls
6749 2184 Pls
6749 3067 Pls
6749 1822 Pls
6749 2182 Pls
6749 2256 Pls
6749 2435 Pls
6749 1701 Pls
6749 2033 Pls
6749 1831 Pls
6749 2322 Pls
6749 1467 Pls
6749 1934 Pls
6749 2004 Pls
6749 2500 Pls
1225 4739 Pls
1225 4739 Pls
1225 4739 Pls
1225 4739 Pls
1225 4739 Pls
1225 4739 Pls
1225 4739 Pls
1225 4739 Pls
1225 4739 Pls
1225 4739 Pls
1225 4739 Pls
1225 4739 Pls
1225 4739 Pls
1225 4739 Pls
1225 4739 Pls
1225 4739 Pls
1225 4739 Pls
1225 4739 Pls
1225 4739 Pls
1225 4739 Pls
1225 4739 Pls
1225 4739 Pls
1225 4739 Pls
1225 4739 Pls
1225 4345 Pls
1225 4542 Pls
1225 4542 Pls
1225 4739 Pls
1225 4476 Pls
1225 4581 Pls
1225 4739 Pls
1225 4739 Pls
1225 3984 Pls
1225 3951 Pls
1225 4739 Pls
1225 4739 Pls
1225 4739 Pls
1225 4135 Pls
1225 4617 Pls
1225 4739 Pls
2606 4739 Pls
2606 4739 Pls
2606 4739 Pls
2606 4651 Pls
2606 4739 Pls
2606 4739 Pls
2606 4651 Pls
2606 4739 Pls
2606 4739 Pls
2606 4739 Pls
2606 4739 Pls
2606 4667 Pls
2606 4739 Pls
2606 4739 Pls
2606 4739 Pls
2606 4739 Pls
2606 4739 Pls
2606 4739 Pls
2606 4739 Pls
2606 4739 Pls
2606 4542 Pls
2606 4739 Pls
2606 4542 Pls
2606 4739 Pls
2606 3721 Pls
2606 3224 Pls
2606 4345 Pls
2606 4570 Pls
2606 3131 Pls
2606 3859 Pls
2606 4050 Pls
2606 3794 Pls
2606 4010 Pls
2606 3947 Pls
2606 4185 Pls
2606 4148 Pls
2606 3997 Pls
2606 3937 Pls
2606 3756 Pls
2606 3646 Pls
3987 4739 Pls
3987 4739 Pls
3987 4739 Pls
3987 4667 Pls
3987 4739 Pls
3987 4651 Pls
3987 4626 Pls
3987 4678 Pls
3987 4739 Pls
3987 4739 Pls
3987 4739 Pls
3987 4651 Pls
3987 4739 Pls
3987 4739 Pls
3987 4739 Pls
3987 4739 Pls
3987 4739 Pls
3987 4739 Pls
3987 4739 Pls
3987 4739 Pls
3987 3767 Pls
3987 4122 Pls
3987 4214 Pls
3987 4476 Pls
3987 3205 Pls
3987 3329 Pls
3987 3556 Pls
3987 4174 Pls
3987 3065 Pls
3987 3235 Pls
3987 3239 Pls
3987 3533 Pls
3987 2610 Pls
3987 3129 Pls
3987 2973 Pls
3987 3177 Pls
3987 2841 Pls
3987 2582 Pls
3987 3064 Pls
3987 3170 Pls
5368 4609 Pls
5368 4739 Pls
5368 4678 Pls
5368 4739 Pls
5368 4739 Pls
5368 4690 Pls
5368 4739 Pls
5368 4695 Pls
5368 4739 Pls
5368 4651 Pls
5368 4739 Pls
5368 4539 Pls
5368 4739 Pls
5368 4739 Pls
5368 4739 Pls
5368 4739 Pls
5368 4739 Pls
5368 4739 Pls
5368 4667 Pls
5368 4739 Pls
5368 3489 Pls
5368 3345 Pls
5368 3096 Pls
5368 2960 Pls
5368 2707 Pls
5368 2899 Pls
5368 2920 Pls
5368 2938 Pls
5368 2305 Pls
5368 2481 Pls
5368 2469 Pls
5368 2961 Pls
5368 2116 Pls
5368 2582 Pls
5368 2570 Pls
5368 2668 Pls
5368 2025 Pls
5368 2478 Pls
5368 2647 Pls
5368 2570 Pls
6749 4673 Pls
6749 4597 Pls
6749 4678 Pls
6749 4695 Pls
6749 4667 Pls
6749 4739 Pls
6749 4739 Pls
6749 4686 Pls
6749 4739 Pls
6749 4739 Pls
6749 4739 Pls
6749 4678 Pls
6749 4739 Pls
6749 4739 Pls
6749 4739 Pls
6749 4739 Pls
6749 4739 Pls
6749 4739 Pls
6749 4739 Pls
6749 4739 Pls
6749 3407 Pls
6749 3062 Pls
6749 2515 Pls
6749 2399 Pls
6749 1851 Pls
6749 3257 Pls
6749 1918 Pls
6749 2700 Pls
6749 1907 Pls
6749 2276 Pls
6749 2302 Pls
6749 2151 Pls
6749 1674 Pls
6749 2210 Pls
6749 2555 Pls
6749 2220 Pls
6749 1601 Pls
6749 1546 Pls
6749 2176 Pls
6749 2516 Pls
1225 4739 Pls
1225 4739 Pls
1225 4695 Pls
1225 4739 Pls
1225 4739 Pls
1225 4739 Pls
1225 4739 Pls
1225 4739 Pls
1225 4739 Pls
1225 4739 Pls
1225 4626 Pls
1225 4739 Pls
1225 4739 Pls
1225 4739 Pls
1225 4542 Pls
1225 4739 Pls
1225 4739 Pls
1225 4739 Pls
1225 4739 Pls
1225 4739 Pls
1225 4476 Pls
1225 4739 Pls
1225 4739 Pls
1225 4739 Pls
1225 4739 Pls
1225 4739 Pls
1225 4739 Pls
1225 4739 Pls
1225 4608 Pls
1225 4444 Pls
1225 4542 Pls
1225 4739 Pls
1225 4227 Pls
1225 4214 Pls
1225 4739 Pls
1225 4739 Pls
1225 4739 Pls
1225 4739 Pls
1225 4542 Pls
1225 4739 Pls
2606 4667 Pls
2606 4739 Pls
2606 4686 Pls
2606 4739 Pls
2606 4695 Pls
2606 4683 Pls
2606 4739 Pls
2606 4739 Pls
2606 4651 Pls
2606 4739 Pls
2606 4667 Pls
2606 4739 Pls
2606 4739 Pls
2606 4739 Pls
2606 4739 Pls
2606 4739 Pls
2606 4739 Pls
2606 4660 Pls
2606 4739 Pls
2606 4739 Pls
2606 4476 Pls
2606 4319 Pls
2606 4279 Pls
2606 4739 Pls
2606 3886 Pls
2606 3833 Pls
2606 4188 Pls
2606 4043 Pls
2606 3991 Pls
2606 3991 Pls
2606 4424 Pls
2606 4312 Pls
2606 3767 Pls
2606 4088 Pls
2606 3538 Pls
2606 4279 Pls
2606 3288 Pls
2606 3492 Pls
2606 4045 Pls
2606 3786 Pls
3987 4739 Pls
3987 4739 Pls
3987 4739 Pls
3987 4739 Pls
3987 4739 Pls
3987 4739 Pls
3987 4667 Pls
3987 4739 Pls
3987 4739 Pls
3987 4739 Pls
3987 4651 Pls
3987 4673 Pls
3987 4739 Pls
3987 4739 Pls
3987 4739 Pls
3987 4739 Pls
3987 4739 Pls
3987 4739 Pls
3987 4739 Pls
3987 4739 Pls
3987 4384 Pls
3987 4319 Pls
3987 3767 Pls
3987 3820 Pls
3987 3468 Pls
3987 3584 Pls
3987 3679 Pls
3987 4129 Pls
3987 3216 Pls
3987 3796 Pls
3987 3835 Pls
3987 3557 Pls
3987 3140 Pls
3987 3248 Pls
3987 3617 Pls
3987 2892 Pls
3987 2468 Pls
3987 2680 Pls
3987 3290 Pls
3987 3849 Pls
5368 4739 Pls
5368 4739 Pls
5368 4739 Pls
5368 4637 Pls
5368 4660 Pls
5368 4700 Pls
5368 4739 Pls
5368 4739 Pls
5368 4739 Pls
5368 4739 Pls
5368 4739 Pls
5368 4739 Pls
5368 4739 Pls
5368 4739 Pls
5368 4739 Pls
5368 4739 Pls
5368 4739 Pls
5368 4739 Pls
5368 4739 Pls
5368 4739 Pls
5368 3229 Pls
5368 3728 Pls
5368 3907 Pls
5368 3792 Pls
5368 3053 Pls
5368 2714 Pls
5368 3352 Pls
5368 3183 Pls
5368 2827 Pls
5368 2621 Pls
5368 3070 Pls
5368 3343 Pls
5368 2448 Pls
5368 3050 Pls
5368 2866 Pls
5368 3219 Pls
5368 1764 Pls
5368 2215 Pls
5368 2549 Pls
5368 3191 Pls
6749 4626 Pls
6749 4678 Pls
6749 4651 Pls
6749 4739 Pls
6749 4648 Pls
6749 4667 Pls
6749 4739 Pls
6749 4739 Pls
6749 4667 Pls
6749 4739 Pls
6749 4686 Pls
6749 4739 Pls
6749 4667 Pls
6749 4626 Pls
6749 4739 Pls
6749 4739 Pls
6749 4739 Pls
6749 4739 Pls
6749 4739 Pls
6749 4739 Pls
6749 3267 Pls
6749 3144 Pls
6749 3158 Pls
6749 3364 Pls
6749 2088 Pls
6749 2199 Pls
6749 3448 Pls
6749 2870 Pls
6749 2294 Pls
6749 1987 Pls
6749 2427 Pls
6749 2793 Pls
6749 2015 Pls
6749 2311 Pls
6749 2010 Pls
6749 2516 Pls
6749 1865 Pls
6749 1759 Pls
6749 2064 Pls
6749 2374 Pls
1225 4739 Pls
1225 4739 Pls
1225 4739 Pls
1225 4739 Pls
1225 4683 Pls
1225 4739 Pls
1225 4739 Pls
1225 4739 Pls
1225 4739 Pls
1225 4739 Pls
1225 4739 Pls
1225 4739 Pls
1225 4739 Pls
1225 4739 Pls
1225 4739 Pls
1225 4739 Pls
1225 4739 Pls
1225 4739 Pls
1225 4739 Pls
1225 4739 Pls
1225 4739 Pls
1225 4476 Pls
1225 4608 Pls
1225 4739 Pls
1225 4739 Pls
1225 4739 Pls
1225 4739 Pls
1225 4739 Pls
1225 4476 Pls
1225 4542 Pls
1225 4739 Pls
1225 4739 Pls
1225 4608 Pls
1225 4581 Pls
1225 4509 Pls
1225 4739 Pls
1225 4345 Pls
1225 4082 Pls
1225 4641 Pls
1225 4739 Pls
2606 4641 Pls
2606 4739 Pls
2606 4739 Pls
2606 4739 Pls
2606 4651 Pls
2606 4739 Pls
2606 4739 Pls
2606 4739 Pls
2606 4739 Pls
2606 4739 Pls
2606 4739 Pls
2606 4739 Pls
2606 4739 Pls
2606 4739 Pls
2606 4739 Pls
2606 4651 Pls
2606 4739 Pls
2606 4739 Pls
2606 4739 Pls
2606 4660 Pls
2606 4345 Pls
2606 4739 Pls
2606 4581 Pls
2606 4581 Pls
2606 4476 Pls
2606 4463 Pls
2606 4542 Pls
2606 4739 Pls
2606 3473 Pls
2606 3715 Pls
2606 3656 Pls
2606 4444 Pls
2606 3889 Pls
2606 3515 Pls
2606 3789 Pls
2606 4239 Pls
2606 3739 Pls
2606 3205 Pls
2606 4303 Pls
2606 3857 Pls
3987 4739 Pls
3987 4651 Pls
3987 4607 Pls
3987 4678 Pls
3987 4739 Pls
3987 4739 Pls
3987 4739 Pls
3987 4739 Pls
3987 4660 Pls
3987 4739 Pls
3987 4667 Pls
3987 4739 Pls
3987 4739 Pls
3987 4739 Pls
3987 4739 Pls
3987 4739 Pls
3987 4739 Pls
3987 4739 Pls
3987 4626 Pls
3987 4739 Pls
3987 4148 Pls
3987 4564 Pls
3987 4122 Pls
3987 4017 Pls
3987 4030 Pls
3987 3701 Pls
3987 3944 Pls
3987 3853 Pls
3987 3244 Pls
3987 3612 Pls
3987 4364 Pls
3987 3104 Pls
3987 3031 Pls
3987 3327 Pls
3987 3222 Pls
3987 3121 Pls
3987 3277 Pls
3987 3082 Pls
3987 3569 Pls
3987 2880 Pls
5368 4651 Pls
5368 4739 Pls
5368 4739 Pls
5368 4739 Pls
5368 4739 Pls
5368 4683 Pls
5368 4739 Pls
5368 4514 Pls
5368 4739 Pls
5368 4739 Pls
5368 4739 Pls
5368 4739 Pls
5368 4739 Pls
5368 4678 Pls
5368 4739 Pls
5368 4739 Pls
5368 4641 Pls
5368 4739 Pls
5368 4739 Pls
5368 4739 Pls
5368 3268 Pls
5368 3846 Pls
5368 4004 Pls
5368 3839 Pls
5368 2632 Pls
5368 3759 Pls
5368 2783 Pls
5368 3262 Pls
5368 2264 Pls
5368 2925 Pls
5368 2822 Pls
5368 2582 Pls
5368 2282 Pls
5368 2998 Pls
5368 3214 Pls
5368 2439 Pls
5368 2237 Pls
5368 2685 Pls
5368 2179 Pls
5368 3231 Pls
6749 4648 Pls
6749 4678 Pls
6749 4678 Pls
6749 4739 Pls
6749 4739 Pls
6749 4739 Pls
6749 4739 Pls
6749 4739 Pls
6749 4673 Pls
6749 4739 Pls
6749 4596 Pls
6749 4739 Pls
6749 4739 Pls
6749 4739 Pls
6749 4678 Pls
6749 4739 Pls
6749 4739 Pls
6749 4739 Pls
6749 4739 Pls
6749 4678 Pls
6749 3759 Pls
6749 3400 Pls
6749 3764 Pls
6749 3221 Pls
6749 2693 Pls
6749 2203 Pls
6749 2935 Pls
6749 3075 Pls
6749 2977 Pls
6749 2863 Pls
6749 2368 Pls
6749 2621 Pls
6749 1911 Pls
6749 2146 Pls
6749 2249 Pls
6749 2319 Pls
6749 1703 Pls
6749 2374 Pls
6749 2579 Pls
6749 2402 Pls
1225 4739 Pls
1225 4739 Pls
1225 4739 Pls
1225 4739 Pls
1225 4739 Pls
1225 4739 Pls
1225 4739 Pls
1225 4739 Pls
1225 4739 Pls
1225 4739 Pls
1225 4739 Pls
1225 4739 Pls
1225 4739 Pls
1225 4739 Pls
1225 4739 Pls
1225 4739 Pls
1225 4739 Pls
1225 4739 Pls
1225 4739 Pls
1225 4739 Pls
1225 4739 Pls
1225 4739 Pls
1225 4739 Pls
1225 4739 Pls
1225 4739 Pls
1225 4739 Pls
1225 4739 Pls
1225 4739 Pls
1225 4542 Pls
1225 4542 Pls
1225 4739 Pls
1225 4739 Pls
1225 4542 Pls
1225 4739 Pls
1225 4739 Pls
1225 4739 Pls
1225 4739 Pls
1225 4739 Pls
1225 4542 Pls
1225 4739 Pls
2606 4739 Pls
2606 4739 Pls
2606 4739 Pls
2606 4739 Pls
2606 4739 Pls
2606 4739 Pls
2606 4739 Pls
2606 4739 Pls
2606 4739 Pls
2606 4739 Pls
2606 4739 Pls
2606 4739 Pls
2606 4739 Pls
2606 4739 Pls
2606 4739 Pls
2606 4739 Pls
2606 4739 Pls
2606 4739 Pls
2606 4739 Pls
2606 4739 Pls
2606 4476 Pls
2606 4739 Pls
2606 4345 Pls
2606 4739 Pls
2606 4476 Pls
2606 4476 Pls
2606 4739 Pls
2606 4384 Pls
2606 4227 Pls
2606 4542 Pls
2606 4430 Pls
2606 4279 Pls
2606 4214 Pls
2606 4308 Pls
2606 4356 Pls
2606 3938 Pls
2606 4188 Pls
2606 4641 Pls
2606 4056 Pls
2606 4082 Pls
3987 4660 Pls
3987 4739 Pls
3987 4739 Pls
3987 4678 Pls
3987 4739 Pls
3987 4739 Pls
3987 4739 Pls
3987 4739 Pls
3987 4739 Pls
3987 4739 Pls
3987 4739 Pls
3987 4739 Pls
3987 4739 Pls
3987 4739 Pls
3987 4739 Pls
3987 4739 Pls
3987 4739 Pls
3987 4739 Pls
3987 4739 Pls
3987 4651 Pls
3987 4279 Pls
3987 4739 Pls
3987 4476 Pls
3987 4542 Pls
3987 4082 Pls
3987 3944 Pls
3987 3912 Pls
3987 3818 Pls
3987 3853 Pls
3987 3459 Pls
3987 3524 Pls
3987 3964 Pls
3987 3767 Pls
3987 3636 Pls
3987 3660 Pls
3987 4542 Pls
3987 3923 Pls
3987 3407 Pls
3987 3848 Pls
3987 4331 Pls
5368 4739 Pls
5368 4739 Pls
5368 4739 Pls
5368 4667 Pls
5368 4739 Pls
5368 4739 Pls
5368 4739 Pls
5368 4739 Pls
5368 4739 Pls
5368 4739 Pls
5368 4739 Pls
5368 4739 Pls
5368 4739 Pls
5368 4739 Pls
5368 4678 Pls
5368 4739 Pls
5368 4739 Pls
5368 4739 Pls
5368 4739 Pls
5368 4739 Pls
5368 3656 Pls
5368 3951 Pls
5368 4082 Pls
5368 4476 Pls
5368 3610 Pls
5368 3667 Pls
5368 4134 Pls
5368 4170 Pls
5368 3400 Pls
5368 3458 Pls
5368 3930 Pls
5368 3601 Pls
5368 3034 Pls
5368 3157 Pls
5368 3391 Pls
5368 3353 Pls
5368 3324 Pls
5368 3166 Pls
5368 3463 Pls
5368 3957 Pls
6749 4660 Pls
6749 4739 Pls
6749 4739 Pls
6749 4678 Pls
6749 4739 Pls
6749 4706 Pls
6749 4739 Pls
6749 4739 Pls
6749 4739 Pls
6749 4651 Pls
6749 4739 Pls
6749 4739 Pls
6749 4673 Pls
6749 4739 Pls
6749 4739 Pls
6749 4739 Pls
6749 4739 Pls
6749 4739 Pls
6749 4651 Pls
6749 4739 Pls
6749 3991 Pls
6749 3782 Pls
6749 3719 Pls
6749 4188 Pls
6749 3531 Pls
6749 3961 Pls
6749 4469 Pls
6749 3425 Pls
6749 3001 Pls
6749 3347 Pls
6749 2963 Pls
6749 3101 Pls
6749 3049 Pls
6749 2793 Pls
6749 3158 Pls
6749 3274 Pls
6749 2775 Pls
6749 2685 Pls
6749 2717 Pls
6749 3350 Pls
1225 4739 Pls
1225 4739 Pls
1225 4739 Pls
1225 4739 Pls
1225 4739 Pls
1225 4651 Pls
1225 4739 Pls
1225 4739 Pls
1225 4739 Pls
1225 4739 Pls
1225 4739 Pls
1225 4739 Pls
1225 4739 Pls
1225 4739 Pls
1225 4739 Pls
1225 4739 Pls
1225 4739 Pls
1225 4739 Pls
1225 4739 Pls
1225 4739 Pls
1225 4739 Pls
1225 4739 Pls
1225 4739 Pls
1225 4739 Pls
1225 4739 Pls
1225 4739 Pls
1225 4739 Pls
1225 4739 Pls
1225 4739 Pls
1225 4739 Pls
1225 4608 Pls
1225 4739 Pls
1225 4739 Pls
1225 4739 Pls
1225 4739 Pls
1225 4739 Pls
1225 4411 Pls
1225 4739 Pls
1225 4739 Pls
1225 4739 Pls
2606 4739 Pls
2606 4739 Pls
2606 4739 Pls
2606 4739 Pls
2606 4739 Pls
2606 4739 Pls
2606 4739 Pls
2606 4739 Pls
2606 4739 Pls
2606 4739 Pls
2606 4739 Pls
2606 4739 Pls
2606 4739 Pls
2606 4739 Pls
2606 4739 Pls
2606 4739 Pls
2606 4739 Pls
2606 4739 Pls
2606 4739 Pls
2606 4608 Pls
2606 4739 Pls
2606 4739 Pls
2606 4542 Pls
2606 4739 Pls
2606 4739 Pls
2606 4739 Pls
2606 4608 Pls
2606 4542 Pls
2606 4542 Pls
2606 4430 Pls
2606 4148 Pls
2606 4608 Pls
2606 4542 Pls
2606 4542 Pls
2606 4608 Pls
2606 4290 Pls
2606 4319 Pls
2606 4384 Pls
2606 4476 Pls
2606 4739 Pls
3987 4739 Pls
3987 4667 Pls
3987 4683 Pls
3987 4739 Pls
3987 4739 Pls
3987 4739 Pls
3987 4739 Pls
3987 4739 Pls
3987 4739 Pls
3987 4739 Pls
3987 4651 Pls
3987 4739 Pls
3987 4739 Pls
3987 4739 Pls
3987 4739 Pls
3987 4739 Pls
3987 4739 Pls
3987 4739 Pls
3987 4739 Pls
3987 4739 Pls
3987 4739 Pls
3987 4739 Pls
3987 4739 Pls
3987 4739 Pls
3987 4739 Pls
3987 4201 Pls
3987 4251 Pls
3987 4476 Pls
3987 4279 Pls
3987 3807 Pls
3987 4214 Pls
3987 4476 Pls
3987 4082 Pls
3987 4495 Pls
3987 4188 Pls
3987 4331 Pls
3987 2984 Pls
3987 4286 Pls
3987 4003 Pls
3987 3780 Pls
5368 4739 Pls
5368 4739 Pls
5368 4739 Pls
5368 4700 Pls
5368 4739 Pls
5368 4555 Pls
5368 4619 Pls
5368 4651 Pls
5368 4739 Pls
5368 4739 Pls
5368 4739 Pls
5368 4739 Pls
5368 4739 Pls
5368 4739 Pls
5368 4739 Pls
5368 4739 Pls
5368 4739 Pls
5368 4739 Pls
5368 4739 Pls
5368 4739 Pls
5368 4424 Pls
5368 4739 Pls
5368 4115 Pls
5368 4279 Pls
5368 3689 Pls
5368 4384 Pls
5368 4122 Pls
5368 4345 Pls
5368 3229 Pls
5368 3278 Pls
5368 3689 Pls
5368 3707 Pls
5368 4109 Pls
5368 4188 Pls
5368 3348 Pls
5368 3689 Pls
5368 3400 Pls
5368 2889 Pls
5368 3261 Pls
5368 4054 Pls
6749 4739 Pls
6749 4739 Pls
6749 4628 Pls
6749 4651 Pls
6749 4739 Pls
6749 4739 Pls
6749 4739 Pls
6749 4739 Pls
6749 4739 Pls
6749 4739 Pls
6749 4739 Pls
6749 4739 Pls
6749 4739 Pls
6749 4739 Pls
6749 4739 Pls
6749 4739 Pls
6749 4739 Pls
6749 4739 Pls
6749 4739 Pls
6749 4739 Pls
6749 4476 Pls
6749 4476 Pls
6749 4122 Pls
6749 3328 Pls
6749 3899 Pls
6749 3812 Pls
6749 4294 Pls
6749 3853 Pls
6749 3630 Pls
6749 3238 Pls
6749 3899 Pls
6749 3339 Pls
6749 3310 Pls
6749 3152 Pls
6749 3811 Pls
6749 3640 Pls
6749 3171 Pls
6749 2905 Pls
6749 3059 Pls
6749 3187 Pls
1225 4739 Pls
1225 4739 Pls
1225 4739 Pls
1225 4739 Pls
1225 4739 Pls
1225 4739 Pls
1225 4739 Pls
1225 4739 Pls
1225 4683 Pls
1225 4739 Pls
1225 4739 Pls
1225 4739 Pls
1225 4739 Pls
1225 4739 Pls
1225 4739 Pls
1225 4739 Pls
1225 4739 Pls
1225 4739 Pls
1225 4739 Pls
1225 4739 Pls
1225 4739 Pls
1225 4739 Pls
1225 4345 Pls
1225 4739 Pls
1225 4739 Pls
1225 4739 Pls
1225 4345 Pls
1225 4739 Pls
1225 4739 Pls
1225 4739 Pls
1225 4739 Pls
1225 4739 Pls
1225 4739 Pls
1225 4739 Pls
1225 4739 Pls
1225 4739 Pls
1225 4739 Pls
1225 4608 Pls
1225 4739 Pls
1225 4739 Pls
2606 4739 Pls
2606 4739 Pls
2606 4739 Pls
2606 4739 Pls
2606 4739 Pls
2606 4739 Pls
2606 4739 Pls
2606 4739 Pls
2606 4739 Pls
2606 4739 Pls
2606 4739 Pls
2606 4739 Pls
2606 4739 Pls
2606 4739 Pls
2606 4667 Pls
2606 4739 Pls
2606 4739 Pls
2606 4739 Pls
2606 4739 Pls
2606 4739 Pls
2606 4542 Pls
2606 4608 Pls
2606 4739 Pls
2606 4739 Pls
2606 4608 Pls
2606 4739 Pls
2606 4476 Pls
2606 4608 Pls
2606 4476 Pls
2606 4056 Pls
2606 4739 Pls
2606 4739 Pls
2606 4503 Pls
2606 4214 Pls
2606 4641 Pls
2606 4739 Pls
2606 4581 Pls
2606 4509 Pls
2606 4389 Pls
2606 4450 Pls
3987 4739 Pls
3987 4739 Pls
3987 4739 Pls
3987 4739 Pls
3987 4739 Pls
3987 4739 Pls
3987 4739 Pls
3987 4739 Pls
3987 4739 Pls
3987 4739 Pls
3987 4739 Pls
3987 4739 Pls
3987 4739 Pls
3987 4739 Pls
3987 4739 Pls
3987 4739 Pls
3987 4739 Pls
3987 4739 Pls
3987 4739 Pls
3987 4739 Pls
3987 4739 Pls
3987 4542 Pls
3987 4739 Pls
3987 4739 Pls
3987 4542 Pls
3987 4476 Pls
3987 4384 Pls
3987 4450 Pls
3987 3737 Pls
3987 4298 Pls
3987 4319 Pls
3987 4528 Pls
3987 3667 Pls
3987 4739 Pls
3987 4450 Pls
3987 4352 Pls
3987 4317 Pls
3987 3730 Pls
3987 4359 Pls
3987 4683 Pls
5368 4739 Pls
5368 4709 Pls
5368 4739 Pls
5368 4706 Pls
5368 4739 Pls
5368 4739 Pls
5368 4739 Pls
5368 4739 Pls
5368 4739 Pls
5368 4739 Pls
5368 4739 Pls
5368 4739 Pls
5368 4739 Pls
5368 4739 Pls
5368 4739 Pls
5368 4739 Pls
5368 4739 Pls
5368 4739 Pls
5368 4739 Pls
5368 4739 Pls
5368 4122 Pls
5368 4214 Pls
5368 4581 Pls
5368 4626 Pls
5368 4181 Pls
5368 4279 Pls
5368 4739 Pls
5368 4430 Pls
5368 4660 Pls
5368 3766 Pls
5368 4056 Pls
5368 4089 Pls
5368 4384 Pls
5368 3831 Pls
5368 4056 Pls
5368 4083 Pls
5368 3111 Pls
5368 3964 Pls
5368 3720 Pls
5368 4426 Pls
6749 4739 Pls
6749 4739 Pls
6749 4739 Pls
6749 4739 Pls
6749 4739 Pls
6749 4739 Pls
6749 4739 Pls
6749 4739 Pls
6749 4660 Pls
6749 4656 Pls
6749 4739 Pls
6749 4739 Pls
6749 4739 Pls
6749 4739 Pls
6749 4739 Pls
6749 4739 Pls
6749 4739 Pls
6749 4673 Pls
6749 4739 Pls
6749 4739 Pls
6749 4082 Pls
6749 4476 Pls
6749 4188 Pls
6749 3807 Pls
6749 3373 Pls
6749 2824 Pls
6749 4115 Pls
6749 3951 Pls
6749 3437 Pls
6749 3559 Pls
6749 3592 Pls
6749 4119 Pls
6749 3011 Pls
6749 2959 Pls
6749 4111 Pls
6749 3812 Pls
6749 3714 Pls
6749 2948 Pls
6749 3695 Pls
6749 3906 Pls
1225 4739 Pls
1225 4739 Pls
1225 4739 Pls
1225 4739 Pls
1225 4739 Pls
1225 4739 Pls
1225 4739 Pls
1225 4739 Pls
1225 4739 Pls
1225 4739 Pls
1225 4739 Pls
1225 4739 Pls
1225 4739 Pls
1225 4739 Pls
1225 4739 Pls
1225 4739 Pls
1225 4739 Pls
1225 4739 Pls
1225 4739 Pls
1225 4739 Pls
1225 4739 Pls
1225 4542 Pls
1225 4739 Pls
1225 4739 Pls
1225 4739 Pls
1225 4739 Pls
1225 4739 Pls
1225 4739 Pls
1225 4739 Pls
1225 4739 Pls
1225 4739 Pls
1225 4739 Pls
1225 4581 Pls
1225 4739 Pls
1225 4739 Pls
1225 4739 Pls
1225 4739 Pls
1225 4739 Pls
1225 4739 Pls
1225 4739 Pls
2606 4739 Pls
2606 4739 Pls
2606 4739 Pls
2606 4739 Pls
2606 4739 Pls
2606 4739 Pls
2606 4739 Pls
2606 4739 Pls
2606 4739 Pls
2606 4739 Pls
2606 4739 Pls
2606 4739 Pls
2606 4739 Pls
2606 4739 Pls
2606 4739 Pls
2606 4739 Pls
2606 4739 Pls
2606 4739 Pls
2606 4739 Pls
2606 4739 Pls
2606 4739 Pls
2606 4739 Pls
2606 4739 Pls
2606 4739 Pls
2606 4739 Pls
2606 4739 Pls
2606 4739 Pls
2606 4739 Pls
2606 4739 Pls
2606 4188 Pls
2606 4463 Pls
2606 4739 Pls
2606 4641 Pls
2606 4345 Pls
2606 4660 Pls
2606 4739 Pls
2606 4483 Pls
2606 4581 Pls
2606 4476 Pls
2606 4739 Pls
3987 4739 Pls
3987 4739 Pls
3987 4739 Pls
3987 4739 Pls
3987 4739 Pls
3987 4739 Pls
3987 4739 Pls
3987 4739 Pls
3987 4739 Pls
3987 4739 Pls
3987 4739 Pls
3987 4739 Pls
3987 4739 Pls
3987 4739 Pls
3987 4739 Pls
3987 4739 Pls
3987 4739 Pls
3987 4739 Pls
3987 4739 Pls
3987 4739 Pls
3987 4542 Pls
3987 4476 Pls
3987 4739 Pls
3987 4739 Pls
3987 4279 Pls
3987 4739 Pls
3987 4411 Pls
3987 4739 Pls
3987 4641 Pls
3987 4581 Pls
3987 4384 Pls
3987 4227 Pls
3987 4148 Pls
3987 3853 Pls
3987 4338 Pls
3987 4384 Pls
3987 4124 Pls
3987 4444 Pls
3987 3871 Pls
3987 4384 Pls
5368 4739 Pls
5368 4739 Pls
5368 4739 Pls
5368 4739 Pls
5368 4739 Pls
5368 4739 Pls
5368 4739 Pls
5368 4739 Pls
5368 4667 Pls
5368 4739 Pls
5368 4739 Pls
5368 4739 Pls
5368 4739 Pls
5368 4739 Pls
5368 4739 Pls
5368 4667 Pls
5368 4739 Pls
5368 4739 Pls
5368 4739 Pls
5368 4739 Pls
5368 4279 Pls
5368 4739 Pls
5368 4056 Pls
5368 4739 Pls
5368 4148 Pls
5368 4581 Pls
5368 4542 Pls
5368 4135 Pls
5368 3951 Pls
5368 4739 Pls
5368 3853 Pls
5368 4424 Pls
5368 4225 Pls
5368 4173 Pls
5368 3964 Pls
5368 4030 Pls
5368 3505 Pls
5368 3594 Pls
5368 3616 Pls
5368 3623 Pls
6749 4739 Pls
6749 4678 Pls
6749 4739 Pls
6749 4739 Pls
6749 4739 Pls
6749 4739 Pls
6749 4739 Pls
6749 4739 Pls
6749 4739 Pls
6749 4686 Pls
6749 4739 Pls
6749 4739 Pls
6749 4739 Pls
6749 4739 Pls
6749 4739 Pls
6749 4739 Pls
6749 4739 Pls
6749 4739 Pls
6749 4739 Pls
6749 4739 Pls
6749 4739 Pls
6749 4739 Pls
6749 4739 Pls
6749 4384 Pls
6749 4092 Pls
6749 3510 Pls
6749 4269 Pls
6749 4306 Pls
6749 3595 Pls
6749 3944 Pls
6749 3329 Pls
6749 3819 Pls
6749 3380 Pls
6749 3859 Pls
6749 3926 Pls
6749 3928 Pls
6749 3360 Pls
6749 4056 Pls
6749 3551 Pls
6749 3649 Pls
1225 4739 Pls
1225 4739 Pls
1225 4739 Pls
1225 4739 Pls
1225 4739 Pls
1225 4739 Pls
1225 4739 Pls
1225 4739 Pls
1225 4739 Pls
1225 4739 Pls
1225 4739 Pls
1225 4739 Pls
1225 4739 Pls
1225 4739 Pls
1225 4739 Pls
1225 4739 Pls
1225 4739 Pls
1225 4739 Pls
1225 4739 Pls
1225 4739 Pls
1225 4739 Pls
1225 4739 Pls
1225 4739 Pls
1225 4739 Pls
1225 4542 Pls
1225 4739 Pls
1225 4739 Pls
1225 4739 Pls
1225 4739 Pls
1225 4739 Pls
1225 4739 Pls
1225 4739 Pls
1225 4641 Pls
1225 4739 Pls
1225 4739 Pls
1225 4739 Pls
1225 4739 Pls
1225 4739 Pls
1225 4739 Pls
1225 4739 Pls
2606 4739 Pls
2606 4739 Pls
2606 4739 Pls
2606 4739 Pls
2606 4739 Pls
2606 4739 Pls
2606 4739 Pls
2606 4739 Pls
2606 4739 Pls
2606 4739 Pls
2606 4739 Pls
2606 4739 Pls
2606 4739 Pls
2606 4739 Pls
2606 4739 Pls
2606 4739 Pls
2606 4739 Pls
2606 4739 Pls
2606 4739 Pls
2606 4739 Pls
2606 4739 Pls
2606 4739 Pls
2606 4739 Pls
2606 4739 Pls
2606 4739 Pls
2606 4739 Pls
2606 4739 Pls
2606 4739 Pls
2606 4608 Pls
2606 4641 Pls
2606 4739 Pls
2606 4608 Pls
2606 4739 Pls
2606 4739 Pls
2606 4641 Pls
2606 4739 Pls
2606 4476 Pls
2606 4739 Pls
2606 4739 Pls
2606 4542 Pls
3987 4739 Pls
3987 4739 Pls
3987 4739 Pls
3987 4739 Pls
3987 4739 Pls
3987 4739 Pls
3987 4739 Pls
3987 4739 Pls
3987 4739 Pls
3987 4739 Pls
3987 4739 Pls
3987 4739 Pls
3987 4739 Pls
3987 4739 Pls
3987 4739 Pls
3987 4739 Pls
3987 4739 Pls
3987 4739 Pls
3987 4739 Pls
3987 4739 Pls
3987 4279 Pls
3987 4641 Pls
3987 4739 Pls
3987 4739 Pls
3987 4739 Pls
3987 4476 Pls
3987 4739 Pls
3987 4542 Pls
3987 4542 Pls
3987 4378 Pls
3987 4319 Pls
3987 4739 Pls
3987 3754 Pls
3987 4239 Pls
3987 4272 Pls
3987 4739 Pls
3987 4306 Pls
3987 4739 Pls
3987 4739 Pls
3987 4486 Pls
5368 4739 Pls
5368 4739 Pls
5368 4739 Pls
5368 4626 Pls
5368 4739 Pls
5368 4739 Pls
5368 4739 Pls
5368 4739 Pls
5368 4739 Pls
5368 4686 Pls
5368 4739 Pls
5368 4678 Pls
5368 4739 Pls
5368 4739 Pls
5368 4739 Pls
5368 4739 Pls
5368 4739 Pls
5368 4739 Pls
5368 4739 Pls
5368 4739 Pls
5368 4739 Pls
5368 4739 Pls
5368 4739 Pls
5368 4542 Pls
5368 4581 Pls
5368 3981 Pls
5368 4514 Pls
5368 4739 Pls
5368 4122 Pls
5368 4608 Pls
5368 4581 Pls
5368 4319 Pls
5368 3826 Pls
5368 3915 Pls
5368 4056 Pls
5368 3360 Pls
5368 4227 Pls
5368 4017 Pls
5368 3689 Pls
5368 4148 Pls
6749 4651 Pls
6749 4739 Pls
6749 4739 Pls
6749 4739 Pls
6749 4548 Pls
6749 4739 Pls
6749 4739 Pls
6749 4739 Pls
6749 4739 Pls
6749 4739 Pls
6749 4739 Pls
6749 4739 Pls
6749 4739 Pls
6749 4739 Pls
6749 4739 Pls
6749 4683 Pls
6749 4739 Pls
6749 4739 Pls
6749 4739 Pls
6749 4739 Pls
6749 4476 Pls
6749 4514 Pls
6749 4148 Pls
6749 4279 Pls
6749 4253 Pls
6749 4017 Pls
6749 4363 Pls
6749 4476 Pls
6749 3792 Pls
6749 3977 Pls
6749 4739 Pls
6749 3794 Pls
6749 3700 Pls
6749 4017 Pls
6749 3595 Pls
6749 4031 Pls
6749 3345 Pls
6749 3868 Pls
6749 3972 Pls
6749 4030 Pls
1225 4739 Pls
1225 4739 Pls
1225 4739 Pls
1225 4739 Pls
1225 4739 Pls
1225 4739 Pls
1225 4739 Pls
1225 4739 Pls
1225 4739 Pls
1225 4739 Pls
1225 4739 Pls
1225 4739 Pls
1225 4739 Pls
1225 4739 Pls
1225 4739 Pls
1225 4739 Pls
1225 4739 Pls
1225 4739 Pls
1225 4739 Pls
1225 4739 Pls
1225 4739 Pls
1225 4739 Pls
1225 4739 Pls
1225 4739 Pls
1225 4739 Pls
1225 4345 Pls
1225 4739 Pls
1225 4739 Pls
1225 4739 Pls
1225 4739 Pls
1225 4739 Pls
1225 4739 Pls
1225 4739 Pls
1225 4739 Pls
1225 4739 Pls
1225 4739 Pls
1225 4608 Pls
1225 4739 Pls
1225 4739 Pls
1225 4739 Pls
2606 4739 Pls
2606 4739 Pls
2606 4739 Pls
2606 4739 Pls
2606 4739 Pls
2606 4739 Pls
2606 4739 Pls
2606 4739 Pls
2606 4739 Pls
2606 4739 Pls
2606 4739 Pls
2606 4739 Pls
2606 4739 Pls
2606 4739 Pls
2606 4739 Pls
2606 4739 Pls
2606 4739 Pls
2606 4739 Pls
2606 4739 Pls
2606 4739 Pls
2606 4739 Pls
2606 4739 Pls
2606 4739 Pls
2606 4739 Pls
2606 4345 Pls
2606 4345 Pls
2606 4739 Pls
2606 4739 Pls
2606 4739 Pls
2606 4739 Pls
2606 4739 Pls
2606 4739 Pls
2606 4739 Pls
2606 4581 Pls
2606 4529 Pls
2606 4739 Pls
2606 4581 Pls
2606 4476 Pls
2606 4739 Pls
2606 4476 Pls
3987 4739 Pls
3987 4739 Pls
3987 4678 Pls
3987 4739 Pls
3987 4739 Pls
3987 4739 Pls
3987 4739 Pls
3987 4739 Pls
3987 4739 Pls
3987 4739 Pls
3987 4739 Pls
3987 4739 Pls
3987 4739 Pls
3987 4739 Pls
3987 4739 Pls
3987 4739 Pls
3987 4739 Pls
3987 4739 Pls
3987 4739 Pls
3987 4739 Pls
3987 4641 Pls
3987 4739 Pls
3987 4626 Pls
3987 4739 Pls
3987 4476 Pls
3987 4739 Pls
3987 4739 Pls
3987 4608 Pls
3987 4476 Pls
3987 4017 Pls
3987 4626 Pls
3987 4503 Pls
3987 4542 Pls
3987 4739 Pls
3987 4641 Pls
3987 4384 Pls
3987 4120 Pls
3987 4739 Pls
3987 4581 Pls
3987 4495 Pls
5368 4739 Pls
5368 4739 Pls
5368 4739 Pls
5368 4739 Pls
5368 4739 Pls
5368 4739 Pls
5368 4739 Pls
5368 4678 Pls
5368 4739 Pls
5368 4739 Pls
5368 4739 Pls
5368 4739 Pls
5368 4739 Pls
5368 4739 Pls
5368 4739 Pls
5368 4739 Pls
5368 4739 Pls
5368 4739 Pls
5368 4739 Pls
5368 4739 Pls
5368 4542 Pls
5368 4279 Pls
5368 4739 Pls
5368 4476 Pls
5368 4581 Pls
5368 4017 Pls
5368 4542 Pls
5368 4030 Pls
5368 4214 Pls
5368 4450 Pls
5368 4345 Pls
5368 4608 Pls
5368 3735 Pls
5368 4595 Pls
5368 4135 Pls
5368 4251 Pls
5368 4174 Pls
5368 4608 Pls
5368 4363 Pls
5368 4214 Pls
6749 4739 Pls
6749 4739 Pls
6749 4739 Pls
6749 4739 Pls
6749 4673 Pls
6749 4739 Pls
6749 4739 Pls
6749 4739 Pls
6749 4739 Pls
6749 4739 Pls
6749 4739 Pls
6749 4739 Pls
6749 4739 Pls
6749 4739 Pls
6749 4739 Pls
6749 4739 Pls
6749 4739 Pls
6749 4739 Pls
6749 4739 Pls
6749 4739 Pls
6749 4542 Pls
6749 4266 Pls
6749 4542 Pls
6749 4161 Pls
6749 3964 Pls
6749 4054 Pls
6749 4581 Pls
6749 4345 Pls
6749 4411 Pls
6749 3824 Pls
6749 4499 Pls
6749 4281 Pls
6749 4384 Pls
6749 4036 Pls
6749 3595 Pls
6749 3707 Pls
6749 3254 Pls
6749 4739 Pls
6749 3708 Pls
6749 4001 Pls
1225 4739 Pls
1225 4739 Pls
1225 4739 Pls
1225 4739 Pls
1225 4739 Pls
1225 4739 Pls
1225 4739 Pls
1225 4739 Pls
1225 4739 Pls
1225 4739 Pls
1225 4739 Pls
1225 4739 Pls
1225 4739 Pls
1225 4739 Pls
1225 4739 Pls
1225 4739 Pls
1225 4739 Pls
1225 4739 Pls
1225 4739 Pls
1225 4739 Pls
1225 4739 Pls
1225 4739 Pls
1225 4739 Pls
1225 4739 Pls
1225 4739 Pls
1225 4739 Pls
1225 4739 Pls
1225 4739 Pls
1225 4739 Pls
1225 4739 Pls
1225 4739 Pls
1225 4739 Pls
1225 4739 Pls
1225 4739 Pls
1225 4739 Pls
1225 4739 Pls
1225 4739 Pls
1225 4739 Pls
1225 4739 Pls
1225 4739 Pls
2606 4739 Pls
2606 4739 Pls
2606 4739 Pls
2606 4739 Pls
2606 4739 Pls
2606 4739 Pls
2606 4739 Pls
2606 4739 Pls
2606 4739 Pls
2606 4739 Pls
2606 4739 Pls
2606 4739 Pls
2606 4739 Pls
2606 4739 Pls
2606 4739 Pls
2606 4739 Pls
2606 4739 Pls
2606 4739 Pls
2606 4739 Pls
2606 4739 Pls
2606 4739 Pls
2606 4739 Pls
2606 4739 Pls
2606 4739 Pls
2606 4739 Pls
2606 4739 Pls
2606 4739 Pls
2606 4739 Pls
2606 4739 Pls
2606 4739 Pls
2606 4739 Pls
2606 4739 Pls
2606 4148 Pls
2606 4476 Pls
2606 4581 Pls
2606 4739 Pls
2606 4384 Pls
2606 4251 Pls
2606 4739 Pls
2606 4542 Pls
3987 4739 Pls
3987 4739 Pls
3987 4739 Pls
3987 4739 Pls
3987 4739 Pls
3987 4739 Pls
3987 4739 Pls
3987 4739 Pls
3987 4739 Pls
3987 4739 Pls
3987 4739 Pls
3987 4739 Pls
3987 4739 Pls
3987 4739 Pls
3987 4739 Pls
3987 4739 Pls
3987 4739 Pls
3987 4739 Pls
3987 4739 Pls
3987 4739 Pls
3987 4739 Pls
3987 4476 Pls
3987 4739 Pls
3987 4739 Pls
3987 4739 Pls
3987 4476 Pls
3987 4739 Pls
3987 4660 Pls
3987 4345 Pls
3987 4739 Pls
3987 4430 Pls
3987 4739 Pls
3987 4739 Pls
3987 4298 Pls
3987 3899 Pls
3987 4739 Pls
3987 4411 Pls
3987 4503 Pls
3987 4503 Pls
3987 4739 Pls
5368 4673 Pls
5368 4739 Pls
5368 4678 Pls
5368 4739 Pls
5368 4739 Pls
5368 4739 Pls
5368 4739 Pls
5368 4739 Pls
5368 4660 Pls
5368 4739 Pls
5368 4739 Pls
5368 4739 Pls
5368 4739 Pls
5368 4739 Pls
5368 4739 Pls
5368 4739 Pls
5368 4739 Pls
5368 4739 Pls
5368 4739 Pls
5368 4739 Pls
5368 4608 Pls
5368 4739 Pls
5368 4608 Pls
5368 4739 Pls
5368 4739 Pls
5368 4279 Pls
5368 4542 Pls
5368 4476 Pls
5368 4450 Pls
5368 4345 Pls
5368 4739 Pls
5368 4203 Pls
5368 3833 Pls
5368 4323 Pls
5368 4188 Pls
5368 4303 Pls
5368 4450 Pls
5368 4272 Pls
5368 4495 Pls
5368 4009 Pls
6749 4673 Pls
6749 4739 Pls
6749 4739 Pls
6749 4739 Pls
6749 4739 Pls
6749 4739 Pls
6749 4739 Pls
6749 4739 Pls
6749 4739 Pls
6749 4739 Pls
6749 4739 Pls
6749 4739 Pls
6749 4739 Pls
6749 4739 Pls
6749 4739 Pls
6749 4739 Pls
6749 4739 Pls
6749 4739 Pls
6749 4739 Pls
6749 4739 Pls
6749 4319 Pls
6749 4214 Pls
6749 4148 Pls
6749 4542 Pls
6749 4384 Pls
6749 4411 Pls
6749 4651 Pls
6749 4581 Pls
6749 3859 Pls
6749 3859 Pls
6749 3859 Pls
6749 4345 Pls
6749 3590 Pls
6749 4457 Pls
6749 4338 Pls
6749 3648 Pls
6749 3698 Pls
6749 3904 Pls
6749 4641 Pls
6749 4179 Pls
1225 4739 Pls
1225 4739 Pls
1225 4739 Pls
1225 4739 Pls
1225 4739 Pls
1225 4739 Pls
1225 4739 Pls
1225 4739 Pls
1225 4739 Pls
1225 4739 Pls
1225 4739 Pls
1225 4739 Pls
1225 4739 Pls
1225 4739 Pls
1225 4739 Pls
1225 4739 Pls
1225 4739 Pls
1225 4739 Pls
1225 4739 Pls
1225 4739 Pls
1225 4739 Pls
1225 4739 Pls
1225 4739 Pls
1225 4739 Pls
1225 4739 Pls
1225 4739 Pls
1225 4739 Pls
1225 4739 Pls
1225 4739 Pls
1225 4641 Pls
1225 4739 Pls
1225 4739 Pls
1225 4739 Pls
1225 4739 Pls
1225 4739 Pls
1225 4739 Pls
1225 4739 Pls
1225 4739 Pls
1225 4739 Pls
1225 4739 Pls
2606 4739 Pls
2606 4739 Pls
2606 4739 Pls
2606 4739 Pls
2606 4739 Pls
2606 4739 Pls
2606 4739 Pls
2606 4739 Pls
2606 4739 Pls
2606 4739 Pls
2606 4739 Pls
2606 4739 Pls
2606 4739 Pls
2606 4739 Pls
2606 4739 Pls
2606 4739 Pls
2606 4739 Pls
2606 4739 Pls
2606 4739 Pls
2606 4739 Pls
2606 4739 Pls
2606 4542 Pls
2606 4739 Pls
2606 4739 Pls
2606 4581 Pls
2606 4483 Pls
2606 4542 Pls
2606 4739 Pls
2606 4739 Pls
2606 4345 Pls
2606 4476 Pls
2606 4739 Pls
2606 4345 Pls
2606 4608 Pls
2606 4739 Pls
2606 4476 Pls
2606 4279 Pls
2606 4463 Pls
2606 4581 Pls
2606 4739 Pls
3987 4739 Pls
3987 4739 Pls
3987 4739 Pls
3987 4739 Pls
3987 4739 Pls
3987 4739 Pls
3987 4739 Pls
3987 4739 Pls
3987 4739 Pls
3987 4739 Pls
3987 4739 Pls
3987 4739 Pls
3987 4739 Pls
3987 4739 Pls
3987 4739 Pls
3987 4739 Pls
3987 4739 Pls
3987 4739 Pls
3987 4739 Pls
3987 4739 Pls
3987 4739 Pls
3987 4739 Pls
3987 4581 Pls
3987 4739 Pls
3987 4739 Pls
3987 4279 Pls
3987 4739 Pls
3987 4542 Pls
3987 4450 Pls
3987 4739 Pls
3987 4739 Pls
3987 4660 Pls
3987 4384 Pls
3987 4450 Pls
3987 4739 Pls
3987 4476 Pls
3987 4581 Pls
3987 4739 Pls
3987 4043 Pls
3987 4739 Pls
5368 4739 Pls
5368 4739 Pls
5368 4739 Pls
5368 4739 Pls
5368 4739 Pls
5368 4739 Pls
5368 4739 Pls
5368 4739 Pls
5368 4660 Pls
5368 4739 Pls
5368 4667 Pls
5368 4739 Pls
5368 4739 Pls
5368 4739 Pls
5368 4739 Pls
5368 4739 Pls
5368 4739 Pls
5368 4739 Pls
5368 4739 Pls
5368 4651 Pls
5368 4739 Pls
5368 4542 Pls
5368 4542 Pls
5368 4384 Pls
5368 4542 Pls
5368 4161 Pls
5368 4581 Pls
5368 4279 Pls
5368 4542 Pls
5368 4241 Pls
5368 4364 Pls
5368 4739 Pls
5368 4227 Pls
5368 4050 Pls
5368 4188 Pls
5368 4542 Pls
5368 4739 Pls
5368 4384 Pls
5368 4317 Pls
5368 4214 Pls
6749 4739 Pls
6749 4739 Pls
6749 4739 Pls
6749 4739 Pls
6749 4739 Pls
6749 4739 Pls
6749 4739 Pls
6749 4739 Pls
6749 4739 Pls
6749 4739 Pls
6749 4739 Pls
6749 4739 Pls
6749 4739 Pls
6749 4739 Pls
6749 4739 Pls
6749 4739 Pls
6749 4739 Pls
6749 4739 Pls
6749 4739 Pls
6749 4739 Pls
6749 4214 Pls
6749 4739 Pls
6749 4476 Pls
6749 4279 Pls
6749 4188 Pls
6749 4430 Pls
6749 4345 Pls
6749 4476 Pls
6749 4542 Pls
6749 3944 Pls
6749 4444 Pls
6749 4476 Pls
6749 4122 Pls
6749 4739 Pls
6749 4247 Pls
6749 3943 Pls
6749 3459 Pls
6749 4042 Pls
6749 3947 Pls
6749 3886 Pls
% End plot #1
% Begin plot #2
1.000 UL
LT1
LCb setrgbcolor
2425 1488 M
[ [(Helvetica) 250.0 0.0 true true 0 (Average)]
] -83.3 MRshow
LT1
2575 1488 M
663 0 V
1225 4648 M
2606 4393 L
3987 4152 L
5368 3943 L
6749 3795 L
% End plot #2
% Begin plot #3
stroke
LT2
LCb setrgbcolor
2425 1238 M
[ [(Helvetica) 250.0 0.0 true true 0 (Min)]
] -83.3 MRshow
LT2
2575 1238 M
663 0 V
1225 2441 M
2606 1598 L
3987 1223 L
5368 1101 L
6749 1000 L
% End plot #3
% Begin plot #4
stroke
LT3
LCb setrgbcolor
2425 988 M
[ [(Helvetica) 250.0 0.0 true true 0 (Max)]
] -83.3 MRshow
LT3
2575 988 M
663 0 V
1225 4739 M
1381 0 V
1381 0 V
1381 0 V
1381 0 V
% End plot #4
stroke
LTb
1225 4739 N
0 -3939 V
5524 0 V
0 3939 V
-5524 0 V
Z stroke
1.000 UP
1.000 UL
LTb
stroke
grestore
end
showpage
%%Trailer
%%DocumentFonts: Helvetica
