%!PS-Adobe-2.0 EPSF-2.0
%%Title: n_noise_ratio-recall.eps
%%Creator: gnuplot 4.4 patchlevel 3
%%CreationDate: Fri Jun 14 19:20:04 2013
%%DocumentFonts: (atend)
%%BoundingBox: 50 50 410 302
%%EndComments
%%BeginProlog
/gnudict 256 dict def
gnudict begin
%
% The following true/false flags may be edited by hand if desired.
% The unit line width and grayscale image gamma correction may also be changed.
%
/Color true def
/Blacktext false def
/Solid false def
/Dashlength 1 def
/Landscape false def
/Level1 false def
/Rounded false def
/ClipToBoundingBox false def
/TransparentPatterns false def
/gnulinewidth 5.000 def
/userlinewidth gnulinewidth def
/Gamma 1.0 def
%
/vshift -83 def
/dl1 {
  10.0 Dashlength mul mul
  Rounded { currentlinewidth 0.75 mul sub dup 0 le { pop 0.01 } if } if
} def
/dl2 {
  10.0 Dashlength mul mul
  Rounded { currentlinewidth 0.75 mul add } if
} def
/hpt_ 31.5 def
/vpt_ 31.5 def
/hpt hpt_ def
/vpt vpt_ def
Level1 {} {
/SDict 10 dict def
systemdict /pdfmark known not {
  userdict /pdfmark systemdict /cleartomark get put
} if
SDict begin [
  /Title (n_noise_ratio-recall.eps)
  /Subject (gnuplot plot)
  /Creator (gnuplot 4.4 patchlevel 3)
  /Author (xjia)
%  /Producer (gnuplot)
%  /Keywords ()
  /CreationDate (Fri Jun 14 19:20:04 2013)
  /DOCINFO pdfmark
end
} ifelse
/doclip {
  ClipToBoundingBox {
    newpath 50 50 moveto 410 50 lineto 410 302 lineto 50 302 lineto closepath
    clip
  } if
} def
%
% Gnuplot Prolog Version 4.4 (August 2010)
%
%/SuppressPDFMark true def
%
/M {moveto} bind def
/L {lineto} bind def
/R {rmoveto} bind def
/V {rlineto} bind def
/N {newpath moveto} bind def
/Z {closepath} bind def
/C {setrgbcolor} bind def
/f {rlineto fill} bind def
/g {setgray} bind def
/Gshow {show} def   % May be redefined later in the file to support UTF-8
/vpt2 vpt 2 mul def
/hpt2 hpt 2 mul def
/Lshow {currentpoint stroke M 0 vshift R 
	Blacktext {gsave 0 setgray show grestore} {show} ifelse} def
/Rshow {currentpoint stroke M dup stringwidth pop neg vshift R
	Blacktext {gsave 0 setgray show grestore} {show} ifelse} def
/Cshow {currentpoint stroke M dup stringwidth pop -2 div vshift R 
	Blacktext {gsave 0 setgray show grestore} {show} ifelse} def
/UP {dup vpt_ mul /vpt exch def hpt_ mul /hpt exch def
  /hpt2 hpt 2 mul def /vpt2 vpt 2 mul def} def
/DL {Color {setrgbcolor Solid {pop []} if 0 setdash}
 {pop pop pop 0 setgray Solid {pop []} if 0 setdash} ifelse} def
/BL {stroke userlinewidth 2 mul setlinewidth
	Rounded {1 setlinejoin 1 setlinecap} if} def
/AL {stroke userlinewidth 2 div setlinewidth
	Rounded {1 setlinejoin 1 setlinecap} if} def
/UL {dup gnulinewidth mul /userlinewidth exch def
	dup 1 lt {pop 1} if 10 mul /udl exch def} def
/PL {stroke userlinewidth setlinewidth
	Rounded {1 setlinejoin 1 setlinecap} if} def
3.8 setmiterlimit
% Default Line colors
/LCw {1 1 1} def
/LCb {0 0 0} def
/LCa {0 0 0} def
/LC0 {1 0 0} def
/LC1 {0 1 0} def
/LC2 {0 0 1} def
/LC3 {1 0 1} def
/LC4 {0 1 1} def
/LC5 {1 1 0} def
/LC6 {0 0 0} def
/LC7 {1 0.3 0} def
/LC8 {0.5 0.5 0.5} def
% Default Line Types
/LTw {PL [] 1 setgray} def
/LTb {BL [] LCb DL} def
/LTa {AL [1 udl mul 2 udl mul] 0 setdash LCa setrgbcolor} def
/LT0 {PL [] LC0 DL} def
/LT1 {PL [4 dl1 2 dl2] LC1 DL} def
/LT2 {PL [2 dl1 3 dl2] LC2 DL} def
/LT3 {PL [1 dl1 1.5 dl2] LC3 DL} def
/LT4 {PL [6 dl1 2 dl2 1 dl1 2 dl2] LC4 DL} def
/LT5 {PL [3 dl1 3 dl2 1 dl1 3 dl2] LC5 DL} def
/LT6 {PL [2 dl1 2 dl2 2 dl1 6 dl2] LC6 DL} def
/LT7 {PL [1 dl1 2 dl2 6 dl1 2 dl2 1 dl1 2 dl2] LC7 DL} def
/LT8 {PL [2 dl1 2 dl2 2 dl1 2 dl2 2 dl1 2 dl2 2 dl1 4 dl2] LC8 DL} def
/Pnt {stroke [] 0 setdash gsave 1 setlinecap M 0 0 V stroke grestore} def
/Dia {stroke [] 0 setdash 2 copy vpt add M
  hpt neg vpt neg V hpt vpt neg V
  hpt vpt V hpt neg vpt V closepath stroke
  Pnt} def
/Pls {stroke [] 0 setdash vpt sub M 0 vpt2 V
  currentpoint stroke M
  hpt neg vpt neg R hpt2 0 V stroke
 } def
/Box {stroke [] 0 setdash 2 copy exch hpt sub exch vpt add M
  0 vpt2 neg V hpt2 0 V 0 vpt2 V
  hpt2 neg 0 V closepath stroke
  Pnt} def
/Crs {stroke [] 0 setdash exch hpt sub exch vpt add M
  hpt2 vpt2 neg V currentpoint stroke M
  hpt2 neg 0 R hpt2 vpt2 V stroke} def
/TriU {stroke [] 0 setdash 2 copy vpt 1.12 mul add M
  hpt neg vpt -1.62 mul V
  hpt 2 mul 0 V
  hpt neg vpt 1.62 mul V closepath stroke
  Pnt} def
/Star {2 copy Pls Crs} def
/BoxF {stroke [] 0 setdash exch hpt sub exch vpt add M
  0 vpt2 neg V hpt2 0 V 0 vpt2 V
  hpt2 neg 0 V closepath fill} def
/TriUF {stroke [] 0 setdash vpt 1.12 mul add M
  hpt neg vpt -1.62 mul V
  hpt 2 mul 0 V
  hpt neg vpt 1.62 mul V closepath fill} def
/TriD {stroke [] 0 setdash 2 copy vpt 1.12 mul sub M
  hpt neg vpt 1.62 mul V
  hpt 2 mul 0 V
  hpt neg vpt -1.62 mul V closepath stroke
  Pnt} def
/TriDF {stroke [] 0 setdash vpt 1.12 mul sub M
  hpt neg vpt 1.62 mul V
  hpt 2 mul 0 V
  hpt neg vpt -1.62 mul V closepath fill} def
/DiaF {stroke [] 0 setdash vpt add M
  hpt neg vpt neg V hpt vpt neg V
  hpt vpt V hpt neg vpt V closepath fill} def
/Pent {stroke [] 0 setdash 2 copy gsave
  translate 0 hpt M 4 {72 rotate 0 hpt L} repeat
  closepath stroke grestore Pnt} def
/PentF {stroke [] 0 setdash gsave
  translate 0 hpt M 4 {72 rotate 0 hpt L} repeat
  closepath fill grestore} def
/Circle {stroke [] 0 setdash 2 copy
  hpt 0 360 arc stroke Pnt} def
/CircleF {stroke [] 0 setdash hpt 0 360 arc fill} def
/C0 {BL [] 0 setdash 2 copy moveto vpt 90 450 arc} bind def
/C1 {BL [] 0 setdash 2 copy moveto
	2 copy vpt 0 90 arc closepath fill
	vpt 0 360 arc closepath} bind def
/C2 {BL [] 0 setdash 2 copy moveto
	2 copy vpt 90 180 arc closepath fill
	vpt 0 360 arc closepath} bind def
/C3 {BL [] 0 setdash 2 copy moveto
	2 copy vpt 0 180 arc closepath fill
	vpt 0 360 arc closepath} bind def
/C4 {BL [] 0 setdash 2 copy moveto
	2 copy vpt 180 270 arc closepath fill
	vpt 0 360 arc closepath} bind def
/C5 {BL [] 0 setdash 2 copy moveto
	2 copy vpt 0 90 arc
	2 copy moveto
	2 copy vpt 180 270 arc closepath fill
	vpt 0 360 arc} bind def
/C6 {BL [] 0 setdash 2 copy moveto
	2 copy vpt 90 270 arc closepath fill
	vpt 0 360 arc closepath} bind def
/C7 {BL [] 0 setdash 2 copy moveto
	2 copy vpt 0 270 arc closepath fill
	vpt 0 360 arc closepath} bind def
/C8 {BL [] 0 setdash 2 copy moveto
	2 copy vpt 270 360 arc closepath fill
	vpt 0 360 arc closepath} bind def
/C9 {BL [] 0 setdash 2 copy moveto
	2 copy vpt 270 450 arc closepath fill
	vpt 0 360 arc closepath} bind def
/C10 {BL [] 0 setdash 2 copy 2 copy moveto vpt 270 360 arc closepath fill
	2 copy moveto
	2 copy vpt 90 180 arc closepath fill
	vpt 0 360 arc closepath} bind def
/C11 {BL [] 0 setdash 2 copy moveto
	2 copy vpt 0 180 arc closepath fill
	2 copy moveto
	2 copy vpt 270 360 arc closepath fill
	vpt 0 360 arc closepath} bind def
/C12 {BL [] 0 setdash 2 copy moveto
	2 copy vpt 180 360 arc closepath fill
	vpt 0 360 arc closepath} bind def
/C13 {BL [] 0 setdash 2 copy moveto
	2 copy vpt 0 90 arc closepath fill
	2 copy moveto
	2 copy vpt 180 360 arc closepath fill
	vpt 0 360 arc closepath} bind def
/C14 {BL [] 0 setdash 2 copy moveto
	2 copy vpt 90 360 arc closepath fill
	vpt 0 360 arc} bind def
/C15 {BL [] 0 setdash 2 copy vpt 0 360 arc closepath fill
	vpt 0 360 arc closepath} bind def
/Rec {newpath 4 2 roll moveto 1 index 0 rlineto 0 exch rlineto
	neg 0 rlineto closepath} bind def
/Square {dup Rec} bind def
/Bsquare {vpt sub exch vpt sub exch vpt2 Square} bind def
/S0 {BL [] 0 setdash 2 copy moveto 0 vpt rlineto BL Bsquare} bind def
/S1 {BL [] 0 setdash 2 copy vpt Square fill Bsquare} bind def
/S2 {BL [] 0 setdash 2 copy exch vpt sub exch vpt Square fill Bsquare} bind def
/S3 {BL [] 0 setdash 2 copy exch vpt sub exch vpt2 vpt Rec fill Bsquare} bind def
/S4 {BL [] 0 setdash 2 copy exch vpt sub exch vpt sub vpt Square fill Bsquare} bind def
/S5 {BL [] 0 setdash 2 copy 2 copy vpt Square fill
	exch vpt sub exch vpt sub vpt Square fill Bsquare} bind def
/S6 {BL [] 0 setdash 2 copy exch vpt sub exch vpt sub vpt vpt2 Rec fill Bsquare} bind def
/S7 {BL [] 0 setdash 2 copy exch vpt sub exch vpt sub vpt vpt2 Rec fill
	2 copy vpt Square fill Bsquare} bind def
/S8 {BL [] 0 setdash 2 copy vpt sub vpt Square fill Bsquare} bind def
/S9 {BL [] 0 setdash 2 copy vpt sub vpt vpt2 Rec fill Bsquare} bind def
/S10 {BL [] 0 setdash 2 copy vpt sub vpt Square fill 2 copy exch vpt sub exch vpt Square fill
	Bsquare} bind def
/S11 {BL [] 0 setdash 2 copy vpt sub vpt Square fill 2 copy exch vpt sub exch vpt2 vpt Rec fill
	Bsquare} bind def
/S12 {BL [] 0 setdash 2 copy exch vpt sub exch vpt sub vpt2 vpt Rec fill Bsquare} bind def
/S13 {BL [] 0 setdash 2 copy exch vpt sub exch vpt sub vpt2 vpt Rec fill
	2 copy vpt Square fill Bsquare} bind def
/S14 {BL [] 0 setdash 2 copy exch vpt sub exch vpt sub vpt2 vpt Rec fill
	2 copy exch vpt sub exch vpt Square fill Bsquare} bind def
/S15 {BL [] 0 setdash 2 copy Bsquare fill Bsquare} bind def
/D0 {gsave translate 45 rotate 0 0 S0 stroke grestore} bind def
/D1 {gsave translate 45 rotate 0 0 S1 stroke grestore} bind def
/D2 {gsave translate 45 rotate 0 0 S2 stroke grestore} bind def
/D3 {gsave translate 45 rotate 0 0 S3 stroke grestore} bind def
/D4 {gsave translate 45 rotate 0 0 S4 stroke grestore} bind def
/D5 {gsave translate 45 rotate 0 0 S5 stroke grestore} bind def
/D6 {gsave translate 45 rotate 0 0 S6 stroke grestore} bind def
/D7 {gsave translate 45 rotate 0 0 S7 stroke grestore} bind def
/D8 {gsave translate 45 rotate 0 0 S8 stroke grestore} bind def
/D9 {gsave translate 45 rotate 0 0 S9 stroke grestore} bind def
/D10 {gsave translate 45 rotate 0 0 S10 stroke grestore} bind def
/D11 {gsave translate 45 rotate 0 0 S11 stroke grestore} bind def
/D12 {gsave translate 45 rotate 0 0 S12 stroke grestore} bind def
/D13 {gsave translate 45 rotate 0 0 S13 stroke grestore} bind def
/D14 {gsave translate 45 rotate 0 0 S14 stroke grestore} bind def
/D15 {gsave translate 45 rotate 0 0 S15 stroke grestore} bind def
/DiaE {stroke [] 0 setdash vpt add M
  hpt neg vpt neg V hpt vpt neg V
  hpt vpt V hpt neg vpt V closepath stroke} def
/BoxE {stroke [] 0 setdash exch hpt sub exch vpt add M
  0 vpt2 neg V hpt2 0 V 0 vpt2 V
  hpt2 neg 0 V closepath stroke} def
/TriUE {stroke [] 0 setdash vpt 1.12 mul add M
  hpt neg vpt -1.62 mul V
  hpt 2 mul 0 V
  hpt neg vpt 1.62 mul V closepath stroke} def
/TriDE {stroke [] 0 setdash vpt 1.12 mul sub M
  hpt neg vpt 1.62 mul V
  hpt 2 mul 0 V
  hpt neg vpt -1.62 mul V closepath stroke} def
/PentE {stroke [] 0 setdash gsave
  translate 0 hpt M 4 {72 rotate 0 hpt L} repeat
  closepath stroke grestore} def
/CircE {stroke [] 0 setdash 
  hpt 0 360 arc stroke} def
/Opaque {gsave closepath 1 setgray fill grestore 0 setgray closepath} def
/DiaW {stroke [] 0 setdash vpt add M
  hpt neg vpt neg V hpt vpt neg V
  hpt vpt V hpt neg vpt V Opaque stroke} def
/BoxW {stroke [] 0 setdash exch hpt sub exch vpt add M
  0 vpt2 neg V hpt2 0 V 0 vpt2 V
  hpt2 neg 0 V Opaque stroke} def
/TriUW {stroke [] 0 setdash vpt 1.12 mul add M
  hpt neg vpt -1.62 mul V
  hpt 2 mul 0 V
  hpt neg vpt 1.62 mul V Opaque stroke} def
/TriDW {stroke [] 0 setdash vpt 1.12 mul sub M
  hpt neg vpt 1.62 mul V
  hpt 2 mul 0 V
  hpt neg vpt -1.62 mul V Opaque stroke} def
/PentW {stroke [] 0 setdash gsave
  translate 0 hpt M 4 {72 rotate 0 hpt L} repeat
  Opaque stroke grestore} def
/CircW {stroke [] 0 setdash 
  hpt 0 360 arc Opaque stroke} def
/BoxFill {gsave Rec 1 setgray fill grestore} def
/Density {
  /Fillden exch def
  currentrgbcolor
  /ColB exch def /ColG exch def /ColR exch def
  /ColR ColR Fillden mul Fillden sub 1 add def
  /ColG ColG Fillden mul Fillden sub 1 add def
  /ColB ColB Fillden mul Fillden sub 1 add def
  ColR ColG ColB setrgbcolor} def
/BoxColFill {gsave Rec PolyFill} def
/PolyFill {gsave Density fill grestore grestore} def
/h {rlineto rlineto rlineto gsave closepath fill grestore} bind def
%
% PostScript Level 1 Pattern Fill routine for rectangles
% Usage: x y w h s a XX PatternFill
%	x,y = lower left corner of box to be filled
%	w,h = width and height of box
%	  a = angle in degrees between lines and x-axis
%	 XX = 0/1 for no/yes cross-hatch
%
/PatternFill {gsave /PFa [ 9 2 roll ] def
  PFa 0 get PFa 2 get 2 div add PFa 1 get PFa 3 get 2 div add translate
  PFa 2 get -2 div PFa 3 get -2 div PFa 2 get PFa 3 get Rec
  gsave 1 setgray fill grestore clip
  currentlinewidth 0.5 mul setlinewidth
  /PFs PFa 2 get dup mul PFa 3 get dup mul add sqrt def
  0 0 M PFa 5 get rotate PFs -2 div dup translate
  0 1 PFs PFa 4 get div 1 add floor cvi
	{PFa 4 get mul 0 M 0 PFs V} for
  0 PFa 6 get ne {
	0 1 PFs PFa 4 get div 1 add floor cvi
	{PFa 4 get mul 0 2 1 roll M PFs 0 V} for
 } if
  stroke grestore} def
%
/languagelevel where
 {pop languagelevel} {1} ifelse
 2 lt
	{/InterpretLevel1 true def}
	{/InterpretLevel1 Level1 def}
 ifelse
%
% PostScript level 2 pattern fill definitions
%
/Level2PatternFill {
/Tile8x8 {/PaintType 2 /PatternType 1 /TilingType 1 /BBox [0 0 8 8] /XStep 8 /YStep 8}
	bind def
/KeepColor {currentrgbcolor [/Pattern /DeviceRGB] setcolorspace} bind def
<< Tile8x8
 /PaintProc {0.5 setlinewidth pop 0 0 M 8 8 L 0 8 M 8 0 L stroke} 
>> matrix makepattern
/Pat1 exch def
<< Tile8x8
 /PaintProc {0.5 setlinewidth pop 0 0 M 8 8 L 0 8 M 8 0 L stroke
	0 4 M 4 8 L 8 4 L 4 0 L 0 4 L stroke}
>> matrix makepattern
/Pat2 exch def
<< Tile8x8
 /PaintProc {0.5 setlinewidth pop 0 0 M 0 8 L
	8 8 L 8 0 L 0 0 L fill}
>> matrix makepattern
/Pat3 exch def
<< Tile8x8
 /PaintProc {0.5 setlinewidth pop -4 8 M 8 -4 L
	0 12 M 12 0 L stroke}
>> matrix makepattern
/Pat4 exch def
<< Tile8x8
 /PaintProc {0.5 setlinewidth pop -4 0 M 8 12 L
	0 -4 M 12 8 L stroke}
>> matrix makepattern
/Pat5 exch def
<< Tile8x8
 /PaintProc {0.5 setlinewidth pop -2 8 M 4 -4 L
	0 12 M 8 -4 L 4 12 M 10 0 L stroke}
>> matrix makepattern
/Pat6 exch def
<< Tile8x8
 /PaintProc {0.5 setlinewidth pop -2 0 M 4 12 L
	0 -4 M 8 12 L 4 -4 M 10 8 L stroke}
>> matrix makepattern
/Pat7 exch def
<< Tile8x8
 /PaintProc {0.5 setlinewidth pop 8 -2 M -4 4 L
	12 0 M -4 8 L 12 4 M 0 10 L stroke}
>> matrix makepattern
/Pat8 exch def
<< Tile8x8
 /PaintProc {0.5 setlinewidth pop 0 -2 M 12 4 L
	-4 0 M 12 8 L -4 4 M 8 10 L stroke}
>> matrix makepattern
/Pat9 exch def
/Pattern1 {PatternBgnd KeepColor Pat1 setpattern} bind def
/Pattern2 {PatternBgnd KeepColor Pat2 setpattern} bind def
/Pattern3 {PatternBgnd KeepColor Pat3 setpattern} bind def
/Pattern4 {PatternBgnd KeepColor Landscape {Pat5} {Pat4} ifelse setpattern} bind def
/Pattern5 {PatternBgnd KeepColor Landscape {Pat4} {Pat5} ifelse setpattern} bind def
/Pattern6 {PatternBgnd KeepColor Landscape {Pat9} {Pat6} ifelse setpattern} bind def
/Pattern7 {PatternBgnd KeepColor Landscape {Pat8} {Pat7} ifelse setpattern} bind def
} def
%
%
%End of PostScript Level 2 code
%
/PatternBgnd {
  TransparentPatterns {} {gsave 1 setgray fill grestore} ifelse
} def
%
% Substitute for Level 2 pattern fill codes with
% grayscale if Level 2 support is not selected.
%
/Level1PatternFill {
/Pattern1 {0.250 Density} bind def
/Pattern2 {0.500 Density} bind def
/Pattern3 {0.750 Density} bind def
/Pattern4 {0.125 Density} bind def
/Pattern5 {0.375 Density} bind def
/Pattern6 {0.625 Density} bind def
/Pattern7 {0.875 Density} bind def
} def
%
% Now test for support of Level 2 code
%
Level1 {Level1PatternFill} {Level2PatternFill} ifelse
%
/Symbol-Oblique /Symbol findfont [1 0 .167 1 0 0] makefont
dup length dict begin {1 index /FID eq {pop pop} {def} ifelse} forall
currentdict end definefont pop
/MFshow {
   { dup 5 get 3 ge
     { 5 get 3 eq {gsave} {grestore} ifelse }
     {dup dup 0 get findfont exch 1 get scalefont setfont
     [ currentpoint ] exch dup 2 get 0 exch R dup 5 get 2 ne {dup dup 6
     get exch 4 get {Gshow} {stringwidth pop 0 R} ifelse }if dup 5 get 0 eq
     {dup 3 get {2 get neg 0 exch R pop} {pop aload pop M} ifelse} {dup 5
     get 1 eq {dup 2 get exch dup 3 get exch 6 get stringwidth pop -2 div
     dup 0 R} {dup 6 get stringwidth pop -2 div 0 R 6 get
     show 2 index {aload pop M neg 3 -1 roll neg R pop pop} {pop pop pop
     pop aload pop M} ifelse }ifelse }ifelse }
     ifelse }
   forall} def
/Gswidth {dup type /stringtype eq {stringwidth} {pop (n) stringwidth} ifelse} def
/MFwidth {0 exch { dup 5 get 3 ge { 5 get 3 eq { 0 } { pop } ifelse }
 {dup 3 get{dup dup 0 get findfont exch 1 get scalefont setfont
     6 get Gswidth pop add} {pop} ifelse} ifelse} forall} def
/MLshow { currentpoint stroke M
  0 exch R
  Blacktext {gsave 0 setgray MFshow grestore} {MFshow} ifelse } bind def
/MRshow { currentpoint stroke M
  exch dup MFwidth neg 3 -1 roll R
  Blacktext {gsave 0 setgray MFshow grestore} {MFshow} ifelse } bind def
/MCshow { currentpoint stroke M
  exch dup MFwidth -2 div 3 -1 roll R
  Blacktext {gsave 0 setgray MFshow grestore} {MFshow} ifelse } bind def
/XYsave    { [( ) 1 2 true false 3 ()] } bind def
/XYrestore { [( ) 1 2 true false 4 ()] } bind def
end
%%EndProlog
gnudict begin
gsave
doclip
50 50 translate
0.050 0.050 scale
0 setgray
newpath
(Helvetica) findfont 250 scalefont setfont
1.000 UL
LTb
1375 800 M
63 0 V
5311 0 R
-63 0 V
stroke
1225 800 M
[ [(Helvetica) 250.0 0.0 true true 0 ( 0.6)]
] -83.3 MRshow
1.000 UL
LTb
1375 1292 M
63 0 V
5311 0 R
-63 0 V
stroke
1225 1292 M
[ [(Helvetica) 250.0 0.0 true true 0 ( 0.65)]
] -83.3 MRshow
1.000 UL
LTb
1375 1785 M
63 0 V
5311 0 R
-63 0 V
stroke
1225 1785 M
[ [(Helvetica) 250.0 0.0 true true 0 ( 0.7)]
] -83.3 MRshow
1.000 UL
LTb
1375 2277 M
63 0 V
5311 0 R
-63 0 V
stroke
1225 2277 M
[ [(Helvetica) 250.0 0.0 true true 0 ( 0.75)]
] -83.3 MRshow
1.000 UL
LTb
1375 2770 M
63 0 V
5311 0 R
-63 0 V
stroke
1225 2770 M
[ [(Helvetica) 250.0 0.0 true true 0 ( 0.8)]
] -83.3 MRshow
1.000 UL
LTb
1375 3262 M
63 0 V
5311 0 R
-63 0 V
stroke
1225 3262 M
[ [(Helvetica) 250.0 0.0 true true 0 ( 0.85)]
] -83.3 MRshow
1.000 UL
LTb
1375 3754 M
63 0 V
5311 0 R
-63 0 V
stroke
1225 3754 M
[ [(Helvetica) 250.0 0.0 true true 0 ( 0.9)]
] -83.3 MRshow
1.000 UL
LTb
1375 4247 M
63 0 V
5311 0 R
-63 0 V
stroke
1225 4247 M
[ [(Helvetica) 250.0 0.0 true true 0 ( 0.95)]
] -83.3 MRshow
1.000 UL
LTb
1375 4739 M
63 0 V
5311 0 R
-63 0 V
stroke
1225 4739 M
[ [(Helvetica) 250.0 0.0 true true 0 ( 1)]
] -83.3 MRshow
1.000 UL
LTb
1375 800 M
0 63 V
0 3876 R
0 -63 V
stroke
1375 550 M
[ [(Helvetica) 250.0 0.0 true true 0 (-0.6)]
] -83.3 MCshow
1.000 UL
LTb
2271 800 M
0 63 V
0 3876 R
0 -63 V
stroke
2271 550 M
[ [(Helvetica) 250.0 0.0 true true 0 (-0.4)]
] -83.3 MCshow
1.000 UL
LTb
3166 800 M
0 63 V
0 3876 R
0 -63 V
stroke
3166 550 M
[ [(Helvetica) 250.0 0.0 true true 0 (-0.2)]
] -83.3 MCshow
1.000 UL
LTb
4062 800 M
0 63 V
0 3876 R
0 -63 V
stroke
4062 550 M
[ [(Helvetica) 250.0 0.0 true true 0 ( 0)]
] -83.3 MCshow
1.000 UL
LTb
4958 800 M
0 63 V
0 3876 R
0 -63 V
stroke
4958 550 M
[ [(Helvetica) 250.0 0.0 true true 0 ( 0.2)]
] -83.3 MCshow
1.000 UL
LTb
5853 800 M
0 63 V
0 3876 R
0 -63 V
stroke
5853 550 M
[ [(Helvetica) 250.0 0.0 true true 0 ( 0.4)]
] -83.3 MCshow
1.000 UL
LTb
6749 800 M
0 63 V
0 3876 R
0 -63 V
stroke
6749 550 M
[ [(Helvetica) 250.0 0.0 true true 0 ( 0.6)]
] -83.3 MCshow
1.000 UL
LTb
1.000 UL
LTb
1375 4739 N
0 -3939 V
5374 0 V
0 3939 V
-5374 0 V
Z stroke
LCb setrgbcolor
200 2769 M
currentpoint gsave translate -270 rotate 0 0 moveto
[ [(Helvetica) 250.0 0.0 true true 0 (Recall)]
] -83.3 MCshow
grestore
LTb
LCb setrgbcolor
4062 175 M
[ [(Helvetica) 250.0 0.0 true true 0 (Noise Ratio)]
] -83.3 MCshow
LTb
1.000 UP
1.000 UL
LTb
% Begin plot #1
1.000 UP
1.000 UL
LT0
1823 4465 Pls
1823 3974 Pls
1823 4513 Pls
1823 4366 Pls
2271 3622 Pls
2271 4053 Pls
2271 4329 Pls
2271 4604 Pls
2719 3792 Pls
2719 4291 Pls
2719 4615 Pls
2719 4426 Pls
3166 3614 Pls
3166 3986 Pls
3166 4254 Pls
3166 4457 Pls
3614 2999 Pls
3614 4068 Pls
3614 4485 Pls
3614 4397 Pls
4510 3508 Pls
4510 3535 Pls
4510 4458 Pls
4510 4324 Pls
4958 3754 Pls
4958 4192 Pls
4958 4176 Pls
4958 4324 Pls
5406 3262 Pls
5406 3864 Pls
5406 4176 Pls
5406 4324 Pls
5853 4000 Pls
5853 3973 Pls
5853 4598 Pls
5853 4324 Pls
6301 4000 Pls
6301 4083 Pls
6301 4458 Pls
6301 4376 Pls
1823 4075 Pls
1823 4176 Pls
1823 3927 Pls
1823 4437 Pls
2271 3935 Pls
2271 4366 Pls
2271 4315 Pls
2271 4157 Pls
2719 3860 Pls
2719 4441 Pls
2719 4324 Pls
2719 4278 Pls
3166 3819 Pls
3166 3907 Pls
3166 4377 Pls
3166 4323 Pls
3614 3571 Pls
3614 4305 Pls
3614 4365 Pls
3614 4506 Pls
4510 3016 Pls
4510 3864 Pls
4510 4317 Pls
4510 4376 Pls
4958 3016 Pls
4958 4083 Pls
4958 4387 Pls
4958 4584 Pls
5406 3754 Pls
5406 3754 Pls
5406 3895 Pls
5406 4428 Pls
5853 3754 Pls
5853 4083 Pls
5853 3965 Pls
5853 4532 Pls
6301 4493 Pls
6301 3754 Pls
6301 4387 Pls
6301 4480 Pls
1823 3464 Pls
1823 3711 Pls
1823 4246 Pls
1823 4696 Pls
2271 4288 Pls
2271 4283 Pls
2271 4295 Pls
2271 4391 Pls
2719 4028 Pls
2719 4054 Pls
2719 4025 Pls
2719 4328 Pls
3166 3744 Pls
3166 4422 Pls
3166 4348 Pls
3166 4387 Pls
3614 3196 Pls
3614 4429 Pls
3614 4296 Pls
3614 4374 Pls
4510 3754 Pls
4510 4192 Pls
4510 4106 Pls
4510 4532 Pls
4958 4247 Pls
4958 4083 Pls
4958 4247 Pls
4958 4739 Pls
5406 4493 Pls
5406 4520 Pls
5406 4528 Pls
5406 4221 Pls
5853 4247 Pls
5853 3973 Pls
5853 4598 Pls
5853 4687 Pls
6301 4493 Pls
6301 4411 Pls
6301 4247 Pls
6301 4376 Pls
1823 4434 Pls
1823 4386 Pls
1823 3914 Pls
1823 4551 Pls
2271 4739 Pls
2271 4059 Pls
2271 4256 Pls
2271 4425 Pls
2719 3940 Pls
2719 4352 Pls
2719 4015 Pls
2719 4440 Pls
3166 3720 Pls
3166 3928 Pls
3166 4182 Pls
3166 4561 Pls
3614 3959 Pls
3614 4437 Pls
3614 4190 Pls
3614 4340 Pls
4510 3754 Pls
4510 4520 Pls
4510 4317 Pls
4510 4065 Pls
4958 2770 Pls
4958 4520 Pls
4958 4458 Pls
4958 4221 Pls
5406 4493 Pls
5406 4411 Pls
5406 4458 Pls
5406 4428 Pls
5853 4247 Pls
5853 4520 Pls
5853 4458 Pls
5853 4532 Pls
6301 4247 Pls
6301 4411 Pls
6301 4669 Pls
6301 4687 Pls
1823 4294 Pls
1823 4394 Pls
1823 4474 Pls
1823 4566 Pls
2271 4165 Pls
2271 4376 Pls
2271 4026 Pls
2271 4258 Pls
2719 4575 Pls
2719 4430 Pls
2719 4312 Pls
2719 4437 Pls
3166 4069 Pls
3166 4015 Pls
3166 4243 Pls
3166 4434 Pls
3614 3827 Pls
3614 4108 Pls
3614 4241 Pls
3614 4609 Pls
4510 3508 Pls
4510 3973 Pls
4510 4387 Pls
4510 4480 Pls
4958 4000 Pls
4958 4411 Pls
4958 4598 Pls
4958 4687 Pls
5406 4247 Pls
5406 4630 Pls
5406 4528 Pls
5406 4584 Pls
5853 4247 Pls
5853 4739 Pls
5853 4528 Pls
5853 4635 Pls
6301 4739 Pls
6301 4301 Pls
6301 4317 Pls
6301 4687 Pls
1823 4104 Pls
1823 4064 Pls
1823 4319 Pls
1823 4372 Pls
2271 4237 Pls
2271 4313 Pls
2271 4165 Pls
2271 4468 Pls
2719 3795 Pls
2719 4395 Pls
2719 4260 Pls
2719 4267 Pls
3166 4082 Pls
3166 3644 Pls
3166 3957 Pls
3166 4357 Pls
3614 2868 Pls
3614 4363 Pls
3614 4493 Pls
3614 4544 Pls
4510 2770 Pls
4510 3426 Pls
4510 4036 Pls
4510 4376 Pls
4958 3262 Pls
4958 4301 Pls
4958 4528 Pls
4958 4273 Pls
5406 2770 Pls
5406 3864 Pls
5406 4669 Pls
5406 4324 Pls
5853 3016 Pls
5853 4301 Pls
5853 4387 Pls
5853 4480 Pls
6301 4000 Pls
6301 3754 Pls
6301 4176 Pls
6301 4532 Pls
1823 4311 Pls
1823 4657 Pls
1823 4438 Pls
1823 4436 Pls
2271 4411 Pls
2271 3920 Pls
2271 4409 Pls
2271 4559 Pls
2719 4383 Pls
2719 4411 Pls
2719 4336 Pls
2719 4334 Pls
3166 4329 Pls
3166 3953 Pls
3166 4496 Pls
3166 4423 Pls
3614 3220 Pls
3614 4206 Pls
3614 4241 Pls
3614 4506 Pls
4510 3262 Pls
4510 3317 Pls
4510 4247 Pls
4510 4169 Pls
4958 3754 Pls
4958 4083 Pls
4958 4247 Pls
4958 4584 Pls
5406 4000 Pls
5406 3973 Pls
5406 4317 Pls
5406 4273 Pls
5853 2770 Pls
5853 4192 Pls
5853 4528 Pls
5853 4532 Pls
6301 4247 Pls
6301 4301 Pls
6301 4387 Pls
6301 4635 Pls
1823 3871 Pls
1823 4443 Pls
1823 4519 Pls
1823 4481 Pls
2271 4082 Pls
2271 4240 Pls
2271 4438 Pls
2271 4309 Pls
2719 4081 Pls
2719 4050 Pls
2719 4394 Pls
2719 4292 Pls
3166 3797 Pls
3166 4328 Pls
3166 4200 Pls
3166 4368 Pls
3614 3575 Pls
3614 3887 Pls
3614 4045 Pls
3614 4506 Pls
4510 4000 Pls
4510 3645 Pls
4510 4176 Pls
4510 4324 Pls
4958 3508 Pls
4958 4083 Pls
4958 4317 Pls
4958 3910 Pls
5406 3508 Pls
5406 4192 Pls
5406 4247 Pls
5406 4480 Pls
5853 4247 Pls
5853 3864 Pls
5853 4176 Pls
5853 4221 Pls
6301 4739 Pls
6301 4192 Pls
6301 4317 Pls
6301 4273 Pls
1823 4270 Pls
1823 4497 Pls
1823 4047 Pls
1823 4607 Pls
2271 4178 Pls
2271 4235 Pls
2271 4431 Pls
2271 4511 Pls
2719 4366 Pls
2719 4248 Pls
2719 4423 Pls
2719 4482 Pls
3166 4050 Pls
3166 4047 Pls
3166 4357 Pls
3166 4341 Pls
3614 3523 Pls
3614 4505 Pls
3614 4739 Pls
3614 4367 Pls
4510 3508 Pls
4510 3754 Pls
4510 4317 Pls
4510 4324 Pls
4958 4247 Pls
4958 4083 Pls
4958 4387 Pls
4958 4480 Pls
5406 3754 Pls
5406 4301 Pls
5406 4458 Pls
5406 4376 Pls
5853 4493 Pls
5853 4411 Pls
5853 4458 Pls
5853 4376 Pls
6301 4493 Pls
6301 3973 Pls
6301 4247 Pls
6301 4635 Pls
1823 4458 Pls
1823 4448 Pls
1823 4234 Pls
1823 4247 Pls
2271 4458 Pls
2271 4442 Pls
2271 4291 Pls
2271 4356 Pls
2719 4739 Pls
2719 4593 Pls
2719 4286 Pls
2719 4343 Pls
3166 4311 Pls
3166 4107 Pls
3166 4459 Pls
3166 4470 Pls
3614 4452 Pls
3614 4408 Pls
3614 4202 Pls
3614 4426 Pls
4510 3754 Pls
4510 4192 Pls
4510 4106 Pls
4510 4221 Pls
4958 4493 Pls
4958 4301 Pls
4958 4317 Pls
4958 4376 Pls
5406 3508 Pls
5406 4411 Pls
5406 4458 Pls
5406 4532 Pls
5853 4247 Pls
5853 4411 Pls
5853 4458 Pls
5853 4635 Pls
6301 4493 Pls
6301 4411 Pls
6301 4458 Pls
6301 4635 Pls
1823 3973 Pls
1823 4111 Pls
1823 4315 Pls
1823 4431 Pls
2271 4165 Pls
2271 4415 Pls
2271 4442 Pls
2271 4369 Pls
2719 3935 Pls
2719 3706 Pls
2719 4423 Pls
2719 4238 Pls
3166 4434 Pls
3166 4232 Pls
3166 4431 Pls
3166 4415 Pls
3614 3229 Pls
3614 3504 Pls
3614 4550 Pls
3614 4221 Pls
4510 3016 Pls
4510 2988 Pls
4510 3543 Pls
4510 4324 Pls
4958 2770 Pls
4958 3864 Pls
4958 4106 Pls
4958 3910 Pls
5406 3754 Pls
5406 4411 Pls
5406 4036 Pls
5406 4532 Pls
5853 4000 Pls
5853 3973 Pls
5853 4317 Pls
5853 4273 Pls
6301 3262 Pls
6301 4083 Pls
6301 4317 Pls
6301 4376 Pls
1823 4506 Pls
1823 4286 Pls
1823 4386 Pls
1823 4421 Pls
2271 4458 Pls
2271 3965 Pls
2271 4315 Pls
2271 4419 Pls
2719 4053 Pls
2719 4100 Pls
2719 4502 Pls
2719 4336 Pls
3166 4129 Pls
3166 3980 Pls
3166 4250 Pls
3166 4178 Pls
3614 4270 Pls
3614 4093 Pls
3614 4369 Pls
3614 4324 Pls
4510 3262 Pls
4510 3864 Pls
4510 4528 Pls
4510 4428 Pls
4958 3262 Pls
4958 4411 Pls
4958 4739 Pls
4958 4376 Pls
5406 2770 Pls
5406 3864 Pls
5406 4247 Pls
5406 4428 Pls
5853 3754 Pls
5853 4301 Pls
5853 4247 Pls
5853 4635 Pls
6301 2770 Pls
6301 3754 Pls
6301 4458 Pls
6301 4532 Pls
1823 3486 Pls
1823 4466 Pls
1823 4102 Pls
1823 4438 Pls
2271 3590 Pls
2271 4525 Pls
2271 4203 Pls
2271 4113 Pls
2719 3997 Pls
2719 4059 Pls
2719 3892 Pls
2719 4284 Pls
3166 4475 Pls
3166 4663 Pls
3166 4211 Pls
3166 4298 Pls
3614 4311 Pls
3614 3887 Pls
3614 4396 Pls
3614 4553 Pls
4510 4000 Pls
4510 3864 Pls
4510 3965 Pls
4510 4532 Pls
4958 3262 Pls
4958 4083 Pls
4958 4528 Pls
4958 4376 Pls
5406 3508 Pls
5406 4192 Pls
5406 4598 Pls
5406 4584 Pls
5853 4000 Pls
5853 3973 Pls
5853 4458 Pls
5853 4480 Pls
6301 4493 Pls
6301 4630 Pls
6301 4387 Pls
6301 4480 Pls
1823 4598 Pls
1823 4396 Pls
1823 3999 Pls
1823 4577 Pls
2271 4342 Pls
2271 4109 Pls
2271 4199 Pls
2271 4351 Pls
2719 4419 Pls
2719 4434 Pls
2719 4144 Pls
2719 4474 Pls
3166 4575 Pls
3166 4227 Pls
3166 4280 Pls
3166 4429 Pls
3614 3819 Pls
3614 4030 Pls
3614 4313 Pls
3614 4422 Pls
4510 2770 Pls
4510 4411 Pls
4510 4387 Pls
4510 4480 Pls
4958 3262 Pls
4958 3535 Pls
4958 4528 Pls
4958 4013 Pls
5406 4739 Pls
5406 3535 Pls
5406 4387 Pls
5406 4480 Pls
5853 4493 Pls
5853 4520 Pls
5853 4106 Pls
5853 4532 Pls
6301 4247 Pls
6301 3973 Pls
6301 4458 Pls
6301 4584 Pls
1823 4419 Pls
1823 4372 Pls
1823 4467 Pls
1823 4568 Pls
2271 4006 Pls
2271 3895 Pls
2271 4400 Pls
2271 4534 Pls
2719 4475 Pls
2719 4165 Pls
2719 4462 Pls
2719 4258 Pls
3166 4047 Pls
3166 4325 Pls
3166 4452 Pls
3166 4390 Pls
3614 4124 Pls
3614 4560 Pls
3614 4243 Pls
3614 4005 Pls
4510 4000 Pls
4510 4192 Pls
4510 4317 Pls
4510 4324 Pls
4958 3262 Pls
4958 3973 Pls
4958 4458 Pls
4958 4376 Pls
5406 3262 Pls
5406 3973 Pls
5406 4387 Pls
5406 4480 Pls
5853 4493 Pls
5853 4192 Pls
5853 4176 Pls
5853 4221 Pls
6301 4739 Pls
6301 4083 Pls
6301 4387 Pls
6301 4687 Pls
1823 4065 Pls
1823 4072 Pls
1823 4410 Pls
1823 4388 Pls
2271 4012 Pls
2271 4231 Pls
2271 4259 Pls
2271 4353 Pls
2719 3792 Pls
2719 3308 Pls
2719 4441 Pls
2719 4162 Pls
3166 3697 Pls
3166 3839 Pls
3166 4434 Pls
3166 4312 Pls
3614 3623 Pls
3614 4273 Pls
3614 4029 Pls
3614 4017 Pls
4510 2770 Pls
4510 3864 Pls
4510 3684 Pls
4510 4635 Pls
4958 2277 Pls
4958 3754 Pls
4958 4036 Pls
4958 4324 Pls
5406 4000 Pls
5406 3973 Pls
5406 4247 Pls
5406 4532 Pls
5853 3754 Pls
5853 4411 Pls
5853 3895 Pls
5853 4480 Pls
6301 3508 Pls
6301 3864 Pls
6301 4036 Pls
6301 4221 Pls
1823 4739 Pls
1823 4169 Pls
1823 4345 Pls
1823 4309 Pls
2271 4069 Pls
2271 4054 Pls
2271 4286 Pls
2271 4302 Pls
2719 3801 Pls
2719 4411 Pls
2719 4045 Pls
2719 4338 Pls
3166 4434 Pls
3166 4505 Pls
3166 4338 Pls
3166 4381 Pls
3614 4017 Pls
3614 4165 Pls
3614 4299 Pls
3614 4408 Pls
4510 2770 Pls
4510 3754 Pls
4510 4036 Pls
4510 4480 Pls
4958 3016 Pls
4958 4192 Pls
4958 4528 Pls
4958 4221 Pls
5406 3754 Pls
5406 3317 Pls
5406 4247 Pls
5406 4428 Pls
5853 4000 Pls
5853 4301 Pls
5853 4036 Pls
5853 4480 Pls
6301 2770 Pls
6301 3973 Pls
6301 4317 Pls
6301 4117 Pls
1823 4270 Pls
1823 4107 Pls
1823 4407 Pls
1823 4650 Pls
2271 3429 Pls
2271 4117 Pls
2271 4339 Pls
2271 4391 Pls
2719 3801 Pls
2719 4184 Pls
2719 4520 Pls
2719 4576 Pls
3166 4270 Pls
3166 4170 Pls
3166 4484 Pls
3166 4096 Pls
3614 3768 Pls
3614 4588 Pls
3614 4303 Pls
3614 4502 Pls
4510 3262 Pls
4510 3973 Pls
4510 4176 Pls
4510 4324 Pls
4958 4493 Pls
4958 3754 Pls
4958 4528 Pls
4958 4273 Pls
5406 3262 Pls
5406 3864 Pls
5406 3825 Pls
5406 4428 Pls
5853 4000 Pls
5853 3973 Pls
5853 4247 Pls
5853 4532 Pls
6301 4247 Pls
6301 4192 Pls
6301 4598 Pls
6301 4532 Pls
1823 4278 Pls
1823 4517 Pls
1823 4250 Pls
1823 4338 Pls
2271 4739 Pls
2271 4423 Pls
2271 4234 Pls
2271 4395 Pls
2719 4434 Pls
2719 4090 Pls
2719 4404 Pls
2719 4382 Pls
3166 3660 Pls
3166 4358 Pls
3166 4088 Pls
3166 4394 Pls
3614 2908 Pls
3614 4116 Pls
3614 4396 Pls
3614 4097 Pls
4510 3754 Pls
4510 3754 Pls
4510 3895 Pls
4510 4169 Pls
4958 4247 Pls
4958 3864 Pls
4958 4387 Pls
4958 4169 Pls
5406 4000 Pls
5406 4083 Pls
5406 4247 Pls
5406 4324 Pls
5853 4000 Pls
5853 4411 Pls
5853 4387 Pls
5853 4635 Pls
6301 4247 Pls
6301 4192 Pls
6301 4106 Pls
6301 4584 Pls
1823 4411 Pls
1823 4371 Pls
1823 4522 Pls
1823 4319 Pls
2271 4256 Pls
2271 4423 Pls
2271 4202 Pls
2271 4370 Pls
2719 4452 Pls
2719 4663 Pls
2719 4458 Pls
2719 4562 Pls
3166 4598 Pls
3166 4024 Pls
3166 4470 Pls
3166 4384 Pls
3614 3631 Pls
3614 4216 Pls
3614 4431 Pls
3614 4387 Pls
4510 3016 Pls
4510 4411 Pls
4510 4106 Pls
4510 4169 Pls
4958 3508 Pls
4958 4411 Pls
4958 4458 Pls
4958 4480 Pls
5406 4000 Pls
5406 4192 Pls
5406 4036 Pls
5406 4532 Pls
5853 4247 Pls
5853 4301 Pls
5853 4528 Pls
5853 4117 Pls
6301 4493 Pls
6301 4520 Pls
6301 4387 Pls
6301 4376 Pls
1823 4106 Pls
1823 4030 Pls
1823 4435 Pls
1823 4467 Pls
2271 4040 Pls
2271 3981 Pls
2271 4256 Pls
2271 4498 Pls
2719 3989 Pls
2719 3874 Pls
2719 4064 Pls
2719 4476 Pls
3166 3163 Pls
3166 4118 Pls
3166 4373 Pls
3166 4647 Pls
3614 2244 Pls
3614 4023 Pls
3614 4353 Pls
3614 4218 Pls
4510 3016 Pls
4510 3645 Pls
4510 4106 Pls
4510 4428 Pls
4958 3508 Pls
4958 3645 Pls
4958 4247 Pls
4958 4221 Pls
5406 2277 Pls
5406 4301 Pls
5406 3965 Pls
5406 4273 Pls
5853 4000 Pls
5853 3754 Pls
5853 4176 Pls
5853 4221 Pls
6301 3754 Pls
6301 3754 Pls
6301 4458 Pls
6301 4480 Pls
1823 4206 Pls
1823 3800 Pls
1823 4433 Pls
1823 4649 Pls
2271 4616 Pls
2271 4194 Pls
2271 4268 Pls
2271 4440 Pls
2719 4247 Pls
2719 4133 Pls
2719 4093 Pls
2719 4355 Pls
3166 3778 Pls
3166 3897 Pls
3166 3877 Pls
3166 4282 Pls
3614 3778 Pls
3614 3709 Pls
3614 4065 Pls
3614 4122 Pls
4510 3016 Pls
4510 3207 Pls
4510 4176 Pls
4510 4273 Pls
4958 3754 Pls
4958 4301 Pls
4958 4247 Pls
4958 4480 Pls
5406 3754 Pls
5406 3864 Pls
5406 4106 Pls
5406 4428 Pls
5853 4247 Pls
5853 4301 Pls
5853 4458 Pls
5853 4480 Pls
6301 3754 Pls
6301 4083 Pls
6301 4458 Pls
6301 4376 Pls
1823 4598 Pls
1823 4505 Pls
1823 4324 Pls
1823 4382 Pls
2271 4401 Pls
2271 4116 Pls
2271 4404 Pls
2271 4530 Pls
2719 4114 Pls
2719 4441 Pls
2719 4203 Pls
2719 4510 Pls
3166 4310 Pls
3166 4386 Pls
3166 4027 Pls
3166 4412 Pls
3614 3853 Pls
3614 3944 Pls
3614 4376 Pls
3614 4363 Pls
4510 2277 Pls
4510 4083 Pls
4510 4387 Pls
4510 4584 Pls
4958 4000 Pls
4958 3973 Pls
4958 4176 Pls
4958 4169 Pls
5406 3262 Pls
5406 3973 Pls
5406 4387 Pls
5406 4428 Pls
5853 3262 Pls
5853 4411 Pls
5853 4106 Pls
5853 4376 Pls
6301 3508 Pls
6301 3973 Pls
6301 4106 Pls
6301 4480 Pls
1823 4288 Pls
1823 4340 Pls
1823 4197 Pls
1823 4491 Pls
2271 4345 Pls
2271 4588 Pls
2271 4412 Pls
2271 4262 Pls
2719 4493 Pls
2719 4089 Pls
2719 4162 Pls
2719 4398 Pls
3166 4458 Pls
3166 4194 Pls
3166 4207 Pls
3166 4606 Pls
3614 3876 Pls
3614 4287 Pls
3614 4144 Pls
3614 4651 Pls
4510 4739 Pls
4510 4301 Pls
4510 4036 Pls
4510 4273 Pls
4958 3262 Pls
4958 4192 Pls
4958 4176 Pls
4958 4376 Pls
5406 3016 Pls
5406 3864 Pls
5406 4387 Pls
5406 4480 Pls
5853 3508 Pls
5853 4083 Pls
5853 4387 Pls
5853 4273 Pls
6301 4000 Pls
6301 4083 Pls
6301 4387 Pls
6301 4532 Pls
1823 4616 Pls
1823 4252 Pls
1823 4156 Pls
1823 4244 Pls
2271 4366 Pls
2271 4267 Pls
2271 4287 Pls
2271 4390 Pls
2719 4575 Pls
2719 4422 Pls
2719 4517 Pls
2719 4576 Pls
3166 4124 Pls
3166 4435 Pls
3166 4360 Pls
3166 4317 Pls
3614 3703 Pls
3614 4210 Pls
3614 4314 Pls
3614 4412 Pls
4510 3262 Pls
4510 3973 Pls
4510 4528 Pls
4510 4169 Pls
4958 3754 Pls
4958 4301 Pls
4958 4387 Pls
4958 4324 Pls
5406 4000 Pls
5406 4083 Pls
5406 4458 Pls
5406 4324 Pls
5853 3754 Pls
5853 4301 Pls
5853 4247 Pls
5853 4273 Pls
6301 3016 Pls
6301 4411 Pls
6301 4387 Pls
6301 4376 Pls
1823 4211 Pls
1823 3798 Pls
1823 4291 Pls
1823 4417 Pls
2271 3768 Pls
2271 4235 Pls
2271 4172 Pls
2271 4421 Pls
2719 4288 Pls
2719 4290 Pls
2719 4188 Pls
2719 4274 Pls
3166 2891 Pls
3166 4372 Pls
3166 3880 Pls
3166 4323 Pls
3614 3295 Pls
3614 4461 Pls
3614 4169 Pls
3614 4448 Pls
4510 3262 Pls
4510 3426 Pls
4510 4106 Pls
4510 4428 Pls
4958 2770 Pls
4958 4192 Pls
4958 4106 Pls
4958 4273 Pls
5406 2770 Pls
5406 4192 Pls
5406 4247 Pls
5406 4324 Pls
5853 4000 Pls
5853 3864 Pls
5853 3825 Pls
5853 4376 Pls
6301 3262 Pls
6301 4083 Pls
6301 4036 Pls
6301 4117 Pls
1823 4081 Pls
1823 4245 Pls
1823 4248 Pls
1823 4480 Pls
2271 4296 Pls
2271 4478 Pls
2271 4327 Pls
2271 4307 Pls
2719 3842 Pls
2719 4117 Pls
2719 4261 Pls
2719 4349 Pls
3166 4153 Pls
3166 4135 Pls
3166 4263 Pls
3166 4274 Pls
3614 4050 Pls
3614 4166 Pls
3614 4052 Pls
3614 4549 Pls
4510 3508 Pls
4510 4411 Pls
4510 4176 Pls
4510 4376 Pls
4958 4493 Pls
4958 3754 Pls
4958 4036 Pls
4958 4221 Pls
5406 3508 Pls
5406 4083 Pls
5406 4387 Pls
5406 4169 Pls
5853 4493 Pls
5853 4411 Pls
5853 4317 Pls
5853 4480 Pls
6301 4000 Pls
6301 4192 Pls
6301 4106 Pls
6301 4428 Pls
1823 4493 Pls
1823 4483 Pls
1823 4356 Pls
1823 4609 Pls
2271 3748 Pls
2271 4089 Pls
2271 4383 Pls
2271 4513 Pls
2719 4465 Pls
2719 4429 Pls
2719 4465 Pls
2719 4479 Pls
3166 4255 Pls
3166 4253 Pls
3166 3964 Pls
3166 4308 Pls
3614 3679 Pls
3614 4657 Pls
3614 4220 Pls
3614 4415 Pls
4510 3262 Pls
4510 4301 Pls
4510 4106 Pls
4510 4065 Pls
4958 3754 Pls
4958 3317 Pls
4958 4247 Pls
4958 4324 Pls
5406 3754 Pls
5406 3864 Pls
5406 4247 Pls
5406 4273 Pls
5853 3262 Pls
5853 4192 Pls
5853 4598 Pls
5853 4221 Pls
6301 4493 Pls
6301 4192 Pls
6301 4176 Pls
6301 4376 Pls
1823 4489 Pls
1823 4605 Pls
1823 4324 Pls
1823 4301 Pls
2271 4506 Pls
2271 4532 Pls
2271 4294 Pls
2271 4396 Pls
2719 4598 Pls
2719 4257 Pls
2719 4239 Pls
2719 4477 Pls
3166 3190 Pls
3166 4049 Pls
3166 4209 Pls
3166 4514 Pls
3614 3614 Pls
3614 3599 Pls
3614 4269 Pls
3614 4218 Pls
4510 4000 Pls
4510 4192 Pls
4510 4247 Pls
4510 4480 Pls
4958 4000 Pls
4958 3754 Pls
4958 4247 Pls
4958 4324 Pls
5406 4247 Pls
5406 4411 Pls
5406 4598 Pls
5406 4428 Pls
5853 4247 Pls
5853 3973 Pls
5853 4387 Pls
5853 4221 Pls
6301 3508 Pls
6301 4192 Pls
6301 4317 Pls
6301 4376 Pls
1823 4301 Pls
1823 4294 Pls
1823 4250 Pls
1823 4351 Pls
2271 4243 Pls
2271 4260 Pls
2271 4348 Pls
2271 4309 Pls
2719 4616 Pls
2719 4168 Pls
2719 4568 Pls
2719 4433 Pls
3166 4458 Pls
3166 4492 Pls
3166 4215 Pls
3166 4462 Pls
3614 3989 Pls
3614 4061 Pls
3614 4225 Pls
3614 4507 Pls
4510 3754 Pls
4510 4083 Pls
4510 3754 Pls
4510 4428 Pls
4958 4247 Pls
4958 3973 Pls
4958 4317 Pls
4958 4376 Pls
5406 4000 Pls
5406 4301 Pls
5406 4247 Pls
5406 4221 Pls
5853 4000 Pls
5853 4411 Pls
5853 4317 Pls
5853 4480 Pls
6301 4247 Pls
6301 4301 Pls
6301 4036 Pls
6301 4635 Pls
1823 4170 Pls
1823 4413 Pls
1823 4098 Pls
1823 4374 Pls
2271 4017 Pls
2271 4007 Pls
2271 4371 Pls
2271 4609 Pls
2719 3262 Pls
2719 3891 Pls
2719 4373 Pls
2719 4506 Pls
3166 4237 Pls
3166 3896 Pls
3166 4500 Pls
3166 4272 Pls
3614 3656 Pls
3614 3459 Pls
3614 4353 Pls
3614 4448 Pls
4510 2770 Pls
4510 3645 Pls
4510 4106 Pls
4510 4376 Pls
4958 3754 Pls
4958 3317 Pls
4958 3965 Pls
4958 4428 Pls
5406 3262 Pls
5406 3973 Pls
5406 4176 Pls
5406 4324 Pls
5853 3016 Pls
5853 3864 Pls
5853 4387 Pls
5853 3962 Pls
6301 3508 Pls
6301 4520 Pls
6301 3965 Pls
6301 4324 Pls
1823 4598 Pls
1823 4191 Pls
1823 4352 Pls
1823 4250 Pls
2271 4294 Pls
2271 4244 Pls
2271 4445 Pls
2271 4519 Pls
2719 3373 Pls
2719 4040 Pls
2719 4677 Pls
2719 4061 Pls
3166 4575 Pls
3166 3970 Pls
3166 4187 Pls
3166 4333 Pls
3614 3712 Pls
3614 4209 Pls
3614 4129 Pls
3614 4155 Pls
4510 3508 Pls
4510 4083 Pls
4510 4458 Pls
4510 4273 Pls
4958 3262 Pls
4958 3645 Pls
4958 4176 Pls
4958 4273 Pls
5406 4000 Pls
5406 3754 Pls
5406 4458 Pls
5406 4273 Pls
5853 3262 Pls
5853 4192 Pls
5853 4106 Pls
5853 4428 Pls
6301 4000 Pls
6301 4411 Pls
6301 3965 Pls
6301 4532 Pls
1823 4097 Pls
1823 4063 Pls
1823 4194 Pls
1823 4649 Pls
2271 4598 Pls
2271 4505 Pls
2271 4387 Pls
2271 4608 Pls
2719 4006 Pls
2719 4200 Pls
2719 4219 Pls
2719 4390 Pls
3166 4465 Pls
3166 4320 Pls
3166 4523 Pls
3166 4349 Pls
3614 3965 Pls
3614 3338 Pls
3614 4156 Pls
3614 4338 Pls
4510 1785 Pls
4510 4083 Pls
4510 3965 Pls
4510 4480 Pls
4958 3016 Pls
4958 4192 Pls
4958 4176 Pls
4958 4428 Pls
5406 4493 Pls
5406 4083 Pls
5406 4317 Pls
5406 4635 Pls
5853 4493 Pls
5853 4192 Pls
5853 4247 Pls
5853 4221 Pls
6301 4000 Pls
6301 4083 Pls
6301 3895 Pls
6301 4376 Pls
1823 4102 Pls
1823 3862 Pls
1823 4360 Pls
1823 4532 Pls
2271 4088 Pls
2271 3887 Pls
2271 4086 Pls
2271 4393 Pls
2719 4170 Pls
2719 3906 Pls
2719 4242 Pls
2719 3879 Pls
3166 4270 Pls
3166 4207 Pls
3166 4216 Pls
3166 4425 Pls
3614 4194 Pls
3614 3833 Pls
3614 4380 Pls
3614 4291 Pls
4510 4493 Pls
4510 3645 Pls
4510 4247 Pls
4510 4428 Pls
4958 3754 Pls
4958 3754 Pls
4958 4106 Pls
4958 4324 Pls
5406 4493 Pls
5406 4411 Pls
5406 4036 Pls
5406 4480 Pls
5853 3754 Pls
5853 4192 Pls
5853 4458 Pls
5853 4221 Pls
6301 3754 Pls
6301 3864 Pls
6301 4176 Pls
6301 4117 Pls
1823 4458 Pls
1823 4598 Pls
1823 4357 Pls
1823 4493 Pls
2271 3918 Pls
2271 4257 Pls
2271 4025 Pls
2271 4343 Pls
2719 3414 Pls
2719 4204 Pls
2719 4151 Pls
2719 4122 Pls
3166 4598 Pls
3166 4018 Pls
3166 4323 Pls
3166 4424 Pls
3614 3712 Pls
3614 4372 Pls
3614 4455 Pls
3614 4562 Pls
4510 3754 Pls
4510 3864 Pls
4510 3895 Pls
4510 4324 Pls
4958 4493 Pls
4958 3754 Pls
4958 4176 Pls
4958 4324 Pls
5406 4247 Pls
5406 4083 Pls
5406 4387 Pls
5406 4324 Pls
5853 4000 Pls
5853 3973 Pls
5853 4247 Pls
5853 4428 Pls
6301 4000 Pls
6301 4301 Pls
6301 4387 Pls
6301 4324 Pls
1823 4419 Pls
1823 4387 Pls
1823 4216 Pls
1823 4282 Pls
2271 4058 Pls
2271 4351 Pls
2271 4445 Pls
2271 4425 Pls
2719 3706 Pls
2719 4579 Pls
2719 4375 Pls
2719 4177 Pls
3166 4345 Pls
3166 3744 Pls
3166 4554 Pls
3166 4406 Pls
3614 4214 Pls
3614 3808 Pls
3614 4349 Pls
3614 4308 Pls
4510 3508 Pls
4510 3864 Pls
4510 4176 Pls
4510 4428 Pls
4958 3754 Pls
4958 4083 Pls
4958 4458 Pls
4958 4532 Pls
5406 3262 Pls
5406 4411 Pls
5406 3754 Pls
5406 4324 Pls
5853 3754 Pls
5853 4192 Pls
5853 4247 Pls
5853 4169 Pls
6301 4000 Pls
6301 3645 Pls
6301 4106 Pls
6301 4013 Pls
1823 4616 Pls
1823 3592 Pls
1823 4524 Pls
1823 4243 Pls
2271 3684 Pls
2271 4141 Pls
2271 4234 Pls
2271 4518 Pls
2719 4616 Pls
2719 4272 Pls
2719 4292 Pls
2719 4385 Pls
3166 3712 Pls
3166 3797 Pls
3166 4230 Pls
3166 4410 Pls
3614 3942 Pls
3614 3984 Pls
3614 3834 Pls
3614 4325 Pls
4510 3016 Pls
4510 3645 Pls
4510 4106 Pls
4510 4273 Pls
4958 4247 Pls
4958 4083 Pls
4958 3754 Pls
4958 4169 Pls
5406 3262 Pls
5406 3973 Pls
5406 4176 Pls
5406 4376 Pls
5853 4000 Pls
5853 3973 Pls
5853 4247 Pls
5853 4480 Pls
6301 3016 Pls
6301 4083 Pls
6301 4036 Pls
6301 4428 Pls
1823 4489 Pls
1823 4357 Pls
1823 4250 Pls
1823 4248 Pls
2271 3760 Pls
2271 4433 Pls
2271 4304 Pls
2271 4128 Pls
2719 4575 Pls
2719 4109 Pls
2719 3896 Pls
2719 4390 Pls
3166 3637 Pls
3166 4217 Pls
3166 4224 Pls
3166 4464 Pls
3614 3848 Pls
3614 3939 Pls
3614 4383 Pls
3614 4280 Pls
4510 4000 Pls
4510 4192 Pls
4510 4528 Pls
4510 4428 Pls
4958 4000 Pls
4958 4301 Pls
4958 4247 Pls
4958 4480 Pls
5406 3262 Pls
5406 4520 Pls
5406 4176 Pls
5406 4169 Pls
5853 4247 Pls
5853 4301 Pls
5853 4247 Pls
5853 4324 Pls
6301 4247 Pls
6301 3864 Pls
6301 4669 Pls
6301 4480 Pls
1823 4188 Pls
1823 4446 Pls
1823 4340 Pls
1823 4349 Pls
2271 4630 Pls
2271 4429 Pls
2271 4496 Pls
2271 4299 Pls
2719 4598 Pls
2719 4138 Pls
2719 4520 Pls
2719 4391 Pls
3166 4411 Pls
3166 3902 Pls
3166 4352 Pls
3166 4284 Pls
3614 3425 Pls
3614 4236 Pls
3614 4345 Pls
3614 4462 Pls
4510 4000 Pls
4510 3864 Pls
4510 3965 Pls
4510 4065 Pls
4958 3262 Pls
4958 4301 Pls
4958 4247 Pls
4958 4273 Pls
5406 4493 Pls
5406 3973 Pls
5406 3965 Pls
5406 4324 Pls
5853 3262 Pls
5853 4192 Pls
5853 4247 Pls
5853 4376 Pls
6301 4247 Pls
6301 3973 Pls
6301 4458 Pls
6301 4376 Pls
1823 4255 Pls
1823 4317 Pls
1823 3972 Pls
1823 4443 Pls
2271 4630 Pls
2271 4170 Pls
2271 4185 Pls
2271 4355 Pls
2719 4006 Pls
2719 4663 Pls
2719 4020 Pls
2719 4339 Pls
3166 4352 Pls
3166 3930 Pls
3166 4463 Pls
3166 4360 Pls
3614 3827 Pls
3614 4036 Pls
3614 4333 Pls
3614 4302 Pls
4510 4247 Pls
4510 3973 Pls
4510 4106 Pls
4510 4324 Pls
4958 4247 Pls
4958 3864 Pls
4958 4317 Pls
4958 4117 Pls
5406 4247 Pls
5406 4083 Pls
5406 4317 Pls
5406 4376 Pls
5853 3754 Pls
5853 4192 Pls
5853 4387 Pls
5853 4428 Pls
6301 3508 Pls
6301 4411 Pls
6301 4387 Pls
6301 4428 Pls
1823 4458 Pls
1823 4217 Pls
1823 4571 Pls
1823 4301 Pls
2271 3481 Pls
2271 4372 Pls
2271 4090 Pls
2271 4417 Pls
2719 3464 Pls
2719 4094 Pls
2719 4376 Pls
2719 4603 Pls
3166 2965 Pls
3166 4202 Pls
3166 4057 Pls
3166 4374 Pls
3614 3787 Pls
3614 4094 Pls
3614 4160 Pls
3614 4401 Pls
4510 3754 Pls
4510 4411 Pls
4510 4317 Pls
4510 4324 Pls
4958 3262 Pls
4958 4192 Pls
4958 4387 Pls
4958 4273 Pls
5406 3754 Pls
5406 4520 Pls
5406 4247 Pls
5406 4376 Pls
5853 3262 Pls
5853 4083 Pls
5853 4106 Pls
5853 4428 Pls
6301 4000 Pls
6301 3645 Pls
6301 4317 Pls
6301 4169 Pls
1823 3983 Pls
1823 4161 Pls
1823 4308 Pls
1823 4355 Pls
2271 4575 Pls
2271 3975 Pls
2271 4052 Pls
2271 4516 Pls
2719 4317 Pls
2719 4072 Pls
2719 4336 Pls
2719 4421 Pls
3166 4475 Pls
3166 3984 Pls
3166 4152 Pls
3166 4556 Pls
3614 3426 Pls
3614 3804 Pls
3614 4369 Pls
3614 4118 Pls
4510 3262 Pls
4510 4301 Pls
4510 4317 Pls
4510 4480 Pls
4958 3508 Pls
4958 3973 Pls
4958 4458 Pls
4958 4169 Pls
5406 4000 Pls
5406 4301 Pls
5406 4106 Pls
5406 4584 Pls
5853 3754 Pls
5853 4411 Pls
5853 4387 Pls
5853 4273 Pls
6301 4493 Pls
6301 4192 Pls
6301 4247 Pls
6301 4480 Pls
1823 4739 Pls
1823 4220 Pls
1823 4119 Pls
1823 4522 Pls
2271 4401 Pls
2271 4267 Pls
2271 4268 Pls
2271 4109 Pls
2719 4106 Pls
2719 4169 Pls
2719 4263 Pls
2719 4255 Pls
3166 3336 Pls
3166 4238 Pls
3166 3825 Pls
3166 4472 Pls
3614 4270 Pls
3614 4184 Pls
3614 4242 Pls
3614 4423 Pls
4510 3754 Pls
4510 3754 Pls
4510 3965 Pls
4510 4376 Pls
4958 4000 Pls
4958 3426 Pls
4958 4036 Pls
4958 4169 Pls
5406 4000 Pls
5406 4083 Pls
5406 4106 Pls
5406 4324 Pls
5853 4000 Pls
5853 3645 Pls
5853 4036 Pls
5853 4376 Pls
6301 4247 Pls
6301 4192 Pls
6301 4106 Pls
6301 4428 Pls
1823 4616 Pls
1823 4526 Pls
1823 4461 Pls
1823 4492 Pls
2271 4278 Pls
2271 4200 Pls
2271 4471 Pls
2271 4047 Pls
2719 3993 Pls
2719 3742 Pls
2719 4056 Pls
2719 4427 Pls
3166 4506 Pls
3166 4000 Pls
3166 4407 Pls
3166 4355 Pls
3614 3876 Pls
3614 4161 Pls
3614 4278 Pls
3614 4418 Pls
4510 4247 Pls
4510 4083 Pls
4510 4247 Pls
4510 4273 Pls
4958 4000 Pls
4958 4411 Pls
4958 4528 Pls
4958 4169 Pls
5406 4247 Pls
5406 4192 Pls
5406 4458 Pls
5406 4273 Pls
5853 3262 Pls
5853 4301 Pls
5853 4106 Pls
5853 4376 Pls
6301 3754 Pls
6301 4411 Pls
6301 4387 Pls
6301 4376 Pls
1823 4739 Pls
1823 4286 Pls
1823 4425 Pls
1823 4436 Pls
2271 4222 Pls
2271 4281 Pls
2271 4160 Pls
2271 4483 Pls
2719 4542 Pls
2719 4234 Pls
2719 4188 Pls
2719 4581 Pls
3166 3848 Pls
3166 4244 Pls
3166 4519 Pls
3166 4522 Pls
3614 4106 Pls
3614 4007 Pls
3614 4147 Pls
3614 4435 Pls
4510 4247 Pls
4510 3973 Pls
4510 4528 Pls
4510 4324 Pls
4958 4000 Pls
4958 4301 Pls
4958 4247 Pls
4958 4169 Pls
5406 3754 Pls
5406 4083 Pls
5406 4317 Pls
5406 4480 Pls
5853 4000 Pls
5853 4520 Pls
5853 4176 Pls
5853 4428 Pls
6301 4739 Pls
6301 4411 Pls
6301 4387 Pls
6301 4532 Pls
1823 3631 Pls
1823 4223 Pls
1823 4192 Pls
1823 4321 Pls
2271 4598 Pls
2271 3929 Pls
2271 4517 Pls
2271 4372 Pls
2719 3942 Pls
2719 4223 Pls
2719 4510 Pls
2719 4408 Pls
3166 3900 Pls
3166 3842 Pls
3166 4254 Pls
3166 4162 Pls
3614 3065 Pls
3614 3808 Pls
3614 4169 Pls
3614 4153 Pls
4510 2277 Pls
4510 3426 Pls
4510 4036 Pls
4510 4324 Pls
4958 4000 Pls
4958 4083 Pls
4958 3895 Pls
4958 4065 Pls
5406 3508 Pls
5406 3317 Pls
5406 3895 Pls
5406 4324 Pls
5853 3262 Pls
5853 4301 Pls
5853 4387 Pls
5853 4273 Pls
6301 3016 Pls
6301 3973 Pls
6301 4528 Pls
6301 4117 Pls
1823 4317 Pls
1823 4388 Pls
1823 4511 Pls
1823 4485 Pls
2271 3768 Pls
2271 4237 Pls
2271 4087 Pls
2271 4476 Pls
2719 4434 Pls
2719 4205 Pls
2719 4326 Pls
2719 4233 Pls
3166 4270 Pls
3166 4278 Pls
3166 4122 Pls
3166 4389 Pls
3614 3637 Pls
3614 4282 Pls
3614 4180 Pls
3614 4178 Pls
4510 2770 Pls
4510 3426 Pls
4510 4247 Pls
4510 4376 Pls
4958 3262 Pls
4958 3535 Pls
4958 4176 Pls
4958 3962 Pls
5406 3262 Pls
5406 4192 Pls
5406 4176 Pls
5406 4376 Pls
5853 4000 Pls
5853 3864 Pls
5853 3895 Pls
5853 4169 Pls
6301 4247 Pls
6301 4083 Pls
6301 4387 Pls
6301 4428 Pls
1823 4475 Pls
1823 4196 Pls
1823 4415 Pls
1823 4405 Pls
2271 4739 Pls
2271 4263 Pls
2271 4153 Pls
2271 4610 Pls
2719 4036 Pls
2719 4441 Pls
2719 4286 Pls
2719 4069 Pls
3166 4575 Pls
3166 4189 Pls
3166 4283 Pls
3166 4332 Pls
3614 4064 Pls
3614 4320 Pls
3614 4188 Pls
3614 4151 Pls
4510 3262 Pls
4510 4301 Pls
4510 4036 Pls
4510 4117 Pls
4958 4000 Pls
4958 4192 Pls
4958 4036 Pls
4958 4065 Pls
5406 4247 Pls
5406 3864 Pls
5406 4387 Pls
5406 4324 Pls
5853 3262 Pls
5853 3317 Pls
5853 4036 Pls
5853 4324 Pls
6301 3508 Pls
6301 4192 Pls
6301 4458 Pls
6301 4065 Pls
1823 4269 Pls
1823 4039 Pls
1823 4348 Pls
1823 4571 Pls
2271 4088 Pls
2271 4508 Pls
2271 4164 Pls
2271 4233 Pls
2719 4296 Pls
2719 4386 Pls
2719 4419 Pls
2719 4352 Pls
3166 4493 Pls
3166 4099 Pls
3166 4687 Pls
3166 4393 Pls
3614 4255 Pls
3614 4339 Pls
3614 4132 Pls
3614 4605 Pls
4510 3754 Pls
4510 3754 Pls
4510 4317 Pls
4510 4376 Pls
4958 4247 Pls
4958 3973 Pls
4958 4247 Pls
4958 4532 Pls
5406 3754 Pls
5406 3864 Pls
5406 4387 Pls
5406 4428 Pls
5853 4247 Pls
5853 4301 Pls
5853 4176 Pls
5853 4376 Pls
6301 4493 Pls
6301 4520 Pls
6301 4458 Pls
6301 4273 Pls
1823 4348 Pls
1823 4358 Pls
1823 4358 Pls
1823 4476 Pls
2271 4065 Pls
2271 4611 Pls
2271 4519 Pls
2271 4401 Pls
2719 4370 Pls
2719 3781 Pls
2719 4240 Pls
2719 4358 Pls
3166 4214 Pls
3166 4086 Pls
3166 4557 Pls
3166 4336 Pls
3614 4050 Pls
3614 3699 Pls
3614 4159 Pls
3614 4390 Pls
4510 3754 Pls
4510 3864 Pls
4510 4528 Pls
4510 4065 Pls
4958 4493 Pls
4958 4192 Pls
4958 4387 Pls
4958 4065 Pls
5406 4247 Pls
5406 3864 Pls
5406 3825 Pls
5406 4480 Pls
5853 4493 Pls
5853 4301 Pls
5853 3965 Pls
5853 4428 Pls
6301 3016 Pls
6301 4630 Pls
6301 4669 Pls
6301 4324 Pls
1823 4147 Pls
1823 4026 Pls
1823 4275 Pls
1823 4331 Pls
2271 4493 Pls
2271 4003 Pls
2271 4433 Pls
2271 4557 Pls
2719 3876 Pls
2719 4410 Pls
2719 4229 Pls
2719 4502 Pls
3166 3712 Pls
3166 3595 Pls
3166 4199 Pls
3166 4314 Pls
3614 3787 Pls
3614 3718 Pls
3614 3918 Pls
3614 4066 Pls
4510 2277 Pls
4510 4301 Pls
4510 4598 Pls
4510 4273 Pls
4958 3016 Pls
4958 3864 Pls
4958 4176 Pls
4958 4324 Pls
5406 3262 Pls
5406 4411 Pls
5406 4387 Pls
5406 4532 Pls
5853 3016 Pls
5853 3645 Pls
5853 4317 Pls
5853 4324 Pls
6301 3754 Pls
6301 3754 Pls
6301 4317 Pls
6301 4221 Pls
1823 4270 Pls
1823 4441 Pls
1823 4216 Pls
1823 4258 Pls
2271 4247 Pls
2271 4187 Pls
2271 4052 Pls
2271 4361 Pls
2719 3660 Pls
2719 4084 Pls
2719 4175 Pls
2719 4218 Pls
3166 4294 Pls
3166 4321 Pls
3166 4322 Pls
3166 4330 Pls
3614 3154 Pls
3614 3874 Pls
3614 4296 Pls
3614 4124 Pls
4510 3754 Pls
4510 3317 Pls
4510 4458 Pls
4510 4376 Pls
4958 4000 Pls
4958 4301 Pls
4958 4387 Pls
4958 4324 Pls
5406 4247 Pls
5406 4083 Pls
5406 4106 Pls
5406 4428 Pls
5853 3754 Pls
5853 4301 Pls
5853 3684 Pls
5853 4221 Pls
6301 3262 Pls
6301 4411 Pls
6301 4036 Pls
6301 4221 Pls
1823 4616 Pls
1823 4274 Pls
1823 4283 Pls
1823 4432 Pls
2271 4352 Pls
2271 4279 Pls
2271 4288 Pls
2271 4558 Pls
2719 4335 Pls
2719 4035 Pls
2719 4207 Pls
2719 4152 Pls
3166 3795 Pls
3166 3977 Pls
3166 4233 Pls
3166 4288 Pls
3614 3679 Pls
3614 3898 Pls
3614 4318 Pls
3614 4122 Pls
4510 3016 Pls
4510 4301 Pls
4510 4247 Pls
4510 4221 Pls
4958 3508 Pls
4958 3754 Pls
4958 4458 Pls
4958 4273 Pls
5406 3508 Pls
5406 3973 Pls
5406 3965 Pls
5406 3962 Pls
5853 4247 Pls
5853 3207 Pls
5853 3965 Pls
5853 4273 Pls
6301 4000 Pls
6301 4520 Pls
6301 4387 Pls
6301 4376 Pls
1823 3759 Pls
1823 4221 Pls
1823 4480 Pls
1823 4386 Pls
2271 4194 Pls
2271 4308 Pls
2271 4253 Pls
2271 4341 Pls
2719 4294 Pls
2719 4286 Pls
2719 4290 Pls
2719 4294 Pls
3166 4206 Pls
3166 4268 Pls
3166 4247 Pls
3166 4509 Pls
3614 4097 Pls
3614 4125 Pls
3614 4057 Pls
3614 4293 Pls
4510 3262 Pls
4510 4192 Pls
4510 4176 Pls
4510 4221 Pls
4958 4000 Pls
4958 3864 Pls
4958 3895 Pls
4958 4376 Pls
5406 3262 Pls
5406 3645 Pls
5406 4036 Pls
5406 4480 Pls
5853 3754 Pls
5853 4192 Pls
5853 4669 Pls
5853 4324 Pls
6301 3754 Pls
6301 4083 Pls
6301 4247 Pls
6301 4480 Pls
1823 4401 Pls
1823 4234 Pls
1823 4357 Pls
1823 4459 Pls
2271 4184 Pls
2271 4512 Pls
2271 4372 Pls
2271 4474 Pls
2719 4493 Pls
2719 4186 Pls
2719 4354 Pls
2719 4523 Pls
3166 3923 Pls
3166 4431 Pls
3166 4450 Pls
3166 4513 Pls
3614 3926 Pls
3614 3874 Pls
3614 4328 Pls
3614 4137 Pls
4510 4000 Pls
4510 3973 Pls
4510 4247 Pls
4510 4221 Pls
4958 4247 Pls
4958 4192 Pls
4958 3965 Pls
4958 4273 Pls
5406 4000 Pls
5406 4411 Pls
5406 4387 Pls
5406 4532 Pls
5853 4739 Pls
5853 4083 Pls
5853 4528 Pls
5853 4221 Pls
6301 4247 Pls
6301 3864 Pls
6301 4528 Pls
6301 4376 Pls
1823 4270 Pls
1823 3953 Pls
1823 4329 Pls
1823 4113 Pls
2271 3224 Pls
2271 3867 Pls
2271 4496 Pls
2271 4515 Pls
2719 4434 Pls
2719 3661 Pls
2719 4308 Pls
2719 4459 Pls
3166 3614 Pls
3166 3896 Pls
3166 3879 Pls
3166 4455 Pls
3614 3820 Pls
3614 3495 Pls
3614 4107 Pls
3614 4354 Pls
4510 2031 Pls
4510 4083 Pls
4510 3754 Pls
4510 3910 Pls
4958 3508 Pls
4958 4083 Pls
4958 4317 Pls
4958 4117 Pls
5406 4000 Pls
5406 3317 Pls
5406 4387 Pls
5406 4428 Pls
5853 3262 Pls
5853 3973 Pls
5853 3825 Pls
5853 4169 Pls
6301 3508 Pls
6301 3317 Pls
6301 4247 Pls
6301 4480 Pls
1823 4270 Pls
1823 4598 Pls
1823 4388 Pls
1823 4522 Pls
2271 4229 Pls
2271 4244 Pls
2271 4175 Pls
2271 4284 Pls
2719 3703 Pls
2719 3978 Pls
2719 4458 Pls
2719 4217 Pls
3166 4311 Pls
3166 4060 Pls
3166 4396 Pls
3166 4425 Pls
3614 3459 Pls
3614 4485 Pls
3614 4381 Pls
3614 4354 Pls
4510 3508 Pls
4510 3754 Pls
4510 4247 Pls
4510 4273 Pls
4958 3754 Pls
4958 3645 Pls
4958 4036 Pls
4958 4376 Pls
5406 3016 Pls
5406 3864 Pls
5406 3895 Pls
5406 4169 Pls
5853 4493 Pls
5853 4192 Pls
5853 4247 Pls
5853 4480 Pls
6301 4247 Pls
6301 4083 Pls
6301 4176 Pls
6301 4221 Pls
1823 4329 Pls
1823 4427 Pls
1823 4282 Pls
1823 4347 Pls
2271 4067 Pls
2271 4140 Pls
2271 4259 Pls
2271 4558 Pls
2719 4211 Pls
2719 4415 Pls
2719 4109 Pls
2719 4276 Pls
3166 4352 Pls
3166 4270 Pls
3166 4178 Pls
3166 4349 Pls
3614 4181 Pls
3614 4363 Pls
3614 4383 Pls
3614 4457 Pls
4510 3262 Pls
4510 4083 Pls
4510 4317 Pls
4510 4273 Pls
4958 4000 Pls
4958 3973 Pls
4958 4317 Pls
4958 4221 Pls
5406 4739 Pls
5406 4192 Pls
5406 4036 Pls
5406 4324 Pls
5853 4247 Pls
5853 4301 Pls
5853 4387 Pls
5853 4376 Pls
6301 4493 Pls
6301 4301 Pls
6301 4458 Pls
6301 4169 Pls
1823 4506 Pls
1823 4369 Pls
1823 4355 Pls
1823 4480 Pls
2271 4493 Pls
2271 4447 Pls
2271 4243 Pls
2271 4396 Pls
2719 3914 Pls
2719 4040 Pls
2719 4332 Pls
2719 4244 Pls
3166 4598 Pls
3166 4431 Pls
3166 4205 Pls
3166 4390 Pls
3614 3983 Pls
3614 4490 Pls
3614 4072 Pls
3614 4374 Pls
4510 3754 Pls
4510 3535 Pls
4510 4247 Pls
4510 4221 Pls
4958 4000 Pls
4958 3864 Pls
4958 4387 Pls
4958 4532 Pls
5406 3508 Pls
5406 4301 Pls
5406 3754 Pls
5406 4480 Pls
5853 4000 Pls
5853 4083 Pls
5853 4528 Pls
5853 4324 Pls
6301 4493 Pls
6301 4192 Pls
6301 4458 Pls
6301 4480 Pls
1823 4739 Pls
1823 4199 Pls
1823 4229 Pls
1823 4349 Pls
2271 4084 Pls
2271 4168 Pls
2271 4007 Pls
2271 4279 Pls
2719 4211 Pls
2719 4182 Pls
2719 4465 Pls
2719 4358 Pls
3166 4352 Pls
3166 4064 Pls
3166 4247 Pls
3166 4399 Pls
3614 4598 Pls
3614 3675 Pls
3614 4336 Pls
3614 4421 Pls
4510 4000 Pls
4510 4083 Pls
4510 4247 Pls
4510 4169 Pls
4958 4739 Pls
4958 4192 Pls
4958 4247 Pls
4958 4376 Pls
5406 4493 Pls
5406 3864 Pls
5406 4528 Pls
5406 4169 Pls
5853 3754 Pls
5853 4083 Pls
5853 3825 Pls
5853 4584 Pls
6301 4739 Pls
6301 4083 Pls
6301 4387 Pls
6301 4169 Pls
1823 4335 Pls
1823 3902 Pls
1823 4234 Pls
1823 4426 Pls
2271 4261 Pls
2271 4060 Pls
2271 3995 Pls
2271 4560 Pls
2719 4311 Pls
2719 4228 Pls
2719 4076 Pls
2719 4274 Pls
3166 3853 Pls
3166 3251 Pls
3166 4037 Pls
3166 4462 Pls
3614 3262 Pls
3614 3889 Pls
3614 4243 Pls
3614 4495 Pls
4510 3262 Pls
4510 3645 Pls
4510 4247 Pls
4510 3910 Pls
4958 3262 Pls
4958 4520 Pls
4958 4387 Pls
4958 4324 Pls
5406 4000 Pls
5406 3317 Pls
5406 4036 Pls
5406 4324 Pls
5853 3508 Pls
5853 4520 Pls
5853 4036 Pls
5853 4169 Pls
6301 4000 Pls
6301 4411 Pls
6301 4317 Pls
6301 4169 Pls
1823 4147 Pls
1823 4499 Pls
1823 4049 Pls
1823 4132 Pls
2271 4493 Pls
2271 4329 Pls
2271 4441 Pls
2271 4340 Pls
2719 4294 Pls
2719 4099 Pls
2719 4155 Pls
2719 4508 Pls
3166 4170 Pls
3166 4142 Pls
3166 4221 Pls
3166 4408 Pls
3614 3037 Pls
3614 4193 Pls
3614 3883 Pls
3614 4124 Pls
4510 3016 Pls
4510 3645 Pls
4510 4387 Pls
4510 4013 Pls
4958 3016 Pls
4958 3754 Pls
4958 3965 Pls
4958 4169 Pls
5406 3262 Pls
5406 3317 Pls
5406 4176 Pls
5406 4324 Pls
5853 3754 Pls
5853 4192 Pls
5853 4317 Pls
5853 4169 Pls
6301 3508 Pls
6301 4192 Pls
6301 3965 Pls
6301 4324 Pls
1823 4352 Pls
1823 4135 Pls
1823 4480 Pls
1823 4272 Pls
2271 4024 Pls
2271 4324 Pls
2271 4441 Pls
2271 4203 Pls
2719 4311 Pls
2719 4351 Pls
2719 4453 Pls
2719 4285 Pls
3166 4616 Pls
3166 4122 Pls
3166 4268 Pls
3166 4333 Pls
3614 3895 Pls
3614 4189 Pls
3614 4081 Pls
3614 4082 Pls
4510 4493 Pls
4510 3864 Pls
4510 4247 Pls
4510 4376 Pls
4958 4000 Pls
4958 4192 Pls
4958 3684 Pls
4958 4480 Pls
5406 3754 Pls
5406 3754 Pls
5406 4036 Pls
5406 4324 Pls
5853 2770 Pls
5853 4192 Pls
5853 4387 Pls
5853 4376 Pls
6301 4000 Pls
6301 3973 Pls
6301 4176 Pls
6301 4273 Pls
1823 4153 Pls
1823 4318 Pls
1823 4416 Pls
1823 4560 Pls
2271 4598 Pls
2271 3914 Pls
2271 4166 Pls
2271 4484 Pls
2719 4452 Pls
2719 4269 Pls
2719 4393 Pls
2719 4205 Pls
3166 3917 Pls
3166 4435 Pls
3166 4290 Pls
3166 4171 Pls
3614 4099 Pls
3614 4381 Pls
3614 4122 Pls
3614 4420 Pls
4510 3508 Pls
4510 3754 Pls
4510 3895 Pls
4510 4221 Pls
4958 4000 Pls
4958 4083 Pls
4958 4247 Pls
4958 4169 Pls
5406 4000 Pls
5406 4520 Pls
5406 4317 Pls
5406 4324 Pls
5853 4493 Pls
5853 3864 Pls
5853 4317 Pls
5853 4428 Pls
6301 4000 Pls
6301 4630 Pls
6301 4458 Pls
6301 4532 Pls
1823 4211 Pls
1823 4259 Pls
1823 4339 Pls
1823 4292 Pls
2271 4124 Pls
2271 4328 Pls
2271 4329 Pls
2271 4368 Pls
2719 4739 Pls
2719 4225 Pls
2719 4461 Pls
2719 4205 Pls
3166 4598 Pls
3166 4349 Pls
3166 4244 Pls
3166 4398 Pls
3614 4040 Pls
3614 3862 Pls
3614 4265 Pls
3614 4242 Pls
4510 3508 Pls
4510 4192 Pls
4510 3965 Pls
4510 4324 Pls
4958 4493 Pls
4958 3754 Pls
4958 4106 Pls
4958 4532 Pls
5406 4000 Pls
5406 3973 Pls
5406 4036 Pls
5406 4324 Pls
5853 3016 Pls
5853 4301 Pls
5853 4247 Pls
5853 4324 Pls
6301 4247 Pls
6301 4083 Pls
6301 4247 Pls
6301 4376 Pls
1823 4040 Pls
1823 4354 Pls
1823 4375 Pls
1823 4517 Pls
2271 3725 Pls
2271 3511 Pls
2271 4179 Pls
2271 4335 Pls
2719 4181 Pls
2719 4049 Pls
2719 4243 Pls
2719 4182 Pls
3166 3983 Pls
3166 3954 Pls
3166 4431 Pls
3166 4308 Pls
3614 2999 Pls
3614 3987 Pls
3614 4058 Pls
3614 4078 Pls
4510 3016 Pls
4510 4083 Pls
4510 4247 Pls
4510 4221 Pls
4958 4247 Pls
4958 3973 Pls
4958 3895 Pls
4958 4117 Pls
5406 4000 Pls
5406 3973 Pls
5406 4317 Pls
5406 4169 Pls
5853 3508 Pls
5853 4301 Pls
5853 4036 Pls
5853 4169 Pls
6301 4000 Pls
6301 3754 Pls
6301 4387 Pls
6301 4013 Pls
1823 4214 Pls
1823 3997 Pls
1823 4349 Pls
1823 4339 Pls
2271 4229 Pls
2271 4347 Pls
2271 4297 Pls
2271 4129 Pls
2719 3973 Pls
2719 4485 Pls
2719 4342 Pls
2719 3984 Pls
3166 4015 Pls
3166 4286 Pls
3166 4086 Pls
3166 4329 Pls
3614 2826 Pls
3614 3684 Pls
3614 4427 Pls
3614 4323 Pls
4510 3262 Pls
4510 4301 Pls
4510 4106 Pls
4510 4376 Pls
4958 3262 Pls
4958 4192 Pls
4958 4247 Pls
4958 4584 Pls
5406 4247 Pls
5406 3973 Pls
5406 4247 Pls
5406 4273 Pls
5853 3508 Pls
5853 3535 Pls
5853 4106 Pls
5853 4117 Pls
6301 4493 Pls
6301 4083 Pls
6301 4036 Pls
6301 4221 Pls
1823 4598 Pls
1823 4133 Pls
1823 4406 Pls
1823 4482 Pls
2271 4475 Pls
2271 4276 Pls
2271 4293 Pls
2271 4480 Pls
2719 3986 Pls
2719 4122 Pls
2719 4134 Pls
2719 4428 Pls
3166 4030 Pls
3166 4064 Pls
3166 4492 Pls
3166 4368 Pls
3614 4278 Pls
3614 4408 Pls
3614 4195 Pls
3614 4370 Pls
4510 3262 Pls
4510 3973 Pls
4510 4176 Pls
4510 4324 Pls
4958 3016 Pls
4958 4083 Pls
4958 4036 Pls
4958 4221 Pls
5406 3754 Pls
5406 4520 Pls
5406 3825 Pls
5406 4428 Pls
5853 4000 Pls
5853 4301 Pls
5853 4176 Pls
5853 4221 Pls
6301 3262 Pls
6301 3864 Pls
6301 4247 Pls
6301 4376 Pls
1823 4288 Pls
1823 4102 Pls
1823 4298 Pls
1823 4235 Pls
2271 4506 Pls
2271 4520 Pls
2271 4286 Pls
2271 4241 Pls
2719 3989 Pls
2719 3777 Pls
2719 4295 Pls
2719 4480 Pls
3166 4311 Pls
3166 3734 Pls
3166 4567 Pls
3166 4214 Pls
3614 4247 Pls
3614 4101 Pls
3614 4338 Pls
3614 4278 Pls
4510 4000 Pls
4510 3973 Pls
4510 4317 Pls
4510 4324 Pls
4958 3508 Pls
4958 4083 Pls
4958 4317 Pls
4958 4169 Pls
5406 3754 Pls
5406 3535 Pls
5406 4387 Pls
5406 4221 Pls
5853 3754 Pls
5853 4192 Pls
5853 4317 Pls
5853 4273 Pls
6301 4000 Pls
6301 4192 Pls
6301 4528 Pls
6301 4428 Pls
1823 4520 Pls
1823 4250 Pls
1823 4635 Pls
1823 4438 Pls
2271 4598 Pls
2271 4087 Pls
2271 4232 Pls
2271 4303 Pls
2719 4489 Pls
2719 4092 Pls
2719 4350 Pls
2719 4530 Pls
3166 4739 Pls
3166 4196 Pls
3166 4578 Pls
3166 4349 Pls
3614 3761 Pls
3614 4094 Pls
3614 4014 Pls
3614 4021 Pls
4510 3754 Pls
4510 3754 Pls
4510 4247 Pls
4510 4584 Pls
4958 3262 Pls
4958 4192 Pls
4958 4317 Pls
4958 4221 Pls
5406 3754 Pls
5406 4301 Pls
5406 4317 Pls
5406 4376 Pls
5853 3262 Pls
5853 4083 Pls
5853 4036 Pls
5853 4532 Pls
6301 4739 Pls
6301 4630 Pls
6301 4247 Pls
6301 4221 Pls
1823 4138 Pls
1823 4139 Pls
1823 4223 Pls
1823 4480 Pls
2271 4366 Pls
2271 3762 Pls
2271 4187 Pls
2271 4193 Pls
2719 4129 Pls
2719 4410 Pls
2719 4107 Pls
2719 4325 Pls
3166 4012 Pls
3166 3835 Pls
3166 4365 Pls
3166 4502 Pls
3614 3820 Pls
3614 4291 Pls
3614 4169 Pls
3614 4305 Pls
4510 3262 Pls
4510 3535 Pls
4510 4106 Pls
4510 4221 Pls
4958 3262 Pls
4958 3754 Pls
4958 4106 Pls
4958 4065 Pls
5406 3262 Pls
5406 3098 Pls
5406 4247 Pls
5406 4532 Pls
5853 3508 Pls
5853 3535 Pls
5853 4036 Pls
5853 4324 Pls
6301 3262 Pls
6301 4630 Pls
6301 4176 Pls
6301 4687 Pls
1823 3618 Pls
1823 3821 Pls
1823 4255 Pls
1823 4343 Pls
2271 4493 Pls
2271 4161 Pls
2271 4475 Pls
2271 4519 Pls
2719 4311 Pls
2719 3876 Pls
2719 4345 Pls
2719 4307 Pls
3166 4616 Pls
3166 4036 Pls
3166 4237 Pls
3166 4448 Pls
3614 3154 Pls
3614 4217 Pls
3614 4616 Pls
3614 4366 Pls
4510 1046 Pls
4510 3973 Pls
4510 4317 Pls
4510 4013 Pls
4958 3262 Pls
4958 4192 Pls
4958 4317 Pls
4958 4480 Pls
5406 3754 Pls
5406 4192 Pls
5406 4387 Pls
5406 4428 Pls
5853 3754 Pls
5853 4083 Pls
5853 4317 Pls
5853 4376 Pls
6301 3508 Pls
6301 3973 Pls
6301 4247 Pls
6301 4687 Pls
1823 4188 Pls
1823 4017 Pls
1823 4398 Pls
1823 4315 Pls
2271 3650 Pls
2271 4591 Pls
2271 4346 Pls
2271 4474 Pls
2719 3515 Pls
2719 4197 Pls
2719 4243 Pls
2719 4208 Pls
3166 3581 Pls
3166 4252 Pls
3166 4335 Pls
3166 4240 Pls
3614 4311 Pls
3614 4237 Pls
3614 4391 Pls
3614 4457 Pls
4510 3754 Pls
4510 3645 Pls
4510 4176 Pls
4510 4480 Pls
4958 3754 Pls
4958 3973 Pls
4958 4106 Pls
4958 4169 Pls
5406 4000 Pls
5406 3645 Pls
5406 4176 Pls
5406 4117 Pls
5853 4247 Pls
5853 4083 Pls
5853 4036 Pls
5853 4376 Pls
6301 4493 Pls
6301 4083 Pls
6301 4387 Pls
6301 4221 Pls
1823 4243 Pls
1823 4338 Pls
1823 4522 Pls
1823 4528 Pls
2271 4211 Pls
2271 4112 Pls
2271 4192 Pls
2271 4320 Pls
2719 4739 Pls
2719 3918 Pls
2719 4410 Pls
2719 4427 Pls
3166 4411 Pls
3166 4251 Pls
3166 4403 Pls
3166 4395 Pls
3614 4458 Pls
3614 3799 Pls
3614 4500 Pls
3614 4196 Pls
4510 4493 Pls
4510 4083 Pls
4510 3895 Pls
4510 4428 Pls
4958 3508 Pls
4958 3864 Pls
4958 4317 Pls
4958 4480 Pls
5406 4247 Pls
5406 4192 Pls
5406 4036 Pls
5406 4480 Pls
5853 3754 Pls
5853 4411 Pls
5853 4247 Pls
5853 4480 Pls
6301 4493 Pls
6301 4630 Pls
6301 3895 Pls
6301 4273 Pls
1823 4475 Pls
1823 4286 Pls
1823 4322 Pls
1823 4317 Pls
2271 4274 Pls
2271 4478 Pls
2271 4268 Pls
2271 4517 Pls
2719 4161 Pls
2719 4029 Pls
2719 4287 Pls
2719 4473 Pls
3166 4073 Pls
3166 4243 Pls
3166 4401 Pls
3166 4318 Pls
3614 3897 Pls
3614 4207 Pls
3614 4462 Pls
3614 4270 Pls
4510 3262 Pls
4510 3973 Pls
4510 4247 Pls
4510 4428 Pls
4958 4247 Pls
4958 4301 Pls
4958 4247 Pls
4958 4428 Pls
5406 4247 Pls
5406 3973 Pls
5406 4528 Pls
5406 4273 Pls
5853 3754 Pls
5853 3973 Pls
5853 4528 Pls
5853 4428 Pls
6301 4739 Pls
6301 4083 Pls
6301 3965 Pls
6301 4324 Pls
1823 3727 Pls
1823 3960 Pls
1823 4311 Pls
1823 4432 Pls
2271 3651 Pls
2271 4403 Pls
2271 4215 Pls
2271 4410 Pls
2719 3777 Pls
2719 3957 Pls
2719 4242 Pls
2719 4425 Pls
3166 3918 Pls
3166 4175 Pls
3166 4018 Pls
3166 4272 Pls
3614 3492 Pls
3614 3987 Pls
3614 4169 Pls
3614 4310 Pls
4510 3262 Pls
4510 2988 Pls
4510 4176 Pls
4510 4324 Pls
4958 3016 Pls
4958 3207 Pls
4958 3825 Pls
4958 4169 Pls
5406 3508 Pls
5406 3426 Pls
5406 4106 Pls
5406 4221 Pls
5853 3262 Pls
5853 3973 Pls
5853 4387 Pls
5853 4324 Pls
6301 3508 Pls
6301 3973 Pls
6301 4106 Pls
6301 4480 Pls
1823 4165 Pls
1823 4107 Pls
1823 3905 Pls
1823 4522 Pls
2271 4204 Pls
2271 4359 Pls
2271 4396 Pls
2271 4441 Pls
2719 4598 Pls
2719 4195 Pls
2719 4329 Pls
2719 4392 Pls
3166 4153 Pls
3166 4146 Pls
3166 4311 Pls
3166 4280 Pls
3614 4237 Pls
3614 4230 Pls
3614 4311 Pls
3614 4321 Pls
4510 3508 Pls
4510 4192 Pls
4510 4106 Pls
4510 4324 Pls
4958 4247 Pls
4958 3645 Pls
4958 4317 Pls
4958 4169 Pls
5406 3754 Pls
5406 4192 Pls
5406 4317 Pls
5406 3910 Pls
5853 4493 Pls
5853 4301 Pls
5853 4106 Pls
5853 4221 Pls
6301 4000 Pls
6301 4411 Pls
6301 4247 Pls
6301 4065 Pls
1823 4575 Pls
1823 3956 Pls
1823 4202 Pls
1823 4230 Pls
2271 4317 Pls
2271 4435 Pls
2271 4326 Pls
2271 4433 Pls
2719 3900 Pls
2719 4274 Pls
2719 4207 Pls
2719 4511 Pls
3166 4325 Pls
3166 4222 Pls
3166 4231 Pls
3166 4299 Pls
3614 4106 Pls
3614 3668 Pls
3614 4325 Pls
3614 4244 Pls
4510 3016 Pls
4510 4411 Pls
4510 4036 Pls
4510 4221 Pls
4958 3754 Pls
4958 3426 Pls
4958 4247 Pls
4958 3962 Pls
5406 4247 Pls
5406 3864 Pls
5406 4036 Pls
5406 4169 Pls
5853 4000 Pls
5853 4083 Pls
5853 4528 Pls
5853 4376 Pls
6301 4247 Pls
6301 3973 Pls
6301 4106 Pls
6301 4221 Pls
1823 4598 Pls
1823 4288 Pls
1823 4350 Pls
1823 4565 Pls
2271 3942 Pls
2271 4186 Pls
2271 4353 Pls
2271 4447 Pls
2719 3507 Pls
2719 4097 Pls
2719 4157 Pls
2719 4440 Pls
3166 4411 Pls
3166 3859 Pls
3166 4220 Pls
3166 4280 Pls
3614 3645 Pls
3614 4153 Pls
3614 4445 Pls
3614 4514 Pls
4510 4247 Pls
4510 3864 Pls
4510 3965 Pls
4510 4065 Pls
4958 4000 Pls
4958 3754 Pls
4958 4176 Pls
4958 4169 Pls
5406 4493 Pls
5406 4411 Pls
5406 3895 Pls
5406 4169 Pls
5853 4247 Pls
5853 3317 Pls
5853 4247 Pls
5853 4428 Pls
6301 4000 Pls
6301 3645 Pls
6301 4106 Pls
6301 4273 Pls
1823 4458 Pls
1823 4120 Pls
1823 4390 Pls
1823 4526 Pls
2271 4270 Pls
2271 4160 Pls
2271 4451 Pls
2271 4341 Pls
2719 3989 Pls
2719 4278 Pls
2719 4583 Pls
2719 4515 Pls
3166 4222 Pls
3166 4117 Pls
3166 4248 Pls
3166 4384 Pls
3614 4278 Pls
3614 4231 Pls
3614 4391 Pls
3614 4421 Pls
4510 4000 Pls
4510 3864 Pls
4510 4317 Pls
4510 4013 Pls
4958 3262 Pls
4958 3645 Pls
4958 4106 Pls
4958 4273 Pls
5406 4000 Pls
5406 4301 Pls
5406 3895 Pls
5406 4324 Pls
5853 4493 Pls
5853 4301 Pls
5853 4036 Pls
5853 4117 Pls
6301 3508 Pls
6301 4192 Pls
6301 4317 Pls
6301 4324 Pls
1823 3923 Pls
1823 4139 Pls
1823 4326 Pls
1823 4317 Pls
2271 3753 Pls
2271 4223 Pls
2271 3927 Pls
2271 4274 Pls
2719 3843 Pls
2719 3624 Pls
2719 4253 Pls
2719 4370 Pls
3166 3440 Pls
3166 3821 Pls
3166 4187 Pls
3166 4227 Pls
3614 3689 Pls
3614 4193 Pls
3614 3840 Pls
3614 4261 Pls
4510 3016 Pls
4510 3864 Pls
4510 4387 Pls
4510 4117 Pls
4958 2770 Pls
4958 4083 Pls
4958 4247 Pls
4958 4169 Pls
5406 3508 Pls
5406 4301 Pls
5406 4317 Pls
5406 4532 Pls
5853 3016 Pls
5853 4192 Pls
5853 4247 Pls
5853 4117 Pls
6301 4000 Pls
6301 4083 Pls
6301 4106 Pls
6301 4065 Pls
1823 4194 Pls
1823 4581 Pls
1823 4438 Pls
1823 4340 Pls
2271 3505 Pls
2271 4282 Pls
2271 4325 Pls
2271 4291 Pls
2719 4050 Pls
2719 4123 Pls
2719 4401 Pls
2719 4428 Pls
3166 3417 Pls
3166 4003 Pls
3166 4175 Pls
3166 4186 Pls
3614 4739 Pls
3614 3709 Pls
3614 4319 Pls
3614 4505 Pls
4510 3016 Pls
4510 4301 Pls
4510 4247 Pls
4510 4221 Pls
4958 3508 Pls
4958 4301 Pls
4958 4036 Pls
4958 4480 Pls
5406 3754 Pls
5406 4301 Pls
5406 3825 Pls
5406 4480 Pls
5853 4000 Pls
5853 4192 Pls
5853 3965 Pls
5853 4480 Pls
6301 4000 Pls
6301 4411 Pls
6301 4036 Pls
6301 4428 Pls
1823 3756 Pls
1823 4499 Pls
1823 4623 Pls
1823 4485 Pls
2271 4311 Pls
2271 4328 Pls
2271 4214 Pls
2271 4431 Pls
2719 3745 Pls
2719 4259 Pls
2719 4424 Pls
2719 4382 Pls
3166 4270 Pls
3166 4320 Pls
3166 3975 Pls
3166 4476 Pls
3614 4247 Pls
3614 4199 Pls
3614 4180 Pls
3614 4231 Pls
4510 4000 Pls
4510 4192 Pls
4510 3965 Pls
4510 4324 Pls
4958 4000 Pls
4958 4630 Pls
4958 4036 Pls
4958 4376 Pls
5406 4493 Pls
5406 4301 Pls
5406 4387 Pls
5406 4376 Pls
5853 4000 Pls
5853 3973 Pls
5853 4247 Pls
5853 4532 Pls
6301 4739 Pls
6301 3535 Pls
6301 4176 Pls
6301 4169 Pls
1823 4065 Pls
1823 3948 Pls
1823 4306 Pls
1823 4441 Pls
2271 4616 Pls
2271 4493 Pls
2271 4456 Pls
2271 4348 Pls
2719 3989 Pls
2719 4281 Pls
2719 4213 Pls
2719 4292 Pls
3166 3515 Pls
3166 4430 Pls
3166 4408 Pls
3166 4386 Pls
3614 3743 Pls
3614 3866 Pls
3614 4342 Pls
3614 4368 Pls
4510 3016 Pls
4510 3754 Pls
4510 4387 Pls
4510 4324 Pls
4958 3754 Pls
4958 4411 Pls
4958 4106 Pls
4958 3962 Pls
5406 4000 Pls
5406 4083 Pls
5406 4036 Pls
5406 4428 Pls
5853 4493 Pls
5853 3864 Pls
5853 4036 Pls
5853 4376 Pls
6301 4247 Pls
6301 4083 Pls
6301 4528 Pls
6301 4376 Pls
1823 4475 Pls
1823 4739 Pls
1823 4193 Pls
1823 4351 Pls
2271 4184 Pls
2271 4194 Pls
2271 4093 Pls
2271 4308 Pls
2719 3976 Pls
2719 4162 Pls
2719 4353 Pls
2719 4433 Pls
3166 4288 Pls
3166 4195 Pls
3166 4280 Pls
3166 4278 Pls
3614 4294 Pls
3614 3794 Pls
3614 4273 Pls
3614 4256 Pls
4510 3016 Pls
4510 3864 Pls
4510 4176 Pls
4510 4013 Pls
4958 4493 Pls
4958 3973 Pls
4958 4598 Pls
4958 4221 Pls
5406 4000 Pls
5406 3973 Pls
5406 4528 Pls
5406 4324 Pls
5853 4493 Pls
5853 4192 Pls
5853 4247 Pls
5853 4584 Pls
6301 4739 Pls
6301 4083 Pls
6301 4317 Pls
6301 4532 Pls
1823 4012 Pls
1823 4314 Pls
1823 4340 Pls
1823 4463 Pls
2271 4434 Pls
2271 3986 Pls
2271 4371 Pls
2271 4372 Pls
2719 4106 Pls
2719 4265 Pls
2719 4542 Pls
2719 4457 Pls
3166 2535 Pls
3166 4029 Pls
3166 4065 Pls
3166 4466 Pls
3614 4378 Pls
3614 3620 Pls
3614 4103 Pls
3614 4207 Pls
4510 3262 Pls
4510 4083 Pls
4510 4036 Pls
4510 4376 Pls
4958 4000 Pls
4958 3864 Pls
4958 4176 Pls
4958 4273 Pls
5406 3262 Pls
5406 3864 Pls
5406 4387 Pls
5406 4428 Pls
5853 3754 Pls
5853 4083 Pls
5853 4317 Pls
5853 4376 Pls
6301 3016 Pls
6301 3754 Pls
6301 4247 Pls
6301 3962 Pls
1823 4506 Pls
1823 4174 Pls
1823 4331 Pls
1823 4346 Pls
2271 4616 Pls
2271 4406 Pls
2271 4677 Pls
2271 4513 Pls
2719 3942 Pls
2719 4217 Pls
2719 4285 Pls
2719 4421 Pls
3166 4452 Pls
3166 4223 Pls
3166 4270 Pls
3166 4295 Pls
3614 3942 Pls
3614 4142 Pls
3614 4257 Pls
3614 4229 Pls
4510 4000 Pls
4510 3535 Pls
4510 4317 Pls
4510 4428 Pls
4958 4000 Pls
4958 3864 Pls
4958 3965 Pls
4958 4273 Pls
5406 4000 Pls
5406 4083 Pls
5406 4106 Pls
5406 4324 Pls
5853 3754 Pls
5853 4083 Pls
5853 4317 Pls
5853 4273 Pls
6301 4247 Pls
6301 4411 Pls
6301 3895 Pls
6301 4376 Pls
1823 4294 Pls
1823 3809 Pls
1823 4271 Pls
1823 4302 Pls
2271 4288 Pls
2271 4393 Pls
2271 4375 Pls
2271 4569 Pls
2719 4366 Pls
2719 4270 Pls
2719 4471 Pls
2719 4140 Pls
3166 3809 Pls
3166 4353 Pls
3166 4210 Pls
3166 4166 Pls
3614 3820 Pls
3614 3864 Pls
3614 3937 Pls
3614 4130 Pls
4510 4493 Pls
4510 3645 Pls
4510 4387 Pls
4510 4065 Pls
4958 3754 Pls
4958 4301 Pls
4958 4528 Pls
4958 4169 Pls
5406 2523 Pls
5406 4520 Pls
5406 4458 Pls
5406 4273 Pls
5853 3754 Pls
5853 4083 Pls
5853 4387 Pls
5853 4221 Pls
6301 4247 Pls
6301 4192 Pls
6301 4247 Pls
6301 4376 Pls
1823 4366 Pls
1823 4455 Pls
1823 4407 Pls
1823 4521 Pls
2271 4465 Pls
2271 4149 Pls
2271 4571 Pls
2271 4218 Pls
2719 4325 Pls
2719 4324 Pls
2719 4124 Pls
2719 4220 Pls
3166 4630 Pls
3166 4396 Pls
3166 4355 Pls
3166 4127 Pls
3614 4211 Pls
3614 4478 Pls
3614 4248 Pls
3614 4423 Pls
4510 4493 Pls
4510 4411 Pls
4510 4176 Pls
4510 4013 Pls
4958 3754 Pls
4958 3426 Pls
4958 4106 Pls
4958 4324 Pls
5406 3262 Pls
5406 3754 Pls
5406 3895 Pls
5406 4324 Pls
5853 4247 Pls
5853 4520 Pls
5853 4176 Pls
5853 4324 Pls
6301 4000 Pls
6301 3645 Pls
6301 4247 Pls
6301 4428 Pls
1823 4325 Pls
1823 4663 Pls
1823 4150 Pls
1823 4353 Pls
2271 4616 Pls
2271 4417 Pls
2271 4350 Pls
2271 4476 Pls
2719 4184 Pls
2719 4181 Pls
2719 4235 Pls
2719 4442 Pls
3166 4434 Pls
3166 4314 Pls
3166 4383 Pls
3166 4523 Pls
3614 4270 Pls
3614 4475 Pls
3614 4182 Pls
3614 4513 Pls
4510 2770 Pls
4510 3426 Pls
4510 4317 Pls
4510 4376 Pls
4958 3508 Pls
4958 3973 Pls
4958 3965 Pls
4958 4428 Pls
5406 4493 Pls
5406 3864 Pls
5406 4176 Pls
5406 4117 Pls
5853 4247 Pls
5853 3973 Pls
5853 4458 Pls
5853 4532 Pls
6301 4247 Pls
6301 4083 Pls
6301 4247 Pls
6301 4324 Pls
% End plot #1
% Begin plot #2
8.000 UL
LT1
LCb setrgbcolor
2575 1488 M
[ [(Helvetica) 250.0 0.0 true true 0 (Average)]
] -83.3 MRshow
LT1
2725 1488 M
663 0 V
1823 4313 M
448 -32 V
448 -40 V
447 -28 V
448 -97 V
896 -161 V
448 102 V
448 43 V
447 51 V
448 44 V
% End plot #2
% Begin plot #3
stroke
4.000 UL
LT2
LCb setrgbcolor
2575 1238 M
[ [(Helvetica) 250.0 0.0 true true 0 (Min)]
] -83.3 MRshow
LT2
2725 1238 M
663 0 V
1823 3464 M
448 -240 V
448 38 V
447 -727 V
448 -291 V
4510 1046 L
448 1231 V
448 0 V
447 493 V
448 0 V
% End plot #3
% Begin plot #4
stroke
LT3
LCb setrgbcolor
2575 988 M
[ [(Helvetica) 250.0 0.0 true true 0 (Max)]
] -83.3 MRshow
LT3
2725 988 M
663 0 V
1823 4739 M
448 0 V
448 0 V
447 0 V
448 0 V
896 0 V
448 0 V
448 0 V
447 0 V
448 0 V
% End plot #4
stroke
1.000 UL
LTb
1375 4739 N
0 -3939 V
5374 0 V
0 3939 V
-5374 0 V
Z stroke
1.000 UP
1.000 UL
LTb
stroke
grestore
end
showpage
%%Trailer
%%DocumentFonts: Helvetica
