%!PS-Adobe-2.0 EPSF-2.0
%%Title: n_num_segments-f1.eps
%%Creator: gnuplot 4.4 patchlevel 3
%%CreationDate: Fri Jun 14 19:20:09 2013
%%DocumentFonts: (atend)
%%BoundingBox: 50 50 410 302
%%EndComments
%%BeginProlog
/gnudict 256 dict def
gnudict begin
%
% The following true/false flags may be edited by hand if desired.
% The unit line width and grayscale image gamma correction may also be changed.
%
/Color true def
/Blacktext false def
/Solid false def
/Dashlength 1 def
/Landscape false def
/Level1 false def
/Rounded false def
/ClipToBoundingBox false def
/TransparentPatterns false def
/gnulinewidth 5.000 def
/userlinewidth gnulinewidth def
/Gamma 1.0 def
%
/vshift -83 def
/dl1 {
  10.0 Dashlength mul mul
  Rounded { currentlinewidth 0.75 mul sub dup 0 le { pop 0.01 } if } if
} def
/dl2 {
  10.0 Dashlength mul mul
  Rounded { currentlinewidth 0.75 mul add } if
} def
/hpt_ 31.5 def
/vpt_ 31.5 def
/hpt hpt_ def
/vpt vpt_ def
Level1 {} {
/SDict 10 dict def
systemdict /pdfmark known not {
  userdict /pdfmark systemdict /cleartomark get put
} if
SDict begin [
  /Title (n_num_segments-f1.eps)
  /Subject (gnuplot plot)
  /Creator (gnuplot 4.4 patchlevel 3)
  /Author (xjia)
%  /Producer (gnuplot)
%  /Keywords ()
  /CreationDate (Fri Jun 14 19:20:09 2013)
  /DOCINFO pdfmark
end
} ifelse
/doclip {
  ClipToBoundingBox {
    newpath 50 50 moveto 410 50 lineto 410 302 lineto 50 302 lineto closepath
    clip
  } if
} def
%
% Gnuplot Prolog Version 4.4 (August 2010)
%
%/SuppressPDFMark true def
%
/M {moveto} bind def
/L {lineto} bind def
/R {rmoveto} bind def
/V {rlineto} bind def
/N {newpath moveto} bind def
/Z {closepath} bind def
/C {setrgbcolor} bind def
/f {rlineto fill} bind def
/g {setgray} bind def
/Gshow {show} def   % May be redefined later in the file to support UTF-8
/vpt2 vpt 2 mul def
/hpt2 hpt 2 mul def
/Lshow {currentpoint stroke M 0 vshift R 
	Blacktext {gsave 0 setgray show grestore} {show} ifelse} def
/Rshow {currentpoint stroke M dup stringwidth pop neg vshift R
	Blacktext {gsave 0 setgray show grestore} {show} ifelse} def
/Cshow {currentpoint stroke M dup stringwidth pop -2 div vshift R 
	Blacktext {gsave 0 setgray show grestore} {show} ifelse} def
/UP {dup vpt_ mul /vpt exch def hpt_ mul /hpt exch def
  /hpt2 hpt 2 mul def /vpt2 vpt 2 mul def} def
/DL {Color {setrgbcolor Solid {pop []} if 0 setdash}
 {pop pop pop 0 setgray Solid {pop []} if 0 setdash} ifelse} def
/BL {stroke userlinewidth 2 mul setlinewidth
	Rounded {1 setlinejoin 1 setlinecap} if} def
/AL {stroke userlinewidth 2 div setlinewidth
	Rounded {1 setlinejoin 1 setlinecap} if} def
/UL {dup gnulinewidth mul /userlinewidth exch def
	dup 1 lt {pop 1} if 10 mul /udl exch def} def
/PL {stroke userlinewidth setlinewidth
	Rounded {1 setlinejoin 1 setlinecap} if} def
3.8 setmiterlimit
% Default Line colors
/LCw {1 1 1} def
/LCb {0 0 0} def
/LCa {0 0 0} def
/LC0 {1 0 0} def
/LC1 {0 1 0} def
/LC2 {0 0 1} def
/LC3 {1 0 1} def
/LC4 {0 1 1} def
/LC5 {1 1 0} def
/LC6 {0 0 0} def
/LC7 {1 0.3 0} def
/LC8 {0.5 0.5 0.5} def
% Default Line Types
/LTw {PL [] 1 setgray} def
/LTb {BL [] LCb DL} def
/LTa {AL [1 udl mul 2 udl mul] 0 setdash LCa setrgbcolor} def
/LT0 {PL [] LC0 DL} def
/LT1 {PL [4 dl1 2 dl2] LC1 DL} def
/LT2 {PL [2 dl1 3 dl2] LC2 DL} def
/LT3 {PL [1 dl1 1.5 dl2] LC3 DL} def
/LT4 {PL [6 dl1 2 dl2 1 dl1 2 dl2] LC4 DL} def
/LT5 {PL [3 dl1 3 dl2 1 dl1 3 dl2] LC5 DL} def
/LT6 {PL [2 dl1 2 dl2 2 dl1 6 dl2] LC6 DL} def
/LT7 {PL [1 dl1 2 dl2 6 dl1 2 dl2 1 dl1 2 dl2] LC7 DL} def
/LT8 {PL [2 dl1 2 dl2 2 dl1 2 dl2 2 dl1 2 dl2 2 dl1 4 dl2] LC8 DL} def
/Pnt {stroke [] 0 setdash gsave 1 setlinecap M 0 0 V stroke grestore} def
/Dia {stroke [] 0 setdash 2 copy vpt add M
  hpt neg vpt neg V hpt vpt neg V
  hpt vpt V hpt neg vpt V closepath stroke
  Pnt} def
/Pls {stroke [] 0 setdash vpt sub M 0 vpt2 V
  currentpoint stroke M
  hpt neg vpt neg R hpt2 0 V stroke
 } def
/Box {stroke [] 0 setdash 2 copy exch hpt sub exch vpt add M
  0 vpt2 neg V hpt2 0 V 0 vpt2 V
  hpt2 neg 0 V closepath stroke
  Pnt} def
/Crs {stroke [] 0 setdash exch hpt sub exch vpt add M
  hpt2 vpt2 neg V currentpoint stroke M
  hpt2 neg 0 R hpt2 vpt2 V stroke} def
/TriU {stroke [] 0 setdash 2 copy vpt 1.12 mul add M
  hpt neg vpt -1.62 mul V
  hpt 2 mul 0 V
  hpt neg vpt 1.62 mul V closepath stroke
  Pnt} def
/Star {2 copy Pls Crs} def
/BoxF {stroke [] 0 setdash exch hpt sub exch vpt add M
  0 vpt2 neg V hpt2 0 V 0 vpt2 V
  hpt2 neg 0 V closepath fill} def
/TriUF {stroke [] 0 setdash vpt 1.12 mul add M
  hpt neg vpt -1.62 mul V
  hpt 2 mul 0 V
  hpt neg vpt 1.62 mul V closepath fill} def
/TriD {stroke [] 0 setdash 2 copy vpt 1.12 mul sub M
  hpt neg vpt 1.62 mul V
  hpt 2 mul 0 V
  hpt neg vpt -1.62 mul V closepath stroke
  Pnt} def
/TriDF {stroke [] 0 setdash vpt 1.12 mul sub M
  hpt neg vpt 1.62 mul V
  hpt 2 mul 0 V
  hpt neg vpt -1.62 mul V closepath fill} def
/DiaF {stroke [] 0 setdash vpt add M
  hpt neg vpt neg V hpt vpt neg V
  hpt vpt V hpt neg vpt V closepath fill} def
/Pent {stroke [] 0 setdash 2 copy gsave
  translate 0 hpt M 4 {72 rotate 0 hpt L} repeat
  closepath stroke grestore Pnt} def
/PentF {stroke [] 0 setdash gsave
  translate 0 hpt M 4 {72 rotate 0 hpt L} repeat
  closepath fill grestore} def
/Circle {stroke [] 0 setdash 2 copy
  hpt 0 360 arc stroke Pnt} def
/CircleF {stroke [] 0 setdash hpt 0 360 arc fill} def
/C0 {BL [] 0 setdash 2 copy moveto vpt 90 450 arc} bind def
/C1 {BL [] 0 setdash 2 copy moveto
	2 copy vpt 0 90 arc closepath fill
	vpt 0 360 arc closepath} bind def
/C2 {BL [] 0 setdash 2 copy moveto
	2 copy vpt 90 180 arc closepath fill
	vpt 0 360 arc closepath} bind def
/C3 {BL [] 0 setdash 2 copy moveto
	2 copy vpt 0 180 arc closepath fill
	vpt 0 360 arc closepath} bind def
/C4 {BL [] 0 setdash 2 copy moveto
	2 copy vpt 180 270 arc closepath fill
	vpt 0 360 arc closepath} bind def
/C5 {BL [] 0 setdash 2 copy moveto
	2 copy vpt 0 90 arc
	2 copy moveto
	2 copy vpt 180 270 arc closepath fill
	vpt 0 360 arc} bind def
/C6 {BL [] 0 setdash 2 copy moveto
	2 copy vpt 90 270 arc closepath fill
	vpt 0 360 arc closepath} bind def
/C7 {BL [] 0 setdash 2 copy moveto
	2 copy vpt 0 270 arc closepath fill
	vpt 0 360 arc closepath} bind def
/C8 {BL [] 0 setdash 2 copy moveto
	2 copy vpt 270 360 arc closepath fill
	vpt 0 360 arc closepath} bind def
/C9 {BL [] 0 setdash 2 copy moveto
	2 copy vpt 270 450 arc closepath fill
	vpt 0 360 arc closepath} bind def
/C10 {BL [] 0 setdash 2 copy 2 copy moveto vpt 270 360 arc closepath fill
	2 copy moveto
	2 copy vpt 90 180 arc closepath fill
	vpt 0 360 arc closepath} bind def
/C11 {BL [] 0 setdash 2 copy moveto
	2 copy vpt 0 180 arc closepath fill
	2 copy moveto
	2 copy vpt 270 360 arc closepath fill
	vpt 0 360 arc closepath} bind def
/C12 {BL [] 0 setdash 2 copy moveto
	2 copy vpt 180 360 arc closepath fill
	vpt 0 360 arc closepath} bind def
/C13 {BL [] 0 setdash 2 copy moveto
	2 copy vpt 0 90 arc closepath fill
	2 copy moveto
	2 copy vpt 180 360 arc closepath fill
	vpt 0 360 arc closepath} bind def
/C14 {BL [] 0 setdash 2 copy moveto
	2 copy vpt 90 360 arc closepath fill
	vpt 0 360 arc} bind def
/C15 {BL [] 0 setdash 2 copy vpt 0 360 arc closepath fill
	vpt 0 360 arc closepath} bind def
/Rec {newpath 4 2 roll moveto 1 index 0 rlineto 0 exch rlineto
	neg 0 rlineto closepath} bind def
/Square {dup Rec} bind def
/Bsquare {vpt sub exch vpt sub exch vpt2 Square} bind def
/S0 {BL [] 0 setdash 2 copy moveto 0 vpt rlineto BL Bsquare} bind def
/S1 {BL [] 0 setdash 2 copy vpt Square fill Bsquare} bind def
/S2 {BL [] 0 setdash 2 copy exch vpt sub exch vpt Square fill Bsquare} bind def
/S3 {BL [] 0 setdash 2 copy exch vpt sub exch vpt2 vpt Rec fill Bsquare} bind def
/S4 {BL [] 0 setdash 2 copy exch vpt sub exch vpt sub vpt Square fill Bsquare} bind def
/S5 {BL [] 0 setdash 2 copy 2 copy vpt Square fill
	exch vpt sub exch vpt sub vpt Square fill Bsquare} bind def
/S6 {BL [] 0 setdash 2 copy exch vpt sub exch vpt sub vpt vpt2 Rec fill Bsquare} bind def
/S7 {BL [] 0 setdash 2 copy exch vpt sub exch vpt sub vpt vpt2 Rec fill
	2 copy vpt Square fill Bsquare} bind def
/S8 {BL [] 0 setdash 2 copy vpt sub vpt Square fill Bsquare} bind def
/S9 {BL [] 0 setdash 2 copy vpt sub vpt vpt2 Rec fill Bsquare} bind def
/S10 {BL [] 0 setdash 2 copy vpt sub vpt Square fill 2 copy exch vpt sub exch vpt Square fill
	Bsquare} bind def
/S11 {BL [] 0 setdash 2 copy vpt sub vpt Square fill 2 copy exch vpt sub exch vpt2 vpt Rec fill
	Bsquare} bind def
/S12 {BL [] 0 setdash 2 copy exch vpt sub exch vpt sub vpt2 vpt Rec fill Bsquare} bind def
/S13 {BL [] 0 setdash 2 copy exch vpt sub exch vpt sub vpt2 vpt Rec fill
	2 copy vpt Square fill Bsquare} bind def
/S14 {BL [] 0 setdash 2 copy exch vpt sub exch vpt sub vpt2 vpt Rec fill
	2 copy exch vpt sub exch vpt Square fill Bsquare} bind def
/S15 {BL [] 0 setdash 2 copy Bsquare fill Bsquare} bind def
/D0 {gsave translate 45 rotate 0 0 S0 stroke grestore} bind def
/D1 {gsave translate 45 rotate 0 0 S1 stroke grestore} bind def
/D2 {gsave translate 45 rotate 0 0 S2 stroke grestore} bind def
/D3 {gsave translate 45 rotate 0 0 S3 stroke grestore} bind def
/D4 {gsave translate 45 rotate 0 0 S4 stroke grestore} bind def
/D5 {gsave translate 45 rotate 0 0 S5 stroke grestore} bind def
/D6 {gsave translate 45 rotate 0 0 S6 stroke grestore} bind def
/D7 {gsave translate 45 rotate 0 0 S7 stroke grestore} bind def
/D8 {gsave translate 45 rotate 0 0 S8 stroke grestore} bind def
/D9 {gsave translate 45 rotate 0 0 S9 stroke grestore} bind def
/D10 {gsave translate 45 rotate 0 0 S10 stroke grestore} bind def
/D11 {gsave translate 45 rotate 0 0 S11 stroke grestore} bind def
/D12 {gsave translate 45 rotate 0 0 S12 stroke grestore} bind def
/D13 {gsave translate 45 rotate 0 0 S13 stroke grestore} bind def
/D14 {gsave translate 45 rotate 0 0 S14 stroke grestore} bind def
/D15 {gsave translate 45 rotate 0 0 S15 stroke grestore} bind def
/DiaE {stroke [] 0 setdash vpt add M
  hpt neg vpt neg V hpt vpt neg V
  hpt vpt V hpt neg vpt V closepath stroke} def
/BoxE {stroke [] 0 setdash exch hpt sub exch vpt add M
  0 vpt2 neg V hpt2 0 V 0 vpt2 V
  hpt2 neg 0 V closepath stroke} def
/TriUE {stroke [] 0 setdash vpt 1.12 mul add M
  hpt neg vpt -1.62 mul V
  hpt 2 mul 0 V
  hpt neg vpt 1.62 mul V closepath stroke} def
/TriDE {stroke [] 0 setdash vpt 1.12 mul sub M
  hpt neg vpt 1.62 mul V
  hpt 2 mul 0 V
  hpt neg vpt -1.62 mul V closepath stroke} def
/PentE {stroke [] 0 setdash gsave
  translate 0 hpt M 4 {72 rotate 0 hpt L} repeat
  closepath stroke grestore} def
/CircE {stroke [] 0 setdash 
  hpt 0 360 arc stroke} def
/Opaque {gsave closepath 1 setgray fill grestore 0 setgray closepath} def
/DiaW {stroke [] 0 setdash vpt add M
  hpt neg vpt neg V hpt vpt neg V
  hpt vpt V hpt neg vpt V Opaque stroke} def
/BoxW {stroke [] 0 setdash exch hpt sub exch vpt add M
  0 vpt2 neg V hpt2 0 V 0 vpt2 V
  hpt2 neg 0 V Opaque stroke} def
/TriUW {stroke [] 0 setdash vpt 1.12 mul add M
  hpt neg vpt -1.62 mul V
  hpt 2 mul 0 V
  hpt neg vpt 1.62 mul V Opaque stroke} def
/TriDW {stroke [] 0 setdash vpt 1.12 mul sub M
  hpt neg vpt 1.62 mul V
  hpt 2 mul 0 V
  hpt neg vpt -1.62 mul V Opaque stroke} def
/PentW {stroke [] 0 setdash gsave
  translate 0 hpt M 4 {72 rotate 0 hpt L} repeat
  Opaque stroke grestore} def
/CircW {stroke [] 0 setdash 
  hpt 0 360 arc Opaque stroke} def
/BoxFill {gsave Rec 1 setgray fill grestore} def
/Density {
  /Fillden exch def
  currentrgbcolor
  /ColB exch def /ColG exch def /ColR exch def
  /ColR ColR Fillden mul Fillden sub 1 add def
  /ColG ColG Fillden mul Fillden sub 1 add def
  /ColB ColB Fillden mul Fillden sub 1 add def
  ColR ColG ColB setrgbcolor} def
/BoxColFill {gsave Rec PolyFill} def
/PolyFill {gsave Density fill grestore grestore} def
/h {rlineto rlineto rlineto gsave closepath fill grestore} bind def
%
% PostScript Level 1 Pattern Fill routine for rectangles
% Usage: x y w h s a XX PatternFill
%	x,y = lower left corner of box to be filled
%	w,h = width and height of box
%	  a = angle in degrees between lines and x-axis
%	 XX = 0/1 for no/yes cross-hatch
%
/PatternFill {gsave /PFa [ 9 2 roll ] def
  PFa 0 get PFa 2 get 2 div add PFa 1 get PFa 3 get 2 div add translate
  PFa 2 get -2 div PFa 3 get -2 div PFa 2 get PFa 3 get Rec
  gsave 1 setgray fill grestore clip
  currentlinewidth 0.5 mul setlinewidth
  /PFs PFa 2 get dup mul PFa 3 get dup mul add sqrt def
  0 0 M PFa 5 get rotate PFs -2 div dup translate
  0 1 PFs PFa 4 get div 1 add floor cvi
	{PFa 4 get mul 0 M 0 PFs V} for
  0 PFa 6 get ne {
	0 1 PFs PFa 4 get div 1 add floor cvi
	{PFa 4 get mul 0 2 1 roll M PFs 0 V} for
 } if
  stroke grestore} def
%
/languagelevel where
 {pop languagelevel} {1} ifelse
 2 lt
	{/InterpretLevel1 true def}
	{/InterpretLevel1 Level1 def}
 ifelse
%
% PostScript level 2 pattern fill definitions
%
/Level2PatternFill {
/Tile8x8 {/PaintType 2 /PatternType 1 /TilingType 1 /BBox [0 0 8 8] /XStep 8 /YStep 8}
	bind def
/KeepColor {currentrgbcolor [/Pattern /DeviceRGB] setcolorspace} bind def
<< Tile8x8
 /PaintProc {0.5 setlinewidth pop 0 0 M 8 8 L 0 8 M 8 0 L stroke} 
>> matrix makepattern
/Pat1 exch def
<< Tile8x8
 /PaintProc {0.5 setlinewidth pop 0 0 M 8 8 L 0 8 M 8 0 L stroke
	0 4 M 4 8 L 8 4 L 4 0 L 0 4 L stroke}
>> matrix makepattern
/Pat2 exch def
<< Tile8x8
 /PaintProc {0.5 setlinewidth pop 0 0 M 0 8 L
	8 8 L 8 0 L 0 0 L fill}
>> matrix makepattern
/Pat3 exch def
<< Tile8x8
 /PaintProc {0.5 setlinewidth pop -4 8 M 8 -4 L
	0 12 M 12 0 L stroke}
>> matrix makepattern
/Pat4 exch def
<< Tile8x8
 /PaintProc {0.5 setlinewidth pop -4 0 M 8 12 L
	0 -4 M 12 8 L stroke}
>> matrix makepattern
/Pat5 exch def
<< Tile8x8
 /PaintProc {0.5 setlinewidth pop -2 8 M 4 -4 L
	0 12 M 8 -4 L 4 12 M 10 0 L stroke}
>> matrix makepattern
/Pat6 exch def
<< Tile8x8
 /PaintProc {0.5 setlinewidth pop -2 0 M 4 12 L
	0 -4 M 8 12 L 4 -4 M 10 8 L stroke}
>> matrix makepattern
/Pat7 exch def
<< Tile8x8
 /PaintProc {0.5 setlinewidth pop 8 -2 M -4 4 L
	12 0 M -4 8 L 12 4 M 0 10 L stroke}
>> matrix makepattern
/Pat8 exch def
<< Tile8x8
 /PaintProc {0.5 setlinewidth pop 0 -2 M 12 4 L
	-4 0 M 12 8 L -4 4 M 8 10 L stroke}
>> matrix makepattern
/Pat9 exch def
/Pattern1 {PatternBgnd KeepColor Pat1 setpattern} bind def
/Pattern2 {PatternBgnd KeepColor Pat2 setpattern} bind def
/Pattern3 {PatternBgnd KeepColor Pat3 setpattern} bind def
/Pattern4 {PatternBgnd KeepColor Landscape {Pat5} {Pat4} ifelse setpattern} bind def
/Pattern5 {PatternBgnd KeepColor Landscape {Pat4} {Pat5} ifelse setpattern} bind def
/Pattern6 {PatternBgnd KeepColor Landscape {Pat9} {Pat6} ifelse setpattern} bind def
/Pattern7 {PatternBgnd KeepColor Landscape {Pat8} {Pat7} ifelse setpattern} bind def
} def
%
%
%End of PostScript Level 2 code
%
/PatternBgnd {
  TransparentPatterns {} {gsave 1 setgray fill grestore} ifelse
} def
%
% Substitute for Level 2 pattern fill codes with
% grayscale if Level 2 support is not selected.
%
/Level1PatternFill {
/Pattern1 {0.250 Density} bind def
/Pattern2 {0.500 Density} bind def
/Pattern3 {0.750 Density} bind def
/Pattern4 {0.125 Density} bind def
/Pattern5 {0.375 Density} bind def
/Pattern6 {0.625 Density} bind def
/Pattern7 {0.875 Density} bind def
} def
%
% Now test for support of Level 2 code
%
Level1 {Level1PatternFill} {Level2PatternFill} ifelse
%
/Symbol-Oblique /Symbol findfont [1 0 .167 1 0 0] makefont
dup length dict begin {1 index /FID eq {pop pop} {def} ifelse} forall
currentdict end definefont pop
/MFshow {
   { dup 5 get 3 ge
     { 5 get 3 eq {gsave} {grestore} ifelse }
     {dup dup 0 get findfont exch 1 get scalefont setfont
     [ currentpoint ] exch dup 2 get 0 exch R dup 5 get 2 ne {dup dup 6
     get exch 4 get {Gshow} {stringwidth pop 0 R} ifelse }if dup 5 get 0 eq
     {dup 3 get {2 get neg 0 exch R pop} {pop aload pop M} ifelse} {dup 5
     get 1 eq {dup 2 get exch dup 3 get exch 6 get stringwidth pop -2 div
     dup 0 R} {dup 6 get stringwidth pop -2 div 0 R 6 get
     show 2 index {aload pop M neg 3 -1 roll neg R pop pop} {pop pop pop
     pop aload pop M} ifelse }ifelse }ifelse }
     ifelse }
   forall} def
/Gswidth {dup type /stringtype eq {stringwidth} {pop (n) stringwidth} ifelse} def
/MFwidth {0 exch { dup 5 get 3 ge { 5 get 3 eq { 0 } { pop } ifelse }
 {dup 3 get{dup dup 0 get findfont exch 1 get scalefont setfont
     6 get Gswidth pop add} {pop} ifelse} ifelse} forall} def
/MLshow { currentpoint stroke M
  0 exch R
  Blacktext {gsave 0 setgray MFshow grestore} {MFshow} ifelse } bind def
/MRshow { currentpoint stroke M
  exch dup MFwidth neg 3 -1 roll R
  Blacktext {gsave 0 setgray MFshow grestore} {MFshow} ifelse } bind def
/MCshow { currentpoint stroke M
  exch dup MFwidth -2 div 3 -1 roll R
  Blacktext {gsave 0 setgray MFshow grestore} {MFshow} ifelse } bind def
/XYsave    { [( ) 1 2 true false 3 ()] } bind def
/XYrestore { [( ) 1 2 true false 4 ()] } bind def
end
%%EndProlog
gnudict begin
gsave
doclip
50 50 translate
0.050 0.050 scale
0 setgray
newpath
(Helvetica) findfont 250 scalefont setfont
1.000 UL
LTb
1225 800 M
63 0 V
5461 0 R
-63 0 V
stroke
1075 800 M
[ [(Helvetica) 250.0 0.0 true true 0 ( 0.1)]
] -83.3 MRshow
1.000 UL
LTb
1225 1238 M
63 0 V
5461 0 R
-63 0 V
stroke
1075 1238 M
[ [(Helvetica) 250.0 0.0 true true 0 ( 0.2)]
] -83.3 MRshow
1.000 UL
LTb
1225 1675 M
63 0 V
5461 0 R
-63 0 V
stroke
1075 1675 M
[ [(Helvetica) 250.0 0.0 true true 0 ( 0.3)]
] -83.3 MRshow
1.000 UL
LTb
1225 2113 M
63 0 V
5461 0 R
-63 0 V
stroke
1075 2113 M
[ [(Helvetica) 250.0 0.0 true true 0 ( 0.4)]
] -83.3 MRshow
1.000 UL
LTb
1225 2551 M
63 0 V
5461 0 R
-63 0 V
stroke
1075 2551 M
[ [(Helvetica) 250.0 0.0 true true 0 ( 0.5)]
] -83.3 MRshow
1.000 UL
LTb
1225 2988 M
63 0 V
5461 0 R
-63 0 V
stroke
1075 2988 M
[ [(Helvetica) 250.0 0.0 true true 0 ( 0.6)]
] -83.3 MRshow
1.000 UL
LTb
1225 3426 M
63 0 V
5461 0 R
-63 0 V
stroke
1075 3426 M
[ [(Helvetica) 250.0 0.0 true true 0 ( 0.7)]
] -83.3 MRshow
1.000 UL
LTb
1225 3864 M
63 0 V
5461 0 R
-63 0 V
stroke
1075 3864 M
[ [(Helvetica) 250.0 0.0 true true 0 ( 0.8)]
] -83.3 MRshow
1.000 UL
LTb
1225 4301 M
63 0 V
5461 0 R
-63 0 V
stroke
1075 4301 M
[ [(Helvetica) 250.0 0.0 true true 0 ( 0.9)]
] -83.3 MRshow
1.000 UL
LTb
1225 4739 M
63 0 V
5461 0 R
-63 0 V
stroke
1075 4739 M
[ [(Helvetica) 250.0 0.0 true true 0 ( 1)]
] -83.3 MRshow
1.000 UL
LTb
1225 800 M
0 63 V
0 3876 R
0 -63 V
stroke
1225 550 M
[ [(Helvetica) 250.0 0.0 true true 0 ( 4)]
] -83.3 MCshow
1.000 UL
LTb
1916 800 M
0 63 V
0 3876 R
0 -63 V
stroke
1916 550 M
[ [(Helvetica) 250.0 0.0 true true 0 ( 6)]
] -83.3 MCshow
1.000 UL
LTb
2606 800 M
0 63 V
0 3876 R
0 -63 V
stroke
2606 550 M
[ [(Helvetica) 250.0 0.0 true true 0 ( 8)]
] -83.3 MCshow
1.000 UL
LTb
3297 800 M
0 63 V
0 3876 R
0 -63 V
stroke
3297 550 M
[ [(Helvetica) 250.0 0.0 true true 0 ( 10)]
] -83.3 MCshow
1.000 UL
LTb
3987 800 M
0 63 V
0 3876 R
0 -63 V
stroke
3987 550 M
[ [(Helvetica) 250.0 0.0 true true 0 ( 12)]
] -83.3 MCshow
1.000 UL
LTb
4678 800 M
0 63 V
0 3876 R
0 -63 V
stroke
4678 550 M
[ [(Helvetica) 250.0 0.0 true true 0 ( 14)]
] -83.3 MCshow
1.000 UL
LTb
5368 800 M
0 63 V
0 3876 R
0 -63 V
stroke
5368 550 M
[ [(Helvetica) 250.0 0.0 true true 0 ( 16)]
] -83.3 MCshow
1.000 UL
LTb
6059 800 M
0 63 V
0 3876 R
0 -63 V
stroke
6059 550 M
[ [(Helvetica) 250.0 0.0 true true 0 ( 18)]
] -83.3 MCshow
1.000 UL
LTb
6749 800 M
0 63 V
0 3876 R
0 -63 V
stroke
6749 550 M
[ [(Helvetica) 250.0 0.0 true true 0 ( 20)]
] -83.3 MCshow
1.000 UL
LTb
1.000 UL
LTb
1225 4739 N
0 -3939 V
5524 0 V
0 3939 V
-5524 0 V
Z stroke
LCb setrgbcolor
200 2769 M
currentpoint gsave translate -270 rotate 0 0 moveto
[ [(Helvetica) 250.0 0.0 true true 0 (F1)]
] -83.3 MCshow
grestore
LTb
LCb setrgbcolor
3987 175 M
[ [(Helvetica) 250.0 0.0 true true 0 (Number of Segments)]
] -83.3 MCshow
LTb
1.000 UP
1.000 UL
LTb
% Begin plot #1
1.000 UP
1.000 UL
LT0
1570 4582 Pls
3297 4324 Pls
5023 4418 Pls
6749 4408 Pls
1570 4245 Pls
3297 4368 Pls
5023 4441 Pls
6749 4505 Pls
1570 4441 Pls
3297 4165 Pls
5023 4428 Pls
6749 4578 Pls
1570 4309 Pls
3297 4307 Pls
5023 4485 Pls
6749 4645 Pls
1570 4067 Pls
3297 4306 Pls
5023 4525 Pls
6749 4648 Pls
1570 3744 Pls
3297 4209 Pls
5023 4526 Pls
6749 4642 Pls
1570 4274 Pls
3297 4255 Pls
5023 4458 Pls
6749 4642 Pls
1570 3573 Pls
3297 4135 Pls
5023 4406 Pls
6749 4642 Pls
1570 3520 Pls
3297 4020 Pls
5023 4565 Pls
6749 4643 Pls
1570 3203 Pls
3297 4143 Pls
5023 4458 Pls
6749 4654 Pls
1570 4360 Pls
3297 3887 Pls
5023 3949 Pls
6749 3932 Pls
1570 4400 Pls
3297 4135 Pls
5023 3967 Pls
6749 3896 Pls
1570 4408 Pls
3297 4142 Pls
5023 3802 Pls
6749 3960 Pls
1570 4375 Pls
3297 4059 Pls
5023 4066 Pls
6749 4092 Pls
1570 4362 Pls
3297 4156 Pls
5023 4188 Pls
6749 4207 Pls
1570 3185 Pls
3297 3600 Pls
5023 3852 Pls
6749 3982 Pls
1570 2785 Pls
3297 3400 Pls
5023 3851 Pls
6749 4010 Pls
1570 2494 Pls
3297 3079 Pls
5023 3625 Pls
6749 3797 Pls
1570 2069 Pls
3297 2923 Pls
5023 3572 Pls
6749 3859 Pls
1570 2072 Pls
3297 3070 Pls
5023 3233 Pls
6749 3678 Pls
1570 4054 Pls
3297 3470 Pls
5023 3531 Pls
6749 3386 Pls
1570 4574 Pls
3297 3814 Pls
5023 3724 Pls
6749 3575 Pls
1570 4189 Pls
3297 3708 Pls
5023 3750 Pls
6749 3666 Pls
1570 4414 Pls
3297 3972 Pls
5023 3811 Pls
6749 3683 Pls
1570 4061 Pls
3297 4061 Pls
5023 3744 Pls
6749 3816 Pls
1570 2707 Pls
3297 2958 Pls
5023 3217 Pls
6749 3601 Pls
1570 2147 Pls
3297 2603 Pls
5023 3290 Pls
6749 3360 Pls
1570 1797 Pls
3297 2329 Pls
5023 2905 Pls
6749 3035 Pls
1570 1394 Pls
3297 2358 Pls
5023 2864 Pls
6749 3255 Pls
1570 1298 Pls
3297 2129 Pls
5023 2603 Pls
6749 2990 Pls
1570 3799 Pls
3297 3779 Pls
5023 3309 Pls
6749 3156 Pls
1570 4144 Pls
3297 3917 Pls
5023 3443 Pls
6749 3304 Pls
1570 4010 Pls
3297 3767 Pls
5023 3434 Pls
6749 3282 Pls
1570 4342 Pls
3297 3654 Pls
5023 3638 Pls
6749 3448 Pls
1570 4480 Pls
3297 3885 Pls
5023 3573 Pls
6749 3567 Pls
1570 2293 Pls
3297 2726 Pls
5023 2761 Pls
6749 3085 Pls
1570 1543 Pls
3297 2178 Pls
5023 2458 Pls
6749 2845 Pls
1570 1349 Pls
3297 2057 Pls
5023 2457 Pls
6749 2631 Pls
1570 1098 Pls
3297 1864 Pls
5023 2320 Pls
6749 2551 Pls
1570 1076 Pls
3297 1670 Pls
5023 2247 Pls
6749 2506 Pls
1570 3886 Pls
3297 3545 Pls
5023 3087 Pls
6749 2998 Pls
1570 4342 Pls
3297 3301 Pls
5023 3297 Pls
6749 2866 Pls
1570 4488 Pls
3297 3598 Pls
5023 3686 Pls
6749 3097 Pls
1570 4279 Pls
3297 3554 Pls
5023 3228 Pls
6749 3324 Pls
1570 4354 Pls
3297 3354 Pls
5023 3294 Pls
6749 3343 Pls
1570 1546 Pls
3297 2394 Pls
5023 2794 Pls
6749 2757 Pls
1570 1208 Pls
3297 1823 Pls
5023 2217 Pls
6749 2480 Pls
1570 982 Pls
3297 1542 Pls
5023 2134 Pls
6749 2295 Pls
1570 933 Pls
3297 1553 Pls
5023 1836 Pls
6749 2231 Pls
1570 898 Pls
3297 1387 Pls
5023 1718 Pls
6749 2098 Pls
1570 4585 Pls
3297 4362 Pls
5023 4465 Pls
6749 4616 Pls
1570 4459 Pls
3297 4465 Pls
5023 4436 Pls
6749 4534 Pls
1570 4404 Pls
3297 4418 Pls
5023 4502 Pls
6749 4611 Pls
1570 4437 Pls
3297 4314 Pls
5023 4486 Pls
6749 4630 Pls
1570 4260 Pls
3297 4532 Pls
5023 4629 Pls
6749 4673 Pls
1570 3997 Pls
3297 4223 Pls
5023 4414 Pls
6749 4654 Pls
1570 4207 Pls
3297 4355 Pls
5023 4603 Pls
6749 4628 Pls
1570 3447 Pls
3297 4331 Pls
5023 4565 Pls
6749 4643 Pls
1570 3676 Pls
3297 4329 Pls
5023 4525 Pls
6749 4679 Pls
1570 4052 Pls
3297 4205 Pls
5023 4474 Pls
6749 4692 Pls
1570 4472 Pls
3297 4463 Pls
5023 4333 Pls
6749 4359 Pls
1570 4571 Pls
3297 4268 Pls
5023 4377 Pls
6749 4205 Pls
1570 4592 Pls
3297 4267 Pls
5023 4280 Pls
6749 4203 Pls
1570 4592 Pls
3297 4220 Pls
5023 4331 Pls
6749 4284 Pls
1570 4180 Pls
3297 4183 Pls
5023 4426 Pls
6749 4424 Pls
1570 3757 Pls
3297 3897 Pls
5023 4353 Pls
6749 4317 Pls
1570 3508 Pls
3297 3940 Pls
5023 3969 Pls
6749 4210 Pls
1570 3226 Pls
3297 3515 Pls
5023 3931 Pls
6749 4112 Pls
1570 2477 Pls
3297 3575 Pls
5023 3993 Pls
6749 4114 Pls
1570 2650 Pls
3297 3727 Pls
5023 3639 Pls
6749 4203 Pls
1570 4426 Pls
3297 4130 Pls
5023 4144 Pls
6749 4025 Pls
1570 4366 Pls
3297 4258 Pls
5023 4001 Pls
6749 4131 Pls
1570 4343 Pls
3297 4035 Pls
5023 3983 Pls
6749 4142 Pls
1570 4311 Pls
3297 4233 Pls
5023 4070 Pls
6749 4149 Pls
1570 4284 Pls
3297 4117 Pls
5023 4019 Pls
6749 4035 Pls
1570 3214 Pls
3297 3612 Pls
5023 4132 Pls
6749 3900 Pls
1570 2454 Pls
3297 3319 Pls
5023 3627 Pls
6749 3780 Pls
1570 2428 Pls
3297 2914 Pls
5023 3517 Pls
6749 3705 Pls
1570 2095 Pls
3297 2790 Pls
5023 3611 Pls
6749 3481 Pls
1570 1892 Pls
3297 2561 Pls
5023 3261 Pls
6749 3429 Pls
1570 4264 Pls
3297 4026 Pls
5023 3790 Pls
6749 3703 Pls
1570 4470 Pls
3297 4143 Pls
5023 3877 Pls
6749 3872 Pls
1570 4402 Pls
3297 4122 Pls
5023 3918 Pls
6749 3951 Pls
1570 4335 Pls
3297 3821 Pls
5023 3970 Pls
6749 4026 Pls
1570 4232 Pls
3297 4182 Pls
5023 4171 Pls
6749 3966 Pls
1570 2803 Pls
3297 3184 Pls
5023 3453 Pls
6749 3713 Pls
1570 2248 Pls
3297 2712 Pls
5023 3200 Pls
6749 3580 Pls
1570 1706 Pls
3297 2475 Pls
5023 3035 Pls
6749 3160 Pls
1570 1484 Pls
3297 2402 Pls
5023 2718 Pls
6749 3071 Pls
1570 1399 Pls
3297 2065 Pls
5023 2677 Pls
6749 3063 Pls
1570 4573 Pls
3297 3914 Pls
5023 3440 Pls
6749 3659 Pls
1570 4588 Pls
3297 3950 Pls
5023 3768 Pls
6749 3608 Pls
1570 4684 Pls
3297 4118 Pls
5023 3745 Pls
6749 3656 Pls
1570 4521 Pls
3297 4009 Pls
5023 3873 Pls
6749 3655 Pls
1570 4386 Pls
3297 4014 Pls
5023 3889 Pls
6749 3861 Pls
1570 2291 Pls
3297 2789 Pls
5023 3145 Pls
6749 3334 Pls
1570 1763 Pls
3297 2364 Pls
5023 2702 Pls
6749 3058 Pls
1570 1267 Pls
3297 2059 Pls
5023 2498 Pls
6749 2877 Pls
1570 1174 Pls
3297 1864 Pls
5023 2365 Pls
6749 2802 Pls
1570 1132 Pls
3297 1712 Pls
5023 2156 Pls
6749 2558 Pls
1570 4445 Pls
3297 4506 Pls
5023 4450 Pls
6749 4618 Pls
1570 4542 Pls
3297 4664 Pls
5023 4570 Pls
6749 4644 Pls
1570 4475 Pls
3297 4414 Pls
5023 4549 Pls
6749 4622 Pls
1570 4548 Pls
3297 4462 Pls
5023 4614 Pls
6749 4644 Pls
1570 4343 Pls
3297 4409 Pls
5023 4653 Pls
6749 4617 Pls
1570 3825 Pls
3297 4226 Pls
5023 4389 Pls
6749 4642 Pls
1570 3982 Pls
3297 4392 Pls
5023 4501 Pls
6749 4545 Pls
1570 4209 Pls
3297 4615 Pls
5023 4480 Pls
6749 4691 Pls
1570 4005 Pls
3297 4461 Pls
5023 4538 Pls
6749 4630 Pls
1570 4001 Pls
3297 4449 Pls
5023 4611 Pls
6749 4655 Pls
1570 4635 Pls
3297 4304 Pls
5023 4307 Pls
6749 4333 Pls
1570 4609 Pls
3297 4359 Pls
5023 4340 Pls
6749 4391 Pls
1570 4395 Pls
3297 4432 Pls
5023 4521 Pls
6749 4388 Pls
1570 4522 Pls
3297 4306 Pls
5023 4401 Pls
6749 4371 Pls
1570 4475 Pls
3297 4368 Pls
5023 4539 Pls
6749 4437 Pls
1570 3587 Pls
3297 4308 Pls
5023 4241 Pls
6749 4487 Pls
1570 3614 Pls
3297 4153 Pls
5023 4410 Pls
6749 4289 Pls
1570 3385 Pls
3297 3817 Pls
5023 4288 Pls
6749 4291 Pls
1570 3411 Pls
3297 3880 Pls
5023 4123 Pls
6749 4290 Pls
1570 2949 Pls
3297 3564 Pls
5023 4002 Pls
6749 4136 Pls
1570 4090 Pls
3297 4424 Pls
5023 4209 Pls
6749 4134 Pls
1570 4323 Pls
3297 4468 Pls
5023 4203 Pls
6749 4189 Pls
1570 4293 Pls
3297 4152 Pls
5023 4065 Pls
6749 4321 Pls
1570 4578 Pls
3297 4361 Pls
5023 4367 Pls
6749 4226 Pls
1570 4527 Pls
3297 4357 Pls
5023 4378 Pls
6749 4328 Pls
1570 4012 Pls
3297 3923 Pls
5023 4235 Pls
6749 4090 Pls
1570 2711 Pls
3297 3868 Pls
5023 4106 Pls
6749 4087 Pls
1570 2490 Pls
3297 3560 Pls
5023 3747 Pls
6749 3981 Pls
1570 2763 Pls
3297 3357 Pls
5023 3648 Pls
6749 3765 Pls
1570 2485 Pls
3297 3178 Pls
5023 3453 Pls
6749 3593 Pls
1570 4633 Pls
3297 4195 Pls
5023 3980 Pls
6749 4086 Pls
1570 4567 Pls
3297 4151 Pls
5023 4035 Pls
6749 3988 Pls
1570 4511 Pls
3297 4208 Pls
5023 4027 Pls
6749 4053 Pls
1570 4553 Pls
3297 4385 Pls
5023 4098 Pls
6749 4099 Pls
1570 4398 Pls
3297 4360 Pls
5023 4242 Pls
6749 4106 Pls
1570 3082 Pls
3297 3673 Pls
5023 3893 Pls
6749 3762 Pls
1570 2496 Pls
3297 2951 Pls
5023 3411 Pls
6749 3662 Pls
1570 2142 Pls
3297 2783 Pls
5023 3533 Pls
6749 3765 Pls
1570 1950 Pls
3297 2874 Pls
5023 3136 Pls
6749 3333 Pls
1570 1642 Pls
3297 2590 Pls
5023 3075 Pls
6749 3384 Pls
1570 4492 Pls
3297 3875 Pls
5023 4002 Pls
6749 3877 Pls
1570 4441 Pls
3297 4153 Pls
5023 3989 Pls
6749 3849 Pls
1570 4536 Pls
3297 4115 Pls
5023 4096 Pls
6749 3802 Pls
1570 4357 Pls
3297 4236 Pls
5023 4046 Pls
6749 4148 Pls
1570 4374 Pls
3297 4256 Pls
5023 4193 Pls
6749 3984 Pls
1570 2767 Pls
3297 3233 Pls
5023 3467 Pls
6749 3645 Pls
1570 1909 Pls
3297 2803 Pls
5023 3077 Pls
6749 3371 Pls
1570 1466 Pls
3297 2424 Pls
5023 2846 Pls
6749 3272 Pls
1570 1413 Pls
3297 2217 Pls
5023 2622 Pls
6749 2950 Pls
1570 1367 Pls
3297 1948 Pls
5023 2621 Pls
6749 2783 Pls
1570 4540 Pls
3297 4462 Pls
5023 4637 Pls
6749 4621 Pls
1570 4498 Pls
3297 4579 Pls
5023 4539 Pls
6749 4590 Pls
1570 4481 Pls
3297 4292 Pls
5023 4606 Pls
6749 4604 Pls
1570 4464 Pls
3297 4430 Pls
5023 4596 Pls
6749 4640 Pls
1570 4379 Pls
3297 4567 Pls
5023 4529 Pls
6749 4556 Pls
1570 4105 Pls
3297 4323 Pls
5023 4411 Pls
6749 4715 Pls
1570 3847 Pls
3297 4450 Pls
5023 4496 Pls
6749 4642 Pls
1570 4085 Pls
3297 4441 Pls
5023 4563 Pls
6749 4690 Pls
1570 4300 Pls
3297 4482 Pls
5023 4404 Pls
6749 4679 Pls
1570 3916 Pls
3297 4343 Pls
5023 4530 Pls
6749 4618 Pls
1570 4673 Pls
3297 4450 Pls
5023 4475 Pls
6749 4440 Pls
1570 4464 Pls
3297 4381 Pls
5023 4504 Pls
6749 4404 Pls
1570 4430 Pls
3297 4435 Pls
5023 4408 Pls
6749 4310 Pls
1570 4666 Pls
3297 4559 Pls
5023 4504 Pls
6749 4497 Pls
1570 4501 Pls
3297 4353 Pls
5023 4514 Pls
6749 4449 Pls
1570 4039 Pls
3297 4121 Pls
5023 4226 Pls
6749 4507 Pls
1570 3493 Pls
3297 4127 Pls
5023 4388 Pls
6749 4434 Pls
1570 3838 Pls
3297 4032 Pls
5023 4201 Pls
6749 4374 Pls
1570 3683 Pls
3297 3825 Pls
5023 4069 Pls
6749 4346 Pls
1570 3005 Pls
3297 3798 Pls
5023 4209 Pls
6749 4260 Pls
1570 4461 Pls
3297 4203 Pls
5023 4297 Pls
6749 4228 Pls
1570 4279 Pls
3297 4267 Pls
5023 4380 Pls
6749 4304 Pls
1570 4486 Pls
3297 4429 Pls
5023 4399 Pls
6749 4371 Pls
1570 4626 Pls
3297 4390 Pls
5023 4340 Pls
6749 4360 Pls
1570 4496 Pls
3297 4671 Pls
5023 4291 Pls
6749 4409 Pls
1570 3686 Pls
3297 4070 Pls
5023 4113 Pls
6749 4207 Pls
1570 3393 Pls
3297 3621 Pls
5023 4102 Pls
6749 4166 Pls
1570 2775 Pls
3297 3697 Pls
5023 3748 Pls
6749 4031 Pls
1570 2864 Pls
3297 3536 Pls
5023 3869 Pls
6749 4098 Pls
1570 2503 Pls
3297 3222 Pls
5023 3791 Pls
6749 3986 Pls
1570 4549 Pls
3297 4198 Pls
5023 4166 Pls
6749 4301 Pls
1570 4593 Pls
3297 4507 Pls
5023 4275 Pls
6749 4075 Pls
1570 4549 Pls
3297 4262 Pls
5023 4303 Pls
6749 4173 Pls
1570 4355 Pls
3297 4289 Pls
5023 4082 Pls
6749 4114 Pls
1570 4109 Pls
3297 4367 Pls
5023 4358 Pls
6749 4346 Pls
1570 3332 Pls
3297 3757 Pls
5023 3911 Pls
6749 3991 Pls
1570 2913 Pls
3297 3428 Pls
5023 3732 Pls
6749 3908 Pls
1570 2433 Pls
3297 3139 Pls
5023 3604 Pls
6749 3493 Pls
1570 2269 Pls
3297 3094 Pls
5023 3304 Pls
6749 3825 Pls
1570 1905 Pls
3297 2634 Pls
5023 3174 Pls
6749 3560 Pls
1570 4651 Pls
3297 4363 Pls
5023 4177 Pls
6749 3967 Pls
1570 4419 Pls
3297 4217 Pls
5023 3865 Pls
6749 4227 Pls
1570 4487 Pls
3297 4421 Pls
5023 4121 Pls
6749 4068 Pls
1570 4676 Pls
3297 4305 Pls
5023 4260 Pls
6749 4204 Pls
1570 4455 Pls
3297 4184 Pls
5023 4204 Pls
6749 4173 Pls
1570 2905 Pls
3297 3499 Pls
5023 3612 Pls
6749 3707 Pls
1570 2295 Pls
3297 3278 Pls
5023 3458 Pls
6749 3588 Pls
1570 1866 Pls
3297 2698 Pls
5023 3254 Pls
6749 3254 Pls
1570 1836 Pls
3297 2607 Pls
5023 3105 Pls
6749 3027 Pls
1570 1665 Pls
3297 2370 Pls
5023 2759 Pls
6749 3033 Pls
1570 4491 Pls
3297 4548 Pls
5023 4573 Pls
6749 4637 Pls
1570 4505 Pls
3297 4530 Pls
5023 4509 Pls
6749 4608 Pls
1570 4553 Pls
3297 4527 Pls
5023 4462 Pls
6749 4648 Pls
1570 4273 Pls
3297 4534 Pls
5023 4628 Pls
6749 4708 Pls
1570 4034 Pls
3297 4549 Pls
5023 4649 Pls
6749 4605 Pls
1570 4260 Pls
3297 4397 Pls
5023 4576 Pls
6749 4667 Pls
1570 4109 Pls
3297 4432 Pls
5023 4609 Pls
6749 4618 Pls
1570 3824 Pls
3297 4500 Pls
5023 4542 Pls
6749 4629 Pls
1570 4219 Pls
3297 4294 Pls
5023 4607 Pls
6749 4619 Pls
1570 4154 Pls
3297 4372 Pls
5023 4541 Pls
6749 4680 Pls
1570 4586 Pls
3297 4270 Pls
5023 4513 Pls
6749 4486 Pls
1570 4613 Pls
3297 4404 Pls
5023 4388 Pls
6749 4438 Pls
1570 4583 Pls
3297 4511 Pls
5023 4426 Pls
6749 4488 Pls
1570 4442 Pls
3297 4428 Pls
5023 4399 Pls
6749 4548 Pls
1570 4410 Pls
3297 4492 Pls
5023 4417 Pls
6749 4477 Pls
1570 3943 Pls
3297 4171 Pls
5023 4466 Pls
6749 4427 Pls
1570 4005 Pls
3297 4210 Pls
5023 4404 Pls
6749 4571 Pls
1570 3541 Pls
3297 3902 Pls
5023 4348 Pls
6749 4531 Pls
1570 3577 Pls
3297 4308 Pls
5023 4472 Pls
6749 4408 Pls
1570 3601 Pls
3297 4212 Pls
5023 4287 Pls
6749 4411 Pls
1570 4615 Pls
3297 4489 Pls
5023 4243 Pls
6749 4264 Pls
1570 4594 Pls
3297 4385 Pls
5023 4310 Pls
6749 4439 Pls
1570 4539 Pls
3297 4439 Pls
5023 4336 Pls
6749 4391 Pls
1570 4504 Pls
3297 4553 Pls
5023 4208 Pls
6749 4487 Pls
1570 4441 Pls
3297 4275 Pls
5023 4465 Pls
6749 4426 Pls
1570 3632 Pls
3297 3970 Pls
5023 4258 Pls
6749 4369 Pls
1570 3602 Pls
3297 3975 Pls
5023 4080 Pls
6749 4247 Pls
1570 3040 Pls
3297 3861 Pls
5023 3892 Pls
6749 3976 Pls
1570 2654 Pls
3297 3540 Pls
5023 3926 Pls
6749 3965 Pls
1570 2530 Pls
3297 3600 Pls
5023 3771 Pls
6749 4066 Pls
1570 4519 Pls
3297 4437 Pls
5023 4159 Pls
6749 4194 Pls
1570 4526 Pls
3297 4511 Pls
5023 4232 Pls
6749 4252 Pls
1570 4588 Pls
3297 4144 Pls
5023 4240 Pls
6749 4337 Pls
1570 4672 Pls
3297 4326 Pls
5023 4396 Pls
6749 4356 Pls
1570 4382 Pls
3297 4352 Pls
5023 4315 Pls
6749 4476 Pls
1570 3549 Pls
3297 4007 Pls
5023 3790 Pls
6749 4005 Pls
1570 2966 Pls
3297 3637 Pls
5023 3742 Pls
6749 3944 Pls
1570 2820 Pls
3297 3360 Pls
5023 3715 Pls
6749 3963 Pls
1570 2097 Pls
3297 2786 Pls
5023 3783 Pls
6749 3924 Pls
1570 2317 Pls
3297 2873 Pls
5023 3454 Pls
6749 3711 Pls
1570 4617 Pls
3297 4119 Pls
5023 4202 Pls
6749 4146 Pls
1570 4630 Pls
3297 4301 Pls
5023 4134 Pls
6749 4145 Pls
1570 4673 Pls
3297 4431 Pls
5023 4309 Pls
6749 4277 Pls
1570 4357 Pls
3297 4393 Pls
5023 4407 Pls
6749 4153 Pls
1570 4312 Pls
3297 4277 Pls
5023 4223 Pls
6749 4145 Pls
1570 3008 Pls
3297 3812 Pls
5023 3868 Pls
6749 3945 Pls
1570 2707 Pls
3297 3078 Pls
5023 3669 Pls
6749 3618 Pls
1570 2192 Pls
3297 3024 Pls
5023 3254 Pls
6749 3657 Pls
1570 1980 Pls
3297 2845 Pls
5023 3232 Pls
6749 3485 Pls
1570 1579 Pls
3297 2713 Pls
5023 3030 Pls
6749 3209 Pls
1570 4608 Pls
3297 4516 Pls
5023 4600 Pls
6749 4665 Pls
1570 4446 Pls
3297 4554 Pls
5023 4570 Pls
6749 4646 Pls
1570 4514 Pls
3297 4553 Pls
5023 4584 Pls
6749 4602 Pls
1570 4139 Pls
3297 4634 Pls
5023 4522 Pls
6749 4622 Pls
1570 4373 Pls
3297 4617 Pls
5023 4539 Pls
6749 4673 Pls
1570 4213 Pls
3297 4334 Pls
5023 4589 Pls
6749 4666 Pls
1570 3976 Pls
3297 4581 Pls
5023 4544 Pls
6749 4630 Pls
1570 3990 Pls
3297 4468 Pls
5023 4609 Pls
6749 4642 Pls
1570 4205 Pls
3297 4338 Pls
5023 4449 Pls
6749 4656 Pls
1570 4172 Pls
3297 4408 Pls
5023 4452 Pls
6749 4592 Pls
1570 4567 Pls
3297 4551 Pls
5023 4510 Pls
6749 4574 Pls
1570 4499 Pls
3297 4618 Pls
5023 4455 Pls
6749 4529 Pls
1570 4515 Pls
3297 4489 Pls
5023 4564 Pls
6749 4536 Pls
1570 4539 Pls
3297 4557 Pls
5023 4455 Pls
6749 4564 Pls
1570 4338 Pls
3297 4566 Pls
5023 4447 Pls
6749 4613 Pls
1570 3918 Pls
3297 4495 Pls
5023 4356 Pls
6749 4488 Pls
1570 4676 Pls
3297 4205 Pls
5023 4344 Pls
6749 4402 Pls
1570 3499 Pls
3297 4265 Pls
5023 4402 Pls
6749 4402 Pls
1570 3552 Pls
3297 4187 Pls
5023 4365 Pls
6749 4399 Pls
1570 3446 Pls
3297 4253 Pls
5023 4311 Pls
6749 4475 Pls
1570 4633 Pls
3297 4531 Pls
5023 4407 Pls
6749 4449 Pls
1570 4436 Pls
3297 4415 Pls
5023 4313 Pls
6749 4541 Pls
1570 4673 Pls
3297 4603 Pls
5023 4357 Pls
6749 4482 Pls
1570 4512 Pls
3297 4507 Pls
5023 4424 Pls
6749 4458 Pls
1570 4413 Pls
3297 4592 Pls
5023 4445 Pls
6749 4488 Pls
1570 3930 Pls
3297 4295 Pls
5023 4376 Pls
6749 4169 Pls
1570 3905 Pls
3297 3941 Pls
5023 4260 Pls
6749 4307 Pls
1570 3143 Pls
3297 3835 Pls
5023 4194 Pls
6749 4378 Pls
1570 2770 Pls
3297 3937 Pls
5023 4408 Pls
6749 4089 Pls
1570 3024 Pls
3297 3807 Pls
5023 4019 Pls
6749 4162 Pls
1570 4680 Pls
3297 4431 Pls
5023 4434 Pls
6749 4263 Pls
1570 4684 Pls
3297 4478 Pls
5023 4323 Pls
6749 4299 Pls
1570 4657 Pls
3297 4436 Pls
5023 4430 Pls
6749 4412 Pls
1570 4302 Pls
3297 4261 Pls
5023 4373 Pls
6749 4316 Pls
1570 4396 Pls
3297 4129 Pls
5023 4393 Pls
6749 4336 Pls
1570 3779 Pls
3297 4143 Pls
5023 4067 Pls
6749 4331 Pls
1570 3280 Pls
3297 3674 Pls
5023 4031 Pls
6749 4116 Pls
1570 2960 Pls
3297 3519 Pls
5023 3847 Pls
6749 3845 Pls
1570 2582 Pls
3297 3168 Pls
5023 3669 Pls
6749 3746 Pls
1570 2250 Pls
3297 3203 Pls
5023 3412 Pls
6749 3840 Pls
1570 4626 Pls
3297 4459 Pls
5023 4219 Pls
6749 4172 Pls
1570 4617 Pls
3297 4369 Pls
5023 4154 Pls
6749 4251 Pls
1570 4661 Pls
3297 4317 Pls
5023 4374 Pls
6749 4167 Pls
1570 4508 Pls
3297 4249 Pls
5023 4274 Pls
6749 4189 Pls
1570 4455 Pls
3297 4363 Pls
5023 4444 Pls
6749 4348 Pls
1570 3431 Pls
3297 3808 Pls
5023 3898 Pls
6749 4036 Pls
1570 3129 Pls
3297 3309 Pls
5023 3860 Pls
6749 3913 Pls
1570 2589 Pls
3297 2954 Pls
5023 3482 Pls
6749 3681 Pls
1570 2014 Pls
3297 2855 Pls
5023 3274 Pls
6749 3608 Pls
1570 1697 Pls
3297 2795 Pls
5023 3015 Pls
6749 3460 Pls
1570 4603 Pls
3297 4632 Pls
5023 4505 Pls
6749 4655 Pls
1570 4550 Pls
3297 4513 Pls
5023 4605 Pls
6749 4699 Pls
1570 4327 Pls
3297 4521 Pls
5023 4654 Pls
6749 4686 Pls
1570 4617 Pls
3297 4418 Pls
5023 4619 Pls
6749 4621 Pls
1570 4366 Pls
3297 4424 Pls
5023 4593 Pls
6749 4662 Pls
1570 4037 Pls
3297 4475 Pls
5023 4559 Pls
6749 4654 Pls
1570 4489 Pls
3297 4358 Pls
5023 4508 Pls
6749 4667 Pls
1570 4343 Pls
3297 4513 Pls
5023 4606 Pls
6749 4643 Pls
1570 4155 Pls
3297 4470 Pls
5023 4658 Pls
6749 4556 Pls
1570 4247 Pls
3297 4664 Pls
5023 4527 Pls
6749 4642 Pls
1570 4705 Pls
3297 4577 Pls
5023 4523 Pls
6749 4545 Pls
1570 4382 Pls
3297 4556 Pls
5023 4583 Pls
6749 4567 Pls
1570 4378 Pls
3297 4466 Pls
5023 4684 Pls
6749 4523 Pls
1570 4699 Pls
3297 4413 Pls
5023 4485 Pls
6749 4609 Pls
1570 4415 Pls
3297 4489 Pls
5023 4446 Pls
6749 4511 Pls
1570 4255 Pls
3297 4347 Pls
5023 4473 Pls
6749 4543 Pls
1570 4087 Pls
3297 4068 Pls
5023 4534 Pls
6749 4449 Pls
1570 3658 Pls
3297 4274 Pls
5023 4498 Pls
6749 4533 Pls
1570 3726 Pls
3297 4315 Pls
5023 4368 Pls
6749 4508 Pls
1570 3776 Pls
3297 4213 Pls
5023 4309 Pls
6749 4487 Pls
1570 4539 Pls
3297 4512 Pls
5023 4445 Pls
6749 4497 Pls
1570 4666 Pls
3297 4484 Pls
5023 4464 Pls
6749 4451 Pls
1570 4563 Pls
3297 4454 Pls
5023 4434 Pls
6749 4472 Pls
1570 4576 Pls
3297 4589 Pls
5023 4529 Pls
6749 4521 Pls
1570 4539 Pls
3297 4340 Pls
5023 4470 Pls
6749 4464 Pls
1570 3473 Pls
3297 4298 Pls
5023 4382 Pls
6749 4416 Pls
1570 3818 Pls
3297 4179 Pls
5023 4138 Pls
6749 4448 Pls
1570 3553 Pls
3297 3971 Pls
5023 4120 Pls
6749 4333 Pls
1570 3261 Pls
3297 3843 Pls
5023 4208 Pls
6749 4166 Pls
1570 3205 Pls
3297 3593 Pls
5023 4023 Pls
6749 4275 Pls
1570 4455 Pls
3297 4313 Pls
5023 4487 Pls
6749 4341 Pls
1570 4579 Pls
3297 4396 Pls
5023 4357 Pls
6749 4315 Pls
1570 4530 Pls
3297 4408 Pls
5023 4420 Pls
6749 4254 Pls
1570 4533 Pls
3297 4545 Pls
5023 4333 Pls
6749 4289 Pls
1570 4453 Pls
3297 4472 Pls
5023 4544 Pls
6749 4396 Pls
1570 4049 Pls
3297 3888 Pls
5023 4271 Pls
6749 4349 Pls
1570 3141 Pls
3297 3877 Pls
5023 3852 Pls
6749 4116 Pls
1570 3080 Pls
3297 3893 Pls
5023 3613 Pls
6749 4036 Pls
1570 2628 Pls
3297 3388 Pls
5023 3801 Pls
6749 3930 Pls
1570 2258 Pls
3297 3111 Pls
5023 3483 Pls
6749 3736 Pls
1570 4618 Pls
3297 4516 Pls
5023 4188 Pls
6749 4225 Pls
1570 4413 Pls
3297 4381 Pls
5023 4274 Pls
6749 4308 Pls
1570 4276 Pls
3297 4369 Pls
5023 4094 Pls
6749 4259 Pls
1570 4643 Pls
3297 4253 Pls
5023 4371 Pls
6749 4257 Pls
1570 4469 Pls
3297 4445 Pls
5023 4421 Pls
6749 4491 Pls
1570 3282 Pls
3297 3895 Pls
5023 3960 Pls
6749 4130 Pls
1570 3214 Pls
3297 3614 Pls
5023 3759 Pls
6749 3906 Pls
1570 2682 Pls
3297 3102 Pls
5023 3459 Pls
6749 3946 Pls
1570 2409 Pls
3297 2982 Pls
5023 3514 Pls
6749 3728 Pls
1570 2113 Pls
3297 2965 Pls
5023 3380 Pls
6749 3452 Pls
1570 4661 Pls
3297 4549 Pls
5023 4581 Pls
6749 4564 Pls
1570 4573 Pls
3297 4648 Pls
5023 4671 Pls
6749 4657 Pls
1570 4485 Pls
3297 4684 Pls
5023 4615 Pls
6749 4569 Pls
1570 4642 Pls
3297 4500 Pls
5023 4671 Pls
6749 4662 Pls
1570 4603 Pls
3297 4517 Pls
5023 4647 Pls
6749 4638 Pls
1570 4359 Pls
3297 4509 Pls
5023 4608 Pls
6749 4667 Pls
1570 4440 Pls
3297 4581 Pls
5023 4674 Pls
6749 4691 Pls
1570 4213 Pls
3297 4615 Pls
5023 4494 Pls
6749 4643 Pls
1570 4393 Pls
3297 4610 Pls
5023 4580 Pls
6749 4605 Pls
1570 4251 Pls
3297 4381 Pls
5023 4576 Pls
6749 4567 Pls
1570 4661 Pls
3297 4405 Pls
5023 4538 Pls
6749 4497 Pls
1570 4347 Pls
3297 4504 Pls
5023 4448 Pls
6749 4569 Pls
1570 4621 Pls
3297 4535 Pls
5023 4523 Pls
6749 4526 Pls
1570 4469 Pls
3297 4490 Pls
5023 4464 Pls
6749 4615 Pls
1570 4538 Pls
3297 4463 Pls
5023 4440 Pls
6749 4576 Pls
1570 4260 Pls
3297 4373 Pls
5023 4488 Pls
6749 4554 Pls
1570 4271 Pls
3297 4384 Pls
5023 4353 Pls
6749 4456 Pls
1570 3988 Pls
3297 4344 Pls
5023 4325 Pls
6749 4499 Pls
1570 3898 Pls
3297 4291 Pls
5023 4388 Pls
6749 4581 Pls
1570 3529 Pls
3297 4366 Pls
5023 4355 Pls
6749 4482 Pls
1570 4680 Pls
3297 4419 Pls
5023 4448 Pls
6749 4354 Pls
1570 4409 Pls
3297 4484 Pls
5023 4466 Pls
6749 4465 Pls
1570 4637 Pls
3297 4456 Pls
5023 4388 Pls
6749 4530 Pls
1570 4398 Pls
3297 4399 Pls
5023 4594 Pls
6749 4524 Pls
1570 4464 Pls
3297 4469 Pls
5023 4533 Pls
6749 4419 Pls
1570 4381 Pls
3297 4295 Pls
5023 4326 Pls
6749 4518 Pls
1570 3737 Pls
3297 4324 Pls
5023 4213 Pls
6749 4479 Pls
1570 3714 Pls
3297 3980 Pls
5023 4145 Pls
6749 4388 Pls
1570 3512 Pls
3297 4087 Pls
5023 4026 Pls
6749 4352 Pls
1570 3634 Pls
3297 3673 Pls
5023 4141 Pls
6749 4353 Pls
1570 4603 Pls
3297 4454 Pls
5023 4279 Pls
6749 4398 Pls
1570 4659 Pls
3297 4418 Pls
5023 4342 Pls
6749 4309 Pls
1570 4603 Pls
3297 4426 Pls
5023 4452 Pls
6749 4387 Pls
1570 4540 Pls
3297 4472 Pls
5023 4467 Pls
6749 4400 Pls
1570 4268 Pls
3297 4566 Pls
5023 4528 Pls
6749 4579 Pls
1570 4421 Pls
3297 4211 Pls
5023 4308 Pls
6749 4318 Pls
1570 3650 Pls
3297 3844 Pls
5023 4207 Pls
6749 4253 Pls
1570 3226 Pls
3297 3779 Pls
5023 4032 Pls
6749 4098 Pls
1570 2515 Pls
3297 3581 Pls
5023 3680 Pls
6749 3903 Pls
1570 2538 Pls
3297 3688 Pls
5023 3711 Pls
6749 4002 Pls
1570 4582 Pls
3297 4455 Pls
5023 4249 Pls
6749 4240 Pls
1570 4616 Pls
3297 4486 Pls
5023 4437 Pls
6749 4291 Pls
1570 4507 Pls
3297 4519 Pls
5023 4422 Pls
6749 4304 Pls
1570 4647 Pls
3297 4460 Pls
5023 4363 Pls
6749 4370 Pls
1570 4456 Pls
3297 4439 Pls
5023 4458 Pls
6749 4406 Pls
1570 3691 Pls
3297 4133 Pls
5023 4249 Pls
6749 4053 Pls
1570 3367 Pls
3297 3378 Pls
5023 3850 Pls
6749 4058 Pls
1570 2775 Pls
3297 3480 Pls
5023 3585 Pls
6749 3683 Pls
1570 2307 Pls
3297 3145 Pls
5023 3670 Pls
6749 3799 Pls
1570 1783 Pls
3297 2960 Pls
5023 3163 Pls
6749 3639 Pls
1570 4666 Pls
3297 4578 Pls
5023 4654 Pls
6749 4618 Pls
1570 4406 Pls
3297 4653 Pls
5023 4558 Pls
6749 4662 Pls
1570 4417 Pls
3297 4567 Pls
5023 4617 Pls
6749 4688 Pls
1570 4196 Pls
3297 4572 Pls
5023 4564 Pls
6749 4633 Pls
1570 4463 Pls
3297 4530 Pls
5023 4574 Pls
6749 4662 Pls
1570 4381 Pls
3297 4615 Pls
5023 4625 Pls
6749 4642 Pls
1570 4289 Pls
3297 4500 Pls
5023 4643 Pls
6749 4630 Pls
1570 4354 Pls
3297 4664 Pls
5023 4566 Pls
6749 4656 Pls
1570 4343 Pls
3297 4578 Pls
5023 4589 Pls
6749 4667 Pls
1570 4360 Pls
3297 4377 Pls
5023 4627 Pls
6749 4606 Pls
1570 4549 Pls
3297 4601 Pls
5023 4571 Pls
6749 4604 Pls
1570 4651 Pls
3297 4365 Pls
5023 4491 Pls
6749 4547 Pls
1570 4638 Pls
3297 4491 Pls
5023 4605 Pls
6749 4554 Pls
1570 4676 Pls
3297 4469 Pls
5023 4575 Pls
6749 4622 Pls
1570 4354 Pls
3297 4472 Pls
5023 4544 Pls
6749 4485 Pls
1570 4089 Pls
3297 4447 Pls
5023 4510 Pls
6749 4558 Pls
1570 3879 Pls
3297 4406 Pls
5023 4629 Pls
6749 4475 Pls
1570 4093 Pls
3297 4399 Pls
5023 4431 Pls
6749 4575 Pls
1570 3877 Pls
3297 4355 Pls
5023 4485 Pls
6749 4542 Pls
1570 4194 Pls
3297 4454 Pls
5023 4408 Pls
6749 4540 Pls
1570 4739 Pls
3297 4494 Pls
5023 4433 Pls
6749 4465 Pls
1570 4514 Pls
3297 4534 Pls
5023 4398 Pls
6749 4490 Pls
1570 4524 Pls
3297 4373 Pls
5023 4496 Pls
6749 4500 Pls
1570 4272 Pls
3297 4503 Pls
5023 4348 Pls
6749 4534 Pls
1570 4626 Pls
3297 4603 Pls
5023 4483 Pls
6749 4561 Pls
1570 4401 Pls
3297 4363 Pls
5023 4371 Pls
6749 4480 Pls
1570 3550 Pls
3297 4068 Pls
5023 4267 Pls
6749 4312 Pls
1570 3409 Pls
3297 4148 Pls
5023 4090 Pls
6749 4313 Pls
1570 3142 Pls
3297 3843 Pls
5023 4262 Pls
6749 4287 Pls
1570 3128 Pls
3297 4058 Pls
5023 4223 Pls
6749 4359 Pls
1570 4710 Pls
3297 4546 Pls
5023 4490 Pls
6749 4515 Pls
1570 4555 Pls
3297 4515 Pls
5023 4500 Pls
6749 4400 Pls
1570 4458 Pls
3297 4431 Pls
5023 4386 Pls
6749 4489 Pls
1570 4611 Pls
3297 4359 Pls
5023 4555 Pls
6749 4468 Pls
1570 4475 Pls
3297 4474 Pls
5023 4401 Pls
6749 4434 Pls
1570 3798 Pls
3297 4120 Pls
5023 4465 Pls
6749 4311 Pls
1570 3414 Pls
3297 4158 Pls
5023 4157 Pls
6749 4324 Pls
1570 3285 Pls
3297 3737 Pls
5023 4137 Pls
6749 4250 Pls
1570 2664 Pls
3297 3677 Pls
5023 3883 Pls
6749 4151 Pls
1570 2828 Pls
3297 3588 Pls
5023 3912 Pls
6749 4063 Pls
1570 4636 Pls
3297 4421 Pls
5023 4369 Pls
6749 4359 Pls
1570 4504 Pls
3297 4573 Pls
5023 4286 Pls
6749 4371 Pls
1570 4636 Pls
3297 4392 Pls
5023 4493 Pls
6749 4496 Pls
1570 4475 Pls
3297 4402 Pls
5023 4445 Pls
6749 4437 Pls
1570 4586 Pls
3297 4326 Pls
5023 4336 Pls
6749 4475 Pls
1570 3853 Pls
3297 4129 Pls
5023 4078 Pls
6749 4069 Pls
1570 3151 Pls
3297 3678 Pls
5023 3988 Pls
6749 4152 Pls
1570 2934 Pls
3297 3542 Pls
5023 3927 Pls
6749 3800 Pls
1570 2615 Pls
3297 3540 Pls
5023 3603 Pls
6749 3752 Pls
1570 2448 Pls
3297 3152 Pls
5023 3336 Pls
6749 3773 Pls
1570 4455 Pls
3297 4600 Pls
5023 4586 Pls
6749 4603 Pls
1570 4705 Pls
3297 4491 Pls
5023 4662 Pls
6749 4655 Pls
1570 4520 Pls
3297 4617 Pls
5023 4687 Pls
6749 4631 Pls
1570 4522 Pls
3297 4495 Pls
5023 4597 Pls
6749 4602 Pls
1570 4291 Pls
3297 4476 Pls
5023 4606 Pls
6749 4601 Pls
1570 4051 Pls
3297 4369 Pls
5023 4545 Pls
6749 4642 Pls
1570 4551 Pls
3297 4574 Pls
5023 4483 Pls
6749 4579 Pls
1570 4269 Pls
3297 4355 Pls
5023 4490 Pls
6749 4642 Pls
1570 4280 Pls
3297 4590 Pls
5023 4657 Pls
6749 4628 Pls
1570 4090 Pls
3297 4529 Pls
5023 4689 Pls
6749 4592 Pls
1570 4638 Pls
3297 4467 Pls
5023 4625 Pls
6749 4526 Pls
1570 4504 Pls
3297 4604 Pls
5023 4499 Pls
6749 4549 Pls
1570 4559 Pls
3297 4487 Pls
5023 4536 Pls
6749 4571 Pls
1570 4514 Pls
3297 4531 Pls
5023 4498 Pls
6749 4627 Pls
1570 4457 Pls
3297 4631 Pls
5023 4521 Pls
6749 4531 Pls
1570 4197 Pls
3297 4280 Pls
5023 4580 Pls
6749 4632 Pls
1570 4044 Pls
3297 4343 Pls
5023 4572 Pls
6749 4430 Pls
1570 3938 Pls
3297 4288 Pls
5023 4423 Pls
6749 4514 Pls
1570 4053 Pls
3297 4324 Pls
5023 4377 Pls
6749 4451 Pls
1570 3930 Pls
3297 4407 Pls
5023 4495 Pls
6749 4589 Pls
1570 4676 Pls
3297 4474 Pls
5023 4466 Pls
6749 4491 Pls
1570 4613 Pls
3297 4514 Pls
5023 4371 Pls
6749 4514 Pls
1570 4552 Pls
3297 4544 Pls
5023 4483 Pls
6749 4506 Pls
1570 4626 Pls
3297 4399 Pls
5023 4444 Pls
6749 4541 Pls
1570 4574 Pls
3297 4642 Pls
5023 4492 Pls
6749 4501 Pls
1570 4002 Pls
3297 4381 Pls
5023 4402 Pls
6749 4360 Pls
1570 4293 Pls
3297 4357 Pls
5023 4283 Pls
6749 4267 Pls
1570 3847 Pls
3297 4120 Pls
5023 4323 Pls
6749 4400 Pls
1570 3124 Pls
3297 3435 Pls
5023 4069 Pls
6749 4288 Pls
1570 2980 Pls
3297 3855 Pls
5023 4302 Pls
6749 4228 Pls
1570 4576 Pls
3297 4452 Pls
5023 4463 Pls
6749 4550 Pls
1570 4474 Pls
3297 4606 Pls
5023 4387 Pls
6749 4317 Pls
1570 4535 Pls
3297 4524 Pls
5023 4410 Pls
6749 4454 Pls
1570 4628 Pls
3297 4458 Pls
5023 4619 Pls
6749 4375 Pls
1570 4621 Pls
3297 4611 Pls
5023 4459 Pls
6749 4423 Pls
1570 3908 Pls
3297 4000 Pls
5023 4236 Pls
6749 4379 Pls
1570 3757 Pls
3297 4017 Pls
5023 4294 Pls
6749 4284 Pls
1570 3727 Pls
3297 3823 Pls
5023 4110 Pls
6749 4374 Pls
1570 3318 Pls
3297 3860 Pls
5023 3936 Pls
6749 4106 Pls
1570 3287 Pls
3297 3589 Pls
5023 3883 Pls
6749 3911 Pls
1570 4640 Pls
3297 4510 Pls
5023 4406 Pls
6749 4380 Pls
1570 4530 Pls
3297 4534 Pls
5023 4409 Pls
6749 4412 Pls
1570 4651 Pls
3297 4322 Pls
5023 4483 Pls
6749 4431 Pls
1570 4474 Pls
3297 4433 Pls
5023 4526 Pls
6749 4439 Pls
1570 4571 Pls
3297 4342 Pls
5023 4455 Pls
6749 4389 Pls
1570 3935 Pls
3297 3957 Pls
5023 4356 Pls
6749 4314 Pls
1570 4012 Pls
3297 3663 Pls
5023 4043 Pls
6749 4061 Pls
1570 2862 Pls
3297 3632 Pls
5023 3941 Pls
6749 3900 Pls
1570 2993 Pls
3297 3484 Pls
5023 3625 Pls
6749 3727 Pls
1570 2259 Pls
3297 3411 Pls
5023 3748 Pls
6749 3690 Pls
1570 4597 Pls
3297 4516 Pls
5023 4629 Pls
6749 4616 Pls
1570 4681 Pls
3297 4563 Pls
5023 4643 Pls
6749 4678 Pls
1570 4528 Pls
3297 4629 Pls
5023 4620 Pls
6749 4665 Pls
1570 4489 Pls
3297 4426 Pls
5023 4614 Pls
6749 4640 Pls
1570 4493 Pls
3297 4490 Pls
5023 4547 Pls
6749 4577 Pls
1570 4030 Pls
3297 4633 Pls
5023 4707 Pls
6749 4632 Pls
1570 4226 Pls
3297 4512 Pls
5023 4605 Pls
6749 4643 Pls
1570 4343 Pls
3297 4595 Pls
5023 4658 Pls
6749 4691 Pls
1570 4260 Pls
3297 4472 Pls
5023 4610 Pls
6749 4642 Pls
1570 4381 Pls
3297 4453 Pls
5023 4611 Pls
6749 4618 Pls
1570 4545 Pls
3297 4653 Pls
5023 4579 Pls
6749 4601 Pls
1570 4612 Pls
3297 4595 Pls
5023 4498 Pls
6749 4643 Pls
1570 4463 Pls
3297 4515 Pls
5023 4601 Pls
6749 4562 Pls
1570 4583 Pls
3297 4602 Pls
5023 4629 Pls
6749 4577 Pls
1570 4319 Pls
3297 4527 Pls
5023 4569 Pls
6749 4583 Pls
1570 4406 Pls
3297 4309 Pls
5023 4587 Pls
6749 4655 Pls
1570 4551 Pls
3297 4556 Pls
5023 4541 Pls
6749 4599 Pls
1570 4439 Pls
3297 4449 Pls
5023 4501 Pls
6749 4602 Pls
1570 4346 Pls
3297 4511 Pls
5023 4454 Pls
6749 4574 Pls
1570 3855 Pls
3297 4536 Pls
5023 4487 Pls
6749 4552 Pls
1570 4655 Pls
3297 4586 Pls
5023 4504 Pls
6749 4586 Pls
1570 4643 Pls
3297 4560 Pls
5023 4613 Pls
6749 4609 Pls
1570 4642 Pls
3297 4504 Pls
5023 4520 Pls
6749 4546 Pls
1570 4511 Pls
3297 4525 Pls
5023 4554 Pls
6749 4604 Pls
1570 4460 Pls
3297 4463 Pls
5023 4512 Pls
6749 4561 Pls
1570 4176 Pls
3297 4567 Pls
5023 4565 Pls
6749 4543 Pls
1570 4168 Pls
3297 4339 Pls
5023 4484 Pls
6749 4565 Pls
1570 3726 Pls
3297 4216 Pls
5023 4439 Pls
6749 4372 Pls
1570 3689 Pls
3297 4128 Pls
5023 4373 Pls
6749 4502 Pls
1570 3522 Pls
3297 4424 Pls
5023 4309 Pls
6749 4444 Pls
1570 4425 Pls
3297 4499 Pls
5023 4540 Pls
6749 4563 Pls
1570 4565 Pls
3297 4578 Pls
5023 4512 Pls
6749 4562 Pls
1570 4632 Pls
3297 4588 Pls
5023 4538 Pls
6749 4474 Pls
1570 4608 Pls
3297 4564 Pls
5023 4492 Pls
6749 4526 Pls
1570 4529 Pls
3297 4554 Pls
5023 4449 Pls
6749 4589 Pls
1570 4343 Pls
3297 4401 Pls
5023 4499 Pls
6749 4510 Pls
1570 4064 Pls
3297 4165 Pls
5023 4330 Pls
6749 4467 Pls
1570 3525 Pls
3297 4079 Pls
5023 4346 Pls
6749 4467 Pls
1570 3631 Pls
3297 4135 Pls
5023 4261 Pls
6749 4333 Pls
1570 3467 Pls
3297 4019 Pls
5023 4271 Pls
6749 4366 Pls
1570 4657 Pls
3297 4528 Pls
5023 4580 Pls
6749 4573 Pls
1570 4544 Pls
3297 4642 Pls
5023 4562 Pls
6749 4555 Pls
1570 4676 Pls
3297 4590 Pls
5023 4551 Pls
6749 4601 Pls
1570 4479 Pls
3297 4617 Pls
5023 4544 Pls
6749 4603 Pls
1570 4527 Pls
3297 4495 Pls
5023 4498 Pls
6749 4467 Pls
1570 4297 Pls
3297 4381 Pls
5023 4494 Pls
6749 4395 Pls
1570 4083 Pls
3297 4349 Pls
5023 4125 Pls
6749 4436 Pls
1570 3718 Pls
3297 4178 Pls
5023 4184 Pls
6749 4429 Pls
1570 3411 Pls
3297 3691 Pls
5023 4313 Pls
6749 4188 Pls
1570 3051 Pls
3297 3508 Pls
5023 4062 Pls
6749 4073 Pls
1570 4626 Pls
3297 4515 Pls
5023 4644 Pls
6749 4594 Pls
1570 4334 Pls
3297 4528 Pls
5023 4637 Pls
6749 4688 Pls
1570 4666 Pls
3297 4477 Pls
5023 4638 Pls
6749 4674 Pls
1570 4451 Pls
3297 4535 Pls
5023 4521 Pls
6749 4673 Pls
1570 4514 Pls
3297 4435 Pls
5023 4591 Pls
6749 4650 Pls
1570 3885 Pls
3297 4578 Pls
5023 4482 Pls
6749 4544 Pls
1570 4378 Pls
3297 4581 Pls
5023 4640 Pls
6749 4593 Pls
1570 4551 Pls
3297 4361 Pls
5023 4626 Pls
6749 4667 Pls
1570 4343 Pls
3297 4529 Pls
5023 4515 Pls
6749 4606 Pls
1570 4235 Pls
3297 4337 Pls
5023 4623 Pls
6749 4679 Pls
1570 4618 Pls
3297 4706 Pls
5023 4644 Pls
6749 4679 Pls
1570 4618 Pls
3297 4551 Pls
5023 4608 Pls
6749 4596 Pls
1570 4474 Pls
3297 4514 Pls
5023 4675 Pls
6749 4599 Pls
1570 4636 Pls
3297 4557 Pls
5023 4610 Pls
6749 4622 Pls
1570 4413 Pls
3297 4680 Pls
5023 4602 Pls
6749 4650 Pls
1570 4426 Pls
3297 4475 Pls
5023 4624 Pls
6749 4608 Pls
1570 4353 Pls
3297 4465 Pls
5023 4530 Pls
6749 4613 Pls
1570 4133 Pls
3297 4425 Pls
5023 4534 Pls
6749 4584 Pls
1570 4589 Pls
3297 4442 Pls
5023 4563 Pls
6749 4667 Pls
1570 4482 Pls
3297 4578 Pls
5023 4531 Pls
6749 4574 Pls
1570 4564 Pls
3297 4638 Pls
5023 4553 Pls
6749 4630 Pls
1570 4573 Pls
3297 4584 Pls
5023 4602 Pls
6749 4632 Pls
1570 4608 Pls
3297 4581 Pls
5023 4566 Pls
6749 4592 Pls
1570 4643 Pls
3297 4629 Pls
5023 4560 Pls
6749 4628 Pls
1570 4590 Pls
3297 4651 Pls
5023 4632 Pls
6749 4654 Pls
1570 4322 Pls
3297 4534 Pls
5023 4568 Pls
6749 4598 Pls
1570 4370 Pls
3297 4351 Pls
5023 4555 Pls
6749 4595 Pls
1570 4428 Pls
3297 4438 Pls
5023 4525 Pls
6749 4554 Pls
1570 4064 Pls
3297 4365 Pls
5023 4525 Pls
6749 4602 Pls
1570 4354 Pls
3297 4566 Pls
5023 4504 Pls
6749 4485 Pls
1570 4629 Pls
3297 4596 Pls
5023 4608 Pls
6749 4625 Pls
1570 4681 Pls
3297 4640 Pls
5023 4535 Pls
6749 4615 Pls
1570 4534 Pls
3297 4497 Pls
5023 4607 Pls
6749 4547 Pls
1570 4614 Pls
3297 4611 Pls
5023 4538 Pls
6749 4590 Pls
1570 4549 Pls
3297 4611 Pls
5023 4532 Pls
6749 4579 Pls
1570 4354 Pls
3297 4309 Pls
5023 4595 Pls
6749 4498 Pls
1570 4049 Pls
3297 4284 Pls
5023 4525 Pls
6749 4465 Pls
1570 3695 Pls
3297 4332 Pls
5023 4365 Pls
6749 4604 Pls
1570 4156 Pls
3297 4161 Pls
5023 4516 Pls
6749 4427 Pls
1570 3702 Pls
3297 4208 Pls
5023 4484 Pls
6749 4390 Pls
1570 4676 Pls
3297 4518 Pls
5023 4439 Pls
6749 4593 Pls
1570 4577 Pls
3297 4604 Pls
5023 4527 Pls
6749 4545 Pls
1570 4609 Pls
3297 4538 Pls
5023 4630 Pls
6749 4532 Pls
1570 4647 Pls
3297 4547 Pls
5023 4580 Pls
6749 4607 Pls
1570 4705 Pls
3297 4425 Pls
5023 4595 Pls
6749 4598 Pls
1570 4210 Pls
3297 4423 Pls
5023 4511 Pls
6749 4475 Pls
1570 4126 Pls
3297 4134 Pls
5023 4141 Pls
6749 4428 Pls
1570 4051 Pls
3297 3988 Pls
5023 4407 Pls
6749 4252 Pls
1570 3204 Pls
3297 3867 Pls
5023 4095 Pls
6749 4386 Pls
1570 3707 Pls
3297 4033 Pls
5023 4050 Pls
6749 4333 Pls
1570 4642 Pls
3297 4539 Pls
5023 4594 Pls
6749 4667 Pls
1570 4623 Pls
3297 4572 Pls
5023 4563 Pls
6749 4688 Pls
1570 4636 Pls
3297 4604 Pls
5023 4571 Pls
6749 4629 Pls
1570 4522 Pls
3297 4360 Pls
5023 4572 Pls
6749 4675 Pls
1570 4376 Pls
3297 4538 Pls
5023 4624 Pls
6749 4683 Pls
1570 4343 Pls
3297 4471 Pls
5023 4623 Pls
6749 4546 Pls
1570 4260 Pls
3297 4644 Pls
5023 4655 Pls
6749 4643 Pls
1570 4551 Pls
3297 4391 Pls
5023 4573 Pls
6749 4643 Pls
1570 4406 Pls
3297 4665 Pls
5023 4556 Pls
6749 4604 Pls
1570 4531 Pls
3297 4662 Pls
5023 4639 Pls
6749 4607 Pls
1570 4589 Pls
3297 4652 Pls
5023 4553 Pls
6749 4578 Pls
1570 4681 Pls
3297 4613 Pls
5023 4670 Pls
6749 4628 Pls
1570 4632 Pls
3297 4525 Pls
5023 4603 Pls
6749 4686 Pls
1570 4603 Pls
3297 4584 Pls
5023 4568 Pls
6749 4646 Pls
1570 4304 Pls
3297 4610 Pls
5023 4524 Pls
6749 4596 Pls
1570 4193 Pls
3297 4462 Pls
5023 4598 Pls
6749 4559 Pls
1570 4205 Pls
3297 4491 Pls
5023 4547 Pls
6749 4606 Pls
1570 4268 Pls
3297 4269 Pls
5023 4537 Pls
6749 4642 Pls
1570 4318 Pls
3297 4521 Pls
5023 4609 Pls
6749 4583 Pls
1570 4318 Pls
3297 4476 Pls
5023 4497 Pls
6749 4631 Pls
1570 4647 Pls
3297 4597 Pls
5023 4656 Pls
6749 4547 Pls
1570 4506 Pls
3297 4614 Pls
5023 4637 Pls
6749 4574 Pls
1570 4636 Pls
3297 4649 Pls
5023 4660 Pls
6749 4634 Pls
1570 4710 Pls
3297 4593 Pls
5023 4554 Pls
6749 4587 Pls
1570 4463 Pls
3297 4608 Pls
5023 4533 Pls
6749 4566 Pls
1570 4676 Pls
3297 4439 Pls
5023 4594 Pls
6749 4578 Pls
1570 4321 Pls
3297 4563 Pls
5023 4425 Pls
6749 4624 Pls
1570 4349 Pls
3297 4501 Pls
5023 4541 Pls
6749 4578 Pls
1570 4197 Pls
3297 4567 Pls
5023 4658 Pls
6749 4569 Pls
1570 3978 Pls
3297 4489 Pls
5023 4407 Pls
6749 4567 Pls
1570 4593 Pls
3297 4635 Pls
5023 4654 Pls
6749 4628 Pls
1570 4705 Pls
3297 4495 Pls
5023 4581 Pls
6749 4626 Pls
1570 4670 Pls
3297 4586 Pls
5023 4632 Pls
6749 4518 Pls
1570 4527 Pls
3297 4599 Pls
5023 4610 Pls
6749 4571 Pls
1570 4529 Pls
3297 4617 Pls
5023 4594 Pls
6749 4629 Pls
1570 4322 Pls
3297 4363 Pls
5023 4314 Pls
6749 4550 Pls
1570 4240 Pls
3297 4432 Pls
5023 4520 Pls
6749 4539 Pls
1570 3994 Pls
3297 4477 Pls
5023 4460 Pls
6749 4537 Pls
1570 4122 Pls
3297 4414 Pls
5023 4418 Pls
6749 4533 Pls
1570 3979 Pls
3297 4417 Pls
5023 4458 Pls
6749 4487 Pls
1570 4574 Pls
3297 4626 Pls
5023 4613 Pls
6749 4602 Pls
1570 4590 Pls
3297 4576 Pls
5023 4544 Pls
6749 4570 Pls
1570 4739 Pls
3297 4620 Pls
5023 4641 Pls
6749 4555 Pls
1570 4705 Pls
3297 4613 Pls
5023 4566 Pls
6749 4609 Pls
1570 4556 Pls
3297 4517 Pls
5023 4604 Pls
6749 4622 Pls
1570 4151 Pls
3297 4544 Pls
5023 4507 Pls
6749 4541 Pls
1570 4326 Pls
3297 4229 Pls
5023 4298 Pls
6749 4585 Pls
1570 4011 Pls
3297 4243 Pls
5023 4309 Pls
6749 4460 Pls
1570 3540 Pls
3297 4078 Pls
5023 4248 Pls
6749 4412 Pls
1570 3690 Pls
3297 4226 Pls
5023 4201 Pls
6749 4417 Pls
1570 4556 Pls
3297 4646 Pls
5023 4633 Pls
6749 4688 Pls
1570 4496 Pls
3297 4439 Pls
5023 4603 Pls
6749 4645 Pls
1570 4590 Pls
3297 4575 Pls
5023 4608 Pls
6749 4607 Pls
1570 4515 Pls
3297 4556 Pls
5023 4668 Pls
6749 4639 Pls
1570 4286 Pls
3297 4559 Pls
5023 4551 Pls
6749 4583 Pls
1570 4280 Pls
3297 4571 Pls
5023 4624 Pls
6749 4617 Pls
1570 4565 Pls
3297 4556 Pls
5023 4541 Pls
6749 4592 Pls
1570 4531 Pls
3297 4509 Pls
5023 4642 Pls
6749 4604 Pls
1570 4406 Pls
3297 4610 Pls
5023 4568 Pls
6749 4606 Pls
1570 4464 Pls
3297 4498 Pls
5023 4657 Pls
6749 4568 Pls
1570 4611 Pls
3297 4524 Pls
5023 4577 Pls
6749 4608 Pls
1570 4614 Pls
3297 4646 Pls
5023 4636 Pls
6749 4597 Pls
1570 4554 Pls
3297 4646 Pls
5023 4623 Pls
6749 4532 Pls
1570 4561 Pls
3297 4608 Pls
5023 4584 Pls
6749 4644 Pls
1570 4131 Pls
3297 4477 Pls
5023 4666 Pls
6749 4643 Pls
1570 4322 Pls
3297 4582 Pls
5023 4563 Pls
6749 4633 Pls
1570 4235 Pls
3297 4561 Pls
5023 4622 Pls
6749 4660 Pls
1570 4478 Pls
3297 4512 Pls
5023 4588 Pls
6749 4631 Pls
1570 4318 Pls
3297 4404 Pls
5023 4502 Pls
6749 4571 Pls
1570 4501 Pls
3297 4538 Pls
5023 4544 Pls
6749 4534 Pls
1570 4705 Pls
3297 4594 Pls
5023 4637 Pls
6749 4680 Pls
1570 4676 Pls
3297 4632 Pls
5023 4561 Pls
6749 4670 Pls
1570 4544 Pls
3297 4595 Pls
5023 4531 Pls
6749 4637 Pls
1570 4563 Pls
3297 4478 Pls
5023 4647 Pls
6749 4612 Pls
1570 4573 Pls
3297 4659 Pls
5023 4582 Pls
6749 4654 Pls
1570 4322 Pls
3297 4468 Pls
5023 4521 Pls
6749 4578 Pls
1570 4085 Pls
3297 4541 Pls
5023 4574 Pls
6749 4553 Pls
1570 4265 Pls
3297 4581 Pls
5023 4445 Pls
6749 4592 Pls
1570 4551 Pls
3297 4566 Pls
5023 4548 Pls
6749 4574 Pls
1570 3991 Pls
3297 4420 Pls
5023 4512 Pls
6749 4567 Pls
1570 4630 Pls
3297 4588 Pls
5023 4612 Pls
6749 4605 Pls
1570 4684 Pls
3297 4663 Pls
5023 4540 Pls
6749 4585 Pls
1570 4550 Pls
3297 4506 Pls
5023 4611 Pls
6749 4661 Pls
1570 4636 Pls
3297 4457 Pls
5023 4676 Pls
6749 4583 Pls
1570 4612 Pls
3297 4584 Pls
5023 4646 Pls
6749 4594 Pls
1570 4531 Pls
3297 4446 Pls
5023 4557 Pls
6749 4620 Pls
1570 4235 Pls
3297 4450 Pls
5023 4524 Pls
6749 4539 Pls
1570 4406 Pls
3297 4348 Pls
5023 4524 Pls
6749 4554 Pls
1570 4239 Pls
3297 4438 Pls
5023 4342 Pls
6749 4513 Pls
1570 4205 Pls
3297 4313 Pls
5023 4404 Pls
6749 4506 Pls
1570 4688 Pls
3297 4620 Pls
5023 4621 Pls
6749 4635 Pls
1570 4705 Pls
3297 4478 Pls
5023 4551 Pls
6749 4585 Pls
1570 4680 Pls
3297 4529 Pls
5023 4576 Pls
6749 4655 Pls
1570 4739 Pls
3297 4612 Pls
5023 4667 Pls
6749 4564 Pls
1570 4485 Pls
3297 4585 Pls
5023 4542 Pls
6749 4493 Pls
1570 4122 Pls
3297 4406 Pls
5023 4537 Pls
6749 4574 Pls
1570 3779 Pls
3297 4311 Pls
5023 4492 Pls
6749 4489 Pls
1570 3942 Pls
3297 4386 Pls
5023 4537 Pls
6749 4474 Pls
1570 3845 Pls
3297 4379 Pls
5023 4390 Pls
6749 4540 Pls
1570 3793 Pls
3297 4344 Pls
5023 4341 Pls
6749 4447 Pls
1570 4588 Pls
3297 4575 Pls
5023 4596 Pls
6749 4680 Pls
1570 4650 Pls
3297 4506 Pls
5023 4596 Pls
6749 4611 Pls
1570 4558 Pls
3297 4663 Pls
5023 4586 Pls
6749 4644 Pls
1570 4553 Pls
3297 4518 Pls
5023 4651 Pls
6749 4684 Pls
1570 4501 Pls
3297 4628 Pls
5023 4606 Pls
6749 4638 Pls
1570 4322 Pls
3297 4436 Pls
5023 4588 Pls
6749 4619 Pls
1570 4235 Pls
3297 4494 Pls
5023 4588 Pls
6749 4577 Pls
1570 4315 Pls
3297 4318 Pls
5023 4623 Pls
6749 4691 Pls
1570 4406 Pls
3297 4442 Pls
5023 4571 Pls
6749 4642 Pls
1570 4322 Pls
3297 4713 Pls
5023 4604 Pls
6749 4727 Pls
1570 4450 Pls
3297 4519 Pls
5023 4624 Pls
6749 4594 Pls
1570 4681 Pls
3297 4599 Pls
5023 4639 Pls
6749 4671 Pls
1570 4636 Pls
3297 4529 Pls
5023 4646 Pls
6749 4638 Pls
1570 4710 Pls
3297 4567 Pls
5023 4599 Pls
6749 4649 Pls
1570 4332 Pls
3297 4562 Pls
5023 4657 Pls
6749 4654 Pls
1570 3559 Pls
3297 4533 Pls
5023 4638 Pls
6749 4548 Pls
1570 4172 Pls
3297 4607 Pls
5023 4609 Pls
6749 4636 Pls
1570 4293 Pls
3297 4600 Pls
5023 4642 Pls
6749 4646 Pls
1570 4360 Pls
3297 4539 Pls
5023 4567 Pls
6749 4656 Pls
1570 4318 Pls
3297 4419 Pls
5023 4608 Pls
6749 4705 Pls
1570 4607 Pls
3297 4479 Pls
5023 4636 Pls
6749 4605 Pls
1570 4408 Pls
3297 4671 Pls
5023 4649 Pls
6749 4668 Pls
1570 4428 Pls
3297 4609 Pls
5023 4601 Pls
6749 4615 Pls
1570 4442 Pls
3297 4624 Pls
5023 4645 Pls
6749 4604 Pls
1570 4636 Pls
3297 4585 Pls
5023 4658 Pls
6749 4656 Pls
1570 4489 Pls
3297 4327 Pls
5023 4607 Pls
6749 4636 Pls
1570 4287 Pls
3297 4533 Pls
5023 4528 Pls
6749 4542 Pls
1570 4464 Pls
3297 4294 Pls
5023 4546 Pls
6749 4506 Pls
1570 4356 Pls
3297 4432 Pls
5023 4468 Pls
6749 4579 Pls
1570 4250 Pls
3297 4365 Pls
5023 4629 Pls
6749 4575 Pls
1570 4621 Pls
3297 4644 Pls
5023 4689 Pls
6749 4637 Pls
1570 4608 Pls
3297 4531 Pls
5023 4555 Pls
6749 4593 Pls
1570 4739 Pls
3297 4528 Pls
5023 4640 Pls
6749 4652 Pls
1570 4651 Pls
3297 4624 Pls
5023 4620 Pls
6749 4629 Pls
1570 4672 Pls
3297 4483 Pls
5023 4683 Pls
6749 4546 Pls
1570 4414 Pls
3297 4513 Pls
5023 4539 Pls
6749 4604 Pls
1570 4210 Pls
3297 4334 Pls
5023 4587 Pls
6749 4614 Pls
1570 4443 Pls
3297 4423 Pls
5023 4446 Pls
6749 4553 Pls
1570 3987 Pls
3297 4556 Pls
5023 4521 Pls
6749 4570 Pls
1570 4243 Pls
3297 4407 Pls
5023 4394 Pls
6749 4491 Pls
1570 4676 Pls
3297 4596 Pls
5023 4593 Pls
6749 4551 Pls
1570 4629 Pls
3297 4639 Pls
5023 4597 Pls
6749 4659 Pls
1570 4548 Pls
3297 4500 Pls
5023 4571 Pls
6749 4587 Pls
1570 4577 Pls
3297 4595 Pls
5023 4551 Pls
6749 4562 Pls
1570 4537 Pls
3297 4566 Pls
5023 4636 Pls
6749 4604 Pls
1570 4130 Pls
3297 4515 Pls
5023 4596 Pls
6749 4623 Pls
1570 4078 Pls
3297 4506 Pls
5023 4536 Pls
6749 4536 Pls
1570 4268 Pls
3297 4443 Pls
5023 4603 Pls
6749 4493 Pls
1570 4112 Pls
3297 4246 Pls
5023 4436 Pls
6749 4547 Pls
1570 4124 Pls
3297 4287 Pls
5023 4324 Pls
6749 4370 Pls
1570 4465 Pls
3297 4552 Pls
5023 4617 Pls
6749 4667 Pls
1570 4468 Pls
3297 4661 Pls
5023 4617 Pls
6749 4662 Pls
1570 4493 Pls
3297 4529 Pls
5023 4621 Pls
6749 4666 Pls
1570 4524 Pls
3297 4599 Pls
5023 4542 Pls
6749 4628 Pls
1570 4422 Pls
3297 4563 Pls
5023 4606 Pls
6749 4639 Pls
1570 4364 Pls
3297 4294 Pls
5023 4608 Pls
6749 4642 Pls
1570 4260 Pls
3297 4359 Pls
5023 4515 Pls
6749 4603 Pls
1570 4322 Pls
3297 4371 Pls
5023 4587 Pls
6749 4617 Pls
1570 4289 Pls
3297 4545 Pls
5023 4657 Pls
6749 4642 Pls
1570 4343 Pls
3297 4559 Pls
5023 4573 Pls
6749 4679 Pls
1570 4593 Pls
3297 4560 Pls
5023 4529 Pls
6749 4679 Pls
1570 4596 Pls
3297 4651 Pls
5023 4617 Pls
6749 4623 Pls
1570 4705 Pls
3297 4612 Pls
5023 4631 Pls
6749 4659 Pls
1570 4593 Pls
3297 4600 Pls
5023 4591 Pls
6749 4595 Pls
1570 4617 Pls
3297 4561 Pls
5023 4640 Pls
6749 4643 Pls
1570 4385 Pls
3297 4607 Pls
5023 4588 Pls
6749 4600 Pls
1570 4614 Pls
3297 4472 Pls
5023 4611 Pls
6749 4607 Pls
1570 4406 Pls
3297 4584 Pls
5023 4611 Pls
6749 4542 Pls
1570 4676 Pls
3297 4570 Pls
5023 4531 Pls
6749 4596 Pls
1570 4503 Pls
3297 4636 Pls
5023 4595 Pls
6749 4532 Pls
1570 4699 Pls
3297 4552 Pls
5023 4614 Pls
6749 4580 Pls
1570 4638 Pls
3297 4640 Pls
5023 4594 Pls
6749 4669 Pls
1570 4522 Pls
3297 4630 Pls
5023 4599 Pls
6749 4666 Pls
1570 4640 Pls
3297 4581 Pls
5023 4618 Pls
6749 4619 Pls
1570 4578 Pls
3297 4469 Pls
5023 4643 Pls
6749 4585 Pls
1570 4172 Pls
3297 4618 Pls
5023 4543 Pls
6749 4574 Pls
1570 4401 Pls
3297 4265 Pls
5023 4517 Pls
6749 4512 Pls
1570 4482 Pls
3297 4483 Pls
5023 4545 Pls
6749 4538 Pls
1570 4108 Pls
3297 4429 Pls
5023 4646 Pls
6749 4612 Pls
1570 4394 Pls
3297 4512 Pls
5023 4513 Pls
6749 4552 Pls
1570 4705 Pls
3297 4635 Pls
5023 4620 Pls
6749 4661 Pls
1570 4520 Pls
3297 4612 Pls
5023 4601 Pls
6749 4623 Pls
1570 4380 Pls
3297 4588 Pls
5023 4566 Pls
6749 4646 Pls
1570 4611 Pls
3297 4520 Pls
5023 4557 Pls
6749 4614 Pls
1570 4461 Pls
3297 4601 Pls
5023 4658 Pls
6749 4688 Pls
1570 4526 Pls
3297 4438 Pls
5023 4467 Pls
6749 4525 Pls
1570 4289 Pls
3297 4179 Pls
5023 4578 Pls
6749 4560 Pls
1570 4414 Pls
3297 4531 Pls
5023 4410 Pls
6749 4549 Pls
1570 4260 Pls
3297 4213 Pls
5023 4381 Pls
6749 4591 Pls
1570 4297 Pls
3297 4322 Pls
5023 4530 Pls
6749 4608 Pls
1570 4622 Pls
3297 4577 Pls
5023 4545 Pls
6749 4691 Pls
1570 4618 Pls
3297 4569 Pls
5023 4630 Pls
6749 4577 Pls
1570 4553 Pls
3297 4539 Pls
5023 4680 Pls
6749 4670 Pls
1570 4613 Pls
3297 4526 Pls
5023 4535 Pls
6749 4620 Pls
1570 4628 Pls
3297 4619 Pls
5023 4609 Pls
6749 4628 Pls
1570 4443 Pls
3297 4443 Pls
5023 4550 Pls
6749 4506 Pls
1570 3943 Pls
3297 4256 Pls
5023 4390 Pls
6749 4459 Pls
1570 4269 Pls
3297 4478 Pls
5023 4345 Pls
6749 4505 Pls
1570 4414 Pls
3297 4403 Pls
5023 4370 Pls
6749 4458 Pls
1570 3419 Pls
3297 4287 Pls
5023 4332 Pls
6749 4599 Pls
1570 4529 Pls
3297 4596 Pls
5023 4644 Pls
6749 4640 Pls
1570 4491 Pls
3297 4617 Pls
5023 4544 Pls
6749 4631 Pls
1570 4507 Pls
3297 4469 Pls
5023 4625 Pls
6749 4654 Pls
1570 4380 Pls
3297 4512 Pls
5023 4583 Pls
6749 4620 Pls
1570 4470 Pls
3297 4610 Pls
5023 4525 Pls
6749 4629 Pls
1570 4260 Pls
3297 4497 Pls
5023 4657 Pls
6749 4591 Pls
1570 4218 Pls
3297 4558 Pls
5023 4608 Pls
6749 4606 Pls
1570 4406 Pls
3297 4633 Pls
5023 4595 Pls
6749 4692 Pls
1570 4280 Pls
3297 4610 Pls
5023 4622 Pls
6749 4593 Pls
1570 4443 Pls
3297 4541 Pls
5023 4587 Pls
6749 4577 Pls
1570 4609 Pls
3297 4702 Pls
5023 4649 Pls
6749 4646 Pls
1570 4433 Pls
3297 4563 Pls
5023 4597 Pls
6749 4636 Pls
1570 4563 Pls
3297 4591 Pls
5023 4633 Pls
6749 4629 Pls
1570 4402 Pls
3297 4563 Pls
5023 4607 Pls
6749 4612 Pls
1570 4739 Pls
3297 4487 Pls
5023 4604 Pls
6749 4665 Pls
1570 4280 Pls
3297 4633 Pls
5023 4622 Pls
6749 4607 Pls
1570 4406 Pls
3297 4633 Pls
5023 4572 Pls
6749 4669 Pls
1570 4314 Pls
3297 4589 Pls
5023 4476 Pls
6749 4657 Pls
1570 4468 Pls
3297 4512 Pls
5023 4497 Pls
6749 4679 Pls
1570 4551 Pls
3297 4574 Pls
5023 4557 Pls
6749 4645 Pls
1570 4490 Pls
3297 4683 Pls
5023 4669 Pls
6749 4646 Pls
1570 4636 Pls
3297 4642 Pls
5023 4578 Pls
6749 4641 Pls
1570 4416 Pls
3297 4615 Pls
5023 4619 Pls
6749 4647 Pls
1570 4626 Pls
3297 4640 Pls
5023 4532 Pls
6749 4679 Pls
1570 4612 Pls
3297 4611 Pls
5023 4583 Pls
6749 4601 Pls
1570 4551 Pls
3297 4523 Pls
5023 4520 Pls
6749 4644 Pls
1570 4531 Pls
3297 4626 Pls
5023 4516 Pls
6749 4656 Pls
1570 4239 Pls
3297 4593 Pls
5023 4642 Pls
6749 4612 Pls
1570 4551 Pls
3297 4552 Pls
5023 4576 Pls
6749 4648 Pls
1570 4620 Pls
3297 4397 Pls
5023 4548 Pls
6749 4585 Pls
1570 4578 Pls
3297 4531 Pls
5023 4601 Pls
6749 4633 Pls
1570 4666 Pls
3297 4653 Pls
5023 4674 Pls
6749 4649 Pls
1570 4550 Pls
3297 4633 Pls
5023 4590 Pls
6749 4635 Pls
1570 4428 Pls
3297 4648 Pls
5023 4663 Pls
6749 4658 Pls
1570 4490 Pls
3297 4524 Pls
5023 4646 Pls
6749 4625 Pls
1570 4151 Pls
3297 4411 Pls
5023 4658 Pls
6749 4599 Pls
1570 4489 Pls
3297 4659 Pls
5023 4533 Pls
6749 4510 Pls
1570 4293 Pls
3297 4483 Pls
5023 4434 Pls
6749 4570 Pls
1570 4382 Pls
3297 4437 Pls
5023 4460 Pls
6749 4545 Pls
1570 4122 Pls
3297 4250 Pls
5023 4632 Pls
6749 4559 Pls
1570 4676 Pls
3297 4739 Pls
5023 4587 Pls
6749 4637 Pls
1570 4601 Pls
3297 4609 Pls
5023 4586 Pls
6749 4584 Pls
1570 4554 Pls
3297 4557 Pls
5023 4630 Pls
6749 4650 Pls
1570 4630 Pls
3297 4610 Pls
5023 4631 Pls
6749 4601 Pls
1570 4569 Pls
3297 4466 Pls
5023 4581 Pls
6749 4627 Pls
1570 4260 Pls
3297 4440 Pls
5023 4521 Pls
6749 4527 Pls
1570 4326 Pls
3297 4552 Pls
5023 4648 Pls
6749 4565 Pls
1570 4464 Pls
3297 4484 Pls
5023 4661 Pls
6749 4546 Pls
1570 4229 Pls
3297 4500 Pls
5023 4550 Pls
6749 4574 Pls
1570 4331 Pls
3297 4454 Pls
5023 4499 Pls
6749 4435 Pls
1570 4559 Pls
3297 4639 Pls
5023 4644 Pls
6749 4676 Pls
1570 4666 Pls
3297 4544 Pls
5023 4653 Pls
6749 4653 Pls
1570 4586 Pls
3297 4628 Pls
5023 4694 Pls
6749 4675 Pls
1570 4145 Pls
3297 4568 Pls
5023 4576 Pls
6749 4677 Pls
1570 4651 Pls
3297 4427 Pls
5023 4588 Pls
6749 4614 Pls
1570 4343 Pls
3297 4581 Pls
5023 4569 Pls
6749 4656 Pls
1570 4551 Pls
3297 4527 Pls
5023 4604 Pls
6749 4631 Pls
1570 4322 Pls
3297 4480 Pls
5023 4657 Pls
6749 4668 Pls
1570 4468 Pls
3297 4555 Pls
5023 4638 Pls
6749 4655 Pls
1570 4280 Pls
3297 4471 Pls
5023 4622 Pls
6749 4555 Pls
1570 4684 Pls
3297 4558 Pls
5023 4632 Pls
6749 4632 Pls
1570 4710 Pls
3297 4660 Pls
5023 4725 Pls
6749 4657 Pls
1570 4546 Pls
3297 4613 Pls
5023 4634 Pls
6749 4666 Pls
1570 4670 Pls
3297 4617 Pls
5023 4631 Pls
6749 4636 Pls
1570 4538 Pls
3297 4597 Pls
5023 4627 Pls
6749 4619 Pls
1570 4476 Pls
3297 4442 Pls
5023 4638 Pls
6749 4645 Pls
1570 4531 Pls
3297 4527 Pls
5023 4495 Pls
6749 4632 Pls
1570 4531 Pls
3297 4578 Pls
5023 4584 Pls
6749 4611 Pls
1570 4442 Pls
3297 4581 Pls
5023 4612 Pls
6749 4629 Pls
1570 4614 Pls
3297 4592 Pls
5023 4467 Pls
6749 4655 Pls
1570 4632 Pls
3297 4509 Pls
5023 4629 Pls
6749 4639 Pls
1570 4622 Pls
3297 4659 Pls
5023 4652 Pls
6749 4682 Pls
1570 4650 Pls
3297 4629 Pls
5023 4629 Pls
6749 4582 Pls
1570 4498 Pls
3297 4648 Pls
5023 4614 Pls
6749 4578 Pls
1570 4501 Pls
3297 4529 Pls
5023 4499 Pls
6749 4575 Pls
1570 4676 Pls
3297 4425 Pls
5023 4625 Pls
6749 4582 Pls
1570 4489 Pls
3297 4636 Pls
5023 4549 Pls
6749 4606 Pls
1570 3899 Pls
3297 4688 Pls
5023 4644 Pls
6749 4608 Pls
1570 4406 Pls
3297 4450 Pls
5023 4628 Pls
6749 4553 Pls
1570 4311 Pls
3297 4498 Pls
5023 4536 Pls
6749 4632 Pls
1570 4650 Pls
3297 4672 Pls
5023 4650 Pls
6749 4669 Pls
1570 4673 Pls
3297 4548 Pls
5023 4676 Pls
6749 4580 Pls
1570 4640 Pls
3297 4641 Pls
5023 4554 Pls
6749 4602 Pls
1570 4713 Pls
3297 4659 Pls
5023 4651 Pls
6749 4596 Pls
1570 4613 Pls
3297 4678 Pls
5023 4599 Pls
6749 4627 Pls
1570 4676 Pls
3297 4662 Pls
5023 4575 Pls
6749 4504 Pls
1570 4314 Pls
3297 4359 Pls
5023 4513 Pls
6749 4576 Pls
1570 4172 Pls
3297 4410 Pls
5023 4468 Pls
6749 4587 Pls
1570 4268 Pls
3297 4581 Pls
5023 4382 Pls
6749 4558 Pls
1570 4357 Pls
3297 4275 Pls
5023 4505 Pls
6749 4624 Pls
1570 4640 Pls
3297 4721 Pls
5023 4598 Pls
6749 4610 Pls
1570 4710 Pls
3297 4644 Pls
5023 4649 Pls
6749 4659 Pls
1570 4606 Pls
3297 4608 Pls
5023 4600 Pls
6749 4661 Pls
1570 4666 Pls
3297 4639 Pls
5023 4643 Pls
6749 4598 Pls
1570 4626 Pls
3297 4678 Pls
5023 4607 Pls
6749 4669 Pls
1570 4197 Pls
3297 4394 Pls
5023 4610 Pls
6749 4633 Pls
1570 4005 Pls
3297 4468 Pls
5023 4464 Pls
6749 4602 Pls
1570 4414 Pls
3297 4446 Pls
5023 4462 Pls
6749 4457 Pls
1570 4614 Pls
3297 4434 Pls
5023 4605 Pls
6749 4535 Pls
1570 4176 Pls
3297 4297 Pls
5023 4469 Pls
6749 4577 Pls
% End plot #1
% Begin plot #2
8.000 UL
LT1
LCb setrgbcolor
5636 1488 M
[ [(Helvetica) 250.0 0.0 true true 0 (Average)]
] -83.3 MRshow
LT1
5786 1488 M
663 0 V
1570 4085 M
1727 151 V
1726 82 V
1726 54 V
% End plot #2
% Begin plot #3
stroke
4.000 UL
LT2
LCb setrgbcolor
5636 1238 M
[ [(Helvetica) 250.0 0.0 true true 0 (Min)]
] -83.3 MRshow
LT2
5786 1238 M
663 0 V
1570 898 M
1727 489 V
1726 331 V
1726 380 V
% End plot #3
% Begin plot #4
stroke
LT3
LCb setrgbcolor
5636 988 M
[ [(Helvetica) 250.0 0.0 true true 0 (Max)]
] -83.3 MRshow
LT3
5786 988 M
663 0 V
1570 4739 M
1727 0 V
1726 -14 V
1726 2 V
% End plot #4
stroke
1.000 UL
LTb
1225 4739 N
0 -3939 V
5524 0 V
0 3939 V
-5524 0 V
Z stroke
1.000 UP
1.000 UL
LTb
stroke
grestore
end
showpage
%%Trailer
%%DocumentFonts: Helvetica
