%!PS-Adobe-2.0 EPSF-2.0
%%Title: n_num_segments-recall.eps
%%Creator: gnuplot 4.4 patchlevel 3
%%CreationDate: Fri Jun 14 19:20:09 2013
%%DocumentFonts: (atend)
%%BoundingBox: 50 50 410 302
%%EndComments
%%BeginProlog
/gnudict 256 dict def
gnudict begin
%
% The following true/false flags may be edited by hand if desired.
% The unit line width and grayscale image gamma correction may also be changed.
%
/Color true def
/Blacktext false def
/Solid false def
/Dashlength 1 def
/Landscape false def
/Level1 false def
/Rounded false def
/ClipToBoundingBox false def
/TransparentPatterns false def
/gnulinewidth 5.000 def
/userlinewidth gnulinewidth def
/Gamma 1.0 def
%
/vshift -83 def
/dl1 {
  10.0 Dashlength mul mul
  Rounded { currentlinewidth 0.75 mul sub dup 0 le { pop 0.01 } if } if
} def
/dl2 {
  10.0 Dashlength mul mul
  Rounded { currentlinewidth 0.75 mul add } if
} def
/hpt_ 31.5 def
/vpt_ 31.5 def
/hpt hpt_ def
/vpt vpt_ def
Level1 {} {
/SDict 10 dict def
systemdict /pdfmark known not {
  userdict /pdfmark systemdict /cleartomark get put
} if
SDict begin [
  /Title (n_num_segments-recall.eps)
  /Subject (gnuplot plot)
  /Creator (gnuplot 4.4 patchlevel 3)
  /Author (xjia)
%  /Producer (gnuplot)
%  /Keywords ()
  /CreationDate (Fri Jun 14 19:20:09 2013)
  /DOCINFO pdfmark
end
} ifelse
/doclip {
  ClipToBoundingBox {
    newpath 50 50 moveto 410 50 lineto 410 302 lineto 50 302 lineto closepath
    clip
  } if
} def
%
% Gnuplot Prolog Version 4.4 (August 2010)
%
%/SuppressPDFMark true def
%
/M {moveto} bind def
/L {lineto} bind def
/R {rmoveto} bind def
/V {rlineto} bind def
/N {newpath moveto} bind def
/Z {closepath} bind def
/C {setrgbcolor} bind def
/f {rlineto fill} bind def
/g {setgray} bind def
/Gshow {show} def   % May be redefined later in the file to support UTF-8
/vpt2 vpt 2 mul def
/hpt2 hpt 2 mul def
/Lshow {currentpoint stroke M 0 vshift R 
	Blacktext {gsave 0 setgray show grestore} {show} ifelse} def
/Rshow {currentpoint stroke M dup stringwidth pop neg vshift R
	Blacktext {gsave 0 setgray show grestore} {show} ifelse} def
/Cshow {currentpoint stroke M dup stringwidth pop -2 div vshift R 
	Blacktext {gsave 0 setgray show grestore} {show} ifelse} def
/UP {dup vpt_ mul /vpt exch def hpt_ mul /hpt exch def
  /hpt2 hpt 2 mul def /vpt2 vpt 2 mul def} def
/DL {Color {setrgbcolor Solid {pop []} if 0 setdash}
 {pop pop pop 0 setgray Solid {pop []} if 0 setdash} ifelse} def
/BL {stroke userlinewidth 2 mul setlinewidth
	Rounded {1 setlinejoin 1 setlinecap} if} def
/AL {stroke userlinewidth 2 div setlinewidth
	Rounded {1 setlinejoin 1 setlinecap} if} def
/UL {dup gnulinewidth mul /userlinewidth exch def
	dup 1 lt {pop 1} if 10 mul /udl exch def} def
/PL {stroke userlinewidth setlinewidth
	Rounded {1 setlinejoin 1 setlinecap} if} def
3.8 setmiterlimit
% Default Line colors
/LCw {1 1 1} def
/LCb {0 0 0} def
/LCa {0 0 0} def
/LC0 {1 0 0} def
/LC1 {0 1 0} def
/LC2 {0 0 1} def
/LC3 {1 0 1} def
/LC4 {0 1 1} def
/LC5 {1 1 0} def
/LC6 {0 0 0} def
/LC7 {1 0.3 0} def
/LC8 {0.5 0.5 0.5} def
% Default Line Types
/LTw {PL [] 1 setgray} def
/LTb {BL [] LCb DL} def
/LTa {AL [1 udl mul 2 udl mul] 0 setdash LCa setrgbcolor} def
/LT0 {PL [] LC0 DL} def
/LT1 {PL [4 dl1 2 dl2] LC1 DL} def
/LT2 {PL [2 dl1 3 dl2] LC2 DL} def
/LT3 {PL [1 dl1 1.5 dl2] LC3 DL} def
/LT4 {PL [6 dl1 2 dl2 1 dl1 2 dl2] LC4 DL} def
/LT5 {PL [3 dl1 3 dl2 1 dl1 3 dl2] LC5 DL} def
/LT6 {PL [2 dl1 2 dl2 2 dl1 6 dl2] LC6 DL} def
/LT7 {PL [1 dl1 2 dl2 6 dl1 2 dl2 1 dl1 2 dl2] LC7 DL} def
/LT8 {PL [2 dl1 2 dl2 2 dl1 2 dl2 2 dl1 2 dl2 2 dl1 4 dl2] LC8 DL} def
/Pnt {stroke [] 0 setdash gsave 1 setlinecap M 0 0 V stroke grestore} def
/Dia {stroke [] 0 setdash 2 copy vpt add M
  hpt neg vpt neg V hpt vpt neg V
  hpt vpt V hpt neg vpt V closepath stroke
  Pnt} def
/Pls {stroke [] 0 setdash vpt sub M 0 vpt2 V
  currentpoint stroke M
  hpt neg vpt neg R hpt2 0 V stroke
 } def
/Box {stroke [] 0 setdash 2 copy exch hpt sub exch vpt add M
  0 vpt2 neg V hpt2 0 V 0 vpt2 V
  hpt2 neg 0 V closepath stroke
  Pnt} def
/Crs {stroke [] 0 setdash exch hpt sub exch vpt add M
  hpt2 vpt2 neg V currentpoint stroke M
  hpt2 neg 0 R hpt2 vpt2 V stroke} def
/TriU {stroke [] 0 setdash 2 copy vpt 1.12 mul add M
  hpt neg vpt -1.62 mul V
  hpt 2 mul 0 V
  hpt neg vpt 1.62 mul V closepath stroke
  Pnt} def
/Star {2 copy Pls Crs} def
/BoxF {stroke [] 0 setdash exch hpt sub exch vpt add M
  0 vpt2 neg V hpt2 0 V 0 vpt2 V
  hpt2 neg 0 V closepath fill} def
/TriUF {stroke [] 0 setdash vpt 1.12 mul add M
  hpt neg vpt -1.62 mul V
  hpt 2 mul 0 V
  hpt neg vpt 1.62 mul V closepath fill} def
/TriD {stroke [] 0 setdash 2 copy vpt 1.12 mul sub M
  hpt neg vpt 1.62 mul V
  hpt 2 mul 0 V
  hpt neg vpt -1.62 mul V closepath stroke
  Pnt} def
/TriDF {stroke [] 0 setdash vpt 1.12 mul sub M
  hpt neg vpt 1.62 mul V
  hpt 2 mul 0 V
  hpt neg vpt -1.62 mul V closepath fill} def
/DiaF {stroke [] 0 setdash vpt add M
  hpt neg vpt neg V hpt vpt neg V
  hpt vpt V hpt neg vpt V closepath fill} def
/Pent {stroke [] 0 setdash 2 copy gsave
  translate 0 hpt M 4 {72 rotate 0 hpt L} repeat
  closepath stroke grestore Pnt} def
/PentF {stroke [] 0 setdash gsave
  translate 0 hpt M 4 {72 rotate 0 hpt L} repeat
  closepath fill grestore} def
/Circle {stroke [] 0 setdash 2 copy
  hpt 0 360 arc stroke Pnt} def
/CircleF {stroke [] 0 setdash hpt 0 360 arc fill} def
/C0 {BL [] 0 setdash 2 copy moveto vpt 90 450 arc} bind def
/C1 {BL [] 0 setdash 2 copy moveto
	2 copy vpt 0 90 arc closepath fill
	vpt 0 360 arc closepath} bind def
/C2 {BL [] 0 setdash 2 copy moveto
	2 copy vpt 90 180 arc closepath fill
	vpt 0 360 arc closepath} bind def
/C3 {BL [] 0 setdash 2 copy moveto
	2 copy vpt 0 180 arc closepath fill
	vpt 0 360 arc closepath} bind def
/C4 {BL [] 0 setdash 2 copy moveto
	2 copy vpt 180 270 arc closepath fill
	vpt 0 360 arc closepath} bind def
/C5 {BL [] 0 setdash 2 copy moveto
	2 copy vpt 0 90 arc
	2 copy moveto
	2 copy vpt 180 270 arc closepath fill
	vpt 0 360 arc} bind def
/C6 {BL [] 0 setdash 2 copy moveto
	2 copy vpt 90 270 arc closepath fill
	vpt 0 360 arc closepath} bind def
/C7 {BL [] 0 setdash 2 copy moveto
	2 copy vpt 0 270 arc closepath fill
	vpt 0 360 arc closepath} bind def
/C8 {BL [] 0 setdash 2 copy moveto
	2 copy vpt 270 360 arc closepath fill
	vpt 0 360 arc closepath} bind def
/C9 {BL [] 0 setdash 2 copy moveto
	2 copy vpt 270 450 arc closepath fill
	vpt 0 360 arc closepath} bind def
/C10 {BL [] 0 setdash 2 copy 2 copy moveto vpt 270 360 arc closepath fill
	2 copy moveto
	2 copy vpt 90 180 arc closepath fill
	vpt 0 360 arc closepath} bind def
/C11 {BL [] 0 setdash 2 copy moveto
	2 copy vpt 0 180 arc closepath fill
	2 copy moveto
	2 copy vpt 270 360 arc closepath fill
	vpt 0 360 arc closepath} bind def
/C12 {BL [] 0 setdash 2 copy moveto
	2 copy vpt 180 360 arc closepath fill
	vpt 0 360 arc closepath} bind def
/C13 {BL [] 0 setdash 2 copy moveto
	2 copy vpt 0 90 arc closepath fill
	2 copy moveto
	2 copy vpt 180 360 arc closepath fill
	vpt 0 360 arc closepath} bind def
/C14 {BL [] 0 setdash 2 copy moveto
	2 copy vpt 90 360 arc closepath fill
	vpt 0 360 arc} bind def
/C15 {BL [] 0 setdash 2 copy vpt 0 360 arc closepath fill
	vpt 0 360 arc closepath} bind def
/Rec {newpath 4 2 roll moveto 1 index 0 rlineto 0 exch rlineto
	neg 0 rlineto closepath} bind def
/Square {dup Rec} bind def
/Bsquare {vpt sub exch vpt sub exch vpt2 Square} bind def
/S0 {BL [] 0 setdash 2 copy moveto 0 vpt rlineto BL Bsquare} bind def
/S1 {BL [] 0 setdash 2 copy vpt Square fill Bsquare} bind def
/S2 {BL [] 0 setdash 2 copy exch vpt sub exch vpt Square fill Bsquare} bind def
/S3 {BL [] 0 setdash 2 copy exch vpt sub exch vpt2 vpt Rec fill Bsquare} bind def
/S4 {BL [] 0 setdash 2 copy exch vpt sub exch vpt sub vpt Square fill Bsquare} bind def
/S5 {BL [] 0 setdash 2 copy 2 copy vpt Square fill
	exch vpt sub exch vpt sub vpt Square fill Bsquare} bind def
/S6 {BL [] 0 setdash 2 copy exch vpt sub exch vpt sub vpt vpt2 Rec fill Bsquare} bind def
/S7 {BL [] 0 setdash 2 copy exch vpt sub exch vpt sub vpt vpt2 Rec fill
	2 copy vpt Square fill Bsquare} bind def
/S8 {BL [] 0 setdash 2 copy vpt sub vpt Square fill Bsquare} bind def
/S9 {BL [] 0 setdash 2 copy vpt sub vpt vpt2 Rec fill Bsquare} bind def
/S10 {BL [] 0 setdash 2 copy vpt sub vpt Square fill 2 copy exch vpt sub exch vpt Square fill
	Bsquare} bind def
/S11 {BL [] 0 setdash 2 copy vpt sub vpt Square fill 2 copy exch vpt sub exch vpt2 vpt Rec fill
	Bsquare} bind def
/S12 {BL [] 0 setdash 2 copy exch vpt sub exch vpt sub vpt2 vpt Rec fill Bsquare} bind def
/S13 {BL [] 0 setdash 2 copy exch vpt sub exch vpt sub vpt2 vpt Rec fill
	2 copy vpt Square fill Bsquare} bind def
/S14 {BL [] 0 setdash 2 copy exch vpt sub exch vpt sub vpt2 vpt Rec fill
	2 copy exch vpt sub exch vpt Square fill Bsquare} bind def
/S15 {BL [] 0 setdash 2 copy Bsquare fill Bsquare} bind def
/D0 {gsave translate 45 rotate 0 0 S0 stroke grestore} bind def
/D1 {gsave translate 45 rotate 0 0 S1 stroke grestore} bind def
/D2 {gsave translate 45 rotate 0 0 S2 stroke grestore} bind def
/D3 {gsave translate 45 rotate 0 0 S3 stroke grestore} bind def
/D4 {gsave translate 45 rotate 0 0 S4 stroke grestore} bind def
/D5 {gsave translate 45 rotate 0 0 S5 stroke grestore} bind def
/D6 {gsave translate 45 rotate 0 0 S6 stroke grestore} bind def
/D7 {gsave translate 45 rotate 0 0 S7 stroke grestore} bind def
/D8 {gsave translate 45 rotate 0 0 S8 stroke grestore} bind def
/D9 {gsave translate 45 rotate 0 0 S9 stroke grestore} bind def
/D10 {gsave translate 45 rotate 0 0 S10 stroke grestore} bind def
/D11 {gsave translate 45 rotate 0 0 S11 stroke grestore} bind def
/D12 {gsave translate 45 rotate 0 0 S12 stroke grestore} bind def
/D13 {gsave translate 45 rotate 0 0 S13 stroke grestore} bind def
/D14 {gsave translate 45 rotate 0 0 S14 stroke grestore} bind def
/D15 {gsave translate 45 rotate 0 0 S15 stroke grestore} bind def
/DiaE {stroke [] 0 setdash vpt add M
  hpt neg vpt neg V hpt vpt neg V
  hpt vpt V hpt neg vpt V closepath stroke} def
/BoxE {stroke [] 0 setdash exch hpt sub exch vpt add M
  0 vpt2 neg V hpt2 0 V 0 vpt2 V
  hpt2 neg 0 V closepath stroke} def
/TriUE {stroke [] 0 setdash vpt 1.12 mul add M
  hpt neg vpt -1.62 mul V
  hpt 2 mul 0 V
  hpt neg vpt 1.62 mul V closepath stroke} def
/TriDE {stroke [] 0 setdash vpt 1.12 mul sub M
  hpt neg vpt 1.62 mul V
  hpt 2 mul 0 V
  hpt neg vpt -1.62 mul V closepath stroke} def
/PentE {stroke [] 0 setdash gsave
  translate 0 hpt M 4 {72 rotate 0 hpt L} repeat
  closepath stroke grestore} def
/CircE {stroke [] 0 setdash 
  hpt 0 360 arc stroke} def
/Opaque {gsave closepath 1 setgray fill grestore 0 setgray closepath} def
/DiaW {stroke [] 0 setdash vpt add M
  hpt neg vpt neg V hpt vpt neg V
  hpt vpt V hpt neg vpt V Opaque stroke} def
/BoxW {stroke [] 0 setdash exch hpt sub exch vpt add M
  0 vpt2 neg V hpt2 0 V 0 vpt2 V
  hpt2 neg 0 V Opaque stroke} def
/TriUW {stroke [] 0 setdash vpt 1.12 mul add M
  hpt neg vpt -1.62 mul V
  hpt 2 mul 0 V
  hpt neg vpt 1.62 mul V Opaque stroke} def
/TriDW {stroke [] 0 setdash vpt 1.12 mul sub M
  hpt neg vpt 1.62 mul V
  hpt 2 mul 0 V
  hpt neg vpt -1.62 mul V Opaque stroke} def
/PentW {stroke [] 0 setdash gsave
  translate 0 hpt M 4 {72 rotate 0 hpt L} repeat
  Opaque stroke grestore} def
/CircW {stroke [] 0 setdash 
  hpt 0 360 arc Opaque stroke} def
/BoxFill {gsave Rec 1 setgray fill grestore} def
/Density {
  /Fillden exch def
  currentrgbcolor
  /ColB exch def /ColG exch def /ColR exch def
  /ColR ColR Fillden mul Fillden sub 1 add def
  /ColG ColG Fillden mul Fillden sub 1 add def
  /ColB ColB Fillden mul Fillden sub 1 add def
  ColR ColG ColB setrgbcolor} def
/BoxColFill {gsave Rec PolyFill} def
/PolyFill {gsave Density fill grestore grestore} def
/h {rlineto rlineto rlineto gsave closepath fill grestore} bind def
%
% PostScript Level 1 Pattern Fill routine for rectangles
% Usage: x y w h s a XX PatternFill
%	x,y = lower left corner of box to be filled
%	w,h = width and height of box
%	  a = angle in degrees between lines and x-axis
%	 XX = 0/1 for no/yes cross-hatch
%
/PatternFill {gsave /PFa [ 9 2 roll ] def
  PFa 0 get PFa 2 get 2 div add PFa 1 get PFa 3 get 2 div add translate
  PFa 2 get -2 div PFa 3 get -2 div PFa 2 get PFa 3 get Rec
  gsave 1 setgray fill grestore clip
  currentlinewidth 0.5 mul setlinewidth
  /PFs PFa 2 get dup mul PFa 3 get dup mul add sqrt def
  0 0 M PFa 5 get rotate PFs -2 div dup translate
  0 1 PFs PFa 4 get div 1 add floor cvi
	{PFa 4 get mul 0 M 0 PFs V} for
  0 PFa 6 get ne {
	0 1 PFs PFa 4 get div 1 add floor cvi
	{PFa 4 get mul 0 2 1 roll M PFs 0 V} for
 } if
  stroke grestore} def
%
/languagelevel where
 {pop languagelevel} {1} ifelse
 2 lt
	{/InterpretLevel1 true def}
	{/InterpretLevel1 Level1 def}
 ifelse
%
% PostScript level 2 pattern fill definitions
%
/Level2PatternFill {
/Tile8x8 {/PaintType 2 /PatternType 1 /TilingType 1 /BBox [0 0 8 8] /XStep 8 /YStep 8}
	bind def
/KeepColor {currentrgbcolor [/Pattern /DeviceRGB] setcolorspace} bind def
<< Tile8x8
 /PaintProc {0.5 setlinewidth pop 0 0 M 8 8 L 0 8 M 8 0 L stroke} 
>> matrix makepattern
/Pat1 exch def
<< Tile8x8
 /PaintProc {0.5 setlinewidth pop 0 0 M 8 8 L 0 8 M 8 0 L stroke
	0 4 M 4 8 L 8 4 L 4 0 L 0 4 L stroke}
>> matrix makepattern
/Pat2 exch def
<< Tile8x8
 /PaintProc {0.5 setlinewidth pop 0 0 M 0 8 L
	8 8 L 8 0 L 0 0 L fill}
>> matrix makepattern
/Pat3 exch def
<< Tile8x8
 /PaintProc {0.5 setlinewidth pop -4 8 M 8 -4 L
	0 12 M 12 0 L stroke}
>> matrix makepattern
/Pat4 exch def
<< Tile8x8
 /PaintProc {0.5 setlinewidth pop -4 0 M 8 12 L
	0 -4 M 12 8 L stroke}
>> matrix makepattern
/Pat5 exch def
<< Tile8x8
 /PaintProc {0.5 setlinewidth pop -2 8 M 4 -4 L
	0 12 M 8 -4 L 4 12 M 10 0 L stroke}
>> matrix makepattern
/Pat6 exch def
<< Tile8x8
 /PaintProc {0.5 setlinewidth pop -2 0 M 4 12 L
	0 -4 M 8 12 L 4 -4 M 10 8 L stroke}
>> matrix makepattern
/Pat7 exch def
<< Tile8x8
 /PaintProc {0.5 setlinewidth pop 8 -2 M -4 4 L
	12 0 M -4 8 L 12 4 M 0 10 L stroke}
>> matrix makepattern
/Pat8 exch def
<< Tile8x8
 /PaintProc {0.5 setlinewidth pop 0 -2 M 12 4 L
	-4 0 M 12 8 L -4 4 M 8 10 L stroke}
>> matrix makepattern
/Pat9 exch def
/Pattern1 {PatternBgnd KeepColor Pat1 setpattern} bind def
/Pattern2 {PatternBgnd KeepColor Pat2 setpattern} bind def
/Pattern3 {PatternBgnd KeepColor Pat3 setpattern} bind def
/Pattern4 {PatternBgnd KeepColor Landscape {Pat5} {Pat4} ifelse setpattern} bind def
/Pattern5 {PatternBgnd KeepColor Landscape {Pat4} {Pat5} ifelse setpattern} bind def
/Pattern6 {PatternBgnd KeepColor Landscape {Pat9} {Pat6} ifelse setpattern} bind def
/Pattern7 {PatternBgnd KeepColor Landscape {Pat8} {Pat7} ifelse setpattern} bind def
} def
%
%
%End of PostScript Level 2 code
%
/PatternBgnd {
  TransparentPatterns {} {gsave 1 setgray fill grestore} ifelse
} def
%
% Substitute for Level 2 pattern fill codes with
% grayscale if Level 2 support is not selected.
%
/Level1PatternFill {
/Pattern1 {0.250 Density} bind def
/Pattern2 {0.500 Density} bind def
/Pattern3 {0.750 Density} bind def
/Pattern4 {0.125 Density} bind def
/Pattern5 {0.375 Density} bind def
/Pattern6 {0.625 Density} bind def
/Pattern7 {0.875 Density} bind def
} def
%
% Now test for support of Level 2 code
%
Level1 {Level1PatternFill} {Level2PatternFill} ifelse
%
/Symbol-Oblique /Symbol findfont [1 0 .167 1 0 0] makefont
dup length dict begin {1 index /FID eq {pop pop} {def} ifelse} forall
currentdict end definefont pop
/MFshow {
   { dup 5 get 3 ge
     { 5 get 3 eq {gsave} {grestore} ifelse }
     {dup dup 0 get findfont exch 1 get scalefont setfont
     [ currentpoint ] exch dup 2 get 0 exch R dup 5 get 2 ne {dup dup 6
     get exch 4 get {Gshow} {stringwidth pop 0 R} ifelse }if dup 5 get 0 eq
     {dup 3 get {2 get neg 0 exch R pop} {pop aload pop M} ifelse} {dup 5
     get 1 eq {dup 2 get exch dup 3 get exch 6 get stringwidth pop -2 div
     dup 0 R} {dup 6 get stringwidth pop -2 div 0 R 6 get
     show 2 index {aload pop M neg 3 -1 roll neg R pop pop} {pop pop pop
     pop aload pop M} ifelse }ifelse }ifelse }
     ifelse }
   forall} def
/Gswidth {dup type /stringtype eq {stringwidth} {pop (n) stringwidth} ifelse} def
/MFwidth {0 exch { dup 5 get 3 ge { 5 get 3 eq { 0 } { pop } ifelse }
 {dup 3 get{dup dup 0 get findfont exch 1 get scalefont setfont
     6 get Gswidth pop add} {pop} ifelse} ifelse} forall} def
/MLshow { currentpoint stroke M
  0 exch R
  Blacktext {gsave 0 setgray MFshow grestore} {MFshow} ifelse } bind def
/MRshow { currentpoint stroke M
  exch dup MFwidth neg 3 -1 roll R
  Blacktext {gsave 0 setgray MFshow grestore} {MFshow} ifelse } bind def
/MCshow { currentpoint stroke M
  exch dup MFwidth -2 div 3 -1 roll R
  Blacktext {gsave 0 setgray MFshow grestore} {MFshow} ifelse } bind def
/XYsave    { [( ) 1 2 true false 3 ()] } bind def
/XYrestore { [( ) 1 2 true false 4 ()] } bind def
end
%%EndProlog
gnudict begin
gsave
doclip
50 50 translate
0.050 0.050 scale
0 setgray
newpath
(Helvetica) findfont 250 scalefont setfont
1.000 UL
LTb
1375 800 M
63 0 V
5311 0 R
-63 0 V
stroke
1225 800 M
[ [(Helvetica) 250.0 0.0 true true 0 ( 0.6)]
] -83.3 MRshow
1.000 UL
LTb
1375 1292 M
63 0 V
5311 0 R
-63 0 V
stroke
1225 1292 M
[ [(Helvetica) 250.0 0.0 true true 0 ( 0.65)]
] -83.3 MRshow
1.000 UL
LTb
1375 1785 M
63 0 V
5311 0 R
-63 0 V
stroke
1225 1785 M
[ [(Helvetica) 250.0 0.0 true true 0 ( 0.7)]
] -83.3 MRshow
1.000 UL
LTb
1375 2277 M
63 0 V
5311 0 R
-63 0 V
stroke
1225 2277 M
[ [(Helvetica) 250.0 0.0 true true 0 ( 0.75)]
] -83.3 MRshow
1.000 UL
LTb
1375 2770 M
63 0 V
5311 0 R
-63 0 V
stroke
1225 2770 M
[ [(Helvetica) 250.0 0.0 true true 0 ( 0.8)]
] -83.3 MRshow
1.000 UL
LTb
1375 3262 M
63 0 V
5311 0 R
-63 0 V
stroke
1225 3262 M
[ [(Helvetica) 250.0 0.0 true true 0 ( 0.85)]
] -83.3 MRshow
1.000 UL
LTb
1375 3754 M
63 0 V
5311 0 R
-63 0 V
stroke
1225 3754 M
[ [(Helvetica) 250.0 0.0 true true 0 ( 0.9)]
] -83.3 MRshow
1.000 UL
LTb
1375 4247 M
63 0 V
5311 0 R
-63 0 V
stroke
1225 4247 M
[ [(Helvetica) 250.0 0.0 true true 0 ( 0.95)]
] -83.3 MRshow
1.000 UL
LTb
1375 4739 M
63 0 V
5311 0 R
-63 0 V
stroke
1225 4739 M
[ [(Helvetica) 250.0 0.0 true true 0 ( 1)]
] -83.3 MRshow
1.000 UL
LTb
1375 800 M
0 63 V
0 3876 R
0 -63 V
stroke
1375 550 M
[ [(Helvetica) 250.0 0.0 true true 0 ( 4)]
] -83.3 MCshow
1.000 UL
LTb
2047 800 M
0 63 V
0 3876 R
0 -63 V
stroke
2047 550 M
[ [(Helvetica) 250.0 0.0 true true 0 ( 6)]
] -83.3 MCshow
1.000 UL
LTb
2719 800 M
0 63 V
0 3876 R
0 -63 V
stroke
2719 550 M
[ [(Helvetica) 250.0 0.0 true true 0 ( 8)]
] -83.3 MCshow
1.000 UL
LTb
3390 800 M
0 63 V
0 3876 R
0 -63 V
stroke
3390 550 M
[ [(Helvetica) 250.0 0.0 true true 0 ( 10)]
] -83.3 MCshow
1.000 UL
LTb
4062 800 M
0 63 V
0 3876 R
0 -63 V
stroke
4062 550 M
[ [(Helvetica) 250.0 0.0 true true 0 ( 12)]
] -83.3 MCshow
1.000 UL
LTb
4734 800 M
0 63 V
0 3876 R
0 -63 V
stroke
4734 550 M
[ [(Helvetica) 250.0 0.0 true true 0 ( 14)]
] -83.3 MCshow
1.000 UL
LTb
5406 800 M
0 63 V
0 3876 R
0 -63 V
stroke
5406 550 M
[ [(Helvetica) 250.0 0.0 true true 0 ( 16)]
] -83.3 MCshow
1.000 UL
LTb
6077 800 M
0 63 V
0 3876 R
0 -63 V
stroke
6077 550 M
[ [(Helvetica) 250.0 0.0 true true 0 ( 18)]
] -83.3 MCshow
1.000 UL
LTb
6749 800 M
0 63 V
0 3876 R
0 -63 V
stroke
6749 550 M
[ [(Helvetica) 250.0 0.0 true true 0 ( 20)]
] -83.3 MCshow
1.000 UL
LTb
1.000 UL
LTb
1375 4739 N
0 -3939 V
5374 0 V
0 3939 V
-5374 0 V
Z stroke
LCb setrgbcolor
200 2769 M
currentpoint gsave translate -270 rotate 0 0 moveto
[ [(Helvetica) 250.0 0.0 true true 0 (Recall)]
] -83.3 MCshow
grestore
LTb
LCb setrgbcolor
4062 175 M
[ [(Helvetica) 250.0 0.0 true true 0 (Number of Segments)]
] -83.3 MCshow
LTb
1.000 UP
1.000 UL
LTb
% Begin plot #1
1.000 UP
1.000 UL
LT0
1711 4465 Pls
3390 3974 Pls
5070 4513 Pls
6749 4366 Pls
1711 3622 Pls
3390 4053 Pls
5070 4329 Pls
6749 4604 Pls
1711 3792 Pls
3390 4291 Pls
5070 4615 Pls
6749 4426 Pls
1711 3614 Pls
3390 3986 Pls
5070 4254 Pls
6749 4457 Pls
1711 2999 Pls
3390 4068 Pls
5070 4485 Pls
6749 4397 Pls
1711 3508 Pls
3390 3535 Pls
5070 4458 Pls
6749 4324 Pls
1711 3754 Pls
3390 4192 Pls
5070 4176 Pls
6749 4324 Pls
1711 3262 Pls
3390 3864 Pls
5070 4176 Pls
6749 4324 Pls
1711 4000 Pls
3390 3973 Pls
5070 4598 Pls
6749 4324 Pls
1711 4000 Pls
3390 4083 Pls
5070 4458 Pls
6749 4376 Pls
1711 4075 Pls
3390 4176 Pls
5070 3927 Pls
6749 4437 Pls
1711 3935 Pls
3390 4366 Pls
5070 4315 Pls
6749 4157 Pls
1711 3860 Pls
3390 4441 Pls
5070 4324 Pls
6749 4278 Pls
1711 3819 Pls
3390 3907 Pls
5070 4377 Pls
6749 4323 Pls
1711 3571 Pls
3390 4305 Pls
5070 4365 Pls
6749 4506 Pls
1711 3016 Pls
3390 3864 Pls
5070 4317 Pls
6749 4376 Pls
1711 3016 Pls
3390 4083 Pls
5070 4387 Pls
6749 4584 Pls
1711 3754 Pls
3390 3754 Pls
5070 3895 Pls
6749 4428 Pls
1711 3754 Pls
3390 4083 Pls
5070 3965 Pls
6749 4532 Pls
1711 4493 Pls
3390 3754 Pls
5070 4387 Pls
6749 4480 Pls
1711 3464 Pls
3390 3711 Pls
5070 4246 Pls
6749 4696 Pls
1711 4288 Pls
3390 4283 Pls
5070 4295 Pls
6749 4391 Pls
1711 4028 Pls
3390 4054 Pls
5070 4025 Pls
6749 4328 Pls
1711 3744 Pls
3390 4422 Pls
5070 4348 Pls
6749 4387 Pls
1711 3196 Pls
3390 4429 Pls
5070 4296 Pls
6749 4374 Pls
1711 3754 Pls
3390 4192 Pls
5070 4106 Pls
6749 4532 Pls
1711 4247 Pls
3390 4083 Pls
5070 4247 Pls
6749 4739 Pls
1711 4493 Pls
3390 4520 Pls
5070 4528 Pls
6749 4221 Pls
1711 4247 Pls
3390 3973 Pls
5070 4598 Pls
6749 4687 Pls
1711 4493 Pls
3390 4411 Pls
5070 4247 Pls
6749 4376 Pls
1711 4434 Pls
3390 4386 Pls
5070 3914 Pls
6749 4551 Pls
1711 4739 Pls
3390 4059 Pls
5070 4256 Pls
6749 4425 Pls
1711 3940 Pls
3390 4352 Pls
5070 4015 Pls
6749 4440 Pls
1711 3720 Pls
3390 3928 Pls
5070 4182 Pls
6749 4561 Pls
1711 3959 Pls
3390 4437 Pls
5070 4190 Pls
6749 4340 Pls
1711 3754 Pls
3390 4520 Pls
5070 4317 Pls
6749 4065 Pls
1711 2770 Pls
3390 4520 Pls
5070 4458 Pls
6749 4221 Pls
1711 4493 Pls
3390 4411 Pls
5070 4458 Pls
6749 4428 Pls
1711 4247 Pls
3390 4520 Pls
5070 4458 Pls
6749 4532 Pls
1711 4247 Pls
3390 4411 Pls
5070 4669 Pls
6749 4687 Pls
1711 4294 Pls
3390 4394 Pls
5070 4474 Pls
6749 4566 Pls
1711 4165 Pls
3390 4376 Pls
5070 4026 Pls
6749 4258 Pls
1711 4575 Pls
3390 4430 Pls
5070 4312 Pls
6749 4437 Pls
1711 4069 Pls
3390 4015 Pls
5070 4243 Pls
6749 4434 Pls
1711 3827 Pls
3390 4108 Pls
5070 4241 Pls
6749 4609 Pls
1711 3508 Pls
3390 3973 Pls
5070 4387 Pls
6749 4480 Pls
1711 4000 Pls
3390 4411 Pls
5070 4598 Pls
6749 4687 Pls
1711 4247 Pls
3390 4630 Pls
5070 4528 Pls
6749 4584 Pls
1711 4247 Pls
3390 4739 Pls
5070 4528 Pls
6749 4635 Pls
1711 4739 Pls
3390 4301 Pls
5070 4317 Pls
6749 4687 Pls
1711 4104 Pls
3390 4064 Pls
5070 4319 Pls
6749 4372 Pls
1711 4237 Pls
3390 4313 Pls
5070 4165 Pls
6749 4468 Pls
1711 3795 Pls
3390 4395 Pls
5070 4260 Pls
6749 4267 Pls
1711 4082 Pls
3390 3644 Pls
5070 3957 Pls
6749 4357 Pls
1711 2868 Pls
3390 4363 Pls
5070 4493 Pls
6749 4544 Pls
1711 2770 Pls
3390 3426 Pls
5070 4036 Pls
6749 4376 Pls
1711 3262 Pls
3390 4301 Pls
5070 4528 Pls
6749 4273 Pls
1711 2770 Pls
3390 3864 Pls
5070 4669 Pls
6749 4324 Pls
1711 3016 Pls
3390 4301 Pls
5070 4387 Pls
6749 4480 Pls
1711 4000 Pls
3390 3754 Pls
5070 4176 Pls
6749 4532 Pls
1711 4311 Pls
3390 4657 Pls
5070 4438 Pls
6749 4436 Pls
1711 4411 Pls
3390 3920 Pls
5070 4409 Pls
6749 4559 Pls
1711 4383 Pls
3390 4411 Pls
5070 4336 Pls
6749 4334 Pls
1711 4329 Pls
3390 3953 Pls
5070 4496 Pls
6749 4423 Pls
1711 3220 Pls
3390 4206 Pls
5070 4241 Pls
6749 4506 Pls
1711 3262 Pls
3390 3317 Pls
5070 4247 Pls
6749 4169 Pls
1711 3754 Pls
3390 4083 Pls
5070 4247 Pls
6749 4584 Pls
1711 4000 Pls
3390 3973 Pls
5070 4317 Pls
6749 4273 Pls
1711 2770 Pls
3390 4192 Pls
5070 4528 Pls
6749 4532 Pls
1711 4247 Pls
3390 4301 Pls
5070 4387 Pls
6749 4635 Pls
1711 3871 Pls
3390 4443 Pls
5070 4519 Pls
6749 4481 Pls
1711 4082 Pls
3390 4240 Pls
5070 4438 Pls
6749 4309 Pls
1711 4081 Pls
3390 4050 Pls
5070 4394 Pls
6749 4292 Pls
1711 3797 Pls
3390 4328 Pls
5070 4200 Pls
6749 4368 Pls
1711 3575 Pls
3390 3887 Pls
5070 4045 Pls
6749 4506 Pls
1711 4000 Pls
3390 3645 Pls
5070 4176 Pls
6749 4324 Pls
1711 3508 Pls
3390 4083 Pls
5070 4317 Pls
6749 3910 Pls
1711 3508 Pls
3390 4192 Pls
5070 4247 Pls
6749 4480 Pls
1711 4247 Pls
3390 3864 Pls
5070 4176 Pls
6749 4221 Pls
1711 4739 Pls
3390 4192 Pls
5070 4317 Pls
6749 4273 Pls
1711 4270 Pls
3390 4497 Pls
5070 4047 Pls
6749 4607 Pls
1711 4178 Pls
3390 4235 Pls
5070 4431 Pls
6749 4511 Pls
1711 4366 Pls
3390 4248 Pls
5070 4423 Pls
6749 4482 Pls
1711 4050 Pls
3390 4047 Pls
5070 4357 Pls
6749 4341 Pls
1711 3523 Pls
3390 4505 Pls
5070 4739 Pls
6749 4367 Pls
1711 3508 Pls
3390 3754 Pls
5070 4317 Pls
6749 4324 Pls
1711 4247 Pls
3390 4083 Pls
5070 4387 Pls
6749 4480 Pls
1711 3754 Pls
3390 4301 Pls
5070 4458 Pls
6749 4376 Pls
1711 4493 Pls
3390 4411 Pls
5070 4458 Pls
6749 4376 Pls
1711 4493 Pls
3390 3973 Pls
5070 4247 Pls
6749 4635 Pls
1711 4458 Pls
3390 4448 Pls
5070 4234 Pls
6749 4247 Pls
1711 4458 Pls
3390 4442 Pls
5070 4291 Pls
6749 4356 Pls
1711 4739 Pls
3390 4593 Pls
5070 4286 Pls
6749 4343 Pls
1711 4311 Pls
3390 4107 Pls
5070 4459 Pls
6749 4470 Pls
1711 4452 Pls
3390 4408 Pls
5070 4202 Pls
6749 4426 Pls
1711 3754 Pls
3390 4192 Pls
5070 4106 Pls
6749 4221 Pls
1711 4493 Pls
3390 4301 Pls
5070 4317 Pls
6749 4376 Pls
1711 3508 Pls
3390 4411 Pls
5070 4458 Pls
6749 4532 Pls
1711 4247 Pls
3390 4411 Pls
5070 4458 Pls
6749 4635 Pls
1711 4493 Pls
3390 4411 Pls
5070 4458 Pls
6749 4635 Pls
1711 3973 Pls
3390 4111 Pls
5070 4315 Pls
6749 4431 Pls
1711 4165 Pls
3390 4415 Pls
5070 4442 Pls
6749 4369 Pls
1711 3935 Pls
3390 3706 Pls
5070 4423 Pls
6749 4238 Pls
1711 4434 Pls
3390 4232 Pls
5070 4431 Pls
6749 4415 Pls
1711 3229 Pls
3390 3504 Pls
5070 4550 Pls
6749 4221 Pls
1711 3016 Pls
3390 2988 Pls
5070 3543 Pls
6749 4324 Pls
1711 2770 Pls
3390 3864 Pls
5070 4106 Pls
6749 3910 Pls
1711 3754 Pls
3390 4411 Pls
5070 4036 Pls
6749 4532 Pls
1711 4000 Pls
3390 3973 Pls
5070 4317 Pls
6749 4273 Pls
1711 3262 Pls
3390 4083 Pls
5070 4317 Pls
6749 4376 Pls
1711 4506 Pls
3390 4286 Pls
5070 4386 Pls
6749 4421 Pls
1711 4458 Pls
3390 3965 Pls
5070 4315 Pls
6749 4419 Pls
1711 4053 Pls
3390 4100 Pls
5070 4502 Pls
6749 4336 Pls
1711 4129 Pls
3390 3980 Pls
5070 4250 Pls
6749 4178 Pls
1711 4270 Pls
3390 4093 Pls
5070 4369 Pls
6749 4324 Pls
1711 3262 Pls
3390 3864 Pls
5070 4528 Pls
6749 4428 Pls
1711 3262 Pls
3390 4411 Pls
5070 4739 Pls
6749 4376 Pls
1711 2770 Pls
3390 3864 Pls
5070 4247 Pls
6749 4428 Pls
1711 3754 Pls
3390 4301 Pls
5070 4247 Pls
6749 4635 Pls
1711 2770 Pls
3390 3754 Pls
5070 4458 Pls
6749 4532 Pls
1711 3486 Pls
3390 4466 Pls
5070 4102 Pls
6749 4438 Pls
1711 3590 Pls
3390 4525 Pls
5070 4203 Pls
6749 4113 Pls
1711 3997 Pls
3390 4059 Pls
5070 3892 Pls
6749 4284 Pls
1711 4475 Pls
3390 4663 Pls
5070 4211 Pls
6749 4298 Pls
1711 4311 Pls
3390 3887 Pls
5070 4396 Pls
6749 4553 Pls
1711 4000 Pls
3390 3864 Pls
5070 3965 Pls
6749 4532 Pls
1711 3262 Pls
3390 4083 Pls
5070 4528 Pls
6749 4376 Pls
1711 3508 Pls
3390 4192 Pls
5070 4598 Pls
6749 4584 Pls
1711 4000 Pls
3390 3973 Pls
5070 4458 Pls
6749 4480 Pls
1711 4493 Pls
3390 4630 Pls
5070 4387 Pls
6749 4480 Pls
1711 4598 Pls
3390 4396 Pls
5070 3999 Pls
6749 4577 Pls
1711 4342 Pls
3390 4109 Pls
5070 4199 Pls
6749 4351 Pls
1711 4419 Pls
3390 4434 Pls
5070 4144 Pls
6749 4474 Pls
1711 4575 Pls
3390 4227 Pls
5070 4280 Pls
6749 4429 Pls
1711 3819 Pls
3390 4030 Pls
5070 4313 Pls
6749 4422 Pls
1711 2770 Pls
3390 4411 Pls
5070 4387 Pls
6749 4480 Pls
1711 3262 Pls
3390 3535 Pls
5070 4528 Pls
6749 4013 Pls
1711 4739 Pls
3390 3535 Pls
5070 4387 Pls
6749 4480 Pls
1711 4493 Pls
3390 4520 Pls
5070 4106 Pls
6749 4532 Pls
1711 4247 Pls
3390 3973 Pls
5070 4458 Pls
6749 4584 Pls
1711 4419 Pls
3390 4372 Pls
5070 4467 Pls
6749 4568 Pls
1711 4006 Pls
3390 3895 Pls
5070 4400 Pls
6749 4534 Pls
1711 4475 Pls
3390 4165 Pls
5070 4462 Pls
6749 4258 Pls
1711 4047 Pls
3390 4325 Pls
5070 4452 Pls
6749 4390 Pls
1711 4124 Pls
3390 4560 Pls
5070 4243 Pls
6749 4005 Pls
1711 4000 Pls
3390 4192 Pls
5070 4317 Pls
6749 4324 Pls
1711 3262 Pls
3390 3973 Pls
5070 4458 Pls
6749 4376 Pls
1711 3262 Pls
3390 3973 Pls
5070 4387 Pls
6749 4480 Pls
1711 4493 Pls
3390 4192 Pls
5070 4176 Pls
6749 4221 Pls
1711 4739 Pls
3390 4083 Pls
5070 4387 Pls
6749 4687 Pls
1711 4065 Pls
3390 4072 Pls
5070 4410 Pls
6749 4388 Pls
1711 4012 Pls
3390 4231 Pls
5070 4259 Pls
6749 4353 Pls
1711 3792 Pls
3390 3308 Pls
5070 4441 Pls
6749 4162 Pls
1711 3697 Pls
3390 3839 Pls
5070 4434 Pls
6749 4312 Pls
1711 3623 Pls
3390 4273 Pls
5070 4029 Pls
6749 4017 Pls
1711 2770 Pls
3390 3864 Pls
5070 3684 Pls
6749 4635 Pls
1711 2277 Pls
3390 3754 Pls
5070 4036 Pls
6749 4324 Pls
1711 4000 Pls
3390 3973 Pls
5070 4247 Pls
6749 4532 Pls
1711 3754 Pls
3390 4411 Pls
5070 3895 Pls
6749 4480 Pls
1711 3508 Pls
3390 3864 Pls
5070 4036 Pls
6749 4221 Pls
1711 4739 Pls
3390 4169 Pls
5070 4345 Pls
6749 4309 Pls
1711 4069 Pls
3390 4054 Pls
5070 4286 Pls
6749 4302 Pls
1711 3801 Pls
3390 4411 Pls
5070 4045 Pls
6749 4338 Pls
1711 4434 Pls
3390 4505 Pls
5070 4338 Pls
6749 4381 Pls
1711 4017 Pls
3390 4165 Pls
5070 4299 Pls
6749 4408 Pls
1711 2770 Pls
3390 3754 Pls
5070 4036 Pls
6749 4480 Pls
1711 3016 Pls
3390 4192 Pls
5070 4528 Pls
6749 4221 Pls
1711 3754 Pls
3390 3317 Pls
5070 4247 Pls
6749 4428 Pls
1711 4000 Pls
3390 4301 Pls
5070 4036 Pls
6749 4480 Pls
1711 2770 Pls
3390 3973 Pls
5070 4317 Pls
6749 4117 Pls
1711 4270 Pls
3390 4107 Pls
5070 4407 Pls
6749 4650 Pls
1711 3429 Pls
3390 4117 Pls
5070 4339 Pls
6749 4391 Pls
1711 3801 Pls
3390 4184 Pls
5070 4520 Pls
6749 4576 Pls
1711 4270 Pls
3390 4170 Pls
5070 4484 Pls
6749 4096 Pls
1711 3768 Pls
3390 4588 Pls
5070 4303 Pls
6749 4502 Pls
1711 3262 Pls
3390 3973 Pls
5070 4176 Pls
6749 4324 Pls
1711 4493 Pls
3390 3754 Pls
5070 4528 Pls
6749 4273 Pls
1711 3262 Pls
3390 3864 Pls
5070 3825 Pls
6749 4428 Pls
1711 4000 Pls
3390 3973 Pls
5070 4247 Pls
6749 4532 Pls
1711 4247 Pls
3390 4192 Pls
5070 4598 Pls
6749 4532 Pls
1711 4278 Pls
3390 4517 Pls
5070 4250 Pls
6749 4338 Pls
1711 4739 Pls
3390 4423 Pls
5070 4234 Pls
6749 4395 Pls
1711 4434 Pls
3390 4090 Pls
5070 4404 Pls
6749 4382 Pls
1711 3660 Pls
3390 4358 Pls
5070 4088 Pls
6749 4394 Pls
1711 2908 Pls
3390 4116 Pls
5070 4396 Pls
6749 4097 Pls
1711 3754 Pls
3390 3754 Pls
5070 3895 Pls
6749 4169 Pls
1711 4247 Pls
3390 3864 Pls
5070 4387 Pls
6749 4169 Pls
1711 4000 Pls
3390 4083 Pls
5070 4247 Pls
6749 4324 Pls
1711 4000 Pls
3390 4411 Pls
5070 4387 Pls
6749 4635 Pls
1711 4247 Pls
3390 4192 Pls
5070 4106 Pls
6749 4584 Pls
1711 4411 Pls
3390 4371 Pls
5070 4522 Pls
6749 4319 Pls
1711 4256 Pls
3390 4423 Pls
5070 4202 Pls
6749 4370 Pls
1711 4452 Pls
3390 4663 Pls
5070 4458 Pls
6749 4562 Pls
1711 4598 Pls
3390 4024 Pls
5070 4470 Pls
6749 4384 Pls
1711 3631 Pls
3390 4216 Pls
5070 4431 Pls
6749 4387 Pls
1711 3016 Pls
3390 4411 Pls
5070 4106 Pls
6749 4169 Pls
1711 3508 Pls
3390 4411 Pls
5070 4458 Pls
6749 4480 Pls
1711 4000 Pls
3390 4192 Pls
5070 4036 Pls
6749 4532 Pls
1711 4247 Pls
3390 4301 Pls
5070 4528 Pls
6749 4117 Pls
1711 4493 Pls
3390 4520 Pls
5070 4387 Pls
6749 4376 Pls
1711 4106 Pls
3390 4030 Pls
5070 4435 Pls
6749 4467 Pls
1711 4040 Pls
3390 3981 Pls
5070 4256 Pls
6749 4498 Pls
1711 3989 Pls
3390 3874 Pls
5070 4064 Pls
6749 4476 Pls
1711 3163 Pls
3390 4118 Pls
5070 4373 Pls
6749 4647 Pls
1711 2244 Pls
3390 4023 Pls
5070 4353 Pls
6749 4218 Pls
1711 3016 Pls
3390 3645 Pls
5070 4106 Pls
6749 4428 Pls
1711 3508 Pls
3390 3645 Pls
5070 4247 Pls
6749 4221 Pls
1711 2277 Pls
3390 4301 Pls
5070 3965 Pls
6749 4273 Pls
1711 4000 Pls
3390 3754 Pls
5070 4176 Pls
6749 4221 Pls
1711 3754 Pls
3390 3754 Pls
5070 4458 Pls
6749 4480 Pls
1711 4206 Pls
3390 3800 Pls
5070 4433 Pls
6749 4649 Pls
1711 4616 Pls
3390 4194 Pls
5070 4268 Pls
6749 4440 Pls
1711 4247 Pls
3390 4133 Pls
5070 4093 Pls
6749 4355 Pls
1711 3778 Pls
3390 3897 Pls
5070 3877 Pls
6749 4282 Pls
1711 3778 Pls
3390 3709 Pls
5070 4065 Pls
6749 4122 Pls
1711 3016 Pls
3390 3207 Pls
5070 4176 Pls
6749 4273 Pls
1711 3754 Pls
3390 4301 Pls
5070 4247 Pls
6749 4480 Pls
1711 3754 Pls
3390 3864 Pls
5070 4106 Pls
6749 4428 Pls
1711 4247 Pls
3390 4301 Pls
5070 4458 Pls
6749 4480 Pls
1711 3754 Pls
3390 4083 Pls
5070 4458 Pls
6749 4376 Pls
1711 4598 Pls
3390 4505 Pls
5070 4324 Pls
6749 4382 Pls
1711 4401 Pls
3390 4116 Pls
5070 4404 Pls
6749 4530 Pls
1711 4114 Pls
3390 4441 Pls
5070 4203 Pls
6749 4510 Pls
1711 4310 Pls
3390 4386 Pls
5070 4027 Pls
6749 4412 Pls
1711 3853 Pls
3390 3944 Pls
5070 4376 Pls
6749 4363 Pls
1711 2277 Pls
3390 4083 Pls
5070 4387 Pls
6749 4584 Pls
1711 4000 Pls
3390 3973 Pls
5070 4176 Pls
6749 4169 Pls
1711 3262 Pls
3390 3973 Pls
5070 4387 Pls
6749 4428 Pls
1711 3262 Pls
3390 4411 Pls
5070 4106 Pls
6749 4376 Pls
1711 3508 Pls
3390 3973 Pls
5070 4106 Pls
6749 4480 Pls
1711 4288 Pls
3390 4340 Pls
5070 4197 Pls
6749 4491 Pls
1711 4345 Pls
3390 4588 Pls
5070 4412 Pls
6749 4262 Pls
1711 4493 Pls
3390 4089 Pls
5070 4162 Pls
6749 4398 Pls
1711 4458 Pls
3390 4194 Pls
5070 4207 Pls
6749 4606 Pls
1711 3876 Pls
3390 4287 Pls
5070 4144 Pls
6749 4651 Pls
1711 4739 Pls
3390 4301 Pls
5070 4036 Pls
6749 4273 Pls
1711 3262 Pls
3390 4192 Pls
5070 4176 Pls
6749 4376 Pls
1711 3016 Pls
3390 3864 Pls
5070 4387 Pls
6749 4480 Pls
1711 3508 Pls
3390 4083 Pls
5070 4387 Pls
6749 4273 Pls
1711 4000 Pls
3390 4083 Pls
5070 4387 Pls
6749 4532 Pls
1711 4616 Pls
3390 4252 Pls
5070 4156 Pls
6749 4244 Pls
1711 4366 Pls
3390 4267 Pls
5070 4287 Pls
6749 4390 Pls
1711 4575 Pls
3390 4422 Pls
5070 4517 Pls
6749 4576 Pls
1711 4124 Pls
3390 4435 Pls
5070 4360 Pls
6749 4317 Pls
1711 3703 Pls
3390 4210 Pls
5070 4314 Pls
6749 4412 Pls
1711 3262 Pls
3390 3973 Pls
5070 4528 Pls
6749 4169 Pls
1711 3754 Pls
3390 4301 Pls
5070 4387 Pls
6749 4324 Pls
1711 4000 Pls
3390 4083 Pls
5070 4458 Pls
6749 4324 Pls
1711 3754 Pls
3390 4301 Pls
5070 4247 Pls
6749 4273 Pls
1711 3016 Pls
3390 4411 Pls
5070 4387 Pls
6749 4376 Pls
1711 4211 Pls
3390 3798 Pls
5070 4291 Pls
6749 4417 Pls
1711 3768 Pls
3390 4235 Pls
5070 4172 Pls
6749 4421 Pls
1711 4288 Pls
3390 4290 Pls
5070 4188 Pls
6749 4274 Pls
1711 2891 Pls
3390 4372 Pls
5070 3880 Pls
6749 4323 Pls
1711 3295 Pls
3390 4461 Pls
5070 4169 Pls
6749 4448 Pls
1711 3262 Pls
3390 3426 Pls
5070 4106 Pls
6749 4428 Pls
1711 2770 Pls
3390 4192 Pls
5070 4106 Pls
6749 4273 Pls
1711 2770 Pls
3390 4192 Pls
5070 4247 Pls
6749 4324 Pls
1711 4000 Pls
3390 3864 Pls
5070 3825 Pls
6749 4376 Pls
1711 3262 Pls
3390 4083 Pls
5070 4036 Pls
6749 4117 Pls
1711 4081 Pls
3390 4245 Pls
5070 4248 Pls
6749 4480 Pls
1711 4296 Pls
3390 4478 Pls
5070 4327 Pls
6749 4307 Pls
1711 3842 Pls
3390 4117 Pls
5070 4261 Pls
6749 4349 Pls
1711 4153 Pls
3390 4135 Pls
5070 4263 Pls
6749 4274 Pls
1711 4050 Pls
3390 4166 Pls
5070 4052 Pls
6749 4549 Pls
1711 3508 Pls
3390 4411 Pls
5070 4176 Pls
6749 4376 Pls
1711 4493 Pls
3390 3754 Pls
5070 4036 Pls
6749 4221 Pls
1711 3508 Pls
3390 4083 Pls
5070 4387 Pls
6749 4169 Pls
1711 4493 Pls
3390 4411 Pls
5070 4317 Pls
6749 4480 Pls
1711 4000 Pls
3390 4192 Pls
5070 4106 Pls
6749 4428 Pls
1711 4493 Pls
3390 4483 Pls
5070 4356 Pls
6749 4609 Pls
1711 3748 Pls
3390 4089 Pls
5070 4383 Pls
6749 4513 Pls
1711 4465 Pls
3390 4429 Pls
5070 4465 Pls
6749 4479 Pls
1711 4255 Pls
3390 4253 Pls
5070 3964 Pls
6749 4308 Pls
1711 3679 Pls
3390 4657 Pls
5070 4220 Pls
6749 4415 Pls
1711 3262 Pls
3390 4301 Pls
5070 4106 Pls
6749 4065 Pls
1711 3754 Pls
3390 3317 Pls
5070 4247 Pls
6749 4324 Pls
1711 3754 Pls
3390 3864 Pls
5070 4247 Pls
6749 4273 Pls
1711 3262 Pls
3390 4192 Pls
5070 4598 Pls
6749 4221 Pls
1711 4493 Pls
3390 4192 Pls
5070 4176 Pls
6749 4376 Pls
1711 4489 Pls
3390 4605 Pls
5070 4324 Pls
6749 4301 Pls
1711 4506 Pls
3390 4532 Pls
5070 4294 Pls
6749 4396 Pls
1711 4598 Pls
3390 4257 Pls
5070 4239 Pls
6749 4477 Pls
1711 3190 Pls
3390 4049 Pls
5070 4209 Pls
6749 4514 Pls
1711 3614 Pls
3390 3599 Pls
5070 4269 Pls
6749 4218 Pls
1711 4000 Pls
3390 4192 Pls
5070 4247 Pls
6749 4480 Pls
1711 4000 Pls
3390 3754 Pls
5070 4247 Pls
6749 4324 Pls
1711 4247 Pls
3390 4411 Pls
5070 4598 Pls
6749 4428 Pls
1711 4247 Pls
3390 3973 Pls
5070 4387 Pls
6749 4221 Pls
1711 3508 Pls
3390 4192 Pls
5070 4317 Pls
6749 4376 Pls
1711 4301 Pls
3390 4294 Pls
5070 4250 Pls
6749 4351 Pls
1711 4243 Pls
3390 4260 Pls
5070 4348 Pls
6749 4309 Pls
1711 4616 Pls
3390 4168 Pls
5070 4568 Pls
6749 4433 Pls
1711 4458 Pls
3390 4492 Pls
5070 4215 Pls
6749 4462 Pls
1711 3989 Pls
3390 4061 Pls
5070 4225 Pls
6749 4507 Pls
1711 3754 Pls
3390 4083 Pls
5070 3754 Pls
6749 4428 Pls
1711 4247 Pls
3390 3973 Pls
5070 4317 Pls
6749 4376 Pls
1711 4000 Pls
3390 4301 Pls
5070 4247 Pls
6749 4221 Pls
1711 4000 Pls
3390 4411 Pls
5070 4317 Pls
6749 4480 Pls
1711 4247 Pls
3390 4301 Pls
5070 4036 Pls
6749 4635 Pls
1711 4170 Pls
3390 4413 Pls
5070 4098 Pls
6749 4374 Pls
1711 4017 Pls
3390 4007 Pls
5070 4371 Pls
6749 4609 Pls
1711 3262 Pls
3390 3891 Pls
5070 4373 Pls
6749 4506 Pls
1711 4237 Pls
3390 3896 Pls
5070 4500 Pls
6749 4272 Pls
1711 3656 Pls
3390 3459 Pls
5070 4353 Pls
6749 4448 Pls
1711 2770 Pls
3390 3645 Pls
5070 4106 Pls
6749 4376 Pls
1711 3754 Pls
3390 3317 Pls
5070 3965 Pls
6749 4428 Pls
1711 3262 Pls
3390 3973 Pls
5070 4176 Pls
6749 4324 Pls
1711 3016 Pls
3390 3864 Pls
5070 4387 Pls
6749 3962 Pls
1711 3508 Pls
3390 4520 Pls
5070 3965 Pls
6749 4324 Pls
1711 4598 Pls
3390 4191 Pls
5070 4352 Pls
6749 4250 Pls
1711 4294 Pls
3390 4244 Pls
5070 4445 Pls
6749 4519 Pls
1711 3373 Pls
3390 4040 Pls
5070 4677 Pls
6749 4061 Pls
1711 4575 Pls
3390 3970 Pls
5070 4187 Pls
6749 4333 Pls
1711 3712 Pls
3390 4209 Pls
5070 4129 Pls
6749 4155 Pls
1711 3508 Pls
3390 4083 Pls
5070 4458 Pls
6749 4273 Pls
1711 3262 Pls
3390 3645 Pls
5070 4176 Pls
6749 4273 Pls
1711 4000 Pls
3390 3754 Pls
5070 4458 Pls
6749 4273 Pls
1711 3262 Pls
3390 4192 Pls
5070 4106 Pls
6749 4428 Pls
1711 4000 Pls
3390 4411 Pls
5070 3965 Pls
6749 4532 Pls
1711 4097 Pls
3390 4063 Pls
5070 4194 Pls
6749 4649 Pls
1711 4598 Pls
3390 4505 Pls
5070 4387 Pls
6749 4608 Pls
1711 4006 Pls
3390 4200 Pls
5070 4219 Pls
6749 4390 Pls
1711 4465 Pls
3390 4320 Pls
5070 4523 Pls
6749 4349 Pls
1711 3965 Pls
3390 3338 Pls
5070 4156 Pls
6749 4338 Pls
1711 1785 Pls
3390 4083 Pls
5070 3965 Pls
6749 4480 Pls
1711 3016 Pls
3390 4192 Pls
5070 4176 Pls
6749 4428 Pls
1711 4493 Pls
3390 4083 Pls
5070 4317 Pls
6749 4635 Pls
1711 4493 Pls
3390 4192 Pls
5070 4247 Pls
6749 4221 Pls
1711 4000 Pls
3390 4083 Pls
5070 3895 Pls
6749 4376 Pls
1711 4102 Pls
3390 3862 Pls
5070 4360 Pls
6749 4532 Pls
1711 4088 Pls
3390 3887 Pls
5070 4086 Pls
6749 4393 Pls
1711 4170 Pls
3390 3906 Pls
5070 4242 Pls
6749 3879 Pls
1711 4270 Pls
3390 4207 Pls
5070 4216 Pls
6749 4425 Pls
1711 4194 Pls
3390 3833 Pls
5070 4380 Pls
6749 4291 Pls
1711 4493 Pls
3390 3645 Pls
5070 4247 Pls
6749 4428 Pls
1711 3754 Pls
3390 3754 Pls
5070 4106 Pls
6749 4324 Pls
1711 4493 Pls
3390 4411 Pls
5070 4036 Pls
6749 4480 Pls
1711 3754 Pls
3390 4192 Pls
5070 4458 Pls
6749 4221 Pls
1711 3754 Pls
3390 3864 Pls
5070 4176 Pls
6749 4117 Pls
1711 4458 Pls
3390 4598 Pls
5070 4357 Pls
6749 4493 Pls
1711 3918 Pls
3390 4257 Pls
5070 4025 Pls
6749 4343 Pls
1711 3414 Pls
3390 4204 Pls
5070 4151 Pls
6749 4122 Pls
1711 4598 Pls
3390 4018 Pls
5070 4323 Pls
6749 4424 Pls
1711 3712 Pls
3390 4372 Pls
5070 4455 Pls
6749 4562 Pls
1711 3754 Pls
3390 3864 Pls
5070 3895 Pls
6749 4324 Pls
1711 4493 Pls
3390 3754 Pls
5070 4176 Pls
6749 4324 Pls
1711 4247 Pls
3390 4083 Pls
5070 4387 Pls
6749 4324 Pls
1711 4000 Pls
3390 3973 Pls
5070 4247 Pls
6749 4428 Pls
1711 4000 Pls
3390 4301 Pls
5070 4387 Pls
6749 4324 Pls
1711 4419 Pls
3390 4387 Pls
5070 4216 Pls
6749 4282 Pls
1711 4058 Pls
3390 4351 Pls
5070 4445 Pls
6749 4425 Pls
1711 3706 Pls
3390 4579 Pls
5070 4375 Pls
6749 4177 Pls
1711 4345 Pls
3390 3744 Pls
5070 4554 Pls
6749 4406 Pls
1711 4214 Pls
3390 3808 Pls
5070 4349 Pls
6749 4308 Pls
1711 3508 Pls
3390 3864 Pls
5070 4176 Pls
6749 4428 Pls
1711 3754 Pls
3390 4083 Pls
5070 4458 Pls
6749 4532 Pls
1711 3262 Pls
3390 4411 Pls
5070 3754 Pls
6749 4324 Pls
1711 3754 Pls
3390 4192 Pls
5070 4247 Pls
6749 4169 Pls
1711 4000 Pls
3390 3645 Pls
5070 4106 Pls
6749 4013 Pls
1711 4616 Pls
3390 3592 Pls
5070 4524 Pls
6749 4243 Pls
1711 3684 Pls
3390 4141 Pls
5070 4234 Pls
6749 4518 Pls
1711 4616 Pls
3390 4272 Pls
5070 4292 Pls
6749 4385 Pls
1711 3712 Pls
3390 3797 Pls
5070 4230 Pls
6749 4410 Pls
1711 3942 Pls
3390 3984 Pls
5070 3834 Pls
6749 4325 Pls
1711 3016 Pls
3390 3645 Pls
5070 4106 Pls
6749 4273 Pls
1711 4247 Pls
3390 4083 Pls
5070 3754 Pls
6749 4169 Pls
1711 3262 Pls
3390 3973 Pls
5070 4176 Pls
6749 4376 Pls
1711 4000 Pls
3390 3973 Pls
5070 4247 Pls
6749 4480 Pls
1711 3016 Pls
3390 4083 Pls
5070 4036 Pls
6749 4428 Pls
1711 4489 Pls
3390 4357 Pls
5070 4250 Pls
6749 4248 Pls
1711 3760 Pls
3390 4433 Pls
5070 4304 Pls
6749 4128 Pls
1711 4575 Pls
3390 4109 Pls
5070 3896 Pls
6749 4390 Pls
1711 3637 Pls
3390 4217 Pls
5070 4224 Pls
6749 4464 Pls
1711 3848 Pls
3390 3939 Pls
5070 4383 Pls
6749 4280 Pls
1711 4000 Pls
3390 4192 Pls
5070 4528 Pls
6749 4428 Pls
1711 4000 Pls
3390 4301 Pls
5070 4247 Pls
6749 4480 Pls
1711 3262 Pls
3390 4520 Pls
5070 4176 Pls
6749 4169 Pls
1711 4247 Pls
3390 4301 Pls
5070 4247 Pls
6749 4324 Pls
1711 4247 Pls
3390 3864 Pls
5070 4669 Pls
6749 4480 Pls
1711 4188 Pls
3390 4446 Pls
5070 4340 Pls
6749 4349 Pls
1711 4630 Pls
3390 4429 Pls
5070 4496 Pls
6749 4299 Pls
1711 4598 Pls
3390 4138 Pls
5070 4520 Pls
6749 4391 Pls
1711 4411 Pls
3390 3902 Pls
5070 4352 Pls
6749 4284 Pls
1711 3425 Pls
3390 4236 Pls
5070 4345 Pls
6749 4462 Pls
1711 4000 Pls
3390 3864 Pls
5070 3965 Pls
6749 4065 Pls
1711 3262 Pls
3390 4301 Pls
5070 4247 Pls
6749 4273 Pls
1711 4493 Pls
3390 3973 Pls
5070 3965 Pls
6749 4324 Pls
1711 3262 Pls
3390 4192 Pls
5070 4247 Pls
6749 4376 Pls
1711 4247 Pls
3390 3973 Pls
5070 4458 Pls
6749 4376 Pls
1711 4255 Pls
3390 4317 Pls
5070 3972 Pls
6749 4443 Pls
1711 4630 Pls
3390 4170 Pls
5070 4185 Pls
6749 4355 Pls
1711 4006 Pls
3390 4663 Pls
5070 4020 Pls
6749 4339 Pls
1711 4352 Pls
3390 3930 Pls
5070 4463 Pls
6749 4360 Pls
1711 3827 Pls
3390 4036 Pls
5070 4333 Pls
6749 4302 Pls
1711 4247 Pls
3390 3973 Pls
5070 4106 Pls
6749 4324 Pls
1711 4247 Pls
3390 3864 Pls
5070 4317 Pls
6749 4117 Pls
1711 4247 Pls
3390 4083 Pls
5070 4317 Pls
6749 4376 Pls
1711 3754 Pls
3390 4192 Pls
5070 4387 Pls
6749 4428 Pls
1711 3508 Pls
3390 4411 Pls
5070 4387 Pls
6749 4428 Pls
1711 4458 Pls
3390 4217 Pls
5070 4571 Pls
6749 4301 Pls
1711 3481 Pls
3390 4372 Pls
5070 4090 Pls
6749 4417 Pls
1711 3464 Pls
3390 4094 Pls
5070 4376 Pls
6749 4603 Pls
1711 2965 Pls
3390 4202 Pls
5070 4057 Pls
6749 4374 Pls
1711 3787 Pls
3390 4094 Pls
5070 4160 Pls
6749 4401 Pls
1711 3754 Pls
3390 4411 Pls
5070 4317 Pls
6749 4324 Pls
1711 3262 Pls
3390 4192 Pls
5070 4387 Pls
6749 4273 Pls
1711 3754 Pls
3390 4520 Pls
5070 4247 Pls
6749 4376 Pls
1711 3262 Pls
3390 4083 Pls
5070 4106 Pls
6749 4428 Pls
1711 4000 Pls
3390 3645 Pls
5070 4317 Pls
6749 4169 Pls
1711 3983 Pls
3390 4161 Pls
5070 4308 Pls
6749 4355 Pls
1711 4575 Pls
3390 3975 Pls
5070 4052 Pls
6749 4516 Pls
1711 4317 Pls
3390 4072 Pls
5070 4336 Pls
6749 4421 Pls
1711 4475 Pls
3390 3984 Pls
5070 4152 Pls
6749 4556 Pls
1711 3426 Pls
3390 3804 Pls
5070 4369 Pls
6749 4118 Pls
1711 3262 Pls
3390 4301 Pls
5070 4317 Pls
6749 4480 Pls
1711 3508 Pls
3390 3973 Pls
5070 4458 Pls
6749 4169 Pls
1711 4000 Pls
3390 4301 Pls
5070 4106 Pls
6749 4584 Pls
1711 3754 Pls
3390 4411 Pls
5070 4387 Pls
6749 4273 Pls
1711 4493 Pls
3390 4192 Pls
5070 4247 Pls
6749 4480 Pls
1711 4739 Pls
3390 4220 Pls
5070 4119 Pls
6749 4522 Pls
1711 4401 Pls
3390 4267 Pls
5070 4268 Pls
6749 4109 Pls
1711 4106 Pls
3390 4169 Pls
5070 4263 Pls
6749 4255 Pls
1711 3336 Pls
3390 4238 Pls
5070 3825 Pls
6749 4472 Pls
1711 4270 Pls
3390 4184 Pls
5070 4242 Pls
6749 4423 Pls
1711 3754 Pls
3390 3754 Pls
5070 3965 Pls
6749 4376 Pls
1711 4000 Pls
3390 3426 Pls
5070 4036 Pls
6749 4169 Pls
1711 4000 Pls
3390 4083 Pls
5070 4106 Pls
6749 4324 Pls
1711 4000 Pls
3390 3645 Pls
5070 4036 Pls
6749 4376 Pls
1711 4247 Pls
3390 4192 Pls
5070 4106 Pls
6749 4428 Pls
1711 4616 Pls
3390 4526 Pls
5070 4461 Pls
6749 4492 Pls
1711 4278 Pls
3390 4200 Pls
5070 4471 Pls
6749 4047 Pls
1711 3993 Pls
3390 3742 Pls
5070 4056 Pls
6749 4427 Pls
1711 4506 Pls
3390 4000 Pls
5070 4407 Pls
6749 4355 Pls
1711 3876 Pls
3390 4161 Pls
5070 4278 Pls
6749 4418 Pls
1711 4247 Pls
3390 4083 Pls
5070 4247 Pls
6749 4273 Pls
1711 4000 Pls
3390 4411 Pls
5070 4528 Pls
6749 4169 Pls
1711 4247 Pls
3390 4192 Pls
5070 4458 Pls
6749 4273 Pls
1711 3262 Pls
3390 4301 Pls
5070 4106 Pls
6749 4376 Pls
1711 3754 Pls
3390 4411 Pls
5070 4387 Pls
6749 4376 Pls
1711 4739 Pls
3390 4286 Pls
5070 4425 Pls
6749 4436 Pls
1711 4222 Pls
3390 4281 Pls
5070 4160 Pls
6749 4483 Pls
1711 4542 Pls
3390 4234 Pls
5070 4188 Pls
6749 4581 Pls
1711 3848 Pls
3390 4244 Pls
5070 4519 Pls
6749 4522 Pls
1711 4106 Pls
3390 4007 Pls
5070 4147 Pls
6749 4435 Pls
1711 4247 Pls
3390 3973 Pls
5070 4528 Pls
6749 4324 Pls
1711 4000 Pls
3390 4301 Pls
5070 4247 Pls
6749 4169 Pls
1711 3754 Pls
3390 4083 Pls
5070 4317 Pls
6749 4480 Pls
1711 4000 Pls
3390 4520 Pls
5070 4176 Pls
6749 4428 Pls
1711 4739 Pls
3390 4411 Pls
5070 4387 Pls
6749 4532 Pls
1711 3631 Pls
3390 4223 Pls
5070 4192 Pls
6749 4321 Pls
1711 4598 Pls
3390 3929 Pls
5070 4517 Pls
6749 4372 Pls
1711 3942 Pls
3390 4223 Pls
5070 4510 Pls
6749 4408 Pls
1711 3900 Pls
3390 3842 Pls
5070 4254 Pls
6749 4162 Pls
1711 3065 Pls
3390 3808 Pls
5070 4169 Pls
6749 4153 Pls
1711 2277 Pls
3390 3426 Pls
5070 4036 Pls
6749 4324 Pls
1711 4000 Pls
3390 4083 Pls
5070 3895 Pls
6749 4065 Pls
1711 3508 Pls
3390 3317 Pls
5070 3895 Pls
6749 4324 Pls
1711 3262 Pls
3390 4301 Pls
5070 4387 Pls
6749 4273 Pls
1711 3016 Pls
3390 3973 Pls
5070 4528 Pls
6749 4117 Pls
1711 4317 Pls
3390 4388 Pls
5070 4511 Pls
6749 4485 Pls
1711 3768 Pls
3390 4237 Pls
5070 4087 Pls
6749 4476 Pls
1711 4434 Pls
3390 4205 Pls
5070 4326 Pls
6749 4233 Pls
1711 4270 Pls
3390 4278 Pls
5070 4122 Pls
6749 4389 Pls
1711 3637 Pls
3390 4282 Pls
5070 4180 Pls
6749 4178 Pls
1711 2770 Pls
3390 3426 Pls
5070 4247 Pls
6749 4376 Pls
1711 3262 Pls
3390 3535 Pls
5070 4176 Pls
6749 3962 Pls
1711 3262 Pls
3390 4192 Pls
5070 4176 Pls
6749 4376 Pls
1711 4000 Pls
3390 3864 Pls
5070 3895 Pls
6749 4169 Pls
1711 4247 Pls
3390 4083 Pls
5070 4387 Pls
6749 4428 Pls
1711 4475 Pls
3390 4196 Pls
5070 4415 Pls
6749 4405 Pls
1711 4739 Pls
3390 4263 Pls
5070 4153 Pls
6749 4610 Pls
1711 4036 Pls
3390 4441 Pls
5070 4286 Pls
6749 4069 Pls
1711 4575 Pls
3390 4189 Pls
5070 4283 Pls
6749 4332 Pls
1711 4064 Pls
3390 4320 Pls
5070 4188 Pls
6749 4151 Pls
1711 3262 Pls
3390 4301 Pls
5070 4036 Pls
6749 4117 Pls
1711 4000 Pls
3390 4192 Pls
5070 4036 Pls
6749 4065 Pls
1711 4247 Pls
3390 3864 Pls
5070 4387 Pls
6749 4324 Pls
1711 3262 Pls
3390 3317 Pls
5070 4036 Pls
6749 4324 Pls
1711 3508 Pls
3390 4192 Pls
5070 4458 Pls
6749 4065 Pls
1711 4269 Pls
3390 4039 Pls
5070 4348 Pls
6749 4571 Pls
1711 4088 Pls
3390 4508 Pls
5070 4164 Pls
6749 4233 Pls
1711 4296 Pls
3390 4386 Pls
5070 4419 Pls
6749 4352 Pls
1711 4493 Pls
3390 4099 Pls
5070 4687 Pls
6749 4393 Pls
1711 4255 Pls
3390 4339 Pls
5070 4132 Pls
6749 4605 Pls
1711 3754 Pls
3390 3754 Pls
5070 4317 Pls
6749 4376 Pls
1711 4247 Pls
3390 3973 Pls
5070 4247 Pls
6749 4532 Pls
1711 3754 Pls
3390 3864 Pls
5070 4387 Pls
6749 4428 Pls
1711 4247 Pls
3390 4301 Pls
5070 4176 Pls
6749 4376 Pls
1711 4493 Pls
3390 4520 Pls
5070 4458 Pls
6749 4273 Pls
1711 4348 Pls
3390 4358 Pls
5070 4358 Pls
6749 4476 Pls
1711 4065 Pls
3390 4611 Pls
5070 4519 Pls
6749 4401 Pls
1711 4370 Pls
3390 3781 Pls
5070 4240 Pls
6749 4358 Pls
1711 4214 Pls
3390 4086 Pls
5070 4557 Pls
6749 4336 Pls
1711 4050 Pls
3390 3699 Pls
5070 4159 Pls
6749 4390 Pls
1711 3754 Pls
3390 3864 Pls
5070 4528 Pls
6749 4065 Pls
1711 4493 Pls
3390 4192 Pls
5070 4387 Pls
6749 4065 Pls
1711 4247 Pls
3390 3864 Pls
5070 3825 Pls
6749 4480 Pls
1711 4493 Pls
3390 4301 Pls
5070 3965 Pls
6749 4428 Pls
1711 3016 Pls
3390 4630 Pls
5070 4669 Pls
6749 4324 Pls
1711 4147 Pls
3390 4026 Pls
5070 4275 Pls
6749 4331 Pls
1711 4493 Pls
3390 4003 Pls
5070 4433 Pls
6749 4557 Pls
1711 3876 Pls
3390 4410 Pls
5070 4229 Pls
6749 4502 Pls
1711 3712 Pls
3390 3595 Pls
5070 4199 Pls
6749 4314 Pls
1711 3787 Pls
3390 3718 Pls
5070 3918 Pls
6749 4066 Pls
1711 2277 Pls
3390 4301 Pls
5070 4598 Pls
6749 4273 Pls
1711 3016 Pls
3390 3864 Pls
5070 4176 Pls
6749 4324 Pls
1711 3262 Pls
3390 4411 Pls
5070 4387 Pls
6749 4532 Pls
1711 3016 Pls
3390 3645 Pls
5070 4317 Pls
6749 4324 Pls
1711 3754 Pls
3390 3754 Pls
5070 4317 Pls
6749 4221 Pls
1711 4270 Pls
3390 4441 Pls
5070 4216 Pls
6749 4258 Pls
1711 4247 Pls
3390 4187 Pls
5070 4052 Pls
6749 4361 Pls
1711 3660 Pls
3390 4084 Pls
5070 4175 Pls
6749 4218 Pls
1711 4294 Pls
3390 4321 Pls
5070 4322 Pls
6749 4330 Pls
1711 3154 Pls
3390 3874 Pls
5070 4296 Pls
6749 4124 Pls
1711 3754 Pls
3390 3317 Pls
5070 4458 Pls
6749 4376 Pls
1711 4000 Pls
3390 4301 Pls
5070 4387 Pls
6749 4324 Pls
1711 4247 Pls
3390 4083 Pls
5070 4106 Pls
6749 4428 Pls
1711 3754 Pls
3390 4301 Pls
5070 3684 Pls
6749 4221 Pls
1711 3262 Pls
3390 4411 Pls
5070 4036 Pls
6749 4221 Pls
1711 4616 Pls
3390 4274 Pls
5070 4283 Pls
6749 4432 Pls
1711 4352 Pls
3390 4279 Pls
5070 4288 Pls
6749 4558 Pls
1711 4335 Pls
3390 4035 Pls
5070 4207 Pls
6749 4152 Pls
1711 3795 Pls
3390 3977 Pls
5070 4233 Pls
6749 4288 Pls
1711 3679 Pls
3390 3898 Pls
5070 4318 Pls
6749 4122 Pls
1711 3016 Pls
3390 4301 Pls
5070 4247 Pls
6749 4221 Pls
1711 3508 Pls
3390 3754 Pls
5070 4458 Pls
6749 4273 Pls
1711 3508 Pls
3390 3973 Pls
5070 3965 Pls
6749 3962 Pls
1711 4247 Pls
3390 3207 Pls
5070 3965 Pls
6749 4273 Pls
1711 4000 Pls
3390 4520 Pls
5070 4387 Pls
6749 4376 Pls
1711 3759 Pls
3390 4221 Pls
5070 4480 Pls
6749 4386 Pls
1711 4194 Pls
3390 4308 Pls
5070 4253 Pls
6749 4341 Pls
1711 4294 Pls
3390 4286 Pls
5070 4290 Pls
6749 4294 Pls
1711 4206 Pls
3390 4268 Pls
5070 4247 Pls
6749 4509 Pls
1711 4097 Pls
3390 4125 Pls
5070 4057 Pls
6749 4293 Pls
1711 3262 Pls
3390 4192 Pls
5070 4176 Pls
6749 4221 Pls
1711 4000 Pls
3390 3864 Pls
5070 3895 Pls
6749 4376 Pls
1711 3262 Pls
3390 3645 Pls
5070 4036 Pls
6749 4480 Pls
1711 3754 Pls
3390 4192 Pls
5070 4669 Pls
6749 4324 Pls
1711 3754 Pls
3390 4083 Pls
5070 4247 Pls
6749 4480 Pls
1711 4401 Pls
3390 4234 Pls
5070 4357 Pls
6749 4459 Pls
1711 4184 Pls
3390 4512 Pls
5070 4372 Pls
6749 4474 Pls
1711 4493 Pls
3390 4186 Pls
5070 4354 Pls
6749 4523 Pls
1711 3923 Pls
3390 4431 Pls
5070 4450 Pls
6749 4513 Pls
1711 3926 Pls
3390 3874 Pls
5070 4328 Pls
6749 4137 Pls
1711 4000 Pls
3390 3973 Pls
5070 4247 Pls
6749 4221 Pls
1711 4247 Pls
3390 4192 Pls
5070 3965 Pls
6749 4273 Pls
1711 4000 Pls
3390 4411 Pls
5070 4387 Pls
6749 4532 Pls
1711 4739 Pls
3390 4083 Pls
5070 4528 Pls
6749 4221 Pls
1711 4247 Pls
3390 3864 Pls
5070 4528 Pls
6749 4376 Pls
1711 4270 Pls
3390 3953 Pls
5070 4329 Pls
6749 4113 Pls
1711 3224 Pls
3390 3867 Pls
5070 4496 Pls
6749 4515 Pls
1711 4434 Pls
3390 3661 Pls
5070 4308 Pls
6749 4459 Pls
1711 3614 Pls
3390 3896 Pls
5070 3879 Pls
6749 4455 Pls
1711 3820 Pls
3390 3495 Pls
5070 4107 Pls
6749 4354 Pls
1711 2031 Pls
3390 4083 Pls
5070 3754 Pls
6749 3910 Pls
1711 3508 Pls
3390 4083 Pls
5070 4317 Pls
6749 4117 Pls
1711 4000 Pls
3390 3317 Pls
5070 4387 Pls
6749 4428 Pls
1711 3262 Pls
3390 3973 Pls
5070 3825 Pls
6749 4169 Pls
1711 3508 Pls
3390 3317 Pls
5070 4247 Pls
6749 4480 Pls
1711 4270 Pls
3390 4598 Pls
5070 4388 Pls
6749 4522 Pls
1711 4229 Pls
3390 4244 Pls
5070 4175 Pls
6749 4284 Pls
1711 3703 Pls
3390 3978 Pls
5070 4458 Pls
6749 4217 Pls
1711 4311 Pls
3390 4060 Pls
5070 4396 Pls
6749 4425 Pls
1711 3459 Pls
3390 4485 Pls
5070 4381 Pls
6749 4354 Pls
1711 3508 Pls
3390 3754 Pls
5070 4247 Pls
6749 4273 Pls
1711 3754 Pls
3390 3645 Pls
5070 4036 Pls
6749 4376 Pls
1711 3016 Pls
3390 3864 Pls
5070 3895 Pls
6749 4169 Pls
1711 4493 Pls
3390 4192 Pls
5070 4247 Pls
6749 4480 Pls
1711 4247 Pls
3390 4083 Pls
5070 4176 Pls
6749 4221 Pls
1711 4329 Pls
3390 4427 Pls
5070 4282 Pls
6749 4347 Pls
1711 4067 Pls
3390 4140 Pls
5070 4259 Pls
6749 4558 Pls
1711 4211 Pls
3390 4415 Pls
5070 4109 Pls
6749 4276 Pls
1711 4352 Pls
3390 4270 Pls
5070 4178 Pls
6749 4349 Pls
1711 4181 Pls
3390 4363 Pls
5070 4383 Pls
6749 4457 Pls
1711 3262 Pls
3390 4083 Pls
5070 4317 Pls
6749 4273 Pls
1711 4000 Pls
3390 3973 Pls
5070 4317 Pls
6749 4221 Pls
1711 4739 Pls
3390 4192 Pls
5070 4036 Pls
6749 4324 Pls
1711 4247 Pls
3390 4301 Pls
5070 4387 Pls
6749 4376 Pls
1711 4493 Pls
3390 4301 Pls
5070 4458 Pls
6749 4169 Pls
1711 4506 Pls
3390 4369 Pls
5070 4355 Pls
6749 4480 Pls
1711 4493 Pls
3390 4447 Pls
5070 4243 Pls
6749 4396 Pls
1711 3914 Pls
3390 4040 Pls
5070 4332 Pls
6749 4244 Pls
1711 4598 Pls
3390 4431 Pls
5070 4205 Pls
6749 4390 Pls
1711 3983 Pls
3390 4490 Pls
5070 4072 Pls
6749 4374 Pls
1711 3754 Pls
3390 3535 Pls
5070 4247 Pls
6749 4221 Pls
1711 4000 Pls
3390 3864 Pls
5070 4387 Pls
6749 4532 Pls
1711 3508 Pls
3390 4301 Pls
5070 3754 Pls
6749 4480 Pls
1711 4000 Pls
3390 4083 Pls
5070 4528 Pls
6749 4324 Pls
1711 4493 Pls
3390 4192 Pls
5070 4458 Pls
6749 4480 Pls
1711 4739 Pls
3390 4199 Pls
5070 4229 Pls
6749 4349 Pls
1711 4084 Pls
3390 4168 Pls
5070 4007 Pls
6749 4279 Pls
1711 4211 Pls
3390 4182 Pls
5070 4465 Pls
6749 4358 Pls
1711 4352 Pls
3390 4064 Pls
5070 4247 Pls
6749 4399 Pls
1711 4598 Pls
3390 3675 Pls
5070 4336 Pls
6749 4421 Pls
1711 4000 Pls
3390 4083 Pls
5070 4247 Pls
6749 4169 Pls
1711 4739 Pls
3390 4192 Pls
5070 4247 Pls
6749 4376 Pls
1711 4493 Pls
3390 3864 Pls
5070 4528 Pls
6749 4169 Pls
1711 3754 Pls
3390 4083 Pls
5070 3825 Pls
6749 4584 Pls
1711 4739 Pls
3390 4083 Pls
5070 4387 Pls
6749 4169 Pls
1711 4335 Pls
3390 3902 Pls
5070 4234 Pls
6749 4426 Pls
1711 4261 Pls
3390 4060 Pls
5070 3995 Pls
6749 4560 Pls
1711 4311 Pls
3390 4228 Pls
5070 4076 Pls
6749 4274 Pls
1711 3853 Pls
3390 3251 Pls
5070 4037 Pls
6749 4462 Pls
1711 3262 Pls
3390 3889 Pls
5070 4243 Pls
6749 4495 Pls
1711 3262 Pls
3390 3645 Pls
5070 4247 Pls
6749 3910 Pls
1711 3262 Pls
3390 4520 Pls
5070 4387 Pls
6749 4324 Pls
1711 4000 Pls
3390 3317 Pls
5070 4036 Pls
6749 4324 Pls
1711 3508 Pls
3390 4520 Pls
5070 4036 Pls
6749 4169 Pls
1711 4000 Pls
3390 4411 Pls
5070 4317 Pls
6749 4169 Pls
1711 4147 Pls
3390 4499 Pls
5070 4049 Pls
6749 4132 Pls
1711 4493 Pls
3390 4329 Pls
5070 4441 Pls
6749 4340 Pls
1711 4294 Pls
3390 4099 Pls
5070 4155 Pls
6749 4508 Pls
1711 4170 Pls
3390 4142 Pls
5070 4221 Pls
6749 4408 Pls
1711 3037 Pls
3390 4193 Pls
5070 3883 Pls
6749 4124 Pls
1711 3016 Pls
3390 3645 Pls
5070 4387 Pls
6749 4013 Pls
1711 3016 Pls
3390 3754 Pls
5070 3965 Pls
6749 4169 Pls
1711 3262 Pls
3390 3317 Pls
5070 4176 Pls
6749 4324 Pls
1711 3754 Pls
3390 4192 Pls
5070 4317 Pls
6749 4169 Pls
1711 3508 Pls
3390 4192 Pls
5070 3965 Pls
6749 4324 Pls
1711 4352 Pls
3390 4135 Pls
5070 4480 Pls
6749 4272 Pls
1711 4024 Pls
3390 4324 Pls
5070 4441 Pls
6749 4203 Pls
1711 4311 Pls
3390 4351 Pls
5070 4453 Pls
6749 4285 Pls
1711 4616 Pls
3390 4122 Pls
5070 4268 Pls
6749 4333 Pls
1711 3895 Pls
3390 4189 Pls
5070 4081 Pls
6749 4082 Pls
1711 4493 Pls
3390 3864 Pls
5070 4247 Pls
6749 4376 Pls
1711 4000 Pls
3390 4192 Pls
5070 3684 Pls
6749 4480 Pls
1711 3754 Pls
3390 3754 Pls
5070 4036 Pls
6749 4324 Pls
1711 2770 Pls
3390 4192 Pls
5070 4387 Pls
6749 4376 Pls
1711 4000 Pls
3390 3973 Pls
5070 4176 Pls
6749 4273 Pls
1711 4153 Pls
3390 4318 Pls
5070 4416 Pls
6749 4560 Pls
1711 4598 Pls
3390 3914 Pls
5070 4166 Pls
6749 4484 Pls
1711 4452 Pls
3390 4269 Pls
5070 4393 Pls
6749 4205 Pls
1711 3917 Pls
3390 4435 Pls
5070 4290 Pls
6749 4171 Pls
1711 4099 Pls
3390 4381 Pls
5070 4122 Pls
6749 4420 Pls
1711 3508 Pls
3390 3754 Pls
5070 3895 Pls
6749 4221 Pls
1711 4000 Pls
3390 4083 Pls
5070 4247 Pls
6749 4169 Pls
1711 4000 Pls
3390 4520 Pls
5070 4317 Pls
6749 4324 Pls
1711 4493 Pls
3390 3864 Pls
5070 4317 Pls
6749 4428 Pls
1711 4000 Pls
3390 4630 Pls
5070 4458 Pls
6749 4532 Pls
1711 4211 Pls
3390 4259 Pls
5070 4339 Pls
6749 4292 Pls
1711 4124 Pls
3390 4328 Pls
5070 4329 Pls
6749 4368 Pls
1711 4739 Pls
3390 4225 Pls
5070 4461 Pls
6749 4205 Pls
1711 4598 Pls
3390 4349 Pls
5070 4244 Pls
6749 4398 Pls
1711 4040 Pls
3390 3862 Pls
5070 4265 Pls
6749 4242 Pls
1711 3508 Pls
3390 4192 Pls
5070 3965 Pls
6749 4324 Pls
1711 4493 Pls
3390 3754 Pls
5070 4106 Pls
6749 4532 Pls
1711 4000 Pls
3390 3973 Pls
5070 4036 Pls
6749 4324 Pls
1711 3016 Pls
3390 4301 Pls
5070 4247 Pls
6749 4324 Pls
1711 4247 Pls
3390 4083 Pls
5070 4247 Pls
6749 4376 Pls
1711 4040 Pls
3390 4354 Pls
5070 4375 Pls
6749 4517 Pls
1711 3725 Pls
3390 3511 Pls
5070 4179 Pls
6749 4335 Pls
1711 4181 Pls
3390 4049 Pls
5070 4243 Pls
6749 4182 Pls
1711 3983 Pls
3390 3954 Pls
5070 4431 Pls
6749 4308 Pls
1711 2999 Pls
3390 3987 Pls
5070 4058 Pls
6749 4078 Pls
1711 3016 Pls
3390 4083 Pls
5070 4247 Pls
6749 4221 Pls
1711 4247 Pls
3390 3973 Pls
5070 3895 Pls
6749 4117 Pls
1711 4000 Pls
3390 3973 Pls
5070 4317 Pls
6749 4169 Pls
1711 3508 Pls
3390 4301 Pls
5070 4036 Pls
6749 4169 Pls
1711 4000 Pls
3390 3754 Pls
5070 4387 Pls
6749 4013 Pls
1711 4214 Pls
3390 3997 Pls
5070 4349 Pls
6749 4339 Pls
1711 4229 Pls
3390 4347 Pls
5070 4297 Pls
6749 4129 Pls
1711 3973 Pls
3390 4485 Pls
5070 4342 Pls
6749 3984 Pls
1711 4015 Pls
3390 4286 Pls
5070 4086 Pls
6749 4329 Pls
1711 2826 Pls
3390 3684 Pls
5070 4427 Pls
6749 4323 Pls
1711 3262 Pls
3390 4301 Pls
5070 4106 Pls
6749 4376 Pls
1711 3262 Pls
3390 4192 Pls
5070 4247 Pls
6749 4584 Pls
1711 4247 Pls
3390 3973 Pls
5070 4247 Pls
6749 4273 Pls
1711 3508 Pls
3390 3535 Pls
5070 4106 Pls
6749 4117 Pls
1711 4493 Pls
3390 4083 Pls
5070 4036 Pls
6749 4221 Pls
1711 4598 Pls
3390 4133 Pls
5070 4406 Pls
6749 4482 Pls
1711 4475 Pls
3390 4276 Pls
5070 4293 Pls
6749 4480 Pls
1711 3986 Pls
3390 4122 Pls
5070 4134 Pls
6749 4428 Pls
1711 4030 Pls
3390 4064 Pls
5070 4492 Pls
6749 4368 Pls
1711 4278 Pls
3390 4408 Pls
5070 4195 Pls
6749 4370 Pls
1711 3262 Pls
3390 3973 Pls
5070 4176 Pls
6749 4324 Pls
1711 3016 Pls
3390 4083 Pls
5070 4036 Pls
6749 4221 Pls
1711 3754 Pls
3390 4520 Pls
5070 3825 Pls
6749 4428 Pls
1711 4000 Pls
3390 4301 Pls
5070 4176 Pls
6749 4221 Pls
1711 3262 Pls
3390 3864 Pls
5070 4247 Pls
6749 4376 Pls
1711 4288 Pls
3390 4102 Pls
5070 4298 Pls
6749 4235 Pls
1711 4506 Pls
3390 4520 Pls
5070 4286 Pls
6749 4241 Pls
1711 3989 Pls
3390 3777 Pls
5070 4295 Pls
6749 4480 Pls
1711 4311 Pls
3390 3734 Pls
5070 4567 Pls
6749 4214 Pls
1711 4247 Pls
3390 4101 Pls
5070 4338 Pls
6749 4278 Pls
1711 4000 Pls
3390 3973 Pls
5070 4317 Pls
6749 4324 Pls
1711 3508 Pls
3390 4083 Pls
5070 4317 Pls
6749 4169 Pls
1711 3754 Pls
3390 3535 Pls
5070 4387 Pls
6749 4221 Pls
1711 3754 Pls
3390 4192 Pls
5070 4317 Pls
6749 4273 Pls
1711 4000 Pls
3390 4192 Pls
5070 4528 Pls
6749 4428 Pls
1711 4520 Pls
3390 4250 Pls
5070 4635 Pls
6749 4438 Pls
1711 4598 Pls
3390 4087 Pls
5070 4232 Pls
6749 4303 Pls
1711 4489 Pls
3390 4092 Pls
5070 4350 Pls
6749 4530 Pls
1711 4739 Pls
3390 4196 Pls
5070 4578 Pls
6749 4349 Pls
1711 3761 Pls
3390 4094 Pls
5070 4014 Pls
6749 4021 Pls
1711 3754 Pls
3390 3754 Pls
5070 4247 Pls
6749 4584 Pls
1711 3262 Pls
3390 4192 Pls
5070 4317 Pls
6749 4221 Pls
1711 3754 Pls
3390 4301 Pls
5070 4317 Pls
6749 4376 Pls
1711 3262 Pls
3390 4083 Pls
5070 4036 Pls
6749 4532 Pls
1711 4739 Pls
3390 4630 Pls
5070 4247 Pls
6749 4221 Pls
1711 4138 Pls
3390 4139 Pls
5070 4223 Pls
6749 4480 Pls
1711 4366 Pls
3390 3762 Pls
5070 4187 Pls
6749 4193 Pls
1711 4129 Pls
3390 4410 Pls
5070 4107 Pls
6749 4325 Pls
1711 4012 Pls
3390 3835 Pls
5070 4365 Pls
6749 4502 Pls
1711 3820 Pls
3390 4291 Pls
5070 4169 Pls
6749 4305 Pls
1711 3262 Pls
3390 3535 Pls
5070 4106 Pls
6749 4221 Pls
1711 3262 Pls
3390 3754 Pls
5070 4106 Pls
6749 4065 Pls
1711 3262 Pls
3390 3098 Pls
5070 4247 Pls
6749 4532 Pls
1711 3508 Pls
3390 3535 Pls
5070 4036 Pls
6749 4324 Pls
1711 3262 Pls
3390 4630 Pls
5070 4176 Pls
6749 4687 Pls
1711 3618 Pls
3390 3821 Pls
5070 4255 Pls
6749 4343 Pls
1711 4493 Pls
3390 4161 Pls
5070 4475 Pls
6749 4519 Pls
1711 4311 Pls
3390 3876 Pls
5070 4345 Pls
6749 4307 Pls
1711 4616 Pls
3390 4036 Pls
5070 4237 Pls
6749 4448 Pls
1711 3154 Pls
3390 4217 Pls
5070 4616 Pls
6749 4366 Pls
1711 1046 Pls
3390 3973 Pls
5070 4317 Pls
6749 4013 Pls
1711 3262 Pls
3390 4192 Pls
5070 4317 Pls
6749 4480 Pls
1711 3754 Pls
3390 4192 Pls
5070 4387 Pls
6749 4428 Pls
1711 3754 Pls
3390 4083 Pls
5070 4317 Pls
6749 4376 Pls
1711 3508 Pls
3390 3973 Pls
5070 4247 Pls
6749 4687 Pls
1711 4188 Pls
3390 4017 Pls
5070 4398 Pls
6749 4315 Pls
1711 3650 Pls
3390 4591 Pls
5070 4346 Pls
6749 4474 Pls
1711 3515 Pls
3390 4197 Pls
5070 4243 Pls
6749 4208 Pls
1711 3581 Pls
3390 4252 Pls
5070 4335 Pls
6749 4240 Pls
1711 4311 Pls
3390 4237 Pls
5070 4391 Pls
6749 4457 Pls
1711 3754 Pls
3390 3645 Pls
5070 4176 Pls
6749 4480 Pls
1711 3754 Pls
3390 3973 Pls
5070 4106 Pls
6749 4169 Pls
1711 4000 Pls
3390 3645 Pls
5070 4176 Pls
6749 4117 Pls
1711 4247 Pls
3390 4083 Pls
5070 4036 Pls
6749 4376 Pls
1711 4493 Pls
3390 4083 Pls
5070 4387 Pls
6749 4221 Pls
1711 4243 Pls
3390 4338 Pls
5070 4522 Pls
6749 4528 Pls
1711 4211 Pls
3390 4112 Pls
5070 4192 Pls
6749 4320 Pls
1711 4739 Pls
3390 3918 Pls
5070 4410 Pls
6749 4427 Pls
1711 4411 Pls
3390 4251 Pls
5070 4403 Pls
6749 4395 Pls
1711 4458 Pls
3390 3799 Pls
5070 4500 Pls
6749 4196 Pls
1711 4493 Pls
3390 4083 Pls
5070 3895 Pls
6749 4428 Pls
1711 3508 Pls
3390 3864 Pls
5070 4317 Pls
6749 4480 Pls
1711 4247 Pls
3390 4192 Pls
5070 4036 Pls
6749 4480 Pls
1711 3754 Pls
3390 4411 Pls
5070 4247 Pls
6749 4480 Pls
1711 4493 Pls
3390 4630 Pls
5070 3895 Pls
6749 4273 Pls
1711 4475 Pls
3390 4286 Pls
5070 4322 Pls
6749 4317 Pls
1711 4274 Pls
3390 4478 Pls
5070 4268 Pls
6749 4517 Pls
1711 4161 Pls
3390 4029 Pls
5070 4287 Pls
6749 4473 Pls
1711 4073 Pls
3390 4243 Pls
5070 4401 Pls
6749 4318 Pls
1711 3897 Pls
3390 4207 Pls
5070 4462 Pls
6749 4270 Pls
1711 3262 Pls
3390 3973 Pls
5070 4247 Pls
6749 4428 Pls
1711 4247 Pls
3390 4301 Pls
5070 4247 Pls
6749 4428 Pls
1711 4247 Pls
3390 3973 Pls
5070 4528 Pls
6749 4273 Pls
1711 3754 Pls
3390 3973 Pls
5070 4528 Pls
6749 4428 Pls
1711 4739 Pls
3390 4083 Pls
5070 3965 Pls
6749 4324 Pls
1711 3727 Pls
3390 3960 Pls
5070 4311 Pls
6749 4432 Pls
1711 3651 Pls
3390 4403 Pls
5070 4215 Pls
6749 4410 Pls
1711 3777 Pls
3390 3957 Pls
5070 4242 Pls
6749 4425 Pls
1711 3918 Pls
3390 4175 Pls
5070 4018 Pls
6749 4272 Pls
1711 3492 Pls
3390 3987 Pls
5070 4169 Pls
6749 4310 Pls
1711 3262 Pls
3390 2988 Pls
5070 4176 Pls
6749 4324 Pls
1711 3016 Pls
3390 3207 Pls
5070 3825 Pls
6749 4169 Pls
1711 3508 Pls
3390 3426 Pls
5070 4106 Pls
6749 4221 Pls
1711 3262 Pls
3390 3973 Pls
5070 4387 Pls
6749 4324 Pls
1711 3508 Pls
3390 3973 Pls
5070 4106 Pls
6749 4480 Pls
1711 4165 Pls
3390 4107 Pls
5070 3905 Pls
6749 4522 Pls
1711 4204 Pls
3390 4359 Pls
5070 4396 Pls
6749 4441 Pls
1711 4598 Pls
3390 4195 Pls
5070 4329 Pls
6749 4392 Pls
1711 4153 Pls
3390 4146 Pls
5070 4311 Pls
6749 4280 Pls
1711 4237 Pls
3390 4230 Pls
5070 4311 Pls
6749 4321 Pls
1711 3508 Pls
3390 4192 Pls
5070 4106 Pls
6749 4324 Pls
1711 4247 Pls
3390 3645 Pls
5070 4317 Pls
6749 4169 Pls
1711 3754 Pls
3390 4192 Pls
5070 4317 Pls
6749 3910 Pls
1711 4493 Pls
3390 4301 Pls
5070 4106 Pls
6749 4221 Pls
1711 4000 Pls
3390 4411 Pls
5070 4247 Pls
6749 4065 Pls
1711 4575 Pls
3390 3956 Pls
5070 4202 Pls
6749 4230 Pls
1711 4317 Pls
3390 4435 Pls
5070 4326 Pls
6749 4433 Pls
1711 3900 Pls
3390 4274 Pls
5070 4207 Pls
6749 4511 Pls
1711 4325 Pls
3390 4222 Pls
5070 4231 Pls
6749 4299 Pls
1711 4106 Pls
3390 3668 Pls
5070 4325 Pls
6749 4244 Pls
1711 3016 Pls
3390 4411 Pls
5070 4036 Pls
6749 4221 Pls
1711 3754 Pls
3390 3426 Pls
5070 4247 Pls
6749 3962 Pls
1711 4247 Pls
3390 3864 Pls
5070 4036 Pls
6749 4169 Pls
1711 4000 Pls
3390 4083 Pls
5070 4528 Pls
6749 4376 Pls
1711 4247 Pls
3390 3973 Pls
5070 4106 Pls
6749 4221 Pls
1711 4598 Pls
3390 4288 Pls
5070 4350 Pls
6749 4565 Pls
1711 3942 Pls
3390 4186 Pls
5070 4353 Pls
6749 4447 Pls
1711 3507 Pls
3390 4097 Pls
5070 4157 Pls
6749 4440 Pls
1711 4411 Pls
3390 3859 Pls
5070 4220 Pls
6749 4280 Pls
1711 3645 Pls
3390 4153 Pls
5070 4445 Pls
6749 4514 Pls
1711 4247 Pls
3390 3864 Pls
5070 3965 Pls
6749 4065 Pls
1711 4000 Pls
3390 3754 Pls
5070 4176 Pls
6749 4169 Pls
1711 4493 Pls
3390 4411 Pls
5070 3895 Pls
6749 4169 Pls
1711 4247 Pls
3390 3317 Pls
5070 4247 Pls
6749 4428 Pls
1711 4000 Pls
3390 3645 Pls
5070 4106 Pls
6749 4273 Pls
1711 4458 Pls
3390 4120 Pls
5070 4390 Pls
6749 4526 Pls
1711 4270 Pls
3390 4160 Pls
5070 4451 Pls
6749 4341 Pls
1711 3989 Pls
3390 4278 Pls
5070 4583 Pls
6749 4515 Pls
1711 4222 Pls
3390 4117 Pls
5070 4248 Pls
6749 4384 Pls
1711 4278 Pls
3390 4231 Pls
5070 4391 Pls
6749 4421 Pls
1711 4000 Pls
3390 3864 Pls
5070 4317 Pls
6749 4013 Pls
1711 3262 Pls
3390 3645 Pls
5070 4106 Pls
6749 4273 Pls
1711 4000 Pls
3390 4301 Pls
5070 3895 Pls
6749 4324 Pls
1711 4493 Pls
3390 4301 Pls
5070 4036 Pls
6749 4117 Pls
1711 3508 Pls
3390 4192 Pls
5070 4317 Pls
6749 4324 Pls
1711 3923 Pls
3390 4139 Pls
5070 4326 Pls
6749 4317 Pls
1711 3753 Pls
3390 4223 Pls
5070 3927 Pls
6749 4274 Pls
1711 3843 Pls
3390 3624 Pls
5070 4253 Pls
6749 4370 Pls
1711 3440 Pls
3390 3821 Pls
5070 4187 Pls
6749 4227 Pls
1711 3689 Pls
3390 4193 Pls
5070 3840 Pls
6749 4261 Pls
1711 3016 Pls
3390 3864 Pls
5070 4387 Pls
6749 4117 Pls
1711 2770 Pls
3390 4083 Pls
5070 4247 Pls
6749 4169 Pls
1711 3508 Pls
3390 4301 Pls
5070 4317 Pls
6749 4532 Pls
1711 3016 Pls
3390 4192 Pls
5070 4247 Pls
6749 4117 Pls
1711 4000 Pls
3390 4083 Pls
5070 4106 Pls
6749 4065 Pls
1711 4194 Pls
3390 4581 Pls
5070 4438 Pls
6749 4340 Pls
1711 3505 Pls
3390 4282 Pls
5070 4325 Pls
6749 4291 Pls
1711 4050 Pls
3390 4123 Pls
5070 4401 Pls
6749 4428 Pls
1711 3417 Pls
3390 4003 Pls
5070 4175 Pls
6749 4186 Pls
1711 4739 Pls
3390 3709 Pls
5070 4319 Pls
6749 4505 Pls
1711 3016 Pls
3390 4301 Pls
5070 4247 Pls
6749 4221 Pls
1711 3508 Pls
3390 4301 Pls
5070 4036 Pls
6749 4480 Pls
1711 3754 Pls
3390 4301 Pls
5070 3825 Pls
6749 4480 Pls
1711 4000 Pls
3390 4192 Pls
5070 3965 Pls
6749 4480 Pls
1711 4000 Pls
3390 4411 Pls
5070 4036 Pls
6749 4428 Pls
1711 3756 Pls
3390 4499 Pls
5070 4623 Pls
6749 4485 Pls
1711 4311 Pls
3390 4328 Pls
5070 4214 Pls
6749 4431 Pls
1711 3745 Pls
3390 4259 Pls
5070 4424 Pls
6749 4382 Pls
1711 4270 Pls
3390 4320 Pls
5070 3975 Pls
6749 4476 Pls
1711 4247 Pls
3390 4199 Pls
5070 4180 Pls
6749 4231 Pls
1711 4000 Pls
3390 4192 Pls
5070 3965 Pls
6749 4324 Pls
1711 4000 Pls
3390 4630 Pls
5070 4036 Pls
6749 4376 Pls
1711 4493 Pls
3390 4301 Pls
5070 4387 Pls
6749 4376 Pls
1711 4000 Pls
3390 3973 Pls
5070 4247 Pls
6749 4532 Pls
1711 4739 Pls
3390 3535 Pls
5070 4176 Pls
6749 4169 Pls
1711 4065 Pls
3390 3948 Pls
5070 4306 Pls
6749 4441 Pls
1711 4616 Pls
3390 4493 Pls
5070 4456 Pls
6749 4348 Pls
1711 3989 Pls
3390 4281 Pls
5070 4213 Pls
6749 4292 Pls
1711 3515 Pls
3390 4430 Pls
5070 4408 Pls
6749 4386 Pls
1711 3743 Pls
3390 3866 Pls
5070 4342 Pls
6749 4368 Pls
1711 3016 Pls
3390 3754 Pls
5070 4387 Pls
6749 4324 Pls
1711 3754 Pls
3390 4411 Pls
5070 4106 Pls
6749 3962 Pls
1711 4000 Pls
3390 4083 Pls
5070 4036 Pls
6749 4428 Pls
1711 4493 Pls
3390 3864 Pls
5070 4036 Pls
6749 4376 Pls
1711 4247 Pls
3390 4083 Pls
5070 4528 Pls
6749 4376 Pls
1711 4475 Pls
3390 4739 Pls
5070 4193 Pls
6749 4351 Pls
1711 4184 Pls
3390 4194 Pls
5070 4093 Pls
6749 4308 Pls
1711 3976 Pls
3390 4162 Pls
5070 4353 Pls
6749 4433 Pls
1711 4288 Pls
3390 4195 Pls
5070 4280 Pls
6749 4278 Pls
1711 4294 Pls
3390 3794 Pls
5070 4273 Pls
6749 4256 Pls
1711 3016 Pls
3390 3864 Pls
5070 4176 Pls
6749 4013 Pls
1711 4493 Pls
3390 3973 Pls
5070 4598 Pls
6749 4221 Pls
1711 4000 Pls
3390 3973 Pls
5070 4528 Pls
6749 4324 Pls
1711 4493 Pls
3390 4192 Pls
5070 4247 Pls
6749 4584 Pls
1711 4739 Pls
3390 4083 Pls
5070 4317 Pls
6749 4532 Pls
1711 4012 Pls
3390 4314 Pls
5070 4340 Pls
6749 4463 Pls
1711 4434 Pls
3390 3986 Pls
5070 4371 Pls
6749 4372 Pls
1711 4106 Pls
3390 4265 Pls
5070 4542 Pls
6749 4457 Pls
1711 2535 Pls
3390 4029 Pls
5070 4065 Pls
6749 4466 Pls
1711 4378 Pls
3390 3620 Pls
5070 4103 Pls
6749 4207 Pls
1711 3262 Pls
3390 4083 Pls
5070 4036 Pls
6749 4376 Pls
1711 4000 Pls
3390 3864 Pls
5070 4176 Pls
6749 4273 Pls
1711 3262 Pls
3390 3864 Pls
5070 4387 Pls
6749 4428 Pls
1711 3754 Pls
3390 4083 Pls
5070 4317 Pls
6749 4376 Pls
1711 3016 Pls
3390 3754 Pls
5070 4247 Pls
6749 3962 Pls
1711 4506 Pls
3390 4174 Pls
5070 4331 Pls
6749 4346 Pls
1711 4616 Pls
3390 4406 Pls
5070 4677 Pls
6749 4513 Pls
1711 3942 Pls
3390 4217 Pls
5070 4285 Pls
6749 4421 Pls
1711 4452 Pls
3390 4223 Pls
5070 4270 Pls
6749 4295 Pls
1711 3942 Pls
3390 4142 Pls
5070 4257 Pls
6749 4229 Pls
1711 4000 Pls
3390 3535 Pls
5070 4317 Pls
6749 4428 Pls
1711 4000 Pls
3390 3864 Pls
5070 3965 Pls
6749 4273 Pls
1711 4000 Pls
3390 4083 Pls
5070 4106 Pls
6749 4324 Pls
1711 3754 Pls
3390 4083 Pls
5070 4317 Pls
6749 4273 Pls
1711 4247 Pls
3390 4411 Pls
5070 3895 Pls
6749 4376 Pls
1711 4294 Pls
3390 3809 Pls
5070 4271 Pls
6749 4302 Pls
1711 4288 Pls
3390 4393 Pls
5070 4375 Pls
6749 4569 Pls
1711 4366 Pls
3390 4270 Pls
5070 4471 Pls
6749 4140 Pls
1711 3809 Pls
3390 4353 Pls
5070 4210 Pls
6749 4166 Pls
1711 3820 Pls
3390 3864 Pls
5070 3937 Pls
6749 4130 Pls
1711 4493 Pls
3390 3645 Pls
5070 4387 Pls
6749 4065 Pls
1711 3754 Pls
3390 4301 Pls
5070 4528 Pls
6749 4169 Pls
1711 2523 Pls
3390 4520 Pls
5070 4458 Pls
6749 4273 Pls
1711 3754 Pls
3390 4083 Pls
5070 4387 Pls
6749 4221 Pls
1711 4247 Pls
3390 4192 Pls
5070 4247 Pls
6749 4376 Pls
1711 4366 Pls
3390 4455 Pls
5070 4407 Pls
6749 4521 Pls
1711 4465 Pls
3390 4149 Pls
5070 4571 Pls
6749 4218 Pls
1711 4325 Pls
3390 4324 Pls
5070 4124 Pls
6749 4220 Pls
1711 4630 Pls
3390 4396 Pls
5070 4355 Pls
6749 4127 Pls
1711 4211 Pls
3390 4478 Pls
5070 4248 Pls
6749 4423 Pls
1711 4493 Pls
3390 4411 Pls
5070 4176 Pls
6749 4013 Pls
1711 3754 Pls
3390 3426 Pls
5070 4106 Pls
6749 4324 Pls
1711 3262 Pls
3390 3754 Pls
5070 3895 Pls
6749 4324 Pls
1711 4247 Pls
3390 4520 Pls
5070 4176 Pls
6749 4324 Pls
1711 4000 Pls
3390 3645 Pls
5070 4247 Pls
6749 4428 Pls
1711 4325 Pls
3390 4663 Pls
5070 4150 Pls
6749 4353 Pls
1711 4616 Pls
3390 4417 Pls
5070 4350 Pls
6749 4476 Pls
1711 4184 Pls
3390 4181 Pls
5070 4235 Pls
6749 4442 Pls
1711 4434 Pls
3390 4314 Pls
5070 4383 Pls
6749 4523 Pls
1711 4270 Pls
3390 4475 Pls
5070 4182 Pls
6749 4513 Pls
1711 2770 Pls
3390 3426 Pls
5070 4317 Pls
6749 4376 Pls
1711 3508 Pls
3390 3973 Pls
5070 3965 Pls
6749 4428 Pls
1711 4493 Pls
3390 3864 Pls
5070 4176 Pls
6749 4117 Pls
1711 4247 Pls
3390 3973 Pls
5070 4458 Pls
6749 4532 Pls
1711 4247 Pls
3390 4083 Pls
5070 4247 Pls
6749 4324 Pls
% End plot #1
% Begin plot #2
8.000 UL
LT1
LCb setrgbcolor
5636 1488 M
[ [(Helvetica) 250.0 0.0 true true 0 (Average)]
] -83.3 MRshow
LT1
5786 1488 M
663 0 V
1711 3928 M
1679 179 V
1680 153 V
1679 94 V
% End plot #2
% Begin plot #3
stroke
4.000 UL
LT2
LCb setrgbcolor
5636 1238 M
[ [(Helvetica) 250.0 0.0 true true 0 (Min)]
] -83.3 MRshow
LT2
5786 1238 M
663 0 V
1711 1046 M
3390 2988 L
1680 555 V
1679 336 V
% End plot #3
% Begin plot #4
stroke
LT3
LCb setrgbcolor
5636 988 M
[ [(Helvetica) 250.0 0.0 true true 0 (Max)]
] -83.3 MRshow
LT3
5786 988 M
663 0 V
1711 4739 M
1679 0 V
1680 0 V
1679 0 V
% End plot #4
stroke
1.000 UL
LTb
1375 4739 N
0 -3939 V
5374 0 V
0 3939 V
-5374 0 V
Z stroke
1.000 UP
1.000 UL
LTb
stroke
grestore
end
showpage
%%Trailer
%%DocumentFonts: Helvetica
