%!PS-Adobe-2.0 EPSF-2.0
%%Title: n_num_segments-precision.eps
%%Creator: gnuplot 4.4 patchlevel 3
%%CreationDate: Fri Jun 14 19:20:09 2013
%%DocumentFonts: (atend)
%%BoundingBox: 50 50 410 302
%%EndComments
%%BeginProlog
/gnudict 256 dict def
gnudict begin
%
% The following true/false flags may be edited by hand if desired.
% The unit line width and grayscale image gamma correction may also be changed.
%
/Color true def
/Blacktext false def
/Solid false def
/Dashlength 1 def
/Landscape false def
/Level1 false def
/Rounded false def
/ClipToBoundingBox false def
/TransparentPatterns false def
/gnulinewidth 5.000 def
/userlinewidth gnulinewidth def
/Gamma 1.0 def
%
/vshift -83 def
/dl1 {
  10.0 Dashlength mul mul
  Rounded { currentlinewidth 0.75 mul sub dup 0 le { pop 0.01 } if } if
} def
/dl2 {
  10.0 Dashlength mul mul
  Rounded { currentlinewidth 0.75 mul add } if
} def
/hpt_ 31.5 def
/vpt_ 31.5 def
/hpt hpt_ def
/vpt vpt_ def
Level1 {} {
/SDict 10 dict def
systemdict /pdfmark known not {
  userdict /pdfmark systemdict /cleartomark get put
} if
SDict begin [
  /Title (n_num_segments-precision.eps)
  /Subject (gnuplot plot)
  /Creator (gnuplot 4.4 patchlevel 3)
  /Author (xjia)
%  /Producer (gnuplot)
%  /Keywords ()
  /CreationDate (Fri Jun 14 19:20:09 2013)
  /DOCINFO pdfmark
end
} ifelse
/doclip {
  ClipToBoundingBox {
    newpath 50 50 moveto 410 50 lineto 410 302 lineto 50 302 lineto closepath
    clip
  } if
} def
%
% Gnuplot Prolog Version 4.4 (August 2010)
%
%/SuppressPDFMark true def
%
/M {moveto} bind def
/L {lineto} bind def
/R {rmoveto} bind def
/V {rlineto} bind def
/N {newpath moveto} bind def
/Z {closepath} bind def
/C {setrgbcolor} bind def
/f {rlineto fill} bind def
/g {setgray} bind def
/Gshow {show} def   % May be redefined later in the file to support UTF-8
/vpt2 vpt 2 mul def
/hpt2 hpt 2 mul def
/Lshow {currentpoint stroke M 0 vshift R 
	Blacktext {gsave 0 setgray show grestore} {show} ifelse} def
/Rshow {currentpoint stroke M dup stringwidth pop neg vshift R
	Blacktext {gsave 0 setgray show grestore} {show} ifelse} def
/Cshow {currentpoint stroke M dup stringwidth pop -2 div vshift R 
	Blacktext {gsave 0 setgray show grestore} {show} ifelse} def
/UP {dup vpt_ mul /vpt exch def hpt_ mul /hpt exch def
  /hpt2 hpt 2 mul def /vpt2 vpt 2 mul def} def
/DL {Color {setrgbcolor Solid {pop []} if 0 setdash}
 {pop pop pop 0 setgray Solid {pop []} if 0 setdash} ifelse} def
/BL {stroke userlinewidth 2 mul setlinewidth
	Rounded {1 setlinejoin 1 setlinecap} if} def
/AL {stroke userlinewidth 2 div setlinewidth
	Rounded {1 setlinejoin 1 setlinecap} if} def
/UL {dup gnulinewidth mul /userlinewidth exch def
	dup 1 lt {pop 1} if 10 mul /udl exch def} def
/PL {stroke userlinewidth setlinewidth
	Rounded {1 setlinejoin 1 setlinecap} if} def
3.8 setmiterlimit
% Default Line colors
/LCw {1 1 1} def
/LCb {0 0 0} def
/LCa {0 0 0} def
/LC0 {1 0 0} def
/LC1 {0 1 0} def
/LC2 {0 0 1} def
/LC3 {1 0 1} def
/LC4 {0 1 1} def
/LC5 {1 1 0} def
/LC6 {0 0 0} def
/LC7 {1 0.3 0} def
/LC8 {0.5 0.5 0.5} def
% Default Line Types
/LTw {PL [] 1 setgray} def
/LTb {BL [] LCb DL} def
/LTa {AL [1 udl mul 2 udl mul] 0 setdash LCa setrgbcolor} def
/LT0 {PL [] LC0 DL} def
/LT1 {PL [4 dl1 2 dl2] LC1 DL} def
/LT2 {PL [2 dl1 3 dl2] LC2 DL} def
/LT3 {PL [1 dl1 1.5 dl2] LC3 DL} def
/LT4 {PL [6 dl1 2 dl2 1 dl1 2 dl2] LC4 DL} def
/LT5 {PL [3 dl1 3 dl2 1 dl1 3 dl2] LC5 DL} def
/LT6 {PL [2 dl1 2 dl2 2 dl1 6 dl2] LC6 DL} def
/LT7 {PL [1 dl1 2 dl2 6 dl1 2 dl2 1 dl1 2 dl2] LC7 DL} def
/LT8 {PL [2 dl1 2 dl2 2 dl1 2 dl2 2 dl1 2 dl2 2 dl1 4 dl2] LC8 DL} def
/Pnt {stroke [] 0 setdash gsave 1 setlinecap M 0 0 V stroke grestore} def
/Dia {stroke [] 0 setdash 2 copy vpt add M
  hpt neg vpt neg V hpt vpt neg V
  hpt vpt V hpt neg vpt V closepath stroke
  Pnt} def
/Pls {stroke [] 0 setdash vpt sub M 0 vpt2 V
  currentpoint stroke M
  hpt neg vpt neg R hpt2 0 V stroke
 } def
/Box {stroke [] 0 setdash 2 copy exch hpt sub exch vpt add M
  0 vpt2 neg V hpt2 0 V 0 vpt2 V
  hpt2 neg 0 V closepath stroke
  Pnt} def
/Crs {stroke [] 0 setdash exch hpt sub exch vpt add M
  hpt2 vpt2 neg V currentpoint stroke M
  hpt2 neg 0 R hpt2 vpt2 V stroke} def
/TriU {stroke [] 0 setdash 2 copy vpt 1.12 mul add M
  hpt neg vpt -1.62 mul V
  hpt 2 mul 0 V
  hpt neg vpt 1.62 mul V closepath stroke
  Pnt} def
/Star {2 copy Pls Crs} def
/BoxF {stroke [] 0 setdash exch hpt sub exch vpt add M
  0 vpt2 neg V hpt2 0 V 0 vpt2 V
  hpt2 neg 0 V closepath fill} def
/TriUF {stroke [] 0 setdash vpt 1.12 mul add M
  hpt neg vpt -1.62 mul V
  hpt 2 mul 0 V
  hpt neg vpt 1.62 mul V closepath fill} def
/TriD {stroke [] 0 setdash 2 copy vpt 1.12 mul sub M
  hpt neg vpt 1.62 mul V
  hpt 2 mul 0 V
  hpt neg vpt -1.62 mul V closepath stroke
  Pnt} def
/TriDF {stroke [] 0 setdash vpt 1.12 mul sub M
  hpt neg vpt 1.62 mul V
  hpt 2 mul 0 V
  hpt neg vpt -1.62 mul V closepath fill} def
/DiaF {stroke [] 0 setdash vpt add M
  hpt neg vpt neg V hpt vpt neg V
  hpt vpt V hpt neg vpt V closepath fill} def
/Pent {stroke [] 0 setdash 2 copy gsave
  translate 0 hpt M 4 {72 rotate 0 hpt L} repeat
  closepath stroke grestore Pnt} def
/PentF {stroke [] 0 setdash gsave
  translate 0 hpt M 4 {72 rotate 0 hpt L} repeat
  closepath fill grestore} def
/Circle {stroke [] 0 setdash 2 copy
  hpt 0 360 arc stroke Pnt} def
/CircleF {stroke [] 0 setdash hpt 0 360 arc fill} def
/C0 {BL [] 0 setdash 2 copy moveto vpt 90 450 arc} bind def
/C1 {BL [] 0 setdash 2 copy moveto
	2 copy vpt 0 90 arc closepath fill
	vpt 0 360 arc closepath} bind def
/C2 {BL [] 0 setdash 2 copy moveto
	2 copy vpt 90 180 arc closepath fill
	vpt 0 360 arc closepath} bind def
/C3 {BL [] 0 setdash 2 copy moveto
	2 copy vpt 0 180 arc closepath fill
	vpt 0 360 arc closepath} bind def
/C4 {BL [] 0 setdash 2 copy moveto
	2 copy vpt 180 270 arc closepath fill
	vpt 0 360 arc closepath} bind def
/C5 {BL [] 0 setdash 2 copy moveto
	2 copy vpt 0 90 arc
	2 copy moveto
	2 copy vpt 180 270 arc closepath fill
	vpt 0 360 arc} bind def
/C6 {BL [] 0 setdash 2 copy moveto
	2 copy vpt 90 270 arc closepath fill
	vpt 0 360 arc closepath} bind def
/C7 {BL [] 0 setdash 2 copy moveto
	2 copy vpt 0 270 arc closepath fill
	vpt 0 360 arc closepath} bind def
/C8 {BL [] 0 setdash 2 copy moveto
	2 copy vpt 270 360 arc closepath fill
	vpt 0 360 arc closepath} bind def
/C9 {BL [] 0 setdash 2 copy moveto
	2 copy vpt 270 450 arc closepath fill
	vpt 0 360 arc closepath} bind def
/C10 {BL [] 0 setdash 2 copy 2 copy moveto vpt 270 360 arc closepath fill
	2 copy moveto
	2 copy vpt 90 180 arc closepath fill
	vpt 0 360 arc closepath} bind def
/C11 {BL [] 0 setdash 2 copy moveto
	2 copy vpt 0 180 arc closepath fill
	2 copy moveto
	2 copy vpt 270 360 arc closepath fill
	vpt 0 360 arc closepath} bind def
/C12 {BL [] 0 setdash 2 copy moveto
	2 copy vpt 180 360 arc closepath fill
	vpt 0 360 arc closepath} bind def
/C13 {BL [] 0 setdash 2 copy moveto
	2 copy vpt 0 90 arc closepath fill
	2 copy moveto
	2 copy vpt 180 360 arc closepath fill
	vpt 0 360 arc closepath} bind def
/C14 {BL [] 0 setdash 2 copy moveto
	2 copy vpt 90 360 arc closepath fill
	vpt 0 360 arc} bind def
/C15 {BL [] 0 setdash 2 copy vpt 0 360 arc closepath fill
	vpt 0 360 arc closepath} bind def
/Rec {newpath 4 2 roll moveto 1 index 0 rlineto 0 exch rlineto
	neg 0 rlineto closepath} bind def
/Square {dup Rec} bind def
/Bsquare {vpt sub exch vpt sub exch vpt2 Square} bind def
/S0 {BL [] 0 setdash 2 copy moveto 0 vpt rlineto BL Bsquare} bind def
/S1 {BL [] 0 setdash 2 copy vpt Square fill Bsquare} bind def
/S2 {BL [] 0 setdash 2 copy exch vpt sub exch vpt Square fill Bsquare} bind def
/S3 {BL [] 0 setdash 2 copy exch vpt sub exch vpt2 vpt Rec fill Bsquare} bind def
/S4 {BL [] 0 setdash 2 copy exch vpt sub exch vpt sub vpt Square fill Bsquare} bind def
/S5 {BL [] 0 setdash 2 copy 2 copy vpt Square fill
	exch vpt sub exch vpt sub vpt Square fill Bsquare} bind def
/S6 {BL [] 0 setdash 2 copy exch vpt sub exch vpt sub vpt vpt2 Rec fill Bsquare} bind def
/S7 {BL [] 0 setdash 2 copy exch vpt sub exch vpt sub vpt vpt2 Rec fill
	2 copy vpt Square fill Bsquare} bind def
/S8 {BL [] 0 setdash 2 copy vpt sub vpt Square fill Bsquare} bind def
/S9 {BL [] 0 setdash 2 copy vpt sub vpt vpt2 Rec fill Bsquare} bind def
/S10 {BL [] 0 setdash 2 copy vpt sub vpt Square fill 2 copy exch vpt sub exch vpt Square fill
	Bsquare} bind def
/S11 {BL [] 0 setdash 2 copy vpt sub vpt Square fill 2 copy exch vpt sub exch vpt2 vpt Rec fill
	Bsquare} bind def
/S12 {BL [] 0 setdash 2 copy exch vpt sub exch vpt sub vpt2 vpt Rec fill Bsquare} bind def
/S13 {BL [] 0 setdash 2 copy exch vpt sub exch vpt sub vpt2 vpt Rec fill
	2 copy vpt Square fill Bsquare} bind def
/S14 {BL [] 0 setdash 2 copy exch vpt sub exch vpt sub vpt2 vpt Rec fill
	2 copy exch vpt sub exch vpt Square fill Bsquare} bind def
/S15 {BL [] 0 setdash 2 copy Bsquare fill Bsquare} bind def
/D0 {gsave translate 45 rotate 0 0 S0 stroke grestore} bind def
/D1 {gsave translate 45 rotate 0 0 S1 stroke grestore} bind def
/D2 {gsave translate 45 rotate 0 0 S2 stroke grestore} bind def
/D3 {gsave translate 45 rotate 0 0 S3 stroke grestore} bind def
/D4 {gsave translate 45 rotate 0 0 S4 stroke grestore} bind def
/D5 {gsave translate 45 rotate 0 0 S5 stroke grestore} bind def
/D6 {gsave translate 45 rotate 0 0 S6 stroke grestore} bind def
/D7 {gsave translate 45 rotate 0 0 S7 stroke grestore} bind def
/D8 {gsave translate 45 rotate 0 0 S8 stroke grestore} bind def
/D9 {gsave translate 45 rotate 0 0 S9 stroke grestore} bind def
/D10 {gsave translate 45 rotate 0 0 S10 stroke grestore} bind def
/D11 {gsave translate 45 rotate 0 0 S11 stroke grestore} bind def
/D12 {gsave translate 45 rotate 0 0 S12 stroke grestore} bind def
/D13 {gsave translate 45 rotate 0 0 S13 stroke grestore} bind def
/D14 {gsave translate 45 rotate 0 0 S14 stroke grestore} bind def
/D15 {gsave translate 45 rotate 0 0 S15 stroke grestore} bind def
/DiaE {stroke [] 0 setdash vpt add M
  hpt neg vpt neg V hpt vpt neg V
  hpt vpt V hpt neg vpt V closepath stroke} def
/BoxE {stroke [] 0 setdash exch hpt sub exch vpt add M
  0 vpt2 neg V hpt2 0 V 0 vpt2 V
  hpt2 neg 0 V closepath stroke} def
/TriUE {stroke [] 0 setdash vpt 1.12 mul add M
  hpt neg vpt -1.62 mul V
  hpt 2 mul 0 V
  hpt neg vpt 1.62 mul V closepath stroke} def
/TriDE {stroke [] 0 setdash vpt 1.12 mul sub M
  hpt neg vpt 1.62 mul V
  hpt 2 mul 0 V
  hpt neg vpt -1.62 mul V closepath stroke} def
/PentE {stroke [] 0 setdash gsave
  translate 0 hpt M 4 {72 rotate 0 hpt L} repeat
  closepath stroke grestore} def
/CircE {stroke [] 0 setdash 
  hpt 0 360 arc stroke} def
/Opaque {gsave closepath 1 setgray fill grestore 0 setgray closepath} def
/DiaW {stroke [] 0 setdash vpt add M
  hpt neg vpt neg V hpt vpt neg V
  hpt vpt V hpt neg vpt V Opaque stroke} def
/BoxW {stroke [] 0 setdash exch hpt sub exch vpt add M
  0 vpt2 neg V hpt2 0 V 0 vpt2 V
  hpt2 neg 0 V Opaque stroke} def
/TriUW {stroke [] 0 setdash vpt 1.12 mul add M
  hpt neg vpt -1.62 mul V
  hpt 2 mul 0 V
  hpt neg vpt 1.62 mul V Opaque stroke} def
/TriDW {stroke [] 0 setdash vpt 1.12 mul sub M
  hpt neg vpt 1.62 mul V
  hpt 2 mul 0 V
  hpt neg vpt -1.62 mul V Opaque stroke} def
/PentW {stroke [] 0 setdash gsave
  translate 0 hpt M 4 {72 rotate 0 hpt L} repeat
  Opaque stroke grestore} def
/CircW {stroke [] 0 setdash 
  hpt 0 360 arc Opaque stroke} def
/BoxFill {gsave Rec 1 setgray fill grestore} def
/Density {
  /Fillden exch def
  currentrgbcolor
  /ColB exch def /ColG exch def /ColR exch def
  /ColR ColR Fillden mul Fillden sub 1 add def
  /ColG ColG Fillden mul Fillden sub 1 add def
  /ColB ColB Fillden mul Fillden sub 1 add def
  ColR ColG ColB setrgbcolor} def
/BoxColFill {gsave Rec PolyFill} def
/PolyFill {gsave Density fill grestore grestore} def
/h {rlineto rlineto rlineto gsave closepath fill grestore} bind def
%
% PostScript Level 1 Pattern Fill routine for rectangles
% Usage: x y w h s a XX PatternFill
%	x,y = lower left corner of box to be filled
%	w,h = width and height of box
%	  a = angle in degrees between lines and x-axis
%	 XX = 0/1 for no/yes cross-hatch
%
/PatternFill {gsave /PFa [ 9 2 roll ] def
  PFa 0 get PFa 2 get 2 div add PFa 1 get PFa 3 get 2 div add translate
  PFa 2 get -2 div PFa 3 get -2 div PFa 2 get PFa 3 get Rec
  gsave 1 setgray fill grestore clip
  currentlinewidth 0.5 mul setlinewidth
  /PFs PFa 2 get dup mul PFa 3 get dup mul add sqrt def
  0 0 M PFa 5 get rotate PFs -2 div dup translate
  0 1 PFs PFa 4 get div 1 add floor cvi
	{PFa 4 get mul 0 M 0 PFs V} for
  0 PFa 6 get ne {
	0 1 PFs PFa 4 get div 1 add floor cvi
	{PFa 4 get mul 0 2 1 roll M PFs 0 V} for
 } if
  stroke grestore} def
%
/languagelevel where
 {pop languagelevel} {1} ifelse
 2 lt
	{/InterpretLevel1 true def}
	{/InterpretLevel1 Level1 def}
 ifelse
%
% PostScript level 2 pattern fill definitions
%
/Level2PatternFill {
/Tile8x8 {/PaintType 2 /PatternType 1 /TilingType 1 /BBox [0 0 8 8] /XStep 8 /YStep 8}
	bind def
/KeepColor {currentrgbcolor [/Pattern /DeviceRGB] setcolorspace} bind def
<< Tile8x8
 /PaintProc {0.5 setlinewidth pop 0 0 M 8 8 L 0 8 M 8 0 L stroke} 
>> matrix makepattern
/Pat1 exch def
<< Tile8x8
 /PaintProc {0.5 setlinewidth pop 0 0 M 8 8 L 0 8 M 8 0 L stroke
	0 4 M 4 8 L 8 4 L 4 0 L 0 4 L stroke}
>> matrix makepattern
/Pat2 exch def
<< Tile8x8
 /PaintProc {0.5 setlinewidth pop 0 0 M 0 8 L
	8 8 L 8 0 L 0 0 L fill}
>> matrix makepattern
/Pat3 exch def
<< Tile8x8
 /PaintProc {0.5 setlinewidth pop -4 8 M 8 -4 L
	0 12 M 12 0 L stroke}
>> matrix makepattern
/Pat4 exch def
<< Tile8x8
 /PaintProc {0.5 setlinewidth pop -4 0 M 8 12 L
	0 -4 M 12 8 L stroke}
>> matrix makepattern
/Pat5 exch def
<< Tile8x8
 /PaintProc {0.5 setlinewidth pop -2 8 M 4 -4 L
	0 12 M 8 -4 L 4 12 M 10 0 L stroke}
>> matrix makepattern
/Pat6 exch def
<< Tile8x8
 /PaintProc {0.5 setlinewidth pop -2 0 M 4 12 L
	0 -4 M 8 12 L 4 -4 M 10 8 L stroke}
>> matrix makepattern
/Pat7 exch def
<< Tile8x8
 /PaintProc {0.5 setlinewidth pop 8 -2 M -4 4 L
	12 0 M -4 8 L 12 4 M 0 10 L stroke}
>> matrix makepattern
/Pat8 exch def
<< Tile8x8
 /PaintProc {0.5 setlinewidth pop 0 -2 M 12 4 L
	-4 0 M 12 8 L -4 4 M 8 10 L stroke}
>> matrix makepattern
/Pat9 exch def
/Pattern1 {PatternBgnd KeepColor Pat1 setpattern} bind def
/Pattern2 {PatternBgnd KeepColor Pat2 setpattern} bind def
/Pattern3 {PatternBgnd KeepColor Pat3 setpattern} bind def
/Pattern4 {PatternBgnd KeepColor Landscape {Pat5} {Pat4} ifelse setpattern} bind def
/Pattern5 {PatternBgnd KeepColor Landscape {Pat4} {Pat5} ifelse setpattern} bind def
/Pattern6 {PatternBgnd KeepColor Landscape {Pat9} {Pat6} ifelse setpattern} bind def
/Pattern7 {PatternBgnd KeepColor Landscape {Pat8} {Pat7} ifelse setpattern} bind def
} def
%
%
%End of PostScript Level 2 code
%
/PatternBgnd {
  TransparentPatterns {} {gsave 1 setgray fill grestore} ifelse
} def
%
% Substitute for Level 2 pattern fill codes with
% grayscale if Level 2 support is not selected.
%
/Level1PatternFill {
/Pattern1 {0.250 Density} bind def
/Pattern2 {0.500 Density} bind def
/Pattern3 {0.750 Density} bind def
/Pattern4 {0.125 Density} bind def
/Pattern5 {0.375 Density} bind def
/Pattern6 {0.625 Density} bind def
/Pattern7 {0.875 Density} bind def
} def
%
% Now test for support of Level 2 code
%
Level1 {Level1PatternFill} {Level2PatternFill} ifelse
%
/Symbol-Oblique /Symbol findfont [1 0 .167 1 0 0] makefont
dup length dict begin {1 index /FID eq {pop pop} {def} ifelse} forall
currentdict end definefont pop
/MFshow {
   { dup 5 get 3 ge
     { 5 get 3 eq {gsave} {grestore} ifelse }
     {dup dup 0 get findfont exch 1 get scalefont setfont
     [ currentpoint ] exch dup 2 get 0 exch R dup 5 get 2 ne {dup dup 6
     get exch 4 get {Gshow} {stringwidth pop 0 R} ifelse }if dup 5 get 0 eq
     {dup 3 get {2 get neg 0 exch R pop} {pop aload pop M} ifelse} {dup 5
     get 1 eq {dup 2 get exch dup 3 get exch 6 get stringwidth pop -2 div
     dup 0 R} {dup 6 get stringwidth pop -2 div 0 R 6 get
     show 2 index {aload pop M neg 3 -1 roll neg R pop pop} {pop pop pop
     pop aload pop M} ifelse }ifelse }ifelse }
     ifelse }
   forall} def
/Gswidth {dup type /stringtype eq {stringwidth} {pop (n) stringwidth} ifelse} def
/MFwidth {0 exch { dup 5 get 3 ge { 5 get 3 eq { 0 } { pop } ifelse }
 {dup 3 get{dup dup 0 get findfont exch 1 get scalefont setfont
     6 get Gswidth pop add} {pop} ifelse} ifelse} forall} def
/MLshow { currentpoint stroke M
  0 exch R
  Blacktext {gsave 0 setgray MFshow grestore} {MFshow} ifelse } bind def
/MRshow { currentpoint stroke M
  exch dup MFwidth neg 3 -1 roll R
  Blacktext {gsave 0 setgray MFshow grestore} {MFshow} ifelse } bind def
/MCshow { currentpoint stroke M
  exch dup MFwidth -2 div 3 -1 roll R
  Blacktext {gsave 0 setgray MFshow grestore} {MFshow} ifelse } bind def
/XYsave    { [( ) 1 2 true false 3 ()] } bind def
/XYrestore { [( ) 1 2 true false 4 ()] } bind def
end
%%EndProlog
gnudict begin
gsave
doclip
50 50 translate
0.050 0.050 scale
0 setgray
newpath
(Helvetica) findfont 250 scalefont setfont
1.000 UL
LTb
1225 800 M
63 0 V
5461 0 R
-63 0 V
stroke
1075 800 M
[ [(Helvetica) 250.0 0.0 true true 0 ( 0)]
] -83.3 MRshow
1.000 UL
LTb
1225 1194 M
63 0 V
5461 0 R
-63 0 V
stroke
1075 1194 M
[ [(Helvetica) 250.0 0.0 true true 0 ( 0.1)]
] -83.3 MRshow
1.000 UL
LTb
1225 1588 M
63 0 V
5461 0 R
-63 0 V
stroke
1075 1588 M
[ [(Helvetica) 250.0 0.0 true true 0 ( 0.2)]
] -83.3 MRshow
1.000 UL
LTb
1225 1982 M
63 0 V
5461 0 R
-63 0 V
stroke
1075 1982 M
[ [(Helvetica) 250.0 0.0 true true 0 ( 0.3)]
] -83.3 MRshow
1.000 UL
LTb
1225 2376 M
63 0 V
5461 0 R
-63 0 V
stroke
1075 2376 M
[ [(Helvetica) 250.0 0.0 true true 0 ( 0.4)]
] -83.3 MRshow
1.000 UL
LTb
1225 2770 M
63 0 V
5461 0 R
-63 0 V
stroke
1075 2770 M
[ [(Helvetica) 250.0 0.0 true true 0 ( 0.5)]
] -83.3 MRshow
1.000 UL
LTb
1225 3163 M
63 0 V
5461 0 R
-63 0 V
stroke
1075 3163 M
[ [(Helvetica) 250.0 0.0 true true 0 ( 0.6)]
] -83.3 MRshow
1.000 UL
LTb
1225 3557 M
63 0 V
5461 0 R
-63 0 V
stroke
1075 3557 M
[ [(Helvetica) 250.0 0.0 true true 0 ( 0.7)]
] -83.3 MRshow
1.000 UL
LTb
1225 3951 M
63 0 V
5461 0 R
-63 0 V
stroke
1075 3951 M
[ [(Helvetica) 250.0 0.0 true true 0 ( 0.8)]
] -83.3 MRshow
1.000 UL
LTb
1225 4345 M
63 0 V
5461 0 R
-63 0 V
stroke
1075 4345 M
[ [(Helvetica) 250.0 0.0 true true 0 ( 0.9)]
] -83.3 MRshow
1.000 UL
LTb
1225 4739 M
63 0 V
5461 0 R
-63 0 V
stroke
1075 4739 M
[ [(Helvetica) 250.0 0.0 true true 0 ( 1)]
] -83.3 MRshow
1.000 UL
LTb
1225 800 M
0 63 V
0 3876 R
0 -63 V
stroke
1225 550 M
[ [(Helvetica) 250.0 0.0 true true 0 ( 4)]
] -83.3 MCshow
1.000 UL
LTb
1916 800 M
0 63 V
0 3876 R
0 -63 V
stroke
1916 550 M
[ [(Helvetica) 250.0 0.0 true true 0 ( 6)]
] -83.3 MCshow
1.000 UL
LTb
2606 800 M
0 63 V
0 3876 R
0 -63 V
stroke
2606 550 M
[ [(Helvetica) 250.0 0.0 true true 0 ( 8)]
] -83.3 MCshow
1.000 UL
LTb
3297 800 M
0 63 V
0 3876 R
0 -63 V
stroke
3297 550 M
[ [(Helvetica) 250.0 0.0 true true 0 ( 10)]
] -83.3 MCshow
1.000 UL
LTb
3987 800 M
0 63 V
0 3876 R
0 -63 V
stroke
3987 550 M
[ [(Helvetica) 250.0 0.0 true true 0 ( 12)]
] -83.3 MCshow
1.000 UL
LTb
4678 800 M
0 63 V
0 3876 R
0 -63 V
stroke
4678 550 M
[ [(Helvetica) 250.0 0.0 true true 0 ( 14)]
] -83.3 MCshow
1.000 UL
LTb
5368 800 M
0 63 V
0 3876 R
0 -63 V
stroke
5368 550 M
[ [(Helvetica) 250.0 0.0 true true 0 ( 16)]
] -83.3 MCshow
1.000 UL
LTb
6059 800 M
0 63 V
0 3876 R
0 -63 V
stroke
6059 550 M
[ [(Helvetica) 250.0 0.0 true true 0 ( 18)]
] -83.3 MCshow
1.000 UL
LTb
6749 800 M
0 63 V
0 3876 R
0 -63 V
stroke
6749 550 M
[ [(Helvetica) 250.0 0.0 true true 0 ( 20)]
] -83.3 MCshow
1.000 UL
LTb
1.000 UL
LTb
1225 4739 N
0 -3939 V
5524 0 V
0 3939 V
-5524 0 V
Z stroke
LCb setrgbcolor
200 2769 M
currentpoint gsave translate -270 rotate 0 0 moveto
[ [(Helvetica) 250.0 0.0 true true 0 (Precision)]
] -83.3 MCshow
grestore
LTb
LCb setrgbcolor
3987 175 M
[ [(Helvetica) 250.0 0.0 true true 0 (Number of Segments)]
] -83.3 MCshow
LTb
1.000 UP
1.000 UL
LTb
% Begin plot #1
1.000 UP
1.000 UL
LT0
1570 4591 Pls
3297 4334 Pls
5023 4285 Pls
6749 4324 Pls
1570 4389 Pls
3297 4387 Pls
5023 4385 Pls
6749 4392 Pls
1570 4632 Pls
3297 3980 Pls
5023 4275 Pls
6749 4579 Pls
1570 4509 Pls
3297 4312 Pls
5023 4494 Pls
6749 4684 Pls
1570 4370 Pls
3297 4276 Pls
5023 4470 Pls
6749 4720 Pls
1570 3692 Pls
3297 4297 Pls
5023 4479 Pls
6749 4739 Pls
1570 4424 Pls
3297 4149 Pls
5023 4488 Pls
6749 4739 Pls
1570 3546 Pls
3297 4046 Pls
5023 4381 Pls
6749 4739 Pls
1570 3311 Pls
3297 3860 Pls
5023 4496 Pls
6749 4739 Pls
1570 2798 Pls
3297 4033 Pls
5023 4368 Pls
6749 4739 Pls
1570 4345 Pls
3297 3627 Pls
5023 3782 Pls
6749 3593 Pls
1570 4520 Pls
3297 3912 Pls
5023 3665 Pls
6749 3599 Pls
1570 4570 Pls
3297 3894 Pls
5023 3466 Pls
6749 3665 Pls
1570 4520 Pls
3297 3950 Pls
5023 3790 Pls
6749 3850 Pls
1570 4608 Pls
3297 3962 Pls
5023 3970 Pls
6749 3955 Pls
1570 3012 Pls
3297 3331 Pls
5023 3513 Pls
6749 3668 Pls
1570 2631 Pls
3297 3010 Pls
5023 3495 Pls
6749 3664 Pls
1570 2131 Pls
3297 2713 Pls
5023 3303 Pls
6749 3411 Pls
1570 1787 Pls
3297 2489 Pls
5023 3204 Pls
6749 3481 Pls
1570 1797 Pls
3297 2701 Pls
5023 2766 Pls
6749 3247 Pls
1570 4143 Pls
3297 3185 Pls
5023 3147 Pls
6749 2891 Pls
1570 4660 Pls
3297 3479 Pls
5023 3351 Pls
6749 3140 Pls
1570 4136 Pls
3297 3384 Pls
5023 3467 Pls
6749 3268 Pls
1570 4608 Pls
3297 3690 Pls
5023 3457 Pls
6749 3275 Pls
1570 4422 Pls
3297 3792 Pls
5023 3394 Pls
6749 3468 Pls
1570 2335 Pls
3297 2520 Pls
5023 2800 Pls
6749 3167 Pls
1570 1840 Pls
3297 2195 Pls
5023 2853 Pls
6749 2858 Pls
1570 1578 Pls
3297 1953 Pls
5023 2440 Pls
6749 2580 Pls
1570 1331 Pls
3297 2010 Pls
5023 2395 Pls
6749 2758 Pls
1570 1274 Pls
3297 1807 Pls
5023 2186 Pls
6749 2524 Pls
1570 3499 Pls
3297 3471 Pls
5023 2921 Pls
6749 2675 Pls
1570 3875 Pls
3297 3654 Pls
5023 3032 Pls
6749 2847 Pls
1570 3967 Pls
3297 3428 Pls
5023 3056 Pls
6749 2820 Pls
1570 4450 Pls
3297 3423 Pls
5023 3296 Pls
6749 2973 Pls
1570 4651 Pls
3297 3586 Pls
5023 3203 Pls
6749 3149 Pls
1570 1981 Pls
3297 2288 Pls
5023 2320 Pls
6749 2657 Pls
1570 1445 Pls
3297 1840 Pls
5023 2054 Pls
6749 2401 Pls
1570 1303 Pls
3297 1759 Pls
5023 2053 Pls
6749 2197 Pls
1570 1163 Pls
3297 1622 Pls
5023 1947 Pls
6749 2123 Pls
1570 1152 Pls
3297 1497 Pls
5023 1892 Pls
6749 2081 Pls
1570 3718 Pls
3297 3168 Pls
5023 2619 Pls
6749 2521 Pls
1570 4398 Pls
3297 2891 Pls
5023 2899 Pls
6749 2421 Pls
1570 4415 Pls
3297 3202 Pls
5023 3293 Pls
6749 2629 Pls
1570 4242 Pls
3297 3270 Pls
5023 2783 Pls
6749 2866 Pls
1570 4501 Pls
3297 2984 Pls
5023 2861 Pls
6749 2868 Pls
1570 1436 Pls
3297 2036 Pls
5023 2356 Pls
6749 2302 Pls
1570 1227 Pls
3297 1596 Pls
5023 1866 Pls
6749 2061 Pls
1570 1101 Pls
3297 1415 Pls
5023 1810 Pls
6749 1925 Pls
1570 1076 Pls
3297 1423 Pls
5023 1604 Pls
6749 1873 Pls
1570 1057 Pls
3297 1326 Pls
5023 1529 Pls
6749 1776 Pls
1570 4739 Pls
3297 4381 Pls
5023 4432 Pls
6749 4672 Pls
1570 4503 Pls
3297 4451 Pls
5023 4441 Pls
6749 4491 Pls
1570 4551 Pls
3297 4335 Pls
5023 4513 Pls
6749 4703 Pls
1570 4498 Pls
3297 4457 Pls
5023 4612 Pls
6749 4705 Pls
1570 4739 Pls
3297 4533 Pls
5023 4647 Pls
6749 4701 Pls
1570 4411 Pls
3297 4387 Pls
5023 4504 Pls
6749 4739 Pls
1570 4529 Pls
3297 4287 Pls
5023 4588 Pls
6749 4739 Pls
1570 3419 Pls
3297 4380 Pls
5023 4475 Pls
6749 4739 Pls
1570 3682 Pls
3297 4263 Pls
5023 4514 Pls
6749 4739 Pls
1570 3945 Pls
3297 4227 Pls
5023 4501 Pls
6749 4739 Pls
1570 4460 Pls
3297 4323 Pls
5023 4179 Pls
6749 4227 Pls
1570 4597 Pls
3297 4283 Pls
5023 4248 Pls
6749 3944 Pls
1570 4641 Pls
3297 4096 Pls
5023 4128 Pls
6749 3996 Pls
1570 4660 Pls
3297 4205 Pls
5023 4149 Pls
6749 4098 Pls
1570 4497 Pls
3297 4037 Pls
5023 4391 Pls
6749 4307 Pls
1570 3859 Pls
3297 3889 Pls
5023 4264 Pls
6749 4245 Pls
1570 3300 Pls
3297 3709 Pls
5023 3706 Pls
6749 3945 Pls
1570 2815 Pls
3297 3153 Pls
5023 3628 Pls
6749 3875 Pls
1570 2205 Pls
3297 3178 Pls
5023 3642 Pls
6749 3826 Pls
1570 2267 Pls
3297 3389 Pls
5023 3222 Pls
6749 3912 Pls
1570 4608 Pls
3297 3886 Pls
5023 3875 Pls
6749 3713 Pls
1570 4455 Pls
3297 4131 Pls
5023 3683 Pls
6749 3900 Pls
1570 4328 Pls
3297 3840 Pls
5023 3665 Pls
6749 3924 Pls
1570 4459 Pls
3297 4059 Pls
5023 3867 Pls
6749 3912 Pls
1570 4470 Pls
3297 4062 Pls
5023 3815 Pls
6749 3712 Pls
1570 2880 Pls
3297 3338 Pls
5023 3993 Pls
6749 3584 Pls
1570 2123 Pls
3297 2906 Pls
5023 3257 Pls
6749 3519 Pls
1570 2137 Pls
3297 2491 Pls
5023 3102 Pls
6749 3288 Pls
1570 1797 Pls
3297 2383 Pls
5023 3239 Pls
6749 3057 Pls
1570 1650 Pls
3297 2157 Pls
5023 2809 Pls
6749 2992 Pls
1570 4171 Pls
3297 3730 Pls
5023 3519 Pls
6749 3264 Pls
1570 4548 Pls
3297 3988 Pls
5023 3543 Pls
6749 3497 Pls
1570 4353 Pls
3297 3967 Pls
5023 3569 Pls
6749 3615 Pls
1570 4381 Pls
3297 3576 Pls
5023 3657 Pls
6749 3744 Pls
1570 4455 Pls
3297 3955 Pls
5023 3844 Pls
6749 3666 Pls
1570 2491 Pls
3297 2795 Pls
5023 3040 Pls
6749 3338 Pls
1570 1951 Pls
3297 2291 Pls
5023 2730 Pls
6749 3135 Pls
1570 1535 Pls
3297 2075 Pls
5023 2567 Pls
6749 2694 Pls
1570 1385 Pls
3297 2017 Pls
5023 2274 Pls
6749 2608 Pls
1570 1338 Pls
3297 1781 Pls
5023 2254 Pls
6749 2574 Pls
1570 4580 Pls
3297 3618 Pls
5023 3017 Pls
6749 3292 Pls
1570 4602 Pls
3297 3627 Pls
5023 3415 Pls
6749 3188 Pls
1570 4651 Pls
3297 3831 Pls
5023 3389 Pls
6749 3263 Pls
1570 4528 Pls
3297 3812 Pls
5023 3508 Pls
6749 3218 Pls
1570 4335 Pls
3297 3744 Pls
5023 3606 Pls
6749 3495 Pls
1570 1967 Pls
3297 2377 Pls
5023 2705 Pls
6749 2896 Pls
1570 1563 Pls
3297 1991 Pls
5023 2268 Pls
6749 2593 Pls
1570 1262 Pls
3297 1760 Pls
5023 2087 Pls
6749 2413 Pls
1570 1206 Pls
3297 1624 Pls
5023 1983 Pls
6749 2335 Pls
1570 1182 Pls
3297 1523 Pls
5023 1827 Pls
6749 2126 Pls
1570 4573 Pls
3297 4591 Pls
5023 4398 Pls
6749 4651 Pls
1570 4651 Pls
3297 4739 Pls
5023 4563 Pls
6749 4720 Pls
1570 4624 Pls
3297 4605 Pls
5023 4537 Pls
6749 4739 Pls
1570 4553 Pls
3297 4484 Pls
5023 4644 Pls
6749 4702 Pls
1570 4739 Pls
3297 4695 Pls
5023 4668 Pls
6749 4739 Pls
1570 4043 Pls
3297 4583 Pls
5023 4637 Pls
6749 4739 Pls
1570 4660 Pls
3297 4519 Pls
5023 4576 Pls
6749 4739 Pls
1570 4312 Pls
3297 4667 Pls
5023 4573 Pls
6749 4739 Pls
1570 3951 Pls
3297 4589 Pls
5023 4551 Pls
6749 4739 Pls
1570 4161 Pls
3297 4503 Pls
5023 4686 Pls
6749 4739 Pls
1570 4660 Pls
3297 4194 Pls
5023 4151 Pls
6749 4177 Pls
1570 4641 Pls
3297 4405 Pls
5023 4226 Pls
6749 4280 Pls
1570 4435 Pls
3297 4497 Pls
5023 4456 Pls
6749 4296 Pls
1570 4641 Pls
3297 4298 Pls
5023 4358 Pls
6749 4325 Pls
1570 4525 Pls
3297 4358 Pls
5023 4535 Pls
6749 4376 Pls
1570 3595 Pls
3297 4367 Pls
5023 4008 Pls
6749 4427 Pls
1570 3526 Pls
3297 3926 Pls
5023 4209 Pls
6749 4131 Pls
1570 3572 Pls
3297 3591 Pls
5023 4197 Pls
6749 4112 Pls
1570 3133 Pls
3297 3634 Pls
5023 3935 Pls
6749 4046 Pls
1570 2741 Pls
3297 3283 Pls
5023 3678 Pls
6749 3850 Pls
1570 4243 Pls
3297 4332 Pls
5023 4105 Pls
6749 3873 Pls
1570 4621 Pls
3297 4363 Pls
5023 4057 Pls
6749 4046 Pls
1570 4319 Pls
3297 4061 Pls
5023 3919 Pls
6749 4220 Pls
1570 4580 Pls
3297 4184 Pls
5023 4316 Pls
6749 4045 Pls
1570 4564 Pls
3297 4437 Pls
5023 4250 Pls
6749 4122 Pls
1570 3861 Pls
3297 3808 Pls
5023 4190 Pls
6749 3790 Pls
1570 2542 Pls
3297 3596 Pls
5023 3818 Pls
6749 3826 Pls
1570 2157 Pls
3297 3167 Pls
5023 3318 Pls
6749 3626 Pls
1570 2409 Pls
3297 2974 Pls
5023 3224 Pls
6749 3362 Pls
1570 2101 Pls
3297 2706 Pls
5023 3001 Pls
6749 3163 Pls
1570 4611 Pls
3297 3980 Pls
5023 3793 Pls
6749 3784 Pls
1570 4602 Pls
3297 4068 Pls
5023 3811 Pls
6749 3696 Pls
1570 4509 Pls
3297 4031 Pls
5023 3857 Pls
6749 3751 Pls
1570 4503 Pls
3297 4346 Pls
5023 3905 Pls
6749 3820 Pls
1570 4553 Pls
3297 4354 Pls
5023 4071 Pls
6749 3850 Pls
1570 2934 Pls
3297 3289 Pls
5023 3562 Pls
6749 3356 Pls
1570 2202 Pls
3297 2590 Pls
5023 2948 Pls
6749 3322 Pls
1570 1811 Pls
3297 2420 Pls
5023 3108 Pls
6749 3354 Pls
1570 1690 Pls
3297 2408 Pls
5023 2695 Pls
6749 2855 Pls
1570 1483 Pls
3297 2193 Pls
5023 2611 Pls
6749 2898 Pls
1570 4503 Pls
3297 3552 Pls
5023 3700 Pls
6749 3494 Pls
1570 4558 Pls
3297 4109 Pls
5023 3702 Pls
6749 3484 Pls
1570 4505 Pls
3297 3987 Pls
5023 3847 Pls
6749 3461 Pls
1570 4415 Pls
3297 4101 Pls
5023 3753 Pls
6749 3925 Pls
1570 4392 Pls
3297 4053 Pls
5023 4075 Pls
6749 3761 Pls
1570 2378 Pls
3297 2814 Pls
5023 3030 Pls
6749 3240 Pls
1570 1727 Pls
3297 2407 Pls
5023 2619 Pls
6749 2918 Pls
1570 1394 Pls
3297 2057 Pls
5023 2391 Pls
6749 2794 Pls
1570 1341 Pls
3297 1882 Pls
5023 2204 Pls
6749 2513 Pls
1570 1314 Pls
3297 1688 Pls
5023 2195 Pls
6749 2311 Pls
1570 4673 Pls
3297 4530 Pls
5023 4698 Pls
6749 4672 Pls
1570 4626 Pls
3297 4660 Pls
5023 4578 Pls
6749 4640 Pls
1570 4683 Pls
3297 4568 Pls
5023 4623 Pls
6749 4739 Pls
1570 4739 Pls
3297 4608 Pls
5023 4615 Pls
6749 4739 Pls
1570 4617 Pls
3297 4638 Pls
5023 4665 Pls
6749 4718 Pls
1570 4542 Pls
3297 4389 Pls
5023 4588 Pls
6749 4739 Pls
1570 4450 Pls
3297 4667 Pls
5023 4611 Pls
6749 4739 Pls
1570 4037 Pls
3297 4528 Pls
5023 4633 Pls
6749 4739 Pls
1570 4491 Pls
3297 4429 Pls
5023 4513 Pls
6749 4739 Pls
1570 4061 Pls
3297 4402 Pls
5023 4658 Pls
6749 4739 Pls
1570 4630 Pls
3297 4452 Pls
5023 4435 Pls
6749 4398 Pls
1570 4573 Pls
3297 4393 Pls
5023 4508 Pls
6749 4324 Pls
1570 4616 Pls
3297 4357 Pls
5023 4441 Pls
6749 4164 Pls
1570 4739 Pls
3297 4522 Pls
5023 4487 Pls
6749 4463 Pls
1570 4626 Pls
3297 4310 Pls
5023 4526 Pls
6749 4371 Pls
1570 4476 Pls
3297 4078 Pls
5023 4168 Pls
6749 4436 Pls
1570 3413 Pls
3297 3953 Pls
5023 4237 Pls
6749 4413 Pls
1570 3738 Pls
3297 4093 Pls
5023 4056 Pls
6749 4240 Pls
1570 3516 Pls
3297 3494 Pls
5023 3889 Pls
6749 4179 Pls
1570 2946 Pls
3297 3569 Pls
5023 4023 Pls
6749 4180 Pls
1570 4474 Pls
3297 4075 Pls
5023 4146 Pls
6749 3954 Pls
1570 4581 Pls
3297 4188 Pls
5023 4283 Pls
6749 4141 Pls
1570 4739 Pls
3297 4429 Pls
5023 4266 Pls
6749 4203 Pls
1570 4739 Pls
3297 4360 Pls
5023 4207 Pls
6749 4334 Pls
1570 4739 Pls
3297 4686 Pls
5023 4173 Pls
6749 4279 Pls
1570 3966 Pls
3297 3949 Pls
5023 3915 Pls
6749 4022 Pls
1570 3020 Pls
3297 3347 Pls
5023 3820 Pls
6749 3971 Pls
1570 2440 Pls
3297 3463 Pls
5023 3476 Pls
6749 3740 Pls
1570 2547 Pls
3297 3246 Pls
5023 3581 Pls
6749 3802 Pls
1570 2132 Pls
3297 2787 Pls
5023 3382 Pls
6749 3652 Pls
1570 4595 Pls
3297 3943 Pls
5023 3981 Pls
6749 4177 Pls
1570 4517 Pls
3297 4462 Pls
5023 4160 Pls
6749 3816 Pls
1570 4555 Pls
3297 4181 Pls
5023 4163 Pls
6749 3967 Pls
1570 4548 Pls
3297 4165 Pls
5023 3887 Pls
6749 3855 Pls
1570 4464 Pls
3297 4356 Pls
5023 4232 Pls
6749 4311 Pls
1570 3039 Pls
3297 3580 Pls
5023 3692 Pls
6749 3739 Pls
1570 2486 Pls
3297 3107 Pls
5023 3328 Pls
6749 3640 Pls
1570 2072 Pls
3297 2740 Pls
5023 3241 Pls
6749 3069 Pls
1570 1934 Pls
3297 2660 Pls
5023 2848 Pls
6749 3411 Pls
1570 1664 Pls
3297 2221 Pls
5023 2753 Pls
6749 3103 Pls
1570 4739 Pls
3297 4268 Pls
5023 3930 Pls
6749 3684 Pls
1570 4421 Pls
3297 4025 Pls
5023 3551 Pls
6749 4033 Pls
1570 4451 Pls
3297 4247 Pls
5023 3843 Pls
6749 3737 Pls
1570 4690 Pls
3297 4324 Pls
5023 4070 Pls
6749 3983 Pls
1570 4739 Pls
3297 4081 Pls
5023 3984 Pls
6749 3941 Pls
1570 2640 Pls
3297 3072 Pls
5023 3250 Pls
6749 3353 Pls
1570 1982 Pls
3297 2890 Pls
5023 3022 Pls
6749 3149 Pls
1570 1658 Pls
3297 2286 Pls
5023 2843 Pls
6749 2772 Pls
1570 1616 Pls
3297 2198 Pls
5023 2630 Pls
6749 2580 Pls
1570 1504 Pls
3297 1993 Pls
5023 2317 Pls
6749 2566 Pls
1570 4586 Pls
3297 4709 Pls
5023 4574 Pls
6749 4670 Pls
1570 4633 Pls
3297 4686 Pls
5023 4536 Pls
6749 4606 Pls
1570 4739 Pls
3297 4739 Pls
5023 4531 Pls
6749 4685 Pls
1570 4626 Pls
3297 4632 Pls
5023 4693 Pls
6749 4721 Pls
1570 4739 Pls
3297 4700 Pls
5023 4739 Pls
6749 4718 Pls
1570 4739 Pls
3297 4602 Pls
5023 4713 Pls
6749 4739 Pls
1570 4201 Pls
3297 4660 Pls
5023 4711 Pls
6749 4739 Pls
1570 4279 Pls
3297 4505 Pls
5023 4711 Pls
6749 4739 Pls
1570 4266 Pls
3297 4361 Pls
5023 4739 Pls
6749 4739 Pls
1570 4176 Pls
3297 4525 Pls
5023 4513 Pls
6749 4739 Pls
1570 4690 Pls
3297 4318 Pls
5023 4478 Pls
6749 4347 Pls
1570 4596 Pls
3297 4411 Pls
5023 4335 Pls
6749 4344 Pls
1570 4690 Pls
3297 4604 Pls
5023 4460 Pls
6749 4464 Pls
1570 4660 Pls
3297 4544 Pls
5023 4493 Pls
6749 4581 Pls
1570 4608 Pls
3297 4739 Pls
5023 4453 Pls
6749 4522 Pls
1570 4135 Pls
3297 4381 Pls
5023 4481 Pls
6749 4386 Pls
1570 3994 Pls
3297 4061 Pls
5023 4375 Pls
6749 4556 Pls
1570 3295 Pls
3297 3717 Pls
5023 4303 Pls
6749 4503 Pls
1570 3279 Pls
3297 4192 Pls
5023 4389 Pls
6749 4282 Pls
1570 3362 Pls
3297 4138 Pls
5023 4097 Pls
6749 4321 Pls
1570 4588 Pls
3297 4413 Pls
5023 4074 Pls
6749 4075 Pls
1570 4641 Pls
3297 4407 Pls
5023 4156 Pls
6749 4312 Pls
1570 4660 Pls
3297 4353 Pls
5023 4271 Pls
6749 4239 Pls
1570 4533 Pls
3297 4565 Pls
5023 4105 Pls
6749 4430 Pls
1570 4651 Pls
3297 4266 Pls
5023 4415 Pls
6749 4347 Pls
1570 3991 Pls
3297 3772 Pls
5023 4068 Pls
6749 4191 Pls
1570 3448 Pls
3297 3792 Pls
5023 3874 Pls
6749 4138 Pls
1570 2806 Pls
3297 3624 Pls
5023 3567 Pls
6749 3652 Pls
1570 2489 Pls
3297 3126 Pls
5023 3682 Pls
6749 3635 Pls
1570 2184 Pls
3297 3257 Pls
5023 3446 Pls
6749 3764 Pls
1570 4562 Pls
3297 4386 Pls
5023 3989 Pls
6749 3963 Pls
1570 4573 Pls
3297 4436 Pls
5023 4032 Pls
6749 4099 Pls
1570 4589 Pls
3297 4018 Pls
5023 4128 Pls
6749 4185 Pls
1570 4739 Pls
3297 4305 Pls
5023 4370 Pls
6749 4175 Pls
1570 4506 Pls
3297 4278 Pls
5023 4240 Pls
6749 4340 Pls
1570 3140 Pls
3297 3741 Pls
5023 3497 Pls
6749 3739 Pls
1570 2698 Pls
3297 3257 Pls
5023 3391 Pls
6749 3621 Pls
1570 2517 Pls
3297 2995 Pls
5023 3393 Pls
6749 3623 Pls
1570 1826 Pls
3297 2355 Pls
5023 3403 Pls
6749 3609 Pls
1570 1970 Pls
3297 2471 Pls
5023 3024 Pls
6749 3283 Pls
1570 4589 Pls
3297 3959 Pls
5023 4071 Pls
6749 3969 Pls
1570 4703 Pls
3297 4211 Pls
5023 3910 Pls
6749 3902 Pls
1570 4695 Pls
3297 4346 Pls
5023 4115 Pls
6749 4033 Pls
1570 4364 Pls
3297 4302 Pls
5023 4319 Pls
6749 3925 Pls
1570 4455 Pls
3297 4175 Pls
5023 4065 Pls
6749 3896 Pls
1570 2721 Pls
3297 3584 Pls
5023 3488 Pls
6749 3678 Pls
1570 2349 Pls
3297 2637 Pls
5023 3291 Pls
6749 3205 Pls
1570 1883 Pls
3297 2617 Pls
5023 2781 Pls
6749 3257 Pls
1570 1735 Pls
3297 2416 Pls
5023 2790 Pls
6749 3076 Pls
1570 1467 Pls
3297 2281 Pls
5023 2568 Pls
6749 2740 Pls
1570 4739 Pls
3297 4739 Pls
5023 4676 Pls
6749 4739 Pls
1570 4626 Pls
3297 4629 Pls
5023 4677 Pls
6749 4703 Pls
1570 4539 Pls
3297 4599 Pls
5023 4693 Pls
6749 4690 Pls
1570 4641 Pls
3297 4709 Pls
5023 4716 Pls
6749 4700 Pls
1570 4739 Pls
3297 4646 Pls
5023 4616 Pls
6749 4739 Pls
1570 4483 Pls
3297 4604 Pls
5023 4739 Pls
6749 4739 Pls
1570 4384 Pls
3297 4695 Pls
5023 4658 Pls
6749 4739 Pls
1570 4439 Pls
3297 4493 Pls
5023 4713 Pls
6749 4739 Pls
1570 4188 Pls
3297 4394 Pls
5023 4609 Pls
6749 4739 Pls
1570 4450 Pls
3297 4422 Pls
5023 4527 Pls
6749 4739 Pls
1570 4739 Pls
3297 4611 Pls
5023 4538 Pls
6749 4555 Pls
1570 4509 Pls
3297 4637 Pls
5023 4405 Pls
6749 4544 Pls
1570 4739 Pls
3297 4575 Pls
5023 4634 Pls
6749 4536 Pls
1570 4641 Pls
3297 4673 Pls
5023 4431 Pls
6749 4616 Pls
1570 4385 Pls
3297 4673 Pls
5023 4518 Pls
6749 4600 Pls
1570 3886 Pls
3297 4467 Pls
5023 4304 Pls
6749 4472 Pls
1570 4739 Pls
3297 4280 Pls
5023 4366 Pls
6749 4358 Pls
1570 3259 Pls
3297 4255 Pls
5023 4323 Pls
6749 4383 Pls
1570 3188 Pls
3297 4017 Pls
5023 4277 Pls
6749 4267 Pls
1570 3121 Pls
3297 4158 Pls
5023 4254 Pls
6749 4412 Pls
1570 4651 Pls
3297 4491 Pls
5023 4333 Pls
6749 4306 Pls
1570 4651 Pls
3297 4438 Pls
5023 4178 Pls
6749 4487 Pls
1570 4739 Pls
3297 4622 Pls
5023 4214 Pls
6749 4407 Pls
1570 4581 Pls
3297 4541 Pls
5023 4535 Pls
6749 4419 Pls
1570 4651 Pls
3297 4520 Pls
5023 4447 Pls
6749 4440 Pls
1570 4017 Pls
3297 4159 Pls
5023 4362 Pls
6749 4031 Pls
1570 3816 Pls
3297 4015 Pls
5023 4126 Pls
6749 4167 Pls
1570 2840 Pls
3297 3617 Pls
5023 4047 Pls
6749 4294 Pls
1570 2728 Pls
3297 3657 Pls
5023 4258 Pls
6749 3883 Pls
1570 2592 Pls
3297 3491 Pls
5023 3848 Pls
6749 3928 Pls
1570 4739 Pls
3297 4292 Pls
5023 4372 Pls
6749 4100 Pls
1570 4739 Pls
3297 4379 Pls
5023 4201 Pls
6749 4124 Pls
1570 4660 Pls
3297 4416 Pls
5023 4404 Pls
6749 4282 Pls
1570 4660 Pls
3297 4221 Pls
5023 4314 Pls
6749 4118 Pls
1570 4651 Pls
3297 4186 Pls
5023 4335 Pls
6749 4270 Pls
1570 3555 Pls
3297 4006 Pls
5023 3813 Pls
6749 4157 Pls
1570 2988 Pls
3297 3388 Pls
5023 3795 Pls
6749 3878 Pls
1570 2531 Pls
3297 3102 Pls
5023 3466 Pls
6749 3471 Pls
1570 2197 Pls
3297 2750 Pls
5023 3293 Pls
6749 3383 Pls
1570 1937 Pls
3297 2792 Pls
5023 2972 Pls
6749 3477 Pls
1570 4739 Pls
3297 4430 Pls
5023 4052 Pls
6749 3954 Pls
1570 4739 Pls
3297 4310 Pls
5023 3923 Pls
6749 4097 Pls
1570 4660 Pls
3297 4261 Pls
5023 4222 Pls
6749 3923 Pls
1570 4494 Pls
3297 4041 Pls
5023 4181 Pls
6749 3939 Pls
1570 4573 Pls
3297 4364 Pls
5023 4443 Pls
6749 4193 Pls
1570 3199 Pls
3297 3585 Pls
5023 3740 Pls
6749 3743 Pls
1570 2718 Pls
3297 2922 Pls
5023 3565 Pls
6749 3582 Pls
1570 2252 Pls
3297 2498 Pls
5023 3054 Pls
6749 3309 Pls
1570 1741 Pls
3297 2400 Pls
5023 2828 Pls
6749 3176 Pls
1570 1521 Pls
3297 2357 Pls
5023 2575 Pls
6749 2980 Pls
1570 4739 Pls
3297 4686 Pls
5023 4585 Pls
6749 4739 Pls
1570 4739 Pls
3297 4652 Pls
5023 4664 Pls
6749 4722 Pls
1570 4739 Pls
3297 4711 Pls
5023 4739 Pls
6749 4739 Pls
1570 4739 Pls
3297 4520 Pls
5023 4625 Pls
6749 4720 Pls
1570 4608 Pls
3297 4739 Pls
5023 4640 Pls
6749 4718 Pls
1570 4411 Pls
3297 4739 Pls
5023 4690 Pls
6749 4739 Pls
1570 4739 Pls
3297 4700 Pls
5023 4658 Pls
6749 4739 Pls
1570 4739 Pls
3297 4660 Pls
5023 4739 Pls
6749 4739 Pls
1570 4476 Pls
3297 4660 Pls
5023 4739 Pls
6749 4739 Pls
1570 4404 Pls
3297 4700 Pls
5023 4683 Pls
6749 4739 Pls
1570 4739 Pls
3297 4683 Pls
5023 4514 Pls
6749 4601 Pls
1570 4345 Pls
3297 4624 Pls
5023 4581 Pls
6749 4527 Pls
1570 4739 Pls
3297 4548 Pls
5023 4669 Pls
6749 4633 Pls
1570 4739 Pls
3297 4494 Pls
5023 4510 Pls
6749 4678 Pls
1570 4626 Pls
3297 4512 Pls
5023 4474 Pls
6749 4577 Pls
1570 4450 Pls
3297 4337 Pls
5023 4394 Pls
6749 4592 Pls
1570 4360 Pls
3297 4146 Pls
5023 4613 Pls
6749 4425 Pls
1570 3400 Pls
3297 4384 Pls
5023 4430 Pls
6749 4561 Pls
1570 3752 Pls
3297 4259 Pls
5023 4380 Pls
6749 4460 Pls
1570 3597 Pls
3297 4035 Pls
5023 4329 Pls
6749 4386 Pls
1570 4667 Pls
3297 4618 Pls
5023 4466 Pls
6749 4370 Pls
1570 4673 Pls
3297 4406 Pls
5023 4414 Pls
6749 4300 Pls
1570 4739 Pls
3297 4456 Pls
5023 4421 Pls
6749 4414 Pls
1570 4596 Pls
3297 4660 Pls
5023 4468 Pls
6749 4518 Pls
1570 4739 Pls
3297 4632 Pls
5023 4505 Pls
6749 4421 Pls
1570 3831 Pls
3297 4287 Pls
5023 4445 Pls
6749 4319 Pls
1570 4056 Pls
3297 4031 Pls
5023 3962 Pls
6749 4367 Pls
1570 3178 Pls
3297 3764 Pls
5023 3904 Pls
6749 4123 Pls
1570 2880 Pls
3297 3567 Pls
5023 4026 Pls
6749 3990 Pls
1570 2848 Pls
3297 3242 Pls
5023 3878 Pls
6749 4095 Pls
1570 4529 Pls
3297 4401 Pls
5023 4449 Pls
6749 4149 Pls
1570 4739 Pls
3297 4477 Pls
5023 4340 Pls
6749 4154 Pls
1570 4626 Pls
3297 4519 Pls
5023 4386 Pls
6749 4237 Pls
1570 4589 Pls
3297 4622 Pls
5023 4248 Pls
6749 4110 Pls
1570 4509 Pls
3297 4650 Pls
5023 4540 Pls
6749 4328 Pls
1570 3886 Pls
3297 3756 Pls
5023 4141 Pls
6749 4207 Pls
1570 2784 Pls
3297 3723 Pls
5023 3589 Pls
6749 3863 Pls
1570 2648 Pls
3297 3588 Pls
5023 3273 Pls
6749 3727 Pls
1570 2255 Pls
3297 2977 Pls
5023 3432 Pls
6749 3637 Pls
1570 1947 Pls
3297 2741 Pls
5023 3083 Pls
6749 3397 Pls
1570 4641 Pls
3297 4415 Pls
5023 3994 Pls
6749 3988 Pls
1570 4589 Pls
3297 4331 Pls
5023 4241 Pls
6749 4159 Pls
1570 4561 Pls
3297 4335 Pls
5023 3921 Pls
6749 4188 Pls
1570 4641 Pls
3297 4236 Pls
5023 4286 Pls
6749 4049 Pls
1570 4739 Pls
3297 4397 Pls
5023 4311 Pls
6749 4383 Pls
1570 3034 Pls
3297 3734 Pls
5023 3782 Pls
6749 3926 Pls
1570 2749 Pls
3297 3375 Pls
5023 3414 Pls
6749 3586 Pls
1570 2272 Pls
3297 2690 Pls
5023 3028 Pls
6749 3659 Pls
1570 2082 Pls
3297 2572 Pls
5023 3097 Pls
6749 3324 Pls
1570 1821 Pls
3297 2516 Pls
5023 2935 Pls
6749 3017 Pls
1570 4739 Pls
3297 4556 Pls
5023 4669 Pls
6749 4612 Pls
1570 4739 Pls
3297 4739 Pls
5023 4739 Pls
6749 4723 Pls
1570 4739 Pls
3297 4709 Pls
5023 4669 Pls
6749 4667 Pls
1570 4739 Pls
3297 4739 Pls
5023 4695 Pls
6749 4739 Pls
1570 4739 Pls
3297 4739 Pls
5023 4739 Pls
6749 4739 Pls
1570 4641 Pls
3297 4739 Pls
5023 4739 Pls
6749 4739 Pls
1570 4660 Pls
3297 4739 Pls
5023 4739 Pls
6749 4739 Pls
1570 4483 Pls
3297 4667 Pls
5023 4739 Pls
6749 4739 Pls
1570 4562 Pls
3297 4739 Pls
5023 4656 Pls
6749 4739 Pls
1570 4255 Pls
3297 4589 Pls
5023 4713 Pls
6749 4739 Pls
1570 4660 Pls
3297 4647 Pls
5023 4477 Pls
6749 4512 Pls
1570 4542 Pls
3297 4580 Pls
5023 4448 Pls
6749 4529 Pls
1570 4595 Pls
3297 4600 Pls
5023 4551 Pls
6749 4503 Pls
1570 4739 Pls
3297 4706 Pls
5023 4473 Pls
6749 4657 Pls
1570 4739 Pls
3297 4575 Pls
5023 4591 Pls
6749 4622 Pls
1570 4739 Pls
3297 4596 Pls
5023 4553 Pls
6749 4599 Pls
1570 4214 Pls
3297 4394 Pls
5023 4468 Pls
6749 4475 Pls
1570 4125 Pls
3297 4395 Pls
5023 4246 Pls
6749 4470 Pls
1570 3660 Pls
3297 4324 Pls
5023 4348 Pls
6749 4563 Pls
1570 3516 Pls
3297 4370 Pls
5023 4368 Pls
6749 4413 Pls
1570 4739 Pls
3297 4348 Pls
5023 4432 Pls
6749 4262 Pls
1570 4608 Pls
3297 4431 Pls
5023 4440 Pls
6749 4494 Pls
1570 4641 Pls
3297 4493 Pls
5023 4470 Pls
6749 4512 Pls
1570 4626 Pls
3297 4365 Pls
5023 4693 Pls
6749 4480 Pls
1570 4651 Pls
3297 4608 Pls
5023 4521 Pls
6749 4363 Pls
1570 4450 Pls
3297 4221 Pls
5023 4131 Pls
6749 4479 Pls
1570 3614 Pls
3297 4251 Pls
5023 4044 Pls
6749 4400 Pls
1570 3636 Pls
3297 3640 Pls
5023 3970 Pls
6749 4358 Pls
1570 3133 Pls
3297 3891 Pls
5023 3787 Pls
6749 4237 Pls
1570 3299 Pls
3297 3374 Pls
5023 3824 Pls
6749 4201 Pls
1570 4739 Pls
3297 4385 Pls
5023 4120 Pls
6749 4315 Pls
1570 4651 Pls
3297 4315 Pls
5023 4168 Pls
6749 4178 Pls
1570 4562 Pls
3297 4454 Pls
5023 4342 Pls
6749 4291 Pls
1570 4562 Pls
3297 4622 Pls
5023 4423 Pls
6749 4328 Pls
1570 4536 Pls
3297 4641 Pls
5023 4523 Pls
6749 4568 Pls
1570 4483 Pls
3297 4190 Pls
5023 4303 Pls
6749 4285 Pls
1570 3637 Pls
3297 3578 Pls
5023 4049 Pls
6749 4096 Pls
1570 2777 Pls
3297 3524 Pls
5023 3884 Pls
6749 3845 Pls
1570 2175 Pls
3297 3245 Pls
5023 3293 Pls
6749 3560 Pls
1570 2141 Pls
3297 3361 Pls
5023 3316 Pls
6749 3700 Pls
1570 4673 Pls
3297 4435 Pls
5023 4191 Pls
6749 4017 Pls
1570 4581 Pls
3297 4527 Pls
5023 4431 Pls
6749 4159 Pls
1570 4651 Pls
3297 4404 Pls
5023 4473 Pls
6749 4166 Pls
1570 4739 Pls
3297 4571 Pls
5023 4221 Pls
6749 4253 Pls
1570 4651 Pls
3297 4503 Pls
5023 4416 Pls
6749 4336 Pls
1570 3453 Pls
3297 4018 Pls
5023 4155 Pls
6749 3784 Pls
1570 3063 Pls
3297 3044 Pls
5023 3542 Pls
6749 3836 Pls
1570 2354 Pls
3297 3146 Pls
5023 3197 Pls
6749 3295 Pls
1570 2007 Pls
3297 2749 Pls
5023 3271 Pls
6749 3420 Pls
1570 1592 Pls
3297 2510 Pls
5023 2695 Pls
6749 3237 Pls
1570 4739 Pls
3297 4680 Pls
5023 4655 Pls
6749 4705 Pls
1570 4739 Pls
3297 4739 Pls
5023 4693 Pls
6749 4739 Pls
1570 4739 Pls
3297 4709 Pls
5023 4672 Pls
6749 4704 Pls
1570 4651 Pls
3297 4683 Pls
5023 4711 Pls
6749 4705 Pls
1570 4739 Pls
3297 4638 Pls
5023 4685 Pls
6749 4739 Pls
1570 4608 Pls
3297 4667 Pls
5023 4711 Pls
6749 4739 Pls
1570 4739 Pls
3297 4549 Pls
5023 4713 Pls
6749 4739 Pls
1570 4509 Pls
3297 4700 Pls
5023 4633 Pls
6749 4739 Pls
1570 4739 Pls
3297 4739 Pls
5023 4739 Pls
6749 4739 Pls
1570 4450 Pls
3297 4562 Pls
5023 4711 Pls
6749 4739 Pls
1570 4739 Pls
3297 4739 Pls
5023 4624 Pls
6749 4655 Pls
1570 4660 Pls
3297 4405 Pls
5023 4576 Pls
6749 4492 Pls
1570 4739 Pls
3297 4580 Pls
5023 4669 Pls
6749 4535 Pls
1570 4739 Pls
3297 4574 Pls
5023 4695 Pls
6749 4610 Pls
1570 4739 Pls
3297 4673 Pls
5023 4549 Pls
6749 4550 Pls
1570 4293 Pls
3297 4460 Pls
5023 4517 Pls
6749 4523 Pls
1570 3905 Pls
3297 4497 Pls
5023 4664 Pls
6749 4511 Pls
1570 4083 Pls
3297 4347 Pls
5023 4456 Pls
6749 4520 Pls
1570 3748 Pls
3297 4227 Pls
5023 4441 Pls
6749 4583 Pls
1570 3977 Pls
3297 4490 Pls
5023 4379 Pls
6749 4495 Pls
1570 4739 Pls
3297 4534 Pls
5023 4448 Pls
6749 4356 Pls
1570 4503 Pls
3297 4566 Pls
5023 4339 Pls
6749 4560 Pls
1570 4641 Pls
3297 4369 Pls
5023 4506 Pls
6749 4517 Pls
1570 4739 Pls
3297 4526 Pls
5023 4421 Pls
6749 4488 Pls
1570 4739 Pls
3297 4739 Pls
5023 4489 Pls
6749 4557 Pls
1570 4608 Pls
3297 4510 Pls
5023 4413 Pls
6749 4438 Pls
1570 3243 Pls
3297 4116 Pls
5023 4199 Pls
6749 4243 Pls
1570 3113 Pls
3297 3999 Pls
5023 3918 Pls
6749 4186 Pls
1570 2830 Pls
3297 3759 Pls
5023 4218 Pls
6749 4124 Pls
1570 2840 Pls
3297 3851 Pls
5023 4111 Pls
6749 4225 Pls
1570 4739 Pls
3297 4495 Pls
5023 4422 Pls
6749 4450 Pls
1570 4626 Pls
3297 4566 Pls
5023 4431 Pls
6749 4433 Pls
1570 4580 Pls
3297 4624 Pls
5023 4391 Pls
6749 4428 Pls
1570 4618 Pls
3297 4383 Pls
5023 4563 Pls
6749 4433 Pls
1570 4641 Pls
3297 4529 Pls
5023 4335 Pls
6749 4352 Pls
1570 3638 Pls
3297 4048 Pls
5023 4458 Pls
6749 4199 Pls
1570 3141 Pls
3297 3959 Pls
5023 3883 Pls
6749 4253 Pls
1570 2894 Pls
3297 3423 Pls
5023 3911 Pls
6749 4112 Pls
1570 2319 Pls
3297 3309 Pls
5023 3617 Pls
6749 3911 Pls
1570 2499 Pls
3297 3225 Pls
5023 3572 Pls
6749 3789 Pls
1570 4573 Pls
3297 4367 Pls
5023 4241 Pls
6749 4217 Pls
1570 4573 Pls
3297 4633 Pls
5023 4189 Pls
6749 4218 Pls
1570 4651 Pls
3297 4344 Pls
5023 4542 Pls
6749 4387 Pls
1570 4667 Pls
3297 4366 Pls
5023 4329 Pls
6749 4308 Pls
1570 4739 Pls
3297 4325 Pls
5023 4291 Pls
6749 4406 Pls
1570 3651 Pls
3297 4017 Pls
5023 3777 Pls
6749 3802 Pls
1570 2755 Pls
3297 3287 Pls
5023 3713 Pls
6749 3987 Pls
1570 2589 Pls
3297 3175 Pls
5023 3624 Pls
6749 3410 Pls
1570 2250 Pls
3297 3126 Pls
5023 3219 Pls
6749 3367 Pls
1570 2057 Pls
3297 2749 Pls
5023 2901 Pls
6749 3395 Pls
1570 4739 Pls
3297 4709 Pls
5023 4693 Pls
6749 4668 Pls
1570 4739 Pls
3297 4641 Pls
5023 4695 Pls
6749 4739 Pls
1570 4739 Pls
3297 4739 Pls
5023 4739 Pls
6749 4684 Pls
1570 4739 Pls
3297 4706 Pls
5023 4693 Pls
6749 4739 Pls
1570 4739 Pls
3297 4673 Pls
5023 4739 Pls
6749 4739 Pls
1570 4739 Pls
3297 4641 Pls
5023 4690 Pls
6749 4739 Pls
1570 4739 Pls
3297 4739 Pls
5023 4690 Pls
6749 4739 Pls
1570 4529 Pls
3297 4739 Pls
5023 4655 Pls
6749 4739 Pls
1570 4581 Pls
3297 4660 Pls
5023 4739 Pls
6749 4739 Pls
1570 4514 Pls
3297 4700 Pls
5023 4739 Pls
6749 4739 Pls
1570 4739 Pls
3297 4430 Pls
5023 4636 Pls
6749 4472 Pls
1570 4739 Pls
3297 4716 Pls
5023 4593 Pls
6749 4512 Pls
1570 4569 Pls
3297 4524 Pls
5023 4555 Pls
6749 4648 Pls
1570 4573 Pls
3297 4580 Pls
5023 4572 Pls
6749 4684 Pls
1570 4739 Pls
3297 4739 Pls
5023 4592 Pls
6749 4596 Pls
1570 4739 Pls
3297 4546 Pls
5023 4662 Pls
6749 4698 Pls
1570 4398 Pls
3297 4596 Pls
5023 4686 Pls
6749 4524 Pls
1570 4069 Pls
3297 4190 Pls
5023 4418 Pls
6749 4492 Pls
1570 3925 Pls
3297 4401 Pls
5023 4469 Pls
6749 4489 Pls
1570 3756 Pls
3297 4438 Pls
5023 4474 Pls
6749 4603 Pls
1570 4739 Pls
3297 4509 Pls
5023 4399 Pls
6749 4442 Pls
1570 4533 Pls
3297 4541 Pls
5023 4350 Pls
6749 4402 Pls
1570 4739 Pls
3297 4541 Pls
5023 4472 Pls
6749 4602 Pls
1570 4626 Pls
3297 4395 Pls
5023 4410 Pls
6749 4557 Pls
1570 4739 Pls
3297 4739 Pls
5023 4548 Pls
6749 4560 Pls
1570 4120 Pls
3297 4321 Pls
5023 4425 Pls
6749 4326 Pls
1570 4319 Pls
3297 4310 Pls
5023 4236 Pls
6749 4200 Pls
1570 3623 Pls
3297 4026 Pls
5023 4206 Pls
6749 4323 Pls
1570 2901 Pls
3297 3195 Pls
5023 3903 Pls
6749 4139 Pls
1570 2655 Pls
3297 3542 Pls
5023 4148 Pls
6749 4149 Pls
1570 4660 Pls
3297 4525 Pls
5023 4423 Pls
6749 4486 Pls
1570 4561 Pls
3297 4604 Pls
5023 4351 Pls
6749 4218 Pls
1570 4589 Pls
3297 4525 Pls
5023 4306 Pls
6749 4392 Pls
1570 4660 Pls
3297 4500 Pls
5023 4556 Pls
6749 4245 Pls
1570 4739 Pls
3297 4676 Pls
5023 4498 Pls
6749 4264 Pls
1570 3752 Pls
3297 3896 Pls
5023 4068 Pls
6749 4281 Pls
1570 3504 Pls
3297 3869 Pls
5023 4179 Pls
6749 4089 Pls
1570 3647 Pls
3297 3597 Pls
5023 3857 Pls
6749 4240 Pls
1570 3069 Pls
3297 3544 Pls
5023 3678 Pls
6749 3858 Pls
1570 2946 Pls
3297 3192 Pls
5023 3523 Pls
6749 3588 Pls
1570 4739 Pls
3297 4496 Pls
5023 4342 Pls
6749 4238 Pls
1570 4651 Pls
3297 4446 Pls
5023 4275 Pls
6749 4306 Pls
1570 4739 Pls
3297 4398 Pls
5023 4496 Pls
6749 4349 Pls
1570 4511 Pls
3297 4463 Pls
5023 4445 Pls
6749 4379 Pls
1570 4739 Pls
3297 4497 Pls
5023 4480 Pls
6749 4289 Pls
1570 3951 Pls
3297 3830 Pls
5023 4180 Pls
6749 4289 Pls
1570 3754 Pls
3297 3318 Pls
5023 3773 Pls
6749 3870 Pls
1570 2425 Pls
3297 3345 Pls
5023 3796 Pls
6749 3543 Pls
1570 2551 Pls
3297 3089 Pls
5023 3305 Pls
6749 3329 Pls
1570 2069 Pls
3297 2999 Pls
5023 3314 Pls
6749 3335 Pls
1570 4739 Pls
3297 4648 Pls
5023 4739 Pls
6749 4687 Pls
1570 4739 Pls
3297 4739 Pls
5023 4695 Pls
6749 4705 Pls
1570 4739 Pls
3297 4683 Pls
5023 4739 Pls
6749 4705 Pls
1570 4739 Pls
3297 4667 Pls
5023 4739 Pls
6749 4739 Pls
1570 4739 Pls
3297 4739 Pls
5023 4739 Pls
6749 4739 Pls
1570 4739 Pls
3297 4739 Pls
5023 4739 Pls
6749 4739 Pls
1570 4739 Pls
3297 4739 Pls
5023 4739 Pls
6749 4739 Pls
1570 4739 Pls
3297 4628 Pls
5023 4739 Pls
6749 4739 Pls
1570 4739 Pls
3297 4739 Pls
5023 4686 Pls
6749 4739 Pls
1570 4608 Pls
3297 4667 Pls
5023 4686 Pls
6749 4739 Pls
1570 4626 Pls
3297 4709 Pls
5023 4675 Pls
6749 4690 Pls
1570 4739 Pls
3297 4709 Pls
5023 4601 Pls
6749 4723 Pls
1570 4739 Pls
3297 4632 Pls
5023 4739 Pls
6749 4638 Pls
1570 4660 Pls
3297 4678 Pls
5023 4716 Pls
6749 4623 Pls
1570 4739 Pls
3297 4739 Pls
5023 4617 Pls
6749 4720 Pls
1570 4581 Pls
3297 4628 Pls
5023 4585 Pls
6749 4739 Pls
1570 4739 Pls
3297 4618 Pls
5023 4535 Pls
6749 4660 Pls
1570 4476 Pls
3297 4538 Pls
5023 4578 Pls
6749 4621 Pls
1570 4463 Pls
3297 4536 Pls
5023 4678 Pls
6749 4659 Pls
1570 3886 Pls
3297 4536 Pls
5023 4585 Pls
6749 4625 Pls
1570 4651 Pls
3297 4662 Pls
5023 4532 Pls
6749 4588 Pls
1570 4739 Pls
3297 4616 Pls
5023 4703 Pls
6749 4585 Pls
1570 4739 Pls
3297 4613 Pls
5023 4580 Pls
6749 4643 Pls
1570 4739 Pls
3297 4678 Pls
5023 4629 Pls
6749 4682 Pls
1570 4739 Pls
3297 4646 Pls
5023 4508 Pls
6749 4678 Pls
1570 4581 Pls
3297 4618 Pls
5023 4630 Pls
6749 4611 Pls
1570 4319 Pls
3297 4450 Pls
5023 4413 Pls
6749 4626 Pls
1570 3656 Pls
3297 4171 Pls
5023 4537 Pls
6749 4423 Pls
1570 3391 Pls
3297 4340 Pls
5023 4412 Pls
6749 4509 Pls
1570 3173 Pls
3297 4320 Pls
5023 4159 Pls
6749 4370 Pls
1570 4608 Pls
3297 4527 Pls
5023 4493 Pls
6749 4571 Pls
1570 4667 Pls
3297 4640 Pls
5023 4535 Pls
6749 4588 Pls
1570 4739 Pls
3297 4654 Pls
5023 4566 Pls
6749 4458 Pls
1570 4739 Pls
3297 4630 Pls
5023 4507 Pls
6749 4456 Pls
1570 4651 Pls
3297 4667 Pls
5023 4503 Pls
6749 4654 Pls
1570 4739 Pls
3297 4386 Pls
5023 4568 Pls
6749 4542 Pls
1570 3964 Pls
3297 4144 Pls
5023 4363 Pls
6749 4410 Pls
1570 3323 Pls
3297 4074 Pls
5023 4340 Pls
6749 4379 Pls
1570 3529 Pls
3297 3977 Pls
5023 4010 Pls
6749 4202 Pls
1570 3143 Pls
3297 3827 Pls
5023 4151 Pls
6749 4210 Pls
1570 4739 Pls
3297 4574 Pls
5023 4623 Pls
6749 4567 Pls
1570 4641 Pls
3297 4664 Pls
5023 4580 Pls
6749 4525 Pls
1570 4739 Pls
3297 4711 Pls
5023 4565 Pls
6749 4581 Pls
1570 4667 Pls
3297 4654 Pls
5023 4515 Pls
6749 4594 Pls
1570 4739 Pls
3297 4678 Pls
5023 4485 Pls
6749 4501 Pls
1570 4411 Pls
3297 4406 Pls
5023 4504 Pls
6749 4359 Pls
1570 3886 Pls
3297 4339 Pls
5023 3993 Pls
6749 4393 Pls
1570 3557 Pls
3297 3973 Pls
5023 3987 Pls
6749 4306 Pls
1570 2952 Pls
3297 3362 Pls
5023 4115 Pls
6749 4012 Pls
1570 2714 Pls
3297 3185 Pls
5023 3762 Pls
6749 3815 Pls
1570 4739 Pls
3297 4683 Pls
5023 4739 Pls
6749 4739 Pls
1570 4739 Pls
3297 4739 Pls
5023 4664 Pls
6749 4739 Pls
1570 4739 Pls
3297 4739 Pls
5023 4739 Pls
6749 4739 Pls
1570 4739 Pls
3297 4739 Pls
5023 4714 Pls
6749 4739 Pls
1570 4739 Pls
3297 4739 Pls
5023 4739 Pls
6749 4739 Pls
1570 4476 Pls
3297 4739 Pls
5023 4713 Pls
6749 4739 Pls
1570 4660 Pls
3297 4739 Pls
5023 4739 Pls
6749 4739 Pls
1570 4739 Pls
3297 4695 Pls
5023 4690 Pls
6749 4739 Pls
1570 4739 Pls
3297 4695 Pls
5023 4739 Pls
6749 4739 Pls
1570 4450 Pls
3297 4667 Pls
5023 4739 Pls
6749 4739 Pls
1570 4739 Pls
3297 4739 Pls
5023 4717 Pls
6749 4722 Pls
1570 4739 Pls
3297 4617 Pls
5023 4739 Pls
6749 4672 Pls
1570 4739 Pls
3297 4660 Pls
5023 4739 Pls
6749 4706 Pls
1570 4739 Pls
3297 4706 Pls
5023 4651 Pls
6749 4656 Pls
1570 4739 Pls
3297 4739 Pls
5023 4643 Pls
6749 4739 Pls
1570 4739 Pls
3297 4700 Pls
5023 4739 Pls
6749 4701 Pls
1570 4529 Pls
3297 4739 Pls
5023 4658 Pls
6749 4670 Pls
1570 4542 Pls
3297 4548 Pls
5023 4739 Pls
6749 4701 Pls
1570 4608 Pls
3297 4449 Pls
5023 4637 Pls
6749 4719 Pls
1570 4503 Pls
3297 4739 Pls
5023 4611 Pls
6749 4660 Pls
1570 4626 Pls
3297 4690 Pls
5023 4600 Pls
6749 4707 Pls
1570 4739 Pls
3297 4739 Pls
5023 4693 Pls
6749 4625 Pls
1570 4739 Pls
3297 4604 Pls
5023 4698 Pls
6749 4669 Pls
1570 4739 Pls
3297 4739 Pls
5023 4651 Pls
6749 4703 Pls
1570 4739 Pls
3297 4739 Pls
5023 4695 Pls
6749 4705 Pls
1570 4739 Pls
3297 4667 Pls
5023 4611 Pls
6749 4677 Pls
1570 4411 Pls
3297 4409 Pls
5023 4586 Pls
6749 4701 Pls
1570 4266 Pls
3297 4451 Pls
5023 4664 Pls
6749 4579 Pls
1570 3925 Pls
3297 4278 Pls
5023 4511 Pls
6749 4646 Pls
1570 4273 Pls
3297 4628 Pls
5023 4454 Pls
6749 4519 Pls
1570 4651 Pls
3297 4640 Pls
5023 4665 Pls
6749 4642 Pls
1570 4739 Pls
3297 4683 Pls
5023 4582 Pls
6749 4660 Pls
1570 4739 Pls
3297 4610 Pls
5023 4677 Pls
6749 4606 Pls
1570 4591 Pls
3297 4643 Pls
5023 4610 Pls
6749 4621 Pls
1570 4739 Pls
3297 4622 Pls
5023 4648 Pls
6749 4605 Pls
1570 4509 Pls
3297 4503 Pls
5023 4686 Pls
6749 4531 Pls
1570 3951 Pls
3297 4393 Pls
5023 4509 Pls
6749 4346 Pls
1570 3597 Pls
3297 4273 Pls
5023 4489 Pls
6749 4605 Pls
1570 4117 Pls
3297 4059 Pls
5023 4440 Pls
6749 4356 Pls
1570 3373 Pls
3297 4061 Pls
5023 4430 Pls
6749 4271 Pls
1570 4641 Pls
3297 4568 Pls
5023 4419 Pls
6749 4635 Pls
1570 4739 Pls
3297 4739 Pls
5023 4677 Pls
6749 4583 Pls
1570 4739 Pls
3297 4629 Pls
5023 4664 Pls
6749 4534 Pls
1570 4739 Pls
3297 4683 Pls
5023 4662 Pls
6749 4639 Pls
1570 4739 Pls
3297 4627 Pls
5023 4646 Pls
6749 4618 Pls
1570 4161 Pls
3297 4487 Pls
5023 4550 Pls
6749 4498 Pls
1570 3886 Pls
3297 3974 Pls
5023 3959 Pls
6749 4356 Pls
1570 3851 Pls
3297 3867 Pls
5023 4261 Pls
6749 4133 Pls
1570 2923 Pls
3297 3641 Pls
5023 3993 Pls
6749 4219 Pls
1570 3340 Pls
3297 3849 Pls
5023 3771 Pls
6749 4260 Pls
1570 4739 Pls
3297 4739 Pls
5023 4686 Pls
6749 4739 Pls
1570 4739 Pls
3297 4739 Pls
5023 4739 Pls
6749 4723 Pls
1570 4739 Pls
3297 4709 Pls
5023 4713 Pls
6749 4739 Pls
1570 4739 Pls
3297 4739 Pls
5023 4739 Pls
6749 4739 Pls
1570 4739 Pls
3297 4739 Pls
5023 4739 Pls
6749 4739 Pls
1570 4739 Pls
3297 4739 Pls
5023 4739 Pls
6749 4739 Pls
1570 4581 Pls
3297 4667 Pls
5023 4739 Pls
6749 4739 Pls
1570 4739 Pls
3297 4739 Pls
5023 4739 Pls
6749 4739 Pls
1570 4739 Pls
3297 4695 Pls
5023 4706 Pls
6749 4739 Pls
1570 4739 Pls
3297 4739 Pls
5023 4739 Pls
6749 4739 Pls
1570 4739 Pls
3297 4686 Pls
5023 4695 Pls
6749 4705 Pls
1570 4739 Pls
3297 4690 Pls
5023 4739 Pls
6749 4705 Pls
1570 4739 Pls
3297 4621 Pls
5023 4739 Pls
6749 4739 Pls
1570 4739 Pls
3297 4711 Pls
5023 4651 Pls
6749 4709 Pls
1570 4739 Pls
3297 4739 Pls
5023 4714 Pls
6749 4739 Pls
1570 4608 Pls
3297 4739 Pls
5023 4637 Pls
6749 4718 Pls
1570 4739 Pls
3297 4739 Pls
5023 4739 Pls
6749 4739 Pls
1570 4739 Pls
3297 4525 Pls
5023 4621 Pls
6749 4739 Pls
1570 4450 Pls
3297 4573 Pls
5023 4682 Pls
6749 4698 Pls
1570 4608 Pls
3297 4524 Pls
5023 4626 Pls
6749 4718 Pls
1570 4739 Pls
3297 4739 Pls
5023 4698 Pls
6749 4592 Pls
1570 4626 Pls
3297 4690 Pls
5023 4681 Pls
6749 4667 Pls
1570 4739 Pls
3297 4739 Pls
5023 4714 Pls
6749 4739 Pls
1570 4739 Pls
3297 4739 Pls
5023 4601 Pls
6749 4635 Pls
1570 4641 Pls
3297 4739 Pls
5023 4648 Pls
6749 4700 Pls
1570 4739 Pls
3297 4589 Pls
5023 4686 Pls
6749 4603 Pls
1570 4317 Pls
3297 4667 Pls
5023 4621 Pls
6749 4642 Pls
1570 4570 Pls
3297 4739 Pls
5023 4690 Pls
6749 4623 Pls
1570 4739 Pls
3297 4667 Pls
5023 4739 Pls
6749 4595 Pls
1570 3887 Pls
3297 4616 Pls
5023 4396 Pls
6749 4631 Pls
1570 4739 Pls
3297 4739 Pls
5023 4721 Pls
6749 4620 Pls
1570 4739 Pls
3297 4660 Pls
5023 4703 Pls
6749 4640 Pls
1570 4739 Pls
3297 4662 Pls
5023 4690 Pls
6749 4570 Pls
1570 4739 Pls
3297 4618 Pls
5023 4698 Pls
6749 4670 Pls
1570 4651 Pls
3297 4678 Pls
5023 4739 Pls
6749 4674 Pls
1570 4542 Pls
3297 4510 Pls
5023 4350 Pls
6749 4626 Pls
1570 4266 Pls
3297 4497 Pls
5023 4550 Pls
6749 4621 Pls
1570 3914 Pls
3297 4396 Pls
5023 4433 Pls
6749 4555 Pls
1570 3951 Pls
3297 4540 Pls
5023 4365 Pls
6749 4514 Pls
1570 3857 Pls
3297 4265 Pls
5023 4393 Pls
6749 4405 Pls
1570 4673 Pls
3297 4739 Pls
5023 4682 Pls
6749 4677 Pls
1570 4739 Pls
3297 4634 Pls
5023 4577 Pls
6749 4593 Pls
1570 4739 Pls
3297 4739 Pls
5023 4678 Pls
6749 4628 Pls
1570 4739 Pls
3297 4683 Pls
5023 4639 Pls
6749 4657 Pls
1570 4739 Pls
3297 4739 Pls
5023 4698 Pls
6749 4739 Pls
1570 4293 Pls
3297 4621 Pls
5023 4658 Pls
6749 4558 Pls
1570 4214 Pls
3297 4253 Pls
5023 4235 Pls
6749 4553 Pls
1570 3897 Pls
3297 4229 Pls
5023 4284 Pls
6749 4417 Pls
1570 3498 Pls
3297 3894 Pls
5023 4109 Pls
6749 4347 Pls
1570 3398 Pls
3297 4197 Pls
5023 4059 Pls
6749 4330 Pls
1570 4739 Pls
3297 4739 Pls
5023 4701 Pls
6749 4739 Pls
1570 4739 Pls
3297 4739 Pls
5023 4739 Pls
6749 4739 Pls
1570 4739 Pls
3297 4739 Pls
5023 4716 Pls
6749 4739 Pls
1570 4683 Pls
3297 4739 Pls
5023 4739 Pls
6749 4739 Pls
1570 4739 Pls
3297 4739 Pls
5023 4691 Pls
6749 4739 Pls
1570 4739 Pls
3297 4739 Pls
5023 4739 Pls
6749 4739 Pls
1570 4660 Pls
3297 4739 Pls
5023 4739 Pls
6749 4739 Pls
1570 4739 Pls
3297 4667 Pls
5023 4739 Pls
6749 4739 Pls
1570 4739 Pls
3297 4700 Pls
5023 4739 Pls
6749 4739 Pls
1570 4608 Pls
3297 4739 Pls
5023 4739 Pls
6749 4739 Pls
1570 4739 Pls
3297 4667 Pls
5023 4620 Pls
6749 4673 Pls
1570 4739 Pls
3297 4739 Pls
5023 4739 Pls
6749 4739 Pls
1570 4739 Pls
3297 4683 Pls
5023 4698 Pls
6749 4683 Pls
1570 4739 Pls
3297 4709 Pls
5023 4739 Pls
6749 4739 Pls
1570 4608 Pls
3297 4739 Pls
5023 4739 Pls
6749 4739 Pls
1570 4739 Pls
3297 4667 Pls
5023 4690 Pls
6749 4700 Pls
1570 4608 Pls
3297 4651 Pls
5023 4739 Pls
6749 4664 Pls
1570 4529 Pls
3297 4660 Pls
5023 4690 Pls
6749 4739 Pls
1570 4608 Pls
3297 4695 Pls
5023 4585 Pls
6749 4698 Pls
1570 4476 Pls
3297 4667 Pls
5023 4686 Pls
6749 4588 Pls
1570 4739 Pls
3297 4739 Pls
5023 4698 Pls
6749 4739 Pls
1570 4739 Pls
3297 4739 Pls
5023 4610 Pls
6749 4723 Pls
1570 4739 Pls
3297 4739 Pls
5023 4628 Pls
6749 4684 Pls
1570 4739 Pls
3297 4568 Pls
5023 4680 Pls
6749 4668 Pls
1570 4651 Pls
3297 4739 Pls
5023 4690 Pls
6749 4739 Pls
1570 4739 Pls
3297 4589 Pls
5023 4595 Pls
6749 4623 Pls
1570 4476 Pls
3297 4667 Pls
5023 4739 Pls
6749 4621 Pls
1570 4398 Pls
3297 4569 Pls
5023 4591 Pls
6749 4605 Pls
1570 4739 Pls
3297 4628 Pls
5023 4633 Pls
6749 4660 Pls
1570 4235 Pls
3297 4596 Pls
5023 4548 Pls
6749 4586 Pls
1570 4739 Pls
3297 4739 Pls
5023 4695 Pls
6749 4710 Pls
1570 4739 Pls
3297 4695 Pls
5023 4577 Pls
6749 4669 Pls
1570 4739 Pls
3297 4739 Pls
5023 4693 Pls
6749 4710 Pls
1570 4739 Pls
3297 4686 Pls
5023 4700 Pls
6749 4676 Pls
1570 4739 Pls
3297 4739 Pls
5023 4739 Pls
6749 4672 Pls
1570 4739 Pls
3297 4542 Pls
5023 4599 Pls
6749 4695 Pls
1570 4450 Pls
3297 4517 Pls
5023 4535 Pls
6749 4629 Pls
1570 4581 Pls
3297 4581 Pls
5023 4513 Pls
6749 4622 Pls
1570 4384 Pls
3297 4439 Pls
5023 4243 Pls
6749 4535 Pls
1570 4188 Pls
3297 4262 Pls
5023 4280 Pls
6749 4455 Pls
1570 4739 Pls
3297 4739 Pls
5023 4575 Pls
6749 4674 Pls
1570 4739 Pls
3297 4565 Pls
5023 4613 Pls
6749 4645 Pls
1570 4739 Pls
3297 4651 Pls
5023 4611 Pls
6749 4678 Pls
1570 4739 Pls
3297 4739 Pls
5023 4676 Pls
6749 4588 Pls
1570 4739 Pls
3297 4739 Pls
5023 4693 Pls
6749 4596 Pls
1570 4188 Pls
3297 4596 Pls
5023 4585 Pls
6749 4517 Pls
1570 3800 Pls
3297 4235 Pls
5023 4490 Pls
6749 4508 Pls
1570 3846 Pls
3297 4353 Pls
5023 4558 Pls
6749 4433 Pls
1570 3833 Pls
3297 4418 Pls
5023 4411 Pls
6749 4479 Pls
1570 3513 Pls
3297 4165 Pls
5023 4250 Pls
6749 4427 Pls
1570 4739 Pls
3297 4711 Pls
5023 4695 Pls
6749 4739 Pls
1570 4739 Pls
3297 4739 Pls
5023 4714 Pls
6749 4739 Pls
1570 4673 Pls
3297 4739 Pls
5023 4739 Pls
6749 4739 Pls
1570 4739 Pls
3297 4739 Pls
5023 4739 Pls
6749 4739 Pls
1570 4739 Pls
3297 4739 Pls
5023 4739 Pls
6749 4739 Pls
1570 4739 Pls
3297 4739 Pls
5023 4739 Pls
6749 4739 Pls
1570 4608 Pls
3297 4739 Pls
5023 4739 Pls
6749 4739 Pls
1570 4660 Pls
3297 4739 Pls
5023 4739 Pls
6749 4739 Pls
1570 4739 Pls
3297 4739 Pls
5023 4739 Pls
6749 4739 Pls
1570 4739 Pls
3297 4739 Pls
5023 4739 Pls
6749 4739 Pls
1570 4739 Pls
3297 4739 Pls
5023 4739 Pls
6749 4643 Pls
1570 4739 Pls
3297 4739 Pls
5023 4675 Pls
6749 4709 Pls
1570 4739 Pls
3297 4739 Pls
5023 4739 Pls
6749 4739 Pls
1570 4739 Pls
3297 4739 Pls
5023 4700 Pls
6749 4705 Pls
1570 4739 Pls
3297 4648 Pls
5023 4643 Pls
6749 4739 Pls
1570 4476 Pls
3297 4700 Pls
5023 4739 Pls
6749 4698 Pls
1570 4450 Pls
3297 4739 Pls
5023 4690 Pls
6749 4658 Pls
1570 4476 Pls
3297 4739 Pls
5023 4713 Pls
6749 4698 Pls
1570 4608 Pls
3297 4651 Pls
5023 4611 Pls
6749 4739 Pls
1570 4608 Pls
3297 4507 Pls
5023 4709 Pls
6749 4700 Pls
1570 4739 Pls
3297 4595 Pls
5023 4693 Pls
6749 4680 Pls
1570 4651 Pls
3297 4678 Pls
5023 4739 Pls
6749 4721 Pls
1570 4739 Pls
3297 4739 Pls
5023 4700 Pls
6749 4739 Pls
1570 4739 Pls
3297 4739 Pls
5023 4739 Pls
6749 4704 Pls
1570 4739 Pls
3297 4673 Pls
5023 4739 Pls
6749 4707 Pls
1570 4739 Pls
3297 4517 Pls
5023 4739 Pls
6749 4662 Pls
1570 4411 Pls
3297 4695 Pls
5023 4641 Pls
6749 4619 Pls
1570 4608 Pls
3297 4410 Pls
5023 4641 Pls
6749 4581 Pls
1570 4319 Pls
3297 4517 Pls
5023 4551 Pls
6749 4601 Pls
1570 4100 Pls
3297 4388 Pls
5023 4690 Pls
6749 4656 Pls
1570 4739 Pls
3297 4739 Pls
5023 4739 Pls
6749 4643 Pls
1570 4739 Pls
3297 4637 Pls
5023 4637 Pls
6749 4656 Pls
1570 4739 Pls
3297 4739 Pls
5023 4698 Pls
6749 4712 Pls
1570 4739 Pls
3297 4739 Pls
5023 4670 Pls
6749 4687 Pls
1570 4739 Pls
3297 4678 Pls
5023 4739 Pls
6749 4623 Pls
1570 4345 Pls
3297 4612 Pls
5023 4739 Pls
6749 4630 Pls
1570 4476 Pls
3297 4382 Pls
5023 4651 Pls
6749 4625 Pls
1570 4450 Pls
3297 4449 Pls
5023 4534 Pls
6749 4522 Pls
1570 3951 Pls
3297 4562 Pls
5023 4571 Pls
6749 4546 Pls
1570 4056 Pls
3297 4231 Pls
5023 4475 Pls
6749 4488 Pls
1570 4739 Pls
3297 4673 Pls
5023 4656 Pls
6749 4581 Pls
1570 4739 Pls
3297 4673 Pls
5023 4680 Pls
6749 4691 Pls
1570 4667 Pls
3297 4615 Pls
5023 4630 Pls
6749 4580 Pls
1570 4739 Pls
3297 4690 Pls
5023 4551 Pls
6749 4598 Pls
1570 4739 Pls
3297 4665 Pls
5023 4672 Pls
6749 4694 Pls
1570 4345 Pls
3297 4667 Pls
5023 4686 Pls
6749 4662 Pls
1570 3886 Pls
3297 4510 Pls
5023 4588 Pls
6749 4506 Pls
1570 4188 Pls
3297 4536 Pls
5023 4585 Pls
6749 4489 Pls
1570 4148 Pls
3297 4208 Pls
5023 4306 Pls
6749 4531 Pls
1570 3848 Pls
3297 4238 Pls
5023 4333 Pls
6749 4276 Pls
1570 4739 Pls
3297 4739 Pls
5023 4700 Pls
6749 4739 Pls
1570 4739 Pls
3297 4739 Pls
5023 4739 Pls
6749 4739 Pls
1570 4739 Pls
3297 4706 Pls
5023 4739 Pls
6749 4739 Pls
1570 4739 Pls
3297 4739 Pls
5023 4695 Pls
6749 4739 Pls
1570 4739 Pls
3297 4739 Pls
5023 4739 Pls
6749 4739 Pls
1570 4739 Pls
3297 4739 Pls
5023 4739 Pls
6749 4739 Pls
1570 4739 Pls
3297 4739 Pls
5023 4739 Pls
6749 4739 Pls
1570 4581 Pls
3297 4660 Pls
5023 4739 Pls
6749 4739 Pls
1570 4739 Pls
3297 4739 Pls
5023 4739 Pls
6749 4739 Pls
1570 4581 Pls
3297 4739 Pls
5023 4711 Pls
6749 4739 Pls
1570 4739 Pls
3297 4683 Pls
5023 4714 Pls
6749 4722 Pls
1570 4739 Pls
3297 4739 Pls
5023 4660 Pls
6749 4653 Pls
1570 4739 Pls
3297 4739 Pls
5023 4713 Pls
6749 4739 Pls
1570 4739 Pls
3297 4739 Pls
5023 4656 Pls
6749 4673 Pls
1570 4739 Pls
3297 4645 Pls
5023 4739 Pls
6749 4739 Pls
1570 4739 Pls
3297 4739 Pls
5023 4739 Pls
6749 4664 Pls
1570 4739 Pls
3297 4739 Pls
5023 4686 Pls
6749 4739 Pls
1570 4581 Pls
3297 4695 Pls
5023 4686 Pls
6749 4739 Pls
1570 4739 Pls
3297 4621 Pls
5023 4634 Pls
6749 4695 Pls
1570 4660 Pls
3297 4700 Pls
5023 4686 Pls
6749 4662 Pls
1570 4739 Pls
3297 4739 Pls
5023 4739 Pls
6749 4667 Pls
1570 4739 Pls
3297 4693 Pls
5023 4660 Pls
6749 4739 Pls
1570 4739 Pls
3297 4739 Pls
5023 4718 Pls
6749 4706 Pls
1570 4739 Pls
3297 4683 Pls
5023 4739 Pls
6749 4706 Pls
1570 4739 Pls
3297 4739 Pls
5023 4739 Pls
6749 4672 Pls
1570 4608 Pls
3297 4660 Pls
5023 4690 Pls
6749 4662 Pls
1570 4608 Pls
3297 4455 Pls
5023 4555 Pls
6749 4653 Pls
1570 4503 Pls
3297 4667 Pls
5023 4686 Pls
6749 4623 Pls
1570 4017 Pls
3297 4497 Pls
5023 4660 Pls
6749 4660 Pls
1570 4371 Pls
3297 4660 Pls
5023 4596 Pls
6749 4620 Pls
1570 4739 Pls
3297 4739 Pls
5023 4693 Pls
6749 4672 Pls
1570 4739 Pls
3297 4739 Pls
5023 4656 Pls
6749 4650 Pls
1570 4660 Pls
3297 4739 Pls
5023 4671 Pls
6749 4698 Pls
1570 4660 Pls
3297 4739 Pls
5023 4628 Pls
6749 4706 Pls
1570 4739 Pls
3297 4739 Pls
5023 4717 Pls
6749 4739 Pls
1570 4608 Pls
3297 4562 Pls
5023 4584 Pls
6749 4637 Pls
1570 4345 Pls
3297 4191 Pls
5023 4690 Pls
6749 4660 Pls
1570 4345 Pls
3297 4510 Pls
5023 4510 Pls
6749 4640 Pls
1570 4214 Pls
3297 4517 Pls
5023 4311 Pls
6749 4602 Pls
1570 4411 Pls
3297 4470 Pls
5023 4634 Pls
6749 4698 Pls
1570 4667 Pls
3297 4711 Pls
5023 4541 Pls
6749 4739 Pls
1570 4739 Pls
3297 4690 Pls
5023 4670 Pls
6749 4616 Pls
1570 4739 Pls
3297 4596 Pls
5023 4700 Pls
6749 4709 Pls
1570 4739 Pls
3297 4634 Pls
5023 4581 Pls
6749 4670 Pls
1570 4739 Pls
3297 4739 Pls
5023 4651 Pls
6749 4672 Pls
1570 4608 Pls
3297 4589 Pls
5023 4581 Pls
6749 4630 Pls
1570 4411 Pls
3297 4335 Pls
5023 4390 Pls
6749 4440 Pls
1570 4332 Pls
3297 4470 Pls
5023 4413 Pls
6749 4493 Pls
1570 4345 Pls
3297 4352 Pls
5023 4383 Pls
6749 4522 Pls
1570 3162 Pls
3297 4205 Pls
5023 4217 Pls
6749 4660 Pls
1570 4739 Pls
3297 4739 Pls
5023 4739 Pls
6749 4739 Pls
1570 4739 Pls
3297 4739 Pls
5023 4739 Pls
6749 4739 Pls
1570 4739 Pls
3297 4739 Pls
5023 4739 Pls
6749 4739 Pls
1570 4660 Pls
3297 4739 Pls
5023 4695 Pls
6749 4739 Pls
1570 4739 Pls
3297 4739 Pls
5023 4739 Pls
6749 4739 Pls
1570 4739 Pls
3297 4700 Pls
5023 4739 Pls
6749 4739 Pls
1570 4739 Pls
3297 4700 Pls
5023 4713 Pls
6749 4739 Pls
1570 4739 Pls
3297 4739 Pls
5023 4652 Pls
6749 4739 Pls
1570 4739 Pls
3297 4739 Pls
5023 4739 Pls
6749 4739 Pls
1570 4608 Pls
3297 4660 Pls
5023 4739 Pls
6749 4739 Pls
1570 4739 Pls
3297 4739 Pls
5023 4705 Pls
6749 4739 Pls
1570 4739 Pls
3297 4627 Pls
5023 4654 Pls
6749 4739 Pls
1570 4739 Pls
3297 4739 Pls
5023 4686 Pls
6749 4673 Pls
1570 4739 Pls
3297 4739 Pls
5023 4739 Pls
6749 4739 Pls
1570 4739 Pls
3297 4739 Pls
5023 4671 Pls
6749 4703 Pls
1570 4739 Pls
3297 4739 Pls
5023 4739 Pls
6749 4718 Pls
1570 4739 Pls
3297 4739 Pls
5023 4739 Pls
6749 4718 Pls
1570 4476 Pls
3297 4667 Pls
5023 4660 Pls
6749 4701 Pls
1570 4581 Pls
3297 4596 Pls
5023 4630 Pls
6749 4739 Pls
1570 4739 Pls
3297 4596 Pls
5023 4711 Pls
6749 4701 Pls
1570 4739 Pls
3297 4739 Pls
5023 4664 Pls
6749 4678 Pls
1570 4739 Pls
3297 4739 Pls
5023 4676 Pls
6749 4692 Pls
1570 4651 Pls
3297 4739 Pls
5023 4658 Pls
6749 4721 Pls
1570 4739 Pls
3297 4739 Pls
5023 4700 Pls
6749 4739 Pls
1570 4739 Pls
3297 4739 Pls
5023 4695 Pls
6749 4700 Pls
1570 4739 Pls
3297 4596 Pls
5023 4690 Pls
6749 4739 Pls
1570 4739 Pls
3297 4589 Pls
5023 4634 Pls
6749 4739 Pls
1570 4083 Pls
3297 4660 Pls
5023 4709 Pls
6749 4662 Pls
1570 4739 Pls
3297 4739 Pls
5023 4660 Pls
6749 4664 Pls
1570 4570 Pls
3297 4651 Pls
5023 4635 Pls
6749 4701 Pls
1570 4739 Pls
3297 4701 Pls
5023 4674 Pls
6749 4673 Pls
1570 4667 Pls
3297 4690 Pls
5023 4739 Pls
6749 4739 Pls
1570 4739 Pls
3297 4739 Pls
5023 4698 Pls
6749 4739 Pls
1570 4739 Pls
3297 4706 Pls
5023 4739 Pls
6749 4739 Pls
1570 4739 Pls
3297 4739 Pls
5023 4739 Pls
6749 4688 Pls
1570 4608 Pls
3297 4596 Pls
5023 4739 Pls
6749 4658 Pls
1570 4739 Pls
3297 4739 Pls
5023 4630 Pls
6749 4658 Pls
1570 4319 Pls
3297 4596 Pls
5023 4479 Pls
6749 4567 Pls
1570 4308 Pls
3297 4573 Pls
5023 4525 Pls
6749 4548 Pls
1570 3991 Pls
3297 4167 Pls
5023 4641 Pls
6749 4574 Pls
1570 4739 Pls
3297 4739 Pls
5023 4690 Pls
6749 4722 Pls
1570 4739 Pls
3297 4739 Pls
5023 4739 Pls
6749 4638 Pls
1570 4739 Pls
3297 4664 Pls
5023 4705 Pls
6749 4706 Pls
1570 4739 Pls
3297 4739 Pls
5023 4739 Pls
6749 4679 Pls
1570 4641 Pls
3297 4678 Pls
5023 4653 Pls
6749 4739 Pls
1570 4739 Pls
3297 4596 Pls
5023 4585 Pls
6749 4656 Pls
1570 4214 Pls
3297 4739 Pls
5023 4641 Pls
6749 4639 Pls
1570 4608 Pls
3297 4602 Pls
5023 4690 Pls
6749 4579 Pls
1570 4041 Pls
3297 4549 Pls
5023 4604 Pls
6749 4516 Pls
1570 4148 Pls
3297 4510 Pls
5023 4493 Pls
6749 4298 Pls
1570 4739 Pls
3297 4739 Pls
5023 4739 Pls
6749 4739 Pls
1570 4739 Pls
3297 4739 Pls
5023 4739 Pls
6749 4739 Pls
1570 4739 Pls
3297 4739 Pls
5023 4739 Pls
6749 4739 Pls
1570 4739 Pls
3297 4739 Pls
5023 4739 Pls
6749 4739 Pls
1570 4739 Pls
3297 4673 Pls
5023 4739 Pls
6749 4739 Pls
1570 4739 Pls
3297 4739 Pls
5023 4739 Pls
6749 4739 Pls
1570 4739 Pls
3297 4739 Pls
5023 4739 Pls
6749 4739 Pls
1570 4739 Pls
3297 4667 Pls
5023 4739 Pls
6749 4739 Pls
1570 4739 Pls
3297 4700 Pls
5023 4739 Pls
6749 4739 Pls
1570 4739 Pls
3297 4700 Pls
5023 4739 Pls
6749 4739 Pls
1570 4739 Pls
3297 4651 Pls
5023 4716 Pls
6749 4709 Pls
1570 4739 Pls
3297 4739 Pls
5023 4739 Pls
6749 4686 Pls
1570 4739 Pls
3297 4739 Pls
5023 4739 Pls
6749 4739 Pls
1570 4739 Pls
3297 4739 Pls
5023 4739 Pls
6749 4739 Pls
1570 4739 Pls
3297 4739 Pls
5023 4739 Pls
6749 4739 Pls
1570 4739 Pls
3297 4739 Pls
5023 4739 Pls
6749 4701 Pls
1570 4739 Pls
3297 4739 Pls
5023 4633 Pls
6749 4739 Pls
1570 4739 Pls
3297 4739 Pls
5023 4739 Pls
6749 4683 Pls
1570 4641 Pls
3297 4739 Pls
5023 4683 Pls
6749 4739 Pls
1570 4739 Pls
3297 4628 Pls
5023 4611 Pls
6749 4739 Pls
1570 4739 Pls
3297 4739 Pls
5023 4739 Pls
6749 4739 Pls
1570 4739 Pls
3297 4739 Pls
5023 4739 Pls
6749 4707 Pls
1570 4739 Pls
3297 4739 Pls
5023 4656 Pls
6749 4705 Pls
1570 4739 Pls
3297 4739 Pls
5023 4739 Pls
6749 4687 Pls
1570 4739 Pls
3297 4739 Pls
5023 4646 Pls
6749 4698 Pls
1570 4739 Pls
3297 4660 Pls
5023 4690 Pls
6749 4739 Pls
1570 4739 Pls
3297 4739 Pls
5023 4495 Pls
6749 4739 Pls
1570 4411 Pls
3297 4739 Pls
5023 4690 Pls
6749 4700 Pls
1570 4581 Pls
3297 4517 Pls
5023 4690 Pls
6749 4617 Pls
1570 4214 Pls
3297 4533 Pls
5023 4588 Pls
6749 4701 Pls
1570 4739 Pls
3297 4739 Pls
5023 4718 Pls
6749 4705 Pls
1570 4739 Pls
3297 4643 Pls
5023 4698 Pls
6749 4667 Pls
1570 4739 Pls
3297 4739 Pls
5023 4664 Pls
6749 4710 Pls
1570 4739 Pls
3297 4739 Pls
5023 4739 Pls
6749 4739 Pls
1570 4739 Pls
3297 4739 Pls
5023 4695 Pls
6749 4672 Pls
1570 4739 Pls
3297 4739 Pls
5023 4690 Pls
6749 4614 Pls
1570 4476 Pls
3297 4667 Pls
5023 4610 Pls
6749 4620 Pls
1570 4450 Pls
3297 4596 Pls
5023 4635 Pls
6749 4640 Pls
1570 4188 Pls
3297 4569 Pls
5023 4359 Pls
6749 4592 Pls
1570 4463 Pls
3297 4398 Pls
5023 4539 Pls
6749 4662 Pls
1570 4739 Pls
3297 4739 Pls
5023 4739 Pls
6749 4670 Pls
1570 4739 Pls
3297 4713 Pls
5023 4739 Pls
6749 4703 Pls
1570 4739 Pls
3297 4739 Pls
5023 4703 Pls
6749 4723 Pls
1570 4739 Pls
3297 4739 Pls
5023 4717 Pls
6749 4580 Pls
1570 4739 Pls
3297 4739 Pls
5023 4739 Pls
6749 4707 Pls
1570 4739 Pls
3297 4739 Pls
5023 4690 Pls
6749 4698 Pls
1570 4096 Pls
3297 4589 Pls
5023 4580 Pls
6749 4625 Pls
1570 4345 Pls
3297 4589 Pls
5023 4476 Pls
6749 4488 Pls
1570 4739 Pls
3297 4529 Pls
5023 4620 Pls
6749 4471 Pls
1570 4083 Pls
3297 4247 Pls
5023 4464 Pls
6749 4621 Pls
% End plot #1
% Begin plot #2
8.000 UL
LT1
LCb setrgbcolor
5636 1488 M
[ [(Helvetica) 250.0 0.0 true true 0 (Average)]
] -83.3 MRshow
LT1
5786 1488 M
663 0 V
1570 4151 M
1727 80 V
1726 43 V
1726 41 V
% End plot #2
% Begin plot #3
stroke
4.000 UL
LT2
LCb setrgbcolor
5636 1238 M
[ [(Helvetica) 250.0 0.0 true true 0 (Min)]
] -83.3 MRshow
LT2
5786 1238 M
663 0 V
1570 1057 M
1727 269 V
1726 203 V
1726 247 V
% End plot #3
% Begin plot #4
stroke
LT3
LCb setrgbcolor
5636 988 M
[ [(Helvetica) 250.0 0.0 true true 0 (Max)]
] -83.3 MRshow
LT3
5786 988 M
663 0 V
1570 4739 M
1727 0 V
1726 0 V
1726 0 V
% End plot #4
stroke
1.000 UL
LTb
1225 4739 N
0 -3939 V
5524 0 V
0 3939 V
-5524 0 V
Z stroke
1.000 UP
1.000 UL
LTb
stroke
grestore
end
showpage
%%Trailer
%%DocumentFonts: Helvetica
