%!PS-Adobe-2.0 EPSF-2.0
%%Title: r_alphabet_size_1000-f1.eps
%%Creator: gnuplot 4.4 patchlevel 3
%%CreationDate: Fri Jun 14 19:20:12 2013
%%DocumentFonts: (atend)
%%BoundingBox: 50 50 410 302
%%EndComments
%%BeginProlog
/gnudict 256 dict def
gnudict begin
%
% The following true/false flags may be edited by hand if desired.
% The unit line width and grayscale image gamma correction may also be changed.
%
/Color true def
/Blacktext false def
/Solid false def
/Dashlength 1 def
/Landscape false def
/Level1 false def
/Rounded false def
/ClipToBoundingBox false def
/TransparentPatterns false def
/gnulinewidth 5.000 def
/userlinewidth gnulinewidth def
/Gamma 1.0 def
%
/vshift -83 def
/dl1 {
  10.0 Dashlength mul mul
  Rounded { currentlinewidth 0.75 mul sub dup 0 le { pop 0.01 } if } if
} def
/dl2 {
  10.0 Dashlength mul mul
  Rounded { currentlinewidth 0.75 mul add } if
} def
/hpt_ 31.5 def
/vpt_ 31.5 def
/hpt hpt_ def
/vpt vpt_ def
Level1 {} {
/SDict 10 dict def
systemdict /pdfmark known not {
  userdict /pdfmark systemdict /cleartomark get put
} if
SDict begin [
  /Title (r_alphabet_size_1000-f1.eps)
  /Subject (gnuplot plot)
  /Creator (gnuplot 4.4 patchlevel 3)
  /Author (xjia)
%  /Producer (gnuplot)
%  /Keywords ()
  /CreationDate (Fri Jun 14 19:20:12 2013)
  /DOCINFO pdfmark
end
} ifelse
/doclip {
  ClipToBoundingBox {
    newpath 50 50 moveto 410 50 lineto 410 302 lineto 50 302 lineto closepath
    clip
  } if
} def
%
% Gnuplot Prolog Version 4.4 (August 2010)
%
%/SuppressPDFMark true def
%
/M {moveto} bind def
/L {lineto} bind def
/R {rmoveto} bind def
/V {rlineto} bind def
/N {newpath moveto} bind def
/Z {closepath} bind def
/C {setrgbcolor} bind def
/f {rlineto fill} bind def
/g {setgray} bind def
/Gshow {show} def   % May be redefined later in the file to support UTF-8
/vpt2 vpt 2 mul def
/hpt2 hpt 2 mul def
/Lshow {currentpoint stroke M 0 vshift R 
	Blacktext {gsave 0 setgray show grestore} {show} ifelse} def
/Rshow {currentpoint stroke M dup stringwidth pop neg vshift R
	Blacktext {gsave 0 setgray show grestore} {show} ifelse} def
/Cshow {currentpoint stroke M dup stringwidth pop -2 div vshift R 
	Blacktext {gsave 0 setgray show grestore} {show} ifelse} def
/UP {dup vpt_ mul /vpt exch def hpt_ mul /hpt exch def
  /hpt2 hpt 2 mul def /vpt2 vpt 2 mul def} def
/DL {Color {setrgbcolor Solid {pop []} if 0 setdash}
 {pop pop pop 0 setgray Solid {pop []} if 0 setdash} ifelse} def
/BL {stroke userlinewidth 2 mul setlinewidth
	Rounded {1 setlinejoin 1 setlinecap} if} def
/AL {stroke userlinewidth 2 div setlinewidth
	Rounded {1 setlinejoin 1 setlinecap} if} def
/UL {dup gnulinewidth mul /userlinewidth exch def
	dup 1 lt {pop 1} if 10 mul /udl exch def} def
/PL {stroke userlinewidth setlinewidth
	Rounded {1 setlinejoin 1 setlinecap} if} def
3.8 setmiterlimit
% Default Line colors
/LCw {1 1 1} def
/LCb {0 0 0} def
/LCa {0 0 0} def
/LC0 {1 0 0} def
/LC1 {0 1 0} def
/LC2 {0 0 1} def
/LC3 {1 0 1} def
/LC4 {0 1 1} def
/LC5 {1 1 0} def
/LC6 {0 0 0} def
/LC7 {1 0.3 0} def
/LC8 {0.5 0.5 0.5} def
% Default Line Types
/LTw {PL [] 1 setgray} def
/LTb {BL [] LCb DL} def
/LTa {AL [1 udl mul 2 udl mul] 0 setdash LCa setrgbcolor} def
/LT0 {PL [] LC0 DL} def
/LT1 {PL [4 dl1 2 dl2] LC1 DL} def
/LT2 {PL [2 dl1 3 dl2] LC2 DL} def
/LT3 {PL [1 dl1 1.5 dl2] LC3 DL} def
/LT4 {PL [6 dl1 2 dl2 1 dl1 2 dl2] LC4 DL} def
/LT5 {PL [3 dl1 3 dl2 1 dl1 3 dl2] LC5 DL} def
/LT6 {PL [2 dl1 2 dl2 2 dl1 6 dl2] LC6 DL} def
/LT7 {PL [1 dl1 2 dl2 6 dl1 2 dl2 1 dl1 2 dl2] LC7 DL} def
/LT8 {PL [2 dl1 2 dl2 2 dl1 2 dl2 2 dl1 2 dl2 2 dl1 4 dl2] LC8 DL} def
/Pnt {stroke [] 0 setdash gsave 1 setlinecap M 0 0 V stroke grestore} def
/Dia {stroke [] 0 setdash 2 copy vpt add M
  hpt neg vpt neg V hpt vpt neg V
  hpt vpt V hpt neg vpt V closepath stroke
  Pnt} def
/Pls {stroke [] 0 setdash vpt sub M 0 vpt2 V
  currentpoint stroke M
  hpt neg vpt neg R hpt2 0 V stroke
 } def
/Box {stroke [] 0 setdash 2 copy exch hpt sub exch vpt add M
  0 vpt2 neg V hpt2 0 V 0 vpt2 V
  hpt2 neg 0 V closepath stroke
  Pnt} def
/Crs {stroke [] 0 setdash exch hpt sub exch vpt add M
  hpt2 vpt2 neg V currentpoint stroke M
  hpt2 neg 0 R hpt2 vpt2 V stroke} def
/TriU {stroke [] 0 setdash 2 copy vpt 1.12 mul add M
  hpt neg vpt -1.62 mul V
  hpt 2 mul 0 V
  hpt neg vpt 1.62 mul V closepath stroke
  Pnt} def
/Star {2 copy Pls Crs} def
/BoxF {stroke [] 0 setdash exch hpt sub exch vpt add M
  0 vpt2 neg V hpt2 0 V 0 vpt2 V
  hpt2 neg 0 V closepath fill} def
/TriUF {stroke [] 0 setdash vpt 1.12 mul add M
  hpt neg vpt -1.62 mul V
  hpt 2 mul 0 V
  hpt neg vpt 1.62 mul V closepath fill} def
/TriD {stroke [] 0 setdash 2 copy vpt 1.12 mul sub M
  hpt neg vpt 1.62 mul V
  hpt 2 mul 0 V
  hpt neg vpt -1.62 mul V closepath stroke
  Pnt} def
/TriDF {stroke [] 0 setdash vpt 1.12 mul sub M
  hpt neg vpt 1.62 mul V
  hpt 2 mul 0 V
  hpt neg vpt -1.62 mul V closepath fill} def
/DiaF {stroke [] 0 setdash vpt add M
  hpt neg vpt neg V hpt vpt neg V
  hpt vpt V hpt neg vpt V closepath fill} def
/Pent {stroke [] 0 setdash 2 copy gsave
  translate 0 hpt M 4 {72 rotate 0 hpt L} repeat
  closepath stroke grestore Pnt} def
/PentF {stroke [] 0 setdash gsave
  translate 0 hpt M 4 {72 rotate 0 hpt L} repeat
  closepath fill grestore} def
/Circle {stroke [] 0 setdash 2 copy
  hpt 0 360 arc stroke Pnt} def
/CircleF {stroke [] 0 setdash hpt 0 360 arc fill} def
/C0 {BL [] 0 setdash 2 copy moveto vpt 90 450 arc} bind def
/C1 {BL [] 0 setdash 2 copy moveto
	2 copy vpt 0 90 arc closepath fill
	vpt 0 360 arc closepath} bind def
/C2 {BL [] 0 setdash 2 copy moveto
	2 copy vpt 90 180 arc closepath fill
	vpt 0 360 arc closepath} bind def
/C3 {BL [] 0 setdash 2 copy moveto
	2 copy vpt 0 180 arc closepath fill
	vpt 0 360 arc closepath} bind def
/C4 {BL [] 0 setdash 2 copy moveto
	2 copy vpt 180 270 arc closepath fill
	vpt 0 360 arc closepath} bind def
/C5 {BL [] 0 setdash 2 copy moveto
	2 copy vpt 0 90 arc
	2 copy moveto
	2 copy vpt 180 270 arc closepath fill
	vpt 0 360 arc} bind def
/C6 {BL [] 0 setdash 2 copy moveto
	2 copy vpt 90 270 arc closepath fill
	vpt 0 360 arc closepath} bind def
/C7 {BL [] 0 setdash 2 copy moveto
	2 copy vpt 0 270 arc closepath fill
	vpt 0 360 arc closepath} bind def
/C8 {BL [] 0 setdash 2 copy moveto
	2 copy vpt 270 360 arc closepath fill
	vpt 0 360 arc closepath} bind def
/C9 {BL [] 0 setdash 2 copy moveto
	2 copy vpt 270 450 arc closepath fill
	vpt 0 360 arc closepath} bind def
/C10 {BL [] 0 setdash 2 copy 2 copy moveto vpt 270 360 arc closepath fill
	2 copy moveto
	2 copy vpt 90 180 arc closepath fill
	vpt 0 360 arc closepath} bind def
/C11 {BL [] 0 setdash 2 copy moveto
	2 copy vpt 0 180 arc closepath fill
	2 copy moveto
	2 copy vpt 270 360 arc closepath fill
	vpt 0 360 arc closepath} bind def
/C12 {BL [] 0 setdash 2 copy moveto
	2 copy vpt 180 360 arc closepath fill
	vpt 0 360 arc closepath} bind def
/C13 {BL [] 0 setdash 2 copy moveto
	2 copy vpt 0 90 arc closepath fill
	2 copy moveto
	2 copy vpt 180 360 arc closepath fill
	vpt 0 360 arc closepath} bind def
/C14 {BL [] 0 setdash 2 copy moveto
	2 copy vpt 90 360 arc closepath fill
	vpt 0 360 arc} bind def
/C15 {BL [] 0 setdash 2 copy vpt 0 360 arc closepath fill
	vpt 0 360 arc closepath} bind def
/Rec {newpath 4 2 roll moveto 1 index 0 rlineto 0 exch rlineto
	neg 0 rlineto closepath} bind def
/Square {dup Rec} bind def
/Bsquare {vpt sub exch vpt sub exch vpt2 Square} bind def
/S0 {BL [] 0 setdash 2 copy moveto 0 vpt rlineto BL Bsquare} bind def
/S1 {BL [] 0 setdash 2 copy vpt Square fill Bsquare} bind def
/S2 {BL [] 0 setdash 2 copy exch vpt sub exch vpt Square fill Bsquare} bind def
/S3 {BL [] 0 setdash 2 copy exch vpt sub exch vpt2 vpt Rec fill Bsquare} bind def
/S4 {BL [] 0 setdash 2 copy exch vpt sub exch vpt sub vpt Square fill Bsquare} bind def
/S5 {BL [] 0 setdash 2 copy 2 copy vpt Square fill
	exch vpt sub exch vpt sub vpt Square fill Bsquare} bind def
/S6 {BL [] 0 setdash 2 copy exch vpt sub exch vpt sub vpt vpt2 Rec fill Bsquare} bind def
/S7 {BL [] 0 setdash 2 copy exch vpt sub exch vpt sub vpt vpt2 Rec fill
	2 copy vpt Square fill Bsquare} bind def
/S8 {BL [] 0 setdash 2 copy vpt sub vpt Square fill Bsquare} bind def
/S9 {BL [] 0 setdash 2 copy vpt sub vpt vpt2 Rec fill Bsquare} bind def
/S10 {BL [] 0 setdash 2 copy vpt sub vpt Square fill 2 copy exch vpt sub exch vpt Square fill
	Bsquare} bind def
/S11 {BL [] 0 setdash 2 copy vpt sub vpt Square fill 2 copy exch vpt sub exch vpt2 vpt Rec fill
	Bsquare} bind def
/S12 {BL [] 0 setdash 2 copy exch vpt sub exch vpt sub vpt2 vpt Rec fill Bsquare} bind def
/S13 {BL [] 0 setdash 2 copy exch vpt sub exch vpt sub vpt2 vpt Rec fill
	2 copy vpt Square fill Bsquare} bind def
/S14 {BL [] 0 setdash 2 copy exch vpt sub exch vpt sub vpt2 vpt Rec fill
	2 copy exch vpt sub exch vpt Square fill Bsquare} bind def
/S15 {BL [] 0 setdash 2 copy Bsquare fill Bsquare} bind def
/D0 {gsave translate 45 rotate 0 0 S0 stroke grestore} bind def
/D1 {gsave translate 45 rotate 0 0 S1 stroke grestore} bind def
/D2 {gsave translate 45 rotate 0 0 S2 stroke grestore} bind def
/D3 {gsave translate 45 rotate 0 0 S3 stroke grestore} bind def
/D4 {gsave translate 45 rotate 0 0 S4 stroke grestore} bind def
/D5 {gsave translate 45 rotate 0 0 S5 stroke grestore} bind def
/D6 {gsave translate 45 rotate 0 0 S6 stroke grestore} bind def
/D7 {gsave translate 45 rotate 0 0 S7 stroke grestore} bind def
/D8 {gsave translate 45 rotate 0 0 S8 stroke grestore} bind def
/D9 {gsave translate 45 rotate 0 0 S9 stroke grestore} bind def
/D10 {gsave translate 45 rotate 0 0 S10 stroke grestore} bind def
/D11 {gsave translate 45 rotate 0 0 S11 stroke grestore} bind def
/D12 {gsave translate 45 rotate 0 0 S12 stroke grestore} bind def
/D13 {gsave translate 45 rotate 0 0 S13 stroke grestore} bind def
/D14 {gsave translate 45 rotate 0 0 S14 stroke grestore} bind def
/D15 {gsave translate 45 rotate 0 0 S15 stroke grestore} bind def
/DiaE {stroke [] 0 setdash vpt add M
  hpt neg vpt neg V hpt vpt neg V
  hpt vpt V hpt neg vpt V closepath stroke} def
/BoxE {stroke [] 0 setdash exch hpt sub exch vpt add M
  0 vpt2 neg V hpt2 0 V 0 vpt2 V
  hpt2 neg 0 V closepath stroke} def
/TriUE {stroke [] 0 setdash vpt 1.12 mul add M
  hpt neg vpt -1.62 mul V
  hpt 2 mul 0 V
  hpt neg vpt 1.62 mul V closepath stroke} def
/TriDE {stroke [] 0 setdash vpt 1.12 mul sub M
  hpt neg vpt 1.62 mul V
  hpt 2 mul 0 V
  hpt neg vpt -1.62 mul V closepath stroke} def
/PentE {stroke [] 0 setdash gsave
  translate 0 hpt M 4 {72 rotate 0 hpt L} repeat
  closepath stroke grestore} def
/CircE {stroke [] 0 setdash 
  hpt 0 360 arc stroke} def
/Opaque {gsave closepath 1 setgray fill grestore 0 setgray closepath} def
/DiaW {stroke [] 0 setdash vpt add M
  hpt neg vpt neg V hpt vpt neg V
  hpt vpt V hpt neg vpt V Opaque stroke} def
/BoxW {stroke [] 0 setdash exch hpt sub exch vpt add M
  0 vpt2 neg V hpt2 0 V 0 vpt2 V
  hpt2 neg 0 V Opaque stroke} def
/TriUW {stroke [] 0 setdash vpt 1.12 mul add M
  hpt neg vpt -1.62 mul V
  hpt 2 mul 0 V
  hpt neg vpt 1.62 mul V Opaque stroke} def
/TriDW {stroke [] 0 setdash vpt 1.12 mul sub M
  hpt neg vpt 1.62 mul V
  hpt 2 mul 0 V
  hpt neg vpt -1.62 mul V Opaque stroke} def
/PentW {stroke [] 0 setdash gsave
  translate 0 hpt M 4 {72 rotate 0 hpt L} repeat
  Opaque stroke grestore} def
/CircW {stroke [] 0 setdash 
  hpt 0 360 arc Opaque stroke} def
/BoxFill {gsave Rec 1 setgray fill grestore} def
/Density {
  /Fillden exch def
  currentrgbcolor
  /ColB exch def /ColG exch def /ColR exch def
  /ColR ColR Fillden mul Fillden sub 1 add def
  /ColG ColG Fillden mul Fillden sub 1 add def
  /ColB ColB Fillden mul Fillden sub 1 add def
  ColR ColG ColB setrgbcolor} def
/BoxColFill {gsave Rec PolyFill} def
/PolyFill {gsave Density fill grestore grestore} def
/h {rlineto rlineto rlineto gsave closepath fill grestore} bind def
%
% PostScript Level 1 Pattern Fill routine for rectangles
% Usage: x y w h s a XX PatternFill
%	x,y = lower left corner of box to be filled
%	w,h = width and height of box
%	  a = angle in degrees between lines and x-axis
%	 XX = 0/1 for no/yes cross-hatch
%
/PatternFill {gsave /PFa [ 9 2 roll ] def
  PFa 0 get PFa 2 get 2 div add PFa 1 get PFa 3 get 2 div add translate
  PFa 2 get -2 div PFa 3 get -2 div PFa 2 get PFa 3 get Rec
  gsave 1 setgray fill grestore clip
  currentlinewidth 0.5 mul setlinewidth
  /PFs PFa 2 get dup mul PFa 3 get dup mul add sqrt def
  0 0 M PFa 5 get rotate PFs -2 div dup translate
  0 1 PFs PFa 4 get div 1 add floor cvi
	{PFa 4 get mul 0 M 0 PFs V} for
  0 PFa 6 get ne {
	0 1 PFs PFa 4 get div 1 add floor cvi
	{PFa 4 get mul 0 2 1 roll M PFs 0 V} for
 } if
  stroke grestore} def
%
/languagelevel where
 {pop languagelevel} {1} ifelse
 2 lt
	{/InterpretLevel1 true def}
	{/InterpretLevel1 Level1 def}
 ifelse
%
% PostScript level 2 pattern fill definitions
%
/Level2PatternFill {
/Tile8x8 {/PaintType 2 /PatternType 1 /TilingType 1 /BBox [0 0 8 8] /XStep 8 /YStep 8}
	bind def
/KeepColor {currentrgbcolor [/Pattern /DeviceRGB] setcolorspace} bind def
<< Tile8x8
 /PaintProc {0.5 setlinewidth pop 0 0 M 8 8 L 0 8 M 8 0 L stroke} 
>> matrix makepattern
/Pat1 exch def
<< Tile8x8
 /PaintProc {0.5 setlinewidth pop 0 0 M 8 8 L 0 8 M 8 0 L stroke
	0 4 M 4 8 L 8 4 L 4 0 L 0 4 L stroke}
>> matrix makepattern
/Pat2 exch def
<< Tile8x8
 /PaintProc {0.5 setlinewidth pop 0 0 M 0 8 L
	8 8 L 8 0 L 0 0 L fill}
>> matrix makepattern
/Pat3 exch def
<< Tile8x8
 /PaintProc {0.5 setlinewidth pop -4 8 M 8 -4 L
	0 12 M 12 0 L stroke}
>> matrix makepattern
/Pat4 exch def
<< Tile8x8
 /PaintProc {0.5 setlinewidth pop -4 0 M 8 12 L
	0 -4 M 12 8 L stroke}
>> matrix makepattern
/Pat5 exch def
<< Tile8x8
 /PaintProc {0.5 setlinewidth pop -2 8 M 4 -4 L
	0 12 M 8 -4 L 4 12 M 10 0 L stroke}
>> matrix makepattern
/Pat6 exch def
<< Tile8x8
 /PaintProc {0.5 setlinewidth pop -2 0 M 4 12 L
	0 -4 M 8 12 L 4 -4 M 10 8 L stroke}
>> matrix makepattern
/Pat7 exch def
<< Tile8x8
 /PaintProc {0.5 setlinewidth pop 8 -2 M -4 4 L
	12 0 M -4 8 L 12 4 M 0 10 L stroke}
>> matrix makepattern
/Pat8 exch def
<< Tile8x8
 /PaintProc {0.5 setlinewidth pop 0 -2 M 12 4 L
	-4 0 M 12 8 L -4 4 M 8 10 L stroke}
>> matrix makepattern
/Pat9 exch def
/Pattern1 {PatternBgnd KeepColor Pat1 setpattern} bind def
/Pattern2 {PatternBgnd KeepColor Pat2 setpattern} bind def
/Pattern3 {PatternBgnd KeepColor Pat3 setpattern} bind def
/Pattern4 {PatternBgnd KeepColor Landscape {Pat5} {Pat4} ifelse setpattern} bind def
/Pattern5 {PatternBgnd KeepColor Landscape {Pat4} {Pat5} ifelse setpattern} bind def
/Pattern6 {PatternBgnd KeepColor Landscape {Pat9} {Pat6} ifelse setpattern} bind def
/Pattern7 {PatternBgnd KeepColor Landscape {Pat8} {Pat7} ifelse setpattern} bind def
} def
%
%
%End of PostScript Level 2 code
%
/PatternBgnd {
  TransparentPatterns {} {gsave 1 setgray fill grestore} ifelse
} def
%
% Substitute for Level 2 pattern fill codes with
% grayscale if Level 2 support is not selected.
%
/Level1PatternFill {
/Pattern1 {0.250 Density} bind def
/Pattern2 {0.500 Density} bind def
/Pattern3 {0.750 Density} bind def
/Pattern4 {0.125 Density} bind def
/Pattern5 {0.375 Density} bind def
/Pattern6 {0.625 Density} bind def
/Pattern7 {0.875 Density} bind def
} def
%
% Now test for support of Level 2 code
%
Level1 {Level1PatternFill} {Level2PatternFill} ifelse
%
/Symbol-Oblique /Symbol findfont [1 0 .167 1 0 0] makefont
dup length dict begin {1 index /FID eq {pop pop} {def} ifelse} forall
currentdict end definefont pop
/MFshow {
   { dup 5 get 3 ge
     { 5 get 3 eq {gsave} {grestore} ifelse }
     {dup dup 0 get findfont exch 1 get scalefont setfont
     [ currentpoint ] exch dup 2 get 0 exch R dup 5 get 2 ne {dup dup 6
     get exch 4 get {Gshow} {stringwidth pop 0 R} ifelse }if dup 5 get 0 eq
     {dup 3 get {2 get neg 0 exch R pop} {pop aload pop M} ifelse} {dup 5
     get 1 eq {dup 2 get exch dup 3 get exch 6 get stringwidth pop -2 div
     dup 0 R} {dup 6 get stringwidth pop -2 div 0 R 6 get
     show 2 index {aload pop M neg 3 -1 roll neg R pop pop} {pop pop pop
     pop aload pop M} ifelse }ifelse }ifelse }
     ifelse }
   forall} def
/Gswidth {dup type /stringtype eq {stringwidth} {pop (n) stringwidth} ifelse} def
/MFwidth {0 exch { dup 5 get 3 ge { 5 get 3 eq { 0 } { pop } ifelse }
 {dup 3 get{dup dup 0 get findfont exch 1 get scalefont setfont
     6 get Gswidth pop add} {pop} ifelse} ifelse} forall} def
/MLshow { currentpoint stroke M
  0 exch R
  Blacktext {gsave 0 setgray MFshow grestore} {MFshow} ifelse } bind def
/MRshow { currentpoint stroke M
  exch dup MFwidth neg 3 -1 roll R
  Blacktext {gsave 0 setgray MFshow grestore} {MFshow} ifelse } bind def
/MCshow { currentpoint stroke M
  exch dup MFwidth -2 div 3 -1 roll R
  Blacktext {gsave 0 setgray MFshow grestore} {MFshow} ifelse } bind def
/XYsave    { [( ) 1 2 true false 3 ()] } bind def
/XYrestore { [( ) 1 2 true false 4 ()] } bind def
end
%%EndProlog
gnudict begin
gsave
doclip
50 50 translate
0.050 0.050 scale
0 setgray
newpath
(Helvetica) findfont 250 scalefont setfont
1.000 UL
LTb
1225 800 M
63 0 V
5461 0 R
-63 0 V
stroke
1075 800 M
[ [(Helvetica) 250.0 0.0 true true 0 ( 0.4)]
] -83.3 MRshow
1.000 UL
LTb
1225 1457 M
63 0 V
5461 0 R
-63 0 V
stroke
1075 1457 M
[ [(Helvetica) 250.0 0.0 true true 0 ( 0.5)]
] -83.3 MRshow
1.000 UL
LTb
1225 2113 M
63 0 V
5461 0 R
-63 0 V
stroke
1075 2113 M
[ [(Helvetica) 250.0 0.0 true true 0 ( 0.6)]
] -83.3 MRshow
1.000 UL
LTb
1225 2769 M
63 0 V
5461 0 R
-63 0 V
stroke
1075 2769 M
[ [(Helvetica) 250.0 0.0 true true 0 ( 0.7)]
] -83.3 MRshow
1.000 UL
LTb
1225 3426 M
63 0 V
5461 0 R
-63 0 V
stroke
1075 3426 M
[ [(Helvetica) 250.0 0.0 true true 0 ( 0.8)]
] -83.3 MRshow
1.000 UL
LTb
1225 4082 M
63 0 V
5461 0 R
-63 0 V
stroke
1075 4082 M
[ [(Helvetica) 250.0 0.0 true true 0 ( 0.9)]
] -83.3 MRshow
1.000 UL
LTb
1225 4739 M
63 0 V
5461 0 R
-63 0 V
stroke
1075 4739 M
[ [(Helvetica) 250.0 0.0 true true 0 ( 1)]
] -83.3 MRshow
1.000 UL
LTb
1225 800 M
0 63 V
0 3876 R
0 -63 V
stroke
1225 550 M
[ [(Helvetica) 250.0 0.0 true true 0 ( 1000)]
] -83.3 MCshow
1.000 UL
LTb
1916 800 M
0 63 V
0 3876 R
0 -63 V
stroke
1916 550 M
[ [(Helvetica) 250.0 0.0 true true 0 ( 2000)]
] -83.3 MCshow
1.000 UL
LTb
2606 800 M
0 63 V
0 3876 R
0 -63 V
stroke
2606 550 M
[ [(Helvetica) 250.0 0.0 true true 0 ( 3000)]
] -83.3 MCshow
1.000 UL
LTb
3297 800 M
0 63 V
0 3876 R
0 -63 V
stroke
3297 550 M
[ [(Helvetica) 250.0 0.0 true true 0 ( 4000)]
] -83.3 MCshow
1.000 UL
LTb
3987 800 M
0 63 V
0 3876 R
0 -63 V
stroke
3987 550 M
[ [(Helvetica) 250.0 0.0 true true 0 ( 5000)]
] -83.3 MCshow
1.000 UL
LTb
4678 800 M
0 63 V
0 3876 R
0 -63 V
stroke
4678 550 M
[ [(Helvetica) 250.0 0.0 true true 0 ( 6000)]
] -83.3 MCshow
1.000 UL
LTb
5368 800 M
0 63 V
0 3876 R
0 -63 V
stroke
5368 550 M
[ [(Helvetica) 250.0 0.0 true true 0 ( 7000)]
] -83.3 MCshow
1.000 UL
LTb
6059 800 M
0 63 V
0 3876 R
0 -63 V
stroke
6059 550 M
[ [(Helvetica) 250.0 0.0 true true 0 ( 8000)]
] -83.3 MCshow
1.000 UL
LTb
6749 800 M
0 63 V
0 3876 R
0 -63 V
stroke
6749 550 M
[ [(Helvetica) 250.0 0.0 true true 0 ( 9000)]
] -83.3 MCshow
1.000 UL
LTb
1.000 UL
LTb
1225 4739 N
0 -3939 V
5524 0 V
0 3939 V
-5524 0 V
Z stroke
LCb setrgbcolor
200 2769 M
currentpoint gsave translate -270 rotate 0 0 moveto
[ [(Helvetica) 250.0 0.0 true true 0 (F1)]
] -83.3 MCshow
grestore
LTb
LCb setrgbcolor
3987 175 M
[ [(Helvetica) 250.0 0.0 true true 0 (Alphabet Size)]
] -83.3 MCshow
LTb
1.000 UP
1.000 UL
LTb
% Begin plot #1
1.000 UP
1.000 UL
LT0
1225 4313 Pls
1225 4530 Pls
1225 4509 Pls
1225 4535 Pls
1225 4689 Pls
1225 4367 Pls
1225 4624 Pls
1225 4613 Pls
1225 4410 Pls
1225 4556 Pls
1225 4660 Pls
1225 4577 Pls
1225 4414 Pls
1225 4373 Pls
1225 4527 Pls
1225 4534 Pls
1225 4068 Pls
1225 4344 Pls
1225 4540 Pls
1225 4532 Pls
1225 3707 Pls
1225 4184 Pls
1225 4448 Pls
1225 4593 Pls
1225 4458 Pls
1225 4492 Pls
1225 4355 Pls
1225 4499 Pls
1225 4035 Pls
1225 4163 Pls
1225 4365 Pls
1225 4594 Pls
1225 4051 Pls
1225 4515 Pls
1225 4616 Pls
1225 4573 Pls
1225 3765 Pls
1225 4424 Pls
1225 4664 Pls
1225 4518 Pls
1225 4588 Pls
1225 4331 Pls
1225 4569 Pls
1225 4419 Pls
1225 4386 Pls
1225 4536 Pls
1225 4379 Pls
1225 4454 Pls
1225 4469 Pls
1225 4361 Pls
1225 4435 Pls
1225 4488 Pls
1225 4402 Pls
1225 4428 Pls
1225 4378 Pls
1225 4571 Pls
1225 4316 Pls
1225 4576 Pls
1225 4412 Pls
1225 4427 Pls
1225 3926 Pls
1225 4050 Pls
1225 4501 Pls
1225 4578 Pls
1225 3697 Pls
1225 4145 Pls
1225 4489 Pls
1225 4276 Pls
1225 3538 Pls
1225 4062 Pls
1225 4265 Pls
1225 4401 Pls
1225 3710 Pls
1225 4117 Pls
1225 4197 Pls
1225 4307 Pls
1225 3526 Pls
1225 4241 Pls
1225 4373 Pls
1225 4514 Pls
1225 4645 Pls
1225 4341 Pls
1225 4329 Pls
1225 4367 Pls
1225 4549 Pls
1225 4402 Pls
1225 4187 Pls
1225 4401 Pls
1225 4459 Pls
1225 4447 Pls
1225 4355 Pls
1225 4390 Pls
1225 4570 Pls
1225 4229 Pls
1225 4297 Pls
1225 4442 Pls
1225 4492 Pls
1225 4593 Pls
1225 4369 Pls
1225 4383 Pls
1225 3634 Pls
1225 4203 Pls
1225 4233 Pls
1225 4171 Pls
1225 4070 Pls
1225 4166 Pls
1225 4054 Pls
1225 4031 Pls
1225 3401 Pls
1225 3810 Pls
1225 4114 Pls
1225 4231 Pls
1225 2316 Pls
1225 2783 Pls
1225 3733 Pls
1225 4063 Pls
1225 2101 Pls
1225 3413 Pls
1225 4083 Pls
1225 3972 Pls
1225 4495 Pls
1225 4309 Pls
1225 4325 Pls
1225 4455 Pls
1225 4341 Pls
1225 4540 Pls
1225 4211 Pls
1225 4106 Pls
1225 4434 Pls
1225 4416 Pls
1225 4245 Pls
1225 4311 Pls
1225 4572 Pls
1225 4317 Pls
1225 4559 Pls
1225 4193 Pls
1225 4563 Pls
1225 4548 Pls
1225 4319 Pls
1225 4265 Pls
1225 3492 Pls
1225 3630 Pls
1225 3985 Pls
1225 4198 Pls
1225 3266 Pls
1225 3655 Pls
1225 4072 Pls
1225 4056 Pls
1225 3220 Pls
1225 3365 Pls
1225 3796 Pls
1225 4192 Pls
1225 2607 Pls
1225 3420 Pls
1225 3535 Pls
1225 3789 Pls
1225 2561 Pls
1225 3013 Pls
1225 3454 Pls
1225 3496 Pls
1225 4591 Pls
1225 4395 Pls
1225 4240 Pls
1225 4201 Pls
1225 4425 Pls
1225 4431 Pls
1225 4244 Pls
1225 4248 Pls
1225 4608 Pls
1225 4113 Pls
1225 4355 Pls
1225 4276 Pls
1225 4341 Pls
1225 4281 Pls
1225 4419 Pls
1225 4290 Pls
1225 4487 Pls
1225 4143 Pls
1225 4313 Pls
1225 4214 Pls
1225 3532 Pls
1225 3567 Pls
1225 4164 Pls
1225 4101 Pls
1225 3649 Pls
1225 3125 Pls
1225 3695 Pls
1225 3722 Pls
1225 1923 Pls
1225 3078 Pls
1225 3542 Pls
1225 3481 Pls
1225 2120 Pls
1225 2857 Pls
1225 3068 Pls
1225 3221 Pls
1225 1020 Pls
1225 2747 Pls
1225 3252 Pls
1225 3166 Pls
1916 4525 Pls
1916 4404 Pls
1916 4574 Pls
1916 4554 Pls
1916 4651 Pls
1916 4476 Pls
1916 4595 Pls
1916 4647 Pls
1916 4423 Pls
1916 4574 Pls
1916 4560 Pls
1916 4628 Pls
1916 4364 Pls
1916 4269 Pls
1916 4552 Pls
1916 4590 Pls
1916 4369 Pls
1916 4365 Pls
1916 4450 Pls
1916 4497 Pls
1916 3676 Pls
1916 4580 Pls
1916 4690 Pls
1916 4578 Pls
1916 3970 Pls
1916 4399 Pls
1916 4539 Pls
1916 4595 Pls
1916 4145 Pls
1916 4523 Pls
1916 4617 Pls
1916 4667 Pls
1916 4020 Pls
1916 4338 Pls
1916 4546 Pls
1916 4593 Pls
1916 4201 Pls
1916 4310 Pls
1916 4548 Pls
1916 4558 Pls
1916 4448 Pls
1916 4609 Pls
1916 4500 Pls
1916 4533 Pls
1916 4548 Pls
1916 4523 Pls
1916 4378 Pls
1916 4596 Pls
1916 4325 Pls
1916 4403 Pls
1916 4532 Pls
1916 4473 Pls
1916 4505 Pls
1916 4534 Pls
1916 4575 Pls
1916 4495 Pls
1916 4110 Pls
1916 4422 Pls
1916 4484 Pls
1916 4505 Pls
1916 4239 Pls
1916 4094 Pls
1916 4511 Pls
1916 4613 Pls
1916 4458 Pls
1916 4465 Pls
1916 4443 Pls
1916 4530 Pls
1916 4289 Pls
1916 4304 Pls
1916 4382 Pls
1916 4533 Pls
1916 4150 Pls
1916 4396 Pls
1916 4312 Pls
1916 4492 Pls
1916 3413 Pls
1916 4435 Pls
1916 4361 Pls
1916 4458 Pls
1916 4613 Pls
1916 4510 Pls
1916 4386 Pls
1916 4509 Pls
1916 4595 Pls
1916 4471 Pls
1916 4550 Pls
1916 4544 Pls
1916 4594 Pls
1916 4387 Pls
1916 4411 Pls
1916 4449 Pls
1916 4397 Pls
1916 4418 Pls
1916 4461 Pls
1916 4537 Pls
1916 4320 Pls
1916 4325 Pls
1916 4399 Pls
1916 4472 Pls
1916 3895 Pls
1916 4480 Pls
1916 4478 Pls
1916 4444 Pls
1916 3882 Pls
1916 4139 Pls
1916 4356 Pls
1916 4479 Pls
1916 3220 Pls
1916 3954 Pls
1916 4289 Pls
1916 4188 Pls
1916 3164 Pls
1916 3822 Pls
1916 4190 Pls
1916 4383 Pls
1916 2913 Pls
1916 4267 Pls
1916 4094 Pls
1916 4297 Pls
1916 4267 Pls
1916 4378 Pls
1916 4440 Pls
1916 4474 Pls
1916 4478 Pls
1916 4498 Pls
1916 4399 Pls
1916 4473 Pls
1916 4578 Pls
1916 4512 Pls
1916 4437 Pls
1916 4342 Pls
1916 4542 Pls
1916 4476 Pls
1916 4369 Pls
1916 4419 Pls
1916 4423 Pls
1916 4462 Pls
1916 4303 Pls
1916 4514 Pls
1916 4145 Pls
1916 4232 Pls
1916 4379 Pls
1916 4396 Pls
1916 3726 Pls
1916 3877 Pls
1916 4126 Pls
1916 4332 Pls
1916 2919 Pls
1916 3749 Pls
1916 4149 Pls
1916 4330 Pls
1916 3078 Pls
1916 3834 Pls
1916 4021 Pls
1916 4130 Pls
1916 2831 Pls
1916 3659 Pls
1916 4038 Pls
1916 4180 Pls
1916 4616 Pls
1916 4422 Pls
1916 4501 Pls
1916 4490 Pls
1916 4446 Pls
1916 4594 Pls
1916 4473 Pls
1916 4462 Pls
1916 4645 Pls
1916 4515 Pls
1916 4457 Pls
1916 4531 Pls
1916 4349 Pls
1916 4556 Pls
1916 4446 Pls
1916 4535 Pls
1916 4420 Pls
1916 4374 Pls
1916 4378 Pls
1916 4331 Pls
1916 4076 Pls
1916 4201 Pls
1916 4372 Pls
1916 4223 Pls
1916 3754 Pls
1916 4154 Pls
1916 3818 Pls
1916 4285 Pls
1916 3208 Pls
1916 3897 Pls
1916 3906 Pls
1916 4274 Pls
1916 2746 Pls
1916 3168 Pls
1916 4100 Pls
1916 3912 Pls
1916 2207 Pls
1916 2892 Pls
1916 3724 Pls
1916 3740 Pls
2606 4569 Pls
2606 4403 Pls
2606 4597 Pls
2606 4521 Pls
2606 4132 Pls
2606 4423 Pls
2606 4586 Pls
2606 4663 Pls
2606 4629 Pls
2606 4346 Pls
2606 4588 Pls
2606 4642 Pls
2606 4307 Pls
2606 4433 Pls
2606 4412 Pls
2606 4640 Pls
2606 4401 Pls
2606 4283 Pls
2606 4517 Pls
2606 4606 Pls
2606 3457 Pls
2606 4498 Pls
2606 4354 Pls
2606 4447 Pls
2606 4197 Pls
2606 4502 Pls
2606 4591 Pls
2606 4520 Pls
2606 4458 Pls
2606 4173 Pls
2606 4570 Pls
2606 4632 Pls
2606 4145 Pls
2606 4425 Pls
2606 4404 Pls
2606 4540 Pls
2606 3982 Pls
2606 4137 Pls
2606 4565 Pls
2606 4649 Pls
2606 4557 Pls
2606 4690 Pls
2606 4597 Pls
2606 4649 Pls
2606 4557 Pls
2606 4457 Pls
2606 4543 Pls
2606 4524 Pls
2606 4341 Pls
2606 4402 Pls
2606 4643 Pls
2606 4528 Pls
2606 4585 Pls
2606 4466 Pls
2606 4545 Pls
2606 4563 Pls
2606 4250 Pls
2606 4651 Pls
2606 4534 Pls
2606 4605 Pls
2606 4270 Pls
2606 4342 Pls
2606 4567 Pls
2606 4542 Pls
2606 4160 Pls
2606 4328 Pls
2606 4426 Pls
2606 4550 Pls
2606 3829 Pls
2606 4268 Pls
2606 4431 Pls
2606 4506 Pls
2606 4514 Pls
2606 4294 Pls
2606 4476 Pls
2606 4631 Pls
2606 4353 Pls
2606 4498 Pls
2606 4427 Pls
2606 4491 Pls
2606 4476 Pls
2606 4587 Pls
2606 4460 Pls
2606 4576 Pls
2606 4490 Pls
2606 4507 Pls
2606 4533 Pls
2606 4579 Pls
2606 4542 Pls
2606 4502 Pls
2606 4479 Pls
2606 4518 Pls
2606 4595 Pls
2606 4574 Pls
2606 4470 Pls
2606 4573 Pls
2606 4515 Pls
2606 4607 Pls
2606 4578 Pls
2606 4612 Pls
2606 4114 Pls
2606 4432 Pls
2606 4483 Pls
2606 4528 Pls
2606 4186 Pls
2606 4156 Pls
2606 4464 Pls
2606 4524 Pls
2606 4272 Pls
2606 4288 Pls
2606 4418 Pls
2606 4461 Pls
2606 3726 Pls
2606 4178 Pls
2606 4418 Pls
2606 4534 Pls
2606 4162 Pls
2606 4479 Pls
2606 4386 Pls
2606 4359 Pls
2606 4575 Pls
2606 4524 Pls
2606 4542 Pls
2606 4568 Pls
2606 4651 Pls
2606 4591 Pls
2606 4433 Pls
2606 4554 Pls
2606 4431 Pls
2606 4376 Pls
2606 4541 Pls
2606 4451 Pls
2606 4551 Pls
2606 4547 Pls
2606 4438 Pls
2606 4515 Pls
2606 4454 Pls
2606 4547 Pls
2606 4428 Pls
2606 4499 Pls
2606 4162 Pls
2606 4094 Pls
2606 4523 Pls
2606 4377 Pls
2606 3704 Pls
2606 4056 Pls
2606 4418 Pls
2606 4327 Pls
2606 3173 Pls
2606 4129 Pls
2606 4178 Pls
2606 4537 Pls
2606 3864 Pls
2606 3872 Pls
2606 4405 Pls
2606 4272 Pls
2606 3184 Pls
2606 3943 Pls
2606 4357 Pls
2606 4215 Pls
2606 4645 Pls
2606 4407 Pls
2606 4289 Pls
2606 4520 Pls
2606 4497 Pls
2606 4536 Pls
2606 4420 Pls
2606 4448 Pls
2606 4544 Pls
2606 4438 Pls
2606 4576 Pls
2606 4428 Pls
2606 4601 Pls
2606 4450 Pls
2606 4501 Pls
2606 4541 Pls
2606 4689 Pls
2606 4267 Pls
2606 4524 Pls
2606 4527 Pls
2606 3945 Pls
2606 4265 Pls
2606 4397 Pls
2606 4342 Pls
2606 3820 Pls
2606 3831 Pls
2606 3843 Pls
2606 4273 Pls
2606 3707 Pls
2606 3612 Pls
2606 4241 Pls
2606 4008 Pls
2606 2437 Pls
2606 3432 Pls
2606 3773 Pls
2606 4210 Pls
2606 3190 Pls
2606 3680 Pls
2606 3705 Pls
2606 4129 Pls
3297 4594 Pls
3297 4439 Pls
3297 4521 Pls
3297 4632 Pls
3297 4565 Pls
3297 4489 Pls
3297 4475 Pls
3297 4663 Pls
3297 4585 Pls
3297 4537 Pls
3297 4487 Pls
3297 4574 Pls
3297 4414 Pls
3297 4170 Pls
3297 4489 Pls
3297 4643 Pls
3297 4195 Pls
3297 4438 Pls
3297 4567 Pls
3297 4655 Pls
3297 4145 Pls
3297 4337 Pls
3297 4565 Pls
3297 4449 Pls
3297 4020 Pls
3297 4596 Pls
3297 4614 Pls
3297 4595 Pls
3297 4458 Pls
3297 4218 Pls
3297 4490 Pls
3297 4595 Pls
3297 4239 Pls
3297 4627 Pls
3297 4464 Pls
3297 4537 Pls
3297 4426 Pls
3297 4623 Pls
3297 4589 Pls
3297 4541 Pls
3297 4513 Pls
3297 4609 Pls
3297 4461 Pls
3297 4497 Pls
3297 4651 Pls
3297 4550 Pls
3297 4635 Pls
3297 4573 Pls
3297 4578 Pls
3297 4419 Pls
3297 4536 Pls
3297 4659 Pls
3297 4535 Pls
3297 4507 Pls
3297 4483 Pls
3297 4599 Pls
3297 4087 Pls
3297 4545 Pls
3297 4416 Pls
3297 4524 Pls
3297 3920 Pls
3297 4323 Pls
3297 4528 Pls
3297 4469 Pls
3297 3939 Pls
3297 4366 Pls
3297 4450 Pls
3297 4539 Pls
3297 4032 Pls
3297 4035 Pls
3297 4436 Pls
3297 4594 Pls
3297 4108 Pls
3297 4412 Pls
3297 4544 Pls
3297 4505 Pls
3297 4108 Pls
3297 4344 Pls
3297 4375 Pls
3297 4577 Pls
3297 4601 Pls
3297 4525 Pls
3297 4615 Pls
3297 4451 Pls
3297 4390 Pls
3297 4551 Pls
3297 4585 Pls
3297 4491 Pls
3297 4585 Pls
3297 4604 Pls
3297 4621 Pls
3297 4581 Pls
3297 4695 Pls
3297 4520 Pls
3297 4462 Pls
3297 4511 Pls
3297 4325 Pls
3297 4543 Pls
3297 4430 Pls
3297 4479 Pls
3297 4645 Pls
3297 4290 Pls
3297 4521 Pls
3297 4498 Pls
3297 4112 Pls
3297 4475 Pls
3297 4269 Pls
3297 4567 Pls
3297 4154 Pls
3297 4382 Pls
3297 4443 Pls
3297 4498 Pls
3297 3926 Pls
3297 4480 Pls
3297 4617 Pls
3297 4485 Pls
3297 3597 Pls
3297 4364 Pls
3297 4241 Pls
3297 4481 Pls
3297 4519 Pls
3297 4582 Pls
3297 4612 Pls
3297 4572 Pls
3297 4689 Pls
3297 4372 Pls
3297 4502 Pls
3297 4569 Pls
3297 4636 Pls
3297 4509 Pls
3297 4578 Pls
3297 4408 Pls
3297 4421 Pls
3297 4529 Pls
3297 4545 Pls
3297 4487 Pls
3297 4424 Pls
3297 4556 Pls
3297 4522 Pls
3297 4575 Pls
3297 4114 Pls
3297 4175 Pls
3297 4102 Pls
3297 4456 Pls
3297 3991 Pls
3297 4279 Pls
3297 4410 Pls
3297 4439 Pls
3297 3622 Pls
3297 4346 Pls
3297 4321 Pls
3297 4437 Pls
3297 3814 Pls
3297 4252 Pls
3297 4258 Pls
3297 4430 Pls
3297 3599 Pls
3297 4256 Pls
3297 4318 Pls
3297 4362 Pls
3297 4491 Pls
3297 4570 Pls
3297 4550 Pls
3297 4533 Pls
3297 4515 Pls
3297 4494 Pls
3297 4447 Pls
3297 4486 Pls
3297 4739 Pls
3297 4561 Pls
3297 4591 Pls
3297 4463 Pls
3297 4689 Pls
3297 4551 Pls
3297 4479 Pls
3297 4544 Pls
3297 4465 Pls
3297 4406 Pls
3297 4537 Pls
3297 4564 Pls
3297 3857 Pls
3297 4446 Pls
3297 4391 Pls
3297 4442 Pls
3297 4120 Pls
3297 3974 Pls
3297 4078 Pls
3297 4507 Pls
3297 3647 Pls
3297 3995 Pls
3297 4094 Pls
3297 4321 Pls
3297 2941 Pls
3297 3748 Pls
3297 4002 Pls
3297 4249 Pls
3297 3165 Pls
3297 3970 Pls
3297 3932 Pls
3297 4256 Pls
3987 4465 Pls
3987 4600 Pls
3987 4579 Pls
3987 4663 Pls
3987 4374 Pls
3987 4288 Pls
3987 4534 Pls
3987 4598 Pls
3987 4515 Pls
3987 4493 Pls
3987 4542 Pls
3987 4541 Pls
3987 4403 Pls
3987 4465 Pls
3987 4633 Pls
3987 4589 Pls
3987 4059 Pls
3987 4469 Pls
3987 4456 Pls
3987 4506 Pls
3987 4051 Pls
3987 4487 Pls
3987 4567 Pls
3987 4557 Pls
3987 4478 Pls
3987 4464 Pls
3987 4442 Pls
3987 4519 Pls
3987 4426 Pls
3987 4393 Pls
3987 4593 Pls
3987 4536 Pls
3987 4239 Pls
3987 4545 Pls
3987 4482 Pls
3987 4540 Pls
3987 4326 Pls
3987 4377 Pls
3987 4616 Pls
3987 4483 Pls
3987 4547 Pls
3987 4416 Pls
3987 4496 Pls
3987 4542 Pls
3987 4551 Pls
3987 4600 Pls
3987 4584 Pls
3987 4526 Pls
3987 4462 Pls
3987 4600 Pls
3987 4565 Pls
3987 4428 Pls
3987 4471 Pls
3987 4542 Pls
3987 4507 Pls
3987 4597 Pls
3987 3827 Pls
3987 4346 Pls
3987 4630 Pls
3987 4595 Pls
3987 4114 Pls
3987 4503 Pls
3987 4475 Pls
3987 4580 Pls
3987 3982 Pls
3987 4472 Pls
3987 4563 Pls
3987 4620 Pls
3987 4347 Pls
3987 4399 Pls
3987 4513 Pls
3987 4577 Pls
3987 4108 Pls
3987 4237 Pls
3987 4383 Pls
3987 4487 Pls
3987 4383 Pls
3987 4437 Pls
3987 4447 Pls
3987 4431 Pls
3987 4689 Pls
3987 4522 Pls
3987 4586 Pls
3987 4651 Pls
3987 4645 Pls
3987 4578 Pls
3987 4472 Pls
3987 4635 Pls
3987 4447 Pls
3987 4523 Pls
3987 4427 Pls
3987 4586 Pls
3987 4476 Pls
3987 4347 Pls
3987 4601 Pls
3987 4548 Pls
3987 4490 Pls
3987 4619 Pls
3987 4503 Pls
3987 4611 Pls
3987 4114 Pls
3987 4333 Pls
3987 4411 Pls
3987 4498 Pls
3987 3757 Pls
3987 4442 Pls
3987 4492 Pls
3987 4459 Pls
3987 4028 Pls
3987 4502 Pls
3987 4299 Pls
3987 4518 Pls
3987 4458 Pls
3987 4479 Pls
3987 4452 Pls
3987 4492 Pls
3987 3616 Pls
3987 4261 Pls
3987 4398 Pls
3987 4481 Pls
3987 4576 Pls
3987 4512 Pls
3987 4549 Pls
3987 4537 Pls
3987 4657 Pls
3987 4624 Pls
3987 4440 Pls
3987 4509 Pls
3987 4456 Pls
3987 4389 Pls
3987 4547 Pls
3987 4622 Pls
3987 4585 Pls
3987 4317 Pls
3987 4644 Pls
3987 4505 Pls
3987 4548 Pls
3987 4506 Pls
3987 4599 Pls
3987 4521 Pls
3987 4426 Pls
3987 4299 Pls
3987 4466 Pls
3987 4561 Pls
3987 3982 Pls
3987 4306 Pls
3987 4417 Pls
3987 4439 Pls
3987 4239 Pls
3987 4153 Pls
3987 4416 Pls
3987 4461 Pls
3987 3989 Pls
3987 4288 Pls
3987 4144 Pls
3987 4401 Pls
3987 3939 Pls
3987 4100 Pls
3987 4236 Pls
3987 4389 Pls
3987 4662 Pls
3987 4561 Pls
3987 4562 Pls
3987 4582 Pls
3987 4689 Pls
3987 4348 Pls
3987 4457 Pls
3987 4509 Pls
3987 4650 Pls
3987 4424 Pls
3987 4494 Pls
3987 4613 Pls
3987 4739 Pls
3987 4548 Pls
3987 4631 Pls
3987 4476 Pls
3987 4358 Pls
3987 4507 Pls
3987 4443 Pls
3987 4369 Pls
3987 3814 Pls
3987 4240 Pls
3987 4436 Pls
3987 4492 Pls
3987 3299 Pls
3987 4096 Pls
3987 4369 Pls
3987 4364 Pls
3987 3544 Pls
3987 4210 Pls
3987 4436 Pls
3987 4341 Pls
3987 3398 Pls
3987 4199 Pls
3987 4215 Pls
3987 4441 Pls
3987 3320 Pls
3987 4146 Pls
3987 4141 Pls
3987 4301 Pls
4678 4513 Pls
4678 4493 Pls
4678 4525 Pls
4678 4650 Pls
4678 4606 Pls
4678 4389 Pls
4678 4525 Pls
4678 4547 Pls
4678 4468 Pls
4678 4624 Pls
4678 4510 Pls
4678 4596 Pls
4678 4460 Pls
4678 4407 Pls
4678 4607 Pls
4678 4657 Pls
4678 4383 Pls
4678 4573 Pls
4678 4540 Pls
4678 4587 Pls
4678 4114 Pls
4678 4284 Pls
4678 4512 Pls
4678 4559 Pls
4678 3982 Pls
4678 4371 Pls
4678 4513 Pls
4678 4496 Pls
4678 4103 Pls
4678 4107 Pls
4678 4565 Pls
4678 4667 Pls
4678 4239 Pls
4678 4294 Pls
4678 4486 Pls
4678 4594 Pls
4678 4114 Pls
4678 4700 Pls
4678 4537 Pls
4678 4721 Pls
4678 4305 Pls
4678 4409 Pls
4678 4567 Pls
4678 4521 Pls
4678 4651 Pls
4678 4530 Pls
4678 4588 Pls
4678 4637 Pls
4678 4585 Pls
4678 4424 Pls
4678 4600 Pls
4678 4587 Pls
4678 4695 Pls
4678 4481 Pls
4678 4529 Pls
4678 4604 Pls
4678 4128 Pls
4678 4473 Pls
4678 4616 Pls
4678 4611 Pls
4678 2970 Pls
4678 4429 Pls
4678 4587 Pls
4678 4452 Pls
4678 3889 Pls
4678 4541 Pls
4678 4544 Pls
4678 4584 Pls
4678 4070 Pls
4678 4530 Pls
4678 4593 Pls
4678 4599 Pls
4678 4170 Pls
4678 4439 Pls
4678 4481 Pls
4678 4614 Pls
4678 4108 Pls
4678 4259 Pls
4678 4543 Pls
4678 4689 Pls
4678 4541 Pls
4678 4349 Pls
4678 4584 Pls
4678 4539 Pls
4678 4243 Pls
4678 4638 Pls
4678 4604 Pls
4678 4633 Pls
4678 4272 Pls
4678 4544 Pls
4678 4532 Pls
4678 4553 Pls
4678 4293 Pls
4678 4567 Pls
4678 4598 Pls
4678 4536 Pls
4678 4585 Pls
4678 4508 Pls
4678 4618 Pls
4678 4615 Pls
4678 4364 Pls
4678 4121 Pls
4678 4541 Pls
4678 4585 Pls
4678 4061 Pls
4678 4430 Pls
4678 4423 Pls
4678 4443 Pls
4678 4326 Pls
4678 4071 Pls
4678 4449 Pls
4678 4389 Pls
4678 4164 Pls
4678 4278 Pls
4678 4333 Pls
4678 4499 Pls
4678 4005 Pls
4678 4178 Pls
4678 4574 Pls
4678 4493 Pls
4678 4562 Pls
4678 4597 Pls
4678 4664 Pls
4678 4586 Pls
4678 4542 Pls
4678 4426 Pls
4678 4463 Pls
4678 4521 Pls
4678 4739 Pls
4678 4423 Pls
4678 4590 Pls
4678 4608 Pls
4678 4608 Pls
4678 4567 Pls
4678 4561 Pls
4678 4575 Pls
4678 4638 Pls
4678 4355 Pls
4678 4655 Pls
4678 4449 Pls
4678 4251 Pls
4678 4399 Pls
4678 4440 Pls
4678 4536 Pls
4678 3945 Pls
4678 4132 Pls
4678 4511 Pls
4678 4552 Pls
4678 4295 Pls
4678 4265 Pls
4678 4300 Pls
4678 4460 Pls
4678 3610 Pls
4678 4464 Pls
4678 4412 Pls
4678 4485 Pls
4678 3995 Pls
4678 4241 Pls
4678 4222 Pls
4678 4366 Pls
4678 4645 Pls
4678 4525 Pls
4678 4520 Pls
4678 4456 Pls
4678 4574 Pls
4678 4589 Pls
4678 4525 Pls
4678 4620 Pls
4678 4453 Pls
4678 4380 Pls
4678 4487 Pls
4678 4510 Pls
4678 4496 Pls
4678 4523 Pls
4678 4457 Pls
4678 4474 Pls
4678 4436 Pls
4678 4480 Pls
4678 4584 Pls
4678 4536 Pls
4678 3826 Pls
4678 4403 Pls
4678 4525 Pls
4678 4565 Pls
4678 3747 Pls
4678 4389 Pls
4678 4434 Pls
4678 4434 Pls
4678 4032 Pls
4678 4295 Pls
4678 4535 Pls
4678 4370 Pls
4678 3798 Pls
4678 3999 Pls
4678 4284 Pls
4678 4451 Pls
4678 3816 Pls
4678 4062 Pls
4678 4116 Pls
4678 4185 Pls
5368 4328 Pls
5368 4458 Pls
5368 4556 Pls
5368 4631 Pls
5368 4333 Pls
5368 4622 Pls
5368 4555 Pls
5368 4624 Pls
5368 4370 Pls
5368 4424 Pls
5368 4561 Pls
5368 4629 Pls
5368 4417 Pls
5368 4529 Pls
5368 4444 Pls
5368 4573 Pls
5368 4263 Pls
5368 4476 Pls
5368 4540 Pls
5368 4589 Pls
5368 4176 Pls
5368 4071 Pls
5368 4543 Pls
5368 4593 Pls
5368 4020 Pls
5368 4168 Pls
5368 4404 Pls
5368 4535 Pls
5368 4114 Pls
5368 4186 Pls
5368 4511 Pls
5368 4557 Pls
5368 4064 Pls
5368 4448 Pls
5368 4616 Pls
5368 4594 Pls
5368 4145 Pls
5368 4469 Pls
5368 4490 Pls
5368 4649 Pls
5368 4520 Pls
5368 4470 Pls
5368 4424 Pls
5368 4649 Pls
5368 4524 Pls
5368 4607 Pls
5368 4556 Pls
5368 4565 Pls
5368 4689 Pls
5368 4548 Pls
5368 4577 Pls
5368 4619 Pls
5368 4519 Pls
5368 4530 Pls
5368 4517 Pls
5368 4523 Pls
5368 4556 Pls
5368 4473 Pls
5368 4590 Pls
5368 4595 Pls
5368 4208 Pls
5368 4541 Pls
5368 4512 Pls
5368 4530 Pls
5368 4551 Pls
5368 4338 Pls
5368 4548 Pls
5368 4541 Pls
5368 4239 Pls
5368 4507 Pls
5368 4548 Pls
5368 4444 Pls
5368 4645 Pls
5368 4485 Pls
5368 4427 Pls
5368 4525 Pls
5368 4385 Pls
5368 4584 Pls
5368 4523 Pls
5368 4429 Pls
5368 4679 Pls
5368 4458 Pls
5368 4552 Pls
5368 4500 Pls
5368 4588 Pls
5368 4590 Pls
5368 4522 Pls
5368 4633 Pls
5368 4414 Pls
5368 4576 Pls
5368 4529 Pls
5368 4630 Pls
5368 4590 Pls
5368 4503 Pls
5368 4557 Pls
5368 4558 Pls
5368 4498 Pls
5368 4335 Pls
5368 4594 Pls
5368 4508 Pls
5368 3889 Pls
5368 4558 Pls
5368 4445 Pls
5368 4492 Pls
5368 4233 Pls
5368 4028 Pls
5368 4405 Pls
5368 4399 Pls
5368 4353 Pls
5368 4355 Pls
5368 4449 Pls
5368 4438 Pls
5368 3792 Pls
5368 4274 Pls
5368 4600 Pls
5368 4548 Pls
5368 4222 Pls
5368 4399 Pls
5368 4400 Pls
5368 4458 Pls
5368 4689 Pls
5368 4583 Pls
5368 4561 Pls
5368 4623 Pls
5368 4410 Pls
5368 4548 Pls
5368 4532 Pls
5368 4565 Pls
5368 4201 Pls
5368 4513 Pls
5368 4479 Pls
5368 4600 Pls
5368 4547 Pls
5368 4411 Pls
5368 4466 Pls
5368 4552 Pls
5368 4322 Pls
5368 4532 Pls
5368 4618 Pls
5368 4662 Pls
5368 4420 Pls
5368 4288 Pls
5368 4331 Pls
5368 4418 Pls
5368 4064 Pls
5368 3899 Pls
5368 4497 Pls
5368 4471 Pls
5368 4251 Pls
5368 4427 Pls
5368 4245 Pls
5368 4453 Pls
5368 4020 Pls
5368 3950 Pls
5368 4203 Pls
5368 4516 Pls
5368 4076 Pls
5368 4113 Pls
5368 4425 Pls
5368 4543 Pls
5368 4564 Pls
5368 4496 Pls
5368 4447 Pls
5368 4666 Pls
5368 4557 Pls
5368 4484 Pls
5368 4576 Pls
5368 4497 Pls
5368 4460 Pls
5368 4438 Pls
5368 4650 Pls
5368 4635 Pls
5368 4549 Pls
5368 4420 Pls
5368 4433 Pls
5368 4560 Pls
5368 4572 Pls
5368 4559 Pls
5368 4544 Pls
5368 4572 Pls
5368 4295 Pls
5368 4295 Pls
5368 4455 Pls
5368 4389 Pls
5368 3545 Pls
5368 4015 Pls
5368 4215 Pls
5368 4320 Pls
5368 4035 Pls
5368 4348 Pls
5368 4149 Pls
5368 4388 Pls
5368 4251 Pls
5368 4234 Pls
5368 4185 Pls
5368 4318 Pls
5368 2759 Pls
5368 4060 Pls
5368 4129 Pls
5368 4530 Pls
6059 4423 Pls
6059 4524 Pls
6059 4596 Pls
6059 4591 Pls
6059 4368 Pls
6059 4556 Pls
6059 4446 Pls
6059 4578 Pls
6059 4392 Pls
6059 4334 Pls
6059 4568 Pls
6059 4611 Pls
6059 4200 Pls
6059 4399 Pls
6059 4505 Pls
6059 4561 Pls
6059 4336 Pls
6059 4545 Pls
6059 4418 Pls
6059 4574 Pls
6059 4020 Pls
6059 4376 Pls
6059 4616 Pls
6059 4517 Pls
6059 3957 Pls
6059 4468 Pls
6059 4542 Pls
6059 4539 Pls
6059 4239 Pls
6059 4580 Pls
6059 4524 Pls
6059 4668 Pls
6059 4051 Pls
6059 4546 Pls
6059 4563 Pls
6059 4520 Pls
6059 4295 Pls
6059 4442 Pls
6059 4511 Pls
6059 4496 Pls
6059 4544 Pls
6059 4684 Pls
6059 4604 Pls
6059 4600 Pls
6059 4280 Pls
6059 4476 Pls
6059 4526 Pls
6059 4585 Pls
6059 4475 Pls
6059 4518 Pls
6059 4580 Pls
6059 4574 Pls
6059 4234 Pls
6059 4476 Pls
6059 4542 Pls
6059 4548 Pls
6059 4739 Pls
6059 4361 Pls
6059 4537 Pls
6059 4628 Pls
6059 4051 Pls
6059 4580 Pls
6059 4563 Pls
6059 4541 Pls
6059 4239 Pls
6059 4580 Pls
6059 4488 Pls
6059 4633 Pls
6059 4101 Pls
6059 4514 Pls
6059 4345 Pls
6059 4616 Pls
6059 4333 Pls
6059 4399 Pls
6059 4375 Pls
6059 4648 Pls
6059 4458 Pls
6059 4492 Pls
6059 4466 Pls
6059 4599 Pls
6059 4365 Pls
6059 4656 Pls
6059 4633 Pls
6059 4600 Pls
6059 4585 Pls
6059 4593 Pls
6059 4497 Pls
6059 4593 Pls
6059 4255 Pls
6059 4553 Pls
6059 4559 Pls
6059 4601 Pls
6059 4569 Pls
6059 4590 Pls
6059 4429 Pls
6059 4649 Pls
6059 4548 Pls
6059 4546 Pls
6059 4506 Pls
6059 4532 Pls
6059 4458 Pls
6059 4415 Pls
6059 4410 Pls
6059 4596 Pls
6059 4426 Pls
6059 4570 Pls
6059 4405 Pls
6059 4614 Pls
6059 3989 Pls
6059 4519 Pls
6059 4593 Pls
6059 4548 Pls
6059 4458 Pls
6059 4459 Pls
6059 4495 Pls
6059 4602 Pls
6059 4560 Pls
6059 4225 Pls
6059 4452 Pls
6059 4508 Pls
6059 4498 Pls
6059 4427 Pls
6059 4532 Pls
6059 4580 Pls
6059 4630 Pls
6059 4609 Pls
6059 4641 Pls
6059 4604 Pls
6059 4456 Pls
6059 4580 Pls
6059 4516 Pls
6059 4584 Pls
6059 4272 Pls
6059 4603 Pls
6059 4625 Pls
6059 4617 Pls
6059 4366 Pls
6059 4417 Pls
6059 4599 Pls
6059 4568 Pls
6059 3857 Pls
6059 4247 Pls
6059 4617 Pls
6059 4530 Pls
6059 4364 Pls
6059 4618 Pls
6059 4430 Pls
6059 4396 Pls
6059 4070 Pls
6059 4356 Pls
6059 4281 Pls
6059 4485 Pls
6059 4204 Pls
6059 4287 Pls
6059 4320 Pls
6059 4448 Pls
6059 3814 Pls
6059 4006 Pls
6059 4579 Pls
6059 4469 Pls
6059 4645 Pls
6059 4739 Pls
6059 4511 Pls
6059 4586 Pls
6059 4531 Pls
6059 4544 Pls
6059 4510 Pls
6059 4506 Pls
6059 4462 Pls
6059 4466 Pls
6059 4575 Pls
6059 4606 Pls
6059 4576 Pls
6059 4545 Pls
6059 4577 Pls
6059 4532 Pls
6059 4485 Pls
6059 4329 Pls
6059 4503 Pls
6059 4571 Pls
6059 4020 Pls
6059 4290 Pls
6059 4412 Pls
6059 4420 Pls
6059 4120 Pls
6059 4459 Pls
6059 4603 Pls
6059 4477 Pls
6059 4326 Pls
6059 4357 Pls
6059 4622 Pls
6059 4450 Pls
6059 3974 Pls
6059 4381 Pls
6059 4456 Pls
6059 4491 Pls
6059 4126 Pls
6059 4312 Pls
6059 4379 Pls
6059 4282 Pls
6749 4469 Pls
6749 4588 Pls
6749 4597 Pls
6749 4645 Pls
6749 4629 Pls
6749 4446 Pls
6749 4610 Pls
6749 4610 Pls
6749 4509 Pls
6749 4573 Pls
6749 4671 Pls
6749 4643 Pls
6749 3848 Pls
6749 4482 Pls
6749 4494 Pls
6749 4646 Pls
6749 4606 Pls
6749 4271 Pls
6749 4512 Pls
6749 4552 Pls
6749 4145 Pls
6749 4502 Pls
6749 4484 Pls
6749 4614 Pls
6749 4458 Pls
6749 4420 Pls
6749 4537 Pls
6749 4576 Pls
6749 4114 Pls
6749 4350 Pls
6749 4616 Pls
6749 4633 Pls
6749 4333 Pls
6749 4463 Pls
6749 4587 Pls
6749 4613 Pls
6749 4051 Pls
6749 4337 Pls
6749 4563 Pls
6749 4463 Pls
6749 4657 Pls
6749 4467 Pls
6749 4579 Pls
6749 4578 Pls
6749 4695 Pls
6749 4620 Pls
6749 4718 Pls
6749 4617 Pls
6749 4450 Pls
6749 4551 Pls
6749 4581 Pls
6749 4629 Pls
6749 4636 Pls
6749 4556 Pls
6749 4576 Pls
6749 4584 Pls
6749 4438 Pls
6749 4525 Pls
6749 4571 Pls
6749 4560 Pls
6749 4345 Pls
6749 4294 Pls
6749 4587 Pls
6749 4599 Pls
6749 4426 Pls
6749 4420 Pls
6749 4373 Pls
6749 4578 Pls
6749 4426 Pls
6749 4498 Pls
6749 4506 Pls
6749 4547 Pls
6749 4294 Pls
6749 4502 Pls
6749 4548 Pls
6749 4574 Pls
6749 4551 Pls
6749 4518 Pls
6749 4331 Pls
6749 4613 Pls
6749 4578 Pls
6749 4395 Pls
6749 4574 Pls
6749 4589 Pls
6749 4564 Pls
6749 4618 Pls
6749 4609 Pls
6749 4654 Pls
6749 4606 Pls
6749 4574 Pls
6749 4574 Pls
6749 4503 Pls
6749 4378 Pls
6749 4602 Pls
6749 4552 Pls
6749 4497 Pls
6749 4383 Pls
6749 4425 Pls
6749 4379 Pls
6749 4493 Pls
6749 4645 Pls
6749 4268 Pls
6749 4568 Pls
6749 4503 Pls
6749 4364 Pls
6749 4585 Pls
6749 4453 Pls
6749 4539 Pls
6749 3479 Pls
6749 4662 Pls
6749 4596 Pls
6749 4543 Pls
6749 4239 Pls
6749 4306 Pls
6749 4572 Pls
6749 4461 Pls
6749 4097 Pls
6749 4378 Pls
6749 4434 Pls
6749 4579 Pls
6749 4606 Pls
6749 4639 Pls
6749 4605 Pls
6749 4634 Pls
6749 4641 Pls
6749 4452 Pls
6749 4645 Pls
6749 4501 Pls
6749 4590 Pls
6749 4592 Pls
6749 4462 Pls
6749 4534 Pls
6749 4700 Pls
6749 4619 Pls
6749 4606 Pls
6749 4525 Pls
6749 4550 Pls
6749 4648 Pls
6749 4529 Pls
6749 4571 Pls
6749 4645 Pls
6749 4623 Pls
6749 4493 Pls
6749 4387 Pls
6749 4101 Pls
6749 4169 Pls
6749 4401 Pls
6749 4494 Pls
6749 3889 Pls
6749 4246 Pls
6749 4332 Pls
6749 4511 Pls
6749 4032 Pls
6749 4502 Pls
6749 4203 Pls
6749 4468 Pls
6749 4166 Pls
6749 4043 Pls
6749 4388 Pls
6749 4566 Pls
6749 4590 Pls
6749 4713 Pls
6749 4528 Pls
6749 4546 Pls
6749 4695 Pls
6749 4596 Pls
6749 4605 Pls
6749 4619 Pls
6749 4540 Pls
6749 4543 Pls
6749 4531 Pls
6749 4622 Pls
6749 4629 Pls
6749 4588 Pls
6749 4595 Pls
6749 4527 Pls
6749 4569 Pls
6749 4647 Pls
6749 4541 Pls
6749 4634 Pls
6749 3926 Pls
6749 4222 Pls
6749 4546 Pls
6749 4580 Pls
6749 3639 Pls
6749 4333 Pls
6749 4326 Pls
6749 4534 Pls
6749 4251 Pls
6749 4299 Pls
6749 4323 Pls
6749 4316 Pls
6749 4551 Pls
6749 4281 Pls
6749 4538 Pls
6749 4433 Pls
6749 3895 Pls
6749 4076 Pls
6749 4333 Pls
6749 4496 Pls
% End plot #1
% Begin plot #2
8.000 UL
LT1
LCb setrgbcolor
5636 1488 M
[ [(Helvetica) 250.0 0.0 true true 0 (Average)]
] -83.3 MRshow
LT1
5786 1488 M
663 0 V
1225 4097 M
691 183 V
690 78 V
691 38 V
690 19 V
691 9 V
690 1 V
691 38 V
690 13 V
% End plot #2
% Begin plot #3
stroke
4.000 UL
LT2
LCb setrgbcolor
5636 1238 M
[ [(Helvetica) 250.0 0.0 true true 0 (Min)]
] -83.3 MRshow
LT2
5786 1238 M
663 0 V
1225 1020 M
691 1187 V
690 230 V
691 504 V
690 358 V
691 -329 V
690 -211 V
691 1055 V
690 -335 V
% End plot #3
% Begin plot #4
stroke
LT3
LCb setrgbcolor
5636 988 M
[ [(Helvetica) 250.0 0.0 true true 0 (Max)]
] -83.3 MRshow
LT3
5786 988 M
663 0 V
1225 4689 M
691 1 V
690 0 V
691 49 V
690 0 V
691 0 V
690 -50 V
691 50 V
690 -21 V
% End plot #4
stroke
1.000 UL
LTb
1225 4739 N
0 -3939 V
5524 0 V
0 3939 V
-5524 0 V
Z stroke
1.000 UP
1.000 UL
LTb
stroke
grestore
end
showpage
%%Trailer
%%DocumentFonts: Helvetica
