%!PS-Adobe-2.0 EPSF-2.0
%%Title: r_alphabet_size_1000-recall.eps
%%Creator: gnuplot 4.4 patchlevel 3
%%CreationDate: Fri Jun 14 19:20:12 2013
%%DocumentFonts: (atend)
%%BoundingBox: 50 50 410 302
%%EndComments
%%BeginProlog
/gnudict 256 dict def
gnudict begin
%
% The following true/false flags may be edited by hand if desired.
% The unit line width and grayscale image gamma correction may also be changed.
%
/Color true def
/Blacktext false def
/Solid false def
/Dashlength 1 def
/Landscape false def
/Level1 false def
/Rounded false def
/ClipToBoundingBox false def
/TransparentPatterns false def
/gnulinewidth 5.000 def
/userlinewidth gnulinewidth def
/Gamma 1.0 def
%
/vshift -83 def
/dl1 {
  10.0 Dashlength mul mul
  Rounded { currentlinewidth 0.75 mul sub dup 0 le { pop 0.01 } if } if
} def
/dl2 {
  10.0 Dashlength mul mul
  Rounded { currentlinewidth 0.75 mul add } if
} def
/hpt_ 31.5 def
/vpt_ 31.5 def
/hpt hpt_ def
/vpt vpt_ def
Level1 {} {
/SDict 10 dict def
systemdict /pdfmark known not {
  userdict /pdfmark systemdict /cleartomark get put
} if
SDict begin [
  /Title (r_alphabet_size_1000-recall.eps)
  /Subject (gnuplot plot)
  /Creator (gnuplot 4.4 patchlevel 3)
  /Author (xjia)
%  /Producer (gnuplot)
%  /Keywords ()
  /CreationDate (Fri Jun 14 19:20:12 2013)
  /DOCINFO pdfmark
end
} ifelse
/doclip {
  ClipToBoundingBox {
    newpath 50 50 moveto 410 50 lineto 410 302 lineto 50 302 lineto closepath
    clip
  } if
} def
%
% Gnuplot Prolog Version 4.4 (August 2010)
%
%/SuppressPDFMark true def
%
/M {moveto} bind def
/L {lineto} bind def
/R {rmoveto} bind def
/V {rlineto} bind def
/N {newpath moveto} bind def
/Z {closepath} bind def
/C {setrgbcolor} bind def
/f {rlineto fill} bind def
/g {setgray} bind def
/Gshow {show} def   % May be redefined later in the file to support UTF-8
/vpt2 vpt 2 mul def
/hpt2 hpt 2 mul def
/Lshow {currentpoint stroke M 0 vshift R 
	Blacktext {gsave 0 setgray show grestore} {show} ifelse} def
/Rshow {currentpoint stroke M dup stringwidth pop neg vshift R
	Blacktext {gsave 0 setgray show grestore} {show} ifelse} def
/Cshow {currentpoint stroke M dup stringwidth pop -2 div vshift R 
	Blacktext {gsave 0 setgray show grestore} {show} ifelse} def
/UP {dup vpt_ mul /vpt exch def hpt_ mul /hpt exch def
  /hpt2 hpt 2 mul def /vpt2 vpt 2 mul def} def
/DL {Color {setrgbcolor Solid {pop []} if 0 setdash}
 {pop pop pop 0 setgray Solid {pop []} if 0 setdash} ifelse} def
/BL {stroke userlinewidth 2 mul setlinewidth
	Rounded {1 setlinejoin 1 setlinecap} if} def
/AL {stroke userlinewidth 2 div setlinewidth
	Rounded {1 setlinejoin 1 setlinecap} if} def
/UL {dup gnulinewidth mul /userlinewidth exch def
	dup 1 lt {pop 1} if 10 mul /udl exch def} def
/PL {stroke userlinewidth setlinewidth
	Rounded {1 setlinejoin 1 setlinecap} if} def
3.8 setmiterlimit
% Default Line colors
/LCw {1 1 1} def
/LCb {0 0 0} def
/LCa {0 0 0} def
/LC0 {1 0 0} def
/LC1 {0 1 0} def
/LC2 {0 0 1} def
/LC3 {1 0 1} def
/LC4 {0 1 1} def
/LC5 {1 1 0} def
/LC6 {0 0 0} def
/LC7 {1 0.3 0} def
/LC8 {0.5 0.5 0.5} def
% Default Line Types
/LTw {PL [] 1 setgray} def
/LTb {BL [] LCb DL} def
/LTa {AL [1 udl mul 2 udl mul] 0 setdash LCa setrgbcolor} def
/LT0 {PL [] LC0 DL} def
/LT1 {PL [4 dl1 2 dl2] LC1 DL} def
/LT2 {PL [2 dl1 3 dl2] LC2 DL} def
/LT3 {PL [1 dl1 1.5 dl2] LC3 DL} def
/LT4 {PL [6 dl1 2 dl2 1 dl1 2 dl2] LC4 DL} def
/LT5 {PL [3 dl1 3 dl2 1 dl1 3 dl2] LC5 DL} def
/LT6 {PL [2 dl1 2 dl2 2 dl1 6 dl2] LC6 DL} def
/LT7 {PL [1 dl1 2 dl2 6 dl1 2 dl2 1 dl1 2 dl2] LC7 DL} def
/LT8 {PL [2 dl1 2 dl2 2 dl1 2 dl2 2 dl1 2 dl2 2 dl1 4 dl2] LC8 DL} def
/Pnt {stroke [] 0 setdash gsave 1 setlinecap M 0 0 V stroke grestore} def
/Dia {stroke [] 0 setdash 2 copy vpt add M
  hpt neg vpt neg V hpt vpt neg V
  hpt vpt V hpt neg vpt V closepath stroke
  Pnt} def
/Pls {stroke [] 0 setdash vpt sub M 0 vpt2 V
  currentpoint stroke M
  hpt neg vpt neg R hpt2 0 V stroke
 } def
/Box {stroke [] 0 setdash 2 copy exch hpt sub exch vpt add M
  0 vpt2 neg V hpt2 0 V 0 vpt2 V
  hpt2 neg 0 V closepath stroke
  Pnt} def
/Crs {stroke [] 0 setdash exch hpt sub exch vpt add M
  hpt2 vpt2 neg V currentpoint stroke M
  hpt2 neg 0 R hpt2 vpt2 V stroke} def
/TriU {stroke [] 0 setdash 2 copy vpt 1.12 mul add M
  hpt neg vpt -1.62 mul V
  hpt 2 mul 0 V
  hpt neg vpt 1.62 mul V closepath stroke
  Pnt} def
/Star {2 copy Pls Crs} def
/BoxF {stroke [] 0 setdash exch hpt sub exch vpt add M
  0 vpt2 neg V hpt2 0 V 0 vpt2 V
  hpt2 neg 0 V closepath fill} def
/TriUF {stroke [] 0 setdash vpt 1.12 mul add M
  hpt neg vpt -1.62 mul V
  hpt 2 mul 0 V
  hpt neg vpt 1.62 mul V closepath fill} def
/TriD {stroke [] 0 setdash 2 copy vpt 1.12 mul sub M
  hpt neg vpt 1.62 mul V
  hpt 2 mul 0 V
  hpt neg vpt -1.62 mul V closepath stroke
  Pnt} def
/TriDF {stroke [] 0 setdash vpt 1.12 mul sub M
  hpt neg vpt 1.62 mul V
  hpt 2 mul 0 V
  hpt neg vpt -1.62 mul V closepath fill} def
/DiaF {stroke [] 0 setdash vpt add M
  hpt neg vpt neg V hpt vpt neg V
  hpt vpt V hpt neg vpt V closepath fill} def
/Pent {stroke [] 0 setdash 2 copy gsave
  translate 0 hpt M 4 {72 rotate 0 hpt L} repeat
  closepath stroke grestore Pnt} def
/PentF {stroke [] 0 setdash gsave
  translate 0 hpt M 4 {72 rotate 0 hpt L} repeat
  closepath fill grestore} def
/Circle {stroke [] 0 setdash 2 copy
  hpt 0 360 arc stroke Pnt} def
/CircleF {stroke [] 0 setdash hpt 0 360 arc fill} def
/C0 {BL [] 0 setdash 2 copy moveto vpt 90 450 arc} bind def
/C1 {BL [] 0 setdash 2 copy moveto
	2 copy vpt 0 90 arc closepath fill
	vpt 0 360 arc closepath} bind def
/C2 {BL [] 0 setdash 2 copy moveto
	2 copy vpt 90 180 arc closepath fill
	vpt 0 360 arc closepath} bind def
/C3 {BL [] 0 setdash 2 copy moveto
	2 copy vpt 0 180 arc closepath fill
	vpt 0 360 arc closepath} bind def
/C4 {BL [] 0 setdash 2 copy moveto
	2 copy vpt 180 270 arc closepath fill
	vpt 0 360 arc closepath} bind def
/C5 {BL [] 0 setdash 2 copy moveto
	2 copy vpt 0 90 arc
	2 copy moveto
	2 copy vpt 180 270 arc closepath fill
	vpt 0 360 arc} bind def
/C6 {BL [] 0 setdash 2 copy moveto
	2 copy vpt 90 270 arc closepath fill
	vpt 0 360 arc closepath} bind def
/C7 {BL [] 0 setdash 2 copy moveto
	2 copy vpt 0 270 arc closepath fill
	vpt 0 360 arc closepath} bind def
/C8 {BL [] 0 setdash 2 copy moveto
	2 copy vpt 270 360 arc closepath fill
	vpt 0 360 arc closepath} bind def
/C9 {BL [] 0 setdash 2 copy moveto
	2 copy vpt 270 450 arc closepath fill
	vpt 0 360 arc closepath} bind def
/C10 {BL [] 0 setdash 2 copy 2 copy moveto vpt 270 360 arc closepath fill
	2 copy moveto
	2 copy vpt 90 180 arc closepath fill
	vpt 0 360 arc closepath} bind def
/C11 {BL [] 0 setdash 2 copy moveto
	2 copy vpt 0 180 arc closepath fill
	2 copy moveto
	2 copy vpt 270 360 arc closepath fill
	vpt 0 360 arc closepath} bind def
/C12 {BL [] 0 setdash 2 copy moveto
	2 copy vpt 180 360 arc closepath fill
	vpt 0 360 arc closepath} bind def
/C13 {BL [] 0 setdash 2 copy moveto
	2 copy vpt 0 90 arc closepath fill
	2 copy moveto
	2 copy vpt 180 360 arc closepath fill
	vpt 0 360 arc closepath} bind def
/C14 {BL [] 0 setdash 2 copy moveto
	2 copy vpt 90 360 arc closepath fill
	vpt 0 360 arc} bind def
/C15 {BL [] 0 setdash 2 copy vpt 0 360 arc closepath fill
	vpt 0 360 arc closepath} bind def
/Rec {newpath 4 2 roll moveto 1 index 0 rlineto 0 exch rlineto
	neg 0 rlineto closepath} bind def
/Square {dup Rec} bind def
/Bsquare {vpt sub exch vpt sub exch vpt2 Square} bind def
/S0 {BL [] 0 setdash 2 copy moveto 0 vpt rlineto BL Bsquare} bind def
/S1 {BL [] 0 setdash 2 copy vpt Square fill Bsquare} bind def
/S2 {BL [] 0 setdash 2 copy exch vpt sub exch vpt Square fill Bsquare} bind def
/S3 {BL [] 0 setdash 2 copy exch vpt sub exch vpt2 vpt Rec fill Bsquare} bind def
/S4 {BL [] 0 setdash 2 copy exch vpt sub exch vpt sub vpt Square fill Bsquare} bind def
/S5 {BL [] 0 setdash 2 copy 2 copy vpt Square fill
	exch vpt sub exch vpt sub vpt Square fill Bsquare} bind def
/S6 {BL [] 0 setdash 2 copy exch vpt sub exch vpt sub vpt vpt2 Rec fill Bsquare} bind def
/S7 {BL [] 0 setdash 2 copy exch vpt sub exch vpt sub vpt vpt2 Rec fill
	2 copy vpt Square fill Bsquare} bind def
/S8 {BL [] 0 setdash 2 copy vpt sub vpt Square fill Bsquare} bind def
/S9 {BL [] 0 setdash 2 copy vpt sub vpt vpt2 Rec fill Bsquare} bind def
/S10 {BL [] 0 setdash 2 copy vpt sub vpt Square fill 2 copy exch vpt sub exch vpt Square fill
	Bsquare} bind def
/S11 {BL [] 0 setdash 2 copy vpt sub vpt Square fill 2 copy exch vpt sub exch vpt2 vpt Rec fill
	Bsquare} bind def
/S12 {BL [] 0 setdash 2 copy exch vpt sub exch vpt sub vpt2 vpt Rec fill Bsquare} bind def
/S13 {BL [] 0 setdash 2 copy exch vpt sub exch vpt sub vpt2 vpt Rec fill
	2 copy vpt Square fill Bsquare} bind def
/S14 {BL [] 0 setdash 2 copy exch vpt sub exch vpt sub vpt2 vpt Rec fill
	2 copy exch vpt sub exch vpt Square fill Bsquare} bind def
/S15 {BL [] 0 setdash 2 copy Bsquare fill Bsquare} bind def
/D0 {gsave translate 45 rotate 0 0 S0 stroke grestore} bind def
/D1 {gsave translate 45 rotate 0 0 S1 stroke grestore} bind def
/D2 {gsave translate 45 rotate 0 0 S2 stroke grestore} bind def
/D3 {gsave translate 45 rotate 0 0 S3 stroke grestore} bind def
/D4 {gsave translate 45 rotate 0 0 S4 stroke grestore} bind def
/D5 {gsave translate 45 rotate 0 0 S5 stroke grestore} bind def
/D6 {gsave translate 45 rotate 0 0 S6 stroke grestore} bind def
/D7 {gsave translate 45 rotate 0 0 S7 stroke grestore} bind def
/D8 {gsave translate 45 rotate 0 0 S8 stroke grestore} bind def
/D9 {gsave translate 45 rotate 0 0 S9 stroke grestore} bind def
/D10 {gsave translate 45 rotate 0 0 S10 stroke grestore} bind def
/D11 {gsave translate 45 rotate 0 0 S11 stroke grestore} bind def
/D12 {gsave translate 45 rotate 0 0 S12 stroke grestore} bind def
/D13 {gsave translate 45 rotate 0 0 S13 stroke grestore} bind def
/D14 {gsave translate 45 rotate 0 0 S14 stroke grestore} bind def
/D15 {gsave translate 45 rotate 0 0 S15 stroke grestore} bind def
/DiaE {stroke [] 0 setdash vpt add M
  hpt neg vpt neg V hpt vpt neg V
  hpt vpt V hpt neg vpt V closepath stroke} def
/BoxE {stroke [] 0 setdash exch hpt sub exch vpt add M
  0 vpt2 neg V hpt2 0 V 0 vpt2 V
  hpt2 neg 0 V closepath stroke} def
/TriUE {stroke [] 0 setdash vpt 1.12 mul add M
  hpt neg vpt -1.62 mul V
  hpt 2 mul 0 V
  hpt neg vpt 1.62 mul V closepath stroke} def
/TriDE {stroke [] 0 setdash vpt 1.12 mul sub M
  hpt neg vpt 1.62 mul V
  hpt 2 mul 0 V
  hpt neg vpt -1.62 mul V closepath stroke} def
/PentE {stroke [] 0 setdash gsave
  translate 0 hpt M 4 {72 rotate 0 hpt L} repeat
  closepath stroke grestore} def
/CircE {stroke [] 0 setdash 
  hpt 0 360 arc stroke} def
/Opaque {gsave closepath 1 setgray fill grestore 0 setgray closepath} def
/DiaW {stroke [] 0 setdash vpt add M
  hpt neg vpt neg V hpt vpt neg V
  hpt vpt V hpt neg vpt V Opaque stroke} def
/BoxW {stroke [] 0 setdash exch hpt sub exch vpt add M
  0 vpt2 neg V hpt2 0 V 0 vpt2 V
  hpt2 neg 0 V Opaque stroke} def
/TriUW {stroke [] 0 setdash vpt 1.12 mul add M
  hpt neg vpt -1.62 mul V
  hpt 2 mul 0 V
  hpt neg vpt 1.62 mul V Opaque stroke} def
/TriDW {stroke [] 0 setdash vpt 1.12 mul sub M
  hpt neg vpt 1.62 mul V
  hpt 2 mul 0 V
  hpt neg vpt -1.62 mul V Opaque stroke} def
/PentW {stroke [] 0 setdash gsave
  translate 0 hpt M 4 {72 rotate 0 hpt L} repeat
  Opaque stroke grestore} def
/CircW {stroke [] 0 setdash 
  hpt 0 360 arc Opaque stroke} def
/BoxFill {gsave Rec 1 setgray fill grestore} def
/Density {
  /Fillden exch def
  currentrgbcolor
  /ColB exch def /ColG exch def /ColR exch def
  /ColR ColR Fillden mul Fillden sub 1 add def
  /ColG ColG Fillden mul Fillden sub 1 add def
  /ColB ColB Fillden mul Fillden sub 1 add def
  ColR ColG ColB setrgbcolor} def
/BoxColFill {gsave Rec PolyFill} def
/PolyFill {gsave Density fill grestore grestore} def
/h {rlineto rlineto rlineto gsave closepath fill grestore} bind def
%
% PostScript Level 1 Pattern Fill routine for rectangles
% Usage: x y w h s a XX PatternFill
%	x,y = lower left corner of box to be filled
%	w,h = width and height of box
%	  a = angle in degrees between lines and x-axis
%	 XX = 0/1 for no/yes cross-hatch
%
/PatternFill {gsave /PFa [ 9 2 roll ] def
  PFa 0 get PFa 2 get 2 div add PFa 1 get PFa 3 get 2 div add translate
  PFa 2 get -2 div PFa 3 get -2 div PFa 2 get PFa 3 get Rec
  gsave 1 setgray fill grestore clip
  currentlinewidth 0.5 mul setlinewidth
  /PFs PFa 2 get dup mul PFa 3 get dup mul add sqrt def
  0 0 M PFa 5 get rotate PFs -2 div dup translate
  0 1 PFs PFa 4 get div 1 add floor cvi
	{PFa 4 get mul 0 M 0 PFs V} for
  0 PFa 6 get ne {
	0 1 PFs PFa 4 get div 1 add floor cvi
	{PFa 4 get mul 0 2 1 roll M PFs 0 V} for
 } if
  stroke grestore} def
%
/languagelevel where
 {pop languagelevel} {1} ifelse
 2 lt
	{/InterpretLevel1 true def}
	{/InterpretLevel1 Level1 def}
 ifelse
%
% PostScript level 2 pattern fill definitions
%
/Level2PatternFill {
/Tile8x8 {/PaintType 2 /PatternType 1 /TilingType 1 /BBox [0 0 8 8] /XStep 8 /YStep 8}
	bind def
/KeepColor {currentrgbcolor [/Pattern /DeviceRGB] setcolorspace} bind def
<< Tile8x8
 /PaintProc {0.5 setlinewidth pop 0 0 M 8 8 L 0 8 M 8 0 L stroke} 
>> matrix makepattern
/Pat1 exch def
<< Tile8x8
 /PaintProc {0.5 setlinewidth pop 0 0 M 8 8 L 0 8 M 8 0 L stroke
	0 4 M 4 8 L 8 4 L 4 0 L 0 4 L stroke}
>> matrix makepattern
/Pat2 exch def
<< Tile8x8
 /PaintProc {0.5 setlinewidth pop 0 0 M 0 8 L
	8 8 L 8 0 L 0 0 L fill}
>> matrix makepattern
/Pat3 exch def
<< Tile8x8
 /PaintProc {0.5 setlinewidth pop -4 8 M 8 -4 L
	0 12 M 12 0 L stroke}
>> matrix makepattern
/Pat4 exch def
<< Tile8x8
 /PaintProc {0.5 setlinewidth pop -4 0 M 8 12 L
	0 -4 M 12 8 L stroke}
>> matrix makepattern
/Pat5 exch def
<< Tile8x8
 /PaintProc {0.5 setlinewidth pop -2 8 M 4 -4 L
	0 12 M 8 -4 L 4 12 M 10 0 L stroke}
>> matrix makepattern
/Pat6 exch def
<< Tile8x8
 /PaintProc {0.5 setlinewidth pop -2 0 M 4 12 L
	0 -4 M 8 12 L 4 -4 M 10 8 L stroke}
>> matrix makepattern
/Pat7 exch def
<< Tile8x8
 /PaintProc {0.5 setlinewidth pop 8 -2 M -4 4 L
	12 0 M -4 8 L 12 4 M 0 10 L stroke}
>> matrix makepattern
/Pat8 exch def
<< Tile8x8
 /PaintProc {0.5 setlinewidth pop 0 -2 M 12 4 L
	-4 0 M 12 8 L -4 4 M 8 10 L stroke}
>> matrix makepattern
/Pat9 exch def
/Pattern1 {PatternBgnd KeepColor Pat1 setpattern} bind def
/Pattern2 {PatternBgnd KeepColor Pat2 setpattern} bind def
/Pattern3 {PatternBgnd KeepColor Pat3 setpattern} bind def
/Pattern4 {PatternBgnd KeepColor Landscape {Pat5} {Pat4} ifelse setpattern} bind def
/Pattern5 {PatternBgnd KeepColor Landscape {Pat4} {Pat5} ifelse setpattern} bind def
/Pattern6 {PatternBgnd KeepColor Landscape {Pat9} {Pat6} ifelse setpattern} bind def
/Pattern7 {PatternBgnd KeepColor Landscape {Pat8} {Pat7} ifelse setpattern} bind def
} def
%
%
%End of PostScript Level 2 code
%
/PatternBgnd {
  TransparentPatterns {} {gsave 1 setgray fill grestore} ifelse
} def
%
% Substitute for Level 2 pattern fill codes with
% grayscale if Level 2 support is not selected.
%
/Level1PatternFill {
/Pattern1 {0.250 Density} bind def
/Pattern2 {0.500 Density} bind def
/Pattern3 {0.750 Density} bind def
/Pattern4 {0.125 Density} bind def
/Pattern5 {0.375 Density} bind def
/Pattern6 {0.625 Density} bind def
/Pattern7 {0.875 Density} bind def
} def
%
% Now test for support of Level 2 code
%
Level1 {Level1PatternFill} {Level2PatternFill} ifelse
%
/Symbol-Oblique /Symbol findfont [1 0 .167 1 0 0] makefont
dup length dict begin {1 index /FID eq {pop pop} {def} ifelse} forall
currentdict end definefont pop
/MFshow {
   { dup 5 get 3 ge
     { 5 get 3 eq {gsave} {grestore} ifelse }
     {dup dup 0 get findfont exch 1 get scalefont setfont
     [ currentpoint ] exch dup 2 get 0 exch R dup 5 get 2 ne {dup dup 6
     get exch 4 get {Gshow} {stringwidth pop 0 R} ifelse }if dup 5 get 0 eq
     {dup 3 get {2 get neg 0 exch R pop} {pop aload pop M} ifelse} {dup 5
     get 1 eq {dup 2 get exch dup 3 get exch 6 get stringwidth pop -2 div
     dup 0 R} {dup 6 get stringwidth pop -2 div 0 R 6 get
     show 2 index {aload pop M neg 3 -1 roll neg R pop pop} {pop pop pop
     pop aload pop M} ifelse }ifelse }ifelse }
     ifelse }
   forall} def
/Gswidth {dup type /stringtype eq {stringwidth} {pop (n) stringwidth} ifelse} def
/MFwidth {0 exch { dup 5 get 3 ge { 5 get 3 eq { 0 } { pop } ifelse }
 {dup 3 get{dup dup 0 get findfont exch 1 get scalefont setfont
     6 get Gswidth pop add} {pop} ifelse} ifelse} forall} def
/MLshow { currentpoint stroke M
  0 exch R
  Blacktext {gsave 0 setgray MFshow grestore} {MFshow} ifelse } bind def
/MRshow { currentpoint stroke M
  exch dup MFwidth neg 3 -1 roll R
  Blacktext {gsave 0 setgray MFshow grestore} {MFshow} ifelse } bind def
/MCshow { currentpoint stroke M
  exch dup MFwidth -2 div 3 -1 roll R
  Blacktext {gsave 0 setgray MFshow grestore} {MFshow} ifelse } bind def
/XYsave    { [( ) 1 2 true false 3 ()] } bind def
/XYrestore { [( ) 1 2 true false 4 ()] } bind def
end
%%EndProlog
gnudict begin
gsave
doclip
50 50 translate
0.050 0.050 scale
0 setgray
newpath
(Helvetica) findfont 250 scalefont setfont
1.000 UL
LTb
1375 800 M
63 0 V
5311 0 R
-63 0 V
stroke
1225 800 M
[ [(Helvetica) 250.0 0.0 true true 0 ( 0.6)]
] -83.3 MRshow
1.000 UL
LTb
1375 1292 M
63 0 V
5311 0 R
-63 0 V
stroke
1225 1292 M
[ [(Helvetica) 250.0 0.0 true true 0 ( 0.65)]
] -83.3 MRshow
1.000 UL
LTb
1375 1785 M
63 0 V
5311 0 R
-63 0 V
stroke
1225 1785 M
[ [(Helvetica) 250.0 0.0 true true 0 ( 0.7)]
] -83.3 MRshow
1.000 UL
LTb
1375 2277 M
63 0 V
5311 0 R
-63 0 V
stroke
1225 2277 M
[ [(Helvetica) 250.0 0.0 true true 0 ( 0.75)]
] -83.3 MRshow
1.000 UL
LTb
1375 2770 M
63 0 V
5311 0 R
-63 0 V
stroke
1225 2770 M
[ [(Helvetica) 250.0 0.0 true true 0 ( 0.8)]
] -83.3 MRshow
1.000 UL
LTb
1375 3262 M
63 0 V
5311 0 R
-63 0 V
stroke
1225 3262 M
[ [(Helvetica) 250.0 0.0 true true 0 ( 0.85)]
] -83.3 MRshow
1.000 UL
LTb
1375 3754 M
63 0 V
5311 0 R
-63 0 V
stroke
1225 3754 M
[ [(Helvetica) 250.0 0.0 true true 0 ( 0.9)]
] -83.3 MRshow
1.000 UL
LTb
1375 4247 M
63 0 V
5311 0 R
-63 0 V
stroke
1225 4247 M
[ [(Helvetica) 250.0 0.0 true true 0 ( 0.95)]
] -83.3 MRshow
1.000 UL
LTb
1375 4739 M
63 0 V
5311 0 R
-63 0 V
stroke
1225 4739 M
[ [(Helvetica) 250.0 0.0 true true 0 ( 1)]
] -83.3 MRshow
1.000 UL
LTb
1375 800 M
0 63 V
0 3876 R
0 -63 V
stroke
1375 550 M
[ [(Helvetica) 250.0 0.0 true true 0 ( 1000)]
] -83.3 MCshow
1.000 UL
LTb
2047 800 M
0 63 V
0 3876 R
0 -63 V
stroke
2047 550 M
[ [(Helvetica) 250.0 0.0 true true 0 ( 2000)]
] -83.3 MCshow
1.000 UL
LTb
2719 800 M
0 63 V
0 3876 R
0 -63 V
stroke
2719 550 M
[ [(Helvetica) 250.0 0.0 true true 0 ( 3000)]
] -83.3 MCshow
1.000 UL
LTb
3390 800 M
0 63 V
0 3876 R
0 -63 V
stroke
3390 550 M
[ [(Helvetica) 250.0 0.0 true true 0 ( 4000)]
] -83.3 MCshow
1.000 UL
LTb
4062 800 M
0 63 V
0 3876 R
0 -63 V
stroke
4062 550 M
[ [(Helvetica) 250.0 0.0 true true 0 ( 5000)]
] -83.3 MCshow
1.000 UL
LTb
4734 800 M
0 63 V
0 3876 R
0 -63 V
stroke
4734 550 M
[ [(Helvetica) 250.0 0.0 true true 0 ( 6000)]
] -83.3 MCshow
1.000 UL
LTb
5406 800 M
0 63 V
0 3876 R
0 -63 V
stroke
5406 550 M
[ [(Helvetica) 250.0 0.0 true true 0 ( 7000)]
] -83.3 MCshow
1.000 UL
LTb
6077 800 M
0 63 V
0 3876 R
0 -63 V
stroke
6077 550 M
[ [(Helvetica) 250.0 0.0 true true 0 ( 8000)]
] -83.3 MCshow
1.000 UL
LTb
6749 800 M
0 63 V
0 3876 R
0 -63 V
stroke
6749 550 M
[ [(Helvetica) 250.0 0.0 true true 0 ( 9000)]
] -83.3 MCshow
1.000 UL
LTb
1.000 UL
LTb
1375 4739 N
0 -3939 V
5374 0 V
0 3939 V
-5374 0 V
Z stroke
LCb setrgbcolor
200 2769 M
currentpoint gsave translate -270 rotate 0 0 moveto
[ [(Helvetica) 250.0 0.0 true true 0 (Recall)]
] -83.3 MCshow
grestore
LTb
LCb setrgbcolor
4062 175 M
[ [(Helvetica) 250.0 0.0 true true 0 (Alphabet Size)]
] -83.3 MCshow
LTb
1.000 UP
1.000 UL
LTb
% Begin plot #1
1.000 UP
1.000 UL
LT0
1375 3631 Pls
1375 4223 Pls
1375 4192 Pls
1375 4321 Pls
1375 4598 Pls
1375 3929 Pls
1375 4517 Pls
1375 4372 Pls
1375 3942 Pls
1375 4223 Pls
1375 4510 Pls
1375 4408 Pls
1375 3900 Pls
1375 3842 Pls
1375 4254 Pls
1375 4162 Pls
1375 3065 Pls
1375 3808 Pls
1375 4169 Pls
1375 4153 Pls
1375 2277 Pls
1375 3426 Pls
1375 4036 Pls
1375 4324 Pls
1375 4000 Pls
1375 4083 Pls
1375 3895 Pls
1375 4065 Pls
1375 3508 Pls
1375 3317 Pls
1375 3895 Pls
1375 4324 Pls
1375 3262 Pls
1375 4301 Pls
1375 4387 Pls
1375 4273 Pls
1375 3016 Pls
1375 3973 Pls
1375 4528 Pls
1375 4117 Pls
1375 4317 Pls
1375 4388 Pls
1375 4511 Pls
1375 4485 Pls
1375 3768 Pls
1375 4237 Pls
1375 4087 Pls
1375 4476 Pls
1375 4434 Pls
1375 4205 Pls
1375 4326 Pls
1375 4233 Pls
1375 4270 Pls
1375 4278 Pls
1375 4122 Pls
1375 4389 Pls
1375 3637 Pls
1375 4282 Pls
1375 4180 Pls
1375 4178 Pls
1375 2770 Pls
1375 3426 Pls
1375 4247 Pls
1375 4376 Pls
1375 3262 Pls
1375 3535 Pls
1375 4176 Pls
1375 3962 Pls
1375 3262 Pls
1375 4192 Pls
1375 4176 Pls
1375 4376 Pls
1375 4000 Pls
1375 3864 Pls
1375 3895 Pls
1375 4169 Pls
1375 4247 Pls
1375 4083 Pls
1375 4387 Pls
1375 4428 Pls
1375 4475 Pls
1375 4196 Pls
1375 4415 Pls
1375 4405 Pls
1375 4739 Pls
1375 4263 Pls
1375 4153 Pls
1375 4610 Pls
1375 4036 Pls
1375 4441 Pls
1375 4286 Pls
1375 4069 Pls
1375 4575 Pls
1375 4189 Pls
1375 4283 Pls
1375 4332 Pls
1375 4064 Pls
1375 4320 Pls
1375 4188 Pls
1375 4151 Pls
1375 3262 Pls
1375 4301 Pls
1375 4036 Pls
1375 4117 Pls
1375 4000 Pls
1375 4192 Pls
1375 4036 Pls
1375 4065 Pls
1375 4247 Pls
1375 3864 Pls
1375 4387 Pls
1375 4324 Pls
1375 3262 Pls
1375 3317 Pls
1375 4036 Pls
1375 4324 Pls
1375 3508 Pls
1375 4192 Pls
1375 4458 Pls
1375 4065 Pls
1375 4269 Pls
1375 4039 Pls
1375 4348 Pls
1375 4571 Pls
1375 4088 Pls
1375 4508 Pls
1375 4164 Pls
1375 4233 Pls
1375 4296 Pls
1375 4386 Pls
1375 4419 Pls
1375 4352 Pls
1375 4493 Pls
1375 4099 Pls
1375 4687 Pls
1375 4393 Pls
1375 4255 Pls
1375 4339 Pls
1375 4132 Pls
1375 4605 Pls
1375 3754 Pls
1375 3754 Pls
1375 4317 Pls
1375 4376 Pls
1375 4247 Pls
1375 3973 Pls
1375 4247 Pls
1375 4532 Pls
1375 3754 Pls
1375 3864 Pls
1375 4387 Pls
1375 4428 Pls
1375 4247 Pls
1375 4301 Pls
1375 4176 Pls
1375 4376 Pls
1375 4493 Pls
1375 4520 Pls
1375 4458 Pls
1375 4273 Pls
1375 4348 Pls
1375 4358 Pls
1375 4358 Pls
1375 4476 Pls
1375 4065 Pls
1375 4611 Pls
1375 4519 Pls
1375 4401 Pls
1375 4370 Pls
1375 3781 Pls
1375 4240 Pls
1375 4358 Pls
1375 4214 Pls
1375 4086 Pls
1375 4557 Pls
1375 4336 Pls
1375 4050 Pls
1375 3699 Pls
1375 4159 Pls
1375 4390 Pls
1375 3754 Pls
1375 3864 Pls
1375 4528 Pls
1375 4065 Pls
1375 4493 Pls
1375 4192 Pls
1375 4387 Pls
1375 4065 Pls
1375 4247 Pls
1375 3864 Pls
1375 3825 Pls
1375 4480 Pls
1375 4493 Pls
1375 4301 Pls
1375 3965 Pls
1375 4428 Pls
1375 3016 Pls
1375 4630 Pls
1375 4669 Pls
1375 4324 Pls
2047 4147 Pls
2047 4026 Pls
2047 4275 Pls
2047 4331 Pls
2047 4493 Pls
2047 4003 Pls
2047 4433 Pls
2047 4557 Pls
2047 3876 Pls
2047 4410 Pls
2047 4229 Pls
2047 4502 Pls
2047 3712 Pls
2047 3595 Pls
2047 4199 Pls
2047 4314 Pls
2047 3787 Pls
2047 3718 Pls
2047 3918 Pls
2047 4066 Pls
2047 2277 Pls
2047 4301 Pls
2047 4598 Pls
2047 4273 Pls
2047 3016 Pls
2047 3864 Pls
2047 4176 Pls
2047 4324 Pls
2047 3262 Pls
2047 4411 Pls
2047 4387 Pls
2047 4532 Pls
2047 3016 Pls
2047 3645 Pls
2047 4317 Pls
2047 4324 Pls
2047 3754 Pls
2047 3754 Pls
2047 4317 Pls
2047 4221 Pls
2047 4270 Pls
2047 4441 Pls
2047 4216 Pls
2047 4258 Pls
2047 4247 Pls
2047 4187 Pls
2047 4052 Pls
2047 4361 Pls
2047 3660 Pls
2047 4084 Pls
2047 4175 Pls
2047 4218 Pls
2047 4294 Pls
2047 4321 Pls
2047 4322 Pls
2047 4330 Pls
2047 3154 Pls
2047 3874 Pls
2047 4296 Pls
2047 4124 Pls
2047 3754 Pls
2047 3317 Pls
2047 4458 Pls
2047 4376 Pls
2047 4000 Pls
2047 4301 Pls
2047 4387 Pls
2047 4324 Pls
2047 4247 Pls
2047 4083 Pls
2047 4106 Pls
2047 4428 Pls
2047 3754 Pls
2047 4301 Pls
2047 3684 Pls
2047 4221 Pls
2047 3262 Pls
2047 4411 Pls
2047 4036 Pls
2047 4221 Pls
2047 4616 Pls
2047 4274 Pls
2047 4283 Pls
2047 4432 Pls
2047 4352 Pls
2047 4279 Pls
2047 4288 Pls
2047 4558 Pls
2047 4335 Pls
2047 4035 Pls
2047 4207 Pls
2047 4152 Pls
2047 3795 Pls
2047 3977 Pls
2047 4233 Pls
2047 4288 Pls
2047 3679 Pls
2047 3898 Pls
2047 4318 Pls
2047 4122 Pls
2047 3016 Pls
2047 4301 Pls
2047 4247 Pls
2047 4221 Pls
2047 3508 Pls
2047 3754 Pls
2047 4458 Pls
2047 4273 Pls
2047 3508 Pls
2047 3973 Pls
2047 3965 Pls
2047 3962 Pls
2047 4247 Pls
2047 3207 Pls
2047 3965 Pls
2047 4273 Pls
2047 4000 Pls
2047 4520 Pls
2047 4387 Pls
2047 4376 Pls
2047 3759 Pls
2047 4221 Pls
2047 4480 Pls
2047 4386 Pls
2047 4194 Pls
2047 4308 Pls
2047 4253 Pls
2047 4341 Pls
2047 4294 Pls
2047 4286 Pls
2047 4290 Pls
2047 4294 Pls
2047 4206 Pls
2047 4268 Pls
2047 4247 Pls
2047 4509 Pls
2047 4097 Pls
2047 4125 Pls
2047 4057 Pls
2047 4293 Pls
2047 3262 Pls
2047 4192 Pls
2047 4176 Pls
2047 4221 Pls
2047 4000 Pls
2047 3864 Pls
2047 3895 Pls
2047 4376 Pls
2047 3262 Pls
2047 3645 Pls
2047 4036 Pls
2047 4480 Pls
2047 3754 Pls
2047 4192 Pls
2047 4669 Pls
2047 4324 Pls
2047 3754 Pls
2047 4083 Pls
2047 4247 Pls
2047 4480 Pls
2047 4401 Pls
2047 4234 Pls
2047 4357 Pls
2047 4459 Pls
2047 4184 Pls
2047 4512 Pls
2047 4372 Pls
2047 4474 Pls
2047 4493 Pls
2047 4186 Pls
2047 4354 Pls
2047 4523 Pls
2047 3923 Pls
2047 4431 Pls
2047 4450 Pls
2047 4513 Pls
2047 3926 Pls
2047 3874 Pls
2047 4328 Pls
2047 4137 Pls
2047 4000 Pls
2047 3973 Pls
2047 4247 Pls
2047 4221 Pls
2047 4247 Pls
2047 4192 Pls
2047 3965 Pls
2047 4273 Pls
2047 4000 Pls
2047 4411 Pls
2047 4387 Pls
2047 4532 Pls
2047 4739 Pls
2047 4083 Pls
2047 4528 Pls
2047 4221 Pls
2047 4247 Pls
2047 3864 Pls
2047 4528 Pls
2047 4376 Pls
2719 4270 Pls
2719 3953 Pls
2719 4329 Pls
2719 4113 Pls
2719 3224 Pls
2719 3867 Pls
2719 4496 Pls
2719 4515 Pls
2719 4434 Pls
2719 3661 Pls
2719 4308 Pls
2719 4459 Pls
2719 3614 Pls
2719 3896 Pls
2719 3879 Pls
2719 4455 Pls
2719 3820 Pls
2719 3495 Pls
2719 4107 Pls
2719 4354 Pls
2719 2031 Pls
2719 4083 Pls
2719 3754 Pls
2719 3910 Pls
2719 3508 Pls
2719 4083 Pls
2719 4317 Pls
2719 4117 Pls
2719 4000 Pls
2719 3317 Pls
2719 4387 Pls
2719 4428 Pls
2719 3262 Pls
2719 3973 Pls
2719 3825 Pls
2719 4169 Pls
2719 3508 Pls
2719 3317 Pls
2719 4247 Pls
2719 4480 Pls
2719 4270 Pls
2719 4598 Pls
2719 4388 Pls
2719 4522 Pls
2719 4229 Pls
2719 4244 Pls
2719 4175 Pls
2719 4284 Pls
2719 3703 Pls
2719 3978 Pls
2719 4458 Pls
2719 4217 Pls
2719 4311 Pls
2719 4060 Pls
2719 4396 Pls
2719 4425 Pls
2719 3459 Pls
2719 4485 Pls
2719 4381 Pls
2719 4354 Pls
2719 3508 Pls
2719 3754 Pls
2719 4247 Pls
2719 4273 Pls
2719 3754 Pls
2719 3645 Pls
2719 4036 Pls
2719 4376 Pls
2719 3016 Pls
2719 3864 Pls
2719 3895 Pls
2719 4169 Pls
2719 4493 Pls
2719 4192 Pls
2719 4247 Pls
2719 4480 Pls
2719 4247 Pls
2719 4083 Pls
2719 4176 Pls
2719 4221 Pls
2719 4329 Pls
2719 4427 Pls
2719 4282 Pls
2719 4347 Pls
2719 4067 Pls
2719 4140 Pls
2719 4259 Pls
2719 4558 Pls
2719 4211 Pls
2719 4415 Pls
2719 4109 Pls
2719 4276 Pls
2719 4352 Pls
2719 4270 Pls
2719 4178 Pls
2719 4349 Pls
2719 4181 Pls
2719 4363 Pls
2719 4383 Pls
2719 4457 Pls
2719 3262 Pls
2719 4083 Pls
2719 4317 Pls
2719 4273 Pls
2719 4000 Pls
2719 3973 Pls
2719 4317 Pls
2719 4221 Pls
2719 4739 Pls
2719 4192 Pls
2719 4036 Pls
2719 4324 Pls
2719 4247 Pls
2719 4301 Pls
2719 4387 Pls
2719 4376 Pls
2719 4493 Pls
2719 4301 Pls
2719 4458 Pls
2719 4169 Pls
2719 4506 Pls
2719 4369 Pls
2719 4355 Pls
2719 4480 Pls
2719 4493 Pls
2719 4447 Pls
2719 4243 Pls
2719 4396 Pls
2719 3914 Pls
2719 4040 Pls
2719 4332 Pls
2719 4244 Pls
2719 4598 Pls
2719 4431 Pls
2719 4205 Pls
2719 4390 Pls
2719 3983 Pls
2719 4490 Pls
2719 4072 Pls
2719 4374 Pls
2719 3754 Pls
2719 3535 Pls
2719 4247 Pls
2719 4221 Pls
2719 4000 Pls
2719 3864 Pls
2719 4387 Pls
2719 4532 Pls
2719 3508 Pls
2719 4301 Pls
2719 3754 Pls
2719 4480 Pls
2719 4000 Pls
2719 4083 Pls
2719 4528 Pls
2719 4324 Pls
2719 4493 Pls
2719 4192 Pls
2719 4458 Pls
2719 4480 Pls
2719 4739 Pls
2719 4199 Pls
2719 4229 Pls
2719 4349 Pls
2719 4084 Pls
2719 4168 Pls
2719 4007 Pls
2719 4279 Pls
2719 4211 Pls
2719 4182 Pls
2719 4465 Pls
2719 4358 Pls
2719 4352 Pls
2719 4064 Pls
2719 4247 Pls
2719 4399 Pls
2719 4598 Pls
2719 3675 Pls
2719 4336 Pls
2719 4421 Pls
2719 4000 Pls
2719 4083 Pls
2719 4247 Pls
2719 4169 Pls
2719 4739 Pls
2719 4192 Pls
2719 4247 Pls
2719 4376 Pls
2719 4493 Pls
2719 3864 Pls
2719 4528 Pls
2719 4169 Pls
2719 3754 Pls
2719 4083 Pls
2719 3825 Pls
2719 4584 Pls
2719 4739 Pls
2719 4083 Pls
2719 4387 Pls
2719 4169 Pls
3390 4335 Pls
3390 3902 Pls
3390 4234 Pls
3390 4426 Pls
3390 4261 Pls
3390 4060 Pls
3390 3995 Pls
3390 4560 Pls
3390 4311 Pls
3390 4228 Pls
3390 4076 Pls
3390 4274 Pls
3390 3853 Pls
3390 3251 Pls
3390 4037 Pls
3390 4462 Pls
3390 3262 Pls
3390 3889 Pls
3390 4243 Pls
3390 4495 Pls
3390 3262 Pls
3390 3645 Pls
3390 4247 Pls
3390 3910 Pls
3390 3262 Pls
3390 4520 Pls
3390 4387 Pls
3390 4324 Pls
3390 4000 Pls
3390 3317 Pls
3390 4036 Pls
3390 4324 Pls
3390 3508 Pls
3390 4520 Pls
3390 4036 Pls
3390 4169 Pls
3390 4000 Pls
3390 4411 Pls
3390 4317 Pls
3390 4169 Pls
3390 4147 Pls
3390 4499 Pls
3390 4049 Pls
3390 4132 Pls
3390 4493 Pls
3390 4329 Pls
3390 4441 Pls
3390 4340 Pls
3390 4294 Pls
3390 4099 Pls
3390 4155 Pls
3390 4508 Pls
3390 4170 Pls
3390 4142 Pls
3390 4221 Pls
3390 4408 Pls
3390 3037 Pls
3390 4193 Pls
3390 3883 Pls
3390 4124 Pls
3390 3016 Pls
3390 3645 Pls
3390 4387 Pls
3390 4013 Pls
3390 3016 Pls
3390 3754 Pls
3390 3965 Pls
3390 4169 Pls
3390 3262 Pls
3390 3317 Pls
3390 4176 Pls
3390 4324 Pls
3390 3754 Pls
3390 4192 Pls
3390 4317 Pls
3390 4169 Pls
3390 3508 Pls
3390 4192 Pls
3390 3965 Pls
3390 4324 Pls
3390 4352 Pls
3390 4135 Pls
3390 4480 Pls
3390 4272 Pls
3390 4024 Pls
3390 4324 Pls
3390 4441 Pls
3390 4203 Pls
3390 4311 Pls
3390 4351 Pls
3390 4453 Pls
3390 4285 Pls
3390 4616 Pls
3390 4122 Pls
3390 4268 Pls
3390 4333 Pls
3390 3895 Pls
3390 4189 Pls
3390 4081 Pls
3390 4082 Pls
3390 4493 Pls
3390 3864 Pls
3390 4247 Pls
3390 4376 Pls
3390 4000 Pls
3390 4192 Pls
3390 3684 Pls
3390 4480 Pls
3390 3754 Pls
3390 3754 Pls
3390 4036 Pls
3390 4324 Pls
3390 2770 Pls
3390 4192 Pls
3390 4387 Pls
3390 4376 Pls
3390 4000 Pls
3390 3973 Pls
3390 4176 Pls
3390 4273 Pls
3390 4153 Pls
3390 4318 Pls
3390 4416 Pls
3390 4560 Pls
3390 4598 Pls
3390 3914 Pls
3390 4166 Pls
3390 4484 Pls
3390 4452 Pls
3390 4269 Pls
3390 4393 Pls
3390 4205 Pls
3390 3917 Pls
3390 4435 Pls
3390 4290 Pls
3390 4171 Pls
3390 4099 Pls
3390 4381 Pls
3390 4122 Pls
3390 4420 Pls
3390 3508 Pls
3390 3754 Pls
3390 3895 Pls
3390 4221 Pls
3390 4000 Pls
3390 4083 Pls
3390 4247 Pls
3390 4169 Pls
3390 4000 Pls
3390 4520 Pls
3390 4317 Pls
3390 4324 Pls
3390 4493 Pls
3390 3864 Pls
3390 4317 Pls
3390 4428 Pls
3390 4000 Pls
3390 4630 Pls
3390 4458 Pls
3390 4532 Pls
3390 4211 Pls
3390 4259 Pls
3390 4339 Pls
3390 4292 Pls
3390 4124 Pls
3390 4328 Pls
3390 4329 Pls
3390 4368 Pls
3390 4739 Pls
3390 4225 Pls
3390 4461 Pls
3390 4205 Pls
3390 4598 Pls
3390 4349 Pls
3390 4244 Pls
3390 4398 Pls
3390 4040 Pls
3390 3862 Pls
3390 4265 Pls
3390 4242 Pls
3390 3508 Pls
3390 4192 Pls
3390 3965 Pls
3390 4324 Pls
3390 4493 Pls
3390 3754 Pls
3390 4106 Pls
3390 4532 Pls
3390 4000 Pls
3390 3973 Pls
3390 4036 Pls
3390 4324 Pls
3390 3016 Pls
3390 4301 Pls
3390 4247 Pls
3390 4324 Pls
3390 4247 Pls
3390 4083 Pls
3390 4247 Pls
3390 4376 Pls
4062 4040 Pls
4062 4354 Pls
4062 4375 Pls
4062 4517 Pls
4062 3725 Pls
4062 3511 Pls
4062 4179 Pls
4062 4335 Pls
4062 4181 Pls
4062 4049 Pls
4062 4243 Pls
4062 4182 Pls
4062 3983 Pls
4062 3954 Pls
4062 4431 Pls
4062 4308 Pls
4062 2999 Pls
4062 3987 Pls
4062 4058 Pls
4062 4078 Pls
4062 3016 Pls
4062 4083 Pls
4062 4247 Pls
4062 4221 Pls
4062 4247 Pls
4062 3973 Pls
4062 3895 Pls
4062 4117 Pls
4062 4000 Pls
4062 3973 Pls
4062 4317 Pls
4062 4169 Pls
4062 3508 Pls
4062 4301 Pls
4062 4036 Pls
4062 4169 Pls
4062 4000 Pls
4062 3754 Pls
4062 4387 Pls
4062 4013 Pls
4062 4214 Pls
4062 3997 Pls
4062 4349 Pls
4062 4339 Pls
4062 4229 Pls
4062 4347 Pls
4062 4297 Pls
4062 4129 Pls
4062 3973 Pls
4062 4485 Pls
4062 4342 Pls
4062 3984 Pls
4062 4015 Pls
4062 4286 Pls
4062 4086 Pls
4062 4329 Pls
4062 2826 Pls
4062 3684 Pls
4062 4427 Pls
4062 4323 Pls
4062 3262 Pls
4062 4301 Pls
4062 4106 Pls
4062 4376 Pls
4062 3262 Pls
4062 4192 Pls
4062 4247 Pls
4062 4584 Pls
4062 4247 Pls
4062 3973 Pls
4062 4247 Pls
4062 4273 Pls
4062 3508 Pls
4062 3535 Pls
4062 4106 Pls
4062 4117 Pls
4062 4493 Pls
4062 4083 Pls
4062 4036 Pls
4062 4221 Pls
4062 4598 Pls
4062 4133 Pls
4062 4406 Pls
4062 4482 Pls
4062 4475 Pls
4062 4276 Pls
4062 4293 Pls
4062 4480 Pls
4062 3986 Pls
4062 4122 Pls
4062 4134 Pls
4062 4428 Pls
4062 4030 Pls
4062 4064 Pls
4062 4492 Pls
4062 4368 Pls
4062 4278 Pls
4062 4408 Pls
4062 4195 Pls
4062 4370 Pls
4062 3262 Pls
4062 3973 Pls
4062 4176 Pls
4062 4324 Pls
4062 3016 Pls
4062 4083 Pls
4062 4036 Pls
4062 4221 Pls
4062 3754 Pls
4062 4520 Pls
4062 3825 Pls
4062 4428 Pls
4062 4000 Pls
4062 4301 Pls
4062 4176 Pls
4062 4221 Pls
4062 3262 Pls
4062 3864 Pls
4062 4247 Pls
4062 4376 Pls
4062 4288 Pls
4062 4102 Pls
4062 4298 Pls
4062 4235 Pls
4062 4506 Pls
4062 4520 Pls
4062 4286 Pls
4062 4241 Pls
4062 3989 Pls
4062 3777 Pls
4062 4295 Pls
4062 4480 Pls
4062 4311 Pls
4062 3734 Pls
4062 4567 Pls
4062 4214 Pls
4062 4247 Pls
4062 4101 Pls
4062 4338 Pls
4062 4278 Pls
4062 4000 Pls
4062 3973 Pls
4062 4317 Pls
4062 4324 Pls
4062 3508 Pls
4062 4083 Pls
4062 4317 Pls
4062 4169 Pls
4062 3754 Pls
4062 3535 Pls
4062 4387 Pls
4062 4221 Pls
4062 3754 Pls
4062 4192 Pls
4062 4317 Pls
4062 4273 Pls
4062 4000 Pls
4062 4192 Pls
4062 4528 Pls
4062 4428 Pls
4062 4520 Pls
4062 4250 Pls
4062 4635 Pls
4062 4438 Pls
4062 4598 Pls
4062 4087 Pls
4062 4232 Pls
4062 4303 Pls
4062 4489 Pls
4062 4092 Pls
4062 4350 Pls
4062 4530 Pls
4062 4739 Pls
4062 4196 Pls
4062 4578 Pls
4062 4349 Pls
4062 3761 Pls
4062 4094 Pls
4062 4014 Pls
4062 4021 Pls
4062 3754 Pls
4062 3754 Pls
4062 4247 Pls
4062 4584 Pls
4062 3262 Pls
4062 4192 Pls
4062 4317 Pls
4062 4221 Pls
4062 3754 Pls
4062 4301 Pls
4062 4317 Pls
4062 4376 Pls
4062 3262 Pls
4062 4083 Pls
4062 4036 Pls
4062 4532 Pls
4062 4739 Pls
4062 4630 Pls
4062 4247 Pls
4062 4221 Pls
4734 4138 Pls
4734 4139 Pls
4734 4223 Pls
4734 4480 Pls
4734 4366 Pls
4734 3762 Pls
4734 4187 Pls
4734 4193 Pls
4734 4129 Pls
4734 4410 Pls
4734 4107 Pls
4734 4325 Pls
4734 4012 Pls
4734 3835 Pls
4734 4365 Pls
4734 4502 Pls
4734 3820 Pls
4734 4291 Pls
4734 4169 Pls
4734 4305 Pls
4734 3262 Pls
4734 3535 Pls
4734 4106 Pls
4734 4221 Pls
4734 3262 Pls
4734 3754 Pls
4734 4106 Pls
4734 4065 Pls
4734 3262 Pls
4734 3098 Pls
4734 4247 Pls
4734 4532 Pls
4734 3508 Pls
4734 3535 Pls
4734 4036 Pls
4734 4324 Pls
4734 3262 Pls
4734 4630 Pls
4734 4176 Pls
4734 4687 Pls
4734 3618 Pls
4734 3821 Pls
4734 4255 Pls
4734 4343 Pls
4734 4493 Pls
4734 4161 Pls
4734 4475 Pls
4734 4519 Pls
4734 4311 Pls
4734 3876 Pls
4734 4345 Pls
4734 4307 Pls
4734 4616 Pls
4734 4036 Pls
4734 4237 Pls
4734 4448 Pls
4734 3154 Pls
4734 4217 Pls
4734 4616 Pls
4734 4366 Pls
4734 1046 Pls
4734 3973 Pls
4734 4317 Pls
4734 4013 Pls
4734 3262 Pls
4734 4192 Pls
4734 4317 Pls
4734 4480 Pls
4734 3754 Pls
4734 4192 Pls
4734 4387 Pls
4734 4428 Pls
4734 3754 Pls
4734 4083 Pls
4734 4317 Pls
4734 4376 Pls
4734 3508 Pls
4734 3973 Pls
4734 4247 Pls
4734 4687 Pls
4734 4188 Pls
4734 4017 Pls
4734 4398 Pls
4734 4315 Pls
4734 3650 Pls
4734 4591 Pls
4734 4346 Pls
4734 4474 Pls
4734 3515 Pls
4734 4197 Pls
4734 4243 Pls
4734 4208 Pls
4734 3581 Pls
4734 4252 Pls
4734 4335 Pls
4734 4240 Pls
4734 4311 Pls
4734 4237 Pls
4734 4391 Pls
4734 4457 Pls
4734 3754 Pls
4734 3645 Pls
4734 4176 Pls
4734 4480 Pls
4734 3754 Pls
4734 3973 Pls
4734 4106 Pls
4734 4169 Pls
4734 4000 Pls
4734 3645 Pls
4734 4176 Pls
4734 4117 Pls
4734 4247 Pls
4734 4083 Pls
4734 4036 Pls
4734 4376 Pls
4734 4493 Pls
4734 4083 Pls
4734 4387 Pls
4734 4221 Pls
4734 4243 Pls
4734 4338 Pls
4734 4522 Pls
4734 4528 Pls
4734 4211 Pls
4734 4112 Pls
4734 4192 Pls
4734 4320 Pls
4734 4739 Pls
4734 3918 Pls
4734 4410 Pls
4734 4427 Pls
4734 4411 Pls
4734 4251 Pls
4734 4403 Pls
4734 4395 Pls
4734 4458 Pls
4734 3799 Pls
4734 4500 Pls
4734 4196 Pls
4734 4493 Pls
4734 4083 Pls
4734 3895 Pls
4734 4428 Pls
4734 3508 Pls
4734 3864 Pls
4734 4317 Pls
4734 4480 Pls
4734 4247 Pls
4734 4192 Pls
4734 4036 Pls
4734 4480 Pls
4734 3754 Pls
4734 4411 Pls
4734 4247 Pls
4734 4480 Pls
4734 4493 Pls
4734 4630 Pls
4734 3895 Pls
4734 4273 Pls
4734 4475 Pls
4734 4286 Pls
4734 4322 Pls
4734 4317 Pls
4734 4274 Pls
4734 4478 Pls
4734 4268 Pls
4734 4517 Pls
4734 4161 Pls
4734 4029 Pls
4734 4287 Pls
4734 4473 Pls
4734 4073 Pls
4734 4243 Pls
4734 4401 Pls
4734 4318 Pls
4734 3897 Pls
4734 4207 Pls
4734 4462 Pls
4734 4270 Pls
4734 3262 Pls
4734 3973 Pls
4734 4247 Pls
4734 4428 Pls
4734 4247 Pls
4734 4301 Pls
4734 4247 Pls
4734 4428 Pls
4734 4247 Pls
4734 3973 Pls
4734 4528 Pls
4734 4273 Pls
4734 3754 Pls
4734 3973 Pls
4734 4528 Pls
4734 4428 Pls
4734 4739 Pls
4734 4083 Pls
4734 3965 Pls
4734 4324 Pls
5406 3727 Pls
5406 3960 Pls
5406 4311 Pls
5406 4432 Pls
5406 3651 Pls
5406 4403 Pls
5406 4215 Pls
5406 4410 Pls
5406 3777 Pls
5406 3957 Pls
5406 4242 Pls
5406 4425 Pls
5406 3918 Pls
5406 4175 Pls
5406 4018 Pls
5406 4272 Pls
5406 3492 Pls
5406 3987 Pls
5406 4169 Pls
5406 4310 Pls
5406 3262 Pls
5406 2988 Pls
5406 4176 Pls
5406 4324 Pls
5406 3016 Pls
5406 3207 Pls
5406 3825 Pls
5406 4169 Pls
5406 3508 Pls
5406 3426 Pls
5406 4106 Pls
5406 4221 Pls
5406 3262 Pls
5406 3973 Pls
5406 4387 Pls
5406 4324 Pls
5406 3508 Pls
5406 3973 Pls
5406 4106 Pls
5406 4480 Pls
5406 4165 Pls
5406 4107 Pls
5406 3905 Pls
5406 4522 Pls
5406 4204 Pls
5406 4359 Pls
5406 4396 Pls
5406 4441 Pls
5406 4598 Pls
5406 4195 Pls
5406 4329 Pls
5406 4392 Pls
5406 4153 Pls
5406 4146 Pls
5406 4311 Pls
5406 4280 Pls
5406 4237 Pls
5406 4230 Pls
5406 4311 Pls
5406 4321 Pls
5406 3508 Pls
5406 4192 Pls
5406 4106 Pls
5406 4324 Pls
5406 4247 Pls
5406 3645 Pls
5406 4317 Pls
5406 4169 Pls
5406 3754 Pls
5406 4192 Pls
5406 4317 Pls
5406 3910 Pls
5406 4493 Pls
5406 4301 Pls
5406 4106 Pls
5406 4221 Pls
5406 4000 Pls
5406 4411 Pls
5406 4247 Pls
5406 4065 Pls
5406 4575 Pls
5406 3956 Pls
5406 4202 Pls
5406 4230 Pls
5406 4317 Pls
5406 4435 Pls
5406 4326 Pls
5406 4433 Pls
5406 3900 Pls
5406 4274 Pls
5406 4207 Pls
5406 4511 Pls
5406 4325 Pls
5406 4222 Pls
5406 4231 Pls
5406 4299 Pls
5406 4106 Pls
5406 3668 Pls
5406 4325 Pls
5406 4244 Pls
5406 3016 Pls
5406 4411 Pls
5406 4036 Pls
5406 4221 Pls
5406 3754 Pls
5406 3426 Pls
5406 4247 Pls
5406 3962 Pls
5406 4247 Pls
5406 3864 Pls
5406 4036 Pls
5406 4169 Pls
5406 4000 Pls
5406 4083 Pls
5406 4528 Pls
5406 4376 Pls
5406 4247 Pls
5406 3973 Pls
5406 4106 Pls
5406 4221 Pls
5406 4598 Pls
5406 4288 Pls
5406 4350 Pls
5406 4565 Pls
5406 3942 Pls
5406 4186 Pls
5406 4353 Pls
5406 4447 Pls
5406 3507 Pls
5406 4097 Pls
5406 4157 Pls
5406 4440 Pls
5406 4411 Pls
5406 3859 Pls
5406 4220 Pls
5406 4280 Pls
5406 3645 Pls
5406 4153 Pls
5406 4445 Pls
5406 4514 Pls
5406 4247 Pls
5406 3864 Pls
5406 3965 Pls
5406 4065 Pls
5406 4000 Pls
5406 3754 Pls
5406 4176 Pls
5406 4169 Pls
5406 4493 Pls
5406 4411 Pls
5406 3895 Pls
5406 4169 Pls
5406 4247 Pls
5406 3317 Pls
5406 4247 Pls
5406 4428 Pls
5406 4000 Pls
5406 3645 Pls
5406 4106 Pls
5406 4273 Pls
5406 4458 Pls
5406 4120 Pls
5406 4390 Pls
5406 4526 Pls
5406 4270 Pls
5406 4160 Pls
5406 4451 Pls
5406 4341 Pls
5406 3989 Pls
5406 4278 Pls
5406 4583 Pls
5406 4515 Pls
5406 4222 Pls
5406 4117 Pls
5406 4248 Pls
5406 4384 Pls
5406 4278 Pls
5406 4231 Pls
5406 4391 Pls
5406 4421 Pls
5406 4000 Pls
5406 3864 Pls
5406 4317 Pls
5406 4013 Pls
5406 3262 Pls
5406 3645 Pls
5406 4106 Pls
5406 4273 Pls
5406 4000 Pls
5406 4301 Pls
5406 3895 Pls
5406 4324 Pls
5406 4493 Pls
5406 4301 Pls
5406 4036 Pls
5406 4117 Pls
5406 3508 Pls
5406 4192 Pls
5406 4317 Pls
5406 4324 Pls
6077 3923 Pls
6077 4139 Pls
6077 4326 Pls
6077 4317 Pls
6077 3753 Pls
6077 4223 Pls
6077 3927 Pls
6077 4274 Pls
6077 3843 Pls
6077 3624 Pls
6077 4253 Pls
6077 4370 Pls
6077 3440 Pls
6077 3821 Pls
6077 4187 Pls
6077 4227 Pls
6077 3689 Pls
6077 4193 Pls
6077 3840 Pls
6077 4261 Pls
6077 3016 Pls
6077 3864 Pls
6077 4387 Pls
6077 4117 Pls
6077 2770 Pls
6077 4083 Pls
6077 4247 Pls
6077 4169 Pls
6077 3508 Pls
6077 4301 Pls
6077 4317 Pls
6077 4532 Pls
6077 3016 Pls
6077 4192 Pls
6077 4247 Pls
6077 4117 Pls
6077 4000 Pls
6077 4083 Pls
6077 4106 Pls
6077 4065 Pls
6077 4194 Pls
6077 4581 Pls
6077 4438 Pls
6077 4340 Pls
6077 3505 Pls
6077 4282 Pls
6077 4325 Pls
6077 4291 Pls
6077 4050 Pls
6077 4123 Pls
6077 4401 Pls
6077 4428 Pls
6077 3417 Pls
6077 4003 Pls
6077 4175 Pls
6077 4186 Pls
6077 4739 Pls
6077 3709 Pls
6077 4319 Pls
6077 4505 Pls
6077 3016 Pls
6077 4301 Pls
6077 4247 Pls
6077 4221 Pls
6077 3508 Pls
6077 4301 Pls
6077 4036 Pls
6077 4480 Pls
6077 3754 Pls
6077 4301 Pls
6077 3825 Pls
6077 4480 Pls
6077 4000 Pls
6077 4192 Pls
6077 3965 Pls
6077 4480 Pls
6077 4000 Pls
6077 4411 Pls
6077 4036 Pls
6077 4428 Pls
6077 3756 Pls
6077 4499 Pls
6077 4623 Pls
6077 4485 Pls
6077 4311 Pls
6077 4328 Pls
6077 4214 Pls
6077 4431 Pls
6077 3745 Pls
6077 4259 Pls
6077 4424 Pls
6077 4382 Pls
6077 4270 Pls
6077 4320 Pls
6077 3975 Pls
6077 4476 Pls
6077 4247 Pls
6077 4199 Pls
6077 4180 Pls
6077 4231 Pls
6077 4000 Pls
6077 4192 Pls
6077 3965 Pls
6077 4324 Pls
6077 4000 Pls
6077 4630 Pls
6077 4036 Pls
6077 4376 Pls
6077 4493 Pls
6077 4301 Pls
6077 4387 Pls
6077 4376 Pls
6077 4000 Pls
6077 3973 Pls
6077 4247 Pls
6077 4532 Pls
6077 4739 Pls
6077 3535 Pls
6077 4176 Pls
6077 4169 Pls
6077 4065 Pls
6077 3948 Pls
6077 4306 Pls
6077 4441 Pls
6077 4616 Pls
6077 4493 Pls
6077 4456 Pls
6077 4348 Pls
6077 3989 Pls
6077 4281 Pls
6077 4213 Pls
6077 4292 Pls
6077 3515 Pls
6077 4430 Pls
6077 4408 Pls
6077 4386 Pls
6077 3743 Pls
6077 3866 Pls
6077 4342 Pls
6077 4368 Pls
6077 3016 Pls
6077 3754 Pls
6077 4387 Pls
6077 4324 Pls
6077 3754 Pls
6077 4411 Pls
6077 4106 Pls
6077 3962 Pls
6077 4000 Pls
6077 4083 Pls
6077 4036 Pls
6077 4428 Pls
6077 4493 Pls
6077 3864 Pls
6077 4036 Pls
6077 4376 Pls
6077 4247 Pls
6077 4083 Pls
6077 4528 Pls
6077 4376 Pls
6077 4475 Pls
6077 4739 Pls
6077 4193 Pls
6077 4351 Pls
6077 4184 Pls
6077 4194 Pls
6077 4093 Pls
6077 4308 Pls
6077 3976 Pls
6077 4162 Pls
6077 4353 Pls
6077 4433 Pls
6077 4288 Pls
6077 4195 Pls
6077 4280 Pls
6077 4278 Pls
6077 4294 Pls
6077 3794 Pls
6077 4273 Pls
6077 4256 Pls
6077 3016 Pls
6077 3864 Pls
6077 4176 Pls
6077 4013 Pls
6077 4493 Pls
6077 3973 Pls
6077 4598 Pls
6077 4221 Pls
6077 4000 Pls
6077 3973 Pls
6077 4528 Pls
6077 4324 Pls
6077 4493 Pls
6077 4192 Pls
6077 4247 Pls
6077 4584 Pls
6077 4739 Pls
6077 4083 Pls
6077 4317 Pls
6077 4532 Pls
6749 4012 Pls
6749 4314 Pls
6749 4340 Pls
6749 4463 Pls
6749 4434 Pls
6749 3986 Pls
6749 4371 Pls
6749 4372 Pls
6749 4106 Pls
6749 4265 Pls
6749 4542 Pls
6749 4457 Pls
6749 2535 Pls
6749 4029 Pls
6749 4065 Pls
6749 4466 Pls
6749 4378 Pls
6749 3620 Pls
6749 4103 Pls
6749 4207 Pls
6749 3262 Pls
6749 4083 Pls
6749 4036 Pls
6749 4376 Pls
6749 4000 Pls
6749 3864 Pls
6749 4176 Pls
6749 4273 Pls
6749 3262 Pls
6749 3864 Pls
6749 4387 Pls
6749 4428 Pls
6749 3754 Pls
6749 4083 Pls
6749 4317 Pls
6749 4376 Pls
6749 3016 Pls
6749 3754 Pls
6749 4247 Pls
6749 3962 Pls
6749 4506 Pls
6749 4174 Pls
6749 4331 Pls
6749 4346 Pls
6749 4616 Pls
6749 4406 Pls
6749 4677 Pls
6749 4513 Pls
6749 3942 Pls
6749 4217 Pls
6749 4285 Pls
6749 4421 Pls
6749 4452 Pls
6749 4223 Pls
6749 4270 Pls
6749 4295 Pls
6749 3942 Pls
6749 4142 Pls
6749 4257 Pls
6749 4229 Pls
6749 4000 Pls
6749 3535 Pls
6749 4317 Pls
6749 4428 Pls
6749 4000 Pls
6749 3864 Pls
6749 3965 Pls
6749 4273 Pls
6749 4000 Pls
6749 4083 Pls
6749 4106 Pls
6749 4324 Pls
6749 3754 Pls
6749 4083 Pls
6749 4317 Pls
6749 4273 Pls
6749 4247 Pls
6749 4411 Pls
6749 3895 Pls
6749 4376 Pls
6749 4294 Pls
6749 3809 Pls
6749 4271 Pls
6749 4302 Pls
6749 4288 Pls
6749 4393 Pls
6749 4375 Pls
6749 4569 Pls
6749 4366 Pls
6749 4270 Pls
6749 4471 Pls
6749 4140 Pls
6749 3809 Pls
6749 4353 Pls
6749 4210 Pls
6749 4166 Pls
6749 3820 Pls
6749 3864 Pls
6749 3937 Pls
6749 4130 Pls
6749 4493 Pls
6749 3645 Pls
6749 4387 Pls
6749 4065 Pls
6749 3754 Pls
6749 4301 Pls
6749 4528 Pls
6749 4169 Pls
6749 2523 Pls
6749 4520 Pls
6749 4458 Pls
6749 4273 Pls
6749 3754 Pls
6749 4083 Pls
6749 4387 Pls
6749 4221 Pls
6749 4247 Pls
6749 4192 Pls
6749 4247 Pls
6749 4376 Pls
6749 4366 Pls
6749 4455 Pls
6749 4407 Pls
6749 4521 Pls
6749 4465 Pls
6749 4149 Pls
6749 4571 Pls
6749 4218 Pls
6749 4325 Pls
6749 4324 Pls
6749 4124 Pls
6749 4220 Pls
6749 4630 Pls
6749 4396 Pls
6749 4355 Pls
6749 4127 Pls
6749 4211 Pls
6749 4478 Pls
6749 4248 Pls
6749 4423 Pls
6749 4493 Pls
6749 4411 Pls
6749 4176 Pls
6749 4013 Pls
6749 3754 Pls
6749 3426 Pls
6749 4106 Pls
6749 4324 Pls
6749 3262 Pls
6749 3754 Pls
6749 3895 Pls
6749 4324 Pls
6749 4247 Pls
6749 4520 Pls
6749 4176 Pls
6749 4324 Pls
6749 4000 Pls
6749 3645 Pls
6749 4247 Pls
6749 4428 Pls
6749 4325 Pls
6749 4663 Pls
6749 4150 Pls
6749 4353 Pls
6749 4616 Pls
6749 4417 Pls
6749 4350 Pls
6749 4476 Pls
6749 4184 Pls
6749 4181 Pls
6749 4235 Pls
6749 4442 Pls
6749 4434 Pls
6749 4314 Pls
6749 4383 Pls
6749 4523 Pls
6749 4270 Pls
6749 4475 Pls
6749 4182 Pls
6749 4513 Pls
6749 2770 Pls
6749 3426 Pls
6749 4317 Pls
6749 4376 Pls
6749 3508 Pls
6749 3973 Pls
6749 3965 Pls
6749 4428 Pls
6749 4493 Pls
6749 3864 Pls
6749 4176 Pls
6749 4117 Pls
6749 4247 Pls
6749 3973 Pls
6749 4458 Pls
6749 4532 Pls
6749 4247 Pls
6749 4083 Pls
6749 4247 Pls
6749 4324 Pls
% End plot #1
% Begin plot #2
8.000 UL
LT1
LCb setrgbcolor
5636 1488 M
[ [(Helvetica) 250.0 0.0 true true 0 (Average)]
] -83.3 MRshow
LT1
5786 1488 M
663 0 V
1375 4146 M
672 -10 V
672 32 V
671 -30 V
672 2 V
672 15 V
672 -27 V
671 31 V
672 16 V
% End plot #2
% Begin plot #3
stroke
4.000 UL
LT2
LCb setrgbcolor
5636 1238 M
[ [(Helvetica) 250.0 0.0 true true 0 (Min)]
] -83.3 MRshow
LT2
5786 1238 M
663 0 V
1375 2277 M
672 0 V
672 -246 V
671 739 V
672 56 V
4734 1046 L
672 1942 V
671 -218 V
672 -247 V
% End plot #3
% Begin plot #4
stroke
LT3
LCb setrgbcolor
5636 988 M
[ [(Helvetica) 250.0 0.0 true true 0 (Max)]
] -83.3 MRshow
LT3
5786 988 M
663 0 V
1375 4739 M
672 0 V
672 0 V
671 0 V
672 0 V
672 0 V
672 -141 V
671 141 V
672 -62 V
% End plot #4
stroke
1.000 UL
LTb
1375 4739 N
0 -3939 V
5374 0 V
0 3939 V
-5374 0 V
Z stroke
1.000 UP
1.000 UL
LTb
stroke
grestore
end
showpage
%%Trailer
%%DocumentFonts: Helvetica
