%!PS-Adobe-2.0 EPSF-2.0
%%Title: r_alphabet_size_100-time.eps
%%Creator: gnuplot 4.4 patchlevel 3
%%CreationDate: Fri Jun 14 19:20:12 2013
%%DocumentFonts: (atend)
%%BoundingBox: 50 50 410 302
%%EndComments
%%BeginProlog
/gnudict 256 dict def
gnudict begin
%
% The following true/false flags may be edited by hand if desired.
% The unit line width and grayscale image gamma correction may also be changed.
%
/Color true def
/Blacktext false def
/Solid false def
/Dashlength 1 def
/Landscape false def
/Level1 false def
/Rounded false def
/ClipToBoundingBox false def
/TransparentPatterns false def
/gnulinewidth 5.000 def
/userlinewidth gnulinewidth def
/Gamma 1.0 def
%
/vshift -83 def
/dl1 {
  10.0 Dashlength mul mul
  Rounded { currentlinewidth 0.75 mul sub dup 0 le { pop 0.01 } if } if
} def
/dl2 {
  10.0 Dashlength mul mul
  Rounded { currentlinewidth 0.75 mul add } if
} def
/hpt_ 31.5 def
/vpt_ 31.5 def
/hpt hpt_ def
/vpt vpt_ def
Level1 {} {
/SDict 10 dict def
systemdict /pdfmark known not {
  userdict /pdfmark systemdict /cleartomark get put
} if
SDict begin [
  /Title (r_alphabet_size_100-time.eps)
  /Subject (gnuplot plot)
  /Creator (gnuplot 4.4 patchlevel 3)
  /Author (xjia)
%  /Producer (gnuplot)
%  /Keywords ()
  /CreationDate (Fri Jun 14 19:20:12 2013)
  /DOCINFO pdfmark
end
} ifelse
/doclip {
  ClipToBoundingBox {
    newpath 50 50 moveto 410 50 lineto 410 302 lineto 50 302 lineto closepath
    clip
  } if
} def
%
% Gnuplot Prolog Version 4.4 (August 2010)
%
%/SuppressPDFMark true def
%
/M {moveto} bind def
/L {lineto} bind def
/R {rmoveto} bind def
/V {rlineto} bind def
/N {newpath moveto} bind def
/Z {closepath} bind def
/C {setrgbcolor} bind def
/f {rlineto fill} bind def
/g {setgray} bind def
/Gshow {show} def   % May be redefined later in the file to support UTF-8
/vpt2 vpt 2 mul def
/hpt2 hpt 2 mul def
/Lshow {currentpoint stroke M 0 vshift R 
	Blacktext {gsave 0 setgray show grestore} {show} ifelse} def
/Rshow {currentpoint stroke M dup stringwidth pop neg vshift R
	Blacktext {gsave 0 setgray show grestore} {show} ifelse} def
/Cshow {currentpoint stroke M dup stringwidth pop -2 div vshift R 
	Blacktext {gsave 0 setgray show grestore} {show} ifelse} def
/UP {dup vpt_ mul /vpt exch def hpt_ mul /hpt exch def
  /hpt2 hpt 2 mul def /vpt2 vpt 2 mul def} def
/DL {Color {setrgbcolor Solid {pop []} if 0 setdash}
 {pop pop pop 0 setgray Solid {pop []} if 0 setdash} ifelse} def
/BL {stroke userlinewidth 2 mul setlinewidth
	Rounded {1 setlinejoin 1 setlinecap} if} def
/AL {stroke userlinewidth 2 div setlinewidth
	Rounded {1 setlinejoin 1 setlinecap} if} def
/UL {dup gnulinewidth mul /userlinewidth exch def
	dup 1 lt {pop 1} if 10 mul /udl exch def} def
/PL {stroke userlinewidth setlinewidth
	Rounded {1 setlinejoin 1 setlinecap} if} def
3.8 setmiterlimit
% Default Line colors
/LCw {1 1 1} def
/LCb {0 0 0} def
/LCa {0 0 0} def
/LC0 {1 0 0} def
/LC1 {0 1 0} def
/LC2 {0 0 1} def
/LC3 {1 0 1} def
/LC4 {0 1 1} def
/LC5 {1 1 0} def
/LC6 {0 0 0} def
/LC7 {1 0.3 0} def
/LC8 {0.5 0.5 0.5} def
% Default Line Types
/LTw {PL [] 1 setgray} def
/LTb {BL [] LCb DL} def
/LTa {AL [1 udl mul 2 udl mul] 0 setdash LCa setrgbcolor} def
/LT0 {PL [] LC0 DL} def
/LT1 {PL [4 dl1 2 dl2] LC1 DL} def
/LT2 {PL [2 dl1 3 dl2] LC2 DL} def
/LT3 {PL [1 dl1 1.5 dl2] LC3 DL} def
/LT4 {PL [6 dl1 2 dl2 1 dl1 2 dl2] LC4 DL} def
/LT5 {PL [3 dl1 3 dl2 1 dl1 3 dl2] LC5 DL} def
/LT6 {PL [2 dl1 2 dl2 2 dl1 6 dl2] LC6 DL} def
/LT7 {PL [1 dl1 2 dl2 6 dl1 2 dl2 1 dl1 2 dl2] LC7 DL} def
/LT8 {PL [2 dl1 2 dl2 2 dl1 2 dl2 2 dl1 2 dl2 2 dl1 4 dl2] LC8 DL} def
/Pnt {stroke [] 0 setdash gsave 1 setlinecap M 0 0 V stroke grestore} def
/Dia {stroke [] 0 setdash 2 copy vpt add M
  hpt neg vpt neg V hpt vpt neg V
  hpt vpt V hpt neg vpt V closepath stroke
  Pnt} def
/Pls {stroke [] 0 setdash vpt sub M 0 vpt2 V
  currentpoint stroke M
  hpt neg vpt neg R hpt2 0 V stroke
 } def
/Box {stroke [] 0 setdash 2 copy exch hpt sub exch vpt add M
  0 vpt2 neg V hpt2 0 V 0 vpt2 V
  hpt2 neg 0 V closepath stroke
  Pnt} def
/Crs {stroke [] 0 setdash exch hpt sub exch vpt add M
  hpt2 vpt2 neg V currentpoint stroke M
  hpt2 neg 0 R hpt2 vpt2 V stroke} def
/TriU {stroke [] 0 setdash 2 copy vpt 1.12 mul add M
  hpt neg vpt -1.62 mul V
  hpt 2 mul 0 V
  hpt neg vpt 1.62 mul V closepath stroke
  Pnt} def
/Star {2 copy Pls Crs} def
/BoxF {stroke [] 0 setdash exch hpt sub exch vpt add M
  0 vpt2 neg V hpt2 0 V 0 vpt2 V
  hpt2 neg 0 V closepath fill} def
/TriUF {stroke [] 0 setdash vpt 1.12 mul add M
  hpt neg vpt -1.62 mul V
  hpt 2 mul 0 V
  hpt neg vpt 1.62 mul V closepath fill} def
/TriD {stroke [] 0 setdash 2 copy vpt 1.12 mul sub M
  hpt neg vpt 1.62 mul V
  hpt 2 mul 0 V
  hpt neg vpt -1.62 mul V closepath stroke
  Pnt} def
/TriDF {stroke [] 0 setdash vpt 1.12 mul sub M
  hpt neg vpt 1.62 mul V
  hpt 2 mul 0 V
  hpt neg vpt -1.62 mul V closepath fill} def
/DiaF {stroke [] 0 setdash vpt add M
  hpt neg vpt neg V hpt vpt neg V
  hpt vpt V hpt neg vpt V closepath fill} def
/Pent {stroke [] 0 setdash 2 copy gsave
  translate 0 hpt M 4 {72 rotate 0 hpt L} repeat
  closepath stroke grestore Pnt} def
/PentF {stroke [] 0 setdash gsave
  translate 0 hpt M 4 {72 rotate 0 hpt L} repeat
  closepath fill grestore} def
/Circle {stroke [] 0 setdash 2 copy
  hpt 0 360 arc stroke Pnt} def
/CircleF {stroke [] 0 setdash hpt 0 360 arc fill} def
/C0 {BL [] 0 setdash 2 copy moveto vpt 90 450 arc} bind def
/C1 {BL [] 0 setdash 2 copy moveto
	2 copy vpt 0 90 arc closepath fill
	vpt 0 360 arc closepath} bind def
/C2 {BL [] 0 setdash 2 copy moveto
	2 copy vpt 90 180 arc closepath fill
	vpt 0 360 arc closepath} bind def
/C3 {BL [] 0 setdash 2 copy moveto
	2 copy vpt 0 180 arc closepath fill
	vpt 0 360 arc closepath} bind def
/C4 {BL [] 0 setdash 2 copy moveto
	2 copy vpt 180 270 arc closepath fill
	vpt 0 360 arc closepath} bind def
/C5 {BL [] 0 setdash 2 copy moveto
	2 copy vpt 0 90 arc
	2 copy moveto
	2 copy vpt 180 270 arc closepath fill
	vpt 0 360 arc} bind def
/C6 {BL [] 0 setdash 2 copy moveto
	2 copy vpt 90 270 arc closepath fill
	vpt 0 360 arc closepath} bind def
/C7 {BL [] 0 setdash 2 copy moveto
	2 copy vpt 0 270 arc closepath fill
	vpt 0 360 arc closepath} bind def
/C8 {BL [] 0 setdash 2 copy moveto
	2 copy vpt 270 360 arc closepath fill
	vpt 0 360 arc closepath} bind def
/C9 {BL [] 0 setdash 2 copy moveto
	2 copy vpt 270 450 arc closepath fill
	vpt 0 360 arc closepath} bind def
/C10 {BL [] 0 setdash 2 copy 2 copy moveto vpt 270 360 arc closepath fill
	2 copy moveto
	2 copy vpt 90 180 arc closepath fill
	vpt 0 360 arc closepath} bind def
/C11 {BL [] 0 setdash 2 copy moveto
	2 copy vpt 0 180 arc closepath fill
	2 copy moveto
	2 copy vpt 270 360 arc closepath fill
	vpt 0 360 arc closepath} bind def
/C12 {BL [] 0 setdash 2 copy moveto
	2 copy vpt 180 360 arc closepath fill
	vpt 0 360 arc closepath} bind def
/C13 {BL [] 0 setdash 2 copy moveto
	2 copy vpt 0 90 arc closepath fill
	2 copy moveto
	2 copy vpt 180 360 arc closepath fill
	vpt 0 360 arc closepath} bind def
/C14 {BL [] 0 setdash 2 copy moveto
	2 copy vpt 90 360 arc closepath fill
	vpt 0 360 arc} bind def
/C15 {BL [] 0 setdash 2 copy vpt 0 360 arc closepath fill
	vpt 0 360 arc closepath} bind def
/Rec {newpath 4 2 roll moveto 1 index 0 rlineto 0 exch rlineto
	neg 0 rlineto closepath} bind def
/Square {dup Rec} bind def
/Bsquare {vpt sub exch vpt sub exch vpt2 Square} bind def
/S0 {BL [] 0 setdash 2 copy moveto 0 vpt rlineto BL Bsquare} bind def
/S1 {BL [] 0 setdash 2 copy vpt Square fill Bsquare} bind def
/S2 {BL [] 0 setdash 2 copy exch vpt sub exch vpt Square fill Bsquare} bind def
/S3 {BL [] 0 setdash 2 copy exch vpt sub exch vpt2 vpt Rec fill Bsquare} bind def
/S4 {BL [] 0 setdash 2 copy exch vpt sub exch vpt sub vpt Square fill Bsquare} bind def
/S5 {BL [] 0 setdash 2 copy 2 copy vpt Square fill
	exch vpt sub exch vpt sub vpt Square fill Bsquare} bind def
/S6 {BL [] 0 setdash 2 copy exch vpt sub exch vpt sub vpt vpt2 Rec fill Bsquare} bind def
/S7 {BL [] 0 setdash 2 copy exch vpt sub exch vpt sub vpt vpt2 Rec fill
	2 copy vpt Square fill Bsquare} bind def
/S8 {BL [] 0 setdash 2 copy vpt sub vpt Square fill Bsquare} bind def
/S9 {BL [] 0 setdash 2 copy vpt sub vpt vpt2 Rec fill Bsquare} bind def
/S10 {BL [] 0 setdash 2 copy vpt sub vpt Square fill 2 copy exch vpt sub exch vpt Square fill
	Bsquare} bind def
/S11 {BL [] 0 setdash 2 copy vpt sub vpt Square fill 2 copy exch vpt sub exch vpt2 vpt Rec fill
	Bsquare} bind def
/S12 {BL [] 0 setdash 2 copy exch vpt sub exch vpt sub vpt2 vpt Rec fill Bsquare} bind def
/S13 {BL [] 0 setdash 2 copy exch vpt sub exch vpt sub vpt2 vpt Rec fill
	2 copy vpt Square fill Bsquare} bind def
/S14 {BL [] 0 setdash 2 copy exch vpt sub exch vpt sub vpt2 vpt Rec fill
	2 copy exch vpt sub exch vpt Square fill Bsquare} bind def
/S15 {BL [] 0 setdash 2 copy Bsquare fill Bsquare} bind def
/D0 {gsave translate 45 rotate 0 0 S0 stroke grestore} bind def
/D1 {gsave translate 45 rotate 0 0 S1 stroke grestore} bind def
/D2 {gsave translate 45 rotate 0 0 S2 stroke grestore} bind def
/D3 {gsave translate 45 rotate 0 0 S3 stroke grestore} bind def
/D4 {gsave translate 45 rotate 0 0 S4 stroke grestore} bind def
/D5 {gsave translate 45 rotate 0 0 S5 stroke grestore} bind def
/D6 {gsave translate 45 rotate 0 0 S6 stroke grestore} bind def
/D7 {gsave translate 45 rotate 0 0 S7 stroke grestore} bind def
/D8 {gsave translate 45 rotate 0 0 S8 stroke grestore} bind def
/D9 {gsave translate 45 rotate 0 0 S9 stroke grestore} bind def
/D10 {gsave translate 45 rotate 0 0 S10 stroke grestore} bind def
/D11 {gsave translate 45 rotate 0 0 S11 stroke grestore} bind def
/D12 {gsave translate 45 rotate 0 0 S12 stroke grestore} bind def
/D13 {gsave translate 45 rotate 0 0 S13 stroke grestore} bind def
/D14 {gsave translate 45 rotate 0 0 S14 stroke grestore} bind def
/D15 {gsave translate 45 rotate 0 0 S15 stroke grestore} bind def
/DiaE {stroke [] 0 setdash vpt add M
  hpt neg vpt neg V hpt vpt neg V
  hpt vpt V hpt neg vpt V closepath stroke} def
/BoxE {stroke [] 0 setdash exch hpt sub exch vpt add M
  0 vpt2 neg V hpt2 0 V 0 vpt2 V
  hpt2 neg 0 V closepath stroke} def
/TriUE {stroke [] 0 setdash vpt 1.12 mul add M
  hpt neg vpt -1.62 mul V
  hpt 2 mul 0 V
  hpt neg vpt 1.62 mul V closepath stroke} def
/TriDE {stroke [] 0 setdash vpt 1.12 mul sub M
  hpt neg vpt 1.62 mul V
  hpt 2 mul 0 V
  hpt neg vpt -1.62 mul V closepath stroke} def
/PentE {stroke [] 0 setdash gsave
  translate 0 hpt M 4 {72 rotate 0 hpt L} repeat
  closepath stroke grestore} def
/CircE {stroke [] 0 setdash 
  hpt 0 360 arc stroke} def
/Opaque {gsave closepath 1 setgray fill grestore 0 setgray closepath} def
/DiaW {stroke [] 0 setdash vpt add M
  hpt neg vpt neg V hpt vpt neg V
  hpt vpt V hpt neg vpt V Opaque stroke} def
/BoxW {stroke [] 0 setdash exch hpt sub exch vpt add M
  0 vpt2 neg V hpt2 0 V 0 vpt2 V
  hpt2 neg 0 V Opaque stroke} def
/TriUW {stroke [] 0 setdash vpt 1.12 mul add M
  hpt neg vpt -1.62 mul V
  hpt 2 mul 0 V
  hpt neg vpt 1.62 mul V Opaque stroke} def
/TriDW {stroke [] 0 setdash vpt 1.12 mul sub M
  hpt neg vpt 1.62 mul V
  hpt 2 mul 0 V
  hpt neg vpt -1.62 mul V Opaque stroke} def
/PentW {stroke [] 0 setdash gsave
  translate 0 hpt M 4 {72 rotate 0 hpt L} repeat
  Opaque stroke grestore} def
/CircW {stroke [] 0 setdash 
  hpt 0 360 arc Opaque stroke} def
/BoxFill {gsave Rec 1 setgray fill grestore} def
/Density {
  /Fillden exch def
  currentrgbcolor
  /ColB exch def /ColG exch def /ColR exch def
  /ColR ColR Fillden mul Fillden sub 1 add def
  /ColG ColG Fillden mul Fillden sub 1 add def
  /ColB ColB Fillden mul Fillden sub 1 add def
  ColR ColG ColB setrgbcolor} def
/BoxColFill {gsave Rec PolyFill} def
/PolyFill {gsave Density fill grestore grestore} def
/h {rlineto rlineto rlineto gsave closepath fill grestore} bind def
%
% PostScript Level 1 Pattern Fill routine for rectangles
% Usage: x y w h s a XX PatternFill
%	x,y = lower left corner of box to be filled
%	w,h = width and height of box
%	  a = angle in degrees between lines and x-axis
%	 XX = 0/1 for no/yes cross-hatch
%
/PatternFill {gsave /PFa [ 9 2 roll ] def
  PFa 0 get PFa 2 get 2 div add PFa 1 get PFa 3 get 2 div add translate
  PFa 2 get -2 div PFa 3 get -2 div PFa 2 get PFa 3 get Rec
  gsave 1 setgray fill grestore clip
  currentlinewidth 0.5 mul setlinewidth
  /PFs PFa 2 get dup mul PFa 3 get dup mul add sqrt def
  0 0 M PFa 5 get rotate PFs -2 div dup translate
  0 1 PFs PFa 4 get div 1 add floor cvi
	{PFa 4 get mul 0 M 0 PFs V} for
  0 PFa 6 get ne {
	0 1 PFs PFa 4 get div 1 add floor cvi
	{PFa 4 get mul 0 2 1 roll M PFs 0 V} for
 } if
  stroke grestore} def
%
/languagelevel where
 {pop languagelevel} {1} ifelse
 2 lt
	{/InterpretLevel1 true def}
	{/InterpretLevel1 Level1 def}
 ifelse
%
% PostScript level 2 pattern fill definitions
%
/Level2PatternFill {
/Tile8x8 {/PaintType 2 /PatternType 1 /TilingType 1 /BBox [0 0 8 8] /XStep 8 /YStep 8}
	bind def
/KeepColor {currentrgbcolor [/Pattern /DeviceRGB] setcolorspace} bind def
<< Tile8x8
 /PaintProc {0.5 setlinewidth pop 0 0 M 8 8 L 0 8 M 8 0 L stroke} 
>> matrix makepattern
/Pat1 exch def
<< Tile8x8
 /PaintProc {0.5 setlinewidth pop 0 0 M 8 8 L 0 8 M 8 0 L stroke
	0 4 M 4 8 L 8 4 L 4 0 L 0 4 L stroke}
>> matrix makepattern
/Pat2 exch def
<< Tile8x8
 /PaintProc {0.5 setlinewidth pop 0 0 M 0 8 L
	8 8 L 8 0 L 0 0 L fill}
>> matrix makepattern
/Pat3 exch def
<< Tile8x8
 /PaintProc {0.5 setlinewidth pop -4 8 M 8 -4 L
	0 12 M 12 0 L stroke}
>> matrix makepattern
/Pat4 exch def
<< Tile8x8
 /PaintProc {0.5 setlinewidth pop -4 0 M 8 12 L
	0 -4 M 12 8 L stroke}
>> matrix makepattern
/Pat5 exch def
<< Tile8x8
 /PaintProc {0.5 setlinewidth pop -2 8 M 4 -4 L
	0 12 M 8 -4 L 4 12 M 10 0 L stroke}
>> matrix makepattern
/Pat6 exch def
<< Tile8x8
 /PaintProc {0.5 setlinewidth pop -2 0 M 4 12 L
	0 -4 M 8 12 L 4 -4 M 10 8 L stroke}
>> matrix makepattern
/Pat7 exch def
<< Tile8x8
 /PaintProc {0.5 setlinewidth pop 8 -2 M -4 4 L
	12 0 M -4 8 L 12 4 M 0 10 L stroke}
>> matrix makepattern
/Pat8 exch def
<< Tile8x8
 /PaintProc {0.5 setlinewidth pop 0 -2 M 12 4 L
	-4 0 M 12 8 L -4 4 M 8 10 L stroke}
>> matrix makepattern
/Pat9 exch def
/Pattern1 {PatternBgnd KeepColor Pat1 setpattern} bind def
/Pattern2 {PatternBgnd KeepColor Pat2 setpattern} bind def
/Pattern3 {PatternBgnd KeepColor Pat3 setpattern} bind def
/Pattern4 {PatternBgnd KeepColor Landscape {Pat5} {Pat4} ifelse setpattern} bind def
/Pattern5 {PatternBgnd KeepColor Landscape {Pat4} {Pat5} ifelse setpattern} bind def
/Pattern6 {PatternBgnd KeepColor Landscape {Pat9} {Pat6} ifelse setpattern} bind def
/Pattern7 {PatternBgnd KeepColor Landscape {Pat8} {Pat7} ifelse setpattern} bind def
} def
%
%
%End of PostScript Level 2 code
%
/PatternBgnd {
  TransparentPatterns {} {gsave 1 setgray fill grestore} ifelse
} def
%
% Substitute for Level 2 pattern fill codes with
% grayscale if Level 2 support is not selected.
%
/Level1PatternFill {
/Pattern1 {0.250 Density} bind def
/Pattern2 {0.500 Density} bind def
/Pattern3 {0.750 Density} bind def
/Pattern4 {0.125 Density} bind def
/Pattern5 {0.375 Density} bind def
/Pattern6 {0.625 Density} bind def
/Pattern7 {0.875 Density} bind def
} def
%
% Now test for support of Level 2 code
%
Level1 {Level1PatternFill} {Level2PatternFill} ifelse
%
/Symbol-Oblique /Symbol findfont [1 0 .167 1 0 0] makefont
dup length dict begin {1 index /FID eq {pop pop} {def} ifelse} forall
currentdict end definefont pop
/MFshow {
   { dup 5 get 3 ge
     { 5 get 3 eq {gsave} {grestore} ifelse }
     {dup dup 0 get findfont exch 1 get scalefont setfont
     [ currentpoint ] exch dup 2 get 0 exch R dup 5 get 2 ne {dup dup 6
     get exch 4 get {Gshow} {stringwidth pop 0 R} ifelse }if dup 5 get 0 eq
     {dup 3 get {2 get neg 0 exch R pop} {pop aload pop M} ifelse} {dup 5
     get 1 eq {dup 2 get exch dup 3 get exch 6 get stringwidth pop -2 div
     dup 0 R} {dup 6 get stringwidth pop -2 div 0 R 6 get
     show 2 index {aload pop M neg 3 -1 roll neg R pop pop} {pop pop pop
     pop aload pop M} ifelse }ifelse }ifelse }
     ifelse }
   forall} def
/Gswidth {dup type /stringtype eq {stringwidth} {pop (n) stringwidth} ifelse} def
/MFwidth {0 exch { dup 5 get 3 ge { 5 get 3 eq { 0 } { pop } ifelse }
 {dup 3 get{dup dup 0 get findfont exch 1 get scalefont setfont
     6 get Gswidth pop add} {pop} ifelse} ifelse} forall} def
/MLshow { currentpoint stroke M
  0 exch R
  Blacktext {gsave 0 setgray MFshow grestore} {MFshow} ifelse } bind def
/MRshow { currentpoint stroke M
  exch dup MFwidth neg 3 -1 roll R
  Blacktext {gsave 0 setgray MFshow grestore} {MFshow} ifelse } bind def
/MCshow { currentpoint stroke M
  exch dup MFwidth -2 div 3 -1 roll R
  Blacktext {gsave 0 setgray MFshow grestore} {MFshow} ifelse } bind def
/XYsave    { [( ) 1 2 true false 3 ()] } bind def
/XYrestore { [( ) 1 2 true false 4 ()] } bind def
end
%%EndProlog
gnudict begin
gsave
doclip
50 50 translate
0.050 0.050 scale
0 setgray
newpath
(Helvetica) findfont 250 scalefont setfont
1.000 UL
LTb
1225 800 M
63 0 V
5461 0 R
-63 0 V
stroke
1075 800 M
[ [(Helvetica) 250.0 0.0 true true 0 ( 0)]
] -83.3 MRshow
1.000 UL
LTb
1225 1457 M
63 0 V
5461 0 R
-63 0 V
stroke
1075 1457 M
[ [(Helvetica) 250.0 0.0 true true 0 ( 0.5)]
] -83.3 MRshow
1.000 UL
LTb
1225 2113 M
63 0 V
5461 0 R
-63 0 V
stroke
1075 2113 M
[ [(Helvetica) 250.0 0.0 true true 0 ( 1)]
] -83.3 MRshow
1.000 UL
LTb
1225 2770 M
63 0 V
5461 0 R
-63 0 V
stroke
1075 2770 M
[ [(Helvetica) 250.0 0.0 true true 0 ( 1.5)]
] -83.3 MRshow
1.000 UL
LTb
1225 3426 M
63 0 V
5461 0 R
-63 0 V
stroke
1075 3426 M
[ [(Helvetica) 250.0 0.0 true true 0 ( 2)]
] -83.3 MRshow
1.000 UL
LTb
1225 4083 M
63 0 V
5461 0 R
-63 0 V
stroke
1075 4083 M
[ [(Helvetica) 250.0 0.0 true true 0 ( 2.5)]
] -83.3 MRshow
1.000 UL
LTb
1225 4739 M
63 0 V
5461 0 R
-63 0 V
stroke
1075 4739 M
[ [(Helvetica) 250.0 0.0 true true 0 ( 3)]
] -83.3 MRshow
1.000 UL
LTb
1225 800 M
0 63 V
0 3876 R
0 -63 V
stroke
1225 550 M
[ [(Helvetica) 250.0 0.0 true true 0 ( 100)]
] -83.3 MCshow
1.000 UL
LTb
1916 800 M
0 63 V
0 3876 R
0 -63 V
stroke
1916 550 M
[ [(Helvetica) 250.0 0.0 true true 0 ( 200)]
] -83.3 MCshow
1.000 UL
LTb
2606 800 M
0 63 V
0 3876 R
0 -63 V
stroke
2606 550 M
[ [(Helvetica) 250.0 0.0 true true 0 ( 300)]
] -83.3 MCshow
1.000 UL
LTb
3297 800 M
0 63 V
0 3876 R
0 -63 V
stroke
3297 550 M
[ [(Helvetica) 250.0 0.0 true true 0 ( 400)]
] -83.3 MCshow
1.000 UL
LTb
3987 800 M
0 63 V
0 3876 R
0 -63 V
stroke
3987 550 M
[ [(Helvetica) 250.0 0.0 true true 0 ( 500)]
] -83.3 MCshow
1.000 UL
LTb
4678 800 M
0 63 V
0 3876 R
0 -63 V
stroke
4678 550 M
[ [(Helvetica) 250.0 0.0 true true 0 ( 600)]
] -83.3 MCshow
1.000 UL
LTb
5368 800 M
0 63 V
0 3876 R
0 -63 V
stroke
5368 550 M
[ [(Helvetica) 250.0 0.0 true true 0 ( 700)]
] -83.3 MCshow
1.000 UL
LTb
6059 800 M
0 63 V
0 3876 R
0 -63 V
stroke
6059 550 M
[ [(Helvetica) 250.0 0.0 true true 0 ( 800)]
] -83.3 MCshow
1.000 UL
LTb
6749 800 M
0 63 V
0 3876 R
0 -63 V
stroke
6749 550 M
[ [(Helvetica) 250.0 0.0 true true 0 ( 900)]
] -83.3 MCshow
1.000 UL
LTb
1.000 UL
LTb
1225 4739 N
0 -3939 V
5524 0 V
0 3939 V
-5524 0 V
Z stroke
LCb setrgbcolor
200 2769 M
currentpoint gsave translate -270 rotate 0 0 moveto
[ [(Helvetica) 250.0 0.0 true true 0 (Time \(sec\))]
] -83.3 MCshow
grestore
LTb
LCb setrgbcolor
3987 175 M
[ [(Helvetica) 250.0 0.0 true true 0 (Alphabet Size)]
] -83.3 MCshow
LTb
1.000 UP
1.000 UL
LTb
% Begin plot #1
1.000 UP
1.000 UL
LT0
1225 802 Pls
1225 802 Pls
1225 803 Pls
1225 804 Pls
1225 801 Pls
1225 802 Pls
1225 803 Pls
1225 804 Pls
1225 801 Pls
1225 802 Pls
1225 802 Pls
1225 804 Pls
1225 801 Pls
1225 801 Pls
1225 802 Pls
1225 803 Pls
1225 800 Pls
1225 801 Pls
1225 801 Pls
1225 802 Pls
1225 801 Pls
1225 801 Pls
1225 802 Pls
1225 802 Pls
1225 801 Pls
1225 802 Pls
1225 802 Pls
1225 802 Pls
1225 801 Pls
1225 802 Pls
1225 803 Pls
1225 803 Pls
1225 802 Pls
1225 802 Pls
1225 803 Pls
1225 803 Pls
1225 802 Pls
1225 803 Pls
1225 803 Pls
1225 804 Pls
1225 812 Pls
1225 817 Pls
1225 819 Pls
1225 826 Pls
1225 810 Pls
1225 812 Pls
1225 817 Pls
1225 822 Pls
1225 807 Pls
1225 812 Pls
1225 814 Pls
1225 819 Pls
1225 806 Pls
1225 811 Pls
1225 812 Pls
1225 816 Pls
1225 804 Pls
1225 807 Pls
1225 810 Pls
1225 813 Pls
1225 811 Pls
1225 816 Pls
1225 819 Pls
1225 822 Pls
1225 816 Pls
1225 823 Pls
1225 825 Pls
1225 829 Pls
1225 822 Pls
1225 828 Pls
1225 834 Pls
1225 837 Pls
1225 830 Pls
1225 835 Pls
1225 841 Pls
1225 844 Pls
1225 836 Pls
1225 846 Pls
1225 850 Pls
1225 855 Pls
1225 840 Pls
1225 841 Pls
1225 872 Pls
1225 895 Pls
1225 833 Pls
1225 857 Pls
1225 867 Pls
1225 880 Pls
1225 825 Pls
1225 829 Pls
1225 852 Pls
1225 874 Pls
1225 819 Pls
1225 828 Pls
1225 834 Pls
1225 852 Pls
1225 817 Pls
1225 821 Pls
1225 825 Pls
1225 839 Pls
1225 846 Pls
1225 858 Pls
1225 876 Pls
1225 890 Pls
1225 874 Pls
1225 892 Pls
1225 905 Pls
1225 926 Pls
1225 907 Pls
1225 910 Pls
1225 949 Pls
1225 963 Pls
1225 950 Pls
1225 974 Pls
1225 988 Pls
1225 1007 Pls
1225 991 Pls
1225 1023 Pls
1225 1018 Pls
1225 1054 Pls
1225 928 Pls
1225 960 Pls
1225 1042 Pls
1225 1110 Pls
1225 897 Pls
1225 939 Pls
1225 1003 Pls
1225 1070 Pls
1225 892 Pls
1225 900 Pls
1225 930 Pls
1225 1009 Pls
1225 861 Pls
1225 868 Pls
1225 925 Pls
1225 949 Pls
1225 846 Pls
1225 847 Pls
1225 869 Pls
1225 897 Pls
1225 947 Pls
1225 999 Pls
1225 1070 Pls
1225 1090 Pls
1225 1068 Pls
1225 1161 Pls
1225 1166 Pls
1225 1209 Pls
1225 1202 Pls
1225 1287 Pls
1225 1330 Pls
1225 1343 Pls
1225 1414 Pls
1225 1433 Pls
1225 1416 Pls
1225 1502 Pls
1225 1505 Pls
1225 1604 Pls
1225 1652 Pls
1225 1687 Pls
1225 1047 Pls
1225 1188 Pls
1225 1298 Pls
1225 1499 Pls
1225 1021 Pls
1225 1070 Pls
1225 1249 Pls
1225 1353 Pls
1225 1008 Pls
1225 1099 Pls
1225 1206 Pls
1225 1273 Pls
1225 946 Pls
1225 979 Pls
1225 1040 Pls
1225 1174 Pls
1225 919 Pls
1225 934 Pls
1225 1005 Pls
1225 1075 Pls
1225 1411 Pls
1225 1567 Pls
1225 1703 Pls
1225 1812 Pls
1225 1696 Pls
1225 2063 Pls
1225 2375 Pls
1225 2485 Pls
1225 2444 Pls
1225 2730 Pls
1225 2965 Pls
1225 3194 Pls
1225 3138 Pls
1225 3406 Pls
1225 3671 Pls
1225 3787 Pls
1225 3638 Pls
1225 4234 Pls
1225 4444 Pls
1225 4299 Pls
1916 802 Pls
1916 802 Pls
1916 803 Pls
1916 805 Pls
1916 801 Pls
1916 802 Pls
1916 803 Pls
1916 804 Pls
1916 801 Pls
1916 802 Pls
1916 803 Pls
1916 804 Pls
1916 801 Pls
1916 801 Pls
1916 802 Pls
1916 803 Pls
1916 800 Pls
1916 801 Pls
1916 801 Pls
1916 802 Pls
1916 801 Pls
1916 801 Pls
1916 802 Pls
1916 802 Pls
1916 801 Pls
1916 802 Pls
1916 802 Pls
1916 802 Pls
1916 801 Pls
1916 802 Pls
1916 802 Pls
1916 803 Pls
1916 802 Pls
1916 802 Pls
1916 803 Pls
1916 803 Pls
1916 802 Pls
1916 803 Pls
1916 803 Pls
1916 804 Pls
1916 811 Pls
1916 817 Pls
1916 821 Pls
1916 832 Pls
1916 811 Pls
1916 814 Pls
1916 817 Pls
1916 822 Pls
1916 807 Pls
1916 810 Pls
1916 814 Pls
1916 821 Pls
1916 806 Pls
1916 810 Pls
1916 812 Pls
1916 817 Pls
1916 804 Pls
1916 807 Pls
1916 810 Pls
1916 813 Pls
1916 811 Pls
1916 813 Pls
1916 820 Pls
1916 823 Pls
1916 817 Pls
1916 822 Pls
1916 825 Pls
1916 831 Pls
1916 823 Pls
1916 827 Pls
1916 834 Pls
1916 836 Pls
1916 829 Pls
1916 837 Pls
1916 841 Pls
1916 846 Pls
1916 839 Pls
1916 844 Pls
1916 848 Pls
1916 851 Pls
1916 843 Pls
1916 866 Pls
1916 886 Pls
1916 907 Pls
1916 839 Pls
1916 847 Pls
1916 858 Pls
1916 879 Pls
1916 829 Pls
1916 834 Pls
1916 853 Pls
1916 864 Pls
1916 820 Pls
1916 827 Pls
1916 842 Pls
1916 847 Pls
1916 816 Pls
1916 830 Pls
1916 831 Pls
1916 838 Pls
1916 850 Pls
1916 866 Pls
1916 868 Pls
1916 898 Pls
1916 878 Pls
1916 895 Pls
1916 912 Pls
1916 920 Pls
1916 905 Pls
1916 935 Pls
1916 962 Pls
1916 964 Pls
1916 951 Pls
1916 977 Pls
1916 989 Pls
1916 1009 Pls
1916 990 Pls
1916 1007 Pls
1916 1032 Pls
1916 1043 Pls
1916 966 Pls
1916 960 Pls
1916 1057 Pls
1916 1139 Pls
1916 887 Pls
1916 928 Pls
1916 976 Pls
1916 1048 Pls
1916 861 Pls
1916 925 Pls
1916 955 Pls
1916 1000 Pls
1916 853 Pls
1916 853 Pls
1916 906 Pls
1916 936 Pls
1916 851 Pls
1916 847 Pls
1916 880 Pls
1916 902 Pls
1916 954 Pls
1916 1019 Pls
1916 1041 Pls
1916 1088 Pls
1916 1076 Pls
1916 1151 Pls
1916 1177 Pls
1916 1207 Pls
1916 1238 Pls
1916 1246 Pls
1916 1297 Pls
1916 1387 Pls
1916 1368 Pls
1916 1308 Pls
1916 1434 Pls
1916 1539 Pls
1916 1513 Pls
1916 1552 Pls
1916 1630 Pls
1916 1720 Pls
1916 1162 Pls
1916 1137 Pls
1916 1299 Pls
1916 1380 Pls
1916 1015 Pls
1916 1089 Pls
1916 1277 Pls
1916 1355 Pls
1916 1006 Pls
1916 1086 Pls
1916 1145 Pls
1916 1253 Pls
1916 960 Pls
1916 986 Pls
1916 1107 Pls
1916 1161 Pls
1916 916 Pls
1916 953 Pls
1916 1016 Pls
1916 1067 Pls
1916 1382 Pls
1916 1542 Pls
1916 1693 Pls
1916 1882 Pls
1916 1994 Pls
1916 2036 Pls
1916 2380 Pls
1916 2316 Pls
1916 2375 Pls
1916 2679 Pls
1916 2934 Pls
1916 3078 Pls
1916 3226 Pls
1916 3340 Pls
1916 3597 Pls
1916 3816 Pls
1916 3781 Pls
1916 4198 Pls
1916 4453 Pls
1916 4642 Pls
2606 801 Pls
2606 802 Pls
2606 803 Pls
2606 805 Pls
2606 801 Pls
2606 801 Pls
2606 803 Pls
2606 804 Pls
2606 801 Pls
2606 801 Pls
2606 802 Pls
2606 804 Pls
2606 801 Pls
2606 801 Pls
2606 802 Pls
2606 803 Pls
2606 800 Pls
2606 801 Pls
2606 802 Pls
2606 802 Pls
2606 801 Pls
2606 801 Pls
2606 802 Pls
2606 802 Pls
2606 801 Pls
2606 802 Pls
2606 802 Pls
2606 802 Pls
2606 801 Pls
2606 802 Pls
2606 802 Pls
2606 803 Pls
2606 802 Pls
2606 802 Pls
2606 803 Pls
2606 803 Pls
2606 802 Pls
2606 803 Pls
2606 803 Pls
2606 804 Pls
2606 814 Pls
2606 814 Pls
2606 821 Pls
2606 833 Pls
2606 811 Pls
2606 814 Pls
2606 818 Pls
2606 823 Pls
2606 809 Pls
2606 811 Pls
2606 815 Pls
2606 819 Pls
2606 806 Pls
2606 807 Pls
2606 812 Pls
2606 816 Pls
2606 806 Pls
2606 807 Pls
2606 810 Pls
2606 813 Pls
2606 810 Pls
2606 814 Pls
2606 819 Pls
2606 824 Pls
2606 815 Pls
2606 822 Pls
2606 828 Pls
2606 829 Pls
2606 823 Pls
2606 829 Pls
2606 830 Pls
2606 835 Pls
2606 829 Pls
2606 836 Pls
2606 841 Pls
2606 845 Pls
2606 839 Pls
2606 845 Pls
2606 848 Pls
2606 852 Pls
2606 842 Pls
2606 865 Pls
2606 877 Pls
2606 915 Pls
2606 831 Pls
2606 845 Pls
2606 864 Pls
2606 880 Pls
2606 829 Pls
2606 839 Pls
2606 843 Pls
2606 862 Pls
2606 821 Pls
2606 829 Pls
2606 842 Pls
2606 846 Pls
2606 817 Pls
2606 822 Pls
2606 831 Pls
2606 839 Pls
2606 851 Pls
2606 862 Pls
2606 873 Pls
2606 887 Pls
2606 877 Pls
2606 896 Pls
2606 915 Pls
2606 920 Pls
2606 904 Pls
2606 941 Pls
2606 948 Pls
2606 958 Pls
2606 953 Pls
2606 973 Pls
2606 990 Pls
2606 1003 Pls
2606 992 Pls
2606 1013 Pls
2606 1030 Pls
2606 1053 Pls
2606 946 Pls
2606 996 Pls
2606 1051 Pls
2606 1144 Pls
2606 910 Pls
2606 988 Pls
2606 988 Pls
2606 1082 Pls
2606 874 Pls
2606 954 Pls
2606 953 Pls
2606 1009 Pls
2606 865 Pls
2606 874 Pls
2606 910 Pls
2606 961 Pls
2606 847 Pls
2606 878 Pls
2606 877 Pls
2606 908 Pls
2606 957 Pls
2606 1000 Pls
2606 1025 Pls
2606 1032 Pls
2606 1098 Pls
2606 1089 Pls
2606 1187 Pls
2606 1211 Pls
2606 1183 Pls
2606 1302 Pls
2606 1288 Pls
2606 1379 Pls
2606 1328 Pls
2606 1430 Pls
2606 1504 Pls
2606 1562 Pls
2606 1445 Pls
2606 1625 Pls
2606 1645 Pls
2606 1701 Pls
2606 1071 Pls
2606 1191 Pls
2606 1309 Pls
2606 1458 Pls
2606 1075 Pls
2606 1126 Pls
2606 1222 Pls
2606 1344 Pls
2606 1001 Pls
2606 993 Pls
2606 1208 Pls
2606 1222 Pls
2606 902 Pls
2606 986 Pls
2606 1033 Pls
2606 1146 Pls
2606 908 Pls
2606 945 Pls
2606 1013 Pls
2606 1069 Pls
2606 1423 Pls
2606 1598 Pls
2606 1704 Pls
2606 1866 Pls
2606 1937 Pls
2606 2132 Pls
2606 2316 Pls
2606 2379 Pls
2606 2499 Pls
2606 2830 Pls
2606 3002 Pls
2606 3085 Pls
2606 3025 Pls
2606 3468 Pls
2606 3784 Pls
2606 3767 Pls
2606 3658 Pls
2606 4382 Pls
2606 4296 Pls
2606 4531 Pls
3297 801 Pls
3297 802 Pls
3297 803 Pls
3297 805 Pls
3297 801 Pls
3297 802 Pls
3297 803 Pls
3297 804 Pls
3297 801 Pls
3297 802 Pls
3297 803 Pls
3297 803 Pls
3297 801 Pls
3297 801 Pls
3297 802 Pls
3297 803 Pls
3297 800 Pls
3297 801 Pls
3297 801 Pls
3297 802 Pls
3297 801 Pls
3297 801 Pls
3297 802 Pls
3297 802 Pls
3297 801 Pls
3297 802 Pls
3297 802 Pls
3297 802 Pls
3297 801 Pls
3297 802 Pls
3297 803 Pls
3297 803 Pls
3297 802 Pls
3297 802 Pls
3297 803 Pls
3297 803 Pls
3297 802 Pls
3297 803 Pls
3297 803 Pls
3297 804 Pls
3297 812 Pls
3297 820 Pls
3297 822 Pls
3297 828 Pls
3297 809 Pls
3297 813 Pls
3297 819 Pls
3297 824 Pls
3297 806 Pls
3297 812 Pls
3297 817 Pls
3297 820 Pls
3297 806 Pls
3297 808 Pls
3297 814 Pls
3297 816 Pls
3297 805 Pls
3297 807 Pls
3297 810 Pls
3297 813 Pls
3297 812 Pls
3297 814 Pls
3297 817 Pls
3297 825 Pls
3297 815 Pls
3297 824 Pls
3297 824 Pls
3297 829 Pls
3297 823 Pls
3297 828 Pls
3297 834 Pls
3297 838 Pls
3297 826 Pls
3297 838 Pls
3297 841 Pls
3297 844 Pls
3297 836 Pls
3297 844 Pls
3297 849 Pls
3297 855 Pls
3297 845 Pls
3297 853 Pls
3297 878 Pls
3297 921 Pls
3297 835 Pls
3297 845 Pls
3297 858 Pls
3297 882 Pls
3297 824 Pls
3297 845 Pls
3297 843 Pls
3297 864 Pls
3297 822 Pls
3297 827 Pls
3297 834 Pls
3297 850 Pls
3297 817 Pls
3297 828 Pls
3297 832 Pls
3297 844 Pls
3297 846 Pls
3297 862 Pls
3297 883 Pls
3297 895 Pls
3297 882 Pls
3297 895 Pls
3297 920 Pls
3297 928 Pls
3297 906 Pls
3297 934 Pls
3297 946 Pls
3297 958 Pls
3297 944 Pls
3297 973 Pls
3297 988 Pls
3297 1001 Pls
3297 978 Pls
3297 1003 Pls
3297 1038 Pls
3297 1062 Pls
3297 951 Pls
3297 993 Pls
3297 1057 Pls
3297 1097 Pls
3297 913 Pls
3297 990 Pls
3297 1000 Pls
3297 1041 Pls
3297 887 Pls
3297 904 Pls
3297 951 Pls
3297 1004 Pls
3297 861 Pls
3297 890 Pls
3297 892 Pls
3297 936 Pls
3297 845 Pls
3297 860 Pls
3297 872 Pls
3297 898 Pls
3297 955 Pls
3297 1002 Pls
3297 1048 Pls
3297 1048 Pls
3297 1066 Pls
3297 1106 Pls
3297 1184 Pls
3297 1164 Pls
3297 1185 Pls
3297 1298 Pls
3297 1288 Pls
3297 1341 Pls
3297 1303 Pls
3297 1457 Pls
3297 1453 Pls
3297 1548 Pls
3297 1512 Pls
3297 1602 Pls
3297 1698 Pls
3297 1754 Pls
3297 1094 Pls
3297 1139 Pls
3297 1332 Pls
3297 1383 Pls
3297 1010 Pls
3297 1030 Pls
3297 1186 Pls
3297 1332 Pls
3297 1026 Pls
3297 1045 Pls
3297 1110 Pls
3297 1232 Pls
3297 984 Pls
3297 1002 Pls
3297 1093 Pls
3297 1201 Pls
3297 882 Pls
3297 929 Pls
3297 986 Pls
3297 1035 Pls
3297 1347 Pls
3297 1612 Pls
3297 1734 Pls
3297 1819 Pls
3297 1974 Pls
3297 2231 Pls
3297 2448 Pls
3297 2576 Pls
3297 2432 Pls
3297 2594 Pls
3297 3018 Pls
3297 3128 Pls
3297 3046 Pls
3297 3528 Pls
3297 3781 Pls
3297 3907 Pls
3297 3965 Pls
3297 4032 Pls
3297 4353 Pls
3297 4625 Pls
3987 801 Pls
3987 804 Pls
3987 803 Pls
3987 805 Pls
3987 801 Pls
3987 802 Pls
3987 803 Pls
3987 804 Pls
3987 801 Pls
3987 801 Pls
3987 802 Pls
3987 803 Pls
3987 801 Pls
3987 801 Pls
3987 802 Pls
3987 803 Pls
3987 800 Pls
3987 801 Pls
3987 802 Pls
3987 802 Pls
3987 801 Pls
3987 801 Pls
3987 802 Pls
3987 802 Pls
3987 801 Pls
3987 802 Pls
3987 802 Pls
3987 802 Pls
3987 801 Pls
3987 802 Pls
3987 802 Pls
3987 803 Pls
3987 802 Pls
3987 802 Pls
3987 803 Pls
3987 803 Pls
3987 802 Pls
3987 803 Pls
3987 803 Pls
3987 804 Pls
3987 813 Pls
3987 817 Pls
3987 821 Pls
3987 829 Pls
3987 810 Pls
3987 814 Pls
3987 814 Pls
3987 823 Pls
3987 808 Pls
3987 811 Pls
3987 814 Pls
3987 823 Pls
3987 805 Pls
3987 808 Pls
3987 814 Pls
3987 818 Pls
3987 804 Pls
3987 808 Pls
3987 809 Pls
3987 815 Pls
3987 810 Pls
3987 815 Pls
3987 818 Pls
3987 823 Pls
3987 816 Pls
3987 822 Pls
3987 824 Pls
3987 829 Pls
3987 826 Pls
3987 827 Pls
3987 833 Pls
3987 839 Pls
3987 831 Pls
3987 837 Pls
3987 841 Pls
3987 846 Pls
3987 840 Pls
3987 844 Pls
3987 847 Pls
3987 852 Pls
3987 848 Pls
3987 864 Pls
3987 894 Pls
3987 916 Pls
3987 835 Pls
3987 842 Pls
3987 853 Pls
3987 891 Pls
3987 828 Pls
3987 832 Pls
3987 854 Pls
3987 865 Pls
3987 820 Pls
3987 826 Pls
3987 839 Pls
3987 850 Pls
3987 823 Pls
3987 824 Pls
3987 832 Pls
3987 841 Pls
3987 847 Pls
3987 867 Pls
3987 886 Pls
3987 890 Pls
3987 879 Pls
3987 897 Pls
3987 915 Pls
3987 913 Pls
3987 915 Pls
3987 929 Pls
3987 947 Pls
3987 964 Pls
3987 956 Pls
3987 969 Pls
3987 990 Pls
3987 1000 Pls
3987 984 Pls
3987 1018 Pls
3987 1021 Pls
3987 1045 Pls
3987 930 Pls
3987 1025 Pls
3987 1059 Pls
3987 1140 Pls
3987 899 Pls
3987 939 Pls
3987 975 Pls
3987 1050 Pls
3987 877 Pls
3987 898 Pls
3987 968 Pls
3987 1018 Pls
3987 853 Pls
3987 870 Pls
3987 909 Pls
3987 939 Pls
3987 842 Pls
3987 851 Pls
3987 877 Pls
3987 905 Pls
3987 974 Pls
3987 1009 Pls
3987 1040 Pls
3987 1076 Pls
3987 1074 Pls
3987 1155 Pls
3987 1177 Pls
3987 1183 Pls
3987 1198 Pls
3987 1249 Pls
3987 1324 Pls
3987 1399 Pls
3987 1360 Pls
3987 1448 Pls
3987 1477 Pls
3987 1497 Pls
3987 1552 Pls
3987 1651 Pls
3987 1678 Pls
3987 1761 Pls
3987 1147 Pls
3987 1104 Pls
3987 1284 Pls
3987 1450 Pls
3987 1017 Pls
3987 1091 Pls
3987 1205 Pls
3987 1305 Pls
3987 979 Pls
3987 1010 Pls
3987 1198 Pls
3987 1277 Pls
3987 925 Pls
3987 946 Pls
3987 1058 Pls
3987 1124 Pls
3987 893 Pls
3987 943 Pls
3987 957 Pls
3987 1082 Pls
3987 1420 Pls
3987 1549 Pls
3987 1759 Pls
3987 1892 Pls
3987 1930 Pls
3987 2191 Pls
3987 2373 Pls
3987 2467 Pls
3987 2467 Pls
3987 2754 Pls
3987 2982 Pls
3987 3100 Pls
3987 3064 Pls
3987 3313 Pls
3987 3612 Pls
3987 3772 Pls
3987 3649 Pls
3987 4174 Pls
3987 4451 Pls
3987 4569 Pls
4678 802 Pls
4678 803 Pls
4678 803 Pls
4678 805 Pls
4678 801 Pls
4678 802 Pls
4678 803 Pls
4678 804 Pls
4678 801 Pls
4678 801 Pls
4678 802 Pls
4678 803 Pls
4678 801 Pls
4678 801 Pls
4678 802 Pls
4678 803 Pls
4678 801 Pls
4678 801 Pls
4678 802 Pls
4678 802 Pls
4678 801 Pls
4678 801 Pls
4678 802 Pls
4678 802 Pls
4678 801 Pls
4678 802 Pls
4678 802 Pls
4678 802 Pls
4678 802 Pls
4678 802 Pls
4678 802 Pls
4678 803 Pls
4678 802 Pls
4678 802 Pls
4678 803 Pls
4678 803 Pls
4678 802 Pls
4678 803 Pls
4678 803 Pls
4678 804 Pls
4678 813 Pls
4678 816 Pls
4678 821 Pls
4678 831 Pls
4678 810 Pls
4678 810 Pls
4678 815 Pls
4678 822 Pls
4678 809 Pls
4678 811 Pls
4678 814 Pls
4678 820 Pls
4678 806 Pls
4678 810 Pls
4678 812 Pls
4678 818 Pls
4678 806 Pls
4678 806 Pls
4678 811 Pls
4678 814 Pls
4678 812 Pls
4678 816 Pls
4678 820 Pls
4678 824 Pls
4678 816 Pls
4678 823 Pls
4678 823 Pls
4678 831 Pls
4678 823 Pls
4678 830 Pls
4678 834 Pls
4678 836 Pls
4678 832 Pls
4678 837 Pls
4678 840 Pls
4678 846 Pls
4678 839 Pls
4678 844 Pls
4678 850 Pls
4678 854 Pls
4678 847 Pls
4678 866 Pls
4678 876 Pls
4678 917 Pls
4678 827 Pls
4678 853 Pls
4678 861 Pls
4678 877 Pls
4678 832 Pls
4678 839 Pls
4678 849 Pls
4678 861 Pls
4678 821 Pls
4678 834 Pls
4678 832 Pls
4678 854 Pls
4678 819 Pls
4678 820 Pls
4678 830 Pls
4678 834 Pls
4678 850 Pls
4678 871 Pls
4678 872 Pls
4678 881 Pls
4678 878 Pls
4678 895 Pls
4678 914 Pls
4678 922 Pls
4678 921 Pls
4678 925 Pls
4678 952 Pls
4678 966 Pls
4678 943 Pls
4678 969 Pls
4678 992 Pls
4678 1006 Pls
4678 966 Pls
4678 1024 Pls
4678 1033 Pls
4678 1039 Pls
4678 946 Pls
4678 966 Pls
4678 1063 Pls
4678 1140 Pls
4678 895 Pls
4678 958 Pls
4678 986 Pls
4678 1093 Pls
4678 893 Pls
4678 898 Pls
4678 969 Pls
4678 1006 Pls
4678 850 Pls
4678 877 Pls
4678 900 Pls
4678 959 Pls
4678 837 Pls
4678 849 Pls
4678 877 Pls
4678 905 Pls
4678 945 Pls
4678 1029 Pls
4678 1051 Pls
4678 1101 Pls
4678 1103 Pls
4678 1150 Pls
4678 1185 Pls
4678 1217 Pls
4678 1199 Pls
4678 1308 Pls
4678 1331 Pls
4678 1355 Pls
4678 1363 Pls
4678 1450 Pls
4678 1504 Pls
4678 1555 Pls
4678 1572 Pls
4678 1593 Pls
4678 1737 Pls
4678 1792 Pls
4678 1073 Pls
4678 1131 Pls
4678 1220 Pls
4678 1414 Pls
4678 985 Pls
4678 1069 Pls
4678 1240 Pls
4678 1357 Pls
4678 1019 Pls
4678 1008 Pls
4678 1155 Pls
4678 1243 Pls
4678 970 Pls
4678 977 Pls
4678 1082 Pls
4678 1178 Pls
4678 887 Pls
4678 959 Pls
4678 992 Pls
4678 1049 Pls
4678 1465 Pls
4678 1608 Pls
4678 1603 Pls
4678 1924 Pls
4678 2012 Pls
4678 2022 Pls
4678 2220 Pls
4678 2520 Pls
4678 2524 Pls
4678 2864 Pls
4678 2977 Pls
4678 3104 Pls
4678 3026 Pls
4678 3496 Pls
4678 3553 Pls
4678 3785 Pls
4678 3652 Pls
4678 4144 Pls
4678 4205 Pls
4678 4620 Pls
5368 801 Pls
5368 802 Pls
5368 804 Pls
5368 805 Pls
5368 801 Pls
5368 801 Pls
5368 803 Pls
5368 804 Pls
5368 801 Pls
5368 801 Pls
5368 802 Pls
5368 803 Pls
5368 801 Pls
5368 801 Pls
5368 802 Pls
5368 803 Pls
5368 800 Pls
5368 801 Pls
5368 802 Pls
5368 802 Pls
5368 801 Pls
5368 801 Pls
5368 802 Pls
5368 802 Pls
5368 801 Pls
5368 802 Pls
5368 802 Pls
5368 802 Pls
5368 801 Pls
5368 802 Pls
5368 802 Pls
5368 803 Pls
5368 802 Pls
5368 802 Pls
5368 803 Pls
5368 803 Pls
5368 802 Pls
5368 803 Pls
5368 803 Pls
5368 804 Pls
5368 811 Pls
5368 814 Pls
5368 820 Pls
5368 826 Pls
5368 812 Pls
5368 812 Pls
5368 823 Pls
5368 827 Pls
5368 807 Pls
5368 810 Pls
5368 817 Pls
5368 817 Pls
5368 806 Pls
5368 809 Pls
5368 811 Pls
5368 817 Pls
5368 804 Pls
5368 808 Pls
5368 809 Pls
5368 813 Pls
5368 811 Pls
5368 815 Pls
5368 821 Pls
5368 823 Pls
5368 817 Pls
5368 821 Pls
5368 824 Pls
5368 829 Pls
5368 824 Pls
5368 827 Pls
5368 834 Pls
5368 836 Pls
5368 830 Pls
5368 835 Pls
5368 841 Pls
5368 846 Pls
5368 836 Pls
5368 844 Pls
5368 850 Pls
5368 852 Pls
5368 838 Pls
5368 857 Pls
5368 874 Pls
5368 913 Pls
5368 838 Pls
5368 849 Pls
5368 867 Pls
5368 876 Pls
5368 829 Pls
5368 834 Pls
5368 845 Pls
5368 873 Pls
5368 823 Pls
5368 825 Pls
5368 835 Pls
5368 842 Pls
5368 819 Pls
5368 824 Pls
5368 826 Pls
5368 840 Pls
5368 846 Pls
5368 867 Pls
5368 878 Pls
5368 887 Pls
5368 886 Pls
5368 896 Pls
5368 906 Pls
5368 931 Pls
5368 900 Pls
5368 939 Pls
5368 948 Pls
5368 955 Pls
5368 952 Pls
5368 957 Pls
5368 987 Pls
5368 996 Pls
5368 985 Pls
5368 1012 Pls
5368 1032 Pls
5368 1046 Pls
5368 963 Pls
5368 971 Pls
5368 1040 Pls
5368 1159 Pls
5368 919 Pls
5368 972 Pls
5368 1002 Pls
5368 1066 Pls
5368 865 Pls
5368 896 Pls
5368 970 Pls
5368 999 Pls
5368 853 Pls
5368 871 Pls
5368 897 Pls
5368 942 Pls
5368 849 Pls
5368 848 Pls
5368 882 Pls
5368 905 Pls
5368 978 Pls
5368 1016 Pls
5368 1032 Pls
5368 1101 Pls
5368 1097 Pls
5368 1129 Pls
5368 1204 Pls
5368 1234 Pls
5368 1218 Pls
5368 1289 Pls
5368 1350 Pls
5368 1395 Pls
5368 1397 Pls
5368 1444 Pls
5368 1451 Pls
5368 1525 Pls
5368 1510 Pls
5368 1619 Pls
5368 1655 Pls
5368 1718 Pls
5368 1087 Pls
5368 1104 Pls
5368 1289 Pls
5368 1436 Pls
5368 970 Pls
5368 1119 Pls
5368 1178 Pls
5368 1326 Pls
5368 945 Pls
5368 1075 Pls
5368 1150 Pls
5368 1297 Pls
5368 960 Pls
5368 1012 Pls
5368 1073 Pls
5368 1174 Pls
5368 906 Pls
5368 955 Pls
5368 999 Pls
5368 1095 Pls
5368 1421 Pls
5368 1489 Pls
5368 1746 Pls
5368 1804 Pls
5368 1943 Pls
5368 2133 Pls
5368 2306 Pls
5368 2471 Pls
5368 2397 Pls
5368 2728 Pls
5368 2866 Pls
5368 3091 Pls
5368 3276 Pls
5368 3349 Pls
5368 3717 Pls
5368 3706 Pls
5368 3878 Pls
5368 4352 Pls
5368 4383 Pls
5368 4619 Pls
6059 803 Pls
6059 802 Pls
6059 803 Pls
6059 805 Pls
6059 801 Pls
6059 802 Pls
6059 803 Pls
6059 805 Pls
6059 801 Pls
6059 801 Pls
6059 802 Pls
6059 803 Pls
6059 801 Pls
6059 801 Pls
6059 802 Pls
6059 803 Pls
6059 800 Pls
6059 801 Pls
6059 802 Pls
6059 802 Pls
6059 801 Pls
6059 801 Pls
6059 802 Pls
6059 802 Pls
6059 801 Pls
6059 802 Pls
6059 802 Pls
6059 803 Pls
6059 802 Pls
6059 802 Pls
6059 802 Pls
6059 803 Pls
6059 802 Pls
6059 802 Pls
6059 803 Pls
6059 803 Pls
6059 802 Pls
6059 803 Pls
6059 803 Pls
6059 804 Pls
6059 814 Pls
6059 817 Pls
6059 817 Pls
6059 832 Pls
6059 810 Pls
6059 814 Pls
6059 818 Pls
6059 826 Pls
6059 807 Pls
6059 811 Pls
6059 814 Pls
6059 820 Pls
6059 806 Pls
6059 809 Pls
6059 813 Pls
6059 816 Pls
6059 805 Pls
6059 807 Pls
6059 811 Pls
6059 814 Pls
6059 810 Pls
6059 813 Pls
6059 821 Pls
6059 826 Pls
6059 816 Pls
6059 822 Pls
6059 826 Pls
6059 830 Pls
6059 822 Pls
6059 830 Pls
6059 834 Pls
6059 837 Pls
6059 831 Pls
6059 838 Pls
6059 839 Pls
6059 843 Pls
6059 839 Pls
6059 844 Pls
6059 850 Pls
6059 852 Pls
6059 849 Pls
6059 856 Pls
6059 887 Pls
6059 899 Pls
6059 826 Pls
6059 843 Pls
6059 857 Pls
6059 867 Pls
6059 831 Pls
6059 830 Pls
6059 845 Pls
6059 857 Pls
6059 822 Pls
6059 824 Pls
6059 831 Pls
6059 845 Pls
6059 820 Pls
6059 821 Pls
6059 831 Pls
6059 837 Pls
6059 856 Pls
6059 860 Pls
6059 875 Pls
6059 889 Pls
6059 874 Pls
6059 898 Pls
6059 912 Pls
6059 923 Pls
6059 912 Pls
6059 935 Pls
6059 947 Pls
6059 958 Pls
6059 953 Pls
6059 968 Pls
6059 998 Pls
6059 999 Pls
6059 995 Pls
6059 1017 Pls
6059 1048 Pls
6059 1049 Pls
6059 931 Pls
6059 974 Pls
6059 1051 Pls
6059 1139 Pls
6059 914 Pls
6059 946 Pls
6059 998 Pls
6059 1065 Pls
6059 880 Pls
6059 906 Pls
6059 949 Pls
6059 998 Pls
6059 846 Pls
6059 895 Pls
6059 925 Pls
6059 952 Pls
6059 841 Pls
6059 873 Pls
6059 875 Pls
6059 908 Pls
6059 943 Pls
6059 998 Pls
6059 1033 Pls
6059 1088 Pls
6059 1093 Pls
6059 1137 Pls
6059 1149 Pls
6059 1219 Pls
6059 1164 Pls
6059 1213 Pls
6059 1344 Pls
6059 1365 Pls
6059 1346 Pls
6059 1485 Pls
6059 1521 Pls
6059 1543 Pls
6059 1495 Pls
6059 1634 Pls
6059 1653 Pls
6059 1701 Pls
6059 1090 Pls
6059 1241 Pls
6059 1341 Pls
6059 1483 Pls
6059 1030 Pls
6059 1106 Pls
6059 1213 Pls
6059 1344 Pls
6059 994 Pls
6059 1047 Pls
6059 1168 Pls
6059 1272 Pls
6059 969 Pls
6059 1020 Pls
6059 1076 Pls
6059 1183 Pls
6059 905 Pls
6059 922 Pls
6059 999 Pls
6059 1075 Pls
6059 1427 Pls
6059 1612 Pls
6059 1704 Pls
6059 1914 Pls
6059 1867 Pls
6059 2137 Pls
6059 2285 Pls
6059 2515 Pls
6059 2565 Pls
6059 2728 Pls
6059 2962 Pls
6059 3048 Pls
6059 2980 Pls
6059 3457 Pls
6059 3722 Pls
6059 3822 Pls
6059 4014 Pls
6059 4140 Pls
6059 4263 Pls
6059 4628 Pls
6749 801 Pls
6749 802 Pls
6749 804 Pls
6749 805 Pls
6749 801 Pls
6749 801 Pls
6749 803 Pls
6749 804 Pls
6749 801 Pls
6749 802 Pls
6749 802 Pls
6749 803 Pls
6749 801 Pls
6749 801 Pls
6749 802 Pls
6749 803 Pls
6749 800 Pls
6749 801 Pls
6749 802 Pls
6749 802 Pls
6749 801 Pls
6749 801 Pls
6749 802 Pls
6749 802 Pls
6749 801 Pls
6749 802 Pls
6749 802 Pls
6749 802 Pls
6749 801 Pls
6749 802 Pls
6749 803 Pls
6749 803 Pls
6749 802 Pls
6749 802 Pls
6749 803 Pls
6749 803 Pls
6749 802 Pls
6749 803 Pls
6749 803 Pls
6749 804 Pls
6749 811 Pls
6749 817 Pls
6749 821 Pls
6749 830 Pls
6749 809 Pls
6749 812 Pls
6749 818 Pls
6749 826 Pls
6749 808 Pls
6749 810 Pls
6749 816 Pls
6749 822 Pls
6749 806 Pls
6749 808 Pls
6749 812 Pls
6749 818 Pls
6749 804 Pls
6749 807 Pls
6749 809 Pls
6749 812 Pls
6749 811 Pls
6749 816 Pls
6749 819 Pls
6749 823 Pls
6749 816 Pls
6749 820 Pls
6749 825 Pls
6749 832 Pls
6749 823 Pls
6749 829 Pls
6749 832 Pls
6749 835 Pls
6749 834 Pls
6749 835 Pls
6749 841 Pls
6749 846 Pls
6749 839 Pls
6749 844 Pls
6749 849 Pls
6749 855 Pls
6749 847 Pls
6749 857 Pls
6749 880 Pls
6749 895 Pls
6749 837 Pls
6749 847 Pls
6749 869 Pls
6749 889 Pls
6749 826 Pls
6749 840 Pls
6749 844 Pls
6749 866 Pls
6749 818 Pls
6749 822 Pls
6749 828 Pls
6749 846 Pls
6749 816 Pls
6749 826 Pls
6749 828 Pls
6749 834 Pls
6749 845 Pls
6749 862 Pls
6749 882 Pls
6749 891 Pls
6749 874 Pls
6749 893 Pls
6749 914 Pls
6749 931 Pls
6749 921 Pls
6749 925 Pls
6749 951 Pls
6749 960 Pls
6749 944 Pls
6749 960 Pls
6749 977 Pls
6749 1003 Pls
6749 998 Pls
6749 1021 Pls
6749 1040 Pls
6749 1049 Pls
6749 963 Pls
6749 991 Pls
6749 1038 Pls
6749 1165 Pls
6749 881 Pls
6749 940 Pls
6749 991 Pls
6749 1033 Pls
6749 872 Pls
6749 901 Pls
6749 953 Pls
6749 1000 Pls
6749 874 Pls
6749 871 Pls
6749 912 Pls
6749 940 Pls
6749 849 Pls
6749 859 Pls
6749 876 Pls
6749 898 Pls
6749 953 Pls
6749 1008 Pls
6749 1057 Pls
6749 1081 Pls
6749 1085 Pls
6749 1150 Pls
6749 1171 Pls
6749 1233 Pls
6749 1227 Pls
6749 1283 Pls
6749 1351 Pls
6749 1351 Pls
6749 1427 Pls
6749 1442 Pls
6749 1501 Pls
6749 1520 Pls
6749 1501 Pls
6749 1663 Pls
6749 1637 Pls
6749 1758 Pls
6749 1057 Pls
6749 1139 Pls
6749 1341 Pls
6749 1503 Pls
6749 1016 Pls
6749 1118 Pls
6749 1162 Pls
6749 1401 Pls
6749 999 Pls
6749 1047 Pls
6749 1119 Pls
6749 1289 Pls
6749 955 Pls
6749 996 Pls
6749 1057 Pls
6749 1214 Pls
6749 939 Pls
6749 941 Pls
6749 985 Pls
6749 1050 Pls
6749 1381 Pls
6749 1609 Pls
6749 1667 Pls
6749 1828 Pls
6749 1796 Pls
6749 2197 Pls
6749 2323 Pls
6749 2453 Pls
6749 2669 Pls
6749 2817 Pls
6749 2948 Pls
6749 3231 Pls
6749 3296 Pls
6749 3550 Pls
6749 3740 Pls
6749 3627 Pls
6749 3798 Pls
6749 4319 Pls
6749 4370 Pls
6749 4465 Pls
% End plot #1
% Begin plot #2
8.000 UL
LT1
LCb setrgbcolor
5636 4551 M
[ [(Helvetica) 250.0 0.0 true true 0 (Average)]
] -83.3 MRshow
LT1
5786 4551 M
663 0 V
1225 1125 M
691 1 V
690 2 V
691 1 V
690 -2 V
691 0 V
690 2 V
691 1 V
690 2 V
% End plot #2
% Begin plot #3
stroke
4.000 UL
LT2
LCb setrgbcolor
5636 4301 M
[ [(Helvetica) 250.0 0.0 true true 0 (Min)]
] -83.3 MRshow
LT2
5786 4301 M
663 0 V
1225 800 M
691 0 V
690 0 V
691 0 V
690 0 V
691 1 V
690 -1 V
691 0 V
690 0 V
% End plot #3
% Begin plot #4
stroke
LT3
LCb setrgbcolor
5636 4051 M
[ [(Helvetica) 250.0 0.0 true true 0 (Max)]
] -83.3 MRshow
LT3
5786 4051 M
663 0 V
1225 4444 M
691 198 V
690 -111 V
691 94 V
690 -56 V
691 51 V
690 -1 V
691 9 V
690 -163 V
% End plot #4
stroke
1.000 UL
LTb
1225 4739 N
0 -3939 V
5524 0 V
0 3939 V
-5524 0 V
Z stroke
1.000 UP
1.000 UL
LTb
stroke
grestore
end
showpage
%%Trailer
%%DocumentFonts: Helvetica
