%!PS-Adobe-2.0 EPSF-2.0
%%Title: r_alphabet_size_100-recall.eps
%%Creator: gnuplot 4.4 patchlevel 3
%%CreationDate: Fri Jun 14 19:20:12 2013
%%DocumentFonts: (atend)
%%BoundingBox: 50 50 410 302
%%EndComments
%%BeginProlog
/gnudict 256 dict def
gnudict begin
%
% The following true/false flags may be edited by hand if desired.
% The unit line width and grayscale image gamma correction may also be changed.
%
/Color true def
/Blacktext false def
/Solid false def
/Dashlength 1 def
/Landscape false def
/Level1 false def
/Rounded false def
/ClipToBoundingBox false def
/TransparentPatterns false def
/gnulinewidth 5.000 def
/userlinewidth gnulinewidth def
/Gamma 1.0 def
%
/vshift -83 def
/dl1 {
  10.0 Dashlength mul mul
  Rounded { currentlinewidth 0.75 mul sub dup 0 le { pop 0.01 } if } if
} def
/dl2 {
  10.0 Dashlength mul mul
  Rounded { currentlinewidth 0.75 mul add } if
} def
/hpt_ 31.5 def
/vpt_ 31.5 def
/hpt hpt_ def
/vpt vpt_ def
Level1 {} {
/SDict 10 dict def
systemdict /pdfmark known not {
  userdict /pdfmark systemdict /cleartomark get put
} if
SDict begin [
  /Title (r_alphabet_size_100-recall.eps)
  /Subject (gnuplot plot)
  /Creator (gnuplot 4.4 patchlevel 3)
  /Author (xjia)
%  /Producer (gnuplot)
%  /Keywords ()
  /CreationDate (Fri Jun 14 19:20:12 2013)
  /DOCINFO pdfmark
end
} ifelse
/doclip {
  ClipToBoundingBox {
    newpath 50 50 moveto 410 50 lineto 410 302 lineto 50 302 lineto closepath
    clip
  } if
} def
%
% Gnuplot Prolog Version 4.4 (August 2010)
%
%/SuppressPDFMark true def
%
/M {moveto} bind def
/L {lineto} bind def
/R {rmoveto} bind def
/V {rlineto} bind def
/N {newpath moveto} bind def
/Z {closepath} bind def
/C {setrgbcolor} bind def
/f {rlineto fill} bind def
/g {setgray} bind def
/Gshow {show} def   % May be redefined later in the file to support UTF-8
/vpt2 vpt 2 mul def
/hpt2 hpt 2 mul def
/Lshow {currentpoint stroke M 0 vshift R 
	Blacktext {gsave 0 setgray show grestore} {show} ifelse} def
/Rshow {currentpoint stroke M dup stringwidth pop neg vshift R
	Blacktext {gsave 0 setgray show grestore} {show} ifelse} def
/Cshow {currentpoint stroke M dup stringwidth pop -2 div vshift R 
	Blacktext {gsave 0 setgray show grestore} {show} ifelse} def
/UP {dup vpt_ mul /vpt exch def hpt_ mul /hpt exch def
  /hpt2 hpt 2 mul def /vpt2 vpt 2 mul def} def
/DL {Color {setrgbcolor Solid {pop []} if 0 setdash}
 {pop pop pop 0 setgray Solid {pop []} if 0 setdash} ifelse} def
/BL {stroke userlinewidth 2 mul setlinewidth
	Rounded {1 setlinejoin 1 setlinecap} if} def
/AL {stroke userlinewidth 2 div setlinewidth
	Rounded {1 setlinejoin 1 setlinecap} if} def
/UL {dup gnulinewidth mul /userlinewidth exch def
	dup 1 lt {pop 1} if 10 mul /udl exch def} def
/PL {stroke userlinewidth setlinewidth
	Rounded {1 setlinejoin 1 setlinecap} if} def
3.8 setmiterlimit
% Default Line colors
/LCw {1 1 1} def
/LCb {0 0 0} def
/LCa {0 0 0} def
/LC0 {1 0 0} def
/LC1 {0 1 0} def
/LC2 {0 0 1} def
/LC3 {1 0 1} def
/LC4 {0 1 1} def
/LC5 {1 1 0} def
/LC6 {0 0 0} def
/LC7 {1 0.3 0} def
/LC8 {0.5 0.5 0.5} def
% Default Line Types
/LTw {PL [] 1 setgray} def
/LTb {BL [] LCb DL} def
/LTa {AL [1 udl mul 2 udl mul] 0 setdash LCa setrgbcolor} def
/LT0 {PL [] LC0 DL} def
/LT1 {PL [4 dl1 2 dl2] LC1 DL} def
/LT2 {PL [2 dl1 3 dl2] LC2 DL} def
/LT3 {PL [1 dl1 1.5 dl2] LC3 DL} def
/LT4 {PL [6 dl1 2 dl2 1 dl1 2 dl2] LC4 DL} def
/LT5 {PL [3 dl1 3 dl2 1 dl1 3 dl2] LC5 DL} def
/LT6 {PL [2 dl1 2 dl2 2 dl1 6 dl2] LC6 DL} def
/LT7 {PL [1 dl1 2 dl2 6 dl1 2 dl2 1 dl1 2 dl2] LC7 DL} def
/LT8 {PL [2 dl1 2 dl2 2 dl1 2 dl2 2 dl1 2 dl2 2 dl1 4 dl2] LC8 DL} def
/Pnt {stroke [] 0 setdash gsave 1 setlinecap M 0 0 V stroke grestore} def
/Dia {stroke [] 0 setdash 2 copy vpt add M
  hpt neg vpt neg V hpt vpt neg V
  hpt vpt V hpt neg vpt V closepath stroke
  Pnt} def
/Pls {stroke [] 0 setdash vpt sub M 0 vpt2 V
  currentpoint stroke M
  hpt neg vpt neg R hpt2 0 V stroke
 } def
/Box {stroke [] 0 setdash 2 copy exch hpt sub exch vpt add M
  0 vpt2 neg V hpt2 0 V 0 vpt2 V
  hpt2 neg 0 V closepath stroke
  Pnt} def
/Crs {stroke [] 0 setdash exch hpt sub exch vpt add M
  hpt2 vpt2 neg V currentpoint stroke M
  hpt2 neg 0 R hpt2 vpt2 V stroke} def
/TriU {stroke [] 0 setdash 2 copy vpt 1.12 mul add M
  hpt neg vpt -1.62 mul V
  hpt 2 mul 0 V
  hpt neg vpt 1.62 mul V closepath stroke
  Pnt} def
/Star {2 copy Pls Crs} def
/BoxF {stroke [] 0 setdash exch hpt sub exch vpt add M
  0 vpt2 neg V hpt2 0 V 0 vpt2 V
  hpt2 neg 0 V closepath fill} def
/TriUF {stroke [] 0 setdash vpt 1.12 mul add M
  hpt neg vpt -1.62 mul V
  hpt 2 mul 0 V
  hpt neg vpt 1.62 mul V closepath fill} def
/TriD {stroke [] 0 setdash 2 copy vpt 1.12 mul sub M
  hpt neg vpt 1.62 mul V
  hpt 2 mul 0 V
  hpt neg vpt -1.62 mul V closepath stroke
  Pnt} def
/TriDF {stroke [] 0 setdash vpt 1.12 mul sub M
  hpt neg vpt 1.62 mul V
  hpt 2 mul 0 V
  hpt neg vpt -1.62 mul V closepath fill} def
/DiaF {stroke [] 0 setdash vpt add M
  hpt neg vpt neg V hpt vpt neg V
  hpt vpt V hpt neg vpt V closepath fill} def
/Pent {stroke [] 0 setdash 2 copy gsave
  translate 0 hpt M 4 {72 rotate 0 hpt L} repeat
  closepath stroke grestore Pnt} def
/PentF {stroke [] 0 setdash gsave
  translate 0 hpt M 4 {72 rotate 0 hpt L} repeat
  closepath fill grestore} def
/Circle {stroke [] 0 setdash 2 copy
  hpt 0 360 arc stroke Pnt} def
/CircleF {stroke [] 0 setdash hpt 0 360 arc fill} def
/C0 {BL [] 0 setdash 2 copy moveto vpt 90 450 arc} bind def
/C1 {BL [] 0 setdash 2 copy moveto
	2 copy vpt 0 90 arc closepath fill
	vpt 0 360 arc closepath} bind def
/C2 {BL [] 0 setdash 2 copy moveto
	2 copy vpt 90 180 arc closepath fill
	vpt 0 360 arc closepath} bind def
/C3 {BL [] 0 setdash 2 copy moveto
	2 copy vpt 0 180 arc closepath fill
	vpt 0 360 arc closepath} bind def
/C4 {BL [] 0 setdash 2 copy moveto
	2 copy vpt 180 270 arc closepath fill
	vpt 0 360 arc closepath} bind def
/C5 {BL [] 0 setdash 2 copy moveto
	2 copy vpt 0 90 arc
	2 copy moveto
	2 copy vpt 180 270 arc closepath fill
	vpt 0 360 arc} bind def
/C6 {BL [] 0 setdash 2 copy moveto
	2 copy vpt 90 270 arc closepath fill
	vpt 0 360 arc closepath} bind def
/C7 {BL [] 0 setdash 2 copy moveto
	2 copy vpt 0 270 arc closepath fill
	vpt 0 360 arc closepath} bind def
/C8 {BL [] 0 setdash 2 copy moveto
	2 copy vpt 270 360 arc closepath fill
	vpt 0 360 arc closepath} bind def
/C9 {BL [] 0 setdash 2 copy moveto
	2 copy vpt 270 450 arc closepath fill
	vpt 0 360 arc closepath} bind def
/C10 {BL [] 0 setdash 2 copy 2 copy moveto vpt 270 360 arc closepath fill
	2 copy moveto
	2 copy vpt 90 180 arc closepath fill
	vpt 0 360 arc closepath} bind def
/C11 {BL [] 0 setdash 2 copy moveto
	2 copy vpt 0 180 arc closepath fill
	2 copy moveto
	2 copy vpt 270 360 arc closepath fill
	vpt 0 360 arc closepath} bind def
/C12 {BL [] 0 setdash 2 copy moveto
	2 copy vpt 180 360 arc closepath fill
	vpt 0 360 arc closepath} bind def
/C13 {BL [] 0 setdash 2 copy moveto
	2 copy vpt 0 90 arc closepath fill
	2 copy moveto
	2 copy vpt 180 360 arc closepath fill
	vpt 0 360 arc closepath} bind def
/C14 {BL [] 0 setdash 2 copy moveto
	2 copy vpt 90 360 arc closepath fill
	vpt 0 360 arc} bind def
/C15 {BL [] 0 setdash 2 copy vpt 0 360 arc closepath fill
	vpt 0 360 arc closepath} bind def
/Rec {newpath 4 2 roll moveto 1 index 0 rlineto 0 exch rlineto
	neg 0 rlineto closepath} bind def
/Square {dup Rec} bind def
/Bsquare {vpt sub exch vpt sub exch vpt2 Square} bind def
/S0 {BL [] 0 setdash 2 copy moveto 0 vpt rlineto BL Bsquare} bind def
/S1 {BL [] 0 setdash 2 copy vpt Square fill Bsquare} bind def
/S2 {BL [] 0 setdash 2 copy exch vpt sub exch vpt Square fill Bsquare} bind def
/S3 {BL [] 0 setdash 2 copy exch vpt sub exch vpt2 vpt Rec fill Bsquare} bind def
/S4 {BL [] 0 setdash 2 copy exch vpt sub exch vpt sub vpt Square fill Bsquare} bind def
/S5 {BL [] 0 setdash 2 copy 2 copy vpt Square fill
	exch vpt sub exch vpt sub vpt Square fill Bsquare} bind def
/S6 {BL [] 0 setdash 2 copy exch vpt sub exch vpt sub vpt vpt2 Rec fill Bsquare} bind def
/S7 {BL [] 0 setdash 2 copy exch vpt sub exch vpt sub vpt vpt2 Rec fill
	2 copy vpt Square fill Bsquare} bind def
/S8 {BL [] 0 setdash 2 copy vpt sub vpt Square fill Bsquare} bind def
/S9 {BL [] 0 setdash 2 copy vpt sub vpt vpt2 Rec fill Bsquare} bind def
/S10 {BL [] 0 setdash 2 copy vpt sub vpt Square fill 2 copy exch vpt sub exch vpt Square fill
	Bsquare} bind def
/S11 {BL [] 0 setdash 2 copy vpt sub vpt Square fill 2 copy exch vpt sub exch vpt2 vpt Rec fill
	Bsquare} bind def
/S12 {BL [] 0 setdash 2 copy exch vpt sub exch vpt sub vpt2 vpt Rec fill Bsquare} bind def
/S13 {BL [] 0 setdash 2 copy exch vpt sub exch vpt sub vpt2 vpt Rec fill
	2 copy vpt Square fill Bsquare} bind def
/S14 {BL [] 0 setdash 2 copy exch vpt sub exch vpt sub vpt2 vpt Rec fill
	2 copy exch vpt sub exch vpt Square fill Bsquare} bind def
/S15 {BL [] 0 setdash 2 copy Bsquare fill Bsquare} bind def
/D0 {gsave translate 45 rotate 0 0 S0 stroke grestore} bind def
/D1 {gsave translate 45 rotate 0 0 S1 stroke grestore} bind def
/D2 {gsave translate 45 rotate 0 0 S2 stroke grestore} bind def
/D3 {gsave translate 45 rotate 0 0 S3 stroke grestore} bind def
/D4 {gsave translate 45 rotate 0 0 S4 stroke grestore} bind def
/D5 {gsave translate 45 rotate 0 0 S5 stroke grestore} bind def
/D6 {gsave translate 45 rotate 0 0 S6 stroke grestore} bind def
/D7 {gsave translate 45 rotate 0 0 S7 stroke grestore} bind def
/D8 {gsave translate 45 rotate 0 0 S8 stroke grestore} bind def
/D9 {gsave translate 45 rotate 0 0 S9 stroke grestore} bind def
/D10 {gsave translate 45 rotate 0 0 S10 stroke grestore} bind def
/D11 {gsave translate 45 rotate 0 0 S11 stroke grestore} bind def
/D12 {gsave translate 45 rotate 0 0 S12 stroke grestore} bind def
/D13 {gsave translate 45 rotate 0 0 S13 stroke grestore} bind def
/D14 {gsave translate 45 rotate 0 0 S14 stroke grestore} bind def
/D15 {gsave translate 45 rotate 0 0 S15 stroke grestore} bind def
/DiaE {stroke [] 0 setdash vpt add M
  hpt neg vpt neg V hpt vpt neg V
  hpt vpt V hpt neg vpt V closepath stroke} def
/BoxE {stroke [] 0 setdash exch hpt sub exch vpt add M
  0 vpt2 neg V hpt2 0 V 0 vpt2 V
  hpt2 neg 0 V closepath stroke} def
/TriUE {stroke [] 0 setdash vpt 1.12 mul add M
  hpt neg vpt -1.62 mul V
  hpt 2 mul 0 V
  hpt neg vpt 1.62 mul V closepath stroke} def
/TriDE {stroke [] 0 setdash vpt 1.12 mul sub M
  hpt neg vpt 1.62 mul V
  hpt 2 mul 0 V
  hpt neg vpt -1.62 mul V closepath stroke} def
/PentE {stroke [] 0 setdash gsave
  translate 0 hpt M 4 {72 rotate 0 hpt L} repeat
  closepath stroke grestore} def
/CircE {stroke [] 0 setdash 
  hpt 0 360 arc stroke} def
/Opaque {gsave closepath 1 setgray fill grestore 0 setgray closepath} def
/DiaW {stroke [] 0 setdash vpt add M
  hpt neg vpt neg V hpt vpt neg V
  hpt vpt V hpt neg vpt V Opaque stroke} def
/BoxW {stroke [] 0 setdash exch hpt sub exch vpt add M
  0 vpt2 neg V hpt2 0 V 0 vpt2 V
  hpt2 neg 0 V Opaque stroke} def
/TriUW {stroke [] 0 setdash vpt 1.12 mul add M
  hpt neg vpt -1.62 mul V
  hpt 2 mul 0 V
  hpt neg vpt 1.62 mul V Opaque stroke} def
/TriDW {stroke [] 0 setdash vpt 1.12 mul sub M
  hpt neg vpt 1.62 mul V
  hpt 2 mul 0 V
  hpt neg vpt -1.62 mul V Opaque stroke} def
/PentW {stroke [] 0 setdash gsave
  translate 0 hpt M 4 {72 rotate 0 hpt L} repeat
  Opaque stroke grestore} def
/CircW {stroke [] 0 setdash 
  hpt 0 360 arc Opaque stroke} def
/BoxFill {gsave Rec 1 setgray fill grestore} def
/Density {
  /Fillden exch def
  currentrgbcolor
  /ColB exch def /ColG exch def /ColR exch def
  /ColR ColR Fillden mul Fillden sub 1 add def
  /ColG ColG Fillden mul Fillden sub 1 add def
  /ColB ColB Fillden mul Fillden sub 1 add def
  ColR ColG ColB setrgbcolor} def
/BoxColFill {gsave Rec PolyFill} def
/PolyFill {gsave Density fill grestore grestore} def
/h {rlineto rlineto rlineto gsave closepath fill grestore} bind def
%
% PostScript Level 1 Pattern Fill routine for rectangles
% Usage: x y w h s a XX PatternFill
%	x,y = lower left corner of box to be filled
%	w,h = width and height of box
%	  a = angle in degrees between lines and x-axis
%	 XX = 0/1 for no/yes cross-hatch
%
/PatternFill {gsave /PFa [ 9 2 roll ] def
  PFa 0 get PFa 2 get 2 div add PFa 1 get PFa 3 get 2 div add translate
  PFa 2 get -2 div PFa 3 get -2 div PFa 2 get PFa 3 get Rec
  gsave 1 setgray fill grestore clip
  currentlinewidth 0.5 mul setlinewidth
  /PFs PFa 2 get dup mul PFa 3 get dup mul add sqrt def
  0 0 M PFa 5 get rotate PFs -2 div dup translate
  0 1 PFs PFa 4 get div 1 add floor cvi
	{PFa 4 get mul 0 M 0 PFs V} for
  0 PFa 6 get ne {
	0 1 PFs PFa 4 get div 1 add floor cvi
	{PFa 4 get mul 0 2 1 roll M PFs 0 V} for
 } if
  stroke grestore} def
%
/languagelevel where
 {pop languagelevel} {1} ifelse
 2 lt
	{/InterpretLevel1 true def}
	{/InterpretLevel1 Level1 def}
 ifelse
%
% PostScript level 2 pattern fill definitions
%
/Level2PatternFill {
/Tile8x8 {/PaintType 2 /PatternType 1 /TilingType 1 /BBox [0 0 8 8] /XStep 8 /YStep 8}
	bind def
/KeepColor {currentrgbcolor [/Pattern /DeviceRGB] setcolorspace} bind def
<< Tile8x8
 /PaintProc {0.5 setlinewidth pop 0 0 M 8 8 L 0 8 M 8 0 L stroke} 
>> matrix makepattern
/Pat1 exch def
<< Tile8x8
 /PaintProc {0.5 setlinewidth pop 0 0 M 8 8 L 0 8 M 8 0 L stroke
	0 4 M 4 8 L 8 4 L 4 0 L 0 4 L stroke}
>> matrix makepattern
/Pat2 exch def
<< Tile8x8
 /PaintProc {0.5 setlinewidth pop 0 0 M 0 8 L
	8 8 L 8 0 L 0 0 L fill}
>> matrix makepattern
/Pat3 exch def
<< Tile8x8
 /PaintProc {0.5 setlinewidth pop -4 8 M 8 -4 L
	0 12 M 12 0 L stroke}
>> matrix makepattern
/Pat4 exch def
<< Tile8x8
 /PaintProc {0.5 setlinewidth pop -4 0 M 8 12 L
	0 -4 M 12 8 L stroke}
>> matrix makepattern
/Pat5 exch def
<< Tile8x8
 /PaintProc {0.5 setlinewidth pop -2 8 M 4 -4 L
	0 12 M 8 -4 L 4 12 M 10 0 L stroke}
>> matrix makepattern
/Pat6 exch def
<< Tile8x8
 /PaintProc {0.5 setlinewidth pop -2 0 M 4 12 L
	0 -4 M 8 12 L 4 -4 M 10 8 L stroke}
>> matrix makepattern
/Pat7 exch def
<< Tile8x8
 /PaintProc {0.5 setlinewidth pop 8 -2 M -4 4 L
	12 0 M -4 8 L 12 4 M 0 10 L stroke}
>> matrix makepattern
/Pat8 exch def
<< Tile8x8
 /PaintProc {0.5 setlinewidth pop 0 -2 M 12 4 L
	-4 0 M 12 8 L -4 4 M 8 10 L stroke}
>> matrix makepattern
/Pat9 exch def
/Pattern1 {PatternBgnd KeepColor Pat1 setpattern} bind def
/Pattern2 {PatternBgnd KeepColor Pat2 setpattern} bind def
/Pattern3 {PatternBgnd KeepColor Pat3 setpattern} bind def
/Pattern4 {PatternBgnd KeepColor Landscape {Pat5} {Pat4} ifelse setpattern} bind def
/Pattern5 {PatternBgnd KeepColor Landscape {Pat4} {Pat5} ifelse setpattern} bind def
/Pattern6 {PatternBgnd KeepColor Landscape {Pat9} {Pat6} ifelse setpattern} bind def
/Pattern7 {PatternBgnd KeepColor Landscape {Pat8} {Pat7} ifelse setpattern} bind def
} def
%
%
%End of PostScript Level 2 code
%
/PatternBgnd {
  TransparentPatterns {} {gsave 1 setgray fill grestore} ifelse
} def
%
% Substitute for Level 2 pattern fill codes with
% grayscale if Level 2 support is not selected.
%
/Level1PatternFill {
/Pattern1 {0.250 Density} bind def
/Pattern2 {0.500 Density} bind def
/Pattern3 {0.750 Density} bind def
/Pattern4 {0.125 Density} bind def
/Pattern5 {0.375 Density} bind def
/Pattern6 {0.625 Density} bind def
/Pattern7 {0.875 Density} bind def
} def
%
% Now test for support of Level 2 code
%
Level1 {Level1PatternFill} {Level2PatternFill} ifelse
%
/Symbol-Oblique /Symbol findfont [1 0 .167 1 0 0] makefont
dup length dict begin {1 index /FID eq {pop pop} {def} ifelse} forall
currentdict end definefont pop
/MFshow {
   { dup 5 get 3 ge
     { 5 get 3 eq {gsave} {grestore} ifelse }
     {dup dup 0 get findfont exch 1 get scalefont setfont
     [ currentpoint ] exch dup 2 get 0 exch R dup 5 get 2 ne {dup dup 6
     get exch 4 get {Gshow} {stringwidth pop 0 R} ifelse }if dup 5 get 0 eq
     {dup 3 get {2 get neg 0 exch R pop} {pop aload pop M} ifelse} {dup 5
     get 1 eq {dup 2 get exch dup 3 get exch 6 get stringwidth pop -2 div
     dup 0 R} {dup 6 get stringwidth pop -2 div 0 R 6 get
     show 2 index {aload pop M neg 3 -1 roll neg R pop pop} {pop pop pop
     pop aload pop M} ifelse }ifelse }ifelse }
     ifelse }
   forall} def
/Gswidth {dup type /stringtype eq {stringwidth} {pop (n) stringwidth} ifelse} def
/MFwidth {0 exch { dup 5 get 3 ge { 5 get 3 eq { 0 } { pop } ifelse }
 {dup 3 get{dup dup 0 get findfont exch 1 get scalefont setfont
     6 get Gswidth pop add} {pop} ifelse} ifelse} forall} def
/MLshow { currentpoint stroke M
  0 exch R
  Blacktext {gsave 0 setgray MFshow grestore} {MFshow} ifelse } bind def
/MRshow { currentpoint stroke M
  exch dup MFwidth neg 3 -1 roll R
  Blacktext {gsave 0 setgray MFshow grestore} {MFshow} ifelse } bind def
/MCshow { currentpoint stroke M
  exch dup MFwidth -2 div 3 -1 roll R
  Blacktext {gsave 0 setgray MFshow grestore} {MFshow} ifelse } bind def
/XYsave    { [( ) 1 2 true false 3 ()] } bind def
/XYrestore { [( ) 1 2 true false 4 ()] } bind def
end
%%EndProlog
gnudict begin
gsave
doclip
50 50 translate
0.050 0.050 scale
0 setgray
newpath
(Helvetica) findfont 250 scalefont setfont
1.000 UL
LTb
1375 800 M
63 0 V
5311 0 R
-63 0 V
stroke
1225 800 M
[ [(Helvetica) 250.0 0.0 true true 0 ( 0.65)]
] -83.3 MRshow
1.000 UL
LTb
1375 1363 M
63 0 V
5311 0 R
-63 0 V
stroke
1225 1363 M
[ [(Helvetica) 250.0 0.0 true true 0 ( 0.7)]
] -83.3 MRshow
1.000 UL
LTb
1375 1925 M
63 0 V
5311 0 R
-63 0 V
stroke
1225 1925 M
[ [(Helvetica) 250.0 0.0 true true 0 ( 0.75)]
] -83.3 MRshow
1.000 UL
LTb
1375 2488 M
63 0 V
5311 0 R
-63 0 V
stroke
1225 2488 M
[ [(Helvetica) 250.0 0.0 true true 0 ( 0.8)]
] -83.3 MRshow
1.000 UL
LTb
1375 3051 M
63 0 V
5311 0 R
-63 0 V
stroke
1225 3051 M
[ [(Helvetica) 250.0 0.0 true true 0 ( 0.85)]
] -83.3 MRshow
1.000 UL
LTb
1375 3614 M
63 0 V
5311 0 R
-63 0 V
stroke
1225 3614 M
[ [(Helvetica) 250.0 0.0 true true 0 ( 0.9)]
] -83.3 MRshow
1.000 UL
LTb
1375 4176 M
63 0 V
5311 0 R
-63 0 V
stroke
1225 4176 M
[ [(Helvetica) 250.0 0.0 true true 0 ( 0.95)]
] -83.3 MRshow
1.000 UL
LTb
1375 4739 M
63 0 V
5311 0 R
-63 0 V
stroke
1225 4739 M
[ [(Helvetica) 250.0 0.0 true true 0 ( 1)]
] -83.3 MRshow
1.000 UL
LTb
1375 800 M
0 63 V
0 3876 R
0 -63 V
stroke
1375 550 M
[ [(Helvetica) 250.0 0.0 true true 0 ( 100)]
] -83.3 MCshow
1.000 UL
LTb
2047 800 M
0 63 V
0 3876 R
0 -63 V
stroke
2047 550 M
[ [(Helvetica) 250.0 0.0 true true 0 ( 200)]
] -83.3 MCshow
1.000 UL
LTb
2719 800 M
0 63 V
0 3876 R
0 -63 V
stroke
2719 550 M
[ [(Helvetica) 250.0 0.0 true true 0 ( 300)]
] -83.3 MCshow
1.000 UL
LTb
3390 800 M
0 63 V
0 3876 R
0 -63 V
stroke
3390 550 M
[ [(Helvetica) 250.0 0.0 true true 0 ( 400)]
] -83.3 MCshow
1.000 UL
LTb
4062 800 M
0 63 V
0 3876 R
0 -63 V
stroke
4062 550 M
[ [(Helvetica) 250.0 0.0 true true 0 ( 500)]
] -83.3 MCshow
1.000 UL
LTb
4734 800 M
0 63 V
0 3876 R
0 -63 V
stroke
4734 550 M
[ [(Helvetica) 250.0 0.0 true true 0 ( 600)]
] -83.3 MCshow
1.000 UL
LTb
5406 800 M
0 63 V
0 3876 R
0 -63 V
stroke
5406 550 M
[ [(Helvetica) 250.0 0.0 true true 0 ( 700)]
] -83.3 MCshow
1.000 UL
LTb
6077 800 M
0 63 V
0 3876 R
0 -63 V
stroke
6077 550 M
[ [(Helvetica) 250.0 0.0 true true 0 ( 800)]
] -83.3 MCshow
1.000 UL
LTb
6749 800 M
0 63 V
0 3876 R
0 -63 V
stroke
6749 550 M
[ [(Helvetica) 250.0 0.0 true true 0 ( 900)]
] -83.3 MCshow
1.000 UL
LTb
1.000 UL
LTb
1375 4739 N
0 -3939 V
5374 0 V
0 3939 V
-5374 0 V
Z stroke
LCb setrgbcolor
200 2769 M
currentpoint gsave translate -270 rotate 0 0 moveto
[ [(Helvetica) 250.0 0.0 true true 0 (Recall)]
] -83.3 MCshow
grestore
LTb
LCb setrgbcolor
4062 175 M
[ [(Helvetica) 250.0 0.0 true true 0 (Alphabet Size)]
] -83.3 MCshow
LTb
1.000 UP
1.000 UL
LTb
% Begin plot #1
1.000 UP
1.000 UL
LT0
1375 4426 Pls
1375 3865 Pls
1375 4481 Pls
1375 4312 Pls
1375 3462 Pls
1375 3955 Pls
1375 4270 Pls
1375 4585 Pls
1375 3656 Pls
1375 4227 Pls
1375 4598 Pls
1375 4382 Pls
1375 3453 Pls
1375 3878 Pls
1375 4185 Pls
1375 4417 Pls
1375 2751 Pls
1375 3972 Pls
1375 4448 Pls
1375 4348 Pls
1375 3332 Pls
1375 3363 Pls
1375 4417 Pls
1375 4265 Pls
1375 3614 Pls
1375 4114 Pls
1375 4096 Pls
1375 4265 Pls
1375 3051 Pls
1375 3739 Pls
1375 4096 Pls
1375 4265 Pls
1375 3895 Pls
1375 3864 Pls
1375 4578 Pls
1375 4265 Pls
1375 3895 Pls
1375 3989 Pls
1375 4417 Pls
1375 4324 Pls
1375 3980 Pls
1375 4096 Pls
1375 3811 Pls
1375 4394 Pls
1375 3820 Pls
1375 4312 Pls
1375 4255 Pls
1375 4074 Pls
1375 3734 Pls
1375 4399 Pls
1375 4264 Pls
1375 4212 Pls
1375 3687 Pls
1375 3789 Pls
1375 4325 Pls
1375 4264 Pls
1375 3405 Pls
1375 4243 Pls
1375 4311 Pls
1375 4473 Pls
1375 2769 Pls
1375 3739 Pls
1375 4257 Pls
1375 4324 Pls
1375 2769 Pls
1375 3989 Pls
1375 4337 Pls
1375 4561 Pls
1375 3614 Pls
1375 3614 Pls
1375 3774 Pls
1375 4384 Pls
1375 3614 Pls
1375 3989 Pls
1375 3855 Pls
1375 4502 Pls
1375 4458 Pls
1375 3614 Pls
1375 4337 Pls
1375 4443 Pls
1375 3281 Pls
1375 3564 Pls
1375 4175 Pls
1375 4690 Pls
1375 4223 Pls
1375 4218 Pls
1375 4232 Pls
1375 4341 Pls
1375 3927 Pls
1375 3956 Pls
1375 3923 Pls
1375 4269 Pls
1375 3602 Pls
1375 4377 Pls
1375 4292 Pls
1375 4337 Pls
1375 2976 Pls
1375 4384 Pls
1375 4233 Pls
1375 4322 Pls
1375 3614 Pls
1375 4114 Pls
1375 4016 Pls
1375 4502 Pls
1375 4176 Pls
1375 3989 Pls
1375 4176 Pls
1375 4739 Pls
1375 4458 Pls
1375 4489 Pls
1375 4498 Pls
1375 4147 Pls
1375 4176 Pls
1375 3864 Pls
1375 4578 Pls
1375 4680 Pls
1375 4458 Pls
1375 4364 Pls
1375 4176 Pls
1375 4324 Pls
1375 4391 Pls
1375 4335 Pls
1375 3796 Pls
1375 4524 Pls
1375 4739 Pls
1375 3962 Pls
1375 4187 Pls
1375 4381 Pls
1375 3826 Pls
1375 4297 Pls
1375 3912 Pls
1375 4397 Pls
1375 3575 Pls
1375 3812 Pls
1375 4102 Pls
1375 4536 Pls
1375 3848 Pls
1375 4394 Pls
1375 4112 Pls
1375 4283 Pls
1375 3614 Pls
1375 4489 Pls
1375 4257 Pls
1375 3969 Pls
1375 2488 Pls
1375 4489 Pls
1375 4417 Pls
1375 4147 Pls
1375 4458 Pls
1375 4364 Pls
1375 4417 Pls
1375 4384 Pls
1375 4176 Pls
1375 4489 Pls
1375 4417 Pls
1375 4502 Pls
1375 4176 Pls
1375 4364 Pls
1375 4659 Pls
1375 4680 Pls
1375 4230 Pls
1375 4344 Pls
1375 4436 Pls
1375 4542 Pls
1375 4083 Pls
1375 4324 Pls
1375 3925 Pls
1375 4189 Pls
1375 4551 Pls
1375 4386 Pls
1375 4251 Pls
1375 4394 Pls
1375 3973 Pls
1375 3912 Pls
1375 4172 Pls
1375 4391 Pls
1375 3697 Pls
1375 4018 Pls
1375 4170 Pls
1375 4590 Pls
1375 3332 Pls
1375 3864 Pls
1375 4337 Pls
1375 4443 Pls
1375 3895 Pls
1375 4364 Pls
1375 4578 Pls
1375 4680 Pls
1375 4176 Pls
1375 4614 Pls
1375 4498 Pls
1375 4561 Pls
1375 4176 Pls
1375 4739 Pls
1375 4498 Pls
1375 4621 Pls
1375 4739 Pls
1375 4239 Pls
1375 4257 Pls
1375 4680 Pls
2047 4014 Pls
2047 3968 Pls
2047 4259 Pls
2047 4320 Pls
2047 4166 Pls
2047 4252 Pls
2047 4083 Pls
2047 4429 Pls
2047 3660 Pls
2047 4345 Pls
2047 4192 Pls
2047 4200 Pls
2047 3989 Pls
2047 3487 Pls
2047 3845 Pls
2047 4302 Pls
2047 2601 Pls
2047 4309 Pls
2047 4458 Pls
2047 4517 Pls
2047 2488 Pls
2047 3238 Pls
2047 3935 Pls
2047 4324 Pls
2047 3051 Pls
2047 4239 Pls
2047 4498 Pls
2047 4206 Pls
2047 2488 Pls
2047 3739 Pls
2047 4659 Pls
2047 4265 Pls
2047 2769 Pls
2047 4239 Pls
2047 4337 Pls
2047 4443 Pls
2047 3895 Pls
2047 3614 Pls
2047 4096 Pls
2047 4502 Pls
2047 4250 Pls
2047 4645 Pls
2047 4395 Pls
2047 4392 Pls
2047 4364 Pls
2047 3803 Pls
2047 4361 Pls
2047 4534 Pls
2047 4333 Pls
2047 4364 Pls
2047 4278 Pls
2047 4276 Pls
2047 4270 Pls
2047 3840 Pls
2047 4462 Pls
2047 4378 Pls
2047 3003 Pls
2047 4130 Pls
2047 4170 Pls
2047 4473 Pls
2047 3051 Pls
2047 3113 Pls
2047 4176 Pls
2047 4087 Pls
2047 3614 Pls
2047 3989 Pls
2047 4176 Pls
2047 4561 Pls
2047 3895 Pls
2047 3864 Pls
2047 4257 Pls
2047 4206 Pls
2047 2488 Pls
2047 4114 Pls
2047 4498 Pls
2047 4502 Pls
2047 4176 Pls
2047 4239 Pls
2047 4337 Pls
2047 4621 Pls
2047 3748 Pls
2047 4401 Pls
2047 4488 Pls
2047 4444 Pls
2047 3989 Pls
2047 4168 Pls
2047 4395 Pls
2047 4247 Pls
2047 3987 Pls
2047 3952 Pls
2047 4344 Pls
2047 4228 Pls
2047 3663 Pls
2047 4269 Pls
2047 4123 Pls
2047 4315 Pls
2047 3409 Pls
2047 3765 Pls
2047 3945 Pls
2047 4473 Pls
2047 3895 Pls
2047 3489 Pls
2047 4096 Pls
2047 4265 Pls
2047 3332 Pls
2047 3989 Pls
2047 4257 Pls
2047 3791 Pls
2047 3332 Pls
2047 4114 Pls
2047 4176 Pls
2047 4443 Pls
2047 4176 Pls
2047 3739 Pls
2047 4096 Pls
2047 4147 Pls
2047 4739 Pls
2047 4114 Pls
2047 4257 Pls
2047 4206 Pls
2047 4203 Pls
2047 4463 Pls
2047 3948 Pls
2047 4588 Pls
2047 4098 Pls
2047 4163 Pls
2047 4387 Pls
2047 4478 Pls
2047 4312 Pls
2047 4178 Pls
2047 4378 Pls
2047 4445 Pls
2047 3951 Pls
2047 3949 Pls
2047 4302 Pls
2047 4285 Pls
2047 3350 Pls
2047 4472 Pls
2047 4739 Pls
2047 4314 Pls
2047 3332 Pls
2047 3614 Pls
2047 4257 Pls
2047 4265 Pls
2047 4176 Pls
2047 3989 Pls
2047 4337 Pls
2047 4443 Pls
2047 3614 Pls
2047 4239 Pls
2047 4417 Pls
2047 4324 Pls
2047 4458 Pls
2047 4364 Pls
2047 4417 Pls
2047 4324 Pls
2047 4458 Pls
2047 3864 Pls
2047 4176 Pls
2047 4621 Pls
2047 4417 Pls
2047 4406 Pls
2047 4162 Pls
2047 4176 Pls
2047 4417 Pls
2047 4399 Pls
2047 4227 Pls
2047 4301 Pls
2047 4739 Pls
2047 4572 Pls
2047 4222 Pls
2047 4286 Pls
2047 4250 Pls
2047 4017 Pls
2047 4419 Pls
2047 4432 Pls
2047 4411 Pls
2047 4360 Pls
2047 4125 Pls
2047 4382 Pls
2047 3614 Pls
2047 4114 Pls
2047 4016 Pls
2047 4147 Pls
2047 4458 Pls
2047 4239 Pls
2047 4257 Pls
2047 4324 Pls
2047 3332 Pls
2047 4364 Pls
2047 4417 Pls
2047 4502 Pls
2047 4176 Pls
2047 4364 Pls
2047 4417 Pls
2047 4621 Pls
2047 4458 Pls
2047 4364 Pls
2047 4417 Pls
2047 4621 Pls
2719 3864 Pls
2719 4021 Pls
2719 4254 Pls
2719 4387 Pls
2719 4082 Pls
2719 4369 Pls
2719 4400 Pls
2719 4317 Pls
2719 3820 Pls
2719 3558 Pls
2719 4377 Pls
2719 4167 Pls
2719 4391 Pls
2719 4159 Pls
2719 4387 Pls
2719 4368 Pls
2719 3013 Pls
2719 3327 Pls
2719 4523 Pls
2719 4147 Pls
2719 2769 Pls
2719 2738 Pls
2719 3372 Pls
2719 4265 Pls
2719 2488 Pls
2719 3739 Pls
2719 4016 Pls
2719 3791 Pls
2719 3614 Pls
2719 4364 Pls
2719 3935 Pls
2719 4502 Pls
2719 3895 Pls
2719 3864 Pls
2719 4257 Pls
2719 4206 Pls
2719 3051 Pls
2719 3989 Pls
2719 4257 Pls
2719 4324 Pls
2719 4473 Pls
2719 4221 Pls
2719 4336 Pls
2719 4375 Pls
2719 4417 Pls
2719 3855 Pls
2719 4255 Pls
2719 4373 Pls
2719 3955 Pls
2719 4009 Pls
2719 4469 Pls
2719 4278 Pls
2719 4042 Pls
2719 3872 Pls
2719 4180 Pls
2719 4098 Pls
2719 4203 Pls
2719 4001 Pls
2719 4316 Pls
2719 4265 Pls
2719 3051 Pls
2719 3739 Pls
2719 4498 Pls
2719 4384 Pls
2719 3051 Pls
2719 4364 Pls
2719 4739 Pls
2719 4324 Pls
2719 2488 Pls
2719 3739 Pls
2719 4176 Pls
2719 4384 Pls
2719 3614 Pls
2719 4239 Pls
2719 4176 Pls
2719 4621 Pls
2719 2488 Pls
2719 3614 Pls
2719 4417 Pls
2719 4502 Pls
2719 3307 Pls
2719 4427 Pls
2719 4011 Pls
2719 4396 Pls
2719 3426 Pls
2719 4494 Pls
2719 4126 Pls
2719 4023 Pls
2719 3891 Pls
2719 3962 Pls
2719 3771 Pls
2719 4219 Pls
2719 4438 Pls
2719 4652 Pls
2719 4136 Pls
2719 4235 Pls
2719 4250 Pls
2719 3766 Pls
2719 4347 Pls
2719 4527 Pls
2719 3895 Pls
2719 3739 Pls
2719 3855 Pls
2719 4502 Pls
2719 3051 Pls
2719 3989 Pls
2719 4498 Pls
2719 4324 Pls
2719 3332 Pls
2719 4114 Pls
2719 4578 Pls
2719 4561 Pls
2719 3895 Pls
2719 3864 Pls
2719 4417 Pls
2719 4443 Pls
2719 4458 Pls
2719 4614 Pls
2719 4337 Pls
2719 4443 Pls
2719 4578 Pls
2719 4347 Pls
2719 3893 Pls
2719 4554 Pls
2719 4286 Pls
2719 4019 Pls
2719 4121 Pls
2719 4296 Pls
2719 4373 Pls
2719 4391 Pls
2719 4059 Pls
2719 4437 Pls
2719 4551 Pls
2719 4154 Pls
2719 4215 Pls
2719 4384 Pls
2719 3687 Pls
2719 3929 Pls
2719 4252 Pls
2719 4377 Pls
2719 2488 Pls
2719 4364 Pls
2719 4337 Pls
2719 4443 Pls
2719 3051 Pls
2719 3363 Pls
2719 4498 Pls
2719 3910 Pls
2719 4739 Pls
2719 3363 Pls
2719 4337 Pls
2719 4443 Pls
2719 4458 Pls
2719 4489 Pls
2719 4016 Pls
2719 4502 Pls
2719 4176 Pls
2719 3864 Pls
2719 4417 Pls
2719 4561 Pls
2719 4373 Pls
2719 4319 Pls
2719 4428 Pls
2719 4543 Pls
2719 3902 Pls
2719 3775 Pls
2719 4351 Pls
2719 4504 Pls
2719 4438 Pls
2719 4082 Pls
2719 4423 Pls
2719 4189 Pls
2719 3949 Pls
2719 4266 Pls
2719 4411 Pls
2719 4341 Pls
2719 4036 Pls
2719 4534 Pls
2719 4172 Pls
2719 3901 Pls
2719 3895 Pls
2719 4114 Pls
2719 4257 Pls
2719 4265 Pls
2719 3051 Pls
2719 3864 Pls
2719 4417 Pls
2719 4324 Pls
2719 3051 Pls
2719 3864 Pls
2719 4337 Pls
2719 4443 Pls
2719 4458 Pls
2719 4114 Pls
2719 4096 Pls
2719 4147 Pls
2719 4739 Pls
2719 3989 Pls
2719 4337 Pls
2719 4680 Pls
3390 3969 Pls
3390 3977 Pls
3390 4363 Pls
3390 4338 Pls
3390 3908 Pls
3390 4158 Pls
3390 4190 Pls
3390 4298 Pls
3390 3656 Pls
3390 3104 Pls
3390 4398 Pls
3390 4080 Pls
3390 3548 Pls
3390 3711 Pls
3390 4391 Pls
3390 4251 Pls
3390 3464 Pls
3390 4207 Pls
3390 3928 Pls
3390 3914 Pls
3390 2488 Pls
3390 3739 Pls
3390 3533 Pls
3390 4621 Pls
3390 1925 Pls
3390 3614 Pls
3390 3935 Pls
3390 4265 Pls
3390 3895 Pls
3390 3864 Pls
3390 4176 Pls
3390 4502 Pls
3390 3614 Pls
3390 4364 Pls
3390 3774 Pls
3390 4443 Pls
3390 3332 Pls
3390 3739 Pls
3390 3935 Pls
3390 4147 Pls
3390 4739 Pls
3390 4087 Pls
3390 4289 Pls
3390 4247 Pls
3390 3973 Pls
3390 3956 Pls
3390 4221 Pls
3390 4240 Pls
3390 3667 Pls
3390 4364 Pls
3390 3946 Pls
3390 4280 Pls
3390 4391 Pls
3390 4472 Pls
3390 4281 Pls
3390 4329 Pls
3390 3914 Pls
3390 4083 Pls
3390 4237 Pls
3390 4361 Pls
3390 2488 Pls
3390 3614 Pls
3390 3935 Pls
3390 4443 Pls
3390 2769 Pls
3390 4114 Pls
3390 4498 Pls
3390 4147 Pls
3390 3614 Pls
3390 3113 Pls
3390 4176 Pls
3390 4384 Pls
3390 3895 Pls
3390 4239 Pls
3390 3935 Pls
3390 4443 Pls
3390 2488 Pls
3390 3864 Pls
3390 4257 Pls
3390 4028 Pls
3390 4203 Pls
3390 4016 Pls
3390 4359 Pls
3390 4638 Pls
3390 3242 Pls
3390 4028 Pls
3390 4282 Pls
3390 4341 Pls
3390 3667 Pls
3390 4104 Pls
3390 4489 Pls
3390 4553 Pls
3390 4203 Pls
3390 4088 Pls
3390 4448 Pls
3390 4005 Pls
3390 3630 Pls
3390 4566 Pls
3390 4241 Pls
3390 4468 Pls
3390 3051 Pls
3390 3864 Pls
3390 4096 Pls
3390 4265 Pls
3390 4458 Pls
3390 3614 Pls
3390 4498 Pls
3390 4206 Pls
3390 3051 Pls
3390 3739 Pls
3390 3694 Pls
3390 4384 Pls
3390 3895 Pls
3390 3864 Pls
3390 4176 Pls
3390 4502 Pls
3390 4176 Pls
3390 4114 Pls
3390 4578 Pls
3390 4502 Pls
3390 4212 Pls
3390 4485 Pls
3390 4180 Pls
3390 4281 Pls
3390 4739 Pls
3390 4378 Pls
3390 4162 Pls
3390 4346 Pls
3390 4391 Pls
3390 3997 Pls
3390 4356 Pls
3390 4331 Pls
3390 3506 Pls
3390 4303 Pls
3390 3995 Pls
3390 4345 Pls
3390 2646 Pls
3390 4027 Pls
3390 4346 Pls
3390 4005 Pls
3390 3614 Pls
3390 3614 Pls
3390 3774 Pls
3390 4087 Pls
3390 4176 Pls
3390 3739 Pls
3390 4337 Pls
3390 4087 Pls
3390 3895 Pls
3390 3989 Pls
3390 4176 Pls
3390 4265 Pls
3390 3895 Pls
3390 4364 Pls
3390 4337 Pls
3390 4621 Pls
3390 4176 Pls
3390 4114 Pls
3390 4016 Pls
3390 4561 Pls
3390 4364 Pls
3390 4319 Pls
3390 4491 Pls
3390 4259 Pls
3390 4187 Pls
3390 4378 Pls
3390 4125 Pls
3390 4317 Pls
3390 4411 Pls
3390 4652 Pls
3390 4418 Pls
3390 4536 Pls
3390 4578 Pls
3390 3922 Pls
3390 4431 Pls
3390 4334 Pls
3390 3473 Pls
3390 4142 Pls
3390 4387 Pls
3390 4337 Pls
3390 2769 Pls
3390 4364 Pls
3390 4016 Pls
3390 4087 Pls
3390 3332 Pls
3390 4364 Pls
3390 4417 Pls
3390 4443 Pls
3390 3895 Pls
3390 4114 Pls
3390 3935 Pls
3390 4502 Pls
3390 4176 Pls
3390 4239 Pls
3390 4498 Pls
3390 4028 Pls
3390 4458 Pls
3390 4489 Pls
3390 4337 Pls
3390 4324 Pls
4062 4016 Pls
4062 3929 Pls
4062 4391 Pls
4062 4428 Pls
4062 3940 Pls
4062 3873 Pls
4062 4187 Pls
4062 4463 Pls
4062 3882 Pls
4062 3750 Pls
4062 3967 Pls
4062 4438 Pls
4062 2938 Pls
4062 4030 Pls
4062 4321 Pls
4062 4634 Pls
4062 1888 Pls
4062 3921 Pls
4062 4298 Pls
4062 4144 Pls
4062 2769 Pls
4062 3489 Pls
4062 4016 Pls
4062 4384 Pls
4062 3332 Pls
4062 3489 Pls
4062 4176 Pls
4062 4147 Pls
4062 1925 Pls
4062 4239 Pls
4062 3855 Pls
4062 4206 Pls
4062 3895 Pls
4062 3614 Pls
4062 4096 Pls
4062 4147 Pls
4062 3614 Pls
4062 3614 Pls
4062 4417 Pls
4062 4443 Pls
4062 4129 Pls
4062 3666 Pls
4062 4389 Pls
4062 4636 Pls
4062 4598 Pls
4062 4117 Pls
4062 4200 Pls
4062 4397 Pls
4062 4176 Pls
4062 4047 Pls
4062 4001 Pls
4062 4300 Pls
4062 3640 Pls
4062 3777 Pls
4062 3754 Pls
4062 4217 Pls
4062 3640 Pls
4062 3562 Pls
4062 3968 Pls
4062 4034 Pls
4062 2769 Pls
4062 2988 Pls
4062 4096 Pls
4062 4206 Pls
4062 3614 Pls
4062 4239 Pls
4062 4176 Pls
4062 4443 Pls
4062 3614 Pls
4062 3739 Pls
4062 4016 Pls
4062 4384 Pls
4062 4176 Pls
4062 4239 Pls
4062 4417 Pls
4062 4443 Pls
4062 3614 Pls
4062 3989 Pls
4062 4417 Pls
4062 4324 Pls
4062 4578 Pls
4062 4472 Pls
4062 4265 Pls
4062 4331 Pls
4062 4353 Pls
4062 4026 Pls
4062 4356 Pls
4062 4500 Pls
4062 4025 Pls
4062 4398 Pls
4062 4126 Pls
4062 4477 Pls
4062 4248 Pls
4062 4335 Pls
4062 3926 Pls
4062 4366 Pls
4062 3726 Pls
4062 3831 Pls
4062 4324 Pls
4062 4310 Pls
4062 1925 Pls
4062 3989 Pls
4062 4337 Pls
4062 4561 Pls
4062 3895 Pls
4062 3864 Pls
4062 4096 Pls
4062 4087 Pls
4062 3051 Pls
4062 3864 Pls
4062 4337 Pls
4062 4384 Pls
4062 3051 Pls
4062 4364 Pls
4062 4016 Pls
4062 4324 Pls
4062 3332 Pls
4062 3864 Pls
4062 4016 Pls
4062 4443 Pls
4062 4223 Pls
4062 4283 Pls
4062 4119 Pls
4062 4455 Pls
4062 4289 Pls
4062 4566 Pls
4062 4365 Pls
4062 4194 Pls
4062 4458 Pls
4062 3996 Pls
4062 4080 Pls
4062 4350 Pls
4062 4417 Pls
4062 4116 Pls
4062 4131 Pls
4062 4587 Pls
4062 3753 Pls
4062 4223 Pls
4062 4060 Pls
4062 4639 Pls
4062 4739 Pls
4062 4239 Pls
4062 3935 Pls
4062 4206 Pls
4062 3051 Pls
4062 4114 Pls
4062 4096 Pls
4062 4324 Pls
4062 2769 Pls
4062 3739 Pls
4062 4337 Pls
4062 4443 Pls
4062 3332 Pls
4062 3989 Pls
4062 4337 Pls
4062 4206 Pls
4062 3895 Pls
4062 3989 Pls
4062 4337 Pls
4062 4502 Pls
4062 4598 Pls
4062 4182 Pls
4062 4073 Pls
4062 4173 Pls
4062 4312 Pls
4062 4199 Pls
4062 4222 Pls
4062 4340 Pls
4062 4551 Pls
4062 4377 Pls
4062 4485 Pls
4062 4552 Pls
4062 4036 Pls
4062 4392 Pls
4062 4306 Pls
4062 4257 Pls
4062 3555 Pls
4062 4134 Pls
4062 4254 Pls
4062 4366 Pls
4062 3051 Pls
4062 3864 Pls
4062 4498 Pls
4062 4087 Pls
4062 3614 Pls
4062 4239 Pls
4062 4337 Pls
4062 4265 Pls
4062 3895 Pls
4062 3989 Pls
4062 4417 Pls
4062 4265 Pls
4062 3614 Pls
4062 4239 Pls
4062 4176 Pls
4062 4206 Pls
4062 2769 Pls
4062 4364 Pls
4062 4337 Pls
4062 4324 Pls
4734 4136 Pls
4734 3663 Pls
4734 4227 Pls
4734 4371 Pls
4734 3630 Pls
4734 4163 Pls
4734 4091 Pls
4734 4375 Pls
4734 4223 Pls
4734 4226 Pls
4734 4109 Pls
4734 4207 Pls
4734 2627 Pls
4734 4320 Pls
4734 3757 Pls
4734 4263 Pls
4734 3088 Pls
4734 4422 Pls
4734 4087 Pls
4734 4407 Pls
4734 3051 Pls
4734 3238 Pls
4734 4016 Pls
4734 4384 Pls
4734 2488 Pls
4734 4114 Pls
4734 4016 Pls
4734 4206 Pls
4734 2488 Pls
4734 4114 Pls
4734 4176 Pls
4734 4265 Pls
4734 3895 Pls
4734 3739 Pls
4734 3694 Pls
4734 4324 Pls
4734 3051 Pls
4734 3989 Pls
4734 3935 Pls
4734 4028 Pls
4734 3987 Pls
4734 4175 Pls
4734 4178 Pls
4734 4442 Pls
4734 4233 Pls
4734 4441 Pls
4734 4268 Pls
4734 4245 Pls
4734 3714 Pls
4734 4028 Pls
4734 4192 Pls
4734 4293 Pls
4734 4069 Pls
4734 4048 Pls
4734 4194 Pls
4734 4207 Pls
4734 3951 Pls
4734 4084 Pls
4734 3954 Pls
4734 4522 Pls
4734 3332 Pls
4734 4364 Pls
4734 4096 Pls
4734 4324 Pls
4734 4458 Pls
4734 3614 Pls
4734 3935 Pls
4734 4147 Pls
4734 3332 Pls
4734 3989 Pls
4734 4337 Pls
4734 4087 Pls
4734 4458 Pls
4734 4364 Pls
4734 4257 Pls
4734 4443 Pls
4734 3895 Pls
4734 4114 Pls
4734 4016 Pls
4734 4384 Pls
4734 4458 Pls
4734 4446 Pls
4734 4301 Pls
4734 4590 Pls
4734 3607 Pls
4734 3996 Pls
4734 4332 Pls
4734 4480 Pls
4734 4426 Pls
4734 4384 Pls
4734 4426 Pls
4734 4442 Pls
4734 4186 Pls
4734 4184 Pls
4734 3854 Pls
4734 4246 Pls
4734 3528 Pls
4734 4645 Pls
4734 4145 Pls
4734 4368 Pls
4734 3051 Pls
4734 4239 Pls
4734 4016 Pls
4734 3969 Pls
4734 3614 Pls
4734 3113 Pls
4734 4176 Pls
4734 4265 Pls
4734 3614 Pls
4734 3739 Pls
4734 4176 Pls
4734 4206 Pls
4734 3051 Pls
4734 4114 Pls
4734 4578 Pls
4734 4147 Pls
4734 4458 Pls
4734 4114 Pls
4734 4096 Pls
4734 4324 Pls
4734 4453 Pls
4734 4586 Pls
4734 4264 Pls
4734 4239 Pls
4734 4473 Pls
4734 4502 Pls
4734 4230 Pls
4734 4346 Pls
4734 4578 Pls
4734 4188 Pls
4734 4167 Pls
4734 4440 Pls
4734 2969 Pls
4734 3950 Pls
4734 4133 Pls
4734 4482 Pls
4734 3453 Pls
4734 3436 Pls
4734 4202 Pls
4734 4144 Pls
4734 3895 Pls
4734 4114 Pls
4734 4176 Pls
4734 4443 Pls
4734 3895 Pls
4734 3614 Pls
4734 4176 Pls
4734 4265 Pls
4734 4176 Pls
4734 4364 Pls
4734 4578 Pls
4734 4384 Pls
4734 4176 Pls
4734 3864 Pls
4734 4337 Pls
4734 4147 Pls
4734 3332 Pls
4734 4114 Pls
4734 4257 Pls
4734 4324 Pls
4734 4239 Pls
4734 4230 Pls
4734 4180 Pls
4734 4296 Pls
4734 4172 Pls
4734 4191 Pls
4734 4292 Pls
4734 4248 Pls
4734 4598 Pls
4734 4086 Pls
4734 4544 Pls
4734 4390 Pls
4734 4417 Pls
4734 4456 Pls
4734 4141 Pls
4734 4422 Pls
4734 3882 Pls
4734 3964 Pls
4734 4152 Pls
4734 4473 Pls
4734 3614 Pls
4734 3989 Pls
4734 3614 Pls
4734 4384 Pls
4734 4176 Pls
4734 3864 Pls
4734 4257 Pls
4734 4324 Pls
4734 3895 Pls
4734 4239 Pls
4734 4176 Pls
4734 4147 Pls
4734 3895 Pls
4734 4364 Pls
4734 4257 Pls
4734 4443 Pls
4734 4176 Pls
4734 4239 Pls
4734 3935 Pls
4734 4621 Pls
5406 4089 Pls
5406 4367 Pls
5406 4007 Pls
5406 4322 Pls
5406 3914 Pls
5406 3903 Pls
5406 4319 Pls
5406 4590 Pls
5406 3051 Pls
5406 3770 Pls
5406 4321 Pls
5406 4473 Pls
5406 4166 Pls
5406 3776 Pls
5406 4465 Pls
5406 4205 Pls
5406 3501 Pls
5406 3276 Pls
5406 4298 Pls
5406 4407 Pls
5406 2488 Pls
5406 3489 Pls
5406 4016 Pls
5406 4324 Pls
5406 3614 Pls
5406 3113 Pls
5406 3855 Pls
5406 4384 Pls
5406 3051 Pls
5406 3864 Pls
5406 4096 Pls
5406 4265 Pls
5406 2769 Pls
5406 3739 Pls
5406 4337 Pls
5406 3851 Pls
5406 3332 Pls
5406 4489 Pls
5406 3855 Pls
5406 4265 Pls
5406 4578 Pls
5406 4113 Pls
5406 4297 Pls
5406 4180 Pls
5406 4230 Pls
5406 4174 Pls
5406 4403 Pls
5406 4488 Pls
5406 3178 Pls
5406 3940 Pls
5406 4669 Pls
5406 3964 Pls
5406 4551 Pls
5406 3861 Pls
5406 4108 Pls
5406 4276 Pls
5406 3565 Pls
5406 4134 Pls
5406 4042 Pls
5406 4072 Pls
5406 3332 Pls
5406 3989 Pls
5406 4417 Pls
5406 4206 Pls
5406 3051 Pls
5406 3489 Pls
5406 4096 Pls
5406 4206 Pls
5406 3895 Pls
5406 3614 Pls
5406 4417 Pls
5406 4206 Pls
5406 3051 Pls
5406 4114 Pls
5406 4016 Pls
5406 4384 Pls
5406 3895 Pls
5406 4364 Pls
5406 3855 Pls
5406 4502 Pls
5406 4005 Pls
5406 3966 Pls
5406 4116 Pls
5406 4637 Pls
5406 4578 Pls
5406 4472 Pls
5406 4337 Pls
5406 4590 Pls
5406 3902 Pls
5406 4123 Pls
5406 4145 Pls
5406 4340 Pls
5406 4426 Pls
5406 4260 Pls
5406 4492 Pls
5406 4293 Pls
5406 3855 Pls
5406 3137 Pls
5406 4072 Pls
5406 4280 Pls
5406 1363 Pls
5406 3989 Pls
5406 3855 Pls
5406 4443 Pls
5406 2769 Pls
5406 4114 Pls
5406 4096 Pls
5406 4384 Pls
5406 4458 Pls
5406 3989 Pls
5406 4257 Pls
5406 4621 Pls
5406 4458 Pls
5406 4114 Pls
5406 4176 Pls
5406 4147 Pls
5406 3895 Pls
5406 3989 Pls
5406 3774 Pls
5406 4324 Pls
5406 4011 Pls
5406 3737 Pls
5406 4306 Pls
5406 4502 Pls
5406 3995 Pls
5406 3766 Pls
5406 3993 Pls
5406 4344 Pls
5406 4089 Pls
5406 3787 Pls
5406 4171 Pls
5406 3756 Pls
5406 4203 Pls
5406 4131 Pls
5406 4142 Pls
5406 4380 Pls
5406 4116 Pls
5406 3704 Pls
5406 4328 Pls
5406 4228 Pls
5406 4458 Pls
5406 3489 Pls
5406 4176 Pls
5406 4384 Pls
5406 3614 Pls
5406 3614 Pls
5406 4016 Pls
5406 4265 Pls
5406 4458 Pls
5406 4364 Pls
5406 3935 Pls
5406 4443 Pls
5406 3614 Pls
5406 4114 Pls
5406 4417 Pls
5406 4147 Pls
5406 3614 Pls
5406 3739 Pls
5406 4096 Pls
5406 4028 Pls
5406 4417 Pls
5406 4577 Pls
5406 4302 Pls
5406 4458 Pls
5406 3801 Pls
5406 4188 Pls
5406 3923 Pls
5406 4286 Pls
5406 3225 Pls
5406 4128 Pls
5406 4067 Pls
5406 4034 Pls
5406 4578 Pls
5406 3915 Pls
5406 4263 Pls
5406 4379 Pls
5406 3565 Pls
5406 4320 Pls
5406 4415 Pls
5406 4537 Pls
5406 3614 Pls
5406 3739 Pls
5406 3774 Pls
5406 4265 Pls
5406 4458 Pls
5406 3614 Pls
5406 4096 Pls
5406 4265 Pls
5406 4176 Pls
5406 3989 Pls
5406 4337 Pls
5406 4265 Pls
5406 3895 Pls
5406 3864 Pls
5406 4176 Pls
5406 4384 Pls
5406 3895 Pls
5406 4239 Pls
5406 4337 Pls
5406 4265 Pls
6077 4373 Pls
6077 4337 Pls
6077 4141 Pls
6077 4217 Pls
6077 3961 Pls
6077 4296 Pls
6077 4403 Pls
6077 4380 Pls
6077 3558 Pls
6077 4556 Pls
6077 4323 Pls
6077 4097 Pls
6077 4289 Pls
6077 3602 Pls
6077 4527 Pls
6077 4358 Pls
6077 4139 Pls
6077 3675 Pls
6077 4294 Pls
6077 4246 Pls
6077 3332 Pls
6077 3739 Pls
6077 4096 Pls
6077 4384 Pls
6077 3614 Pls
6077 3989 Pls
6077 4417 Pls
6077 4502 Pls
6077 3051 Pls
6077 4364 Pls
6077 3614 Pls
6077 4265 Pls
6077 3614 Pls
6077 4114 Pls
6077 4176 Pls
6077 4087 Pls
6077 3895 Pls
6077 3489 Pls
6077 4016 Pls
6077 3910 Pls
6077 4598 Pls
6077 3428 Pls
6077 4494 Pls
6077 4173 Pls
6077 3533 Pls
6077 4056 Pls
6077 4162 Pls
6077 4487 Pls
6077 4598 Pls
6077 4205 Pls
6077 4228 Pls
6077 4334 Pls
6077 3565 Pls
6077 3662 Pls
6077 4157 Pls
6077 4363 Pls
6077 3828 Pls
6077 3877 Pls
6077 3705 Pls
6077 4266 Pls
6077 2769 Pls
6077 3489 Pls
6077 4016 Pls
6077 4206 Pls
6077 4176 Pls
6077 3989 Pls
6077 3614 Pls
6077 4087 Pls
6077 3051 Pls
6077 3864 Pls
6077 4096 Pls
6077 4324 Pls
6077 3895 Pls
6077 3864 Pls
6077 4176 Pls
6077 4443 Pls
6077 2769 Pls
6077 3989 Pls
6077 3935 Pls
6077 4384 Pls
6077 4453 Pls
6077 4302 Pls
6077 4180 Pls
6077 4177 Pls
6077 3620 Pls
6077 4389 Pls
6077 4242 Pls
6077 4040 Pls
6077 4551 Pls
6077 4019 Pls
6077 3776 Pls
6077 4340 Pls
6077 3480 Pls
6077 4142 Pls
6077 4150 Pls
6077 4425 Pls
6077 3721 Pls
6077 3825 Pls
6077 4332 Pls
6077 4215 Pls
6077 3895 Pls
6077 4114 Pls
6077 4498 Pls
6077 4384 Pls
6077 3895 Pls
6077 4239 Pls
6077 4176 Pls
6077 4443 Pls
6077 3051 Pls
6077 4489 Pls
6077 4096 Pls
6077 4087 Pls
6077 4176 Pls
6077 4239 Pls
6077 4176 Pls
6077 4265 Pls
6077 4176 Pls
6077 3739 Pls
6077 4659 Pls
6077 4443 Pls
6077 4109 Pls
6077 4404 Pls
6077 4282 Pls
6077 4294 Pls
6077 4614 Pls
6077 4384 Pls
6077 4461 Pls
6077 4236 Pls
6077 4578 Pls
6077 4053 Pls
6077 4489 Pls
6077 4341 Pls
6077 4364 Pls
6077 3783 Pls
6077 4296 Pls
6077 4219 Pls
6077 3237 Pls
6077 4164 Pls
6077 4289 Pls
6077 4422 Pls
6077 3895 Pls
6077 3739 Pls
6077 3855 Pls
6077 3969 Pls
6077 3051 Pls
6077 4239 Pls
6077 4176 Pls
6077 4206 Pls
6077 4458 Pls
6077 3864 Pls
6077 3855 Pls
6077 4265 Pls
6077 3051 Pls
6077 4114 Pls
6077 4176 Pls
6077 4324 Pls
6077 4176 Pls
6077 3864 Pls
6077 4417 Pls
6077 4324 Pls
6077 4186 Pls
6077 4256 Pls
6077 3862 Pls
6077 4401 Pls
6077 4614 Pls
6077 4088 Pls
6077 4105 Pls
6077 4300 Pls
6077 3902 Pls
6077 4652 Pls
6077 3917 Pls
6077 4282 Pls
6077 4297 Pls
6077 3814 Pls
6077 4423 Pls
6077 4306 Pls
6077 3697 Pls
6077 3935 Pls
6077 4275 Pls
6077 4240 Pls
6077 4176 Pls
6077 3864 Pls
6077 4016 Pls
6077 4265 Pls
6077 4176 Pls
6077 3739 Pls
6077 4257 Pls
6077 4028 Pls
6077 4176 Pls
6077 3989 Pls
6077 4257 Pls
6077 4324 Pls
6077 3614 Pls
6077 4114 Pls
6077 4337 Pls
6077 4384 Pls
6077 3332 Pls
6077 4364 Pls
6077 4337 Pls
6077 4384 Pls
6749 4417 Pls
6749 4142 Pls
6749 4547 Pls
6749 4238 Pls
6749 3301 Pls
6749 4320 Pls
6749 3997 Pls
6749 4371 Pls
6749 3281 Pls
6749 4002 Pls
6749 4324 Pls
6749 4583 Pls
6749 2712 Pls
6749 4125 Pls
6749 3959 Pls
6749 4322 Pls
6749 3651 Pls
6749 4002 Pls
6749 4078 Pls
6749 4353 Pls
6749 3614 Pls
6749 4364 Pls
6749 4257 Pls
6749 4265 Pls
6749 3051 Pls
6749 4114 Pls
6749 4337 Pls
6749 4206 Pls
6749 3614 Pls
6749 4489 Pls
6749 4176 Pls
6749 4324 Pls
6749 3051 Pls
6749 3989 Pls
6749 4016 Pls
6749 4384 Pls
6749 3895 Pls
6749 3489 Pls
6749 4257 Pls
6749 4087 Pls
6749 3875 Pls
6749 4079 Pls
6749 4246 Pls
6749 4300 Pls
6749 4551 Pls
6749 3866 Pls
6749 3954 Pls
6749 4484 Pls
6749 4257 Pls
6749 3977 Pls
6749 4278 Pls
6749 4376 Pls
6749 4438 Pls
6749 3876 Pls
6749 4069 Pls
6749 4530 Pls
6749 3238 Pls
6749 3670 Pls
6749 4316 Pls
6749 4029 Pls
6749 3051 Pls
6749 4239 Pls
6749 4257 Pls
6749 4443 Pls
6749 3332 Pls
6749 3864 Pls
6749 4417 Pls
6749 4087 Pls
6749 3895 Pls
6749 4239 Pls
6749 4016 Pls
6749 4561 Pls
6749 3614 Pls
6749 4364 Pls
6749 4337 Pls
6749 4206 Pls
6749 4458 Pls
6749 4114 Pls
6749 4176 Pls
6749 4443 Pls
6749 4739 Pls
6749 4146 Pls
6749 4030 Pls
6749 4491 Pls
6749 4353 Pls
6749 4199 Pls
6749 4201 Pls
6749 4019 Pls
6749 4016 Pls
6749 4088 Pls
6749 4194 Pls
6749 4185 Pls
6749 3135 Pls
6749 4167 Pls
6749 3695 Pls
6749 4433 Pls
6749 4203 Pls
6749 4105 Pls
6749 4170 Pls
6749 4378 Pls
6749 3614 Pls
6749 3614 Pls
6749 3855 Pls
6749 4324 Pls
6749 3895 Pls
6749 3238 Pls
6749 3935 Pls
6749 4087 Pls
6749 3895 Pls
6749 3989 Pls
6749 4016 Pls
6749 4265 Pls
6749 3895 Pls
6749 3489 Pls
6749 3935 Pls
6749 4324 Pls
6749 4176 Pls
6749 4114 Pls
6749 4016 Pls
6749 4384 Pls
6749 4598 Pls
6749 4496 Pls
6749 4421 Pls
6749 4456 Pls
6749 4212 Pls
6749 4123 Pls
6749 4432 Pls
6749 3948 Pls
6749 3886 Pls
6749 3600 Pls
6749 3958 Pls
6749 4382 Pls
6749 4473 Pls
6749 3895 Pls
6749 4360 Pls
6749 4300 Pls
6749 3753 Pls
6749 4079 Pls
6749 4213 Pls
6749 4372 Pls
6749 4176 Pls
6749 3989 Pls
6749 4176 Pls
6749 4206 Pls
6749 3895 Pls
6749 4364 Pls
6749 4498 Pls
6749 4087 Pls
6749 4176 Pls
6749 4114 Pls
6749 4417 Pls
6749 4206 Pls
6749 3051 Pls
6749 4239 Pls
6749 4016 Pls
6749 4324 Pls
6749 3614 Pls
6749 4364 Pls
6749 4337 Pls
6749 4324 Pls
6749 4739 Pls
6749 4222 Pls
6749 4380 Pls
6749 4393 Pls
6749 4148 Pls
6749 4215 Pls
6749 4078 Pls
6749 4447 Pls
6749 4514 Pls
6749 4162 Pls
6749 4109 Pls
6749 4558 Pls
6749 3721 Pls
6749 4174 Pls
6749 4488 Pls
6749 4491 Pls
6749 4016 Pls
6749 3903 Pls
6749 4063 Pls
6749 4391 Pls
6749 4176 Pls
6749 3864 Pls
6749 4498 Pls
6749 4265 Pls
6749 3895 Pls
6749 4239 Pls
6749 4176 Pls
6749 4087 Pls
6749 3614 Pls
6749 3989 Pls
6749 4257 Pls
6749 4443 Pls
6749 3895 Pls
6749 4489 Pls
6749 4096 Pls
6749 4384 Pls
6749 4739 Pls
6749 4364 Pls
6749 4337 Pls
6749 4502 Pls
% End plot #1
% Begin plot #2
8.000 UL
LT1
LCb setrgbcolor
5636 1488 M
[ [(Helvetica) 250.0 0.0 true true 0 (Average)]
] -83.3 MRshow
LT1
5786 1488 M
663 0 V
1375 4147 M
672 -13 V
672 -37 V
671 -26 V
672 -16 V
672 39 V
672 -48 V
671 42 V
672 28 V
% End plot #2
% Begin plot #3
stroke
4.000 UL
LT2
LCb setrgbcolor
5636 1238 M
[ [(Helvetica) 250.0 0.0 true true 0 (Min)]
] -83.3 MRshow
LT2
5786 1238 M
663 0 V
1375 2488 M
672 0 V
672 0 V
671 -563 V
672 -37 V
672 600 V
5406 1363 L
671 1406 V
672 -57 V
% End plot #3
% Begin plot #4
stroke
LT3
LCb setrgbcolor
5636 988 M
[ [(Helvetica) 250.0 0.0 true true 0 (Max)]
] -83.3 MRshow
LT3
5786 988 M
663 0 V
1375 4739 M
672 0 V
672 0 V
671 0 V
672 0 V
672 -94 V
672 24 V
671 -10 V
672 80 V
% End plot #4
stroke
1.000 UL
LTb
1375 4739 N
0 -3939 V
5374 0 V
0 3939 V
-5374 0 V
Z stroke
1.000 UP
1.000 UL
LTb
stroke
grestore
end
showpage
%%Trailer
%%DocumentFonts: Helvetica
