%!PS-Adobe-2.0 EPSF-2.0
%%Title: r_orig_length-precision.eps
%%Creator: gnuplot 4.4 patchlevel 3
%%CreationDate: Fri Jun 14 19:20:07 2013
%%DocumentFonts: (atend)
%%BoundingBox: 50 50 410 302
%%EndComments
%%BeginProlog
/gnudict 256 dict def
gnudict begin
%
% The following true/false flags may be edited by hand if desired.
% The unit line width and grayscale image gamma correction may also be changed.
%
/Color true def
/Blacktext false def
/Solid false def
/Dashlength 1 def
/Landscape false def
/Level1 false def
/Rounded false def
/ClipToBoundingBox false def
/TransparentPatterns false def
/gnulinewidth 5.000 def
/userlinewidth gnulinewidth def
/Gamma 1.0 def
%
/vshift -83 def
/dl1 {
  10.0 Dashlength mul mul
  Rounded { currentlinewidth 0.75 mul sub dup 0 le { pop 0.01 } if } if
} def
/dl2 {
  10.0 Dashlength mul mul
  Rounded { currentlinewidth 0.75 mul add } if
} def
/hpt_ 31.5 def
/vpt_ 31.5 def
/hpt hpt_ def
/vpt vpt_ def
Level1 {} {
/SDict 10 dict def
systemdict /pdfmark known not {
  userdict /pdfmark systemdict /cleartomark get put
} if
SDict begin [
  /Title (r_orig_length-precision.eps)
  /Subject (gnuplot plot)
  /Creator (gnuplot 4.4 patchlevel 3)
  /Author (xjia)
%  /Producer (gnuplot)
%  /Keywords ()
  /CreationDate (Fri Jun 14 19:20:07 2013)
  /DOCINFO pdfmark
end
} ifelse
/doclip {
  ClipToBoundingBox {
    newpath 50 50 moveto 410 50 lineto 410 302 lineto 50 302 lineto closepath
    clip
  } if
} def
%
% Gnuplot Prolog Version 4.4 (August 2010)
%
%/SuppressPDFMark true def
%
/M {moveto} bind def
/L {lineto} bind def
/R {rmoveto} bind def
/V {rlineto} bind def
/N {newpath moveto} bind def
/Z {closepath} bind def
/C {setrgbcolor} bind def
/f {rlineto fill} bind def
/g {setgray} bind def
/Gshow {show} def   % May be redefined later in the file to support UTF-8
/vpt2 vpt 2 mul def
/hpt2 hpt 2 mul def
/Lshow {currentpoint stroke M 0 vshift R 
	Blacktext {gsave 0 setgray show grestore} {show} ifelse} def
/Rshow {currentpoint stroke M dup stringwidth pop neg vshift R
	Blacktext {gsave 0 setgray show grestore} {show} ifelse} def
/Cshow {currentpoint stroke M dup stringwidth pop -2 div vshift R 
	Blacktext {gsave 0 setgray show grestore} {show} ifelse} def
/UP {dup vpt_ mul /vpt exch def hpt_ mul /hpt exch def
  /hpt2 hpt 2 mul def /vpt2 vpt 2 mul def} def
/DL {Color {setrgbcolor Solid {pop []} if 0 setdash}
 {pop pop pop 0 setgray Solid {pop []} if 0 setdash} ifelse} def
/BL {stroke userlinewidth 2 mul setlinewidth
	Rounded {1 setlinejoin 1 setlinecap} if} def
/AL {stroke userlinewidth 2 div setlinewidth
	Rounded {1 setlinejoin 1 setlinecap} if} def
/UL {dup gnulinewidth mul /userlinewidth exch def
	dup 1 lt {pop 1} if 10 mul /udl exch def} def
/PL {stroke userlinewidth setlinewidth
	Rounded {1 setlinejoin 1 setlinecap} if} def
3.8 setmiterlimit
% Default Line colors
/LCw {1 1 1} def
/LCb {0 0 0} def
/LCa {0 0 0} def
/LC0 {1 0 0} def
/LC1 {0 1 0} def
/LC2 {0 0 1} def
/LC3 {1 0 1} def
/LC4 {0 1 1} def
/LC5 {1 1 0} def
/LC6 {0 0 0} def
/LC7 {1 0.3 0} def
/LC8 {0.5 0.5 0.5} def
% Default Line Types
/LTw {PL [] 1 setgray} def
/LTb {BL [] LCb DL} def
/LTa {AL [1 udl mul 2 udl mul] 0 setdash LCa setrgbcolor} def
/LT0 {PL [] LC0 DL} def
/LT1 {PL [4 dl1 2 dl2] LC1 DL} def
/LT2 {PL [2 dl1 3 dl2] LC2 DL} def
/LT3 {PL [1 dl1 1.5 dl2] LC3 DL} def
/LT4 {PL [6 dl1 2 dl2 1 dl1 2 dl2] LC4 DL} def
/LT5 {PL [3 dl1 3 dl2 1 dl1 3 dl2] LC5 DL} def
/LT6 {PL [2 dl1 2 dl2 2 dl1 6 dl2] LC6 DL} def
/LT7 {PL [1 dl1 2 dl2 6 dl1 2 dl2 1 dl1 2 dl2] LC7 DL} def
/LT8 {PL [2 dl1 2 dl2 2 dl1 2 dl2 2 dl1 2 dl2 2 dl1 4 dl2] LC8 DL} def
/Pnt {stroke [] 0 setdash gsave 1 setlinecap M 0 0 V stroke grestore} def
/Dia {stroke [] 0 setdash 2 copy vpt add M
  hpt neg vpt neg V hpt vpt neg V
  hpt vpt V hpt neg vpt V closepath stroke
  Pnt} def
/Pls {stroke [] 0 setdash vpt sub M 0 vpt2 V
  currentpoint stroke M
  hpt neg vpt neg R hpt2 0 V stroke
 } def
/Box {stroke [] 0 setdash 2 copy exch hpt sub exch vpt add M
  0 vpt2 neg V hpt2 0 V 0 vpt2 V
  hpt2 neg 0 V closepath stroke
  Pnt} def
/Crs {stroke [] 0 setdash exch hpt sub exch vpt add M
  hpt2 vpt2 neg V currentpoint stroke M
  hpt2 neg 0 R hpt2 vpt2 V stroke} def
/TriU {stroke [] 0 setdash 2 copy vpt 1.12 mul add M
  hpt neg vpt -1.62 mul V
  hpt 2 mul 0 V
  hpt neg vpt 1.62 mul V closepath stroke
  Pnt} def
/Star {2 copy Pls Crs} def
/BoxF {stroke [] 0 setdash exch hpt sub exch vpt add M
  0 vpt2 neg V hpt2 0 V 0 vpt2 V
  hpt2 neg 0 V closepath fill} def
/TriUF {stroke [] 0 setdash vpt 1.12 mul add M
  hpt neg vpt -1.62 mul V
  hpt 2 mul 0 V
  hpt neg vpt 1.62 mul V closepath fill} def
/TriD {stroke [] 0 setdash 2 copy vpt 1.12 mul sub M
  hpt neg vpt 1.62 mul V
  hpt 2 mul 0 V
  hpt neg vpt -1.62 mul V closepath stroke
  Pnt} def
/TriDF {stroke [] 0 setdash vpt 1.12 mul sub M
  hpt neg vpt 1.62 mul V
  hpt 2 mul 0 V
  hpt neg vpt -1.62 mul V closepath fill} def
/DiaF {stroke [] 0 setdash vpt add M
  hpt neg vpt neg V hpt vpt neg V
  hpt vpt V hpt neg vpt V closepath fill} def
/Pent {stroke [] 0 setdash 2 copy gsave
  translate 0 hpt M 4 {72 rotate 0 hpt L} repeat
  closepath stroke grestore Pnt} def
/PentF {stroke [] 0 setdash gsave
  translate 0 hpt M 4 {72 rotate 0 hpt L} repeat
  closepath fill grestore} def
/Circle {stroke [] 0 setdash 2 copy
  hpt 0 360 arc stroke Pnt} def
/CircleF {stroke [] 0 setdash hpt 0 360 arc fill} def
/C0 {BL [] 0 setdash 2 copy moveto vpt 90 450 arc} bind def
/C1 {BL [] 0 setdash 2 copy moveto
	2 copy vpt 0 90 arc closepath fill
	vpt 0 360 arc closepath} bind def
/C2 {BL [] 0 setdash 2 copy moveto
	2 copy vpt 90 180 arc closepath fill
	vpt 0 360 arc closepath} bind def
/C3 {BL [] 0 setdash 2 copy moveto
	2 copy vpt 0 180 arc closepath fill
	vpt 0 360 arc closepath} bind def
/C4 {BL [] 0 setdash 2 copy moveto
	2 copy vpt 180 270 arc closepath fill
	vpt 0 360 arc closepath} bind def
/C5 {BL [] 0 setdash 2 copy moveto
	2 copy vpt 0 90 arc
	2 copy moveto
	2 copy vpt 180 270 arc closepath fill
	vpt 0 360 arc} bind def
/C6 {BL [] 0 setdash 2 copy moveto
	2 copy vpt 90 270 arc closepath fill
	vpt 0 360 arc closepath} bind def
/C7 {BL [] 0 setdash 2 copy moveto
	2 copy vpt 0 270 arc closepath fill
	vpt 0 360 arc closepath} bind def
/C8 {BL [] 0 setdash 2 copy moveto
	2 copy vpt 270 360 arc closepath fill
	vpt 0 360 arc closepath} bind def
/C9 {BL [] 0 setdash 2 copy moveto
	2 copy vpt 270 450 arc closepath fill
	vpt 0 360 arc closepath} bind def
/C10 {BL [] 0 setdash 2 copy 2 copy moveto vpt 270 360 arc closepath fill
	2 copy moveto
	2 copy vpt 90 180 arc closepath fill
	vpt 0 360 arc closepath} bind def
/C11 {BL [] 0 setdash 2 copy moveto
	2 copy vpt 0 180 arc closepath fill
	2 copy moveto
	2 copy vpt 270 360 arc closepath fill
	vpt 0 360 arc closepath} bind def
/C12 {BL [] 0 setdash 2 copy moveto
	2 copy vpt 180 360 arc closepath fill
	vpt 0 360 arc closepath} bind def
/C13 {BL [] 0 setdash 2 copy moveto
	2 copy vpt 0 90 arc closepath fill
	2 copy moveto
	2 copy vpt 180 360 arc closepath fill
	vpt 0 360 arc closepath} bind def
/C14 {BL [] 0 setdash 2 copy moveto
	2 copy vpt 90 360 arc closepath fill
	vpt 0 360 arc} bind def
/C15 {BL [] 0 setdash 2 copy vpt 0 360 arc closepath fill
	vpt 0 360 arc closepath} bind def
/Rec {newpath 4 2 roll moveto 1 index 0 rlineto 0 exch rlineto
	neg 0 rlineto closepath} bind def
/Square {dup Rec} bind def
/Bsquare {vpt sub exch vpt sub exch vpt2 Square} bind def
/S0 {BL [] 0 setdash 2 copy moveto 0 vpt rlineto BL Bsquare} bind def
/S1 {BL [] 0 setdash 2 copy vpt Square fill Bsquare} bind def
/S2 {BL [] 0 setdash 2 copy exch vpt sub exch vpt Square fill Bsquare} bind def
/S3 {BL [] 0 setdash 2 copy exch vpt sub exch vpt2 vpt Rec fill Bsquare} bind def
/S4 {BL [] 0 setdash 2 copy exch vpt sub exch vpt sub vpt Square fill Bsquare} bind def
/S5 {BL [] 0 setdash 2 copy 2 copy vpt Square fill
	exch vpt sub exch vpt sub vpt Square fill Bsquare} bind def
/S6 {BL [] 0 setdash 2 copy exch vpt sub exch vpt sub vpt vpt2 Rec fill Bsquare} bind def
/S7 {BL [] 0 setdash 2 copy exch vpt sub exch vpt sub vpt vpt2 Rec fill
	2 copy vpt Square fill Bsquare} bind def
/S8 {BL [] 0 setdash 2 copy vpt sub vpt Square fill Bsquare} bind def
/S9 {BL [] 0 setdash 2 copy vpt sub vpt vpt2 Rec fill Bsquare} bind def
/S10 {BL [] 0 setdash 2 copy vpt sub vpt Square fill 2 copy exch vpt sub exch vpt Square fill
	Bsquare} bind def
/S11 {BL [] 0 setdash 2 copy vpt sub vpt Square fill 2 copy exch vpt sub exch vpt2 vpt Rec fill
	Bsquare} bind def
/S12 {BL [] 0 setdash 2 copy exch vpt sub exch vpt sub vpt2 vpt Rec fill Bsquare} bind def
/S13 {BL [] 0 setdash 2 copy exch vpt sub exch vpt sub vpt2 vpt Rec fill
	2 copy vpt Square fill Bsquare} bind def
/S14 {BL [] 0 setdash 2 copy exch vpt sub exch vpt sub vpt2 vpt Rec fill
	2 copy exch vpt sub exch vpt Square fill Bsquare} bind def
/S15 {BL [] 0 setdash 2 copy Bsquare fill Bsquare} bind def
/D0 {gsave translate 45 rotate 0 0 S0 stroke grestore} bind def
/D1 {gsave translate 45 rotate 0 0 S1 stroke grestore} bind def
/D2 {gsave translate 45 rotate 0 0 S2 stroke grestore} bind def
/D3 {gsave translate 45 rotate 0 0 S3 stroke grestore} bind def
/D4 {gsave translate 45 rotate 0 0 S4 stroke grestore} bind def
/D5 {gsave translate 45 rotate 0 0 S5 stroke grestore} bind def
/D6 {gsave translate 45 rotate 0 0 S6 stroke grestore} bind def
/D7 {gsave translate 45 rotate 0 0 S7 stroke grestore} bind def
/D8 {gsave translate 45 rotate 0 0 S8 stroke grestore} bind def
/D9 {gsave translate 45 rotate 0 0 S9 stroke grestore} bind def
/D10 {gsave translate 45 rotate 0 0 S10 stroke grestore} bind def
/D11 {gsave translate 45 rotate 0 0 S11 stroke grestore} bind def
/D12 {gsave translate 45 rotate 0 0 S12 stroke grestore} bind def
/D13 {gsave translate 45 rotate 0 0 S13 stroke grestore} bind def
/D14 {gsave translate 45 rotate 0 0 S14 stroke grestore} bind def
/D15 {gsave translate 45 rotate 0 0 S15 stroke grestore} bind def
/DiaE {stroke [] 0 setdash vpt add M
  hpt neg vpt neg V hpt vpt neg V
  hpt vpt V hpt neg vpt V closepath stroke} def
/BoxE {stroke [] 0 setdash exch hpt sub exch vpt add M
  0 vpt2 neg V hpt2 0 V 0 vpt2 V
  hpt2 neg 0 V closepath stroke} def
/TriUE {stroke [] 0 setdash vpt 1.12 mul add M
  hpt neg vpt -1.62 mul V
  hpt 2 mul 0 V
  hpt neg vpt 1.62 mul V closepath stroke} def
/TriDE {stroke [] 0 setdash vpt 1.12 mul sub M
  hpt neg vpt 1.62 mul V
  hpt 2 mul 0 V
  hpt neg vpt -1.62 mul V closepath stroke} def
/PentE {stroke [] 0 setdash gsave
  translate 0 hpt M 4 {72 rotate 0 hpt L} repeat
  closepath stroke grestore} def
/CircE {stroke [] 0 setdash 
  hpt 0 360 arc stroke} def
/Opaque {gsave closepath 1 setgray fill grestore 0 setgray closepath} def
/DiaW {stroke [] 0 setdash vpt add M
  hpt neg vpt neg V hpt vpt neg V
  hpt vpt V hpt neg vpt V Opaque stroke} def
/BoxW {stroke [] 0 setdash exch hpt sub exch vpt add M
  0 vpt2 neg V hpt2 0 V 0 vpt2 V
  hpt2 neg 0 V Opaque stroke} def
/TriUW {stroke [] 0 setdash vpt 1.12 mul add M
  hpt neg vpt -1.62 mul V
  hpt 2 mul 0 V
  hpt neg vpt 1.62 mul V Opaque stroke} def
/TriDW {stroke [] 0 setdash vpt 1.12 mul sub M
  hpt neg vpt 1.62 mul V
  hpt 2 mul 0 V
  hpt neg vpt -1.62 mul V Opaque stroke} def
/PentW {stroke [] 0 setdash gsave
  translate 0 hpt M 4 {72 rotate 0 hpt L} repeat
  Opaque stroke grestore} def
/CircW {stroke [] 0 setdash 
  hpt 0 360 arc Opaque stroke} def
/BoxFill {gsave Rec 1 setgray fill grestore} def
/Density {
  /Fillden exch def
  currentrgbcolor
  /ColB exch def /ColG exch def /ColR exch def
  /ColR ColR Fillden mul Fillden sub 1 add def
  /ColG ColG Fillden mul Fillden sub 1 add def
  /ColB ColB Fillden mul Fillden sub 1 add def
  ColR ColG ColB setrgbcolor} def
/BoxColFill {gsave Rec PolyFill} def
/PolyFill {gsave Density fill grestore grestore} def
/h {rlineto rlineto rlineto gsave closepath fill grestore} bind def
%
% PostScript Level 1 Pattern Fill routine for rectangles
% Usage: x y w h s a XX PatternFill
%	x,y = lower left corner of box to be filled
%	w,h = width and height of box
%	  a = angle in degrees between lines and x-axis
%	 XX = 0/1 for no/yes cross-hatch
%
/PatternFill {gsave /PFa [ 9 2 roll ] def
  PFa 0 get PFa 2 get 2 div add PFa 1 get PFa 3 get 2 div add translate
  PFa 2 get -2 div PFa 3 get -2 div PFa 2 get PFa 3 get Rec
  gsave 1 setgray fill grestore clip
  currentlinewidth 0.5 mul setlinewidth
  /PFs PFa 2 get dup mul PFa 3 get dup mul add sqrt def
  0 0 M PFa 5 get rotate PFs -2 div dup translate
  0 1 PFs PFa 4 get div 1 add floor cvi
	{PFa 4 get mul 0 M 0 PFs V} for
  0 PFa 6 get ne {
	0 1 PFs PFa 4 get div 1 add floor cvi
	{PFa 4 get mul 0 2 1 roll M PFs 0 V} for
 } if
  stroke grestore} def
%
/languagelevel where
 {pop languagelevel} {1} ifelse
 2 lt
	{/InterpretLevel1 true def}
	{/InterpretLevel1 Level1 def}
 ifelse
%
% PostScript level 2 pattern fill definitions
%
/Level2PatternFill {
/Tile8x8 {/PaintType 2 /PatternType 1 /TilingType 1 /BBox [0 0 8 8] /XStep 8 /YStep 8}
	bind def
/KeepColor {currentrgbcolor [/Pattern /DeviceRGB] setcolorspace} bind def
<< Tile8x8
 /PaintProc {0.5 setlinewidth pop 0 0 M 8 8 L 0 8 M 8 0 L stroke} 
>> matrix makepattern
/Pat1 exch def
<< Tile8x8
 /PaintProc {0.5 setlinewidth pop 0 0 M 8 8 L 0 8 M 8 0 L stroke
	0 4 M 4 8 L 8 4 L 4 0 L 0 4 L stroke}
>> matrix makepattern
/Pat2 exch def
<< Tile8x8
 /PaintProc {0.5 setlinewidth pop 0 0 M 0 8 L
	8 8 L 8 0 L 0 0 L fill}
>> matrix makepattern
/Pat3 exch def
<< Tile8x8
 /PaintProc {0.5 setlinewidth pop -4 8 M 8 -4 L
	0 12 M 12 0 L stroke}
>> matrix makepattern
/Pat4 exch def
<< Tile8x8
 /PaintProc {0.5 setlinewidth pop -4 0 M 8 12 L
	0 -4 M 12 8 L stroke}
>> matrix makepattern
/Pat5 exch def
<< Tile8x8
 /PaintProc {0.5 setlinewidth pop -2 8 M 4 -4 L
	0 12 M 8 -4 L 4 12 M 10 0 L stroke}
>> matrix makepattern
/Pat6 exch def
<< Tile8x8
 /PaintProc {0.5 setlinewidth pop -2 0 M 4 12 L
	0 -4 M 8 12 L 4 -4 M 10 8 L stroke}
>> matrix makepattern
/Pat7 exch def
<< Tile8x8
 /PaintProc {0.5 setlinewidth pop 8 -2 M -4 4 L
	12 0 M -4 8 L 12 4 M 0 10 L stroke}
>> matrix makepattern
/Pat8 exch def
<< Tile8x8
 /PaintProc {0.5 setlinewidth pop 0 -2 M 12 4 L
	-4 0 M 12 8 L -4 4 M 8 10 L stroke}
>> matrix makepattern
/Pat9 exch def
/Pattern1 {PatternBgnd KeepColor Pat1 setpattern} bind def
/Pattern2 {PatternBgnd KeepColor Pat2 setpattern} bind def
/Pattern3 {PatternBgnd KeepColor Pat3 setpattern} bind def
/Pattern4 {PatternBgnd KeepColor Landscape {Pat5} {Pat4} ifelse setpattern} bind def
/Pattern5 {PatternBgnd KeepColor Landscape {Pat4} {Pat5} ifelse setpattern} bind def
/Pattern6 {PatternBgnd KeepColor Landscape {Pat9} {Pat6} ifelse setpattern} bind def
/Pattern7 {PatternBgnd KeepColor Landscape {Pat8} {Pat7} ifelse setpattern} bind def
} def
%
%
%End of PostScript Level 2 code
%
/PatternBgnd {
  TransparentPatterns {} {gsave 1 setgray fill grestore} ifelse
} def
%
% Substitute for Level 2 pattern fill codes with
% grayscale if Level 2 support is not selected.
%
/Level1PatternFill {
/Pattern1 {0.250 Density} bind def
/Pattern2 {0.500 Density} bind def
/Pattern3 {0.750 Density} bind def
/Pattern4 {0.125 Density} bind def
/Pattern5 {0.375 Density} bind def
/Pattern6 {0.625 Density} bind def
/Pattern7 {0.875 Density} bind def
} def
%
% Now test for support of Level 2 code
%
Level1 {Level1PatternFill} {Level2PatternFill} ifelse
%
/Symbol-Oblique /Symbol findfont [1 0 .167 1 0 0] makefont
dup length dict begin {1 index /FID eq {pop pop} {def} ifelse} forall
currentdict end definefont pop
/MFshow {
   { dup 5 get 3 ge
     { 5 get 3 eq {gsave} {grestore} ifelse }
     {dup dup 0 get findfont exch 1 get scalefont setfont
     [ currentpoint ] exch dup 2 get 0 exch R dup 5 get 2 ne {dup dup 6
     get exch 4 get {Gshow} {stringwidth pop 0 R} ifelse }if dup 5 get 0 eq
     {dup 3 get {2 get neg 0 exch R pop} {pop aload pop M} ifelse} {dup 5
     get 1 eq {dup 2 get exch dup 3 get exch 6 get stringwidth pop -2 div
     dup 0 R} {dup 6 get stringwidth pop -2 div 0 R 6 get
     show 2 index {aload pop M neg 3 -1 roll neg R pop pop} {pop pop pop
     pop aload pop M} ifelse }ifelse }ifelse }
     ifelse }
   forall} def
/Gswidth {dup type /stringtype eq {stringwidth} {pop (n) stringwidth} ifelse} def
/MFwidth {0 exch { dup 5 get 3 ge { 5 get 3 eq { 0 } { pop } ifelse }
 {dup 3 get{dup dup 0 get findfont exch 1 get scalefont setfont
     6 get Gswidth pop add} {pop} ifelse} ifelse} forall} def
/MLshow { currentpoint stroke M
  0 exch R
  Blacktext {gsave 0 setgray MFshow grestore} {MFshow} ifelse } bind def
/MRshow { currentpoint stroke M
  exch dup MFwidth neg 3 -1 roll R
  Blacktext {gsave 0 setgray MFshow grestore} {MFshow} ifelse } bind def
/MCshow { currentpoint stroke M
  exch dup MFwidth -2 div 3 -1 roll R
  Blacktext {gsave 0 setgray MFshow grestore} {MFshow} ifelse } bind def
/XYsave    { [( ) 1 2 true false 3 ()] } bind def
/XYrestore { [( ) 1 2 true false 4 ()] } bind def
end
%%EndProlog
gnudict begin
gsave
doclip
50 50 translate
0.050 0.050 scale
0 setgray
newpath
(Helvetica) findfont 250 scalefont setfont
1.000 UL
LTb
1225 800 M
63 0 V
5461 0 R
-63 0 V
stroke
1075 800 M
[ [(Helvetica) 250.0 0.0 true true 0 ( 0)]
] -83.3 MRshow
1.000 UL
LTb
1225 1194 M
63 0 V
5461 0 R
-63 0 V
stroke
1075 1194 M
[ [(Helvetica) 250.0 0.0 true true 0 ( 0.1)]
] -83.3 MRshow
1.000 UL
LTb
1225 1588 M
63 0 V
5461 0 R
-63 0 V
stroke
1075 1588 M
[ [(Helvetica) 250.0 0.0 true true 0 ( 0.2)]
] -83.3 MRshow
1.000 UL
LTb
1225 1982 M
63 0 V
5461 0 R
-63 0 V
stroke
1075 1982 M
[ [(Helvetica) 250.0 0.0 true true 0 ( 0.3)]
] -83.3 MRshow
1.000 UL
LTb
1225 2376 M
63 0 V
5461 0 R
-63 0 V
stroke
1075 2376 M
[ [(Helvetica) 250.0 0.0 true true 0 ( 0.4)]
] -83.3 MRshow
1.000 UL
LTb
1225 2770 M
63 0 V
5461 0 R
-63 0 V
stroke
1075 2770 M
[ [(Helvetica) 250.0 0.0 true true 0 ( 0.5)]
] -83.3 MRshow
1.000 UL
LTb
1225 3163 M
63 0 V
5461 0 R
-63 0 V
stroke
1075 3163 M
[ [(Helvetica) 250.0 0.0 true true 0 ( 0.6)]
] -83.3 MRshow
1.000 UL
LTb
1225 3557 M
63 0 V
5461 0 R
-63 0 V
stroke
1075 3557 M
[ [(Helvetica) 250.0 0.0 true true 0 ( 0.7)]
] -83.3 MRshow
1.000 UL
LTb
1225 3951 M
63 0 V
5461 0 R
-63 0 V
stroke
1075 3951 M
[ [(Helvetica) 250.0 0.0 true true 0 ( 0.8)]
] -83.3 MRshow
1.000 UL
LTb
1225 4345 M
63 0 V
5461 0 R
-63 0 V
stroke
1075 4345 M
[ [(Helvetica) 250.0 0.0 true true 0 ( 0.9)]
] -83.3 MRshow
1.000 UL
LTb
1225 4739 M
63 0 V
5461 0 R
-63 0 V
stroke
1075 4739 M
[ [(Helvetica) 250.0 0.0 true true 0 ( 1)]
] -83.3 MRshow
1.000 UL
LTb
1225 800 M
0 63 V
0 3876 R
0 -63 V
stroke
1225 550 M
[ [(Helvetica) 250.0 0.0 true true 0 ( 20)]
] -83.3 MCshow
1.000 UL
LTb
1916 800 M
0 63 V
0 3876 R
0 -63 V
stroke
1916 550 M
[ [(Helvetica) 250.0 0.0 true true 0 ( 30)]
] -83.3 MCshow
1.000 UL
LTb
2606 800 M
0 63 V
0 3876 R
0 -63 V
stroke
2606 550 M
[ [(Helvetica) 250.0 0.0 true true 0 ( 40)]
] -83.3 MCshow
1.000 UL
LTb
3297 800 M
0 63 V
0 3876 R
0 -63 V
stroke
3297 550 M
[ [(Helvetica) 250.0 0.0 true true 0 ( 50)]
] -83.3 MCshow
1.000 UL
LTb
3987 800 M
0 63 V
0 3876 R
0 -63 V
stroke
3987 550 M
[ [(Helvetica) 250.0 0.0 true true 0 ( 60)]
] -83.3 MCshow
1.000 UL
LTb
4678 800 M
0 63 V
0 3876 R
0 -63 V
stroke
4678 550 M
[ [(Helvetica) 250.0 0.0 true true 0 ( 70)]
] -83.3 MCshow
1.000 UL
LTb
5368 800 M
0 63 V
0 3876 R
0 -63 V
stroke
5368 550 M
[ [(Helvetica) 250.0 0.0 true true 0 ( 80)]
] -83.3 MCshow
1.000 UL
LTb
6059 800 M
0 63 V
0 3876 R
0 -63 V
stroke
6059 550 M
[ [(Helvetica) 250.0 0.0 true true 0 ( 90)]
] -83.3 MCshow
1.000 UL
LTb
6749 800 M
0 63 V
0 3876 R
0 -63 V
stroke
6749 550 M
[ [(Helvetica) 250.0 0.0 true true 0 ( 100)]
] -83.3 MCshow
1.000 UL
LTb
1.000 UL
LTb
1225 4739 N
0 -3939 V
5524 0 V
0 3939 V
-5524 0 V
Z stroke
LCb setrgbcolor
200 2769 M
currentpoint gsave translate -270 rotate 0 0 moveto
[ [(Helvetica) 250.0 0.0 true true 0 (Precision)]
] -83.3 MCshow
grestore
LTb
LCb setrgbcolor
3987 175 M
[ [(Helvetica) 250.0 0.0 true true 0 (Original Length)]
] -83.3 MCshow
LTb
1.000 UP
1.000 UL
LTb
% Begin plot #1
1.000 UP
1.000 UL
LT0
1225 4591 Pls
1225 4334 Pls
1225 4285 Pls
1225 4324 Pls
1225 4389 Pls
1225 4387 Pls
1225 4385 Pls
1225 4392 Pls
1225 4632 Pls
1225 3980 Pls
1225 4275 Pls
1225 4579 Pls
1225 4509 Pls
1225 4312 Pls
1225 4494 Pls
1225 4684 Pls
1225 4370 Pls
1225 4276 Pls
1225 4470 Pls
1225 4720 Pls
1225 3692 Pls
1225 4297 Pls
1225 4479 Pls
1225 4739 Pls
1225 4424 Pls
1225 4149 Pls
1225 4488 Pls
1225 4739 Pls
1225 3546 Pls
1225 4046 Pls
1225 4381 Pls
1225 4739 Pls
1225 3311 Pls
1225 3860 Pls
1225 4496 Pls
1225 4739 Pls
1225 2798 Pls
1225 4033 Pls
1225 4368 Pls
1225 4739 Pls
2606 4345 Pls
2606 3627 Pls
2606 3782 Pls
2606 3593 Pls
2606 4520 Pls
2606 3912 Pls
2606 3665 Pls
2606 3599 Pls
2606 4570 Pls
2606 3894 Pls
2606 3466 Pls
2606 3665 Pls
2606 4520 Pls
2606 3950 Pls
2606 3790 Pls
2606 3850 Pls
2606 4608 Pls
2606 3962 Pls
2606 3970 Pls
2606 3955 Pls
2606 3012 Pls
2606 3331 Pls
2606 3513 Pls
2606 3668 Pls
2606 2631 Pls
2606 3010 Pls
2606 3495 Pls
2606 3664 Pls
2606 2131 Pls
2606 2713 Pls
2606 3303 Pls
2606 3411 Pls
2606 1787 Pls
2606 2489 Pls
2606 3204 Pls
2606 3481 Pls
2606 1797 Pls
2606 2701 Pls
2606 2766 Pls
2606 3247 Pls
3987 4143 Pls
3987 3185 Pls
3987 3147 Pls
3987 2891 Pls
3987 4660 Pls
3987 3479 Pls
3987 3351 Pls
3987 3140 Pls
3987 4136 Pls
3987 3384 Pls
3987 3467 Pls
3987 3268 Pls
3987 4608 Pls
3987 3690 Pls
3987 3457 Pls
3987 3275 Pls
3987 4422 Pls
3987 3792 Pls
3987 3394 Pls
3987 3468 Pls
3987 2335 Pls
3987 2520 Pls
3987 2800 Pls
3987 3167 Pls
3987 1840 Pls
3987 2195 Pls
3987 2853 Pls
3987 2858 Pls
3987 1578 Pls
3987 1953 Pls
3987 2440 Pls
3987 2580 Pls
3987 1331 Pls
3987 2010 Pls
3987 2395 Pls
3987 2758 Pls
3987 1274 Pls
3987 1807 Pls
3987 2186 Pls
3987 2524 Pls
5368 3499 Pls
5368 3471 Pls
5368 2921 Pls
5368 2675 Pls
5368 3875 Pls
5368 3654 Pls
5368 3032 Pls
5368 2847 Pls
5368 3967 Pls
5368 3428 Pls
5368 3056 Pls
5368 2820 Pls
5368 4450 Pls
5368 3423 Pls
5368 3296 Pls
5368 2973 Pls
5368 4651 Pls
5368 3586 Pls
5368 3203 Pls
5368 3149 Pls
5368 1981 Pls
5368 2288 Pls
5368 2320 Pls
5368 2657 Pls
5368 1445 Pls
5368 1840 Pls
5368 2054 Pls
5368 2401 Pls
5368 1303 Pls
5368 1759 Pls
5368 2053 Pls
5368 2197 Pls
5368 1163 Pls
5368 1622 Pls
5368 1947 Pls
5368 2123 Pls
5368 1152 Pls
5368 1497 Pls
5368 1892 Pls
5368 2081 Pls
6749 3718 Pls
6749 3168 Pls
6749 2619 Pls
6749 2521 Pls
6749 4398 Pls
6749 2891 Pls
6749 2899 Pls
6749 2421 Pls
6749 4415 Pls
6749 3202 Pls
6749 3293 Pls
6749 2629 Pls
6749 4242 Pls
6749 3270 Pls
6749 2783 Pls
6749 2866 Pls
6749 4501 Pls
6749 2984 Pls
6749 2861 Pls
6749 2868 Pls
6749 1436 Pls
6749 2036 Pls
6749 2356 Pls
6749 2302 Pls
6749 1227 Pls
6749 1596 Pls
6749 1866 Pls
6749 2061 Pls
6749 1101 Pls
6749 1415 Pls
6749 1810 Pls
6749 1925 Pls
6749 1076 Pls
6749 1423 Pls
6749 1604 Pls
6749 1873 Pls
6749 1057 Pls
6749 1326 Pls
6749 1529 Pls
6749 1776 Pls
1225 4739 Pls
1225 4381 Pls
1225 4432 Pls
1225 4672 Pls
1225 4503 Pls
1225 4451 Pls
1225 4441 Pls
1225 4491 Pls
1225 4551 Pls
1225 4335 Pls
1225 4513 Pls
1225 4703 Pls
1225 4498 Pls
1225 4457 Pls
1225 4612 Pls
1225 4705 Pls
1225 4739 Pls
1225 4533 Pls
1225 4647 Pls
1225 4701 Pls
1225 4411 Pls
1225 4387 Pls
1225 4504 Pls
1225 4739 Pls
1225 4529 Pls
1225 4287 Pls
1225 4588 Pls
1225 4739 Pls
1225 3419 Pls
1225 4380 Pls
1225 4475 Pls
1225 4739 Pls
1225 3682 Pls
1225 4263 Pls
1225 4514 Pls
1225 4739 Pls
1225 3945 Pls
1225 4227 Pls
1225 4501 Pls
1225 4739 Pls
2606 4460 Pls
2606 4323 Pls
2606 4179 Pls
2606 4227 Pls
2606 4597 Pls
2606 4283 Pls
2606 4248 Pls
2606 3944 Pls
2606 4641 Pls
2606 4096 Pls
2606 4128 Pls
2606 3996 Pls
2606 4660 Pls
2606 4205 Pls
2606 4149 Pls
2606 4098 Pls
2606 4497 Pls
2606 4037 Pls
2606 4391 Pls
2606 4307 Pls
2606 3859 Pls
2606 3889 Pls
2606 4264 Pls
2606 4245 Pls
2606 3300 Pls
2606 3709 Pls
2606 3706 Pls
2606 3945 Pls
2606 2815 Pls
2606 3153 Pls
2606 3628 Pls
2606 3875 Pls
2606 2205 Pls
2606 3178 Pls
2606 3642 Pls
2606 3826 Pls
2606 2267 Pls
2606 3389 Pls
2606 3222 Pls
2606 3912 Pls
3987 4608 Pls
3987 3886 Pls
3987 3875 Pls
3987 3713 Pls
3987 4455 Pls
3987 4131 Pls
3987 3683 Pls
3987 3900 Pls
3987 4328 Pls
3987 3840 Pls
3987 3665 Pls
3987 3924 Pls
3987 4459 Pls
3987 4059 Pls
3987 3867 Pls
3987 3912 Pls
3987 4470 Pls
3987 4062 Pls
3987 3815 Pls
3987 3712 Pls
3987 2880 Pls
3987 3338 Pls
3987 3993 Pls
3987 3584 Pls
3987 2123 Pls
3987 2906 Pls
3987 3257 Pls
3987 3519 Pls
3987 2137 Pls
3987 2491 Pls
3987 3102 Pls
3987 3288 Pls
3987 1797 Pls
3987 2383 Pls
3987 3239 Pls
3987 3057 Pls
3987 1650 Pls
3987 2157 Pls
3987 2809 Pls
3987 2992 Pls
5368 4171 Pls
5368 3730 Pls
5368 3519 Pls
5368 3264 Pls
5368 4548 Pls
5368 3988 Pls
5368 3543 Pls
5368 3497 Pls
5368 4353 Pls
5368 3967 Pls
5368 3569 Pls
5368 3615 Pls
5368 4381 Pls
5368 3576 Pls
5368 3657 Pls
5368 3744 Pls
5368 4455 Pls
5368 3955 Pls
5368 3844 Pls
5368 3666 Pls
5368 2491 Pls
5368 2795 Pls
5368 3040 Pls
5368 3338 Pls
5368 1951 Pls
5368 2291 Pls
5368 2730 Pls
5368 3135 Pls
5368 1535 Pls
5368 2075 Pls
5368 2567 Pls
5368 2694 Pls
5368 1385 Pls
5368 2017 Pls
5368 2274 Pls
5368 2608 Pls
5368 1338 Pls
5368 1781 Pls
5368 2254 Pls
5368 2574 Pls
6749 4580 Pls
6749 3618 Pls
6749 3017 Pls
6749 3292 Pls
6749 4602 Pls
6749 3627 Pls
6749 3415 Pls
6749 3188 Pls
6749 4651 Pls
6749 3831 Pls
6749 3389 Pls
6749 3263 Pls
6749 4528 Pls
6749 3812 Pls
6749 3508 Pls
6749 3218 Pls
6749 4335 Pls
6749 3744 Pls
6749 3606 Pls
6749 3495 Pls
6749 1967 Pls
6749 2377 Pls
6749 2705 Pls
6749 2896 Pls
6749 1563 Pls
6749 1991 Pls
6749 2268 Pls
6749 2593 Pls
6749 1262 Pls
6749 1760 Pls
6749 2087 Pls
6749 2413 Pls
6749 1206 Pls
6749 1624 Pls
6749 1983 Pls
6749 2335 Pls
6749 1182 Pls
6749 1523 Pls
6749 1827 Pls
6749 2126 Pls
1225 4573 Pls
1225 4591 Pls
1225 4398 Pls
1225 4651 Pls
1225 4651 Pls
1225 4739 Pls
1225 4563 Pls
1225 4720 Pls
1225 4624 Pls
1225 4605 Pls
1225 4537 Pls
1225 4739 Pls
1225 4553 Pls
1225 4484 Pls
1225 4644 Pls
1225 4702 Pls
1225 4739 Pls
1225 4695 Pls
1225 4668 Pls
1225 4739 Pls
1225 4043 Pls
1225 4583 Pls
1225 4637 Pls
1225 4739 Pls
1225 4660 Pls
1225 4519 Pls
1225 4576 Pls
1225 4739 Pls
1225 4312 Pls
1225 4667 Pls
1225 4573 Pls
1225 4739 Pls
1225 3951 Pls
1225 4589 Pls
1225 4551 Pls
1225 4739 Pls
1225 4161 Pls
1225 4503 Pls
1225 4686 Pls
1225 4739 Pls
2606 4660 Pls
2606 4194 Pls
2606 4151 Pls
2606 4177 Pls
2606 4641 Pls
2606 4405 Pls
2606 4226 Pls
2606 4280 Pls
2606 4435 Pls
2606 4497 Pls
2606 4456 Pls
2606 4296 Pls
2606 4641 Pls
2606 4298 Pls
2606 4358 Pls
2606 4325 Pls
2606 4525 Pls
2606 4358 Pls
2606 4535 Pls
2606 4376 Pls
2606 3595 Pls
2606 4367 Pls
2606 4008 Pls
2606 4427 Pls
2606 3526 Pls
2606 3926 Pls
2606 4209 Pls
2606 4131 Pls
2606 3572 Pls
2606 3591 Pls
2606 4197 Pls
2606 4112 Pls
2606 3133 Pls
2606 3634 Pls
2606 3935 Pls
2606 4046 Pls
2606 2741 Pls
2606 3283 Pls
2606 3678 Pls
2606 3850 Pls
3987 4243 Pls
3987 4332 Pls
3987 4105 Pls
3987 3873 Pls
3987 4621 Pls
3987 4363 Pls
3987 4057 Pls
3987 4046 Pls
3987 4319 Pls
3987 4061 Pls
3987 3919 Pls
3987 4220 Pls
3987 4580 Pls
3987 4184 Pls
3987 4316 Pls
3987 4045 Pls
3987 4564 Pls
3987 4437 Pls
3987 4250 Pls
3987 4122 Pls
3987 3861 Pls
3987 3808 Pls
3987 4190 Pls
3987 3790 Pls
3987 2542 Pls
3987 3596 Pls
3987 3818 Pls
3987 3826 Pls
3987 2157 Pls
3987 3167 Pls
3987 3318 Pls
3987 3626 Pls
3987 2409 Pls
3987 2974 Pls
3987 3224 Pls
3987 3362 Pls
3987 2101 Pls
3987 2706 Pls
3987 3001 Pls
3987 3163 Pls
5368 4611 Pls
5368 3980 Pls
5368 3793 Pls
5368 3784 Pls
5368 4602 Pls
5368 4068 Pls
5368 3811 Pls
5368 3696 Pls
5368 4509 Pls
5368 4031 Pls
5368 3857 Pls
5368 3751 Pls
5368 4503 Pls
5368 4346 Pls
5368 3905 Pls
5368 3820 Pls
5368 4553 Pls
5368 4354 Pls
5368 4071 Pls
5368 3850 Pls
5368 2934 Pls
5368 3289 Pls
5368 3562 Pls
5368 3356 Pls
5368 2202 Pls
5368 2590 Pls
5368 2948 Pls
5368 3322 Pls
5368 1811 Pls
5368 2420 Pls
5368 3108 Pls
5368 3354 Pls
5368 1690 Pls
5368 2408 Pls
5368 2695 Pls
5368 2855 Pls
5368 1483 Pls
5368 2193 Pls
5368 2611 Pls
5368 2898 Pls
6749 4503 Pls
6749 3552 Pls
6749 3700 Pls
6749 3494 Pls
6749 4558 Pls
6749 4109 Pls
6749 3702 Pls
6749 3484 Pls
6749 4505 Pls
6749 3987 Pls
6749 3847 Pls
6749 3461 Pls
6749 4415 Pls
6749 4101 Pls
6749 3753 Pls
6749 3925 Pls
6749 4392 Pls
6749 4053 Pls
6749 4075 Pls
6749 3761 Pls
6749 2378 Pls
6749 2814 Pls
6749 3030 Pls
6749 3240 Pls
6749 1727 Pls
6749 2407 Pls
6749 2619 Pls
6749 2918 Pls
6749 1394 Pls
6749 2057 Pls
6749 2391 Pls
6749 2794 Pls
6749 1341 Pls
6749 1882 Pls
6749 2204 Pls
6749 2513 Pls
6749 1314 Pls
6749 1688 Pls
6749 2195 Pls
6749 2311 Pls
1225 4673 Pls
1225 4530 Pls
1225 4698 Pls
1225 4672 Pls
1225 4626 Pls
1225 4660 Pls
1225 4578 Pls
1225 4640 Pls
1225 4683 Pls
1225 4568 Pls
1225 4623 Pls
1225 4739 Pls
1225 4739 Pls
1225 4608 Pls
1225 4615 Pls
1225 4739 Pls
1225 4617 Pls
1225 4638 Pls
1225 4665 Pls
1225 4718 Pls
1225 4542 Pls
1225 4389 Pls
1225 4588 Pls
1225 4739 Pls
1225 4450 Pls
1225 4667 Pls
1225 4611 Pls
1225 4739 Pls
1225 4037 Pls
1225 4528 Pls
1225 4633 Pls
1225 4739 Pls
1225 4491 Pls
1225 4429 Pls
1225 4513 Pls
1225 4739 Pls
1225 4061 Pls
1225 4402 Pls
1225 4658 Pls
1225 4739 Pls
2606 4630 Pls
2606 4452 Pls
2606 4435 Pls
2606 4398 Pls
2606 4573 Pls
2606 4393 Pls
2606 4508 Pls
2606 4324 Pls
2606 4616 Pls
2606 4357 Pls
2606 4441 Pls
2606 4164 Pls
2606 4739 Pls
2606 4522 Pls
2606 4487 Pls
2606 4463 Pls
2606 4626 Pls
2606 4310 Pls
2606 4526 Pls
2606 4371 Pls
2606 4476 Pls
2606 4078 Pls
2606 4168 Pls
2606 4436 Pls
2606 3413 Pls
2606 3953 Pls
2606 4237 Pls
2606 4413 Pls
2606 3738 Pls
2606 4093 Pls
2606 4056 Pls
2606 4240 Pls
2606 3516 Pls
2606 3494 Pls
2606 3889 Pls
2606 4179 Pls
2606 2946 Pls
2606 3569 Pls
2606 4023 Pls
2606 4180 Pls
3987 4474 Pls
3987 4075 Pls
3987 4146 Pls
3987 3954 Pls
3987 4581 Pls
3987 4188 Pls
3987 4283 Pls
3987 4141 Pls
3987 4739 Pls
3987 4429 Pls
3987 4266 Pls
3987 4203 Pls
3987 4739 Pls
3987 4360 Pls
3987 4207 Pls
3987 4334 Pls
3987 4739 Pls
3987 4686 Pls
3987 4173 Pls
3987 4279 Pls
3987 3966 Pls
3987 3949 Pls
3987 3915 Pls
3987 4022 Pls
3987 3020 Pls
3987 3347 Pls
3987 3820 Pls
3987 3971 Pls
3987 2440 Pls
3987 3463 Pls
3987 3476 Pls
3987 3740 Pls
3987 2547 Pls
3987 3246 Pls
3987 3581 Pls
3987 3802 Pls
3987 2132 Pls
3987 2787 Pls
3987 3382 Pls
3987 3652 Pls
5368 4595 Pls
5368 3943 Pls
5368 3981 Pls
5368 4177 Pls
5368 4517 Pls
5368 4462 Pls
5368 4160 Pls
5368 3816 Pls
5368 4555 Pls
5368 4181 Pls
5368 4163 Pls
5368 3967 Pls
5368 4548 Pls
5368 4165 Pls
5368 3887 Pls
5368 3855 Pls
5368 4464 Pls
5368 4356 Pls
5368 4232 Pls
5368 4311 Pls
5368 3039 Pls
5368 3580 Pls
5368 3692 Pls
5368 3739 Pls
5368 2486 Pls
5368 3107 Pls
5368 3328 Pls
5368 3640 Pls
5368 2072 Pls
5368 2740 Pls
5368 3241 Pls
5368 3069 Pls
5368 1934 Pls
5368 2660 Pls
5368 2848 Pls
5368 3411 Pls
5368 1664 Pls
5368 2221 Pls
5368 2753 Pls
5368 3103 Pls
6749 4739 Pls
6749 4268 Pls
6749 3930 Pls
6749 3684 Pls
6749 4421 Pls
6749 4025 Pls
6749 3551 Pls
6749 4033 Pls
6749 4451 Pls
6749 4247 Pls
6749 3843 Pls
6749 3737 Pls
6749 4690 Pls
6749 4324 Pls
6749 4070 Pls
6749 3983 Pls
6749 4739 Pls
6749 4081 Pls
6749 3984 Pls
6749 3941 Pls
6749 2640 Pls
6749 3072 Pls
6749 3250 Pls
6749 3353 Pls
6749 1982 Pls
6749 2890 Pls
6749 3022 Pls
6749 3149 Pls
6749 1658 Pls
6749 2286 Pls
6749 2843 Pls
6749 2772 Pls
6749 1616 Pls
6749 2198 Pls
6749 2630 Pls
6749 2580 Pls
6749 1504 Pls
6749 1993 Pls
6749 2317 Pls
6749 2566 Pls
1225 4586 Pls
1225 4709 Pls
1225 4574 Pls
1225 4670 Pls
1225 4633 Pls
1225 4686 Pls
1225 4536 Pls
1225 4606 Pls
1225 4739 Pls
1225 4739 Pls
1225 4531 Pls
1225 4685 Pls
1225 4626 Pls
1225 4632 Pls
1225 4693 Pls
1225 4721 Pls
1225 4739 Pls
1225 4700 Pls
1225 4739 Pls
1225 4718 Pls
1225 4739 Pls
1225 4602 Pls
1225 4713 Pls
1225 4739 Pls
1225 4201 Pls
1225 4660 Pls
1225 4711 Pls
1225 4739 Pls
1225 4279 Pls
1225 4505 Pls
1225 4711 Pls
1225 4739 Pls
1225 4266 Pls
1225 4361 Pls
1225 4739 Pls
1225 4739 Pls
1225 4176 Pls
1225 4525 Pls
1225 4513 Pls
1225 4739 Pls
2606 4690 Pls
2606 4318 Pls
2606 4478 Pls
2606 4347 Pls
2606 4596 Pls
2606 4411 Pls
2606 4335 Pls
2606 4344 Pls
2606 4690 Pls
2606 4604 Pls
2606 4460 Pls
2606 4464 Pls
2606 4660 Pls
2606 4544 Pls
2606 4493 Pls
2606 4581 Pls
2606 4608 Pls
2606 4739 Pls
2606 4453 Pls
2606 4522 Pls
2606 4135 Pls
2606 4381 Pls
2606 4481 Pls
2606 4386 Pls
2606 3994 Pls
2606 4061 Pls
2606 4375 Pls
2606 4556 Pls
2606 3295 Pls
2606 3717 Pls
2606 4303 Pls
2606 4503 Pls
2606 3279 Pls
2606 4192 Pls
2606 4389 Pls
2606 4282 Pls
2606 3362 Pls
2606 4138 Pls
2606 4097 Pls
2606 4321 Pls
3987 4588 Pls
3987 4413 Pls
3987 4074 Pls
3987 4075 Pls
3987 4641 Pls
3987 4407 Pls
3987 4156 Pls
3987 4312 Pls
3987 4660 Pls
3987 4353 Pls
3987 4271 Pls
3987 4239 Pls
3987 4533 Pls
3987 4565 Pls
3987 4105 Pls
3987 4430 Pls
3987 4651 Pls
3987 4266 Pls
3987 4415 Pls
3987 4347 Pls
3987 3991 Pls
3987 3772 Pls
3987 4068 Pls
3987 4191 Pls
3987 3448 Pls
3987 3792 Pls
3987 3874 Pls
3987 4138 Pls
3987 2806 Pls
3987 3624 Pls
3987 3567 Pls
3987 3652 Pls
3987 2489 Pls
3987 3126 Pls
3987 3682 Pls
3987 3635 Pls
3987 2184 Pls
3987 3257 Pls
3987 3446 Pls
3987 3764 Pls
5368 4562 Pls
5368 4386 Pls
5368 3989 Pls
5368 3963 Pls
5368 4573 Pls
5368 4436 Pls
5368 4032 Pls
5368 4099 Pls
5368 4589 Pls
5368 4018 Pls
5368 4128 Pls
5368 4185 Pls
5368 4739 Pls
5368 4305 Pls
5368 4370 Pls
5368 4175 Pls
5368 4506 Pls
5368 4278 Pls
5368 4240 Pls
5368 4340 Pls
5368 3140 Pls
5368 3741 Pls
5368 3497 Pls
5368 3739 Pls
5368 2698 Pls
5368 3257 Pls
5368 3391 Pls
5368 3621 Pls
5368 2517 Pls
5368 2995 Pls
5368 3393 Pls
5368 3623 Pls
5368 1826 Pls
5368 2355 Pls
5368 3403 Pls
5368 3609 Pls
5368 1970 Pls
5368 2471 Pls
5368 3024 Pls
5368 3283 Pls
6749 4589 Pls
6749 3959 Pls
6749 4071 Pls
6749 3969 Pls
6749 4703 Pls
6749 4211 Pls
6749 3910 Pls
6749 3902 Pls
6749 4695 Pls
6749 4346 Pls
6749 4115 Pls
6749 4033 Pls
6749 4364 Pls
6749 4302 Pls
6749 4319 Pls
6749 3925 Pls
6749 4455 Pls
6749 4175 Pls
6749 4065 Pls
6749 3896 Pls
6749 2721 Pls
6749 3584 Pls
6749 3488 Pls
6749 3678 Pls
6749 2349 Pls
6749 2637 Pls
6749 3291 Pls
6749 3205 Pls
6749 1883 Pls
6749 2617 Pls
6749 2781 Pls
6749 3257 Pls
6749 1735 Pls
6749 2416 Pls
6749 2790 Pls
6749 3076 Pls
6749 1467 Pls
6749 2281 Pls
6749 2568 Pls
6749 2740 Pls
1225 4739 Pls
1225 4739 Pls
1225 4676 Pls
1225 4739 Pls
1225 4626 Pls
1225 4629 Pls
1225 4677 Pls
1225 4703 Pls
1225 4539 Pls
1225 4599 Pls
1225 4693 Pls
1225 4690 Pls
1225 4641 Pls
1225 4709 Pls
1225 4716 Pls
1225 4700 Pls
1225 4739 Pls
1225 4646 Pls
1225 4616 Pls
1225 4739 Pls
1225 4483 Pls
1225 4604 Pls
1225 4739 Pls
1225 4739 Pls
1225 4384 Pls
1225 4695 Pls
1225 4658 Pls
1225 4739 Pls
1225 4439 Pls
1225 4493 Pls
1225 4713 Pls
1225 4739 Pls
1225 4188 Pls
1225 4394 Pls
1225 4609 Pls
1225 4739 Pls
1225 4450 Pls
1225 4422 Pls
1225 4527 Pls
1225 4739 Pls
2606 4739 Pls
2606 4611 Pls
2606 4538 Pls
2606 4555 Pls
2606 4509 Pls
2606 4637 Pls
2606 4405 Pls
2606 4544 Pls
2606 4739 Pls
2606 4575 Pls
2606 4634 Pls
2606 4536 Pls
2606 4641 Pls
2606 4673 Pls
2606 4431 Pls
2606 4616 Pls
2606 4385 Pls
2606 4673 Pls
2606 4518 Pls
2606 4600 Pls
2606 3886 Pls
2606 4467 Pls
2606 4304 Pls
2606 4472 Pls
2606 4739 Pls
2606 4280 Pls
2606 4366 Pls
2606 4358 Pls
2606 3259 Pls
2606 4255 Pls
2606 4323 Pls
2606 4383 Pls
2606 3188 Pls
2606 4017 Pls
2606 4277 Pls
2606 4267 Pls
2606 3121 Pls
2606 4158 Pls
2606 4254 Pls
2606 4412 Pls
3987 4651 Pls
3987 4491 Pls
3987 4333 Pls
3987 4306 Pls
3987 4651 Pls
3987 4438 Pls
3987 4178 Pls
3987 4487 Pls
3987 4739 Pls
3987 4622 Pls
3987 4214 Pls
3987 4407 Pls
3987 4581 Pls
3987 4541 Pls
3987 4535 Pls
3987 4419 Pls
3987 4651 Pls
3987 4520 Pls
3987 4447 Pls
3987 4440 Pls
3987 4017 Pls
3987 4159 Pls
3987 4362 Pls
3987 4031 Pls
3987 3816 Pls
3987 4015 Pls
3987 4126 Pls
3987 4167 Pls
3987 2840 Pls
3987 3617 Pls
3987 4047 Pls
3987 4294 Pls
3987 2728 Pls
3987 3657 Pls
3987 4258 Pls
3987 3883 Pls
3987 2592 Pls
3987 3491 Pls
3987 3848 Pls
3987 3928 Pls
5368 4739 Pls
5368 4292 Pls
5368 4372 Pls
5368 4100 Pls
5368 4739 Pls
5368 4379 Pls
5368 4201 Pls
5368 4124 Pls
5368 4660 Pls
5368 4416 Pls
5368 4404 Pls
5368 4282 Pls
5368 4660 Pls
5368 4221 Pls
5368 4314 Pls
5368 4118 Pls
5368 4651 Pls
5368 4186 Pls
5368 4335 Pls
5368 4270 Pls
5368 3555 Pls
5368 4006 Pls
5368 3813 Pls
5368 4157 Pls
5368 2988 Pls
5368 3388 Pls
5368 3795 Pls
5368 3878 Pls
5368 2531 Pls
5368 3102 Pls
5368 3466 Pls
5368 3471 Pls
5368 2197 Pls
5368 2750 Pls
5368 3293 Pls
5368 3383 Pls
5368 1937 Pls
5368 2792 Pls
5368 2972 Pls
5368 3477 Pls
6749 4739 Pls
6749 4430 Pls
6749 4052 Pls
6749 3954 Pls
6749 4739 Pls
6749 4310 Pls
6749 3923 Pls
6749 4097 Pls
6749 4660 Pls
6749 4261 Pls
6749 4222 Pls
6749 3923 Pls
6749 4494 Pls
6749 4041 Pls
6749 4181 Pls
6749 3939 Pls
6749 4573 Pls
6749 4364 Pls
6749 4443 Pls
6749 4193 Pls
6749 3199 Pls
6749 3585 Pls
6749 3740 Pls
6749 3743 Pls
6749 2718 Pls
6749 2922 Pls
6749 3565 Pls
6749 3582 Pls
6749 2252 Pls
6749 2498 Pls
6749 3054 Pls
6749 3309 Pls
6749 1741 Pls
6749 2400 Pls
6749 2828 Pls
6749 3176 Pls
6749 1521 Pls
6749 2357 Pls
6749 2575 Pls
6749 2980 Pls
1225 4739 Pls
1225 4686 Pls
1225 4585 Pls
1225 4739 Pls
1225 4739 Pls
1225 4652 Pls
1225 4664 Pls
1225 4722 Pls
1225 4739 Pls
1225 4711 Pls
1225 4739 Pls
1225 4739 Pls
1225 4739 Pls
1225 4520 Pls
1225 4625 Pls
1225 4720 Pls
1225 4608 Pls
1225 4739 Pls
1225 4640 Pls
1225 4718 Pls
1225 4411 Pls
1225 4739 Pls
1225 4690 Pls
1225 4739 Pls
1225 4739 Pls
1225 4700 Pls
1225 4658 Pls
1225 4739 Pls
1225 4739 Pls
1225 4660 Pls
1225 4739 Pls
1225 4739 Pls
1225 4476 Pls
1225 4660 Pls
1225 4739 Pls
1225 4739 Pls
1225 4404 Pls
1225 4700 Pls
1225 4683 Pls
1225 4739 Pls
2606 4739 Pls
2606 4683 Pls
2606 4514 Pls
2606 4601 Pls
2606 4345 Pls
2606 4624 Pls
2606 4581 Pls
2606 4527 Pls
2606 4739 Pls
2606 4548 Pls
2606 4669 Pls
2606 4633 Pls
2606 4739 Pls
2606 4494 Pls
2606 4510 Pls
2606 4678 Pls
2606 4626 Pls
2606 4512 Pls
2606 4474 Pls
2606 4577 Pls
2606 4450 Pls
2606 4337 Pls
2606 4394 Pls
2606 4592 Pls
2606 4360 Pls
2606 4146 Pls
2606 4613 Pls
2606 4425 Pls
2606 3400 Pls
2606 4384 Pls
2606 4430 Pls
2606 4561 Pls
2606 3752 Pls
2606 4259 Pls
2606 4380 Pls
2606 4460 Pls
2606 3597 Pls
2606 4035 Pls
2606 4329 Pls
2606 4386 Pls
3987 4667 Pls
3987 4618 Pls
3987 4466 Pls
3987 4370 Pls
3987 4673 Pls
3987 4406 Pls
3987 4414 Pls
3987 4300 Pls
3987 4739 Pls
3987 4456 Pls
3987 4421 Pls
3987 4414 Pls
3987 4596 Pls
3987 4660 Pls
3987 4468 Pls
3987 4518 Pls
3987 4739 Pls
3987 4632 Pls
3987 4505 Pls
3987 4421 Pls
3987 3831 Pls
3987 4287 Pls
3987 4445 Pls
3987 4319 Pls
3987 4056 Pls
3987 4031 Pls
3987 3962 Pls
3987 4367 Pls
3987 3178 Pls
3987 3764 Pls
3987 3904 Pls
3987 4123 Pls
3987 2880 Pls
3987 3567 Pls
3987 4026 Pls
3987 3990 Pls
3987 2848 Pls
3987 3242 Pls
3987 3878 Pls
3987 4095 Pls
5368 4529 Pls
5368 4401 Pls
5368 4449 Pls
5368 4149 Pls
5368 4739 Pls
5368 4477 Pls
5368 4340 Pls
5368 4154 Pls
5368 4626 Pls
5368 4519 Pls
5368 4386 Pls
5368 4237 Pls
5368 4589 Pls
5368 4622 Pls
5368 4248 Pls
5368 4110 Pls
5368 4509 Pls
5368 4650 Pls
5368 4540 Pls
5368 4328 Pls
5368 3886 Pls
5368 3756 Pls
5368 4141 Pls
5368 4207 Pls
5368 2784 Pls
5368 3723 Pls
5368 3589 Pls
5368 3863 Pls
5368 2648 Pls
5368 3588 Pls
5368 3273 Pls
5368 3727 Pls
5368 2255 Pls
5368 2977 Pls
5368 3432 Pls
5368 3637 Pls
5368 1947 Pls
5368 2741 Pls
5368 3083 Pls
5368 3397 Pls
6749 4641 Pls
6749 4415 Pls
6749 3994 Pls
6749 3988 Pls
6749 4589 Pls
6749 4331 Pls
6749 4241 Pls
6749 4159 Pls
6749 4561 Pls
6749 4335 Pls
6749 3921 Pls
6749 4188 Pls
6749 4641 Pls
6749 4236 Pls
6749 4286 Pls
6749 4049 Pls
6749 4739 Pls
6749 4397 Pls
6749 4311 Pls
6749 4383 Pls
6749 3034 Pls
6749 3734 Pls
6749 3782 Pls
6749 3926 Pls
6749 2749 Pls
6749 3375 Pls
6749 3414 Pls
6749 3586 Pls
6749 2272 Pls
6749 2690 Pls
6749 3028 Pls
6749 3659 Pls
6749 2082 Pls
6749 2572 Pls
6749 3097 Pls
6749 3324 Pls
6749 1821 Pls
6749 2516 Pls
6749 2935 Pls
6749 3017 Pls
1225 4739 Pls
1225 4556 Pls
1225 4669 Pls
1225 4612 Pls
1225 4739 Pls
1225 4739 Pls
1225 4739 Pls
1225 4723 Pls
1225 4739 Pls
1225 4709 Pls
1225 4669 Pls
1225 4667 Pls
1225 4739 Pls
1225 4739 Pls
1225 4695 Pls
1225 4739 Pls
1225 4739 Pls
1225 4739 Pls
1225 4739 Pls
1225 4739 Pls
1225 4641 Pls
1225 4739 Pls
1225 4739 Pls
1225 4739 Pls
1225 4660 Pls
1225 4739 Pls
1225 4739 Pls
1225 4739 Pls
1225 4483 Pls
1225 4667 Pls
1225 4739 Pls
1225 4739 Pls
1225 4562 Pls
1225 4739 Pls
1225 4656 Pls
1225 4739 Pls
1225 4255 Pls
1225 4589 Pls
1225 4713 Pls
1225 4739 Pls
2606 4660 Pls
2606 4647 Pls
2606 4477 Pls
2606 4512 Pls
2606 4542 Pls
2606 4580 Pls
2606 4448 Pls
2606 4529 Pls
2606 4595 Pls
2606 4600 Pls
2606 4551 Pls
2606 4503 Pls
2606 4739 Pls
2606 4706 Pls
2606 4473 Pls
2606 4657 Pls
2606 4739 Pls
2606 4575 Pls
2606 4591 Pls
2606 4622 Pls
2606 4739 Pls
2606 4596 Pls
2606 4553 Pls
2606 4599 Pls
2606 4214 Pls
2606 4394 Pls
2606 4468 Pls
2606 4475 Pls
2606 4125 Pls
2606 4395 Pls
2606 4246 Pls
2606 4470 Pls
2606 3660 Pls
2606 4324 Pls
2606 4348 Pls
2606 4563 Pls
2606 3516 Pls
2606 4370 Pls
2606 4368 Pls
2606 4413 Pls
3987 4739 Pls
3987 4348 Pls
3987 4432 Pls
3987 4262 Pls
3987 4608 Pls
3987 4431 Pls
3987 4440 Pls
3987 4494 Pls
3987 4641 Pls
3987 4493 Pls
3987 4470 Pls
3987 4512 Pls
3987 4626 Pls
3987 4365 Pls
3987 4693 Pls
3987 4480 Pls
3987 4651 Pls
3987 4608 Pls
3987 4521 Pls
3987 4363 Pls
3987 4450 Pls
3987 4221 Pls
3987 4131 Pls
3987 4479 Pls
3987 3614 Pls
3987 4251 Pls
3987 4044 Pls
3987 4400 Pls
3987 3636 Pls
3987 3640 Pls
3987 3970 Pls
3987 4358 Pls
3987 3133 Pls
3987 3891 Pls
3987 3787 Pls
3987 4237 Pls
3987 3299 Pls
3987 3374 Pls
3987 3824 Pls
3987 4201 Pls
5368 4739 Pls
5368 4385 Pls
5368 4120 Pls
5368 4315 Pls
5368 4651 Pls
5368 4315 Pls
5368 4168 Pls
5368 4178 Pls
5368 4562 Pls
5368 4454 Pls
5368 4342 Pls
5368 4291 Pls
5368 4562 Pls
5368 4622 Pls
5368 4423 Pls
5368 4328 Pls
5368 4536 Pls
5368 4641 Pls
5368 4523 Pls
5368 4568 Pls
5368 4483 Pls
5368 4190 Pls
5368 4303 Pls
5368 4285 Pls
5368 3637 Pls
5368 3578 Pls
5368 4049 Pls
5368 4096 Pls
5368 2777 Pls
5368 3524 Pls
5368 3884 Pls
5368 3845 Pls
5368 2175 Pls
5368 3245 Pls
5368 3293 Pls
5368 3560 Pls
5368 2141 Pls
5368 3361 Pls
5368 3316 Pls
5368 3700 Pls
6749 4673 Pls
6749 4435 Pls
6749 4191 Pls
6749 4017 Pls
6749 4581 Pls
6749 4527 Pls
6749 4431 Pls
6749 4159 Pls
6749 4651 Pls
6749 4404 Pls
6749 4473 Pls
6749 4166 Pls
6749 4739 Pls
6749 4571 Pls
6749 4221 Pls
6749 4253 Pls
6749 4651 Pls
6749 4503 Pls
6749 4416 Pls
6749 4336 Pls
6749 3453 Pls
6749 4018 Pls
6749 4155 Pls
6749 3784 Pls
6749 3063 Pls
6749 3044 Pls
6749 3542 Pls
6749 3836 Pls
6749 2354 Pls
6749 3146 Pls
6749 3197 Pls
6749 3295 Pls
6749 2007 Pls
6749 2749 Pls
6749 3271 Pls
6749 3420 Pls
6749 1592 Pls
6749 2510 Pls
6749 2695 Pls
6749 3237 Pls
1225 4739 Pls
1225 4680 Pls
1225 4655 Pls
1225 4705 Pls
1225 4739 Pls
1225 4739 Pls
1225 4693 Pls
1225 4739 Pls
1225 4739 Pls
1225 4709 Pls
1225 4672 Pls
1225 4704 Pls
1225 4651 Pls
1225 4683 Pls
1225 4711 Pls
1225 4705 Pls
1225 4739 Pls
1225 4638 Pls
1225 4685 Pls
1225 4739 Pls
1225 4608 Pls
1225 4667 Pls
1225 4711 Pls
1225 4739 Pls
1225 4739 Pls
1225 4549 Pls
1225 4713 Pls
1225 4739 Pls
1225 4509 Pls
1225 4700 Pls
1225 4633 Pls
1225 4739 Pls
1225 4739 Pls
1225 4739 Pls
1225 4739 Pls
1225 4739 Pls
1225 4450 Pls
1225 4562 Pls
1225 4711 Pls
1225 4739 Pls
2606 4739 Pls
2606 4739 Pls
2606 4624 Pls
2606 4655 Pls
2606 4660 Pls
2606 4405 Pls
2606 4576 Pls
2606 4492 Pls
2606 4739 Pls
2606 4580 Pls
2606 4669 Pls
2606 4535 Pls
2606 4739 Pls
2606 4574 Pls
2606 4695 Pls
2606 4610 Pls
2606 4739 Pls
2606 4673 Pls
2606 4549 Pls
2606 4550 Pls
2606 4293 Pls
2606 4460 Pls
2606 4517 Pls
2606 4523 Pls
2606 3905 Pls
2606 4497 Pls
2606 4664 Pls
2606 4511 Pls
2606 4083 Pls
2606 4347 Pls
2606 4456 Pls
2606 4520 Pls
2606 3748 Pls
2606 4227 Pls
2606 4441 Pls
2606 4583 Pls
2606 3977 Pls
2606 4490 Pls
2606 4379 Pls
2606 4495 Pls
3987 4739 Pls
3987 4534 Pls
3987 4448 Pls
3987 4356 Pls
3987 4503 Pls
3987 4566 Pls
3987 4339 Pls
3987 4560 Pls
3987 4641 Pls
3987 4369 Pls
3987 4506 Pls
3987 4517 Pls
3987 4739 Pls
3987 4526 Pls
3987 4421 Pls
3987 4488 Pls
3987 4739 Pls
3987 4739 Pls
3987 4489 Pls
3987 4557 Pls
3987 4608 Pls
3987 4510 Pls
3987 4413 Pls
3987 4438 Pls
3987 3243 Pls
3987 4116 Pls
3987 4199 Pls
3987 4243 Pls
3987 3113 Pls
3987 3999 Pls
3987 3918 Pls
3987 4186 Pls
3987 2830 Pls
3987 3759 Pls
3987 4218 Pls
3987 4124 Pls
3987 2840 Pls
3987 3851 Pls
3987 4111 Pls
3987 4225 Pls
5368 4739 Pls
5368 4495 Pls
5368 4422 Pls
5368 4450 Pls
5368 4626 Pls
5368 4566 Pls
5368 4431 Pls
5368 4433 Pls
5368 4580 Pls
5368 4624 Pls
5368 4391 Pls
5368 4428 Pls
5368 4618 Pls
5368 4383 Pls
5368 4563 Pls
5368 4433 Pls
5368 4641 Pls
5368 4529 Pls
5368 4335 Pls
5368 4352 Pls
5368 3638 Pls
5368 4048 Pls
5368 4458 Pls
5368 4199 Pls
5368 3141 Pls
5368 3959 Pls
5368 3883 Pls
5368 4253 Pls
5368 2894 Pls
5368 3423 Pls
5368 3911 Pls
5368 4112 Pls
5368 2319 Pls
5368 3309 Pls
5368 3617 Pls
5368 3911 Pls
5368 2499 Pls
5368 3225 Pls
5368 3572 Pls
5368 3789 Pls
6749 4573 Pls
6749 4367 Pls
6749 4241 Pls
6749 4217 Pls
6749 4573 Pls
6749 4633 Pls
6749 4189 Pls
6749 4218 Pls
6749 4651 Pls
6749 4344 Pls
6749 4542 Pls
6749 4387 Pls
6749 4667 Pls
6749 4366 Pls
6749 4329 Pls
6749 4308 Pls
6749 4739 Pls
6749 4325 Pls
6749 4291 Pls
6749 4406 Pls
6749 3651 Pls
6749 4017 Pls
6749 3777 Pls
6749 3802 Pls
6749 2755 Pls
6749 3287 Pls
6749 3713 Pls
6749 3987 Pls
6749 2589 Pls
6749 3175 Pls
6749 3624 Pls
6749 3410 Pls
6749 2250 Pls
6749 3126 Pls
6749 3219 Pls
6749 3367 Pls
6749 2057 Pls
6749 2749 Pls
6749 2901 Pls
6749 3395 Pls
1225 4739 Pls
1225 4709 Pls
1225 4693 Pls
1225 4668 Pls
1225 4739 Pls
1225 4641 Pls
1225 4695 Pls
1225 4739 Pls
1225 4739 Pls
1225 4739 Pls
1225 4739 Pls
1225 4684 Pls
1225 4739 Pls
1225 4706 Pls
1225 4693 Pls
1225 4739 Pls
1225 4739 Pls
1225 4673 Pls
1225 4739 Pls
1225 4739 Pls
1225 4739 Pls
1225 4641 Pls
1225 4690 Pls
1225 4739 Pls
1225 4739 Pls
1225 4739 Pls
1225 4690 Pls
1225 4739 Pls
1225 4529 Pls
1225 4739 Pls
1225 4655 Pls
1225 4739 Pls
1225 4581 Pls
1225 4660 Pls
1225 4739 Pls
1225 4739 Pls
1225 4514 Pls
1225 4700 Pls
1225 4739 Pls
1225 4739 Pls
2606 4739 Pls
2606 4430 Pls
2606 4636 Pls
2606 4472 Pls
2606 4739 Pls
2606 4716 Pls
2606 4593 Pls
2606 4512 Pls
2606 4569 Pls
2606 4524 Pls
2606 4555 Pls
2606 4648 Pls
2606 4573 Pls
2606 4580 Pls
2606 4572 Pls
2606 4684 Pls
2606 4739 Pls
2606 4739 Pls
2606 4592 Pls
2606 4596 Pls
2606 4739 Pls
2606 4546 Pls
2606 4662 Pls
2606 4698 Pls
2606 4398 Pls
2606 4596 Pls
2606 4686 Pls
2606 4524 Pls
2606 4069 Pls
2606 4190 Pls
2606 4418 Pls
2606 4492 Pls
2606 3925 Pls
2606 4401 Pls
2606 4469 Pls
2606 4489 Pls
2606 3756 Pls
2606 4438 Pls
2606 4474 Pls
2606 4603 Pls
3987 4739 Pls
3987 4509 Pls
3987 4399 Pls
3987 4442 Pls
3987 4533 Pls
3987 4541 Pls
3987 4350 Pls
3987 4402 Pls
3987 4739 Pls
3987 4541 Pls
3987 4472 Pls
3987 4602 Pls
3987 4626 Pls
3987 4395 Pls
3987 4410 Pls
3987 4557 Pls
3987 4739 Pls
3987 4739 Pls
3987 4548 Pls
3987 4560 Pls
3987 4120 Pls
3987 4321 Pls
3987 4425 Pls
3987 4326 Pls
3987 4319 Pls
3987 4310 Pls
3987 4236 Pls
3987 4200 Pls
3987 3623 Pls
3987 4026 Pls
3987 4206 Pls
3987 4323 Pls
3987 2901 Pls
3987 3195 Pls
3987 3903 Pls
3987 4139 Pls
3987 2655 Pls
3987 3542 Pls
3987 4148 Pls
3987 4149 Pls
5368 4660 Pls
5368 4525 Pls
5368 4423 Pls
5368 4486 Pls
5368 4561 Pls
5368 4604 Pls
5368 4351 Pls
5368 4218 Pls
5368 4589 Pls
5368 4525 Pls
5368 4306 Pls
5368 4392 Pls
5368 4660 Pls
5368 4500 Pls
5368 4556 Pls
5368 4245 Pls
5368 4739 Pls
5368 4676 Pls
5368 4498 Pls
5368 4264 Pls
5368 3752 Pls
5368 3896 Pls
5368 4068 Pls
5368 4281 Pls
5368 3504 Pls
5368 3869 Pls
5368 4179 Pls
5368 4089 Pls
5368 3647 Pls
5368 3597 Pls
5368 3857 Pls
5368 4240 Pls
5368 3069 Pls
5368 3544 Pls
5368 3678 Pls
5368 3858 Pls
5368 2946 Pls
5368 3192 Pls
5368 3523 Pls
5368 3588 Pls
6749 4739 Pls
6749 4496 Pls
6749 4342 Pls
6749 4238 Pls
6749 4651 Pls
6749 4446 Pls
6749 4275 Pls
6749 4306 Pls
6749 4739 Pls
6749 4398 Pls
6749 4496 Pls
6749 4349 Pls
6749 4511 Pls
6749 4463 Pls
6749 4445 Pls
6749 4379 Pls
6749 4739 Pls
6749 4497 Pls
6749 4480 Pls
6749 4289 Pls
6749 3951 Pls
6749 3830 Pls
6749 4180 Pls
6749 4289 Pls
6749 3754 Pls
6749 3318 Pls
6749 3773 Pls
6749 3870 Pls
6749 2425 Pls
6749 3345 Pls
6749 3796 Pls
6749 3543 Pls
6749 2551 Pls
6749 3089 Pls
6749 3305 Pls
6749 3329 Pls
6749 2069 Pls
6749 2999 Pls
6749 3314 Pls
6749 3335 Pls
1225 4739 Pls
1225 4648 Pls
1225 4739 Pls
1225 4687 Pls
1225 4739 Pls
1225 4739 Pls
1225 4695 Pls
1225 4705 Pls
1225 4739 Pls
1225 4683 Pls
1225 4739 Pls
1225 4705 Pls
1225 4739 Pls
1225 4667 Pls
1225 4739 Pls
1225 4739 Pls
1225 4739 Pls
1225 4739 Pls
1225 4739 Pls
1225 4739 Pls
1225 4739 Pls
1225 4739 Pls
1225 4739 Pls
1225 4739 Pls
1225 4739 Pls
1225 4739 Pls
1225 4739 Pls
1225 4739 Pls
1225 4739 Pls
1225 4628 Pls
1225 4739 Pls
1225 4739 Pls
1225 4739 Pls
1225 4739 Pls
1225 4686 Pls
1225 4739 Pls
1225 4608 Pls
1225 4667 Pls
1225 4686 Pls
1225 4739 Pls
2606 4626 Pls
2606 4709 Pls
2606 4675 Pls
2606 4690 Pls
2606 4739 Pls
2606 4709 Pls
2606 4601 Pls
2606 4723 Pls
2606 4739 Pls
2606 4632 Pls
2606 4739 Pls
2606 4638 Pls
2606 4660 Pls
2606 4678 Pls
2606 4716 Pls
2606 4623 Pls
2606 4739 Pls
2606 4739 Pls
2606 4617 Pls
2606 4720 Pls
2606 4581 Pls
2606 4628 Pls
2606 4585 Pls
2606 4739 Pls
2606 4739 Pls
2606 4618 Pls
2606 4535 Pls
2606 4660 Pls
2606 4476 Pls
2606 4538 Pls
2606 4578 Pls
2606 4621 Pls
2606 4463 Pls
2606 4536 Pls
2606 4678 Pls
2606 4659 Pls
2606 3886 Pls
2606 4536 Pls
2606 4585 Pls
2606 4625 Pls
3987 4651 Pls
3987 4662 Pls
3987 4532 Pls
3987 4588 Pls
3987 4739 Pls
3987 4616 Pls
3987 4703 Pls
3987 4585 Pls
3987 4739 Pls
3987 4613 Pls
3987 4580 Pls
3987 4643 Pls
3987 4739 Pls
3987 4678 Pls
3987 4629 Pls
3987 4682 Pls
3987 4739 Pls
3987 4646 Pls
3987 4508 Pls
3987 4678 Pls
3987 4581 Pls
3987 4618 Pls
3987 4630 Pls
3987 4611 Pls
3987 4319 Pls
3987 4450 Pls
3987 4413 Pls
3987 4626 Pls
3987 3656 Pls
3987 4171 Pls
3987 4537 Pls
3987 4423 Pls
3987 3391 Pls
3987 4340 Pls
3987 4412 Pls
3987 4509 Pls
3987 3173 Pls
3987 4320 Pls
3987 4159 Pls
3987 4370 Pls
5368 4608 Pls
5368 4527 Pls
5368 4493 Pls
5368 4571 Pls
5368 4667 Pls
5368 4640 Pls
5368 4535 Pls
5368 4588 Pls
5368 4739 Pls
5368 4654 Pls
5368 4566 Pls
5368 4458 Pls
5368 4739 Pls
5368 4630 Pls
5368 4507 Pls
5368 4456 Pls
5368 4651 Pls
5368 4667 Pls
5368 4503 Pls
5368 4654 Pls
5368 4739 Pls
5368 4386 Pls
5368 4568 Pls
5368 4542 Pls
5368 3964 Pls
5368 4144 Pls
5368 4363 Pls
5368 4410 Pls
5368 3323 Pls
5368 4074 Pls
5368 4340 Pls
5368 4379 Pls
5368 3529 Pls
5368 3977 Pls
5368 4010 Pls
5368 4202 Pls
5368 3143 Pls
5368 3827 Pls
5368 4151 Pls
5368 4210 Pls
6749 4739 Pls
6749 4574 Pls
6749 4623 Pls
6749 4567 Pls
6749 4641 Pls
6749 4664 Pls
6749 4580 Pls
6749 4525 Pls
6749 4739 Pls
6749 4711 Pls
6749 4565 Pls
6749 4581 Pls
6749 4667 Pls
6749 4654 Pls
6749 4515 Pls
6749 4594 Pls
6749 4739 Pls
6749 4678 Pls
6749 4485 Pls
6749 4501 Pls
6749 4411 Pls
6749 4406 Pls
6749 4504 Pls
6749 4359 Pls
6749 3886 Pls
6749 4339 Pls
6749 3993 Pls
6749 4393 Pls
6749 3557 Pls
6749 3973 Pls
6749 3987 Pls
6749 4306 Pls
6749 2952 Pls
6749 3362 Pls
6749 4115 Pls
6749 4012 Pls
6749 2714 Pls
6749 3185 Pls
6749 3762 Pls
6749 3815 Pls
1225 4739 Pls
1225 4683 Pls
1225 4739 Pls
1225 4739 Pls
1225 4739 Pls
1225 4739 Pls
1225 4664 Pls
1225 4739 Pls
1225 4739 Pls
1225 4739 Pls
1225 4739 Pls
1225 4739 Pls
1225 4739 Pls
1225 4739 Pls
1225 4714 Pls
1225 4739 Pls
1225 4739 Pls
1225 4739 Pls
1225 4739 Pls
1225 4739 Pls
1225 4476 Pls
1225 4739 Pls
1225 4713 Pls
1225 4739 Pls
1225 4660 Pls
1225 4739 Pls
1225 4739 Pls
1225 4739 Pls
1225 4739 Pls
1225 4695 Pls
1225 4690 Pls
1225 4739 Pls
1225 4739 Pls
1225 4695 Pls
1225 4739 Pls
1225 4739 Pls
1225 4450 Pls
1225 4667 Pls
1225 4739 Pls
1225 4739 Pls
2606 4739 Pls
2606 4739 Pls
2606 4717 Pls
2606 4722 Pls
2606 4739 Pls
2606 4617 Pls
2606 4739 Pls
2606 4672 Pls
2606 4739 Pls
2606 4660 Pls
2606 4739 Pls
2606 4706 Pls
2606 4739 Pls
2606 4706 Pls
2606 4651 Pls
2606 4656 Pls
2606 4739 Pls
2606 4739 Pls
2606 4643 Pls
2606 4739 Pls
2606 4739 Pls
2606 4700 Pls
2606 4739 Pls
2606 4701 Pls
2606 4529 Pls
2606 4739 Pls
2606 4658 Pls
2606 4670 Pls
2606 4542 Pls
2606 4548 Pls
2606 4739 Pls
2606 4701 Pls
2606 4608 Pls
2606 4449 Pls
2606 4637 Pls
2606 4719 Pls
2606 4503 Pls
2606 4739 Pls
2606 4611 Pls
2606 4660 Pls
3987 4626 Pls
3987 4690 Pls
3987 4600 Pls
3987 4707 Pls
3987 4739 Pls
3987 4739 Pls
3987 4693 Pls
3987 4625 Pls
3987 4739 Pls
3987 4604 Pls
3987 4698 Pls
3987 4669 Pls
3987 4739 Pls
3987 4739 Pls
3987 4651 Pls
3987 4703 Pls
3987 4739 Pls
3987 4739 Pls
3987 4695 Pls
3987 4705 Pls
3987 4739 Pls
3987 4667 Pls
3987 4611 Pls
3987 4677 Pls
3987 4411 Pls
3987 4409 Pls
3987 4586 Pls
3987 4701 Pls
3987 4266 Pls
3987 4451 Pls
3987 4664 Pls
3987 4579 Pls
3987 3925 Pls
3987 4278 Pls
3987 4511 Pls
3987 4646 Pls
3987 4273 Pls
3987 4628 Pls
3987 4454 Pls
3987 4519 Pls
5368 4651 Pls
5368 4640 Pls
5368 4665 Pls
5368 4642 Pls
5368 4739 Pls
5368 4683 Pls
5368 4582 Pls
5368 4660 Pls
5368 4739 Pls
5368 4610 Pls
5368 4677 Pls
5368 4606 Pls
5368 4591 Pls
5368 4643 Pls
5368 4610 Pls
5368 4621 Pls
5368 4739 Pls
5368 4622 Pls
5368 4648 Pls
5368 4605 Pls
5368 4509 Pls
5368 4503 Pls
5368 4686 Pls
5368 4531 Pls
5368 3951 Pls
5368 4393 Pls
5368 4509 Pls
5368 4346 Pls
5368 3597 Pls
5368 4273 Pls
5368 4489 Pls
5368 4605 Pls
5368 4117 Pls
5368 4059 Pls
5368 4440 Pls
5368 4356 Pls
5368 3373 Pls
5368 4061 Pls
5368 4430 Pls
5368 4271 Pls
6749 4641 Pls
6749 4568 Pls
6749 4419 Pls
6749 4635 Pls
6749 4739 Pls
6749 4739 Pls
6749 4677 Pls
6749 4583 Pls
6749 4739 Pls
6749 4629 Pls
6749 4664 Pls
6749 4534 Pls
6749 4739 Pls
6749 4683 Pls
6749 4662 Pls
6749 4639 Pls
6749 4739 Pls
6749 4627 Pls
6749 4646 Pls
6749 4618 Pls
6749 4161 Pls
6749 4487 Pls
6749 4550 Pls
6749 4498 Pls
6749 3886 Pls
6749 3974 Pls
6749 3959 Pls
6749 4356 Pls
6749 3851 Pls
6749 3867 Pls
6749 4261 Pls
6749 4133 Pls
6749 2923 Pls
6749 3641 Pls
6749 3993 Pls
6749 4219 Pls
6749 3340 Pls
6749 3849 Pls
6749 3771 Pls
6749 4260 Pls
1225 4739 Pls
1225 4739 Pls
1225 4686 Pls
1225 4739 Pls
1225 4739 Pls
1225 4739 Pls
1225 4739 Pls
1225 4723 Pls
1225 4739 Pls
1225 4709 Pls
1225 4713 Pls
1225 4739 Pls
1225 4739 Pls
1225 4739 Pls
1225 4739 Pls
1225 4739 Pls
1225 4739 Pls
1225 4739 Pls
1225 4739 Pls
1225 4739 Pls
1225 4739 Pls
1225 4739 Pls
1225 4739 Pls
1225 4739 Pls
1225 4581 Pls
1225 4667 Pls
1225 4739 Pls
1225 4739 Pls
1225 4739 Pls
1225 4739 Pls
1225 4739 Pls
1225 4739 Pls
1225 4739 Pls
1225 4695 Pls
1225 4706 Pls
1225 4739 Pls
1225 4739 Pls
1225 4739 Pls
1225 4739 Pls
1225 4739 Pls
2606 4739 Pls
2606 4686 Pls
2606 4695 Pls
2606 4705 Pls
2606 4739 Pls
2606 4690 Pls
2606 4739 Pls
2606 4705 Pls
2606 4739 Pls
2606 4621 Pls
2606 4739 Pls
2606 4739 Pls
2606 4739 Pls
2606 4711 Pls
2606 4651 Pls
2606 4709 Pls
2606 4739 Pls
2606 4739 Pls
2606 4714 Pls
2606 4739 Pls
2606 4608 Pls
2606 4739 Pls
2606 4637 Pls
2606 4718 Pls
2606 4739 Pls
2606 4739 Pls
2606 4739 Pls
2606 4739 Pls
2606 4739 Pls
2606 4525 Pls
2606 4621 Pls
2606 4739 Pls
2606 4450 Pls
2606 4573 Pls
2606 4682 Pls
2606 4698 Pls
2606 4608 Pls
2606 4524 Pls
2606 4626 Pls
2606 4718 Pls
3987 4739 Pls
3987 4739 Pls
3987 4698 Pls
3987 4592 Pls
3987 4626 Pls
3987 4690 Pls
3987 4681 Pls
3987 4667 Pls
3987 4739 Pls
3987 4739 Pls
3987 4714 Pls
3987 4739 Pls
3987 4739 Pls
3987 4739 Pls
3987 4601 Pls
3987 4635 Pls
3987 4641 Pls
3987 4739 Pls
3987 4648 Pls
3987 4700 Pls
3987 4739 Pls
3987 4589 Pls
3987 4686 Pls
3987 4603 Pls
3987 4317 Pls
3987 4667 Pls
3987 4621 Pls
3987 4642 Pls
3987 4570 Pls
3987 4739 Pls
3987 4690 Pls
3987 4623 Pls
3987 4739 Pls
3987 4667 Pls
3987 4739 Pls
3987 4595 Pls
3987 3887 Pls
3987 4616 Pls
3987 4396 Pls
3987 4631 Pls
5368 4739 Pls
5368 4739 Pls
5368 4721 Pls
5368 4620 Pls
5368 4739 Pls
5368 4660 Pls
5368 4703 Pls
5368 4640 Pls
5368 4739 Pls
5368 4662 Pls
5368 4690 Pls
5368 4570 Pls
5368 4739 Pls
5368 4618 Pls
5368 4698 Pls
5368 4670 Pls
5368 4651 Pls
5368 4678 Pls
5368 4739 Pls
5368 4674 Pls
5368 4542 Pls
5368 4510 Pls
5368 4350 Pls
5368 4626 Pls
5368 4266 Pls
5368 4497 Pls
5368 4550 Pls
5368 4621 Pls
5368 3914 Pls
5368 4396 Pls
5368 4433 Pls
5368 4555 Pls
5368 3951 Pls
5368 4540 Pls
5368 4365 Pls
5368 4514 Pls
5368 3857 Pls
5368 4265 Pls
5368 4393 Pls
5368 4405 Pls
6749 4673 Pls
6749 4739 Pls
6749 4682 Pls
6749 4677 Pls
6749 4739 Pls
6749 4634 Pls
6749 4577 Pls
6749 4593 Pls
6749 4739 Pls
6749 4739 Pls
6749 4678 Pls
6749 4628 Pls
6749 4739 Pls
6749 4683 Pls
6749 4639 Pls
6749 4657 Pls
6749 4739 Pls
6749 4739 Pls
6749 4698 Pls
6749 4739 Pls
6749 4293 Pls
6749 4621 Pls
6749 4658 Pls
6749 4558 Pls
6749 4214 Pls
6749 4253 Pls
6749 4235 Pls
6749 4553 Pls
6749 3897 Pls
6749 4229 Pls
6749 4284 Pls
6749 4417 Pls
6749 3498 Pls
6749 3894 Pls
6749 4109 Pls
6749 4347 Pls
6749 3398 Pls
6749 4197 Pls
6749 4059 Pls
6749 4330 Pls
1225 4739 Pls
1225 4739 Pls
1225 4701 Pls
1225 4739 Pls
1225 4739 Pls
1225 4739 Pls
1225 4739 Pls
1225 4739 Pls
1225 4739 Pls
1225 4739 Pls
1225 4716 Pls
1225 4739 Pls
1225 4683 Pls
1225 4739 Pls
1225 4739 Pls
1225 4739 Pls
1225 4739 Pls
1225 4739 Pls
1225 4691 Pls
1225 4739 Pls
1225 4739 Pls
1225 4739 Pls
1225 4739 Pls
1225 4739 Pls
1225 4660 Pls
1225 4739 Pls
1225 4739 Pls
1225 4739 Pls
1225 4739 Pls
1225 4667 Pls
1225 4739 Pls
1225 4739 Pls
1225 4739 Pls
1225 4700 Pls
1225 4739 Pls
1225 4739 Pls
1225 4608 Pls
1225 4739 Pls
1225 4739 Pls
1225 4739 Pls
2606 4739 Pls
2606 4667 Pls
2606 4620 Pls
2606 4673 Pls
2606 4739 Pls
2606 4739 Pls
2606 4739 Pls
2606 4739 Pls
2606 4739 Pls
2606 4683 Pls
2606 4698 Pls
2606 4683 Pls
2606 4739 Pls
2606 4709 Pls
2606 4739 Pls
2606 4739 Pls
2606 4608 Pls
2606 4739 Pls
2606 4739 Pls
2606 4739 Pls
2606 4739 Pls
2606 4667 Pls
2606 4690 Pls
2606 4700 Pls
2606 4608 Pls
2606 4651 Pls
2606 4739 Pls
2606 4664 Pls
2606 4529 Pls
2606 4660 Pls
2606 4690 Pls
2606 4739 Pls
2606 4608 Pls
2606 4695 Pls
2606 4585 Pls
2606 4698 Pls
2606 4476 Pls
2606 4667 Pls
2606 4686 Pls
2606 4588 Pls
3987 4739 Pls
3987 4739 Pls
3987 4698 Pls
3987 4739 Pls
3987 4739 Pls
3987 4739 Pls
3987 4610 Pls
3987 4723 Pls
3987 4739 Pls
3987 4739 Pls
3987 4628 Pls
3987 4684 Pls
3987 4739 Pls
3987 4568 Pls
3987 4680 Pls
3987 4668 Pls
3987 4651 Pls
3987 4739 Pls
3987 4690 Pls
3987 4739 Pls
3987 4739 Pls
3987 4589 Pls
3987 4595 Pls
3987 4623 Pls
3987 4476 Pls
3987 4667 Pls
3987 4739 Pls
3987 4621 Pls
3987 4398 Pls
3987 4569 Pls
3987 4591 Pls
3987 4605 Pls
3987 4739 Pls
3987 4628 Pls
3987 4633 Pls
3987 4660 Pls
3987 4235 Pls
3987 4596 Pls
3987 4548 Pls
3987 4586 Pls
5368 4739 Pls
5368 4739 Pls
5368 4695 Pls
5368 4710 Pls
5368 4739 Pls
5368 4695 Pls
5368 4577 Pls
5368 4669 Pls
5368 4739 Pls
5368 4739 Pls
5368 4693 Pls
5368 4710 Pls
5368 4739 Pls
5368 4686 Pls
5368 4700 Pls
5368 4676 Pls
5368 4739 Pls
5368 4739 Pls
5368 4739 Pls
5368 4672 Pls
5368 4739 Pls
5368 4542 Pls
5368 4599 Pls
5368 4695 Pls
5368 4450 Pls
5368 4517 Pls
5368 4535 Pls
5368 4629 Pls
5368 4581 Pls
5368 4581 Pls
5368 4513 Pls
5368 4622 Pls
5368 4384 Pls
5368 4439 Pls
5368 4243 Pls
5368 4535 Pls
5368 4188 Pls
5368 4262 Pls
5368 4280 Pls
5368 4455 Pls
6749 4739 Pls
6749 4739 Pls
6749 4575 Pls
6749 4674 Pls
6749 4739 Pls
6749 4565 Pls
6749 4613 Pls
6749 4645 Pls
6749 4739 Pls
6749 4651 Pls
6749 4611 Pls
6749 4678 Pls
6749 4739 Pls
6749 4739 Pls
6749 4676 Pls
6749 4588 Pls
6749 4739 Pls
6749 4739 Pls
6749 4693 Pls
6749 4596 Pls
6749 4188 Pls
6749 4596 Pls
6749 4585 Pls
6749 4517 Pls
6749 3800 Pls
6749 4235 Pls
6749 4490 Pls
6749 4508 Pls
6749 3846 Pls
6749 4353 Pls
6749 4558 Pls
6749 4433 Pls
6749 3833 Pls
6749 4418 Pls
6749 4411 Pls
6749 4479 Pls
6749 3513 Pls
6749 4165 Pls
6749 4250 Pls
6749 4427 Pls
1225 4739 Pls
1225 4711 Pls
1225 4695 Pls
1225 4739 Pls
1225 4739 Pls
1225 4739 Pls
1225 4714 Pls
1225 4739 Pls
1225 4673 Pls
1225 4739 Pls
1225 4739 Pls
1225 4739 Pls
1225 4739 Pls
1225 4739 Pls
1225 4739 Pls
1225 4739 Pls
1225 4739 Pls
1225 4739 Pls
1225 4739 Pls
1225 4739 Pls
1225 4739 Pls
1225 4739 Pls
1225 4739 Pls
1225 4739 Pls
1225 4608 Pls
1225 4739 Pls
1225 4739 Pls
1225 4739 Pls
1225 4660 Pls
1225 4739 Pls
1225 4739 Pls
1225 4739 Pls
1225 4739 Pls
1225 4739 Pls
1225 4739 Pls
1225 4739 Pls
1225 4739 Pls
1225 4739 Pls
1225 4739 Pls
1225 4739 Pls
2606 4739 Pls
2606 4739 Pls
2606 4739 Pls
2606 4643 Pls
2606 4739 Pls
2606 4739 Pls
2606 4675 Pls
2606 4709 Pls
2606 4739 Pls
2606 4739 Pls
2606 4739 Pls
2606 4739 Pls
2606 4739 Pls
2606 4739 Pls
2606 4700 Pls
2606 4705 Pls
2606 4739 Pls
2606 4648 Pls
2606 4643 Pls
2606 4739 Pls
2606 4476 Pls
2606 4700 Pls
2606 4739 Pls
2606 4698 Pls
2606 4450 Pls
2606 4739 Pls
2606 4690 Pls
2606 4658 Pls
2606 4476 Pls
2606 4739 Pls
2606 4713 Pls
2606 4698 Pls
2606 4608 Pls
2606 4651 Pls
2606 4611 Pls
2606 4739 Pls
2606 4608 Pls
2606 4507 Pls
2606 4709 Pls
2606 4700 Pls
3987 4739 Pls
3987 4595 Pls
3987 4693 Pls
3987 4680 Pls
3987 4651 Pls
3987 4678 Pls
3987 4739 Pls
3987 4721 Pls
3987 4739 Pls
3987 4739 Pls
3987 4700 Pls
3987 4739 Pls
3987 4739 Pls
3987 4739 Pls
3987 4739 Pls
3987 4704 Pls
3987 4739 Pls
3987 4673 Pls
3987 4739 Pls
3987 4707 Pls
3987 4739 Pls
3987 4517 Pls
3987 4739 Pls
3987 4662 Pls
3987 4411 Pls
3987 4695 Pls
3987 4641 Pls
3987 4619 Pls
3987 4608 Pls
3987 4410 Pls
3987 4641 Pls
3987 4581 Pls
3987 4319 Pls
3987 4517 Pls
3987 4551 Pls
3987 4601 Pls
3987 4100 Pls
3987 4388 Pls
3987 4690 Pls
3987 4656 Pls
5368 4739 Pls
5368 4739 Pls
5368 4739 Pls
5368 4643 Pls
5368 4739 Pls
5368 4637 Pls
5368 4637 Pls
5368 4656 Pls
5368 4739 Pls
5368 4739 Pls
5368 4698 Pls
5368 4712 Pls
5368 4739 Pls
5368 4739 Pls
5368 4670 Pls
5368 4687 Pls
5368 4739 Pls
5368 4678 Pls
5368 4739 Pls
5368 4623 Pls
5368 4345 Pls
5368 4612 Pls
5368 4739 Pls
5368 4630 Pls
5368 4476 Pls
5368 4382 Pls
5368 4651 Pls
5368 4625 Pls
5368 4450 Pls
5368 4449 Pls
5368 4534 Pls
5368 4522 Pls
5368 3951 Pls
5368 4562 Pls
5368 4571 Pls
5368 4546 Pls
5368 4056 Pls
5368 4231 Pls
5368 4475 Pls
5368 4488 Pls
6749 4739 Pls
6749 4673 Pls
6749 4656 Pls
6749 4581 Pls
6749 4739 Pls
6749 4673 Pls
6749 4680 Pls
6749 4691 Pls
6749 4667 Pls
6749 4615 Pls
6749 4630 Pls
6749 4580 Pls
6749 4739 Pls
6749 4690 Pls
6749 4551 Pls
6749 4598 Pls
6749 4739 Pls
6749 4665 Pls
6749 4672 Pls
6749 4694 Pls
6749 4345 Pls
6749 4667 Pls
6749 4686 Pls
6749 4662 Pls
6749 3886 Pls
6749 4510 Pls
6749 4588 Pls
6749 4506 Pls
6749 4188 Pls
6749 4536 Pls
6749 4585 Pls
6749 4489 Pls
6749 4148 Pls
6749 4208 Pls
6749 4306 Pls
6749 4531 Pls
6749 3848 Pls
6749 4238 Pls
6749 4333 Pls
6749 4276 Pls
1225 4739 Pls
1225 4739 Pls
1225 4700 Pls
1225 4739 Pls
1225 4739 Pls
1225 4739 Pls
1225 4739 Pls
1225 4739 Pls
1225 4739 Pls
1225 4706 Pls
1225 4739 Pls
1225 4739 Pls
1225 4739 Pls
1225 4739 Pls
1225 4695 Pls
1225 4739 Pls
1225 4739 Pls
1225 4739 Pls
1225 4739 Pls
1225 4739 Pls
1225 4739 Pls
1225 4739 Pls
1225 4739 Pls
1225 4739 Pls
1225 4739 Pls
1225 4739 Pls
1225 4739 Pls
1225 4739 Pls
1225 4581 Pls
1225 4660 Pls
1225 4739 Pls
1225 4739 Pls
1225 4739 Pls
1225 4739 Pls
1225 4739 Pls
1225 4739 Pls
1225 4581 Pls
1225 4739 Pls
1225 4711 Pls
1225 4739 Pls
2606 4739 Pls
2606 4683 Pls
2606 4714 Pls
2606 4722 Pls
2606 4739 Pls
2606 4739 Pls
2606 4660 Pls
2606 4653 Pls
2606 4739 Pls
2606 4739 Pls
2606 4713 Pls
2606 4739 Pls
2606 4739 Pls
2606 4739 Pls
2606 4656 Pls
2606 4673 Pls
2606 4739 Pls
2606 4645 Pls
2606 4739 Pls
2606 4739 Pls
2606 4739 Pls
2606 4739 Pls
2606 4739 Pls
2606 4664 Pls
2606 4739 Pls
2606 4739 Pls
2606 4686 Pls
2606 4739 Pls
2606 4581 Pls
2606 4695 Pls
2606 4686 Pls
2606 4739 Pls
2606 4739 Pls
2606 4621 Pls
2606 4634 Pls
2606 4695 Pls
2606 4660 Pls
2606 4700 Pls
2606 4686 Pls
2606 4662 Pls
3987 4739 Pls
3987 4739 Pls
3987 4739 Pls
3987 4667 Pls
3987 4739 Pls
3987 4693 Pls
3987 4660 Pls
3987 4739 Pls
3987 4739 Pls
3987 4739 Pls
3987 4718 Pls
3987 4706 Pls
3987 4739 Pls
3987 4683 Pls
3987 4739 Pls
3987 4706 Pls
3987 4739 Pls
3987 4739 Pls
3987 4739 Pls
3987 4672 Pls
3987 4608 Pls
3987 4660 Pls
3987 4690 Pls
3987 4662 Pls
3987 4608 Pls
3987 4455 Pls
3987 4555 Pls
3987 4653 Pls
3987 4503 Pls
3987 4667 Pls
3987 4686 Pls
3987 4623 Pls
3987 4017 Pls
3987 4497 Pls
3987 4660 Pls
3987 4660 Pls
3987 4371 Pls
3987 4660 Pls
3987 4596 Pls
3987 4620 Pls
5368 4739 Pls
5368 4739 Pls
5368 4693 Pls
5368 4672 Pls
5368 4739 Pls
5368 4739 Pls
5368 4656 Pls
5368 4650 Pls
5368 4660 Pls
5368 4739 Pls
5368 4671 Pls
5368 4698 Pls
5368 4660 Pls
5368 4739 Pls
5368 4628 Pls
5368 4706 Pls
5368 4739 Pls
5368 4739 Pls
5368 4717 Pls
5368 4739 Pls
5368 4608 Pls
5368 4562 Pls
5368 4584 Pls
5368 4637 Pls
5368 4345 Pls
5368 4191 Pls
5368 4690 Pls
5368 4660 Pls
5368 4345 Pls
5368 4510 Pls
5368 4510 Pls
5368 4640 Pls
5368 4214 Pls
5368 4517 Pls
5368 4311 Pls
5368 4602 Pls
5368 4411 Pls
5368 4470 Pls
5368 4634 Pls
5368 4698 Pls
6749 4667 Pls
6749 4711 Pls
6749 4541 Pls
6749 4739 Pls
6749 4739 Pls
6749 4690 Pls
6749 4670 Pls
6749 4616 Pls
6749 4739 Pls
6749 4596 Pls
6749 4700 Pls
6749 4709 Pls
6749 4739 Pls
6749 4634 Pls
6749 4581 Pls
6749 4670 Pls
6749 4739 Pls
6749 4739 Pls
6749 4651 Pls
6749 4672 Pls
6749 4608 Pls
6749 4589 Pls
6749 4581 Pls
6749 4630 Pls
6749 4411 Pls
6749 4335 Pls
6749 4390 Pls
6749 4440 Pls
6749 4332 Pls
6749 4470 Pls
6749 4413 Pls
6749 4493 Pls
6749 4345 Pls
6749 4352 Pls
6749 4383 Pls
6749 4522 Pls
6749 3162 Pls
6749 4205 Pls
6749 4217 Pls
6749 4660 Pls
1225 4739 Pls
1225 4739 Pls
1225 4739 Pls
1225 4739 Pls
1225 4739 Pls
1225 4739 Pls
1225 4739 Pls
1225 4739 Pls
1225 4739 Pls
1225 4739 Pls
1225 4739 Pls
1225 4739 Pls
1225 4660 Pls
1225 4739 Pls
1225 4695 Pls
1225 4739 Pls
1225 4739 Pls
1225 4739 Pls
1225 4739 Pls
1225 4739 Pls
1225 4739 Pls
1225 4700 Pls
1225 4739 Pls
1225 4739 Pls
1225 4739 Pls
1225 4700 Pls
1225 4713 Pls
1225 4739 Pls
1225 4739 Pls
1225 4739 Pls
1225 4652 Pls
1225 4739 Pls
1225 4739 Pls
1225 4739 Pls
1225 4739 Pls
1225 4739 Pls
1225 4608 Pls
1225 4660 Pls
1225 4739 Pls
1225 4739 Pls
2606 4739 Pls
2606 4739 Pls
2606 4705 Pls
2606 4739 Pls
2606 4739 Pls
2606 4627 Pls
2606 4654 Pls
2606 4739 Pls
2606 4739 Pls
2606 4739 Pls
2606 4686 Pls
2606 4673 Pls
2606 4739 Pls
2606 4739 Pls
2606 4739 Pls
2606 4739 Pls
2606 4739 Pls
2606 4739 Pls
2606 4671 Pls
2606 4703 Pls
2606 4739 Pls
2606 4739 Pls
2606 4739 Pls
2606 4718 Pls
2606 4739 Pls
2606 4739 Pls
2606 4739 Pls
2606 4718 Pls
2606 4476 Pls
2606 4667 Pls
2606 4660 Pls
2606 4701 Pls
2606 4581 Pls
2606 4596 Pls
2606 4630 Pls
2606 4739 Pls
2606 4739 Pls
2606 4596 Pls
2606 4711 Pls
2606 4701 Pls
3987 4739 Pls
3987 4739 Pls
3987 4664 Pls
3987 4678 Pls
3987 4739 Pls
3987 4739 Pls
3987 4676 Pls
3987 4692 Pls
3987 4651 Pls
3987 4739 Pls
3987 4658 Pls
3987 4721 Pls
3987 4739 Pls
3987 4739 Pls
3987 4700 Pls
3987 4739 Pls
3987 4739 Pls
3987 4739 Pls
3987 4695 Pls
3987 4700 Pls
3987 4739 Pls
3987 4596 Pls
3987 4690 Pls
3987 4739 Pls
3987 4739 Pls
3987 4589 Pls
3987 4634 Pls
3987 4739 Pls
3987 4083 Pls
3987 4660 Pls
3987 4709 Pls
3987 4662 Pls
3987 4739 Pls
3987 4739 Pls
3987 4660 Pls
3987 4664 Pls
3987 4570 Pls
3987 4651 Pls
3987 4635 Pls
3987 4701 Pls
5368 4739 Pls
5368 4701 Pls
5368 4674 Pls
5368 4673 Pls
5368 4667 Pls
5368 4690 Pls
5368 4739 Pls
5368 4739 Pls
5368 4739 Pls
5368 4739 Pls
5368 4698 Pls
5368 4739 Pls
5368 4739 Pls
5368 4706 Pls
5368 4739 Pls
5368 4739 Pls
5368 4739 Pls
5368 4739 Pls
5368 4739 Pls
5368 4688 Pls
5368 4608 Pls
5368 4596 Pls
5368 4739 Pls
5368 4658 Pls
5368 4739 Pls
5368 4739 Pls
5368 4630 Pls
5368 4658 Pls
5368 4319 Pls
5368 4596 Pls
5368 4479 Pls
5368 4567 Pls
5368 4308 Pls
5368 4573 Pls
5368 4525 Pls
5368 4548 Pls
5368 3991 Pls
5368 4167 Pls
5368 4641 Pls
5368 4574 Pls
6749 4739 Pls
6749 4739 Pls
6749 4690 Pls
6749 4722 Pls
6749 4739 Pls
6749 4739 Pls
6749 4739 Pls
6749 4638 Pls
6749 4739 Pls
6749 4664 Pls
6749 4705 Pls
6749 4706 Pls
6749 4739 Pls
6749 4739 Pls
6749 4739 Pls
6749 4679 Pls
6749 4641 Pls
6749 4678 Pls
6749 4653 Pls
6749 4739 Pls
6749 4739 Pls
6749 4596 Pls
6749 4585 Pls
6749 4656 Pls
6749 4214 Pls
6749 4739 Pls
6749 4641 Pls
6749 4639 Pls
6749 4608 Pls
6749 4602 Pls
6749 4690 Pls
6749 4579 Pls
6749 4041 Pls
6749 4549 Pls
6749 4604 Pls
6749 4516 Pls
6749 4148 Pls
6749 4510 Pls
6749 4493 Pls
6749 4298 Pls
1225 4739 Pls
1225 4739 Pls
1225 4739 Pls
1225 4739 Pls
1225 4739 Pls
1225 4739 Pls
1225 4739 Pls
1225 4739 Pls
1225 4739 Pls
1225 4739 Pls
1225 4739 Pls
1225 4739 Pls
1225 4739 Pls
1225 4739 Pls
1225 4739 Pls
1225 4739 Pls
1225 4739 Pls
1225 4673 Pls
1225 4739 Pls
1225 4739 Pls
1225 4739 Pls
1225 4739 Pls
1225 4739 Pls
1225 4739 Pls
1225 4739 Pls
1225 4739 Pls
1225 4739 Pls
1225 4739 Pls
1225 4739 Pls
1225 4667 Pls
1225 4739 Pls
1225 4739 Pls
1225 4739 Pls
1225 4700 Pls
1225 4739 Pls
1225 4739 Pls
1225 4739 Pls
1225 4700 Pls
1225 4739 Pls
1225 4739 Pls
2606 4739 Pls
2606 4651 Pls
2606 4716 Pls
2606 4709 Pls
2606 4739 Pls
2606 4739 Pls
2606 4739 Pls
2606 4686 Pls
2606 4739 Pls
2606 4739 Pls
2606 4739 Pls
2606 4739 Pls
2606 4739 Pls
2606 4739 Pls
2606 4739 Pls
2606 4739 Pls
2606 4739 Pls
2606 4739 Pls
2606 4739 Pls
2606 4739 Pls
2606 4739 Pls
2606 4739 Pls
2606 4739 Pls
2606 4701 Pls
2606 4739 Pls
2606 4739 Pls
2606 4633 Pls
2606 4739 Pls
2606 4739 Pls
2606 4739 Pls
2606 4739 Pls
2606 4683 Pls
2606 4641 Pls
2606 4739 Pls
2606 4683 Pls
2606 4739 Pls
2606 4739 Pls
2606 4628 Pls
2606 4611 Pls
2606 4739 Pls
3987 4739 Pls
3987 4739 Pls
3987 4739 Pls
3987 4739 Pls
3987 4739 Pls
3987 4739 Pls
3987 4739 Pls
3987 4707 Pls
3987 4739 Pls
3987 4739 Pls
3987 4656 Pls
3987 4705 Pls
3987 4739 Pls
3987 4739 Pls
3987 4739 Pls
3987 4687 Pls
3987 4739 Pls
3987 4739 Pls
3987 4646 Pls
3987 4698 Pls
3987 4739 Pls
3987 4660 Pls
3987 4690 Pls
3987 4739 Pls
3987 4739 Pls
3987 4739 Pls
3987 4495 Pls
3987 4739 Pls
3987 4411 Pls
3987 4739 Pls
3987 4690 Pls
3987 4700 Pls
3987 4581 Pls
3987 4517 Pls
3987 4690 Pls
3987 4617 Pls
3987 4214 Pls
3987 4533 Pls
3987 4588 Pls
3987 4701 Pls
5368 4739 Pls
5368 4739 Pls
5368 4718 Pls
5368 4705 Pls
5368 4739 Pls
5368 4643 Pls
5368 4698 Pls
5368 4667 Pls
5368 4739 Pls
5368 4739 Pls
5368 4664 Pls
5368 4710 Pls
5368 4739 Pls
5368 4739 Pls
5368 4739 Pls
5368 4739 Pls
5368 4739 Pls
5368 4739 Pls
5368 4695 Pls
5368 4672 Pls
5368 4739 Pls
5368 4739 Pls
5368 4690 Pls
5368 4614 Pls
5368 4476 Pls
5368 4667 Pls
5368 4610 Pls
5368 4620 Pls
5368 4450 Pls
5368 4596 Pls
5368 4635 Pls
5368 4640 Pls
5368 4188 Pls
5368 4569 Pls
5368 4359 Pls
5368 4592 Pls
5368 4463 Pls
5368 4398 Pls
5368 4539 Pls
5368 4662 Pls
6749 4739 Pls
6749 4739 Pls
6749 4739 Pls
6749 4670 Pls
6749 4739 Pls
6749 4713 Pls
6749 4739 Pls
6749 4703 Pls
6749 4739 Pls
6749 4739 Pls
6749 4703 Pls
6749 4723 Pls
6749 4739 Pls
6749 4739 Pls
6749 4717 Pls
6749 4580 Pls
6749 4739 Pls
6749 4739 Pls
6749 4739 Pls
6749 4707 Pls
6749 4739 Pls
6749 4739 Pls
6749 4690 Pls
6749 4698 Pls
6749 4096 Pls
6749 4589 Pls
6749 4580 Pls
6749 4625 Pls
6749 4345 Pls
6749 4589 Pls
6749 4476 Pls
6749 4488 Pls
6749 4739 Pls
6749 4529 Pls
6749 4620 Pls
6749 4471 Pls
6749 4083 Pls
6749 4247 Pls
6749 4464 Pls
6749 4621 Pls
% End plot #1
% Begin plot #2
8.000 UL
LT1
LCb setrgbcolor
2425 1488 M
[ [(Helvetica) 250.0 0.0 true true 0 (Average)]
] -83.3 MRshow
LT1
2575 1488 M
663 0 V
1225 4654 M
2606 4428 L
3987 4219 L
5368 4035 L
6749 3876 L
% End plot #2
% Begin plot #3
stroke
4.000 UL
LT2
LCb setrgbcolor
2425 1238 M
[ [(Helvetica) 250.0 0.0 true true 0 (Min)]
] -83.3 MRshow
LT2
2575 1238 M
663 0 V
1225 2798 M
2606 1787 L
3987 1274 L
5368 1152 L
1381 -95 V
% End plot #3
% Begin plot #4
stroke
LT3
LCb setrgbcolor
2425 988 M
[ [(Helvetica) 250.0 0.0 true true 0 (Max)]
] -83.3 MRshow
LT3
2575 988 M
663 0 V
1225 4739 M
1381 0 V
1381 0 V
1381 0 V
1381 0 V
% End plot #4
stroke
1.000 UL
LTb
1225 4739 N
0 -3939 V
5524 0 V
0 3939 V
-5524 0 V
Z stroke
1.000 UP
1.000 UL
LTb
stroke
grestore
end
showpage
%%Trailer
%%DocumentFonts: Helvetica
