%!PS-Adobe-2.0 EPSF-2.0
%%Title: r_orig_length-f1.eps
%%Creator: gnuplot 4.4 patchlevel 3
%%CreationDate: Fri Jun 14 19:20:07 2013
%%DocumentFonts: (atend)
%%BoundingBox: 50 50 410 302
%%EndComments
%%BeginProlog
/gnudict 256 dict def
gnudict begin
%
% The following true/false flags may be edited by hand if desired.
% The unit line width and grayscale image gamma correction may also be changed.
%
/Color true def
/Blacktext false def
/Solid false def
/Dashlength 1 def
/Landscape false def
/Level1 false def
/Rounded false def
/ClipToBoundingBox false def
/TransparentPatterns false def
/gnulinewidth 5.000 def
/userlinewidth gnulinewidth def
/Gamma 1.0 def
%
/vshift -83 def
/dl1 {
  10.0 Dashlength mul mul
  Rounded { currentlinewidth 0.75 mul sub dup 0 le { pop 0.01 } if } if
} def
/dl2 {
  10.0 Dashlength mul mul
  Rounded { currentlinewidth 0.75 mul add } if
} def
/hpt_ 31.5 def
/vpt_ 31.5 def
/hpt hpt_ def
/vpt vpt_ def
Level1 {} {
/SDict 10 dict def
systemdict /pdfmark known not {
  userdict /pdfmark systemdict /cleartomark get put
} if
SDict begin [
  /Title (r_orig_length-f1.eps)
  /Subject (gnuplot plot)
  /Creator (gnuplot 4.4 patchlevel 3)
  /Author (xjia)
%  /Producer (gnuplot)
%  /Keywords ()
  /CreationDate (Fri Jun 14 19:20:07 2013)
  /DOCINFO pdfmark
end
} ifelse
/doclip {
  ClipToBoundingBox {
    newpath 50 50 moveto 410 50 lineto 410 302 lineto 50 302 lineto closepath
    clip
  } if
} def
%
% Gnuplot Prolog Version 4.4 (August 2010)
%
%/SuppressPDFMark true def
%
/M {moveto} bind def
/L {lineto} bind def
/R {rmoveto} bind def
/V {rlineto} bind def
/N {newpath moveto} bind def
/Z {closepath} bind def
/C {setrgbcolor} bind def
/f {rlineto fill} bind def
/g {setgray} bind def
/Gshow {show} def   % May be redefined later in the file to support UTF-8
/vpt2 vpt 2 mul def
/hpt2 hpt 2 mul def
/Lshow {currentpoint stroke M 0 vshift R 
	Blacktext {gsave 0 setgray show grestore} {show} ifelse} def
/Rshow {currentpoint stroke M dup stringwidth pop neg vshift R
	Blacktext {gsave 0 setgray show grestore} {show} ifelse} def
/Cshow {currentpoint stroke M dup stringwidth pop -2 div vshift R 
	Blacktext {gsave 0 setgray show grestore} {show} ifelse} def
/UP {dup vpt_ mul /vpt exch def hpt_ mul /hpt exch def
  /hpt2 hpt 2 mul def /vpt2 vpt 2 mul def} def
/DL {Color {setrgbcolor Solid {pop []} if 0 setdash}
 {pop pop pop 0 setgray Solid {pop []} if 0 setdash} ifelse} def
/BL {stroke userlinewidth 2 mul setlinewidth
	Rounded {1 setlinejoin 1 setlinecap} if} def
/AL {stroke userlinewidth 2 div setlinewidth
	Rounded {1 setlinejoin 1 setlinecap} if} def
/UL {dup gnulinewidth mul /userlinewidth exch def
	dup 1 lt {pop 1} if 10 mul /udl exch def} def
/PL {stroke userlinewidth setlinewidth
	Rounded {1 setlinejoin 1 setlinecap} if} def
3.8 setmiterlimit
% Default Line colors
/LCw {1 1 1} def
/LCb {0 0 0} def
/LCa {0 0 0} def
/LC0 {1 0 0} def
/LC1 {0 1 0} def
/LC2 {0 0 1} def
/LC3 {1 0 1} def
/LC4 {0 1 1} def
/LC5 {1 1 0} def
/LC6 {0 0 0} def
/LC7 {1 0.3 0} def
/LC8 {0.5 0.5 0.5} def
% Default Line Types
/LTw {PL [] 1 setgray} def
/LTb {BL [] LCb DL} def
/LTa {AL [1 udl mul 2 udl mul] 0 setdash LCa setrgbcolor} def
/LT0 {PL [] LC0 DL} def
/LT1 {PL [4 dl1 2 dl2] LC1 DL} def
/LT2 {PL [2 dl1 3 dl2] LC2 DL} def
/LT3 {PL [1 dl1 1.5 dl2] LC3 DL} def
/LT4 {PL [6 dl1 2 dl2 1 dl1 2 dl2] LC4 DL} def
/LT5 {PL [3 dl1 3 dl2 1 dl1 3 dl2] LC5 DL} def
/LT6 {PL [2 dl1 2 dl2 2 dl1 6 dl2] LC6 DL} def
/LT7 {PL [1 dl1 2 dl2 6 dl1 2 dl2 1 dl1 2 dl2] LC7 DL} def
/LT8 {PL [2 dl1 2 dl2 2 dl1 2 dl2 2 dl1 2 dl2 2 dl1 4 dl2] LC8 DL} def
/Pnt {stroke [] 0 setdash gsave 1 setlinecap M 0 0 V stroke grestore} def
/Dia {stroke [] 0 setdash 2 copy vpt add M
  hpt neg vpt neg V hpt vpt neg V
  hpt vpt V hpt neg vpt V closepath stroke
  Pnt} def
/Pls {stroke [] 0 setdash vpt sub M 0 vpt2 V
  currentpoint stroke M
  hpt neg vpt neg R hpt2 0 V stroke
 } def
/Box {stroke [] 0 setdash 2 copy exch hpt sub exch vpt add M
  0 vpt2 neg V hpt2 0 V 0 vpt2 V
  hpt2 neg 0 V closepath stroke
  Pnt} def
/Crs {stroke [] 0 setdash exch hpt sub exch vpt add M
  hpt2 vpt2 neg V currentpoint stroke M
  hpt2 neg 0 R hpt2 vpt2 V stroke} def
/TriU {stroke [] 0 setdash 2 copy vpt 1.12 mul add M
  hpt neg vpt -1.62 mul V
  hpt 2 mul 0 V
  hpt neg vpt 1.62 mul V closepath stroke
  Pnt} def
/Star {2 copy Pls Crs} def
/BoxF {stroke [] 0 setdash exch hpt sub exch vpt add M
  0 vpt2 neg V hpt2 0 V 0 vpt2 V
  hpt2 neg 0 V closepath fill} def
/TriUF {stroke [] 0 setdash vpt 1.12 mul add M
  hpt neg vpt -1.62 mul V
  hpt 2 mul 0 V
  hpt neg vpt 1.62 mul V closepath fill} def
/TriD {stroke [] 0 setdash 2 copy vpt 1.12 mul sub M
  hpt neg vpt 1.62 mul V
  hpt 2 mul 0 V
  hpt neg vpt -1.62 mul V closepath stroke
  Pnt} def
/TriDF {stroke [] 0 setdash vpt 1.12 mul sub M
  hpt neg vpt 1.62 mul V
  hpt 2 mul 0 V
  hpt neg vpt -1.62 mul V closepath fill} def
/DiaF {stroke [] 0 setdash vpt add M
  hpt neg vpt neg V hpt vpt neg V
  hpt vpt V hpt neg vpt V closepath fill} def
/Pent {stroke [] 0 setdash 2 copy gsave
  translate 0 hpt M 4 {72 rotate 0 hpt L} repeat
  closepath stroke grestore Pnt} def
/PentF {stroke [] 0 setdash gsave
  translate 0 hpt M 4 {72 rotate 0 hpt L} repeat
  closepath fill grestore} def
/Circle {stroke [] 0 setdash 2 copy
  hpt 0 360 arc stroke Pnt} def
/CircleF {stroke [] 0 setdash hpt 0 360 arc fill} def
/C0 {BL [] 0 setdash 2 copy moveto vpt 90 450 arc} bind def
/C1 {BL [] 0 setdash 2 copy moveto
	2 copy vpt 0 90 arc closepath fill
	vpt 0 360 arc closepath} bind def
/C2 {BL [] 0 setdash 2 copy moveto
	2 copy vpt 90 180 arc closepath fill
	vpt 0 360 arc closepath} bind def
/C3 {BL [] 0 setdash 2 copy moveto
	2 copy vpt 0 180 arc closepath fill
	vpt 0 360 arc closepath} bind def
/C4 {BL [] 0 setdash 2 copy moveto
	2 copy vpt 180 270 arc closepath fill
	vpt 0 360 arc closepath} bind def
/C5 {BL [] 0 setdash 2 copy moveto
	2 copy vpt 0 90 arc
	2 copy moveto
	2 copy vpt 180 270 arc closepath fill
	vpt 0 360 arc} bind def
/C6 {BL [] 0 setdash 2 copy moveto
	2 copy vpt 90 270 arc closepath fill
	vpt 0 360 arc closepath} bind def
/C7 {BL [] 0 setdash 2 copy moveto
	2 copy vpt 0 270 arc closepath fill
	vpt 0 360 arc closepath} bind def
/C8 {BL [] 0 setdash 2 copy moveto
	2 copy vpt 270 360 arc closepath fill
	vpt 0 360 arc closepath} bind def
/C9 {BL [] 0 setdash 2 copy moveto
	2 copy vpt 270 450 arc closepath fill
	vpt 0 360 arc closepath} bind def
/C10 {BL [] 0 setdash 2 copy 2 copy moveto vpt 270 360 arc closepath fill
	2 copy moveto
	2 copy vpt 90 180 arc closepath fill
	vpt 0 360 arc closepath} bind def
/C11 {BL [] 0 setdash 2 copy moveto
	2 copy vpt 0 180 arc closepath fill
	2 copy moveto
	2 copy vpt 270 360 arc closepath fill
	vpt 0 360 arc closepath} bind def
/C12 {BL [] 0 setdash 2 copy moveto
	2 copy vpt 180 360 arc closepath fill
	vpt 0 360 arc closepath} bind def
/C13 {BL [] 0 setdash 2 copy moveto
	2 copy vpt 0 90 arc closepath fill
	2 copy moveto
	2 copy vpt 180 360 arc closepath fill
	vpt 0 360 arc closepath} bind def
/C14 {BL [] 0 setdash 2 copy moveto
	2 copy vpt 90 360 arc closepath fill
	vpt 0 360 arc} bind def
/C15 {BL [] 0 setdash 2 copy vpt 0 360 arc closepath fill
	vpt 0 360 arc closepath} bind def
/Rec {newpath 4 2 roll moveto 1 index 0 rlineto 0 exch rlineto
	neg 0 rlineto closepath} bind def
/Square {dup Rec} bind def
/Bsquare {vpt sub exch vpt sub exch vpt2 Square} bind def
/S0 {BL [] 0 setdash 2 copy moveto 0 vpt rlineto BL Bsquare} bind def
/S1 {BL [] 0 setdash 2 copy vpt Square fill Bsquare} bind def
/S2 {BL [] 0 setdash 2 copy exch vpt sub exch vpt Square fill Bsquare} bind def
/S3 {BL [] 0 setdash 2 copy exch vpt sub exch vpt2 vpt Rec fill Bsquare} bind def
/S4 {BL [] 0 setdash 2 copy exch vpt sub exch vpt sub vpt Square fill Bsquare} bind def
/S5 {BL [] 0 setdash 2 copy 2 copy vpt Square fill
	exch vpt sub exch vpt sub vpt Square fill Bsquare} bind def
/S6 {BL [] 0 setdash 2 copy exch vpt sub exch vpt sub vpt vpt2 Rec fill Bsquare} bind def
/S7 {BL [] 0 setdash 2 copy exch vpt sub exch vpt sub vpt vpt2 Rec fill
	2 copy vpt Square fill Bsquare} bind def
/S8 {BL [] 0 setdash 2 copy vpt sub vpt Square fill Bsquare} bind def
/S9 {BL [] 0 setdash 2 copy vpt sub vpt vpt2 Rec fill Bsquare} bind def
/S10 {BL [] 0 setdash 2 copy vpt sub vpt Square fill 2 copy exch vpt sub exch vpt Square fill
	Bsquare} bind def
/S11 {BL [] 0 setdash 2 copy vpt sub vpt Square fill 2 copy exch vpt sub exch vpt2 vpt Rec fill
	Bsquare} bind def
/S12 {BL [] 0 setdash 2 copy exch vpt sub exch vpt sub vpt2 vpt Rec fill Bsquare} bind def
/S13 {BL [] 0 setdash 2 copy exch vpt sub exch vpt sub vpt2 vpt Rec fill
	2 copy vpt Square fill Bsquare} bind def
/S14 {BL [] 0 setdash 2 copy exch vpt sub exch vpt sub vpt2 vpt Rec fill
	2 copy exch vpt sub exch vpt Square fill Bsquare} bind def
/S15 {BL [] 0 setdash 2 copy Bsquare fill Bsquare} bind def
/D0 {gsave translate 45 rotate 0 0 S0 stroke grestore} bind def
/D1 {gsave translate 45 rotate 0 0 S1 stroke grestore} bind def
/D2 {gsave translate 45 rotate 0 0 S2 stroke grestore} bind def
/D3 {gsave translate 45 rotate 0 0 S3 stroke grestore} bind def
/D4 {gsave translate 45 rotate 0 0 S4 stroke grestore} bind def
/D5 {gsave translate 45 rotate 0 0 S5 stroke grestore} bind def
/D6 {gsave translate 45 rotate 0 0 S6 stroke grestore} bind def
/D7 {gsave translate 45 rotate 0 0 S7 stroke grestore} bind def
/D8 {gsave translate 45 rotate 0 0 S8 stroke grestore} bind def
/D9 {gsave translate 45 rotate 0 0 S9 stroke grestore} bind def
/D10 {gsave translate 45 rotate 0 0 S10 stroke grestore} bind def
/D11 {gsave translate 45 rotate 0 0 S11 stroke grestore} bind def
/D12 {gsave translate 45 rotate 0 0 S12 stroke grestore} bind def
/D13 {gsave translate 45 rotate 0 0 S13 stroke grestore} bind def
/D14 {gsave translate 45 rotate 0 0 S14 stroke grestore} bind def
/D15 {gsave translate 45 rotate 0 0 S15 stroke grestore} bind def
/DiaE {stroke [] 0 setdash vpt add M
  hpt neg vpt neg V hpt vpt neg V
  hpt vpt V hpt neg vpt V closepath stroke} def
/BoxE {stroke [] 0 setdash exch hpt sub exch vpt add M
  0 vpt2 neg V hpt2 0 V 0 vpt2 V
  hpt2 neg 0 V closepath stroke} def
/TriUE {stroke [] 0 setdash vpt 1.12 mul add M
  hpt neg vpt -1.62 mul V
  hpt 2 mul 0 V
  hpt neg vpt 1.62 mul V closepath stroke} def
/TriDE {stroke [] 0 setdash vpt 1.12 mul sub M
  hpt neg vpt 1.62 mul V
  hpt 2 mul 0 V
  hpt neg vpt -1.62 mul V closepath stroke} def
/PentE {stroke [] 0 setdash gsave
  translate 0 hpt M 4 {72 rotate 0 hpt L} repeat
  closepath stroke grestore} def
/CircE {stroke [] 0 setdash 
  hpt 0 360 arc stroke} def
/Opaque {gsave closepath 1 setgray fill grestore 0 setgray closepath} def
/DiaW {stroke [] 0 setdash vpt add M
  hpt neg vpt neg V hpt vpt neg V
  hpt vpt V hpt neg vpt V Opaque stroke} def
/BoxW {stroke [] 0 setdash exch hpt sub exch vpt add M
  0 vpt2 neg V hpt2 0 V 0 vpt2 V
  hpt2 neg 0 V Opaque stroke} def
/TriUW {stroke [] 0 setdash vpt 1.12 mul add M
  hpt neg vpt -1.62 mul V
  hpt 2 mul 0 V
  hpt neg vpt 1.62 mul V Opaque stroke} def
/TriDW {stroke [] 0 setdash vpt 1.12 mul sub M
  hpt neg vpt 1.62 mul V
  hpt 2 mul 0 V
  hpt neg vpt -1.62 mul V Opaque stroke} def
/PentW {stroke [] 0 setdash gsave
  translate 0 hpt M 4 {72 rotate 0 hpt L} repeat
  Opaque stroke grestore} def
/CircW {stroke [] 0 setdash 
  hpt 0 360 arc Opaque stroke} def
/BoxFill {gsave Rec 1 setgray fill grestore} def
/Density {
  /Fillden exch def
  currentrgbcolor
  /ColB exch def /ColG exch def /ColR exch def
  /ColR ColR Fillden mul Fillden sub 1 add def
  /ColG ColG Fillden mul Fillden sub 1 add def
  /ColB ColB Fillden mul Fillden sub 1 add def
  ColR ColG ColB setrgbcolor} def
/BoxColFill {gsave Rec PolyFill} def
/PolyFill {gsave Density fill grestore grestore} def
/h {rlineto rlineto rlineto gsave closepath fill grestore} bind def
%
% PostScript Level 1 Pattern Fill routine for rectangles
% Usage: x y w h s a XX PatternFill
%	x,y = lower left corner of box to be filled
%	w,h = width and height of box
%	  a = angle in degrees between lines and x-axis
%	 XX = 0/1 for no/yes cross-hatch
%
/PatternFill {gsave /PFa [ 9 2 roll ] def
  PFa 0 get PFa 2 get 2 div add PFa 1 get PFa 3 get 2 div add translate
  PFa 2 get -2 div PFa 3 get -2 div PFa 2 get PFa 3 get Rec
  gsave 1 setgray fill grestore clip
  currentlinewidth 0.5 mul setlinewidth
  /PFs PFa 2 get dup mul PFa 3 get dup mul add sqrt def
  0 0 M PFa 5 get rotate PFs -2 div dup translate
  0 1 PFs PFa 4 get div 1 add floor cvi
	{PFa 4 get mul 0 M 0 PFs V} for
  0 PFa 6 get ne {
	0 1 PFs PFa 4 get div 1 add floor cvi
	{PFa 4 get mul 0 2 1 roll M PFs 0 V} for
 } if
  stroke grestore} def
%
/languagelevel where
 {pop languagelevel} {1} ifelse
 2 lt
	{/InterpretLevel1 true def}
	{/InterpretLevel1 Level1 def}
 ifelse
%
% PostScript level 2 pattern fill definitions
%
/Level2PatternFill {
/Tile8x8 {/PaintType 2 /PatternType 1 /TilingType 1 /BBox [0 0 8 8] /XStep 8 /YStep 8}
	bind def
/KeepColor {currentrgbcolor [/Pattern /DeviceRGB] setcolorspace} bind def
<< Tile8x8
 /PaintProc {0.5 setlinewidth pop 0 0 M 8 8 L 0 8 M 8 0 L stroke} 
>> matrix makepattern
/Pat1 exch def
<< Tile8x8
 /PaintProc {0.5 setlinewidth pop 0 0 M 8 8 L 0 8 M 8 0 L stroke
	0 4 M 4 8 L 8 4 L 4 0 L 0 4 L stroke}
>> matrix makepattern
/Pat2 exch def
<< Tile8x8
 /PaintProc {0.5 setlinewidth pop 0 0 M 0 8 L
	8 8 L 8 0 L 0 0 L fill}
>> matrix makepattern
/Pat3 exch def
<< Tile8x8
 /PaintProc {0.5 setlinewidth pop -4 8 M 8 -4 L
	0 12 M 12 0 L stroke}
>> matrix makepattern
/Pat4 exch def
<< Tile8x8
 /PaintProc {0.5 setlinewidth pop -4 0 M 8 12 L
	0 -4 M 12 8 L stroke}
>> matrix makepattern
/Pat5 exch def
<< Tile8x8
 /PaintProc {0.5 setlinewidth pop -2 8 M 4 -4 L
	0 12 M 8 -4 L 4 12 M 10 0 L stroke}
>> matrix makepattern
/Pat6 exch def
<< Tile8x8
 /PaintProc {0.5 setlinewidth pop -2 0 M 4 12 L
	0 -4 M 8 12 L 4 -4 M 10 8 L stroke}
>> matrix makepattern
/Pat7 exch def
<< Tile8x8
 /PaintProc {0.5 setlinewidth pop 8 -2 M -4 4 L
	12 0 M -4 8 L 12 4 M 0 10 L stroke}
>> matrix makepattern
/Pat8 exch def
<< Tile8x8
 /PaintProc {0.5 setlinewidth pop 0 -2 M 12 4 L
	-4 0 M 12 8 L -4 4 M 8 10 L stroke}
>> matrix makepattern
/Pat9 exch def
/Pattern1 {PatternBgnd KeepColor Pat1 setpattern} bind def
/Pattern2 {PatternBgnd KeepColor Pat2 setpattern} bind def
/Pattern3 {PatternBgnd KeepColor Pat3 setpattern} bind def
/Pattern4 {PatternBgnd KeepColor Landscape {Pat5} {Pat4} ifelse setpattern} bind def
/Pattern5 {PatternBgnd KeepColor Landscape {Pat4} {Pat5} ifelse setpattern} bind def
/Pattern6 {PatternBgnd KeepColor Landscape {Pat9} {Pat6} ifelse setpattern} bind def
/Pattern7 {PatternBgnd KeepColor Landscape {Pat8} {Pat7} ifelse setpattern} bind def
} def
%
%
%End of PostScript Level 2 code
%
/PatternBgnd {
  TransparentPatterns {} {gsave 1 setgray fill grestore} ifelse
} def
%
% Substitute for Level 2 pattern fill codes with
% grayscale if Level 2 support is not selected.
%
/Level1PatternFill {
/Pattern1 {0.250 Density} bind def
/Pattern2 {0.500 Density} bind def
/Pattern3 {0.750 Density} bind def
/Pattern4 {0.125 Density} bind def
/Pattern5 {0.375 Density} bind def
/Pattern6 {0.625 Density} bind def
/Pattern7 {0.875 Density} bind def
} def
%
% Now test for support of Level 2 code
%
Level1 {Level1PatternFill} {Level2PatternFill} ifelse
%
/Symbol-Oblique /Symbol findfont [1 0 .167 1 0 0] makefont
dup length dict begin {1 index /FID eq {pop pop} {def} ifelse} forall
currentdict end definefont pop
/MFshow {
   { dup 5 get 3 ge
     { 5 get 3 eq {gsave} {grestore} ifelse }
     {dup dup 0 get findfont exch 1 get scalefont setfont
     [ currentpoint ] exch dup 2 get 0 exch R dup 5 get 2 ne {dup dup 6
     get exch 4 get {Gshow} {stringwidth pop 0 R} ifelse }if dup 5 get 0 eq
     {dup 3 get {2 get neg 0 exch R pop} {pop aload pop M} ifelse} {dup 5
     get 1 eq {dup 2 get exch dup 3 get exch 6 get stringwidth pop -2 div
     dup 0 R} {dup 6 get stringwidth pop -2 div 0 R 6 get
     show 2 index {aload pop M neg 3 -1 roll neg R pop pop} {pop pop pop
     pop aload pop M} ifelse }ifelse }ifelse }
     ifelse }
   forall} def
/Gswidth {dup type /stringtype eq {stringwidth} {pop (n) stringwidth} ifelse} def
/MFwidth {0 exch { dup 5 get 3 ge { 5 get 3 eq { 0 } { pop } ifelse }
 {dup 3 get{dup dup 0 get findfont exch 1 get scalefont setfont
     6 get Gswidth pop add} {pop} ifelse} ifelse} forall} def
/MLshow { currentpoint stroke M
  0 exch R
  Blacktext {gsave 0 setgray MFshow grestore} {MFshow} ifelse } bind def
/MRshow { currentpoint stroke M
  exch dup MFwidth neg 3 -1 roll R
  Blacktext {gsave 0 setgray MFshow grestore} {MFshow} ifelse } bind def
/MCshow { currentpoint stroke M
  exch dup MFwidth -2 div 3 -1 roll R
  Blacktext {gsave 0 setgray MFshow grestore} {MFshow} ifelse } bind def
/XYsave    { [( ) 1 2 true false 3 ()] } bind def
/XYrestore { [( ) 1 2 true false 4 ()] } bind def
end
%%EndProlog
gnudict begin
gsave
doclip
50 50 translate
0.050 0.050 scale
0 setgray
newpath
(Helvetica) findfont 250 scalefont setfont
1.000 UL
LTb
1225 800 M
63 0 V
5461 0 R
-63 0 V
stroke
1075 800 M
[ [(Helvetica) 250.0 0.0 true true 0 ( 0.1)]
] -83.3 MRshow
1.000 UL
LTb
1225 1238 M
63 0 V
5461 0 R
-63 0 V
stroke
1075 1238 M
[ [(Helvetica) 250.0 0.0 true true 0 ( 0.2)]
] -83.3 MRshow
1.000 UL
LTb
1225 1675 M
63 0 V
5461 0 R
-63 0 V
stroke
1075 1675 M
[ [(Helvetica) 250.0 0.0 true true 0 ( 0.3)]
] -83.3 MRshow
1.000 UL
LTb
1225 2113 M
63 0 V
5461 0 R
-63 0 V
stroke
1075 2113 M
[ [(Helvetica) 250.0 0.0 true true 0 ( 0.4)]
] -83.3 MRshow
1.000 UL
LTb
1225 2551 M
63 0 V
5461 0 R
-63 0 V
stroke
1075 2551 M
[ [(Helvetica) 250.0 0.0 true true 0 ( 0.5)]
] -83.3 MRshow
1.000 UL
LTb
1225 2988 M
63 0 V
5461 0 R
-63 0 V
stroke
1075 2988 M
[ [(Helvetica) 250.0 0.0 true true 0 ( 0.6)]
] -83.3 MRshow
1.000 UL
LTb
1225 3426 M
63 0 V
5461 0 R
-63 0 V
stroke
1075 3426 M
[ [(Helvetica) 250.0 0.0 true true 0 ( 0.7)]
] -83.3 MRshow
1.000 UL
LTb
1225 3864 M
63 0 V
5461 0 R
-63 0 V
stroke
1075 3864 M
[ [(Helvetica) 250.0 0.0 true true 0 ( 0.8)]
] -83.3 MRshow
1.000 UL
LTb
1225 4301 M
63 0 V
5461 0 R
-63 0 V
stroke
1075 4301 M
[ [(Helvetica) 250.0 0.0 true true 0 ( 0.9)]
] -83.3 MRshow
1.000 UL
LTb
1225 4739 M
63 0 V
5461 0 R
-63 0 V
stroke
1075 4739 M
[ [(Helvetica) 250.0 0.0 true true 0 ( 1)]
] -83.3 MRshow
1.000 UL
LTb
1225 800 M
0 63 V
0 3876 R
0 -63 V
stroke
1225 550 M
[ [(Helvetica) 250.0 0.0 true true 0 ( 20)]
] -83.3 MCshow
1.000 UL
LTb
1916 800 M
0 63 V
0 3876 R
0 -63 V
stroke
1916 550 M
[ [(Helvetica) 250.0 0.0 true true 0 ( 30)]
] -83.3 MCshow
1.000 UL
LTb
2606 800 M
0 63 V
0 3876 R
0 -63 V
stroke
2606 550 M
[ [(Helvetica) 250.0 0.0 true true 0 ( 40)]
] -83.3 MCshow
1.000 UL
LTb
3297 800 M
0 63 V
0 3876 R
0 -63 V
stroke
3297 550 M
[ [(Helvetica) 250.0 0.0 true true 0 ( 50)]
] -83.3 MCshow
1.000 UL
LTb
3987 800 M
0 63 V
0 3876 R
0 -63 V
stroke
3987 550 M
[ [(Helvetica) 250.0 0.0 true true 0 ( 60)]
] -83.3 MCshow
1.000 UL
LTb
4678 800 M
0 63 V
0 3876 R
0 -63 V
stroke
4678 550 M
[ [(Helvetica) 250.0 0.0 true true 0 ( 70)]
] -83.3 MCshow
1.000 UL
LTb
5368 800 M
0 63 V
0 3876 R
0 -63 V
stroke
5368 550 M
[ [(Helvetica) 250.0 0.0 true true 0 ( 80)]
] -83.3 MCshow
1.000 UL
LTb
6059 800 M
0 63 V
0 3876 R
0 -63 V
stroke
6059 550 M
[ [(Helvetica) 250.0 0.0 true true 0 ( 90)]
] -83.3 MCshow
1.000 UL
LTb
6749 800 M
0 63 V
0 3876 R
0 -63 V
stroke
6749 550 M
[ [(Helvetica) 250.0 0.0 true true 0 ( 100)]
] -83.3 MCshow
1.000 UL
LTb
1.000 UL
LTb
1225 4739 N
0 -3939 V
5524 0 V
0 3939 V
-5524 0 V
Z stroke
LCb setrgbcolor
200 2769 M
currentpoint gsave translate -270 rotate 0 0 moveto
[ [(Helvetica) 250.0 0.0 true true 0 (F1)]
] -83.3 MCshow
grestore
LTb
LCb setrgbcolor
3987 175 M
[ [(Helvetica) 250.0 0.0 true true 0 (Original Length)]
] -83.3 MCshow
LTb
1.000 UP
1.000 UL
LTb
% Begin plot #1
1.000 UP
1.000 UL
LT0
1225 4582 Pls
1225 4324 Pls
1225 4418 Pls
1225 4408 Pls
1225 4245 Pls
1225 4368 Pls
1225 4441 Pls
1225 4505 Pls
1225 4441 Pls
1225 4165 Pls
1225 4428 Pls
1225 4578 Pls
1225 4309 Pls
1225 4307 Pls
1225 4485 Pls
1225 4645 Pls
1225 4067 Pls
1225 4306 Pls
1225 4525 Pls
1225 4648 Pls
1225 3744 Pls
1225 4209 Pls
1225 4526 Pls
1225 4642 Pls
1225 4274 Pls
1225 4255 Pls
1225 4458 Pls
1225 4642 Pls
1225 3573 Pls
1225 4135 Pls
1225 4406 Pls
1225 4642 Pls
1225 3520 Pls
1225 4020 Pls
1225 4565 Pls
1225 4643 Pls
1225 3203 Pls
1225 4143 Pls
1225 4458 Pls
1225 4654 Pls
2606 4360 Pls
2606 3887 Pls
2606 3949 Pls
2606 3932 Pls
2606 4400 Pls
2606 4135 Pls
2606 3967 Pls
2606 3896 Pls
2606 4408 Pls
2606 4142 Pls
2606 3802 Pls
2606 3960 Pls
2606 4375 Pls
2606 4059 Pls
2606 4066 Pls
2606 4092 Pls
2606 4362 Pls
2606 4156 Pls
2606 4188 Pls
2606 4207 Pls
2606 3185 Pls
2606 3600 Pls
2606 3852 Pls
2606 3982 Pls
2606 2785 Pls
2606 3400 Pls
2606 3851 Pls
2606 4010 Pls
2606 2494 Pls
2606 3079 Pls
2606 3625 Pls
2606 3797 Pls
2606 2069 Pls
2606 2923 Pls
2606 3572 Pls
2606 3859 Pls
2606 2072 Pls
2606 3070 Pls
2606 3233 Pls
2606 3678 Pls
3987 4054 Pls
3987 3470 Pls
3987 3531 Pls
3987 3386 Pls
3987 4574 Pls
3987 3814 Pls
3987 3724 Pls
3987 3575 Pls
3987 4189 Pls
3987 3708 Pls
3987 3750 Pls
3987 3666 Pls
3987 4414 Pls
3987 3972 Pls
3987 3811 Pls
3987 3683 Pls
3987 4061 Pls
3987 4061 Pls
3987 3744 Pls
3987 3816 Pls
3987 2707 Pls
3987 2958 Pls
3987 3217 Pls
3987 3601 Pls
3987 2147 Pls
3987 2603 Pls
3987 3290 Pls
3987 3360 Pls
3987 1797 Pls
3987 2329 Pls
3987 2905 Pls
3987 3035 Pls
3987 1394 Pls
3987 2358 Pls
3987 2864 Pls
3987 3255 Pls
3987 1298 Pls
3987 2129 Pls
3987 2603 Pls
3987 2990 Pls
5368 3799 Pls
5368 3779 Pls
5368 3309 Pls
5368 3156 Pls
5368 4144 Pls
5368 3917 Pls
5368 3443 Pls
5368 3304 Pls
5368 4010 Pls
5368 3767 Pls
5368 3434 Pls
5368 3282 Pls
5368 4342 Pls
5368 3654 Pls
5368 3638 Pls
5368 3448 Pls
5368 4480 Pls
5368 3885 Pls
5368 3573 Pls
5368 3567 Pls
5368 2293 Pls
5368 2726 Pls
5368 2761 Pls
5368 3085 Pls
5368 1543 Pls
5368 2178 Pls
5368 2458 Pls
5368 2845 Pls
5368 1349 Pls
5368 2057 Pls
5368 2457 Pls
5368 2631 Pls
5368 1098 Pls
5368 1864 Pls
5368 2320 Pls
5368 2551 Pls
5368 1076 Pls
5368 1670 Pls
5368 2247 Pls
5368 2506 Pls
6749 3886 Pls
6749 3545 Pls
6749 3087 Pls
6749 2998 Pls
6749 4342 Pls
6749 3301 Pls
6749 3297 Pls
6749 2866 Pls
6749 4488 Pls
6749 3598 Pls
6749 3686 Pls
6749 3097 Pls
6749 4279 Pls
6749 3554 Pls
6749 3228 Pls
6749 3324 Pls
6749 4354 Pls
6749 3354 Pls
6749 3294 Pls
6749 3343 Pls
6749 1546 Pls
6749 2394 Pls
6749 2794 Pls
6749 2757 Pls
6749 1208 Pls
6749 1823 Pls
6749 2217 Pls
6749 2480 Pls
6749 982 Pls
6749 1542 Pls
6749 2134 Pls
6749 2295 Pls
6749 933 Pls
6749 1553 Pls
6749 1836 Pls
6749 2231 Pls
6749 898 Pls
6749 1387 Pls
6749 1718 Pls
6749 2098 Pls
1225 4585 Pls
1225 4362 Pls
1225 4465 Pls
1225 4616 Pls
1225 4459 Pls
1225 4465 Pls
1225 4436 Pls
1225 4534 Pls
1225 4404 Pls
1225 4418 Pls
1225 4502 Pls
1225 4611 Pls
1225 4437 Pls
1225 4314 Pls
1225 4486 Pls
1225 4630 Pls
1225 4260 Pls
1225 4532 Pls
1225 4629 Pls
1225 4673 Pls
1225 3997 Pls
1225 4223 Pls
1225 4414 Pls
1225 4654 Pls
1225 4207 Pls
1225 4355 Pls
1225 4603 Pls
1225 4628 Pls
1225 3447 Pls
1225 4331 Pls
1225 4565 Pls
1225 4643 Pls
1225 3676 Pls
1225 4329 Pls
1225 4525 Pls
1225 4679 Pls
1225 4052 Pls
1225 4205 Pls
1225 4474 Pls
1225 4692 Pls
2606 4472 Pls
2606 4463 Pls
2606 4333 Pls
2606 4359 Pls
2606 4571 Pls
2606 4268 Pls
2606 4377 Pls
2606 4205 Pls
2606 4592 Pls
2606 4267 Pls
2606 4280 Pls
2606 4203 Pls
2606 4592 Pls
2606 4220 Pls
2606 4331 Pls
2606 4284 Pls
2606 4180 Pls
2606 4183 Pls
2606 4426 Pls
2606 4424 Pls
2606 3757 Pls
2606 3897 Pls
2606 4353 Pls
2606 4317 Pls
2606 3508 Pls
2606 3940 Pls
2606 3969 Pls
2606 4210 Pls
2606 3226 Pls
2606 3515 Pls
2606 3931 Pls
2606 4112 Pls
2606 2477 Pls
2606 3575 Pls
2606 3993 Pls
2606 4114 Pls
2606 2650 Pls
2606 3727 Pls
2606 3639 Pls
2606 4203 Pls
3987 4426 Pls
3987 4130 Pls
3987 4144 Pls
3987 4025 Pls
3987 4366 Pls
3987 4258 Pls
3987 4001 Pls
3987 4131 Pls
3987 4343 Pls
3987 4035 Pls
3987 3983 Pls
3987 4142 Pls
3987 4311 Pls
3987 4233 Pls
3987 4070 Pls
3987 4149 Pls
3987 4284 Pls
3987 4117 Pls
3987 4019 Pls
3987 4035 Pls
3987 3214 Pls
3987 3612 Pls
3987 4132 Pls
3987 3900 Pls
3987 2454 Pls
3987 3319 Pls
3987 3627 Pls
3987 3780 Pls
3987 2428 Pls
3987 2914 Pls
3987 3517 Pls
3987 3705 Pls
3987 2095 Pls
3987 2790 Pls
3987 3611 Pls
3987 3481 Pls
3987 1892 Pls
3987 2561 Pls
3987 3261 Pls
3987 3429 Pls
5368 4264 Pls
5368 4026 Pls
5368 3790 Pls
5368 3703 Pls
5368 4470 Pls
5368 4143 Pls
5368 3877 Pls
5368 3872 Pls
5368 4402 Pls
5368 4122 Pls
5368 3918 Pls
5368 3951 Pls
5368 4335 Pls
5368 3821 Pls
5368 3970 Pls
5368 4026 Pls
5368 4232 Pls
5368 4182 Pls
5368 4171 Pls
5368 3966 Pls
5368 2803 Pls
5368 3184 Pls
5368 3453 Pls
5368 3713 Pls
5368 2248 Pls
5368 2712 Pls
5368 3200 Pls
5368 3580 Pls
5368 1706 Pls
5368 2475 Pls
5368 3035 Pls
5368 3160 Pls
5368 1484 Pls
5368 2402 Pls
5368 2718 Pls
5368 3071 Pls
5368 1399 Pls
5368 2065 Pls
5368 2677 Pls
5368 3063 Pls
6749 4573 Pls
6749 3914 Pls
6749 3440 Pls
6749 3659 Pls
6749 4588 Pls
6749 3950 Pls
6749 3768 Pls
6749 3608 Pls
6749 4684 Pls
6749 4118 Pls
6749 3745 Pls
6749 3656 Pls
6749 4521 Pls
6749 4009 Pls
6749 3873 Pls
6749 3655 Pls
6749 4386 Pls
6749 4014 Pls
6749 3889 Pls
6749 3861 Pls
6749 2291 Pls
6749 2789 Pls
6749 3145 Pls
6749 3334 Pls
6749 1763 Pls
6749 2364 Pls
6749 2702 Pls
6749 3058 Pls
6749 1267 Pls
6749 2059 Pls
6749 2498 Pls
6749 2877 Pls
6749 1174 Pls
6749 1864 Pls
6749 2365 Pls
6749 2802 Pls
6749 1132 Pls
6749 1712 Pls
6749 2156 Pls
6749 2558 Pls
1225 4445 Pls
1225 4506 Pls
1225 4450 Pls
1225 4618 Pls
1225 4542 Pls
1225 4664 Pls
1225 4570 Pls
1225 4644 Pls
1225 4475 Pls
1225 4414 Pls
1225 4549 Pls
1225 4622 Pls
1225 4548 Pls
1225 4462 Pls
1225 4614 Pls
1225 4644 Pls
1225 4343 Pls
1225 4409 Pls
1225 4653 Pls
1225 4617 Pls
1225 3825 Pls
1225 4226 Pls
1225 4389 Pls
1225 4642 Pls
1225 3982 Pls
1225 4392 Pls
1225 4501 Pls
1225 4545 Pls
1225 4209 Pls
1225 4615 Pls
1225 4480 Pls
1225 4691 Pls
1225 4005 Pls
1225 4461 Pls
1225 4538 Pls
1225 4630 Pls
1225 4001 Pls
1225 4449 Pls
1225 4611 Pls
1225 4655 Pls
2606 4635 Pls
2606 4304 Pls
2606 4307 Pls
2606 4333 Pls
2606 4609 Pls
2606 4359 Pls
2606 4340 Pls
2606 4391 Pls
2606 4395 Pls
2606 4432 Pls
2606 4521 Pls
2606 4388 Pls
2606 4522 Pls
2606 4306 Pls
2606 4401 Pls
2606 4371 Pls
2606 4475 Pls
2606 4368 Pls
2606 4539 Pls
2606 4437 Pls
2606 3587 Pls
2606 4308 Pls
2606 4241 Pls
2606 4487 Pls
2606 3614 Pls
2606 4153 Pls
2606 4410 Pls
2606 4289 Pls
2606 3385 Pls
2606 3817 Pls
2606 4288 Pls
2606 4291 Pls
2606 3411 Pls
2606 3880 Pls
2606 4123 Pls
2606 4290 Pls
2606 2949 Pls
2606 3564 Pls
2606 4002 Pls
2606 4136 Pls
3987 4090 Pls
3987 4424 Pls
3987 4209 Pls
3987 4134 Pls
3987 4323 Pls
3987 4468 Pls
3987 4203 Pls
3987 4189 Pls
3987 4293 Pls
3987 4152 Pls
3987 4065 Pls
3987 4321 Pls
3987 4578 Pls
3987 4361 Pls
3987 4367 Pls
3987 4226 Pls
3987 4527 Pls
3987 4357 Pls
3987 4378 Pls
3987 4328 Pls
3987 4012 Pls
3987 3923 Pls
3987 4235 Pls
3987 4090 Pls
3987 2711 Pls
3987 3868 Pls
3987 4106 Pls
3987 4087 Pls
3987 2490 Pls
3987 3560 Pls
3987 3747 Pls
3987 3981 Pls
3987 2763 Pls
3987 3357 Pls
3987 3648 Pls
3987 3765 Pls
3987 2485 Pls
3987 3178 Pls
3987 3453 Pls
3987 3593 Pls
5368 4633 Pls
5368 4195 Pls
5368 3980 Pls
5368 4086 Pls
5368 4567 Pls
5368 4151 Pls
5368 4035 Pls
5368 3988 Pls
5368 4511 Pls
5368 4208 Pls
5368 4027 Pls
5368 4053 Pls
5368 4553 Pls
5368 4385 Pls
5368 4098 Pls
5368 4099 Pls
5368 4398 Pls
5368 4360 Pls
5368 4242 Pls
5368 4106 Pls
5368 3082 Pls
5368 3673 Pls
5368 3893 Pls
5368 3762 Pls
5368 2496 Pls
5368 2951 Pls
5368 3411 Pls
5368 3662 Pls
5368 2142 Pls
5368 2783 Pls
5368 3533 Pls
5368 3765 Pls
5368 1950 Pls
5368 2874 Pls
5368 3136 Pls
5368 3333 Pls
5368 1642 Pls
5368 2590 Pls
5368 3075 Pls
5368 3384 Pls
6749 4492 Pls
6749 3875 Pls
6749 4002 Pls
6749 3877 Pls
6749 4441 Pls
6749 4153 Pls
6749 3989 Pls
6749 3849 Pls
6749 4536 Pls
6749 4115 Pls
6749 4096 Pls
6749 3802 Pls
6749 4357 Pls
6749 4236 Pls
6749 4046 Pls
6749 4148 Pls
6749 4374 Pls
6749 4256 Pls
6749 4193 Pls
6749 3984 Pls
6749 2767 Pls
6749 3233 Pls
6749 3467 Pls
6749 3645 Pls
6749 1909 Pls
6749 2803 Pls
6749 3077 Pls
6749 3371 Pls
6749 1466 Pls
6749 2424 Pls
6749 2846 Pls
6749 3272 Pls
6749 1413 Pls
6749 2217 Pls
6749 2622 Pls
6749 2950 Pls
6749 1367 Pls
6749 1948 Pls
6749 2621 Pls
6749 2783 Pls
1225 4540 Pls
1225 4462 Pls
1225 4637 Pls
1225 4621 Pls
1225 4498 Pls
1225 4579 Pls
1225 4539 Pls
1225 4590 Pls
1225 4481 Pls
1225 4292 Pls
1225 4606 Pls
1225 4604 Pls
1225 4464 Pls
1225 4430 Pls
1225 4596 Pls
1225 4640 Pls
1225 4379 Pls
1225 4567 Pls
1225 4529 Pls
1225 4556 Pls
1225 4105 Pls
1225 4323 Pls
1225 4411 Pls
1225 4715 Pls
1225 3847 Pls
1225 4450 Pls
1225 4496 Pls
1225 4642 Pls
1225 4085 Pls
1225 4441 Pls
1225 4563 Pls
1225 4690 Pls
1225 4300 Pls
1225 4482 Pls
1225 4404 Pls
1225 4679 Pls
1225 3916 Pls
1225 4343 Pls
1225 4530 Pls
1225 4618 Pls
2606 4673 Pls
2606 4450 Pls
2606 4475 Pls
2606 4440 Pls
2606 4464 Pls
2606 4381 Pls
2606 4504 Pls
2606 4404 Pls
2606 4430 Pls
2606 4435 Pls
2606 4408 Pls
2606 4310 Pls
2606 4666 Pls
2606 4559 Pls
2606 4504 Pls
2606 4497 Pls
2606 4501 Pls
2606 4353 Pls
2606 4514 Pls
2606 4449 Pls
2606 4039 Pls
2606 4121 Pls
2606 4226 Pls
2606 4507 Pls
2606 3493 Pls
2606 4127 Pls
2606 4388 Pls
2606 4434 Pls
2606 3838 Pls
2606 4032 Pls
2606 4201 Pls
2606 4374 Pls
2606 3683 Pls
2606 3825 Pls
2606 4069 Pls
2606 4346 Pls
2606 3005 Pls
2606 3798 Pls
2606 4209 Pls
2606 4260 Pls
3987 4461 Pls
3987 4203 Pls
3987 4297 Pls
3987 4228 Pls
3987 4279 Pls
3987 4267 Pls
3987 4380 Pls
3987 4304 Pls
3987 4486 Pls
3987 4429 Pls
3987 4399 Pls
3987 4371 Pls
3987 4626 Pls
3987 4390 Pls
3987 4340 Pls
3987 4360 Pls
3987 4496 Pls
3987 4671 Pls
3987 4291 Pls
3987 4409 Pls
3987 3686 Pls
3987 4070 Pls
3987 4113 Pls
3987 4207 Pls
3987 3393 Pls
3987 3621 Pls
3987 4102 Pls
3987 4166 Pls
3987 2775 Pls
3987 3697 Pls
3987 3748 Pls
3987 4031 Pls
3987 2864 Pls
3987 3536 Pls
3987 3869 Pls
3987 4098 Pls
3987 2503 Pls
3987 3222 Pls
3987 3791 Pls
3987 3986 Pls
5368 4549 Pls
5368 4198 Pls
5368 4166 Pls
5368 4301 Pls
5368 4593 Pls
5368 4507 Pls
5368 4275 Pls
5368 4075 Pls
5368 4549 Pls
5368 4262 Pls
5368 4303 Pls
5368 4173 Pls
5368 4355 Pls
5368 4289 Pls
5368 4082 Pls
5368 4114 Pls
5368 4109 Pls
5368 4367 Pls
5368 4358 Pls
5368 4346 Pls
5368 3332 Pls
5368 3757 Pls
5368 3911 Pls
5368 3991 Pls
5368 2913 Pls
5368 3428 Pls
5368 3732 Pls
5368 3908 Pls
5368 2433 Pls
5368 3139 Pls
5368 3604 Pls
5368 3493 Pls
5368 2269 Pls
5368 3094 Pls
5368 3304 Pls
5368 3825 Pls
5368 1905 Pls
5368 2634 Pls
5368 3174 Pls
5368 3560 Pls
6749 4651 Pls
6749 4363 Pls
6749 4177 Pls
6749 3967 Pls
6749 4419 Pls
6749 4217 Pls
6749 3865 Pls
6749 4227 Pls
6749 4487 Pls
6749 4421 Pls
6749 4121 Pls
6749 4068 Pls
6749 4676 Pls
6749 4305 Pls
6749 4260 Pls
6749 4204 Pls
6749 4455 Pls
6749 4184 Pls
6749 4204 Pls
6749 4173 Pls
6749 2905 Pls
6749 3499 Pls
6749 3612 Pls
6749 3707 Pls
6749 2295 Pls
6749 3278 Pls
6749 3458 Pls
6749 3588 Pls
6749 1866 Pls
6749 2698 Pls
6749 3254 Pls
6749 3254 Pls
6749 1836 Pls
6749 2607 Pls
6749 3105 Pls
6749 3027 Pls
6749 1665 Pls
6749 2370 Pls
6749 2759 Pls
6749 3033 Pls
1225 4491 Pls
1225 4548 Pls
1225 4573 Pls
1225 4637 Pls
1225 4505 Pls
1225 4530 Pls
1225 4509 Pls
1225 4608 Pls
1225 4553 Pls
1225 4527 Pls
1225 4462 Pls
1225 4648 Pls
1225 4273 Pls
1225 4534 Pls
1225 4628 Pls
1225 4708 Pls
1225 4034 Pls
1225 4549 Pls
1225 4649 Pls
1225 4605 Pls
1225 4260 Pls
1225 4397 Pls
1225 4576 Pls
1225 4667 Pls
1225 4109 Pls
1225 4432 Pls
1225 4609 Pls
1225 4618 Pls
1225 3824 Pls
1225 4500 Pls
1225 4542 Pls
1225 4629 Pls
1225 4219 Pls
1225 4294 Pls
1225 4607 Pls
1225 4619 Pls
1225 4154 Pls
1225 4372 Pls
1225 4541 Pls
1225 4680 Pls
2606 4586 Pls
2606 4270 Pls
2606 4513 Pls
2606 4486 Pls
2606 4613 Pls
2606 4404 Pls
2606 4388 Pls
2606 4438 Pls
2606 4583 Pls
2606 4511 Pls
2606 4426 Pls
2606 4488 Pls
2606 4442 Pls
2606 4428 Pls
2606 4399 Pls
2606 4548 Pls
2606 4410 Pls
2606 4492 Pls
2606 4417 Pls
2606 4477 Pls
2606 3943 Pls
2606 4171 Pls
2606 4466 Pls
2606 4427 Pls
2606 4005 Pls
2606 4210 Pls
2606 4404 Pls
2606 4571 Pls
2606 3541 Pls
2606 3902 Pls
2606 4348 Pls
2606 4531 Pls
2606 3577 Pls
2606 4308 Pls
2606 4472 Pls
2606 4408 Pls
2606 3601 Pls
2606 4212 Pls
2606 4287 Pls
2606 4411 Pls
3987 4615 Pls
3987 4489 Pls
3987 4243 Pls
3987 4264 Pls
3987 4594 Pls
3987 4385 Pls
3987 4310 Pls
3987 4439 Pls
3987 4539 Pls
3987 4439 Pls
3987 4336 Pls
3987 4391 Pls
3987 4504 Pls
3987 4553 Pls
3987 4208 Pls
3987 4487 Pls
3987 4441 Pls
3987 4275 Pls
3987 4465 Pls
3987 4426 Pls
3987 3632 Pls
3987 3970 Pls
3987 4258 Pls
3987 4369 Pls
3987 3602 Pls
3987 3975 Pls
3987 4080 Pls
3987 4247 Pls
3987 3040 Pls
3987 3861 Pls
3987 3892 Pls
3987 3976 Pls
3987 2654 Pls
3987 3540 Pls
3987 3926 Pls
3987 3965 Pls
3987 2530 Pls
3987 3600 Pls
3987 3771 Pls
3987 4066 Pls
5368 4519 Pls
5368 4437 Pls
5368 4159 Pls
5368 4194 Pls
5368 4526 Pls
5368 4511 Pls
5368 4232 Pls
5368 4252 Pls
5368 4588 Pls
5368 4144 Pls
5368 4240 Pls
5368 4337 Pls
5368 4672 Pls
5368 4326 Pls
5368 4396 Pls
5368 4356 Pls
5368 4382 Pls
5368 4352 Pls
5368 4315 Pls
5368 4476 Pls
5368 3549 Pls
5368 4007 Pls
5368 3790 Pls
5368 4005 Pls
5368 2966 Pls
5368 3637 Pls
5368 3742 Pls
5368 3944 Pls
5368 2820 Pls
5368 3360 Pls
5368 3715 Pls
5368 3963 Pls
5368 2097 Pls
5368 2786 Pls
5368 3783 Pls
5368 3924 Pls
5368 2317 Pls
5368 2873 Pls
5368 3454 Pls
5368 3711 Pls
6749 4617 Pls
6749 4119 Pls
6749 4202 Pls
6749 4146 Pls
6749 4630 Pls
6749 4301 Pls
6749 4134 Pls
6749 4145 Pls
6749 4673 Pls
6749 4431 Pls
6749 4309 Pls
6749 4277 Pls
6749 4357 Pls
6749 4393 Pls
6749 4407 Pls
6749 4153 Pls
6749 4312 Pls
6749 4277 Pls
6749 4223 Pls
6749 4145 Pls
6749 3008 Pls
6749 3812 Pls
6749 3868 Pls
6749 3945 Pls
6749 2707 Pls
6749 3078 Pls
6749 3669 Pls
6749 3618 Pls
6749 2192 Pls
6749 3024 Pls
6749 3254 Pls
6749 3657 Pls
6749 1980 Pls
6749 2845 Pls
6749 3232 Pls
6749 3485 Pls
6749 1579 Pls
6749 2713 Pls
6749 3030 Pls
6749 3209 Pls
1225 4608 Pls
1225 4516 Pls
1225 4600 Pls
1225 4665 Pls
1225 4446 Pls
1225 4554 Pls
1225 4570 Pls
1225 4646 Pls
1225 4514 Pls
1225 4553 Pls
1225 4584 Pls
1225 4602 Pls
1225 4139 Pls
1225 4634 Pls
1225 4522 Pls
1225 4622 Pls
1225 4373 Pls
1225 4617 Pls
1225 4539 Pls
1225 4673 Pls
1225 4213 Pls
1225 4334 Pls
1225 4589 Pls
1225 4666 Pls
1225 3976 Pls
1225 4581 Pls
1225 4544 Pls
1225 4630 Pls
1225 3990 Pls
1225 4468 Pls
1225 4609 Pls
1225 4642 Pls
1225 4205 Pls
1225 4338 Pls
1225 4449 Pls
1225 4656 Pls
1225 4172 Pls
1225 4408 Pls
1225 4452 Pls
1225 4592 Pls
2606 4567 Pls
2606 4551 Pls
2606 4510 Pls
2606 4574 Pls
2606 4499 Pls
2606 4618 Pls
2606 4455 Pls
2606 4529 Pls
2606 4515 Pls
2606 4489 Pls
2606 4564 Pls
2606 4536 Pls
2606 4539 Pls
2606 4557 Pls
2606 4455 Pls
2606 4564 Pls
2606 4338 Pls
2606 4566 Pls
2606 4447 Pls
2606 4613 Pls
2606 3918 Pls
2606 4495 Pls
2606 4356 Pls
2606 4488 Pls
2606 4676 Pls
2606 4205 Pls
2606 4344 Pls
2606 4402 Pls
2606 3499 Pls
2606 4265 Pls
2606 4402 Pls
2606 4402 Pls
2606 3552 Pls
2606 4187 Pls
2606 4365 Pls
2606 4399 Pls
2606 3446 Pls
2606 4253 Pls
2606 4311 Pls
2606 4475 Pls
3987 4633 Pls
3987 4531 Pls
3987 4407 Pls
3987 4449 Pls
3987 4436 Pls
3987 4415 Pls
3987 4313 Pls
3987 4541 Pls
3987 4673 Pls
3987 4603 Pls
3987 4357 Pls
3987 4482 Pls
3987 4512 Pls
3987 4507 Pls
3987 4424 Pls
3987 4458 Pls
3987 4413 Pls
3987 4592 Pls
3987 4445 Pls
3987 4488 Pls
3987 3930 Pls
3987 4295 Pls
3987 4376 Pls
3987 4169 Pls
3987 3905 Pls
3987 3941 Pls
3987 4260 Pls
3987 4307 Pls
3987 3143 Pls
3987 3835 Pls
3987 4194 Pls
3987 4378 Pls
3987 2770 Pls
3987 3937 Pls
3987 4408 Pls
3987 4089 Pls
3987 3024 Pls
3987 3807 Pls
3987 4019 Pls
3987 4162 Pls
5368 4680 Pls
5368 4431 Pls
5368 4434 Pls
5368 4263 Pls
5368 4684 Pls
5368 4478 Pls
5368 4323 Pls
5368 4299 Pls
5368 4657 Pls
5368 4436 Pls
5368 4430 Pls
5368 4412 Pls
5368 4302 Pls
5368 4261 Pls
5368 4373 Pls
5368 4316 Pls
5368 4396 Pls
5368 4129 Pls
5368 4393 Pls
5368 4336 Pls
5368 3779 Pls
5368 4143 Pls
5368 4067 Pls
5368 4331 Pls
5368 3280 Pls
5368 3674 Pls
5368 4031 Pls
5368 4116 Pls
5368 2960 Pls
5368 3519 Pls
5368 3847 Pls
5368 3845 Pls
5368 2582 Pls
5368 3168 Pls
5368 3669 Pls
5368 3746 Pls
5368 2250 Pls
5368 3203 Pls
5368 3412 Pls
5368 3840 Pls
6749 4626 Pls
6749 4459 Pls
6749 4219 Pls
6749 4172 Pls
6749 4617 Pls
6749 4369 Pls
6749 4154 Pls
6749 4251 Pls
6749 4661 Pls
6749 4317 Pls
6749 4374 Pls
6749 4167 Pls
6749 4508 Pls
6749 4249 Pls
6749 4274 Pls
6749 4189 Pls
6749 4455 Pls
6749 4363 Pls
6749 4444 Pls
6749 4348 Pls
6749 3431 Pls
6749 3808 Pls
6749 3898 Pls
6749 4036 Pls
6749 3129 Pls
6749 3309 Pls
6749 3860 Pls
6749 3913 Pls
6749 2589 Pls
6749 2954 Pls
6749 3482 Pls
6749 3681 Pls
6749 2014 Pls
6749 2855 Pls
6749 3274 Pls
6749 3608 Pls
6749 1697 Pls
6749 2795 Pls
6749 3015 Pls
6749 3460 Pls
1225 4603 Pls
1225 4632 Pls
1225 4505 Pls
1225 4655 Pls
1225 4550 Pls
1225 4513 Pls
1225 4605 Pls
1225 4699 Pls
1225 4327 Pls
1225 4521 Pls
1225 4654 Pls
1225 4686 Pls
1225 4617 Pls
1225 4418 Pls
1225 4619 Pls
1225 4621 Pls
1225 4366 Pls
1225 4424 Pls
1225 4593 Pls
1225 4662 Pls
1225 4037 Pls
1225 4475 Pls
1225 4559 Pls
1225 4654 Pls
1225 4489 Pls
1225 4358 Pls
1225 4508 Pls
1225 4667 Pls
1225 4343 Pls
1225 4513 Pls
1225 4606 Pls
1225 4643 Pls
1225 4155 Pls
1225 4470 Pls
1225 4658 Pls
1225 4556 Pls
1225 4247 Pls
1225 4664 Pls
1225 4527 Pls
1225 4642 Pls
2606 4705 Pls
2606 4577 Pls
2606 4523 Pls
2606 4545 Pls
2606 4382 Pls
2606 4556 Pls
2606 4583 Pls
2606 4567 Pls
2606 4378 Pls
2606 4466 Pls
2606 4684 Pls
2606 4523 Pls
2606 4699 Pls
2606 4413 Pls
2606 4485 Pls
2606 4609 Pls
2606 4415 Pls
2606 4489 Pls
2606 4446 Pls
2606 4511 Pls
2606 4255 Pls
2606 4347 Pls
2606 4473 Pls
2606 4543 Pls
2606 4087 Pls
2606 4068 Pls
2606 4534 Pls
2606 4449 Pls
2606 3658 Pls
2606 4274 Pls
2606 4498 Pls
2606 4533 Pls
2606 3726 Pls
2606 4315 Pls
2606 4368 Pls
2606 4508 Pls
2606 3776 Pls
2606 4213 Pls
2606 4309 Pls
2606 4487 Pls
3987 4539 Pls
3987 4512 Pls
3987 4445 Pls
3987 4497 Pls
3987 4666 Pls
3987 4484 Pls
3987 4464 Pls
3987 4451 Pls
3987 4563 Pls
3987 4454 Pls
3987 4434 Pls
3987 4472 Pls
3987 4576 Pls
3987 4589 Pls
3987 4529 Pls
3987 4521 Pls
3987 4539 Pls
3987 4340 Pls
3987 4470 Pls
3987 4464 Pls
3987 3473 Pls
3987 4298 Pls
3987 4382 Pls
3987 4416 Pls
3987 3818 Pls
3987 4179 Pls
3987 4138 Pls
3987 4448 Pls
3987 3553 Pls
3987 3971 Pls
3987 4120 Pls
3987 4333 Pls
3987 3261 Pls
3987 3843 Pls
3987 4208 Pls
3987 4166 Pls
3987 3205 Pls
3987 3593 Pls
3987 4023 Pls
3987 4275 Pls
5368 4455 Pls
5368 4313 Pls
5368 4487 Pls
5368 4341 Pls
5368 4579 Pls
5368 4396 Pls
5368 4357 Pls
5368 4315 Pls
5368 4530 Pls
5368 4408 Pls
5368 4420 Pls
5368 4254 Pls
5368 4533 Pls
5368 4545 Pls
5368 4333 Pls
5368 4289 Pls
5368 4453 Pls
5368 4472 Pls
5368 4544 Pls
5368 4396 Pls
5368 4049 Pls
5368 3888 Pls
5368 4271 Pls
5368 4349 Pls
5368 3141 Pls
5368 3877 Pls
5368 3852 Pls
5368 4116 Pls
5368 3080 Pls
5368 3893 Pls
5368 3613 Pls
5368 4036 Pls
5368 2628 Pls
5368 3388 Pls
5368 3801 Pls
5368 3930 Pls
5368 2258 Pls
5368 3111 Pls
5368 3483 Pls
5368 3736 Pls
6749 4618 Pls
6749 4516 Pls
6749 4188 Pls
6749 4225 Pls
6749 4413 Pls
6749 4381 Pls
6749 4274 Pls
6749 4308 Pls
6749 4276 Pls
6749 4369 Pls
6749 4094 Pls
6749 4259 Pls
6749 4643 Pls
6749 4253 Pls
6749 4371 Pls
6749 4257 Pls
6749 4469 Pls
6749 4445 Pls
6749 4421 Pls
6749 4491 Pls
6749 3282 Pls
6749 3895 Pls
6749 3960 Pls
6749 4130 Pls
6749 3214 Pls
6749 3614 Pls
6749 3759 Pls
6749 3906 Pls
6749 2682 Pls
6749 3102 Pls
6749 3459 Pls
6749 3946 Pls
6749 2409 Pls
6749 2982 Pls
6749 3514 Pls
6749 3728 Pls
6749 2113 Pls
6749 2965 Pls
6749 3380 Pls
6749 3452 Pls
1225 4661 Pls
1225 4549 Pls
1225 4581 Pls
1225 4564 Pls
1225 4573 Pls
1225 4648 Pls
1225 4671 Pls
1225 4657 Pls
1225 4485 Pls
1225 4684 Pls
1225 4615 Pls
1225 4569 Pls
1225 4642 Pls
1225 4500 Pls
1225 4671 Pls
1225 4662 Pls
1225 4603 Pls
1225 4517 Pls
1225 4647 Pls
1225 4638 Pls
1225 4359 Pls
1225 4509 Pls
1225 4608 Pls
1225 4667 Pls
1225 4440 Pls
1225 4581 Pls
1225 4674 Pls
1225 4691 Pls
1225 4213 Pls
1225 4615 Pls
1225 4494 Pls
1225 4643 Pls
1225 4393 Pls
1225 4610 Pls
1225 4580 Pls
1225 4605 Pls
1225 4251 Pls
1225 4381 Pls
1225 4576 Pls
1225 4567 Pls
2606 4661 Pls
2606 4405 Pls
2606 4538 Pls
2606 4497 Pls
2606 4347 Pls
2606 4504 Pls
2606 4448 Pls
2606 4569 Pls
2606 4621 Pls
2606 4535 Pls
2606 4523 Pls
2606 4526 Pls
2606 4469 Pls
2606 4490 Pls
2606 4464 Pls
2606 4615 Pls
2606 4538 Pls
2606 4463 Pls
2606 4440 Pls
2606 4576 Pls
2606 4260 Pls
2606 4373 Pls
2606 4488 Pls
2606 4554 Pls
2606 4271 Pls
2606 4384 Pls
2606 4353 Pls
2606 4456 Pls
2606 3988 Pls
2606 4344 Pls
2606 4325 Pls
2606 4499 Pls
2606 3898 Pls
2606 4291 Pls
2606 4388 Pls
2606 4581 Pls
2606 3529 Pls
2606 4366 Pls
2606 4355 Pls
2606 4482 Pls
3987 4680 Pls
3987 4419 Pls
3987 4448 Pls
3987 4354 Pls
3987 4409 Pls
3987 4484 Pls
3987 4466 Pls
3987 4465 Pls
3987 4637 Pls
3987 4456 Pls
3987 4388 Pls
3987 4530 Pls
3987 4398 Pls
3987 4399 Pls
3987 4594 Pls
3987 4524 Pls
3987 4464 Pls
3987 4469 Pls
3987 4533 Pls
3987 4419 Pls
3987 4381 Pls
3987 4295 Pls
3987 4326 Pls
3987 4518 Pls
3987 3737 Pls
3987 4324 Pls
3987 4213 Pls
3987 4479 Pls
3987 3714 Pls
3987 3980 Pls
3987 4145 Pls
3987 4388 Pls
3987 3512 Pls
3987 4087 Pls
3987 4026 Pls
3987 4352 Pls
3987 3634 Pls
3987 3673 Pls
3987 4141 Pls
3987 4353 Pls
5368 4603 Pls
5368 4454 Pls
5368 4279 Pls
5368 4398 Pls
5368 4659 Pls
5368 4418 Pls
5368 4342 Pls
5368 4309 Pls
5368 4603 Pls
5368 4426 Pls
5368 4452 Pls
5368 4387 Pls
5368 4540 Pls
5368 4472 Pls
5368 4467 Pls
5368 4400 Pls
5368 4268 Pls
5368 4566 Pls
5368 4528 Pls
5368 4579 Pls
5368 4421 Pls
5368 4211 Pls
5368 4308 Pls
5368 4318 Pls
5368 3650 Pls
5368 3844 Pls
5368 4207 Pls
5368 4253 Pls
5368 3226 Pls
5368 3779 Pls
5368 4032 Pls
5368 4098 Pls
5368 2515 Pls
5368 3581 Pls
5368 3680 Pls
5368 3903 Pls
5368 2538 Pls
5368 3688 Pls
5368 3711 Pls
5368 4002 Pls
6749 4582 Pls
6749 4455 Pls
6749 4249 Pls
6749 4240 Pls
6749 4616 Pls
6749 4486 Pls
6749 4437 Pls
6749 4291 Pls
6749 4507 Pls
6749 4519 Pls
6749 4422 Pls
6749 4304 Pls
6749 4647 Pls
6749 4460 Pls
6749 4363 Pls
6749 4370 Pls
6749 4456 Pls
6749 4439 Pls
6749 4458 Pls
6749 4406 Pls
6749 3691 Pls
6749 4133 Pls
6749 4249 Pls
6749 4053 Pls
6749 3367 Pls
6749 3378 Pls
6749 3850 Pls
6749 4058 Pls
6749 2775 Pls
6749 3480 Pls
6749 3585 Pls
6749 3683 Pls
6749 2307 Pls
6749 3145 Pls
6749 3670 Pls
6749 3799 Pls
6749 1783 Pls
6749 2960 Pls
6749 3163 Pls
6749 3639 Pls
1225 4666 Pls
1225 4578 Pls
1225 4654 Pls
1225 4618 Pls
1225 4406 Pls
1225 4653 Pls
1225 4558 Pls
1225 4662 Pls
1225 4417 Pls
1225 4567 Pls
1225 4617 Pls
1225 4688 Pls
1225 4196 Pls
1225 4572 Pls
1225 4564 Pls
1225 4633 Pls
1225 4463 Pls
1225 4530 Pls
1225 4574 Pls
1225 4662 Pls
1225 4381 Pls
1225 4615 Pls
1225 4625 Pls
1225 4642 Pls
1225 4289 Pls
1225 4500 Pls
1225 4643 Pls
1225 4630 Pls
1225 4354 Pls
1225 4664 Pls
1225 4566 Pls
1225 4656 Pls
1225 4343 Pls
1225 4578 Pls
1225 4589 Pls
1225 4667 Pls
1225 4360 Pls
1225 4377 Pls
1225 4627 Pls
1225 4606 Pls
2606 4549 Pls
2606 4601 Pls
2606 4571 Pls
2606 4604 Pls
2606 4651 Pls
2606 4365 Pls
2606 4491 Pls
2606 4547 Pls
2606 4638 Pls
2606 4491 Pls
2606 4605 Pls
2606 4554 Pls
2606 4676 Pls
2606 4469 Pls
2606 4575 Pls
2606 4622 Pls
2606 4354 Pls
2606 4472 Pls
2606 4544 Pls
2606 4485 Pls
2606 4089 Pls
2606 4447 Pls
2606 4510 Pls
2606 4558 Pls
2606 3879 Pls
2606 4406 Pls
2606 4629 Pls
2606 4475 Pls
2606 4093 Pls
2606 4399 Pls
2606 4431 Pls
2606 4575 Pls
2606 3877 Pls
2606 4355 Pls
2606 4485 Pls
2606 4542 Pls
2606 4194 Pls
2606 4454 Pls
2606 4408 Pls
2606 4540 Pls
3987 4739 Pls
3987 4494 Pls
3987 4433 Pls
3987 4465 Pls
3987 4514 Pls
3987 4534 Pls
3987 4398 Pls
3987 4490 Pls
3987 4524 Pls
3987 4373 Pls
3987 4496 Pls
3987 4500 Pls
3987 4272 Pls
3987 4503 Pls
3987 4348 Pls
3987 4534 Pls
3987 4626 Pls
3987 4603 Pls
3987 4483 Pls
3987 4561 Pls
3987 4401 Pls
3987 4363 Pls
3987 4371 Pls
3987 4480 Pls
3987 3550 Pls
3987 4068 Pls
3987 4267 Pls
3987 4312 Pls
3987 3409 Pls
3987 4148 Pls
3987 4090 Pls
3987 4313 Pls
3987 3142 Pls
3987 3843 Pls
3987 4262 Pls
3987 4287 Pls
3987 3128 Pls
3987 4058 Pls
3987 4223 Pls
3987 4359 Pls
5368 4710 Pls
5368 4546 Pls
5368 4490 Pls
5368 4515 Pls
5368 4555 Pls
5368 4515 Pls
5368 4500 Pls
5368 4400 Pls
5368 4458 Pls
5368 4431 Pls
5368 4386 Pls
5368 4489 Pls
5368 4611 Pls
5368 4359 Pls
5368 4555 Pls
5368 4468 Pls
5368 4475 Pls
5368 4474 Pls
5368 4401 Pls
5368 4434 Pls
5368 3798 Pls
5368 4120 Pls
5368 4465 Pls
5368 4311 Pls
5368 3414 Pls
5368 4158 Pls
5368 4157 Pls
5368 4324 Pls
5368 3285 Pls
5368 3737 Pls
5368 4137 Pls
5368 4250 Pls
5368 2664 Pls
5368 3677 Pls
5368 3883 Pls
5368 4151 Pls
5368 2828 Pls
5368 3588 Pls
5368 3912 Pls
5368 4063 Pls
6749 4636 Pls
6749 4421 Pls
6749 4369 Pls
6749 4359 Pls
6749 4504 Pls
6749 4573 Pls
6749 4286 Pls
6749 4371 Pls
6749 4636 Pls
6749 4392 Pls
6749 4493 Pls
6749 4496 Pls
6749 4475 Pls
6749 4402 Pls
6749 4445 Pls
6749 4437 Pls
6749 4586 Pls
6749 4326 Pls
6749 4336 Pls
6749 4475 Pls
6749 3853 Pls
6749 4129 Pls
6749 4078 Pls
6749 4069 Pls
6749 3151 Pls
6749 3678 Pls
6749 3988 Pls
6749 4152 Pls
6749 2934 Pls
6749 3542 Pls
6749 3927 Pls
6749 3800 Pls
6749 2615 Pls
6749 3540 Pls
6749 3603 Pls
6749 3752 Pls
6749 2448 Pls
6749 3152 Pls
6749 3336 Pls
6749 3773 Pls
1225 4455 Pls
1225 4600 Pls
1225 4586 Pls
1225 4603 Pls
1225 4705 Pls
1225 4491 Pls
1225 4662 Pls
1225 4655 Pls
1225 4520 Pls
1225 4617 Pls
1225 4687 Pls
1225 4631 Pls
1225 4522 Pls
1225 4495 Pls
1225 4597 Pls
1225 4602 Pls
1225 4291 Pls
1225 4476 Pls
1225 4606 Pls
1225 4601 Pls
1225 4051 Pls
1225 4369 Pls
1225 4545 Pls
1225 4642 Pls
1225 4551 Pls
1225 4574 Pls
1225 4483 Pls
1225 4579 Pls
1225 4269 Pls
1225 4355 Pls
1225 4490 Pls
1225 4642 Pls
1225 4280 Pls
1225 4590 Pls
1225 4657 Pls
1225 4628 Pls
1225 4090 Pls
1225 4529 Pls
1225 4689 Pls
1225 4592 Pls
2606 4638 Pls
2606 4467 Pls
2606 4625 Pls
2606 4526 Pls
2606 4504 Pls
2606 4604 Pls
2606 4499 Pls
2606 4549 Pls
2606 4559 Pls
2606 4487 Pls
2606 4536 Pls
2606 4571 Pls
2606 4514 Pls
2606 4531 Pls
2606 4498 Pls
2606 4627 Pls
2606 4457 Pls
2606 4631 Pls
2606 4521 Pls
2606 4531 Pls
2606 4197 Pls
2606 4280 Pls
2606 4580 Pls
2606 4632 Pls
2606 4044 Pls
2606 4343 Pls
2606 4572 Pls
2606 4430 Pls
2606 3938 Pls
2606 4288 Pls
2606 4423 Pls
2606 4514 Pls
2606 4053 Pls
2606 4324 Pls
2606 4377 Pls
2606 4451 Pls
2606 3930 Pls
2606 4407 Pls
2606 4495 Pls
2606 4589 Pls
3987 4676 Pls
3987 4474 Pls
3987 4466 Pls
3987 4491 Pls
3987 4613 Pls
3987 4514 Pls
3987 4371 Pls
3987 4514 Pls
3987 4552 Pls
3987 4544 Pls
3987 4483 Pls
3987 4506 Pls
3987 4626 Pls
3987 4399 Pls
3987 4444 Pls
3987 4541 Pls
3987 4574 Pls
3987 4642 Pls
3987 4492 Pls
3987 4501 Pls
3987 4002 Pls
3987 4381 Pls
3987 4402 Pls
3987 4360 Pls
3987 4293 Pls
3987 4357 Pls
3987 4283 Pls
3987 4267 Pls
3987 3847 Pls
3987 4120 Pls
3987 4323 Pls
3987 4400 Pls
3987 3124 Pls
3987 3435 Pls
3987 4069 Pls
3987 4288 Pls
3987 2980 Pls
3987 3855 Pls
3987 4302 Pls
3987 4228 Pls
5368 4576 Pls
5368 4452 Pls
5368 4463 Pls
5368 4550 Pls
5368 4474 Pls
5368 4606 Pls
5368 4387 Pls
5368 4317 Pls
5368 4535 Pls
5368 4524 Pls
5368 4410 Pls
5368 4454 Pls
5368 4628 Pls
5368 4458 Pls
5368 4619 Pls
5368 4375 Pls
5368 4621 Pls
5368 4611 Pls
5368 4459 Pls
5368 4423 Pls
5368 3908 Pls
5368 4000 Pls
5368 4236 Pls
5368 4379 Pls
5368 3757 Pls
5368 4017 Pls
5368 4294 Pls
5368 4284 Pls
5368 3727 Pls
5368 3823 Pls
5368 4110 Pls
5368 4374 Pls
5368 3318 Pls
5368 3860 Pls
5368 3936 Pls
5368 4106 Pls
5368 3287 Pls
5368 3589 Pls
5368 3883 Pls
5368 3911 Pls
6749 4640 Pls
6749 4510 Pls
6749 4406 Pls
6749 4380 Pls
6749 4530 Pls
6749 4534 Pls
6749 4409 Pls
6749 4412 Pls
6749 4651 Pls
6749 4322 Pls
6749 4483 Pls
6749 4431 Pls
6749 4474 Pls
6749 4433 Pls
6749 4526 Pls
6749 4439 Pls
6749 4571 Pls
6749 4342 Pls
6749 4455 Pls
6749 4389 Pls
6749 3935 Pls
6749 3957 Pls
6749 4356 Pls
6749 4314 Pls
6749 4012 Pls
6749 3663 Pls
6749 4043 Pls
6749 4061 Pls
6749 2862 Pls
6749 3632 Pls
6749 3941 Pls
6749 3900 Pls
6749 2993 Pls
6749 3484 Pls
6749 3625 Pls
6749 3727 Pls
6749 2259 Pls
6749 3411 Pls
6749 3748 Pls
6749 3690 Pls
1225 4597 Pls
1225 4516 Pls
1225 4629 Pls
1225 4616 Pls
1225 4681 Pls
1225 4563 Pls
1225 4643 Pls
1225 4678 Pls
1225 4528 Pls
1225 4629 Pls
1225 4620 Pls
1225 4665 Pls
1225 4489 Pls
1225 4426 Pls
1225 4614 Pls
1225 4640 Pls
1225 4493 Pls
1225 4490 Pls
1225 4547 Pls
1225 4577 Pls
1225 4030 Pls
1225 4633 Pls
1225 4707 Pls
1225 4632 Pls
1225 4226 Pls
1225 4512 Pls
1225 4605 Pls
1225 4643 Pls
1225 4343 Pls
1225 4595 Pls
1225 4658 Pls
1225 4691 Pls
1225 4260 Pls
1225 4472 Pls
1225 4610 Pls
1225 4642 Pls
1225 4381 Pls
1225 4453 Pls
1225 4611 Pls
1225 4618 Pls
2606 4545 Pls
2606 4653 Pls
2606 4579 Pls
2606 4601 Pls
2606 4612 Pls
2606 4595 Pls
2606 4498 Pls
2606 4643 Pls
2606 4463 Pls
2606 4515 Pls
2606 4601 Pls
2606 4562 Pls
2606 4583 Pls
2606 4602 Pls
2606 4629 Pls
2606 4577 Pls
2606 4319 Pls
2606 4527 Pls
2606 4569 Pls
2606 4583 Pls
2606 4406 Pls
2606 4309 Pls
2606 4587 Pls
2606 4655 Pls
2606 4551 Pls
2606 4556 Pls
2606 4541 Pls
2606 4599 Pls
2606 4439 Pls
2606 4449 Pls
2606 4501 Pls
2606 4602 Pls
2606 4346 Pls
2606 4511 Pls
2606 4454 Pls
2606 4574 Pls
2606 3855 Pls
2606 4536 Pls
2606 4487 Pls
2606 4552 Pls
3987 4655 Pls
3987 4586 Pls
3987 4504 Pls
3987 4586 Pls
3987 4643 Pls
3987 4560 Pls
3987 4613 Pls
3987 4609 Pls
3987 4642 Pls
3987 4504 Pls
3987 4520 Pls
3987 4546 Pls
3987 4511 Pls
3987 4525 Pls
3987 4554 Pls
3987 4604 Pls
3987 4460 Pls
3987 4463 Pls
3987 4512 Pls
3987 4561 Pls
3987 4176 Pls
3987 4567 Pls
3987 4565 Pls
3987 4543 Pls
3987 4168 Pls
3987 4339 Pls
3987 4484 Pls
3987 4565 Pls
3987 3726 Pls
3987 4216 Pls
3987 4439 Pls
3987 4372 Pls
3987 3689 Pls
3987 4128 Pls
3987 4373 Pls
3987 4502 Pls
3987 3522 Pls
3987 4424 Pls
3987 4309 Pls
3987 4444 Pls
5368 4425 Pls
5368 4499 Pls
5368 4540 Pls
5368 4563 Pls
5368 4565 Pls
5368 4578 Pls
5368 4512 Pls
5368 4562 Pls
5368 4632 Pls
5368 4588 Pls
5368 4538 Pls
5368 4474 Pls
5368 4608 Pls
5368 4564 Pls
5368 4492 Pls
5368 4526 Pls
5368 4529 Pls
5368 4554 Pls
5368 4449 Pls
5368 4589 Pls
5368 4343 Pls
5368 4401 Pls
5368 4499 Pls
5368 4510 Pls
5368 4064 Pls
5368 4165 Pls
5368 4330 Pls
5368 4467 Pls
5368 3525 Pls
5368 4079 Pls
5368 4346 Pls
5368 4467 Pls
5368 3631 Pls
5368 4135 Pls
5368 4261 Pls
5368 4333 Pls
5368 3467 Pls
5368 4019 Pls
5368 4271 Pls
5368 4366 Pls
6749 4657 Pls
6749 4528 Pls
6749 4580 Pls
6749 4573 Pls
6749 4544 Pls
6749 4642 Pls
6749 4562 Pls
6749 4555 Pls
6749 4676 Pls
6749 4590 Pls
6749 4551 Pls
6749 4601 Pls
6749 4479 Pls
6749 4617 Pls
6749 4544 Pls
6749 4603 Pls
6749 4527 Pls
6749 4495 Pls
6749 4498 Pls
6749 4467 Pls
6749 4297 Pls
6749 4381 Pls
6749 4494 Pls
6749 4395 Pls
6749 4083 Pls
6749 4349 Pls
6749 4125 Pls
6749 4436 Pls
6749 3718 Pls
6749 4178 Pls
6749 4184 Pls
6749 4429 Pls
6749 3411 Pls
6749 3691 Pls
6749 4313 Pls
6749 4188 Pls
6749 3051 Pls
6749 3508 Pls
6749 4062 Pls
6749 4073 Pls
1225 4626 Pls
1225 4515 Pls
1225 4644 Pls
1225 4594 Pls
1225 4334 Pls
1225 4528 Pls
1225 4637 Pls
1225 4688 Pls
1225 4666 Pls
1225 4477 Pls
1225 4638 Pls
1225 4674 Pls
1225 4451 Pls
1225 4535 Pls
1225 4521 Pls
1225 4673 Pls
1225 4514 Pls
1225 4435 Pls
1225 4591 Pls
1225 4650 Pls
1225 3885 Pls
1225 4578 Pls
1225 4482 Pls
1225 4544 Pls
1225 4378 Pls
1225 4581 Pls
1225 4640 Pls
1225 4593 Pls
1225 4551 Pls
1225 4361 Pls
1225 4626 Pls
1225 4667 Pls
1225 4343 Pls
1225 4529 Pls
1225 4515 Pls
1225 4606 Pls
1225 4235 Pls
1225 4337 Pls
1225 4623 Pls
1225 4679 Pls
2606 4618 Pls
2606 4706 Pls
2606 4644 Pls
2606 4679 Pls
2606 4618 Pls
2606 4551 Pls
2606 4608 Pls
2606 4596 Pls
2606 4474 Pls
2606 4514 Pls
2606 4675 Pls
2606 4599 Pls
2606 4636 Pls
2606 4557 Pls
2606 4610 Pls
2606 4622 Pls
2606 4413 Pls
2606 4680 Pls
2606 4602 Pls
2606 4650 Pls
2606 4426 Pls
2606 4475 Pls
2606 4624 Pls
2606 4608 Pls
2606 4353 Pls
2606 4465 Pls
2606 4530 Pls
2606 4613 Pls
2606 4133 Pls
2606 4425 Pls
2606 4534 Pls
2606 4584 Pls
2606 4589 Pls
2606 4442 Pls
2606 4563 Pls
2606 4667 Pls
2606 4482 Pls
2606 4578 Pls
2606 4531 Pls
2606 4574 Pls
3987 4564 Pls
3987 4638 Pls
3987 4553 Pls
3987 4630 Pls
3987 4573 Pls
3987 4584 Pls
3987 4602 Pls
3987 4632 Pls
3987 4608 Pls
3987 4581 Pls
3987 4566 Pls
3987 4592 Pls
3987 4643 Pls
3987 4629 Pls
3987 4560 Pls
3987 4628 Pls
3987 4590 Pls
3987 4651 Pls
3987 4632 Pls
3987 4654 Pls
3987 4322 Pls
3987 4534 Pls
3987 4568 Pls
3987 4598 Pls
3987 4370 Pls
3987 4351 Pls
3987 4555 Pls
3987 4595 Pls
3987 4428 Pls
3987 4438 Pls
3987 4525 Pls
3987 4554 Pls
3987 4064 Pls
3987 4365 Pls
3987 4525 Pls
3987 4602 Pls
3987 4354 Pls
3987 4566 Pls
3987 4504 Pls
3987 4485 Pls
5368 4629 Pls
5368 4596 Pls
5368 4608 Pls
5368 4625 Pls
5368 4681 Pls
5368 4640 Pls
5368 4535 Pls
5368 4615 Pls
5368 4534 Pls
5368 4497 Pls
5368 4607 Pls
5368 4547 Pls
5368 4614 Pls
5368 4611 Pls
5368 4538 Pls
5368 4590 Pls
5368 4549 Pls
5368 4611 Pls
5368 4532 Pls
5368 4579 Pls
5368 4354 Pls
5368 4309 Pls
5368 4595 Pls
5368 4498 Pls
5368 4049 Pls
5368 4284 Pls
5368 4525 Pls
5368 4465 Pls
5368 3695 Pls
5368 4332 Pls
5368 4365 Pls
5368 4604 Pls
5368 4156 Pls
5368 4161 Pls
5368 4516 Pls
5368 4427 Pls
5368 3702 Pls
5368 4208 Pls
5368 4484 Pls
5368 4390 Pls
6749 4676 Pls
6749 4518 Pls
6749 4439 Pls
6749 4593 Pls
6749 4577 Pls
6749 4604 Pls
6749 4527 Pls
6749 4545 Pls
6749 4609 Pls
6749 4538 Pls
6749 4630 Pls
6749 4532 Pls
6749 4647 Pls
6749 4547 Pls
6749 4580 Pls
6749 4607 Pls
6749 4705 Pls
6749 4425 Pls
6749 4595 Pls
6749 4598 Pls
6749 4210 Pls
6749 4423 Pls
6749 4511 Pls
6749 4475 Pls
6749 4126 Pls
6749 4134 Pls
6749 4141 Pls
6749 4428 Pls
6749 4051 Pls
6749 3988 Pls
6749 4407 Pls
6749 4252 Pls
6749 3204 Pls
6749 3867 Pls
6749 4095 Pls
6749 4386 Pls
6749 3707 Pls
6749 4033 Pls
6749 4050 Pls
6749 4333 Pls
1225 4642 Pls
1225 4539 Pls
1225 4594 Pls
1225 4667 Pls
1225 4623 Pls
1225 4572 Pls
1225 4563 Pls
1225 4688 Pls
1225 4636 Pls
1225 4604 Pls
1225 4571 Pls
1225 4629 Pls
1225 4522 Pls
1225 4360 Pls
1225 4572 Pls
1225 4675 Pls
1225 4376 Pls
1225 4538 Pls
1225 4624 Pls
1225 4683 Pls
1225 4343 Pls
1225 4471 Pls
1225 4623 Pls
1225 4546 Pls
1225 4260 Pls
1225 4644 Pls
1225 4655 Pls
1225 4643 Pls
1225 4551 Pls
1225 4391 Pls
1225 4573 Pls
1225 4643 Pls
1225 4406 Pls
1225 4665 Pls
1225 4556 Pls
1225 4604 Pls
1225 4531 Pls
1225 4662 Pls
1225 4639 Pls
1225 4607 Pls
2606 4589 Pls
2606 4652 Pls
2606 4553 Pls
2606 4578 Pls
2606 4681 Pls
2606 4613 Pls
2606 4670 Pls
2606 4628 Pls
2606 4632 Pls
2606 4525 Pls
2606 4603 Pls
2606 4686 Pls
2606 4603 Pls
2606 4584 Pls
2606 4568 Pls
2606 4646 Pls
2606 4304 Pls
2606 4610 Pls
2606 4524 Pls
2606 4596 Pls
2606 4193 Pls
2606 4462 Pls
2606 4598 Pls
2606 4559 Pls
2606 4205 Pls
2606 4491 Pls
2606 4547 Pls
2606 4606 Pls
2606 4268 Pls
2606 4269 Pls
2606 4537 Pls
2606 4642 Pls
2606 4318 Pls
2606 4521 Pls
2606 4609 Pls
2606 4583 Pls
2606 4318 Pls
2606 4476 Pls
2606 4497 Pls
2606 4631 Pls
3987 4647 Pls
3987 4597 Pls
3987 4656 Pls
3987 4547 Pls
3987 4506 Pls
3987 4614 Pls
3987 4637 Pls
3987 4574 Pls
3987 4636 Pls
3987 4649 Pls
3987 4660 Pls
3987 4634 Pls
3987 4710 Pls
3987 4593 Pls
3987 4554 Pls
3987 4587 Pls
3987 4463 Pls
3987 4608 Pls
3987 4533 Pls
3987 4566 Pls
3987 4676 Pls
3987 4439 Pls
3987 4594 Pls
3987 4578 Pls
3987 4321 Pls
3987 4563 Pls
3987 4425 Pls
3987 4624 Pls
3987 4349 Pls
3987 4501 Pls
3987 4541 Pls
3987 4578 Pls
3987 4197 Pls
3987 4567 Pls
3987 4658 Pls
3987 4569 Pls
3987 3978 Pls
3987 4489 Pls
3987 4407 Pls
3987 4567 Pls
5368 4593 Pls
5368 4635 Pls
5368 4654 Pls
5368 4628 Pls
5368 4705 Pls
5368 4495 Pls
5368 4581 Pls
5368 4626 Pls
5368 4670 Pls
5368 4586 Pls
5368 4632 Pls
5368 4518 Pls
5368 4527 Pls
5368 4599 Pls
5368 4610 Pls
5368 4571 Pls
5368 4529 Pls
5368 4617 Pls
5368 4594 Pls
5368 4629 Pls
5368 4322 Pls
5368 4363 Pls
5368 4314 Pls
5368 4550 Pls
5368 4240 Pls
5368 4432 Pls
5368 4520 Pls
5368 4539 Pls
5368 3994 Pls
5368 4477 Pls
5368 4460 Pls
5368 4537 Pls
5368 4122 Pls
5368 4414 Pls
5368 4418 Pls
5368 4533 Pls
5368 3979 Pls
5368 4417 Pls
5368 4458 Pls
5368 4487 Pls
6749 4574 Pls
6749 4626 Pls
6749 4613 Pls
6749 4602 Pls
6749 4590 Pls
6749 4576 Pls
6749 4544 Pls
6749 4570 Pls
6749 4739 Pls
6749 4620 Pls
6749 4641 Pls
6749 4555 Pls
6749 4705 Pls
6749 4613 Pls
6749 4566 Pls
6749 4609 Pls
6749 4556 Pls
6749 4517 Pls
6749 4604 Pls
6749 4622 Pls
6749 4151 Pls
6749 4544 Pls
6749 4507 Pls
6749 4541 Pls
6749 4326 Pls
6749 4229 Pls
6749 4298 Pls
6749 4585 Pls
6749 4011 Pls
6749 4243 Pls
6749 4309 Pls
6749 4460 Pls
6749 3540 Pls
6749 4078 Pls
6749 4248 Pls
6749 4412 Pls
6749 3690 Pls
6749 4226 Pls
6749 4201 Pls
6749 4417 Pls
1225 4556 Pls
1225 4646 Pls
1225 4633 Pls
1225 4688 Pls
1225 4496 Pls
1225 4439 Pls
1225 4603 Pls
1225 4645 Pls
1225 4590 Pls
1225 4575 Pls
1225 4608 Pls
1225 4607 Pls
1225 4515 Pls
1225 4556 Pls
1225 4668 Pls
1225 4639 Pls
1225 4286 Pls
1225 4559 Pls
1225 4551 Pls
1225 4583 Pls
1225 4280 Pls
1225 4571 Pls
1225 4624 Pls
1225 4617 Pls
1225 4565 Pls
1225 4556 Pls
1225 4541 Pls
1225 4592 Pls
1225 4531 Pls
1225 4509 Pls
1225 4642 Pls
1225 4604 Pls
1225 4406 Pls
1225 4610 Pls
1225 4568 Pls
1225 4606 Pls
1225 4464 Pls
1225 4498 Pls
1225 4657 Pls
1225 4568 Pls
2606 4611 Pls
2606 4524 Pls
2606 4577 Pls
2606 4608 Pls
2606 4614 Pls
2606 4646 Pls
2606 4636 Pls
2606 4597 Pls
2606 4554 Pls
2606 4646 Pls
2606 4623 Pls
2606 4532 Pls
2606 4561 Pls
2606 4608 Pls
2606 4584 Pls
2606 4644 Pls
2606 4131 Pls
2606 4477 Pls
2606 4666 Pls
2606 4643 Pls
2606 4322 Pls
2606 4582 Pls
2606 4563 Pls
2606 4633 Pls
2606 4235 Pls
2606 4561 Pls
2606 4622 Pls
2606 4660 Pls
2606 4478 Pls
2606 4512 Pls
2606 4588 Pls
2606 4631 Pls
2606 4318 Pls
2606 4404 Pls
2606 4502 Pls
2606 4571 Pls
2606 4501 Pls
2606 4538 Pls
2606 4544 Pls
2606 4534 Pls
3987 4705 Pls
3987 4594 Pls
3987 4637 Pls
3987 4680 Pls
3987 4676 Pls
3987 4632 Pls
3987 4561 Pls
3987 4670 Pls
3987 4544 Pls
3987 4595 Pls
3987 4531 Pls
3987 4637 Pls
3987 4563 Pls
3987 4478 Pls
3987 4647 Pls
3987 4612 Pls
3987 4573 Pls
3987 4659 Pls
3987 4582 Pls
3987 4654 Pls
3987 4322 Pls
3987 4468 Pls
3987 4521 Pls
3987 4578 Pls
3987 4085 Pls
3987 4541 Pls
3987 4574 Pls
3987 4553 Pls
3987 4265 Pls
3987 4581 Pls
3987 4445 Pls
3987 4592 Pls
3987 4551 Pls
3987 4566 Pls
3987 4548 Pls
3987 4574 Pls
3987 3991 Pls
3987 4420 Pls
3987 4512 Pls
3987 4567 Pls
5368 4630 Pls
5368 4588 Pls
5368 4612 Pls
5368 4605 Pls
5368 4684 Pls
5368 4663 Pls
5368 4540 Pls
5368 4585 Pls
5368 4550 Pls
5368 4506 Pls
5368 4611 Pls
5368 4661 Pls
5368 4636 Pls
5368 4457 Pls
5368 4676 Pls
5368 4583 Pls
5368 4612 Pls
5368 4584 Pls
5368 4646 Pls
5368 4594 Pls
5368 4531 Pls
5368 4446 Pls
5368 4557 Pls
5368 4620 Pls
5368 4235 Pls
5368 4450 Pls
5368 4524 Pls
5368 4539 Pls
5368 4406 Pls
5368 4348 Pls
5368 4524 Pls
5368 4554 Pls
5368 4239 Pls
5368 4438 Pls
5368 4342 Pls
5368 4513 Pls
5368 4205 Pls
5368 4313 Pls
5368 4404 Pls
5368 4506 Pls
6749 4688 Pls
6749 4620 Pls
6749 4621 Pls
6749 4635 Pls
6749 4705 Pls
6749 4478 Pls
6749 4551 Pls
6749 4585 Pls
6749 4680 Pls
6749 4529 Pls
6749 4576 Pls
6749 4655 Pls
6749 4739 Pls
6749 4612 Pls
6749 4667 Pls
6749 4564 Pls
6749 4485 Pls
6749 4585 Pls
6749 4542 Pls
6749 4493 Pls
6749 4122 Pls
6749 4406 Pls
6749 4537 Pls
6749 4574 Pls
6749 3779 Pls
6749 4311 Pls
6749 4492 Pls
6749 4489 Pls
6749 3942 Pls
6749 4386 Pls
6749 4537 Pls
6749 4474 Pls
6749 3845 Pls
6749 4379 Pls
6749 4390 Pls
6749 4540 Pls
6749 3793 Pls
6749 4344 Pls
6749 4341 Pls
6749 4447 Pls
1225 4588 Pls
1225 4575 Pls
1225 4596 Pls
1225 4680 Pls
1225 4650 Pls
1225 4506 Pls
1225 4596 Pls
1225 4611 Pls
1225 4558 Pls
1225 4663 Pls
1225 4586 Pls
1225 4644 Pls
1225 4553 Pls
1225 4518 Pls
1225 4651 Pls
1225 4684 Pls
1225 4501 Pls
1225 4628 Pls
1225 4606 Pls
1225 4638 Pls
1225 4322 Pls
1225 4436 Pls
1225 4588 Pls
1225 4619 Pls
1225 4235 Pls
1225 4494 Pls
1225 4588 Pls
1225 4577 Pls
1225 4315 Pls
1225 4318 Pls
1225 4623 Pls
1225 4691 Pls
1225 4406 Pls
1225 4442 Pls
1225 4571 Pls
1225 4642 Pls
1225 4322 Pls
1225 4713 Pls
1225 4604 Pls
1225 4727 Pls
2606 4450 Pls
2606 4519 Pls
2606 4624 Pls
2606 4594 Pls
2606 4681 Pls
2606 4599 Pls
2606 4639 Pls
2606 4671 Pls
2606 4636 Pls
2606 4529 Pls
2606 4646 Pls
2606 4638 Pls
2606 4710 Pls
2606 4567 Pls
2606 4599 Pls
2606 4649 Pls
2606 4332 Pls
2606 4562 Pls
2606 4657 Pls
2606 4654 Pls
2606 3559 Pls
2606 4533 Pls
2606 4638 Pls
2606 4548 Pls
2606 4172 Pls
2606 4607 Pls
2606 4609 Pls
2606 4636 Pls
2606 4293 Pls
2606 4600 Pls
2606 4642 Pls
2606 4646 Pls
2606 4360 Pls
2606 4539 Pls
2606 4567 Pls
2606 4656 Pls
2606 4318 Pls
2606 4419 Pls
2606 4608 Pls
2606 4705 Pls
3987 4607 Pls
3987 4479 Pls
3987 4636 Pls
3987 4605 Pls
3987 4408 Pls
3987 4671 Pls
3987 4649 Pls
3987 4668 Pls
3987 4428 Pls
3987 4609 Pls
3987 4601 Pls
3987 4615 Pls
3987 4442 Pls
3987 4624 Pls
3987 4645 Pls
3987 4604 Pls
3987 4636 Pls
3987 4585 Pls
3987 4658 Pls
3987 4656 Pls
3987 4489 Pls
3987 4327 Pls
3987 4607 Pls
3987 4636 Pls
3987 4287 Pls
3987 4533 Pls
3987 4528 Pls
3987 4542 Pls
3987 4464 Pls
3987 4294 Pls
3987 4546 Pls
3987 4506 Pls
3987 4356 Pls
3987 4432 Pls
3987 4468 Pls
3987 4579 Pls
3987 4250 Pls
3987 4365 Pls
3987 4629 Pls
3987 4575 Pls
5368 4621 Pls
5368 4644 Pls
5368 4689 Pls
5368 4637 Pls
5368 4608 Pls
5368 4531 Pls
5368 4555 Pls
5368 4593 Pls
5368 4739 Pls
5368 4528 Pls
5368 4640 Pls
5368 4652 Pls
5368 4651 Pls
5368 4624 Pls
5368 4620 Pls
5368 4629 Pls
5368 4672 Pls
5368 4483 Pls
5368 4683 Pls
5368 4546 Pls
5368 4414 Pls
5368 4513 Pls
5368 4539 Pls
5368 4604 Pls
5368 4210 Pls
5368 4334 Pls
5368 4587 Pls
5368 4614 Pls
5368 4443 Pls
5368 4423 Pls
5368 4446 Pls
5368 4553 Pls
5368 3987 Pls
5368 4556 Pls
5368 4521 Pls
5368 4570 Pls
5368 4243 Pls
5368 4407 Pls
5368 4394 Pls
5368 4491 Pls
6749 4676 Pls
6749 4596 Pls
6749 4593 Pls
6749 4551 Pls
6749 4629 Pls
6749 4639 Pls
6749 4597 Pls
6749 4659 Pls
6749 4548 Pls
6749 4500 Pls
6749 4571 Pls
6749 4587 Pls
6749 4577 Pls
6749 4595 Pls
6749 4551 Pls
6749 4562 Pls
6749 4537 Pls
6749 4566 Pls
6749 4636 Pls
6749 4604 Pls
6749 4130 Pls
6749 4515 Pls
6749 4596 Pls
6749 4623 Pls
6749 4078 Pls
6749 4506 Pls
6749 4536 Pls
6749 4536 Pls
6749 4268 Pls
6749 4443 Pls
6749 4603 Pls
6749 4493 Pls
6749 4112 Pls
6749 4246 Pls
6749 4436 Pls
6749 4547 Pls
6749 4124 Pls
6749 4287 Pls
6749 4324 Pls
6749 4370 Pls
1225 4465 Pls
1225 4552 Pls
1225 4617 Pls
1225 4667 Pls
1225 4468 Pls
1225 4661 Pls
1225 4617 Pls
1225 4662 Pls
1225 4493 Pls
1225 4529 Pls
1225 4621 Pls
1225 4666 Pls
1225 4524 Pls
1225 4599 Pls
1225 4542 Pls
1225 4628 Pls
1225 4422 Pls
1225 4563 Pls
1225 4606 Pls
1225 4639 Pls
1225 4364 Pls
1225 4294 Pls
1225 4608 Pls
1225 4642 Pls
1225 4260 Pls
1225 4359 Pls
1225 4515 Pls
1225 4603 Pls
1225 4322 Pls
1225 4371 Pls
1225 4587 Pls
1225 4617 Pls
1225 4289 Pls
1225 4545 Pls
1225 4657 Pls
1225 4642 Pls
1225 4343 Pls
1225 4559 Pls
1225 4573 Pls
1225 4679 Pls
2606 4593 Pls
2606 4560 Pls
2606 4529 Pls
2606 4679 Pls
2606 4596 Pls
2606 4651 Pls
2606 4617 Pls
2606 4623 Pls
2606 4705 Pls
2606 4612 Pls
2606 4631 Pls
2606 4659 Pls
2606 4593 Pls
2606 4600 Pls
2606 4591 Pls
2606 4595 Pls
2606 4617 Pls
2606 4561 Pls
2606 4640 Pls
2606 4643 Pls
2606 4385 Pls
2606 4607 Pls
2606 4588 Pls
2606 4600 Pls
2606 4614 Pls
2606 4472 Pls
2606 4611 Pls
2606 4607 Pls
2606 4406 Pls
2606 4584 Pls
2606 4611 Pls
2606 4542 Pls
2606 4676 Pls
2606 4570 Pls
2606 4531 Pls
2606 4596 Pls
2606 4503 Pls
2606 4636 Pls
2606 4595 Pls
2606 4532 Pls
3987 4699 Pls
3987 4552 Pls
3987 4614 Pls
3987 4580 Pls
3987 4638 Pls
3987 4640 Pls
3987 4594 Pls
3987 4669 Pls
3987 4522 Pls
3987 4630 Pls
3987 4599 Pls
3987 4666 Pls
3987 4640 Pls
3987 4581 Pls
3987 4618 Pls
3987 4619 Pls
3987 4578 Pls
3987 4469 Pls
3987 4643 Pls
3987 4585 Pls
3987 4172 Pls
3987 4618 Pls
3987 4543 Pls
3987 4574 Pls
3987 4401 Pls
3987 4265 Pls
3987 4517 Pls
3987 4512 Pls
3987 4482 Pls
3987 4483 Pls
3987 4545 Pls
3987 4538 Pls
3987 4108 Pls
3987 4429 Pls
3987 4646 Pls
3987 4612 Pls
3987 4394 Pls
3987 4512 Pls
3987 4513 Pls
3987 4552 Pls
5368 4705 Pls
5368 4635 Pls
5368 4620 Pls
5368 4661 Pls
5368 4520 Pls
5368 4612 Pls
5368 4601 Pls
5368 4623 Pls
5368 4380 Pls
5368 4588 Pls
5368 4566 Pls
5368 4646 Pls
5368 4611 Pls
5368 4520 Pls
5368 4557 Pls
5368 4614 Pls
5368 4461 Pls
5368 4601 Pls
5368 4658 Pls
5368 4688 Pls
5368 4526 Pls
5368 4438 Pls
5368 4467 Pls
5368 4525 Pls
5368 4289 Pls
5368 4179 Pls
5368 4578 Pls
5368 4560 Pls
5368 4414 Pls
5368 4531 Pls
5368 4410 Pls
5368 4549 Pls
5368 4260 Pls
5368 4213 Pls
5368 4381 Pls
5368 4591 Pls
5368 4297 Pls
5368 4322 Pls
5368 4530 Pls
5368 4608 Pls
6749 4622 Pls
6749 4577 Pls
6749 4545 Pls
6749 4691 Pls
6749 4618 Pls
6749 4569 Pls
6749 4630 Pls
6749 4577 Pls
6749 4553 Pls
6749 4539 Pls
6749 4680 Pls
6749 4670 Pls
6749 4613 Pls
6749 4526 Pls
6749 4535 Pls
6749 4620 Pls
6749 4628 Pls
6749 4619 Pls
6749 4609 Pls
6749 4628 Pls
6749 4443 Pls
6749 4443 Pls
6749 4550 Pls
6749 4506 Pls
6749 3943 Pls
6749 4256 Pls
6749 4390 Pls
6749 4459 Pls
6749 4269 Pls
6749 4478 Pls
6749 4345 Pls
6749 4505 Pls
6749 4414 Pls
6749 4403 Pls
6749 4370 Pls
6749 4458 Pls
6749 3419 Pls
6749 4287 Pls
6749 4332 Pls
6749 4599 Pls
1225 4529 Pls
1225 4596 Pls
1225 4644 Pls
1225 4640 Pls
1225 4491 Pls
1225 4617 Pls
1225 4544 Pls
1225 4631 Pls
1225 4507 Pls
1225 4469 Pls
1225 4625 Pls
1225 4654 Pls
1225 4380 Pls
1225 4512 Pls
1225 4583 Pls
1225 4620 Pls
1225 4470 Pls
1225 4610 Pls
1225 4525 Pls
1225 4629 Pls
1225 4260 Pls
1225 4497 Pls
1225 4657 Pls
1225 4591 Pls
1225 4218 Pls
1225 4558 Pls
1225 4608 Pls
1225 4606 Pls
1225 4406 Pls
1225 4633 Pls
1225 4595 Pls
1225 4692 Pls
1225 4280 Pls
1225 4610 Pls
1225 4622 Pls
1225 4593 Pls
1225 4443 Pls
1225 4541 Pls
1225 4587 Pls
1225 4577 Pls
2606 4609 Pls
2606 4702 Pls
2606 4649 Pls
2606 4646 Pls
2606 4433 Pls
2606 4563 Pls
2606 4597 Pls
2606 4636 Pls
2606 4563 Pls
2606 4591 Pls
2606 4633 Pls
2606 4629 Pls
2606 4402 Pls
2606 4563 Pls
2606 4607 Pls
2606 4612 Pls
2606 4739 Pls
2606 4487 Pls
2606 4604 Pls
2606 4665 Pls
2606 4280 Pls
2606 4633 Pls
2606 4622 Pls
2606 4607 Pls
2606 4406 Pls
2606 4633 Pls
2606 4572 Pls
2606 4669 Pls
2606 4314 Pls
2606 4589 Pls
2606 4476 Pls
2606 4657 Pls
2606 4468 Pls
2606 4512 Pls
2606 4497 Pls
2606 4679 Pls
2606 4551 Pls
2606 4574 Pls
2606 4557 Pls
2606 4645 Pls
3987 4490 Pls
3987 4683 Pls
3987 4669 Pls
3987 4646 Pls
3987 4636 Pls
3987 4642 Pls
3987 4578 Pls
3987 4641 Pls
3987 4416 Pls
3987 4615 Pls
3987 4619 Pls
3987 4647 Pls
3987 4626 Pls
3987 4640 Pls
3987 4532 Pls
3987 4679 Pls
3987 4612 Pls
3987 4611 Pls
3987 4583 Pls
3987 4601 Pls
3987 4551 Pls
3987 4523 Pls
3987 4520 Pls
3987 4644 Pls
3987 4531 Pls
3987 4626 Pls
3987 4516 Pls
3987 4656 Pls
3987 4239 Pls
3987 4593 Pls
3987 4642 Pls
3987 4612 Pls
3987 4551 Pls
3987 4552 Pls
3987 4576 Pls
3987 4648 Pls
3987 4620 Pls
3987 4397 Pls
3987 4548 Pls
3987 4585 Pls
5368 4578 Pls
5368 4531 Pls
5368 4601 Pls
5368 4633 Pls
5368 4666 Pls
5368 4653 Pls
5368 4674 Pls
5368 4649 Pls
5368 4550 Pls
5368 4633 Pls
5368 4590 Pls
5368 4635 Pls
5368 4428 Pls
5368 4648 Pls
5368 4663 Pls
5368 4658 Pls
5368 4490 Pls
5368 4524 Pls
5368 4646 Pls
5368 4625 Pls
5368 4151 Pls
5368 4411 Pls
5368 4658 Pls
5368 4599 Pls
5368 4489 Pls
5368 4659 Pls
5368 4533 Pls
5368 4510 Pls
5368 4293 Pls
5368 4483 Pls
5368 4434 Pls
5368 4570 Pls
5368 4382 Pls
5368 4437 Pls
5368 4460 Pls
5368 4545 Pls
5368 4122 Pls
5368 4250 Pls
5368 4632 Pls
5368 4559 Pls
6749 4676 Pls
6749 4739 Pls
6749 4587 Pls
6749 4637 Pls
6749 4601 Pls
6749 4609 Pls
6749 4586 Pls
6749 4584 Pls
6749 4554 Pls
6749 4557 Pls
6749 4630 Pls
6749 4650 Pls
6749 4630 Pls
6749 4610 Pls
6749 4631 Pls
6749 4601 Pls
6749 4569 Pls
6749 4466 Pls
6749 4581 Pls
6749 4627 Pls
6749 4260 Pls
6749 4440 Pls
6749 4521 Pls
6749 4527 Pls
6749 4326 Pls
6749 4552 Pls
6749 4648 Pls
6749 4565 Pls
6749 4464 Pls
6749 4484 Pls
6749 4661 Pls
6749 4546 Pls
6749 4229 Pls
6749 4500 Pls
6749 4550 Pls
6749 4574 Pls
6749 4331 Pls
6749 4454 Pls
6749 4499 Pls
6749 4435 Pls
1225 4559 Pls
1225 4639 Pls
1225 4644 Pls
1225 4676 Pls
1225 4666 Pls
1225 4544 Pls
1225 4653 Pls
1225 4653 Pls
1225 4586 Pls
1225 4628 Pls
1225 4694 Pls
1225 4675 Pls
1225 4145 Pls
1225 4568 Pls
1225 4576 Pls
1225 4677 Pls
1225 4651 Pls
1225 4427 Pls
1225 4588 Pls
1225 4614 Pls
1225 4343 Pls
1225 4581 Pls
1225 4569 Pls
1225 4656 Pls
1225 4551 Pls
1225 4527 Pls
1225 4604 Pls
1225 4631 Pls
1225 4322 Pls
1225 4480 Pls
1225 4657 Pls
1225 4668 Pls
1225 4468 Pls
1225 4555 Pls
1225 4638 Pls
1225 4655 Pls
1225 4280 Pls
1225 4471 Pls
1225 4622 Pls
1225 4555 Pls
2606 4684 Pls
2606 4558 Pls
2606 4632 Pls
2606 4632 Pls
2606 4710 Pls
2606 4660 Pls
2606 4725 Pls
2606 4657 Pls
2606 4546 Pls
2606 4613 Pls
2606 4634 Pls
2606 4666 Pls
2606 4670 Pls
2606 4617 Pls
2606 4631 Pls
2606 4636 Pls
2606 4538 Pls
2606 4597 Pls
2606 4627 Pls
2606 4619 Pls
2606 4476 Pls
2606 4442 Pls
2606 4638 Pls
2606 4645 Pls
2606 4531 Pls
2606 4527 Pls
2606 4495 Pls
2606 4632 Pls
2606 4531 Pls
2606 4578 Pls
2606 4584 Pls
2606 4611 Pls
2606 4442 Pls
2606 4581 Pls
2606 4612 Pls
2606 4629 Pls
2606 4614 Pls
2606 4592 Pls
2606 4467 Pls
2606 4655 Pls
3987 4632 Pls
3987 4509 Pls
3987 4629 Pls
3987 4639 Pls
3987 4622 Pls
3987 4659 Pls
3987 4652 Pls
3987 4682 Pls
3987 4650 Pls
3987 4629 Pls
3987 4629 Pls
3987 4582 Pls
3987 4498 Pls
3987 4648 Pls
3987 4614 Pls
3987 4578 Pls
3987 4501 Pls
3987 4529 Pls
3987 4499 Pls
3987 4575 Pls
3987 4676 Pls
3987 4425 Pls
3987 4625 Pls
3987 4582 Pls
3987 4489 Pls
3987 4636 Pls
3987 4549 Pls
3987 4606 Pls
3987 3899 Pls
3987 4688 Pls
3987 4644 Pls
3987 4608 Pls
3987 4406 Pls
3987 4450 Pls
3987 4628 Pls
3987 4553 Pls
3987 4311 Pls
3987 4498 Pls
3987 4536 Pls
3987 4632 Pls
5368 4650 Pls
5368 4672 Pls
5368 4650 Pls
5368 4669 Pls
5368 4673 Pls
5368 4548 Pls
5368 4676 Pls
5368 4580 Pls
5368 4640 Pls
5368 4641 Pls
5368 4554 Pls
5368 4602 Pls
5368 4713 Pls
5368 4659 Pls
5368 4651 Pls
5368 4596 Pls
5368 4613 Pls
5368 4678 Pls
5368 4599 Pls
5368 4627 Pls
5368 4676 Pls
5368 4662 Pls
5368 4575 Pls
5368 4504 Pls
5368 4314 Pls
5368 4359 Pls
5368 4513 Pls
5368 4576 Pls
5368 4172 Pls
5368 4410 Pls
5368 4468 Pls
5368 4587 Pls
5368 4268 Pls
5368 4581 Pls
5368 4382 Pls
5368 4558 Pls
5368 4357 Pls
5368 4275 Pls
5368 4505 Pls
5368 4624 Pls
6749 4640 Pls
6749 4721 Pls
6749 4598 Pls
6749 4610 Pls
6749 4710 Pls
6749 4644 Pls
6749 4649 Pls
6749 4659 Pls
6749 4606 Pls
6749 4608 Pls
6749 4600 Pls
6749 4661 Pls
6749 4666 Pls
6749 4639 Pls
6749 4643 Pls
6749 4598 Pls
6749 4626 Pls
6749 4678 Pls
6749 4607 Pls
6749 4669 Pls
6749 4197 Pls
6749 4394 Pls
6749 4610 Pls
6749 4633 Pls
6749 4005 Pls
6749 4468 Pls
6749 4464 Pls
6749 4602 Pls
6749 4414 Pls
6749 4446 Pls
6749 4462 Pls
6749 4457 Pls
6749 4614 Pls
6749 4434 Pls
6749 4605 Pls
6749 4535 Pls
6749 4176 Pls
6749 4297 Pls
6749 4469 Pls
6749 4577 Pls
% End plot #1
% Begin plot #2
8.000 UL
LT1
LCb setrgbcolor
2425 1488 M
[ [(Helvetica) 250.0 0.0 true true 0 (Average)]
] -83.3 MRshow
LT1
2575 1488 M
663 0 V
1225 4512 M
2606 4393 L
3987 4251 L
5368 4118 L
6749 3989 L
% End plot #2
% Begin plot #3
stroke
4.000 UL
LT2
LCb setrgbcolor
2425 1238 M
[ [(Helvetica) 250.0 0.0 true true 0 (Min)]
] -83.3 MRshow
LT2
2575 1238 M
663 0 V
1225 3203 M
2606 2069 L
3987 1298 L
5368 1076 L
6749 898 L
% End plot #3
% Begin plot #4
stroke
LT3
LCb setrgbcolor
2425 988 M
[ [(Helvetica) 250.0 0.0 true true 0 (Max)]
] -83.3 MRshow
LT3
2575 988 M
663 0 V
1225 4727 M
1381 12 V
1381 0 V
1381 0 V
1381 0 V
% End plot #4
stroke
1.000 UL
LTb
1225 4739 N
0 -3939 V
5524 0 V
0 3939 V
-5524 0 V
Z stroke
1.000 UP
1.000 UL
LTb
stroke
grestore
end
showpage
%%Trailer
%%DocumentFonts: Helvetica
