%!PS-Adobe-2.0 EPSF-2.0
%%Title: r_orig_length-time.eps
%%Creator: gnuplot 4.4 patchlevel 3
%%CreationDate: Fri Jun 14 19:20:07 2013
%%DocumentFonts: (atend)
%%BoundingBox: 50 50 410 302
%%EndComments
%%BeginProlog
/gnudict 256 dict def
gnudict begin
%
% The following true/false flags may be edited by hand if desired.
% The unit line width and grayscale image gamma correction may also be changed.
%
/Color true def
/Blacktext false def
/Solid false def
/Dashlength 1 def
/Landscape false def
/Level1 false def
/Rounded false def
/ClipToBoundingBox false def
/TransparentPatterns false def
/gnulinewidth 5.000 def
/userlinewidth gnulinewidth def
/Gamma 1.0 def
%
/vshift -83 def
/dl1 {
  10.0 Dashlength mul mul
  Rounded { currentlinewidth 0.75 mul sub dup 0 le { pop 0.01 } if } if
} def
/dl2 {
  10.0 Dashlength mul mul
  Rounded { currentlinewidth 0.75 mul add } if
} def
/hpt_ 31.5 def
/vpt_ 31.5 def
/hpt hpt_ def
/vpt vpt_ def
Level1 {} {
/SDict 10 dict def
systemdict /pdfmark known not {
  userdict /pdfmark systemdict /cleartomark get put
} if
SDict begin [
  /Title (r_orig_length-time.eps)
  /Subject (gnuplot plot)
  /Creator (gnuplot 4.4 patchlevel 3)
  /Author (xjia)
%  /Producer (gnuplot)
%  /Keywords ()
  /CreationDate (Fri Jun 14 19:20:07 2013)
  /DOCINFO pdfmark
end
} ifelse
/doclip {
  ClipToBoundingBox {
    newpath 50 50 moveto 410 50 lineto 410 302 lineto 50 302 lineto closepath
    clip
  } if
} def
%
% Gnuplot Prolog Version 4.4 (August 2010)
%
%/SuppressPDFMark true def
%
/M {moveto} bind def
/L {lineto} bind def
/R {rmoveto} bind def
/V {rlineto} bind def
/N {newpath moveto} bind def
/Z {closepath} bind def
/C {setrgbcolor} bind def
/f {rlineto fill} bind def
/g {setgray} bind def
/Gshow {show} def   % May be redefined later in the file to support UTF-8
/vpt2 vpt 2 mul def
/hpt2 hpt 2 mul def
/Lshow {currentpoint stroke M 0 vshift R 
	Blacktext {gsave 0 setgray show grestore} {show} ifelse} def
/Rshow {currentpoint stroke M dup stringwidth pop neg vshift R
	Blacktext {gsave 0 setgray show grestore} {show} ifelse} def
/Cshow {currentpoint stroke M dup stringwidth pop -2 div vshift R 
	Blacktext {gsave 0 setgray show grestore} {show} ifelse} def
/UP {dup vpt_ mul /vpt exch def hpt_ mul /hpt exch def
  /hpt2 hpt 2 mul def /vpt2 vpt 2 mul def} def
/DL {Color {setrgbcolor Solid {pop []} if 0 setdash}
 {pop pop pop 0 setgray Solid {pop []} if 0 setdash} ifelse} def
/BL {stroke userlinewidth 2 mul setlinewidth
	Rounded {1 setlinejoin 1 setlinecap} if} def
/AL {stroke userlinewidth 2 div setlinewidth
	Rounded {1 setlinejoin 1 setlinecap} if} def
/UL {dup gnulinewidth mul /userlinewidth exch def
	dup 1 lt {pop 1} if 10 mul /udl exch def} def
/PL {stroke userlinewidth setlinewidth
	Rounded {1 setlinejoin 1 setlinecap} if} def
3.8 setmiterlimit
% Default Line colors
/LCw {1 1 1} def
/LCb {0 0 0} def
/LCa {0 0 0} def
/LC0 {1 0 0} def
/LC1 {0 1 0} def
/LC2 {0 0 1} def
/LC3 {1 0 1} def
/LC4 {0 1 1} def
/LC5 {1 1 0} def
/LC6 {0 0 0} def
/LC7 {1 0.3 0} def
/LC8 {0.5 0.5 0.5} def
% Default Line Types
/LTw {PL [] 1 setgray} def
/LTb {BL [] LCb DL} def
/LTa {AL [1 udl mul 2 udl mul] 0 setdash LCa setrgbcolor} def
/LT0 {PL [] LC0 DL} def
/LT1 {PL [4 dl1 2 dl2] LC1 DL} def
/LT2 {PL [2 dl1 3 dl2] LC2 DL} def
/LT3 {PL [1 dl1 1.5 dl2] LC3 DL} def
/LT4 {PL [6 dl1 2 dl2 1 dl1 2 dl2] LC4 DL} def
/LT5 {PL [3 dl1 3 dl2 1 dl1 3 dl2] LC5 DL} def
/LT6 {PL [2 dl1 2 dl2 2 dl1 6 dl2] LC6 DL} def
/LT7 {PL [1 dl1 2 dl2 6 dl1 2 dl2 1 dl1 2 dl2] LC7 DL} def
/LT8 {PL [2 dl1 2 dl2 2 dl1 2 dl2 2 dl1 2 dl2 2 dl1 4 dl2] LC8 DL} def
/Pnt {stroke [] 0 setdash gsave 1 setlinecap M 0 0 V stroke grestore} def
/Dia {stroke [] 0 setdash 2 copy vpt add M
  hpt neg vpt neg V hpt vpt neg V
  hpt vpt V hpt neg vpt V closepath stroke
  Pnt} def
/Pls {stroke [] 0 setdash vpt sub M 0 vpt2 V
  currentpoint stroke M
  hpt neg vpt neg R hpt2 0 V stroke
 } def
/Box {stroke [] 0 setdash 2 copy exch hpt sub exch vpt add M
  0 vpt2 neg V hpt2 0 V 0 vpt2 V
  hpt2 neg 0 V closepath stroke
  Pnt} def
/Crs {stroke [] 0 setdash exch hpt sub exch vpt add M
  hpt2 vpt2 neg V currentpoint stroke M
  hpt2 neg 0 R hpt2 vpt2 V stroke} def
/TriU {stroke [] 0 setdash 2 copy vpt 1.12 mul add M
  hpt neg vpt -1.62 mul V
  hpt 2 mul 0 V
  hpt neg vpt 1.62 mul V closepath stroke
  Pnt} def
/Star {2 copy Pls Crs} def
/BoxF {stroke [] 0 setdash exch hpt sub exch vpt add M
  0 vpt2 neg V hpt2 0 V 0 vpt2 V
  hpt2 neg 0 V closepath fill} def
/TriUF {stroke [] 0 setdash vpt 1.12 mul add M
  hpt neg vpt -1.62 mul V
  hpt 2 mul 0 V
  hpt neg vpt 1.62 mul V closepath fill} def
/TriD {stroke [] 0 setdash 2 copy vpt 1.12 mul sub M
  hpt neg vpt 1.62 mul V
  hpt 2 mul 0 V
  hpt neg vpt -1.62 mul V closepath stroke
  Pnt} def
/TriDF {stroke [] 0 setdash vpt 1.12 mul sub M
  hpt neg vpt 1.62 mul V
  hpt 2 mul 0 V
  hpt neg vpt -1.62 mul V closepath fill} def
/DiaF {stroke [] 0 setdash vpt add M
  hpt neg vpt neg V hpt vpt neg V
  hpt vpt V hpt neg vpt V closepath fill} def
/Pent {stroke [] 0 setdash 2 copy gsave
  translate 0 hpt M 4 {72 rotate 0 hpt L} repeat
  closepath stroke grestore Pnt} def
/PentF {stroke [] 0 setdash gsave
  translate 0 hpt M 4 {72 rotate 0 hpt L} repeat
  closepath fill grestore} def
/Circle {stroke [] 0 setdash 2 copy
  hpt 0 360 arc stroke Pnt} def
/CircleF {stroke [] 0 setdash hpt 0 360 arc fill} def
/C0 {BL [] 0 setdash 2 copy moveto vpt 90 450 arc} bind def
/C1 {BL [] 0 setdash 2 copy moveto
	2 copy vpt 0 90 arc closepath fill
	vpt 0 360 arc closepath} bind def
/C2 {BL [] 0 setdash 2 copy moveto
	2 copy vpt 90 180 arc closepath fill
	vpt 0 360 arc closepath} bind def
/C3 {BL [] 0 setdash 2 copy moveto
	2 copy vpt 0 180 arc closepath fill
	vpt 0 360 arc closepath} bind def
/C4 {BL [] 0 setdash 2 copy moveto
	2 copy vpt 180 270 arc closepath fill
	vpt 0 360 arc closepath} bind def
/C5 {BL [] 0 setdash 2 copy moveto
	2 copy vpt 0 90 arc
	2 copy moveto
	2 copy vpt 180 270 arc closepath fill
	vpt 0 360 arc} bind def
/C6 {BL [] 0 setdash 2 copy moveto
	2 copy vpt 90 270 arc closepath fill
	vpt 0 360 arc closepath} bind def
/C7 {BL [] 0 setdash 2 copy moveto
	2 copy vpt 0 270 arc closepath fill
	vpt 0 360 arc closepath} bind def
/C8 {BL [] 0 setdash 2 copy moveto
	2 copy vpt 270 360 arc closepath fill
	vpt 0 360 arc closepath} bind def
/C9 {BL [] 0 setdash 2 copy moveto
	2 copy vpt 270 450 arc closepath fill
	vpt 0 360 arc closepath} bind def
/C10 {BL [] 0 setdash 2 copy 2 copy moveto vpt 270 360 arc closepath fill
	2 copy moveto
	2 copy vpt 90 180 arc closepath fill
	vpt 0 360 arc closepath} bind def
/C11 {BL [] 0 setdash 2 copy moveto
	2 copy vpt 0 180 arc closepath fill
	2 copy moveto
	2 copy vpt 270 360 arc closepath fill
	vpt 0 360 arc closepath} bind def
/C12 {BL [] 0 setdash 2 copy moveto
	2 copy vpt 180 360 arc closepath fill
	vpt 0 360 arc closepath} bind def
/C13 {BL [] 0 setdash 2 copy moveto
	2 copy vpt 0 90 arc closepath fill
	2 copy moveto
	2 copy vpt 180 360 arc closepath fill
	vpt 0 360 arc closepath} bind def
/C14 {BL [] 0 setdash 2 copy moveto
	2 copy vpt 90 360 arc closepath fill
	vpt 0 360 arc} bind def
/C15 {BL [] 0 setdash 2 copy vpt 0 360 arc closepath fill
	vpt 0 360 arc closepath} bind def
/Rec {newpath 4 2 roll moveto 1 index 0 rlineto 0 exch rlineto
	neg 0 rlineto closepath} bind def
/Square {dup Rec} bind def
/Bsquare {vpt sub exch vpt sub exch vpt2 Square} bind def
/S0 {BL [] 0 setdash 2 copy moveto 0 vpt rlineto BL Bsquare} bind def
/S1 {BL [] 0 setdash 2 copy vpt Square fill Bsquare} bind def
/S2 {BL [] 0 setdash 2 copy exch vpt sub exch vpt Square fill Bsquare} bind def
/S3 {BL [] 0 setdash 2 copy exch vpt sub exch vpt2 vpt Rec fill Bsquare} bind def
/S4 {BL [] 0 setdash 2 copy exch vpt sub exch vpt sub vpt Square fill Bsquare} bind def
/S5 {BL [] 0 setdash 2 copy 2 copy vpt Square fill
	exch vpt sub exch vpt sub vpt Square fill Bsquare} bind def
/S6 {BL [] 0 setdash 2 copy exch vpt sub exch vpt sub vpt vpt2 Rec fill Bsquare} bind def
/S7 {BL [] 0 setdash 2 copy exch vpt sub exch vpt sub vpt vpt2 Rec fill
	2 copy vpt Square fill Bsquare} bind def
/S8 {BL [] 0 setdash 2 copy vpt sub vpt Square fill Bsquare} bind def
/S9 {BL [] 0 setdash 2 copy vpt sub vpt vpt2 Rec fill Bsquare} bind def
/S10 {BL [] 0 setdash 2 copy vpt sub vpt Square fill 2 copy exch vpt sub exch vpt Square fill
	Bsquare} bind def
/S11 {BL [] 0 setdash 2 copy vpt sub vpt Square fill 2 copy exch vpt sub exch vpt2 vpt Rec fill
	Bsquare} bind def
/S12 {BL [] 0 setdash 2 copy exch vpt sub exch vpt sub vpt2 vpt Rec fill Bsquare} bind def
/S13 {BL [] 0 setdash 2 copy exch vpt sub exch vpt sub vpt2 vpt Rec fill
	2 copy vpt Square fill Bsquare} bind def
/S14 {BL [] 0 setdash 2 copy exch vpt sub exch vpt sub vpt2 vpt Rec fill
	2 copy exch vpt sub exch vpt Square fill Bsquare} bind def
/S15 {BL [] 0 setdash 2 copy Bsquare fill Bsquare} bind def
/D0 {gsave translate 45 rotate 0 0 S0 stroke grestore} bind def
/D1 {gsave translate 45 rotate 0 0 S1 stroke grestore} bind def
/D2 {gsave translate 45 rotate 0 0 S2 stroke grestore} bind def
/D3 {gsave translate 45 rotate 0 0 S3 stroke grestore} bind def
/D4 {gsave translate 45 rotate 0 0 S4 stroke grestore} bind def
/D5 {gsave translate 45 rotate 0 0 S5 stroke grestore} bind def
/D6 {gsave translate 45 rotate 0 0 S6 stroke grestore} bind def
/D7 {gsave translate 45 rotate 0 0 S7 stroke grestore} bind def
/D8 {gsave translate 45 rotate 0 0 S8 stroke grestore} bind def
/D9 {gsave translate 45 rotate 0 0 S9 stroke grestore} bind def
/D10 {gsave translate 45 rotate 0 0 S10 stroke grestore} bind def
/D11 {gsave translate 45 rotate 0 0 S11 stroke grestore} bind def
/D12 {gsave translate 45 rotate 0 0 S12 stroke grestore} bind def
/D13 {gsave translate 45 rotate 0 0 S13 stroke grestore} bind def
/D14 {gsave translate 45 rotate 0 0 S14 stroke grestore} bind def
/D15 {gsave translate 45 rotate 0 0 S15 stroke grestore} bind def
/DiaE {stroke [] 0 setdash vpt add M
  hpt neg vpt neg V hpt vpt neg V
  hpt vpt V hpt neg vpt V closepath stroke} def
/BoxE {stroke [] 0 setdash exch hpt sub exch vpt add M
  0 vpt2 neg V hpt2 0 V 0 vpt2 V
  hpt2 neg 0 V closepath stroke} def
/TriUE {stroke [] 0 setdash vpt 1.12 mul add M
  hpt neg vpt -1.62 mul V
  hpt 2 mul 0 V
  hpt neg vpt 1.62 mul V closepath stroke} def
/TriDE {stroke [] 0 setdash vpt 1.12 mul sub M
  hpt neg vpt 1.62 mul V
  hpt 2 mul 0 V
  hpt neg vpt -1.62 mul V closepath stroke} def
/PentE {stroke [] 0 setdash gsave
  translate 0 hpt M 4 {72 rotate 0 hpt L} repeat
  closepath stroke grestore} def
/CircE {stroke [] 0 setdash 
  hpt 0 360 arc stroke} def
/Opaque {gsave closepath 1 setgray fill grestore 0 setgray closepath} def
/DiaW {stroke [] 0 setdash vpt add M
  hpt neg vpt neg V hpt vpt neg V
  hpt vpt V hpt neg vpt V Opaque stroke} def
/BoxW {stroke [] 0 setdash exch hpt sub exch vpt add M
  0 vpt2 neg V hpt2 0 V 0 vpt2 V
  hpt2 neg 0 V Opaque stroke} def
/TriUW {stroke [] 0 setdash vpt 1.12 mul add M
  hpt neg vpt -1.62 mul V
  hpt 2 mul 0 V
  hpt neg vpt 1.62 mul V Opaque stroke} def
/TriDW {stroke [] 0 setdash vpt 1.12 mul sub M
  hpt neg vpt 1.62 mul V
  hpt 2 mul 0 V
  hpt neg vpt -1.62 mul V Opaque stroke} def
/PentW {stroke [] 0 setdash gsave
  translate 0 hpt M 4 {72 rotate 0 hpt L} repeat
  Opaque stroke grestore} def
/CircW {stroke [] 0 setdash 
  hpt 0 360 arc Opaque stroke} def
/BoxFill {gsave Rec 1 setgray fill grestore} def
/Density {
  /Fillden exch def
  currentrgbcolor
  /ColB exch def /ColG exch def /ColR exch def
  /ColR ColR Fillden mul Fillden sub 1 add def
  /ColG ColG Fillden mul Fillden sub 1 add def
  /ColB ColB Fillden mul Fillden sub 1 add def
  ColR ColG ColB setrgbcolor} def
/BoxColFill {gsave Rec PolyFill} def
/PolyFill {gsave Density fill grestore grestore} def
/h {rlineto rlineto rlineto gsave closepath fill grestore} bind def
%
% PostScript Level 1 Pattern Fill routine for rectangles
% Usage: x y w h s a XX PatternFill
%	x,y = lower left corner of box to be filled
%	w,h = width and height of box
%	  a = angle in degrees between lines and x-axis
%	 XX = 0/1 for no/yes cross-hatch
%
/PatternFill {gsave /PFa [ 9 2 roll ] def
  PFa 0 get PFa 2 get 2 div add PFa 1 get PFa 3 get 2 div add translate
  PFa 2 get -2 div PFa 3 get -2 div PFa 2 get PFa 3 get Rec
  gsave 1 setgray fill grestore clip
  currentlinewidth 0.5 mul setlinewidth
  /PFs PFa 2 get dup mul PFa 3 get dup mul add sqrt def
  0 0 M PFa 5 get rotate PFs -2 div dup translate
  0 1 PFs PFa 4 get div 1 add floor cvi
	{PFa 4 get mul 0 M 0 PFs V} for
  0 PFa 6 get ne {
	0 1 PFs PFa 4 get div 1 add floor cvi
	{PFa 4 get mul 0 2 1 roll M PFs 0 V} for
 } if
  stroke grestore} def
%
/languagelevel where
 {pop languagelevel} {1} ifelse
 2 lt
	{/InterpretLevel1 true def}
	{/InterpretLevel1 Level1 def}
 ifelse
%
% PostScript level 2 pattern fill definitions
%
/Level2PatternFill {
/Tile8x8 {/PaintType 2 /PatternType 1 /TilingType 1 /BBox [0 0 8 8] /XStep 8 /YStep 8}
	bind def
/KeepColor {currentrgbcolor [/Pattern /DeviceRGB] setcolorspace} bind def
<< Tile8x8
 /PaintProc {0.5 setlinewidth pop 0 0 M 8 8 L 0 8 M 8 0 L stroke} 
>> matrix makepattern
/Pat1 exch def
<< Tile8x8
 /PaintProc {0.5 setlinewidth pop 0 0 M 8 8 L 0 8 M 8 0 L stroke
	0 4 M 4 8 L 8 4 L 4 0 L 0 4 L stroke}
>> matrix makepattern
/Pat2 exch def
<< Tile8x8
 /PaintProc {0.5 setlinewidth pop 0 0 M 0 8 L
	8 8 L 8 0 L 0 0 L fill}
>> matrix makepattern
/Pat3 exch def
<< Tile8x8
 /PaintProc {0.5 setlinewidth pop -4 8 M 8 -4 L
	0 12 M 12 0 L stroke}
>> matrix makepattern
/Pat4 exch def
<< Tile8x8
 /PaintProc {0.5 setlinewidth pop -4 0 M 8 12 L
	0 -4 M 12 8 L stroke}
>> matrix makepattern
/Pat5 exch def
<< Tile8x8
 /PaintProc {0.5 setlinewidth pop -2 8 M 4 -4 L
	0 12 M 8 -4 L 4 12 M 10 0 L stroke}
>> matrix makepattern
/Pat6 exch def
<< Tile8x8
 /PaintProc {0.5 setlinewidth pop -2 0 M 4 12 L
	0 -4 M 8 12 L 4 -4 M 10 8 L stroke}
>> matrix makepattern
/Pat7 exch def
<< Tile8x8
 /PaintProc {0.5 setlinewidth pop 8 -2 M -4 4 L
	12 0 M -4 8 L 12 4 M 0 10 L stroke}
>> matrix makepattern
/Pat8 exch def
<< Tile8x8
 /PaintProc {0.5 setlinewidth pop 0 -2 M 12 4 L
	-4 0 M 12 8 L -4 4 M 8 10 L stroke}
>> matrix makepattern
/Pat9 exch def
/Pattern1 {PatternBgnd KeepColor Pat1 setpattern} bind def
/Pattern2 {PatternBgnd KeepColor Pat2 setpattern} bind def
/Pattern3 {PatternBgnd KeepColor Pat3 setpattern} bind def
/Pattern4 {PatternBgnd KeepColor Landscape {Pat5} {Pat4} ifelse setpattern} bind def
/Pattern5 {PatternBgnd KeepColor Landscape {Pat4} {Pat5} ifelse setpattern} bind def
/Pattern6 {PatternBgnd KeepColor Landscape {Pat9} {Pat6} ifelse setpattern} bind def
/Pattern7 {PatternBgnd KeepColor Landscape {Pat8} {Pat7} ifelse setpattern} bind def
} def
%
%
%End of PostScript Level 2 code
%
/PatternBgnd {
  TransparentPatterns {} {gsave 1 setgray fill grestore} ifelse
} def
%
% Substitute for Level 2 pattern fill codes with
% grayscale if Level 2 support is not selected.
%
/Level1PatternFill {
/Pattern1 {0.250 Density} bind def
/Pattern2 {0.500 Density} bind def
/Pattern3 {0.750 Density} bind def
/Pattern4 {0.125 Density} bind def
/Pattern5 {0.375 Density} bind def
/Pattern6 {0.625 Density} bind def
/Pattern7 {0.875 Density} bind def
} def
%
% Now test for support of Level 2 code
%
Level1 {Level1PatternFill} {Level2PatternFill} ifelse
%
/Symbol-Oblique /Symbol findfont [1 0 .167 1 0 0] makefont
dup length dict begin {1 index /FID eq {pop pop} {def} ifelse} forall
currentdict end definefont pop
/MFshow {
   { dup 5 get 3 ge
     { 5 get 3 eq {gsave} {grestore} ifelse }
     {dup dup 0 get findfont exch 1 get scalefont setfont
     [ currentpoint ] exch dup 2 get 0 exch R dup 5 get 2 ne {dup dup 6
     get exch 4 get {Gshow} {stringwidth pop 0 R} ifelse }if dup 5 get 0 eq
     {dup 3 get {2 get neg 0 exch R pop} {pop aload pop M} ifelse} {dup 5
     get 1 eq {dup 2 get exch dup 3 get exch 6 get stringwidth pop -2 div
     dup 0 R} {dup 6 get stringwidth pop -2 div 0 R 6 get
     show 2 index {aload pop M neg 3 -1 roll neg R pop pop} {pop pop pop
     pop aload pop M} ifelse }ifelse }ifelse }
     ifelse }
   forall} def
/Gswidth {dup type /stringtype eq {stringwidth} {pop (n) stringwidth} ifelse} def
/MFwidth {0 exch { dup 5 get 3 ge { 5 get 3 eq { 0 } { pop } ifelse }
 {dup 3 get{dup dup 0 get findfont exch 1 get scalefont setfont
     6 get Gswidth pop add} {pop} ifelse} ifelse} forall} def
/MLshow { currentpoint stroke M
  0 exch R
  Blacktext {gsave 0 setgray MFshow grestore} {MFshow} ifelse } bind def
/MRshow { currentpoint stroke M
  exch dup MFwidth neg 3 -1 roll R
  Blacktext {gsave 0 setgray MFshow grestore} {MFshow} ifelse } bind def
/MCshow { currentpoint stroke M
  exch dup MFwidth -2 div 3 -1 roll R
  Blacktext {gsave 0 setgray MFshow grestore} {MFshow} ifelse } bind def
/XYsave    { [( ) 1 2 true false 3 ()] } bind def
/XYrestore { [( ) 1 2 true false 4 ()] } bind def
end
%%EndProlog
gnudict begin
gsave
doclip
50 50 translate
0.050 0.050 scale
0 setgray
newpath
(Helvetica) findfont 250 scalefont setfont
1.000 UL
LTb
1225 800 M
63 0 V
5461 0 R
-63 0 V
stroke
1075 800 M
[ [(Helvetica) 250.0 0.0 true true 0 ( 0)]
] -83.3 MRshow
1.000 UL
LTb
1225 1457 M
63 0 V
5461 0 R
-63 0 V
stroke
1075 1457 M
[ [(Helvetica) 250.0 0.0 true true 0 ( 0.5)]
] -83.3 MRshow
1.000 UL
LTb
1225 2113 M
63 0 V
5461 0 R
-63 0 V
stroke
1075 2113 M
[ [(Helvetica) 250.0 0.0 true true 0 ( 1)]
] -83.3 MRshow
1.000 UL
LTb
1225 2770 M
63 0 V
5461 0 R
-63 0 V
stroke
1075 2770 M
[ [(Helvetica) 250.0 0.0 true true 0 ( 1.5)]
] -83.3 MRshow
1.000 UL
LTb
1225 3426 M
63 0 V
5461 0 R
-63 0 V
stroke
1075 3426 M
[ [(Helvetica) 250.0 0.0 true true 0 ( 2)]
] -83.3 MRshow
1.000 UL
LTb
1225 4083 M
63 0 V
5461 0 R
-63 0 V
stroke
1075 4083 M
[ [(Helvetica) 250.0 0.0 true true 0 ( 2.5)]
] -83.3 MRshow
1.000 UL
LTb
1225 4739 M
63 0 V
5461 0 R
-63 0 V
stroke
1075 4739 M
[ [(Helvetica) 250.0 0.0 true true 0 ( 3)]
] -83.3 MRshow
1.000 UL
LTb
1225 800 M
0 63 V
0 3876 R
0 -63 V
stroke
1225 550 M
[ [(Helvetica) 250.0 0.0 true true 0 ( 20)]
] -83.3 MCshow
1.000 UL
LTb
1916 800 M
0 63 V
0 3876 R
0 -63 V
stroke
1916 550 M
[ [(Helvetica) 250.0 0.0 true true 0 ( 30)]
] -83.3 MCshow
1.000 UL
LTb
2606 800 M
0 63 V
0 3876 R
0 -63 V
stroke
2606 550 M
[ [(Helvetica) 250.0 0.0 true true 0 ( 40)]
] -83.3 MCshow
1.000 UL
LTb
3297 800 M
0 63 V
0 3876 R
0 -63 V
stroke
3297 550 M
[ [(Helvetica) 250.0 0.0 true true 0 ( 50)]
] -83.3 MCshow
1.000 UL
LTb
3987 800 M
0 63 V
0 3876 R
0 -63 V
stroke
3987 550 M
[ [(Helvetica) 250.0 0.0 true true 0 ( 60)]
] -83.3 MCshow
1.000 UL
LTb
4678 800 M
0 63 V
0 3876 R
0 -63 V
stroke
4678 550 M
[ [(Helvetica) 250.0 0.0 true true 0 ( 70)]
] -83.3 MCshow
1.000 UL
LTb
5368 800 M
0 63 V
0 3876 R
0 -63 V
stroke
5368 550 M
[ [(Helvetica) 250.0 0.0 true true 0 ( 80)]
] -83.3 MCshow
1.000 UL
LTb
6059 800 M
0 63 V
0 3876 R
0 -63 V
stroke
6059 550 M
[ [(Helvetica) 250.0 0.0 true true 0 ( 90)]
] -83.3 MCshow
1.000 UL
LTb
6749 800 M
0 63 V
0 3876 R
0 -63 V
stroke
6749 550 M
[ [(Helvetica) 250.0 0.0 true true 0 ( 100)]
] -83.3 MCshow
1.000 UL
LTb
1.000 UL
LTb
1225 4739 N
0 -3939 V
5524 0 V
0 3939 V
-5524 0 V
Z stroke
LCb setrgbcolor
200 2769 M
currentpoint gsave translate -270 rotate 0 0 moveto
[ [(Helvetica) 250.0 0.0 true true 0 (Time \(sec\))]
] -83.3 MCshow
grestore
LTb
LCb setrgbcolor
3987 175 M
[ [(Helvetica) 250.0 0.0 true true 0 (Original Length)]
] -83.3 MCshow
LTb
1.000 UP
1.000 UL
LTb
% Begin plot #1
1.000 UP
1.000 UL
LT0
1225 802 Pls
1225 802 Pls
1225 803 Pls
1225 804 Pls
1225 801 Pls
1225 802 Pls
1225 803 Pls
1225 804 Pls
1225 801 Pls
1225 802 Pls
1225 802 Pls
1225 804 Pls
1225 801 Pls
1225 801 Pls
1225 802 Pls
1225 803 Pls
1225 800 Pls
1225 801 Pls
1225 801 Pls
1225 802 Pls
1225 801 Pls
1225 801 Pls
1225 802 Pls
1225 802 Pls
1225 801 Pls
1225 802 Pls
1225 802 Pls
1225 802 Pls
1225 801 Pls
1225 802 Pls
1225 803 Pls
1225 803 Pls
1225 802 Pls
1225 802 Pls
1225 803 Pls
1225 803 Pls
1225 802 Pls
1225 803 Pls
1225 803 Pls
1225 804 Pls
2606 812 Pls
2606 817 Pls
2606 819 Pls
2606 826 Pls
2606 810 Pls
2606 812 Pls
2606 817 Pls
2606 822 Pls
2606 807 Pls
2606 812 Pls
2606 814 Pls
2606 819 Pls
2606 806 Pls
2606 811 Pls
2606 812 Pls
2606 816 Pls
2606 804 Pls
2606 807 Pls
2606 810 Pls
2606 813 Pls
2606 811 Pls
2606 816 Pls
2606 819 Pls
2606 822 Pls
2606 816 Pls
2606 823 Pls
2606 825 Pls
2606 829 Pls
2606 822 Pls
2606 828 Pls
2606 834 Pls
2606 837 Pls
2606 830 Pls
2606 835 Pls
2606 841 Pls
2606 844 Pls
2606 836 Pls
2606 846 Pls
2606 850 Pls
2606 855 Pls
3987 840 Pls
3987 841 Pls
3987 872 Pls
3987 895 Pls
3987 833 Pls
3987 857 Pls
3987 867 Pls
3987 880 Pls
3987 825 Pls
3987 829 Pls
3987 852 Pls
3987 874 Pls
3987 819 Pls
3987 828 Pls
3987 834 Pls
3987 852 Pls
3987 817 Pls
3987 821 Pls
3987 825 Pls
3987 839 Pls
3987 846 Pls
3987 858 Pls
3987 876 Pls
3987 890 Pls
3987 874 Pls
3987 892 Pls
3987 905 Pls
3987 926 Pls
3987 907 Pls
3987 910 Pls
3987 949 Pls
3987 963 Pls
3987 950 Pls
3987 974 Pls
3987 988 Pls
3987 1007 Pls
3987 991 Pls
3987 1023 Pls
3987 1018 Pls
3987 1054 Pls
5368 928 Pls
5368 960 Pls
5368 1042 Pls
5368 1110 Pls
5368 897 Pls
5368 939 Pls
5368 1003 Pls
5368 1070 Pls
5368 892 Pls
5368 900 Pls
5368 930 Pls
5368 1009 Pls
5368 861 Pls
5368 868 Pls
5368 925 Pls
5368 949 Pls
5368 846 Pls
5368 847 Pls
5368 869 Pls
5368 897 Pls
5368 947 Pls
5368 999 Pls
5368 1070 Pls
5368 1090 Pls
5368 1068 Pls
5368 1161 Pls
5368 1166 Pls
5368 1209 Pls
5368 1202 Pls
5368 1287 Pls
5368 1330 Pls
5368 1343 Pls
5368 1414 Pls
5368 1433 Pls
5368 1416 Pls
5368 1502 Pls
5368 1505 Pls
5368 1604 Pls
5368 1652 Pls
5368 1687 Pls
6749 1047 Pls
6749 1188 Pls
6749 1298 Pls
6749 1499 Pls
6749 1021 Pls
6749 1070 Pls
6749 1249 Pls
6749 1353 Pls
6749 1008 Pls
6749 1099 Pls
6749 1206 Pls
6749 1273 Pls
6749 946 Pls
6749 979 Pls
6749 1040 Pls
6749 1174 Pls
6749 919 Pls
6749 934 Pls
6749 1005 Pls
6749 1075 Pls
6749 1411 Pls
6749 1567 Pls
6749 1703 Pls
6749 1812 Pls
6749 1696 Pls
6749 2063 Pls
6749 2375 Pls
6749 2485 Pls
6749 2444 Pls
6749 2730 Pls
6749 2965 Pls
6749 3194 Pls
6749 3138 Pls
6749 3406 Pls
6749 3671 Pls
6749 3787 Pls
6749 3638 Pls
6749 4234 Pls
6749 4444 Pls
6749 4299 Pls
1225 802 Pls
1225 802 Pls
1225 803 Pls
1225 805 Pls
1225 801 Pls
1225 802 Pls
1225 803 Pls
1225 804 Pls
1225 801 Pls
1225 802 Pls
1225 803 Pls
1225 804 Pls
1225 801 Pls
1225 801 Pls
1225 802 Pls
1225 803 Pls
1225 800 Pls
1225 801 Pls
1225 801 Pls
1225 802 Pls
1225 801 Pls
1225 801 Pls
1225 802 Pls
1225 802 Pls
1225 801 Pls
1225 802 Pls
1225 802 Pls
1225 802 Pls
1225 801 Pls
1225 802 Pls
1225 802 Pls
1225 803 Pls
1225 802 Pls
1225 802 Pls
1225 803 Pls
1225 803 Pls
1225 802 Pls
1225 803 Pls
1225 803 Pls
1225 804 Pls
2606 811 Pls
2606 817 Pls
2606 821 Pls
2606 832 Pls
2606 811 Pls
2606 814 Pls
2606 817 Pls
2606 822 Pls
2606 807 Pls
2606 810 Pls
2606 814 Pls
2606 821 Pls
2606 806 Pls
2606 810 Pls
2606 812 Pls
2606 817 Pls
2606 804 Pls
2606 807 Pls
2606 810 Pls
2606 813 Pls
2606 811 Pls
2606 813 Pls
2606 820 Pls
2606 823 Pls
2606 817 Pls
2606 822 Pls
2606 825 Pls
2606 831 Pls
2606 823 Pls
2606 827 Pls
2606 834 Pls
2606 836 Pls
2606 829 Pls
2606 837 Pls
2606 841 Pls
2606 846 Pls
2606 839 Pls
2606 844 Pls
2606 848 Pls
2606 851 Pls
3987 843 Pls
3987 866 Pls
3987 886 Pls
3987 907 Pls
3987 839 Pls
3987 847 Pls
3987 858 Pls
3987 879 Pls
3987 829 Pls
3987 834 Pls
3987 853 Pls
3987 864 Pls
3987 820 Pls
3987 827 Pls
3987 842 Pls
3987 847 Pls
3987 816 Pls
3987 830 Pls
3987 831 Pls
3987 838 Pls
3987 850 Pls
3987 866 Pls
3987 868 Pls
3987 898 Pls
3987 878 Pls
3987 895 Pls
3987 912 Pls
3987 920 Pls
3987 905 Pls
3987 935 Pls
3987 962 Pls
3987 964 Pls
3987 951 Pls
3987 977 Pls
3987 989 Pls
3987 1009 Pls
3987 990 Pls
3987 1007 Pls
3987 1032 Pls
3987 1043 Pls
5368 966 Pls
5368 960 Pls
5368 1057 Pls
5368 1139 Pls
5368 887 Pls
5368 928 Pls
5368 976 Pls
5368 1048 Pls
5368 861 Pls
5368 925 Pls
5368 955 Pls
5368 1000 Pls
5368 853 Pls
5368 853 Pls
5368 906 Pls
5368 936 Pls
5368 851 Pls
5368 847 Pls
5368 880 Pls
5368 902 Pls
5368 954 Pls
5368 1019 Pls
5368 1041 Pls
5368 1088 Pls
5368 1076 Pls
5368 1151 Pls
5368 1177 Pls
5368 1207 Pls
5368 1238 Pls
5368 1246 Pls
5368 1297 Pls
5368 1387 Pls
5368 1368 Pls
5368 1308 Pls
5368 1434 Pls
5368 1539 Pls
5368 1513 Pls
5368 1552 Pls
5368 1630 Pls
5368 1720 Pls
6749 1162 Pls
6749 1137 Pls
6749 1299 Pls
6749 1380 Pls
6749 1015 Pls
6749 1089 Pls
6749 1277 Pls
6749 1355 Pls
6749 1006 Pls
6749 1086 Pls
6749 1145 Pls
6749 1253 Pls
6749 960 Pls
6749 986 Pls
6749 1107 Pls
6749 1161 Pls
6749 916 Pls
6749 953 Pls
6749 1016 Pls
6749 1067 Pls
6749 1382 Pls
6749 1542 Pls
6749 1693 Pls
6749 1882 Pls
6749 1994 Pls
6749 2036 Pls
6749 2380 Pls
6749 2316 Pls
6749 2375 Pls
6749 2679 Pls
6749 2934 Pls
6749 3078 Pls
6749 3226 Pls
6749 3340 Pls
6749 3597 Pls
6749 3816 Pls
6749 3781 Pls
6749 4198 Pls
6749 4453 Pls
6749 4642 Pls
1225 801 Pls
1225 802 Pls
1225 803 Pls
1225 805 Pls
1225 801 Pls
1225 801 Pls
1225 803 Pls
1225 804 Pls
1225 801 Pls
1225 801 Pls
1225 802 Pls
1225 804 Pls
1225 801 Pls
1225 801 Pls
1225 802 Pls
1225 803 Pls
1225 800 Pls
1225 801 Pls
1225 802 Pls
1225 802 Pls
1225 801 Pls
1225 801 Pls
1225 802 Pls
1225 802 Pls
1225 801 Pls
1225 802 Pls
1225 802 Pls
1225 802 Pls
1225 801 Pls
1225 802 Pls
1225 802 Pls
1225 803 Pls
1225 802 Pls
1225 802 Pls
1225 803 Pls
1225 803 Pls
1225 802 Pls
1225 803 Pls
1225 803 Pls
1225 804 Pls
2606 814 Pls
2606 814 Pls
2606 821 Pls
2606 833 Pls
2606 811 Pls
2606 814 Pls
2606 818 Pls
2606 823 Pls
2606 809 Pls
2606 811 Pls
2606 815 Pls
2606 819 Pls
2606 806 Pls
2606 807 Pls
2606 812 Pls
2606 816 Pls
2606 806 Pls
2606 807 Pls
2606 810 Pls
2606 813 Pls
2606 810 Pls
2606 814 Pls
2606 819 Pls
2606 824 Pls
2606 815 Pls
2606 822 Pls
2606 828 Pls
2606 829 Pls
2606 823 Pls
2606 829 Pls
2606 830 Pls
2606 835 Pls
2606 829 Pls
2606 836 Pls
2606 841 Pls
2606 845 Pls
2606 839 Pls
2606 845 Pls
2606 848 Pls
2606 852 Pls
3987 842 Pls
3987 865 Pls
3987 877 Pls
3987 915 Pls
3987 831 Pls
3987 845 Pls
3987 864 Pls
3987 880 Pls
3987 829 Pls
3987 839 Pls
3987 843 Pls
3987 862 Pls
3987 821 Pls
3987 829 Pls
3987 842 Pls
3987 846 Pls
3987 817 Pls
3987 822 Pls
3987 831 Pls
3987 839 Pls
3987 851 Pls
3987 862 Pls
3987 873 Pls
3987 887 Pls
3987 877 Pls
3987 896 Pls
3987 915 Pls
3987 920 Pls
3987 904 Pls
3987 941 Pls
3987 948 Pls
3987 958 Pls
3987 953 Pls
3987 973 Pls
3987 990 Pls
3987 1003 Pls
3987 992 Pls
3987 1013 Pls
3987 1030 Pls
3987 1053 Pls
5368 946 Pls
5368 996 Pls
5368 1051 Pls
5368 1144 Pls
5368 910 Pls
5368 988 Pls
5368 988 Pls
5368 1082 Pls
5368 874 Pls
5368 954 Pls
5368 953 Pls
5368 1009 Pls
5368 865 Pls
5368 874 Pls
5368 910 Pls
5368 961 Pls
5368 847 Pls
5368 878 Pls
5368 877 Pls
5368 908 Pls
5368 957 Pls
5368 1000 Pls
5368 1025 Pls
5368 1032 Pls
5368 1098 Pls
5368 1089 Pls
5368 1187 Pls
5368 1211 Pls
5368 1183 Pls
5368 1302 Pls
5368 1288 Pls
5368 1379 Pls
5368 1328 Pls
5368 1430 Pls
5368 1504 Pls
5368 1562 Pls
5368 1445 Pls
5368 1625 Pls
5368 1645 Pls
5368 1701 Pls
6749 1071 Pls
6749 1191 Pls
6749 1309 Pls
6749 1458 Pls
6749 1075 Pls
6749 1126 Pls
6749 1222 Pls
6749 1344 Pls
6749 1001 Pls
6749 993 Pls
6749 1208 Pls
6749 1222 Pls
6749 902 Pls
6749 986 Pls
6749 1033 Pls
6749 1146 Pls
6749 908 Pls
6749 945 Pls
6749 1013 Pls
6749 1069 Pls
6749 1423 Pls
6749 1598 Pls
6749 1704 Pls
6749 1866 Pls
6749 1937 Pls
6749 2132 Pls
6749 2316 Pls
6749 2379 Pls
6749 2499 Pls
6749 2830 Pls
6749 3002 Pls
6749 3085 Pls
6749 3025 Pls
6749 3468 Pls
6749 3784 Pls
6749 3767 Pls
6749 3658 Pls
6749 4382 Pls
6749 4296 Pls
6749 4531 Pls
1225 801 Pls
1225 802 Pls
1225 803 Pls
1225 805 Pls
1225 801 Pls
1225 802 Pls
1225 803 Pls
1225 804 Pls
1225 801 Pls
1225 802 Pls
1225 803 Pls
1225 803 Pls
1225 801 Pls
1225 801 Pls
1225 802 Pls
1225 803 Pls
1225 800 Pls
1225 801 Pls
1225 801 Pls
1225 802 Pls
1225 801 Pls
1225 801 Pls
1225 802 Pls
1225 802 Pls
1225 801 Pls
1225 802 Pls
1225 802 Pls
1225 802 Pls
1225 801 Pls
1225 802 Pls
1225 803 Pls
1225 803 Pls
1225 802 Pls
1225 802 Pls
1225 803 Pls
1225 803 Pls
1225 802 Pls
1225 803 Pls
1225 803 Pls
1225 804 Pls
2606 812 Pls
2606 820 Pls
2606 822 Pls
2606 828 Pls
2606 809 Pls
2606 813 Pls
2606 819 Pls
2606 824 Pls
2606 806 Pls
2606 812 Pls
2606 817 Pls
2606 820 Pls
2606 806 Pls
2606 808 Pls
2606 814 Pls
2606 816 Pls
2606 805 Pls
2606 807 Pls
2606 810 Pls
2606 813 Pls
2606 812 Pls
2606 814 Pls
2606 817 Pls
2606 825 Pls
2606 815 Pls
2606 824 Pls
2606 824 Pls
2606 829 Pls
2606 823 Pls
2606 828 Pls
2606 834 Pls
2606 838 Pls
2606 826 Pls
2606 838 Pls
2606 841 Pls
2606 844 Pls
2606 836 Pls
2606 844 Pls
2606 849 Pls
2606 855 Pls
3987 845 Pls
3987 853 Pls
3987 878 Pls
3987 921 Pls
3987 835 Pls
3987 845 Pls
3987 858 Pls
3987 882 Pls
3987 824 Pls
3987 845 Pls
3987 843 Pls
3987 864 Pls
3987 822 Pls
3987 827 Pls
3987 834 Pls
3987 850 Pls
3987 817 Pls
3987 828 Pls
3987 832 Pls
3987 844 Pls
3987 846 Pls
3987 862 Pls
3987 883 Pls
3987 895 Pls
3987 882 Pls
3987 895 Pls
3987 920 Pls
3987 928 Pls
3987 906 Pls
3987 934 Pls
3987 946 Pls
3987 958 Pls
3987 944 Pls
3987 973 Pls
3987 988 Pls
3987 1001 Pls
3987 978 Pls
3987 1003 Pls
3987 1038 Pls
3987 1062 Pls
5368 951 Pls
5368 993 Pls
5368 1057 Pls
5368 1097 Pls
5368 913 Pls
5368 990 Pls
5368 1000 Pls
5368 1041 Pls
5368 887 Pls
5368 904 Pls
5368 951 Pls
5368 1004 Pls
5368 861 Pls
5368 890 Pls
5368 892 Pls
5368 936 Pls
5368 845 Pls
5368 860 Pls
5368 872 Pls
5368 898 Pls
5368 955 Pls
5368 1002 Pls
5368 1048 Pls
5368 1048 Pls
5368 1066 Pls
5368 1106 Pls
5368 1184 Pls
5368 1164 Pls
5368 1185 Pls
5368 1298 Pls
5368 1288 Pls
5368 1341 Pls
5368 1303 Pls
5368 1457 Pls
5368 1453 Pls
5368 1548 Pls
5368 1512 Pls
5368 1602 Pls
5368 1698 Pls
5368 1754 Pls
6749 1094 Pls
6749 1139 Pls
6749 1332 Pls
6749 1383 Pls
6749 1010 Pls
6749 1030 Pls
6749 1186 Pls
6749 1332 Pls
6749 1026 Pls
6749 1045 Pls
6749 1110 Pls
6749 1232 Pls
6749 984 Pls
6749 1002 Pls
6749 1093 Pls
6749 1201 Pls
6749 882 Pls
6749 929 Pls
6749 986 Pls
6749 1035 Pls
6749 1347 Pls
6749 1612 Pls
6749 1734 Pls
6749 1819 Pls
6749 1974 Pls
6749 2231 Pls
6749 2448 Pls
6749 2576 Pls
6749 2432 Pls
6749 2594 Pls
6749 3018 Pls
6749 3128 Pls
6749 3046 Pls
6749 3528 Pls
6749 3781 Pls
6749 3907 Pls
6749 3965 Pls
6749 4032 Pls
6749 4353 Pls
6749 4625 Pls
1225 801 Pls
1225 804 Pls
1225 803 Pls
1225 805 Pls
1225 801 Pls
1225 802 Pls
1225 803 Pls
1225 804 Pls
1225 801 Pls
1225 801 Pls
1225 802 Pls
1225 803 Pls
1225 801 Pls
1225 801 Pls
1225 802 Pls
1225 803 Pls
1225 800 Pls
1225 801 Pls
1225 802 Pls
1225 802 Pls
1225 801 Pls
1225 801 Pls
1225 802 Pls
1225 802 Pls
1225 801 Pls
1225 802 Pls
1225 802 Pls
1225 802 Pls
1225 801 Pls
1225 802 Pls
1225 802 Pls
1225 803 Pls
1225 802 Pls
1225 802 Pls
1225 803 Pls
1225 803 Pls
1225 802 Pls
1225 803 Pls
1225 803 Pls
1225 804 Pls
2606 813 Pls
2606 817 Pls
2606 821 Pls
2606 829 Pls
2606 810 Pls
2606 814 Pls
2606 814 Pls
2606 823 Pls
2606 808 Pls
2606 811 Pls
2606 814 Pls
2606 823 Pls
2606 805 Pls
2606 808 Pls
2606 814 Pls
2606 818 Pls
2606 804 Pls
2606 808 Pls
2606 809 Pls
2606 815 Pls
2606 810 Pls
2606 815 Pls
2606 818 Pls
2606 823 Pls
2606 816 Pls
2606 822 Pls
2606 824 Pls
2606 829 Pls
2606 826 Pls
2606 827 Pls
2606 833 Pls
2606 839 Pls
2606 831 Pls
2606 837 Pls
2606 841 Pls
2606 846 Pls
2606 840 Pls
2606 844 Pls
2606 847 Pls
2606 852 Pls
3987 848 Pls
3987 864 Pls
3987 894 Pls
3987 916 Pls
3987 835 Pls
3987 842 Pls
3987 853 Pls
3987 891 Pls
3987 828 Pls
3987 832 Pls
3987 854 Pls
3987 865 Pls
3987 820 Pls
3987 826 Pls
3987 839 Pls
3987 850 Pls
3987 823 Pls
3987 824 Pls
3987 832 Pls
3987 841 Pls
3987 847 Pls
3987 867 Pls
3987 886 Pls
3987 890 Pls
3987 879 Pls
3987 897 Pls
3987 915 Pls
3987 913 Pls
3987 915 Pls
3987 929 Pls
3987 947 Pls
3987 964 Pls
3987 956 Pls
3987 969 Pls
3987 990 Pls
3987 1000 Pls
3987 984 Pls
3987 1018 Pls
3987 1021 Pls
3987 1045 Pls
5368 930 Pls
5368 1025 Pls
5368 1059 Pls
5368 1140 Pls
5368 899 Pls
5368 939 Pls
5368 975 Pls
5368 1050 Pls
5368 877 Pls
5368 898 Pls
5368 968 Pls
5368 1018 Pls
5368 853 Pls
5368 870 Pls
5368 909 Pls
5368 939 Pls
5368 842 Pls
5368 851 Pls
5368 877 Pls
5368 905 Pls
5368 974 Pls
5368 1009 Pls
5368 1040 Pls
5368 1076 Pls
5368 1074 Pls
5368 1155 Pls
5368 1177 Pls
5368 1183 Pls
5368 1198 Pls
5368 1249 Pls
5368 1324 Pls
5368 1399 Pls
5368 1360 Pls
5368 1448 Pls
5368 1477 Pls
5368 1497 Pls
5368 1552 Pls
5368 1651 Pls
5368 1678 Pls
5368 1761 Pls
6749 1147 Pls
6749 1104 Pls
6749 1284 Pls
6749 1450 Pls
6749 1017 Pls
6749 1091 Pls
6749 1205 Pls
6749 1305 Pls
6749 979 Pls
6749 1010 Pls
6749 1198 Pls
6749 1277 Pls
6749 925 Pls
6749 946 Pls
6749 1058 Pls
6749 1124 Pls
6749 893 Pls
6749 943 Pls
6749 957 Pls
6749 1082 Pls
6749 1420 Pls
6749 1549 Pls
6749 1759 Pls
6749 1892 Pls
6749 1930 Pls
6749 2191 Pls
6749 2373 Pls
6749 2467 Pls
6749 2467 Pls
6749 2754 Pls
6749 2982 Pls
6749 3100 Pls
6749 3064 Pls
6749 3313 Pls
6749 3612 Pls
6749 3772 Pls
6749 3649 Pls
6749 4174 Pls
6749 4451 Pls
6749 4569 Pls
1225 802 Pls
1225 803 Pls
1225 803 Pls
1225 805 Pls
1225 801 Pls
1225 802 Pls
1225 803 Pls
1225 804 Pls
1225 801 Pls
1225 801 Pls
1225 802 Pls
1225 803 Pls
1225 801 Pls
1225 801 Pls
1225 802 Pls
1225 803 Pls
1225 801 Pls
1225 801 Pls
1225 802 Pls
1225 802 Pls
1225 801 Pls
1225 801 Pls
1225 802 Pls
1225 802 Pls
1225 801 Pls
1225 802 Pls
1225 802 Pls
1225 802 Pls
1225 802 Pls
1225 802 Pls
1225 802 Pls
1225 803 Pls
1225 802 Pls
1225 802 Pls
1225 803 Pls
1225 803 Pls
1225 802 Pls
1225 803 Pls
1225 803 Pls
1225 804 Pls
2606 813 Pls
2606 816 Pls
2606 821 Pls
2606 831 Pls
2606 810 Pls
2606 810 Pls
2606 815 Pls
2606 822 Pls
2606 809 Pls
2606 811 Pls
2606 814 Pls
2606 820 Pls
2606 806 Pls
2606 810 Pls
2606 812 Pls
2606 818 Pls
2606 806 Pls
2606 806 Pls
2606 811 Pls
2606 814 Pls
2606 812 Pls
2606 816 Pls
2606 820 Pls
2606 824 Pls
2606 816 Pls
2606 823 Pls
2606 823 Pls
2606 831 Pls
2606 823 Pls
2606 830 Pls
2606 834 Pls
2606 836 Pls
2606 832 Pls
2606 837 Pls
2606 840 Pls
2606 846 Pls
2606 839 Pls
2606 844 Pls
2606 850 Pls
2606 854 Pls
3987 847 Pls
3987 866 Pls
3987 876 Pls
3987 917 Pls
3987 827 Pls
3987 853 Pls
3987 861 Pls
3987 877 Pls
3987 832 Pls
3987 839 Pls
3987 849 Pls
3987 861 Pls
3987 821 Pls
3987 834 Pls
3987 832 Pls
3987 854 Pls
3987 819 Pls
3987 820 Pls
3987 830 Pls
3987 834 Pls
3987 850 Pls
3987 871 Pls
3987 872 Pls
3987 881 Pls
3987 878 Pls
3987 895 Pls
3987 914 Pls
3987 922 Pls
3987 921 Pls
3987 925 Pls
3987 952 Pls
3987 966 Pls
3987 943 Pls
3987 969 Pls
3987 992 Pls
3987 1006 Pls
3987 966 Pls
3987 1024 Pls
3987 1033 Pls
3987 1039 Pls
5368 946 Pls
5368 966 Pls
5368 1063 Pls
5368 1140 Pls
5368 895 Pls
5368 958 Pls
5368 986 Pls
5368 1093 Pls
5368 893 Pls
5368 898 Pls
5368 969 Pls
5368 1006 Pls
5368 850 Pls
5368 877 Pls
5368 900 Pls
5368 959 Pls
5368 837 Pls
5368 849 Pls
5368 877 Pls
5368 905 Pls
5368 945 Pls
5368 1029 Pls
5368 1051 Pls
5368 1101 Pls
5368 1103 Pls
5368 1150 Pls
5368 1185 Pls
5368 1217 Pls
5368 1199 Pls
5368 1308 Pls
5368 1331 Pls
5368 1355 Pls
5368 1363 Pls
5368 1450 Pls
5368 1504 Pls
5368 1555 Pls
5368 1572 Pls
5368 1593 Pls
5368 1737 Pls
5368 1792 Pls
6749 1073 Pls
6749 1131 Pls
6749 1220 Pls
6749 1414 Pls
6749 985 Pls
6749 1069 Pls
6749 1240 Pls
6749 1357 Pls
6749 1019 Pls
6749 1008 Pls
6749 1155 Pls
6749 1243 Pls
6749 970 Pls
6749 977 Pls
6749 1082 Pls
6749 1178 Pls
6749 887 Pls
6749 959 Pls
6749 992 Pls
6749 1049 Pls
6749 1465 Pls
6749 1608 Pls
6749 1603 Pls
6749 1924 Pls
6749 2012 Pls
6749 2022 Pls
6749 2220 Pls
6749 2520 Pls
6749 2524 Pls
6749 2864 Pls
6749 2977 Pls
6749 3104 Pls
6749 3026 Pls
6749 3496 Pls
6749 3553 Pls
6749 3785 Pls
6749 3652 Pls
6749 4144 Pls
6749 4205 Pls
6749 4620 Pls
1225 801 Pls
1225 802 Pls
1225 804 Pls
1225 805 Pls
1225 801 Pls
1225 801 Pls
1225 803 Pls
1225 804 Pls
1225 801 Pls
1225 801 Pls
1225 802 Pls
1225 803 Pls
1225 801 Pls
1225 801 Pls
1225 802 Pls
1225 803 Pls
1225 800 Pls
1225 801 Pls
1225 802 Pls
1225 802 Pls
1225 801 Pls
1225 801 Pls
1225 802 Pls
1225 802 Pls
1225 801 Pls
1225 802 Pls
1225 802 Pls
1225 802 Pls
1225 801 Pls
1225 802 Pls
1225 802 Pls
1225 803 Pls
1225 802 Pls
1225 802 Pls
1225 803 Pls
1225 803 Pls
1225 802 Pls
1225 803 Pls
1225 803 Pls
1225 804 Pls
2606 811 Pls
2606 814 Pls
2606 820 Pls
2606 826 Pls
2606 812 Pls
2606 812 Pls
2606 823 Pls
2606 827 Pls
2606 807 Pls
2606 810 Pls
2606 817 Pls
2606 817 Pls
2606 806 Pls
2606 809 Pls
2606 811 Pls
2606 817 Pls
2606 804 Pls
2606 808 Pls
2606 809 Pls
2606 813 Pls
2606 811 Pls
2606 815 Pls
2606 821 Pls
2606 823 Pls
2606 817 Pls
2606 821 Pls
2606 824 Pls
2606 829 Pls
2606 824 Pls
2606 827 Pls
2606 834 Pls
2606 836 Pls
2606 830 Pls
2606 835 Pls
2606 841 Pls
2606 846 Pls
2606 836 Pls
2606 844 Pls
2606 850 Pls
2606 852 Pls
3987 838 Pls
3987 857 Pls
3987 874 Pls
3987 913 Pls
3987 838 Pls
3987 849 Pls
3987 867 Pls
3987 876 Pls
3987 829 Pls
3987 834 Pls
3987 845 Pls
3987 873 Pls
3987 823 Pls
3987 825 Pls
3987 835 Pls
3987 842 Pls
3987 819 Pls
3987 824 Pls
3987 826 Pls
3987 840 Pls
3987 846 Pls
3987 867 Pls
3987 878 Pls
3987 887 Pls
3987 886 Pls
3987 896 Pls
3987 906 Pls
3987 931 Pls
3987 900 Pls
3987 939 Pls
3987 948 Pls
3987 955 Pls
3987 952 Pls
3987 957 Pls
3987 987 Pls
3987 996 Pls
3987 985 Pls
3987 1012 Pls
3987 1032 Pls
3987 1046 Pls
5368 963 Pls
5368 971 Pls
5368 1040 Pls
5368 1159 Pls
5368 919 Pls
5368 972 Pls
5368 1002 Pls
5368 1066 Pls
5368 865 Pls
5368 896 Pls
5368 970 Pls
5368 999 Pls
5368 853 Pls
5368 871 Pls
5368 897 Pls
5368 942 Pls
5368 849 Pls
5368 848 Pls
5368 882 Pls
5368 905 Pls
5368 978 Pls
5368 1016 Pls
5368 1032 Pls
5368 1101 Pls
5368 1097 Pls
5368 1129 Pls
5368 1204 Pls
5368 1234 Pls
5368 1218 Pls
5368 1289 Pls
5368 1350 Pls
5368 1395 Pls
5368 1397 Pls
5368 1444 Pls
5368 1451 Pls
5368 1525 Pls
5368 1510 Pls
5368 1619 Pls
5368 1655 Pls
5368 1718 Pls
6749 1087 Pls
6749 1104 Pls
6749 1289 Pls
6749 1436 Pls
6749 970 Pls
6749 1119 Pls
6749 1178 Pls
6749 1326 Pls
6749 945 Pls
6749 1075 Pls
6749 1150 Pls
6749 1297 Pls
6749 960 Pls
6749 1012 Pls
6749 1073 Pls
6749 1174 Pls
6749 906 Pls
6749 955 Pls
6749 999 Pls
6749 1095 Pls
6749 1421 Pls
6749 1489 Pls
6749 1746 Pls
6749 1804 Pls
6749 1943 Pls
6749 2133 Pls
6749 2306 Pls
6749 2471 Pls
6749 2397 Pls
6749 2728 Pls
6749 2866 Pls
6749 3091 Pls
6749 3276 Pls
6749 3349 Pls
6749 3717 Pls
6749 3706 Pls
6749 3878 Pls
6749 4352 Pls
6749 4383 Pls
6749 4619 Pls
1225 803 Pls
1225 802 Pls
1225 803 Pls
1225 805 Pls
1225 801 Pls
1225 802 Pls
1225 803 Pls
1225 805 Pls
1225 801 Pls
1225 801 Pls
1225 802 Pls
1225 803 Pls
1225 801 Pls
1225 801 Pls
1225 802 Pls
1225 803 Pls
1225 800 Pls
1225 801 Pls
1225 802 Pls
1225 802 Pls
1225 801 Pls
1225 801 Pls
1225 802 Pls
1225 802 Pls
1225 801 Pls
1225 802 Pls
1225 802 Pls
1225 803 Pls
1225 802 Pls
1225 802 Pls
1225 802 Pls
1225 803 Pls
1225 802 Pls
1225 802 Pls
1225 803 Pls
1225 803 Pls
1225 802 Pls
1225 803 Pls
1225 803 Pls
1225 804 Pls
2606 814 Pls
2606 817 Pls
2606 817 Pls
2606 832 Pls
2606 810 Pls
2606 814 Pls
2606 818 Pls
2606 826 Pls
2606 807 Pls
2606 811 Pls
2606 814 Pls
2606 820 Pls
2606 806 Pls
2606 809 Pls
2606 813 Pls
2606 816 Pls
2606 805 Pls
2606 807 Pls
2606 811 Pls
2606 814 Pls
2606 810 Pls
2606 813 Pls
2606 821 Pls
2606 826 Pls
2606 816 Pls
2606 822 Pls
2606 826 Pls
2606 830 Pls
2606 822 Pls
2606 830 Pls
2606 834 Pls
2606 837 Pls
2606 831 Pls
2606 838 Pls
2606 839 Pls
2606 843 Pls
2606 839 Pls
2606 844 Pls
2606 850 Pls
2606 852 Pls
3987 849 Pls
3987 856 Pls
3987 887 Pls
3987 899 Pls
3987 826 Pls
3987 843 Pls
3987 857 Pls
3987 867 Pls
3987 831 Pls
3987 830 Pls
3987 845 Pls
3987 857 Pls
3987 822 Pls
3987 824 Pls
3987 831 Pls
3987 845 Pls
3987 820 Pls
3987 821 Pls
3987 831 Pls
3987 837 Pls
3987 856 Pls
3987 860 Pls
3987 875 Pls
3987 889 Pls
3987 874 Pls
3987 898 Pls
3987 912 Pls
3987 923 Pls
3987 912 Pls
3987 935 Pls
3987 947 Pls
3987 958 Pls
3987 953 Pls
3987 968 Pls
3987 998 Pls
3987 999 Pls
3987 995 Pls
3987 1017 Pls
3987 1048 Pls
3987 1049 Pls
5368 931 Pls
5368 974 Pls
5368 1051 Pls
5368 1139 Pls
5368 914 Pls
5368 946 Pls
5368 998 Pls
5368 1065 Pls
5368 880 Pls
5368 906 Pls
5368 949 Pls
5368 998 Pls
5368 846 Pls
5368 895 Pls
5368 925 Pls
5368 952 Pls
5368 841 Pls
5368 873 Pls
5368 875 Pls
5368 908 Pls
5368 943 Pls
5368 998 Pls
5368 1033 Pls
5368 1088 Pls
5368 1093 Pls
5368 1137 Pls
5368 1149 Pls
5368 1219 Pls
5368 1164 Pls
5368 1213 Pls
5368 1344 Pls
5368 1365 Pls
5368 1346 Pls
5368 1485 Pls
5368 1521 Pls
5368 1543 Pls
5368 1495 Pls
5368 1634 Pls
5368 1653 Pls
5368 1701 Pls
6749 1090 Pls
6749 1241 Pls
6749 1341 Pls
6749 1483 Pls
6749 1030 Pls
6749 1106 Pls
6749 1213 Pls
6749 1344 Pls
6749 994 Pls
6749 1047 Pls
6749 1168 Pls
6749 1272 Pls
6749 969 Pls
6749 1020 Pls
6749 1076 Pls
6749 1183 Pls
6749 905 Pls
6749 922 Pls
6749 999 Pls
6749 1075 Pls
6749 1427 Pls
6749 1612 Pls
6749 1704 Pls
6749 1914 Pls
6749 1867 Pls
6749 2137 Pls
6749 2285 Pls
6749 2515 Pls
6749 2565 Pls
6749 2728 Pls
6749 2962 Pls
6749 3048 Pls
6749 2980 Pls
6749 3457 Pls
6749 3722 Pls
6749 3822 Pls
6749 4014 Pls
6749 4140 Pls
6749 4263 Pls
6749 4628 Pls
1225 801 Pls
1225 802 Pls
1225 804 Pls
1225 805 Pls
1225 801 Pls
1225 801 Pls
1225 803 Pls
1225 804 Pls
1225 801 Pls
1225 802 Pls
1225 802 Pls
1225 803 Pls
1225 801 Pls
1225 801 Pls
1225 802 Pls
1225 803 Pls
1225 800 Pls
1225 801 Pls
1225 802 Pls
1225 802 Pls
1225 801 Pls
1225 801 Pls
1225 802 Pls
1225 802 Pls
1225 801 Pls
1225 802 Pls
1225 802 Pls
1225 802 Pls
1225 801 Pls
1225 802 Pls
1225 803 Pls
1225 803 Pls
1225 802 Pls
1225 802 Pls
1225 803 Pls
1225 803 Pls
1225 802 Pls
1225 803 Pls
1225 803 Pls
1225 804 Pls
2606 811 Pls
2606 817 Pls
2606 821 Pls
2606 830 Pls
2606 809 Pls
2606 812 Pls
2606 818 Pls
2606 826 Pls
2606 808 Pls
2606 810 Pls
2606 816 Pls
2606 822 Pls
2606 806 Pls
2606 808 Pls
2606 812 Pls
2606 818 Pls
2606 804 Pls
2606 807 Pls
2606 809 Pls
2606 812 Pls
2606 811 Pls
2606 816 Pls
2606 819 Pls
2606 823 Pls
2606 816 Pls
2606 820 Pls
2606 825 Pls
2606 832 Pls
2606 823 Pls
2606 829 Pls
2606 832 Pls
2606 835 Pls
2606 834 Pls
2606 835 Pls
2606 841 Pls
2606 846 Pls
2606 839 Pls
2606 844 Pls
2606 849 Pls
2606 855 Pls
3987 847 Pls
3987 857 Pls
3987 880 Pls
3987 895 Pls
3987 837 Pls
3987 847 Pls
3987 869 Pls
3987 889 Pls
3987 826 Pls
3987 840 Pls
3987 844 Pls
3987 866 Pls
3987 818 Pls
3987 822 Pls
3987 828 Pls
3987 846 Pls
3987 816 Pls
3987 826 Pls
3987 828 Pls
3987 834 Pls
3987 845 Pls
3987 862 Pls
3987 882 Pls
3987 891 Pls
3987 874 Pls
3987 893 Pls
3987 914 Pls
3987 931 Pls
3987 921 Pls
3987 925 Pls
3987 951 Pls
3987 960 Pls
3987 944 Pls
3987 960 Pls
3987 977 Pls
3987 1003 Pls
3987 998 Pls
3987 1021 Pls
3987 1040 Pls
3987 1049 Pls
5368 963 Pls
5368 991 Pls
5368 1038 Pls
5368 1165 Pls
5368 881 Pls
5368 940 Pls
5368 991 Pls
5368 1033 Pls
5368 872 Pls
5368 901 Pls
5368 953 Pls
5368 1000 Pls
5368 874 Pls
5368 871 Pls
5368 912 Pls
5368 940 Pls
5368 849 Pls
5368 859 Pls
5368 876 Pls
5368 898 Pls
5368 953 Pls
5368 1008 Pls
5368 1057 Pls
5368 1081 Pls
5368 1085 Pls
5368 1150 Pls
5368 1171 Pls
5368 1233 Pls
5368 1227 Pls
5368 1283 Pls
5368 1351 Pls
5368 1351 Pls
5368 1427 Pls
5368 1442 Pls
5368 1501 Pls
5368 1520 Pls
5368 1501 Pls
5368 1663 Pls
5368 1637 Pls
5368 1758 Pls
6749 1057 Pls
6749 1139 Pls
6749 1341 Pls
6749 1503 Pls
6749 1016 Pls
6749 1118 Pls
6749 1162 Pls
6749 1401 Pls
6749 999 Pls
6749 1047 Pls
6749 1119 Pls
6749 1289 Pls
6749 955 Pls
6749 996 Pls
6749 1057 Pls
6749 1214 Pls
6749 939 Pls
6749 941 Pls
6749 985 Pls
6749 1050 Pls
6749 1381 Pls
6749 1609 Pls
6749 1667 Pls
6749 1828 Pls
6749 1796 Pls
6749 2197 Pls
6749 2323 Pls
6749 2453 Pls
6749 2669 Pls
6749 2817 Pls
6749 2948 Pls
6749 3231 Pls
6749 3296 Pls
6749 3550 Pls
6749 3740 Pls
6749 3627 Pls
6749 3798 Pls
6749 4319 Pls
6749 4370 Pls
6749 4465 Pls
1225 801 Pls
1225 803 Pls
1225 803 Pls
1225 805 Pls
1225 801 Pls
1225 801 Pls
1225 803 Pls
1225 804 Pls
1225 801 Pls
1225 802 Pls
1225 802 Pls
1225 804 Pls
1225 801 Pls
1225 801 Pls
1225 802 Pls
1225 803 Pls
1225 801 Pls
1225 801 Pls
1225 802 Pls
1225 802 Pls
1225 801 Pls
1225 801 Pls
1225 802 Pls
1225 802 Pls
1225 801 Pls
1225 802 Pls
1225 802 Pls
1225 802 Pls
1225 801 Pls
1225 802 Pls
1225 802 Pls
1225 803 Pls
1225 802 Pls
1225 802 Pls
1225 803 Pls
1225 803 Pls
1225 802 Pls
1225 803 Pls
1225 803 Pls
1225 804 Pls
2606 812 Pls
2606 816 Pls
2606 823 Pls
2606 828 Pls
2606 810 Pls
2606 815 Pls
2606 818 Pls
2606 823 Pls
2606 808 Pls
2606 811 Pls
2606 815 Pls
2606 819 Pls
2606 807 Pls
2606 808 Pls
2606 812 Pls
2606 815 Pls
2606 804 Pls
2606 807 Pls
2606 810 Pls
2606 814 Pls
2606 810 Pls
2606 814 Pls
2606 819 Pls
2606 823 Pls
2606 818 Pls
2606 821 Pls
2606 824 Pls
2606 829 Pls
2606 824 Pls
2606 828 Pls
2606 832 Pls
2606 838 Pls
2606 830 Pls
2606 833 Pls
2606 840 Pls
2606 845 Pls
2606 837 Pls
2606 845 Pls
2606 850 Pls
2606 854 Pls
3987 852 Pls
3987 856 Pls
3987 886 Pls
3987 910 Pls
3987 836 Pls
3987 844 Pls
3987 857 Pls
3987 885 Pls
3987 830 Pls
3987 836 Pls
3987 849 Pls
3987 870 Pls
3987 822 Pls
3987 830 Pls
3987 836 Pls
3987 845 Pls
3987 818 Pls
3987 823 Pls
3987 836 Pls
3987 840 Pls
3987 851 Pls
3987 865 Pls
3987 870 Pls
3987 897 Pls
3987 874 Pls
3987 880 Pls
3987 920 Pls
3987 923 Pls
3987 917 Pls
3987 937 Pls
3987 954 Pls
3987 964 Pls
3987 925 Pls
3987 960 Pls
3987 990 Pls
3987 1011 Pls
3987 1005 Pls
3987 1023 Pls
3987 1036 Pls
3987 1042 Pls
5368 944 Pls
5368 969 Pls
5368 1051 Pls
5368 1134 Pls
5368 888 Pls
5368 949 Pls
5368 977 Pls
5368 1061 Pls
5368 877 Pls
5368 898 Pls
5368 948 Pls
5368 1024 Pls
5368 861 Pls
5368 892 Pls
5368 928 Pls
5368 934 Pls
5368 843 Pls
5368 857 Pls
5368 885 Pls
5368 905 Pls
5368 930 Pls
5368 1009 Pls
5368 1046 Pls
5368 1100 Pls
5368 1072 Pls
5368 1140 Pls
5368 1177 Pls
5368 1243 Pls
5368 1190 Pls
5368 1254 Pls
5368 1339 Pls
5368 1353 Pls
5368 1370 Pls
5368 1382 Pls
5368 1509 Pls
5368 1532 Pls
5368 1410 Pls
5368 1639 Pls
5368 1658 Pls
5368 1583 Pls
6749 1088 Pls
6749 1164 Pls
6749 1295 Pls
6749 1501 Pls
6749 1012 Pls
6749 1104 Pls
6749 1294 Pls
6749 1377 Pls
6749 995 Pls
6749 1000 Pls
6749 1148 Pls
6749 1221 Pls
6749 1008 Pls
6749 1004 Pls
6749 1090 Pls
6749 1146 Pls
6749 893 Pls
6749 953 Pls
6749 1005 Pls
6749 1086 Pls
6749 1425 Pls
6749 1621 Pls
6749 1811 Pls
6749 1815 Pls
6749 1925 Pls
6749 2213 Pls
6749 2393 Pls
6749 2617 Pls
6749 2503 Pls
6749 2879 Pls
6749 2885 Pls
6749 3140 Pls
6749 3101 Pls
6749 3598 Pls
6749 3451 Pls
6749 3900 Pls
6749 3876 Pls
6749 3865 Pls
6749 4548 Pls
6749 4679 Pls
1225 801 Pls
1225 802 Pls
1225 803 Pls
1225 805 Pls
1225 801 Pls
1225 802 Pls
1225 803 Pls
1225 804 Pls
1225 801 Pls
1225 801 Pls
1225 802 Pls
1225 804 Pls
1225 801 Pls
1225 801 Pls
1225 802 Pls
1225 803 Pls
1225 801 Pls
1225 801 Pls
1225 801 Pls
1225 802 Pls
1225 801 Pls
1225 801 Pls
1225 802 Pls
1225 802 Pls
1225 801 Pls
1225 802 Pls
1225 802 Pls
1225 803 Pls
1225 802 Pls
1225 802 Pls
1225 803 Pls
1225 803 Pls
1225 802 Pls
1225 802 Pls
1225 803 Pls
1225 803 Pls
1225 802 Pls
1225 803 Pls
1225 803 Pls
1225 804 Pls
2606 812 Pls
2606 815 Pls
2606 824 Pls
2606 830 Pls
2606 812 Pls
2606 815 Pls
2606 817 Pls
2606 827 Pls
2606 807 Pls
2606 810 Pls
2606 816 Pls
2606 822 Pls
2606 806 Pls
2606 808 Pls
2606 813 Pls
2606 818 Pls
2606 805 Pls
2606 806 Pls
2606 811 Pls
2606 813 Pls
2606 811 Pls
2606 815 Pls
2606 820 Pls
2606 822 Pls
2606 820 Pls
2606 820 Pls
2606 824 Pls
2606 830 Pls
2606 822 Pls
2606 826 Pls
2606 831 Pls
2606 837 Pls
2606 830 Pls
2606 835 Pls
2606 840 Pls
2606 844 Pls
2606 836 Pls
2606 843 Pls
2606 849 Pls
2606 853 Pls
3987 860 Pls
3987 871 Pls
3987 864 Pls
3987 911 Pls
3987 831 Pls
3987 845 Pls
3987 852 Pls
3987 889 Pls
3987 827 Pls
3987 840 Pls
3987 844 Pls
3987 864 Pls
3987 820 Pls
3987 831 Pls
3987 837 Pls
3987 847 Pls
3987 812 Pls
3987 824 Pls
3987 829 Pls
3987 840 Pls
3987 840 Pls
3987 853 Pls
3987 872 Pls
3987 884 Pls
3987 881 Pls
3987 888 Pls
3987 903 Pls
3987 922 Pls
3987 910 Pls
3987 934 Pls
3987 938 Pls
3987 964 Pls
3987 940 Pls
3987 976 Pls
3987 988 Pls
3987 1009 Pls
3987 1004 Pls
3987 1016 Pls
3987 1035 Pls
3987 1057 Pls
5368 949 Pls
5368 987 Pls
5368 1046 Pls
5368 1159 Pls
5368 883 Pls
5368 946 Pls
5368 978 Pls
5368 1085 Pls
5368 894 Pls
5368 926 Pls
5368 949 Pls
5368 993 Pls
5368 880 Pls
5368 876 Pls
5368 914 Pls
5368 943 Pls
5368 842 Pls
5368 853 Pls
5368 879 Pls
5368 902 Pls
5368 952 Pls
5368 1003 Pls
5368 1057 Pls
5368 1075 Pls
5368 1076 Pls
5368 1152 Pls
5368 1147 Pls
5368 1232 Pls
5368 1224 Pls
5368 1298 Pls
5368 1331 Pls
5368 1406 Pls
5368 1333 Pls
5368 1384 Pls
5368 1507 Pls
5368 1548 Pls
5368 1504 Pls
5368 1574 Pls
5368 1672 Pls
5368 1740 Pls
6749 1080 Pls
6749 1151 Pls
6749 1269 Pls
6749 1473 Pls
6749 1041 Pls
6749 1144 Pls
6749 1194 Pls
6749 1397 Pls
6749 1002 Pls
6749 1098 Pls
6749 1130 Pls
6749 1247 Pls
6749 963 Pls
6749 982 Pls
6749 1063 Pls
6749 1191 Pls
6749 913 Pls
6749 913 Pls
6749 998 Pls
6749 1072 Pls
6749 1385 Pls
6749 1554 Pls
6749 1700 Pls
6749 1879 Pls
6749 1878 Pls
6749 2179 Pls
6749 2230 Pls
6749 2361 Pls
6749 2596 Pls
6749 2726 Pls
6749 2963 Pls
6749 3155 Pls
6749 2985 Pls
6749 3324 Pls
6749 3485 Pls
6749 3960 Pls
6749 3965 Pls
6749 4134 Pls
6749 4472 Pls
6749 4586 Pls
1225 803 Pls
1225 802 Pls
1225 804 Pls
1225 805 Pls
1225 801 Pls
1225 801 Pls
1225 803 Pls
1225 804 Pls
1225 801 Pls
1225 801 Pls
1225 802 Pls
1225 804 Pls
1225 801 Pls
1225 801 Pls
1225 802 Pls
1225 803 Pls
1225 800 Pls
1225 801 Pls
1225 802 Pls
1225 802 Pls
1225 801 Pls
1225 801 Pls
1225 802 Pls
1225 802 Pls
1225 801 Pls
1225 802 Pls
1225 802 Pls
1225 802 Pls
1225 802 Pls
1225 802 Pls
1225 802 Pls
1225 803 Pls
1225 802 Pls
1225 802 Pls
1225 803 Pls
1225 803 Pls
1225 802 Pls
1225 803 Pls
1225 803 Pls
1225 804 Pls
2606 812 Pls
2606 813 Pls
2606 821 Pls
2606 827 Pls
2606 812 Pls
2606 814 Pls
2606 817 Pls
2606 823 Pls
2606 808 Pls
2606 810 Pls
2606 815 Pls
2606 822 Pls
2606 806 Pls
2606 808 Pls
2606 811 Pls
2606 817 Pls
2606 805 Pls
2606 808 Pls
2606 811 Pls
2606 816 Pls
2606 813 Pls
2606 815 Pls
2606 818 Pls
2606 823 Pls
2606 817 Pls
2606 822 Pls
2606 824 Pls
2606 829 Pls
2606 824 Pls
2606 829 Pls
2606 834 Pls
2606 836 Pls
2606 830 Pls
2606 836 Pls
2606 838 Pls
2606 845 Pls
2606 839 Pls
2606 844 Pls
2606 849 Pls
2606 853 Pls
3987 843 Pls
3987 850 Pls
3987 877 Pls
3987 914 Pls
3987 830 Pls
3987 847 Pls
3987 866 Pls
3987 878 Pls
3987 825 Pls
3987 833 Pls
3987 842 Pls
3987 864 Pls
3987 822 Pls
3987 834 Pls
3987 840 Pls
3987 852 Pls
3987 817 Pls
3987 824 Pls
3987 830 Pls
3987 840 Pls
3987 849 Pls
3987 864 Pls
3987 875 Pls
3987 892 Pls
3987 886 Pls
3987 896 Pls
3987 920 Pls
3987 931 Pls
3987 916 Pls
3987 936 Pls
3987 950 Pls
3987 958 Pls
3987 942 Pls
3987 978 Pls
3987 982 Pls
3987 1014 Pls
3987 988 Pls
3987 1014 Pls
3987 1035 Pls
3987 1049 Pls
5368 936 Pls
5368 951 Pls
5368 1103 Pls
5368 1156 Pls
5368 890 Pls
5368 954 Pls
5368 1012 Pls
5368 1089 Pls
5368 878 Pls
5368 922 Pls
5368 949 Pls
5368 1009 Pls
5368 844 Pls
5368 909 Pls
5368 905 Pls
5368 938 Pls
5368 858 Pls
5368 861 Pls
5368 888 Pls
5368 907 Pls
5368 960 Pls
5368 993 Pls
5368 1019 Pls
5368 1066 Pls
5368 1055 Pls
5368 1167 Pls
5368 1199 Pls
5368 1222 Pls
5368 1221 Pls
5368 1289 Pls
5368 1339 Pls
5368 1418 Pls
5368 1344 Pls
5368 1394 Pls
5368 1519 Pls
5368 1527 Pls
5368 1553 Pls
5368 1628 Pls
5368 1639 Pls
5368 1749 Pls
6749 1118 Pls
6749 1135 Pls
6749 1273 Pls
6749 1456 Pls
6749 984 Pls
6749 1066 Pls
6749 1219 Pls
6749 1375 Pls
6749 1007 Pls
6749 1084 Pls
6749 1142 Pls
6749 1240 Pls
6749 945 Pls
6749 1004 Pls
6749 1086 Pls
6749 1123 Pls
6749 954 Pls
6749 996 Pls
6749 1020 Pls
6749 1064 Pls
6749 1487 Pls
6749 1627 Pls
6749 1812 Pls
6749 1875 Pls
6749 1912 Pls
6749 2225 Pls
6749 2094 Pls
6749 2430 Pls
6749 2548 Pls
6749 2389 Pls
6749 3053 Pls
6749 3292 Pls
6749 3229 Pls
6749 3568 Pls
6749 3561 Pls
6749 3978 Pls
6749 3841 Pls
6749 4140 Pls
6749 4469 Pls
6749 4724 Pls
1225 801 Pls
1225 804 Pls
1225 804 Pls
1225 805 Pls
1225 801 Pls
1225 802 Pls
1225 803 Pls
1225 804 Pls
1225 801 Pls
1225 801 Pls
1225 802 Pls
1225 804 Pls
1225 801 Pls
1225 801 Pls
1225 802 Pls
1225 803 Pls
1225 801 Pls
1225 801 Pls
1225 802 Pls
1225 802 Pls
1225 801 Pls
1225 801 Pls
1225 802 Pls
1225 802 Pls
1225 801 Pls
1225 802 Pls
1225 802 Pls
1225 802 Pls
1225 801 Pls
1225 802 Pls
1225 803 Pls
1225 803 Pls
1225 802 Pls
1225 802 Pls
1225 803 Pls
1225 803 Pls
1225 802 Pls
1225 803 Pls
1225 803 Pls
1225 804 Pls
2606 812 Pls
2606 817 Pls
2606 823 Pls
2606 826 Pls
2606 811 Pls
2606 814 Pls
2606 818 Pls
2606 824 Pls
2606 807 Pls
2606 812 Pls
2606 813 Pls
2606 821 Pls
2606 806 Pls
2606 808 Pls
2606 812 Pls
2606 818 Pls
2606 804 Pls
2606 807 Pls
2606 810 Pls
2606 813 Pls
2606 811 Pls
2606 814 Pls
2606 819 Pls
2606 823 Pls
2606 817 Pls
2606 821 Pls
2606 824 Pls
2606 830 Pls
2606 823 Pls
2606 828 Pls
2606 832 Pls
2606 839 Pls
2606 827 Pls
2606 838 Pls
2606 840 Pls
2606 844 Pls
2606 835 Pls
2606 842 Pls
2606 846 Pls
2606 853 Pls
3987 838 Pls
3987 856 Pls
3987 888 Pls
3987 903 Pls
3987 838 Pls
3987 847 Pls
3987 859 Pls
3987 880 Pls
3987 830 Pls
3987 842 Pls
3987 848 Pls
3987 861 Pls
3987 822 Pls
3987 825 Pls
3987 838 Pls
3987 846 Pls
3987 819 Pls
3987 820 Pls
3987 826 Pls
3987 844 Pls
3987 849 Pls
3987 864 Pls
3987 881 Pls
3987 895 Pls
3987 875 Pls
3987 894 Pls
3987 915 Pls
3987 928 Pls
3987 908 Pls
3987 934 Pls
3987 939 Pls
3987 951 Pls
3987 947 Pls
3987 968 Pls
3987 997 Pls
3987 998 Pls
3987 995 Pls
3987 996 Pls
3987 1042 Pls
3987 1050 Pls
5368 969 Pls
5368 982 Pls
5368 1047 Pls
5368 1136 Pls
5368 913 Pls
5368 945 Pls
5368 998 Pls
5368 1100 Pls
5368 873 Pls
5368 905 Pls
5368 975 Pls
5368 991 Pls
5368 867 Pls
5368 891 Pls
5368 908 Pls
5368 938 Pls
5368 848 Pls
5368 869 Pls
5368 872 Pls
5368 905 Pls
5368 982 Pls
5368 1000 Pls
5368 1018 Pls
5368 1047 Pls
5368 1037 Pls
5368 1149 Pls
5368 1228 Pls
5368 1231 Pls
5368 1219 Pls
5368 1262 Pls
5368 1341 Pls
5368 1349 Pls
5368 1395 Pls
5368 1428 Pls
5368 1502 Pls
5368 1508 Pls
5368 1547 Pls
5368 1640 Pls
5368 1628 Pls
5368 1734 Pls
6749 1068 Pls
6749 1167 Pls
6749 1264 Pls
6749 1493 Pls
6749 1005 Pls
6749 1083 Pls
6749 1157 Pls
6749 1401 Pls
6749 960 Pls
6749 1052 Pls
6749 1154 Pls
6749 1267 Pls
6749 951 Pls
6749 1021 Pls
6749 1078 Pls
6749 1177 Pls
6749 931 Pls
6749 926 Pls
6749 997 Pls
6749 1058 Pls
6749 1400 Pls
6749 1578 Pls
6749 1750 Pls
6749 1869 Pls
6749 1791 Pls
6749 2056 Pls
6749 2321 Pls
6749 2337 Pls
6749 2605 Pls
6749 2817 Pls
6749 3080 Pls
6749 2985 Pls
6749 3102 Pls
6749 3287 Pls
6749 3802 Pls
6749 3790 Pls
6749 3860 Pls
6749 4246 Pls
6749 4155 Pls
6749 4553 Pls
1225 801 Pls
1225 802 Pls
1225 803 Pls
1225 805 Pls
1225 801 Pls
1225 802 Pls
1225 803 Pls
1225 804 Pls
1225 801 Pls
1225 801 Pls
1225 802 Pls
1225 804 Pls
1225 801 Pls
1225 801 Pls
1225 802 Pls
1225 803 Pls
1225 801 Pls
1225 801 Pls
1225 801 Pls
1225 802 Pls
1225 801 Pls
1225 801 Pls
1225 802 Pls
1225 802 Pls
1225 801 Pls
1225 802 Pls
1225 802 Pls
1225 802 Pls
1225 802 Pls
1225 802 Pls
1225 802 Pls
1225 803 Pls
1225 802 Pls
1225 802 Pls
1225 803 Pls
1225 803 Pls
1225 802 Pls
1225 803 Pls
1225 803 Pls
1225 804 Pls
2606 812 Pls
2606 813 Pls
2606 818 Pls
2606 825 Pls
2606 807 Pls
2606 811 Pls
2606 816 Pls
2606 823 Pls
2606 810 Pls
2606 811 Pls
2606 818 Pls
2606 819 Pls
2606 806 Pls
2606 808 Pls
2606 811 Pls
2606 819 Pls
2606 805 Pls
2606 807 Pls
2606 809 Pls
2606 814 Pls
2606 812 Pls
2606 818 Pls
2606 818 Pls
2606 824 Pls
2606 816 Pls
2606 822 Pls
2606 827 Pls
2606 830 Pls
2606 823 Pls
2606 831 Pls
2606 833 Pls
2606 838 Pls
2606 829 Pls
2606 835 Pls
2606 842 Pls
2606 843 Pls
2606 839 Pls
2606 845 Pls
2606 848 Pls
2606 852 Pls
3987 852 Pls
3987 869 Pls
3987 885 Pls
3987 901 Pls
3987 839 Pls
3987 841 Pls
3987 855 Pls
3987 888 Pls
3987 829 Pls
3987 838 Pls
3987 843 Pls
3987 873 Pls
3987 819 Pls
3987 831 Pls
3987 839 Pls
3987 858 Pls
3987 818 Pls
3987 822 Pls
3987 833 Pls
3987 843 Pls
3987 847 Pls
3987 865 Pls
3987 878 Pls
3987 888 Pls
3987 879 Pls
3987 899 Pls
3987 902 Pls
3987 922 Pls
3987 907 Pls
3987 934 Pls
3987 951 Pls
3987 965 Pls
3987 957 Pls
3987 976 Pls
3987 986 Pls
3987 1013 Pls
3987 999 Pls
3987 1016 Pls
3987 1033 Pls
3987 1060 Pls
5368 936 Pls
5368 1005 Pls
5368 1053 Pls
5368 1089 Pls
5368 898 Pls
5368 991 Pls
5368 997 Pls
5368 1045 Pls
5368 879 Pls
5368 897 Pls
5368 961 Pls
5368 1015 Pls
5368 862 Pls
5368 875 Pls
5368 918 Pls
5368 938 Pls
5368 850 Pls
5368 868 Pls
5368 871 Pls
5368 911 Pls
5368 951 Pls
5368 986 Pls
5368 1032 Pls
5368 1068 Pls
5368 1068 Pls
5368 1138 Pls
5368 1175 Pls
5368 1196 Pls
5368 1220 Pls
5368 1258 Pls
5368 1326 Pls
5368 1329 Pls
5368 1333 Pls
5368 1424 Pls
5368 1509 Pls
5368 1513 Pls
5368 1509 Pls
5368 1618 Pls
5368 1683 Pls
5368 1713 Pls
6749 1093 Pls
6749 1141 Pls
6749 1388 Pls
6749 1451 Pls
6749 1055 Pls
6749 1094 Pls
6749 1235 Pls
6749 1393 Pls
6749 1078 Pls
6749 1024 Pls
6749 1117 Pls
6749 1281 Pls
6749 963 Pls
6749 1025 Pls
6749 1078 Pls
6749 1162 Pls
6749 899 Pls
6749 975 Pls
6749 1017 Pls
6749 1056 Pls
6749 1389 Pls
6749 1598 Pls
6749 1689 Pls
6749 1862 Pls
6749 1891 Pls
6749 2112 Pls
6749 2285 Pls
6749 2473 Pls
6749 2610 Pls
6749 2834 Pls
6749 3033 Pls
6749 3137 Pls
6749 3022 Pls
6749 3556 Pls
6749 3600 Pls
6749 3755 Pls
6749 3735 Pls
6749 4268 Pls
6749 4452 Pls
6749 4540 Pls
1225 801 Pls
1225 802 Pls
1225 803 Pls
1225 805 Pls
1225 801 Pls
1225 802 Pls
1225 803 Pls
1225 804 Pls
1225 801 Pls
1225 801 Pls
1225 802 Pls
1225 803 Pls
1225 801 Pls
1225 801 Pls
1225 802 Pls
1225 803 Pls
1225 801 Pls
1225 801 Pls
1225 802 Pls
1225 802 Pls
1225 801 Pls
1225 801 Pls
1225 802 Pls
1225 802 Pls
1225 801 Pls
1225 802 Pls
1225 802 Pls
1225 802 Pls
1225 802 Pls
1225 802 Pls
1225 803 Pls
1225 803 Pls
1225 802 Pls
1225 802 Pls
1225 803 Pls
1225 803 Pls
1225 802 Pls
1225 803 Pls
1225 803 Pls
1225 804 Pls
2606 812 Pls
2606 813 Pls
2606 823 Pls
2606 828 Pls
2606 811 Pls
2606 814 Pls
2606 818 Pls
2606 824 Pls
2606 807 Pls
2606 811 Pls
2606 817 Pls
2606 819 Pls
2606 807 Pls
2606 809 Pls
2606 812 Pls
2606 817 Pls
2606 804 Pls
2606 808 Pls
2606 813 Pls
2606 813 Pls
2606 810 Pls
2606 815 Pls
2606 820 Pls
2606 823 Pls
2606 816 Pls
2606 822 Pls
2606 827 Pls
2606 828 Pls
2606 822 Pls
2606 827 Pls
2606 832 Pls
2606 835 Pls
2606 829 Pls
2606 836 Pls
2606 840 Pls
2606 844 Pls
2606 836 Pls
2606 845 Pls
2606 847 Pls
2606 852 Pls
3987 851 Pls
3987 859 Pls
3987 889 Pls
3987 887 Pls
3987 831 Pls
3987 849 Pls
3987 877 Pls
3987 880 Pls
3987 824 Pls
3987 829 Pls
3987 843 Pls
3987 857 Pls
3987 823 Pls
3987 822 Pls
3987 837 Pls
3987 851 Pls
3987 818 Pls
3987 822 Pls
3987 825 Pls
3987 844 Pls
3987 847 Pls
3987 857 Pls
3987 874 Pls
3987 890 Pls
3987 894 Pls
3987 899 Pls
3987 915 Pls
3987 930 Pls
3987 908 Pls
3987 932 Pls
3987 945 Pls
3987 956 Pls
3987 958 Pls
3987 958 Pls
3987 997 Pls
3987 1001 Pls
3987 987 Pls
3987 1013 Pls
3987 1032 Pls
3987 1058 Pls
5368 927 Pls
5368 965 Pls
5368 1072 Pls
5368 1163 Pls
5368 909 Pls
5368 896 Pls
5368 1010 Pls
5368 1060 Pls
5368 893 Pls
5368 931 Pls
5368 971 Pls
5368 1010 Pls
5368 862 Pls
5368 873 Pls
5368 927 Pls
5368 952 Pls
5368 842 Pls
5368 858 Pls
5368 889 Pls
5368 902 Pls
5368 946 Pls
5368 1017 Pls
5368 1034 Pls
5368 1104 Pls
5368 1053 Pls
5368 1132 Pls
5368 1162 Pls
5368 1234 Pls
5368 1211 Pls
5368 1252 Pls
5368 1340 Pls
5368 1383 Pls
5368 1296 Pls
5368 1460 Pls
5368 1509 Pls
5368 1514 Pls
5368 1446 Pls
5368 1629 Pls
5368 1677 Pls
5368 1716 Pls
6749 1008 Pls
6749 1129 Pls
6749 1314 Pls
6749 1482 Pls
6749 1068 Pls
6749 1144 Pls
6749 1193 Pls
6749 1377 Pls
6749 1018 Pls
6749 1067 Pls
6749 1084 Pls
6749 1258 Pls
6749 909 Pls
6749 1013 Pls
6749 1072 Pls
6749 1182 Pls
6749 963 Pls
6749 987 Pls
6749 990 Pls
6749 1053 Pls
6749 1462 Pls
6749 1518 Pls
6749 1645 Pls
6749 1835 Pls
6749 1852 Pls
6749 2103 Pls
6749 2328 Pls
6749 2604 Pls
6749 2370 Pls
6749 2843 Pls
6749 3027 Pls
6749 3210 Pls
6749 3067 Pls
6749 3525 Pls
6749 3687 Pls
6749 3863 Pls
6749 3431 Pls
6749 4041 Pls
6749 4233 Pls
6749 4715 Pls
1225 801 Pls
1225 804 Pls
1225 803 Pls
1225 805 Pls
1225 801 Pls
1225 802 Pls
1225 803 Pls
1225 804 Pls
1225 801 Pls
1225 801 Pls
1225 802 Pls
1225 803 Pls
1225 801 Pls
1225 801 Pls
1225 802 Pls
1225 803 Pls
1225 801 Pls
1225 801 Pls
1225 802 Pls
1225 802 Pls
1225 801 Pls
1225 801 Pls
1225 802 Pls
1225 802 Pls
1225 801 Pls
1225 801 Pls
1225 802 Pls
1225 802 Pls
1225 801 Pls
1225 802 Pls
1225 802 Pls
1225 803 Pls
1225 802 Pls
1225 802 Pls
1225 803 Pls
1225 803 Pls
1225 802 Pls
1225 803 Pls
1225 803 Pls
1225 804 Pls
2606 814 Pls
2606 816 Pls
2606 823 Pls
2606 828 Pls
2606 809 Pls
2606 814 Pls
2606 819 Pls
2606 826 Pls
2606 808 Pls
2606 812 Pls
2606 813 Pls
2606 821 Pls
2606 806 Pls
2606 810 Pls
2606 814 Pls
2606 816 Pls
2606 805 Pls
2606 806 Pls
2606 810 Pls
2606 815 Pls
2606 810 Pls
2606 814 Pls
2606 821 Pls
2606 821 Pls
2606 814 Pls
2606 821 Pls
2606 826 Pls
2606 829 Pls
2606 824 Pls
2606 829 Pls
2606 833 Pls
2606 835 Pls
2606 829 Pls
2606 837 Pls
2606 844 Pls
2606 846 Pls
2606 839 Pls
2606 843 Pls
2606 849 Pls
2606 853 Pls
3987 850 Pls
3987 845 Pls
3987 880 Pls
3987 911 Pls
3987 833 Pls
3987 842 Pls
3987 867 Pls
3987 889 Pls
3987 826 Pls
3987 835 Pls
3987 851 Pls
3987 865 Pls
3987 823 Pls
3987 829 Pls
3987 838 Pls
3987 853 Pls
3987 816 Pls
3987 825 Pls
3987 830 Pls
3987 841 Pls
3987 855 Pls
3987 875 Pls
3987 873 Pls
3987 892 Pls
3987 880 Pls
3987 897 Pls
3987 912 Pls
3987 920 Pls
3987 917 Pls
3987 935 Pls
3987 939 Pls
3987 968 Pls
3987 952 Pls
3987 980 Pls
3987 988 Pls
3987 1007 Pls
3987 979 Pls
3987 1026 Pls
3987 1037 Pls
3987 1059 Pls
5368 960 Pls
5368 989 Pls
5368 1032 Pls
5368 1164 Pls
5368 904 Pls
5368 922 Pls
5368 973 Pls
5368 1083 Pls
5368 863 Pls
5368 883 Pls
5368 956 Pls
5368 1003 Pls
5368 862 Pls
5368 875 Pls
5368 919 Pls
5368 936 Pls
5368 849 Pls
5368 865 Pls
5368 880 Pls
5368 908 Pls
5368 966 Pls
5368 1018 Pls
5368 1051 Pls
5368 1065 Pls
5368 1094 Pls
5368 1155 Pls
5368 1196 Pls
5368 1212 Pls
5368 1210 Pls
5368 1265 Pls
5368 1338 Pls
5368 1366 Pls
5368 1391 Pls
5368 1467 Pls
5368 1476 Pls
5368 1542 Pls
5368 1562 Pls
5368 1596 Pls
5368 1676 Pls
5368 1583 Pls
6749 1101 Pls
6749 1180 Pls
6749 1290 Pls
6749 1408 Pls
6749 982 Pls
6749 1166 Pls
6749 1276 Pls
6749 1336 Pls
6749 972 Pls
6749 1043 Pls
6749 1177 Pls
6749 1263 Pls
6749 1004 Pls
6749 964 Pls
6749 1080 Pls
6749 1185 Pls
6749 926 Pls
6749 913 Pls
6749 1015 Pls
6749 1070 Pls
6749 1362 Pls
6749 1554 Pls
6749 1774 Pls
6749 1821 Pls
6749 1911 Pls
6749 2109 Pls
6749 2348 Pls
6749 2491 Pls
6749 2467 Pls
6749 2875 Pls
6749 3047 Pls
6749 3149 Pls
6749 3039 Pls
6749 3341 Pls
6749 3745 Pls
6749 3813 Pls
6749 3918 Pls
6749 4369 Pls
6749 4182 Pls
6749 4642 Pls
1225 801 Pls
1225 802 Pls
1225 803 Pls
1225 805 Pls
1225 801 Pls
1225 802 Pls
1225 803 Pls
1225 804 Pls
1225 801 Pls
1225 801 Pls
1225 802 Pls
1225 803 Pls
1225 801 Pls
1225 801 Pls
1225 802 Pls
1225 803 Pls
1225 800 Pls
1225 801 Pls
1225 802 Pls
1225 802 Pls
1225 801 Pls
1225 801 Pls
1225 802 Pls
1225 802 Pls
1225 801 Pls
1225 802 Pls
1225 802 Pls
1225 802 Pls
1225 801 Pls
1225 802 Pls
1225 802 Pls
1225 803 Pls
1225 802 Pls
1225 802 Pls
1225 803 Pls
1225 803 Pls
1225 802 Pls
1225 802 Pls
1225 803 Pls
1225 804 Pls
2606 815 Pls
2606 815 Pls
2606 826 Pls
2606 829 Pls
2606 810 Pls
2606 813 Pls
2606 820 Pls
2606 824 Pls
2606 808 Pls
2606 810 Pls
2606 815 Pls
2606 819 Pls
2606 806 Pls
2606 808 Pls
2606 813 Pls
2606 818 Pls
2606 805 Pls
2606 807 Pls
2606 809 Pls
2606 815 Pls
2606 811 Pls
2606 816 Pls
2606 820 Pls
2606 822 Pls
2606 817 Pls
2606 820 Pls
2606 826 Pls
2606 831 Pls
2606 825 Pls
2606 827 Pls
2606 832 Pls
2606 836 Pls
2606 830 Pls
2606 836 Pls
2606 839 Pls
2606 847 Pls
2606 835 Pls
2606 845 Pls
2606 849 Pls
2606 856 Pls
3987 839 Pls
3987 857 Pls
3987 883 Pls
3987 908 Pls
3987 838 Pls
3987 850 Pls
3987 861 Pls
3987 880 Pls
3987 828 Pls
3987 840 Pls
3987 845 Pls
3987 859 Pls
3987 819 Pls
3987 829 Pls
3987 835 Pls
3987 855 Pls
3987 818 Pls
3987 821 Pls
3987 832 Pls
3987 838 Pls
3987 844 Pls
3987 865 Pls
3987 878 Pls
3987 889 Pls
3987 877 Pls
3987 897 Pls
3987 909 Pls
3987 927 Pls
3987 913 Pls
3987 926 Pls
3987 952 Pls
3987 959 Pls
3987 951 Pls
3987 974 Pls
3987 988 Pls
3987 1002 Pls
3987 983 Pls
3987 1021 Pls
3987 1041 Pls
3987 1044 Pls
5368 927 Pls
5368 980 Pls
5368 1060 Pls
5368 1132 Pls
5368 953 Pls
5368 935 Pls
5368 998 Pls
5368 1086 Pls
5368 908 Pls
5368 901 Pls
5368 952 Pls
5368 1029 Pls
5368 850 Pls
5368 873 Pls
5368 914 Pls
5368 935 Pls
5368 852 Pls
5368 839 Pls
5368 869 Pls
5368 897 Pls
5368 968 Pls
5368 1017 Pls
5368 1067 Pls
5368 1086 Pls
5368 1098 Pls
5368 1147 Pls
5368 1210 Pls
5368 1239 Pls
5368 1186 Pls
5368 1244 Pls
5368 1333 Pls
5368 1336 Pls
5368 1347 Pls
5368 1391 Pls
5368 1455 Pls
5368 1557 Pls
5368 1538 Pls
5368 1482 Pls
5368 1680 Pls
5368 1666 Pls
6749 1072 Pls
6749 1168 Pls
6749 1331 Pls
6749 1437 Pls
6749 1051 Pls
6749 1081 Pls
6749 1171 Pls
6749 1333 Pls
6749 979 Pls
6749 1048 Pls
6749 1129 Pls
6749 1277 Pls
6749 960 Pls
6749 985 Pls
6749 1075 Pls
6749 1136 Pls
6749 912 Pls
6749 898 Pls
6749 1037 Pls
6749 1065 Pls
6749 1464 Pls
6749 1556 Pls
6749 1705 Pls
6749 1852 Pls
6749 1827 Pls
6749 2204 Pls
6749 2258 Pls
6749 2497 Pls
6749 2543 Pls
6749 2886 Pls
6749 3071 Pls
6749 2888 Pls
6749 3149 Pls
6749 3401 Pls
6749 3667 Pls
6749 3826 Pls
6749 3561 Pls
6749 4122 Pls
6749 4455 Pls
6749 4354 Pls
1225 801 Pls
1225 802 Pls
1225 803 Pls
1225 805 Pls
1225 801 Pls
1225 802 Pls
1225 803 Pls
1225 805 Pls
1225 801 Pls
1225 802 Pls
1225 802 Pls
1225 804 Pls
1225 801 Pls
1225 801 Pls
1225 802 Pls
1225 803 Pls
1225 801 Pls
1225 801 Pls
1225 801 Pls
1225 802 Pls
1225 801 Pls
1225 801 Pls
1225 802 Pls
1225 802 Pls
1225 801 Pls
1225 802 Pls
1225 802 Pls
1225 802 Pls
1225 801 Pls
1225 802 Pls
1225 803 Pls
1225 803 Pls
1225 802 Pls
1225 802 Pls
1225 803 Pls
1225 803 Pls
1225 802 Pls
1225 803 Pls
1225 803 Pls
1225 804 Pls
2606 816 Pls
2606 817 Pls
2606 822 Pls
2606 827 Pls
2606 809 Pls
2606 815 Pls
2606 820 Pls
2606 825 Pls
2606 807 Pls
2606 812 Pls
2606 814 Pls
2606 820 Pls
2606 805 Pls
2606 809 Pls
2606 812 Pls
2606 816 Pls
2606 805 Pls
2606 807 Pls
2606 811 Pls
2606 814 Pls
2606 810 Pls
2606 814 Pls
2606 822 Pls
2606 824 Pls
2606 817 Pls
2606 824 Pls
2606 824 Pls
2606 829 Pls
2606 824 Pls
2606 828 Pls
2606 833 Pls
2606 837 Pls
2606 829 Pls
2606 836 Pls
2606 841 Pls
2606 845 Pls
2606 840 Pls
2606 847 Pls
2606 849 Pls
2606 852 Pls
3987 842 Pls
3987 866 Pls
3987 878 Pls
3987 907 Pls
3987 838 Pls
3987 845 Pls
3987 855 Pls
3987 871 Pls
3987 829 Pls
3987 832 Pls
3987 852 Pls
3987 863 Pls
3987 814 Pls
3987 830 Pls
3987 832 Pls
3987 850 Pls
3987 814 Pls
3987 829 Pls
3987 829 Pls
3987 841 Pls
3987 845 Pls
3987 863 Pls
3987 876 Pls
3987 890 Pls
3987 871 Pls
3987 891 Pls
3987 907 Pls
3987 922 Pls
3987 899 Pls
3987 940 Pls
3987 951 Pls
3987 967 Pls
3987 953 Pls
3987 974 Pls
3987 995 Pls
3987 1014 Pls
3987 999 Pls
3987 1026 Pls
3987 1029 Pls
3987 1048 Pls
5368 955 Pls
5368 971 Pls
5368 1048 Pls
5368 1160 Pls
5368 901 Pls
5368 938 Pls
5368 1010 Pls
5368 1067 Pls
5368 888 Pls
5368 907 Pls
5368 931 Pls
5368 994 Pls
5368 854 Pls
5368 873 Pls
5368 921 Pls
5368 944 Pls
5368 839 Pls
5368 852 Pls
5368 873 Pls
5368 893 Pls
5368 950 Pls
5368 1028 Pls
5368 1081 Pls
5368 1083 Pls
5368 1059 Pls
5368 1131 Pls
5368 1199 Pls
5368 1277 Pls
5368 1172 Pls
5368 1269 Pls
5368 1314 Pls
5368 1424 Pls
5368 1352 Pls
5368 1406 Pls
5368 1431 Pls
5368 1555 Pls
5368 1481 Pls
5368 1629 Pls
5368 1648 Pls
5368 1721 Pls
6749 1097 Pls
6749 1196 Pls
6749 1292 Pls
6749 1433 Pls
6749 1032 Pls
6749 1088 Pls
6749 1145 Pls
6749 1367 Pls
6749 996 Pls
6749 1021 Pls
6749 1165 Pls
6749 1209 Pls
6749 952 Pls
6749 988 Pls
6749 1047 Pls
6749 1207 Pls
6749 933 Pls
6749 982 Pls
6749 1023 Pls
6749 1051 Pls
6749 1429 Pls
6749 1547 Pls
6749 1847 Pls
6749 1975 Pls
6749 1985 Pls
6749 2135 Pls
6749 2331 Pls
6749 2438 Pls
6749 2190 Pls
6749 2835 Pls
6749 2944 Pls
6749 3143 Pls
6749 3101 Pls
6749 3414 Pls
6749 3698 Pls
6749 3934 Pls
6749 3953 Pls
6749 4217 Pls
6749 4536 Pls
6749 4683 Pls
% End plot #1
% Begin plot #2
8.000 UL
LT1
LCb setrgbcolor
2425 4551 M
[ [(Helvetica) 250.0 0.0 true true 0 (Average)]
] -83.3 MRshow
LT1
2575 4551 M
663 0 V
1225 802 M
1381 20 V
1381 72 V
1381 232 V
1381 873 V
% End plot #2
% Begin plot #3
stroke
4.000 UL
LT2
LCb setrgbcolor
2425 4301 M
[ [(Helvetica) 250.0 0.0 true true 0 (Min)]
] -83.3 MRshow
LT2
2575 4301 M
663 0 V
1225 800 M
1381 4 V
1381 8 V
1381 25 V
1381 45 V
% End plot #3
% Begin plot #4
stroke
LT3
LCb setrgbcolor
2425 4051 M
[ [(Helvetica) 250.0 0.0 true true 0 (Max)]
] -83.3 MRshow
LT3
2575 4051 M
663 0 V
1225 805 M
1381 51 V
1381 206 V
1381 730 V
6749 4724 L
% End plot #4
stroke
1.000 UL
LTb
1225 4739 N
0 -3939 V
5524 0 V
0 3939 V
-5524 0 V
Z stroke
1.000 UP
1.000 UL
LTb
stroke
grestore
end
showpage
%%Trailer
%%DocumentFonts: Helvetica
