%!PS-Adobe-2.0 EPSF-2.0
%%Title: r_orig_length-recall.eps
%%Creator: gnuplot 4.4 patchlevel 3
%%CreationDate: Fri Jun 14 19:20:07 2013
%%DocumentFonts: (atend)
%%BoundingBox: 50 50 410 302
%%EndComments
%%BeginProlog
/gnudict 256 dict def
gnudict begin
%
% The following true/false flags may be edited by hand if desired.
% The unit line width and grayscale image gamma correction may also be changed.
%
/Color true def
/Blacktext false def
/Solid false def
/Dashlength 1 def
/Landscape false def
/Level1 false def
/Rounded false def
/ClipToBoundingBox false def
/TransparentPatterns false def
/gnulinewidth 5.000 def
/userlinewidth gnulinewidth def
/Gamma 1.0 def
%
/vshift -83 def
/dl1 {
  10.0 Dashlength mul mul
  Rounded { currentlinewidth 0.75 mul sub dup 0 le { pop 0.01 } if } if
} def
/dl2 {
  10.0 Dashlength mul mul
  Rounded { currentlinewidth 0.75 mul add } if
} def
/hpt_ 31.5 def
/vpt_ 31.5 def
/hpt hpt_ def
/vpt vpt_ def
Level1 {} {
/SDict 10 dict def
systemdict /pdfmark known not {
  userdict /pdfmark systemdict /cleartomark get put
} if
SDict begin [
  /Title (r_orig_length-recall.eps)
  /Subject (gnuplot plot)
  /Creator (gnuplot 4.4 patchlevel 3)
  /Author (xjia)
%  /Producer (gnuplot)
%  /Keywords ()
  /CreationDate (Fri Jun 14 19:20:07 2013)
  /DOCINFO pdfmark
end
} ifelse
/doclip {
  ClipToBoundingBox {
    newpath 50 50 moveto 410 50 lineto 410 302 lineto 50 302 lineto closepath
    clip
  } if
} def
%
% Gnuplot Prolog Version 4.4 (August 2010)
%
%/SuppressPDFMark true def
%
/M {moveto} bind def
/L {lineto} bind def
/R {rmoveto} bind def
/V {rlineto} bind def
/N {newpath moveto} bind def
/Z {closepath} bind def
/C {setrgbcolor} bind def
/f {rlineto fill} bind def
/g {setgray} bind def
/Gshow {show} def   % May be redefined later in the file to support UTF-8
/vpt2 vpt 2 mul def
/hpt2 hpt 2 mul def
/Lshow {currentpoint stroke M 0 vshift R 
	Blacktext {gsave 0 setgray show grestore} {show} ifelse} def
/Rshow {currentpoint stroke M dup stringwidth pop neg vshift R
	Blacktext {gsave 0 setgray show grestore} {show} ifelse} def
/Cshow {currentpoint stroke M dup stringwidth pop -2 div vshift R 
	Blacktext {gsave 0 setgray show grestore} {show} ifelse} def
/UP {dup vpt_ mul /vpt exch def hpt_ mul /hpt exch def
  /hpt2 hpt 2 mul def /vpt2 vpt 2 mul def} def
/DL {Color {setrgbcolor Solid {pop []} if 0 setdash}
 {pop pop pop 0 setgray Solid {pop []} if 0 setdash} ifelse} def
/BL {stroke userlinewidth 2 mul setlinewidth
	Rounded {1 setlinejoin 1 setlinecap} if} def
/AL {stroke userlinewidth 2 div setlinewidth
	Rounded {1 setlinejoin 1 setlinecap} if} def
/UL {dup gnulinewidth mul /userlinewidth exch def
	dup 1 lt {pop 1} if 10 mul /udl exch def} def
/PL {stroke userlinewidth setlinewidth
	Rounded {1 setlinejoin 1 setlinecap} if} def
3.8 setmiterlimit
% Default Line colors
/LCw {1 1 1} def
/LCb {0 0 0} def
/LCa {0 0 0} def
/LC0 {1 0 0} def
/LC1 {0 1 0} def
/LC2 {0 0 1} def
/LC3 {1 0 1} def
/LC4 {0 1 1} def
/LC5 {1 1 0} def
/LC6 {0 0 0} def
/LC7 {1 0.3 0} def
/LC8 {0.5 0.5 0.5} def
% Default Line Types
/LTw {PL [] 1 setgray} def
/LTb {BL [] LCb DL} def
/LTa {AL [1 udl mul 2 udl mul] 0 setdash LCa setrgbcolor} def
/LT0 {PL [] LC0 DL} def
/LT1 {PL [4 dl1 2 dl2] LC1 DL} def
/LT2 {PL [2 dl1 3 dl2] LC2 DL} def
/LT3 {PL [1 dl1 1.5 dl2] LC3 DL} def
/LT4 {PL [6 dl1 2 dl2 1 dl1 2 dl2] LC4 DL} def
/LT5 {PL [3 dl1 3 dl2 1 dl1 3 dl2] LC5 DL} def
/LT6 {PL [2 dl1 2 dl2 2 dl1 6 dl2] LC6 DL} def
/LT7 {PL [1 dl1 2 dl2 6 dl1 2 dl2 1 dl1 2 dl2] LC7 DL} def
/LT8 {PL [2 dl1 2 dl2 2 dl1 2 dl2 2 dl1 2 dl2 2 dl1 4 dl2] LC8 DL} def
/Pnt {stroke [] 0 setdash gsave 1 setlinecap M 0 0 V stroke grestore} def
/Dia {stroke [] 0 setdash 2 copy vpt add M
  hpt neg vpt neg V hpt vpt neg V
  hpt vpt V hpt neg vpt V closepath stroke
  Pnt} def
/Pls {stroke [] 0 setdash vpt sub M 0 vpt2 V
  currentpoint stroke M
  hpt neg vpt neg R hpt2 0 V stroke
 } def
/Box {stroke [] 0 setdash 2 copy exch hpt sub exch vpt add M
  0 vpt2 neg V hpt2 0 V 0 vpt2 V
  hpt2 neg 0 V closepath stroke
  Pnt} def
/Crs {stroke [] 0 setdash exch hpt sub exch vpt add M
  hpt2 vpt2 neg V currentpoint stroke M
  hpt2 neg 0 R hpt2 vpt2 V stroke} def
/TriU {stroke [] 0 setdash 2 copy vpt 1.12 mul add M
  hpt neg vpt -1.62 mul V
  hpt 2 mul 0 V
  hpt neg vpt 1.62 mul V closepath stroke
  Pnt} def
/Star {2 copy Pls Crs} def
/BoxF {stroke [] 0 setdash exch hpt sub exch vpt add M
  0 vpt2 neg V hpt2 0 V 0 vpt2 V
  hpt2 neg 0 V closepath fill} def
/TriUF {stroke [] 0 setdash vpt 1.12 mul add M
  hpt neg vpt -1.62 mul V
  hpt 2 mul 0 V
  hpt neg vpt 1.62 mul V closepath fill} def
/TriD {stroke [] 0 setdash 2 copy vpt 1.12 mul sub M
  hpt neg vpt 1.62 mul V
  hpt 2 mul 0 V
  hpt neg vpt -1.62 mul V closepath stroke
  Pnt} def
/TriDF {stroke [] 0 setdash vpt 1.12 mul sub M
  hpt neg vpt 1.62 mul V
  hpt 2 mul 0 V
  hpt neg vpt -1.62 mul V closepath fill} def
/DiaF {stroke [] 0 setdash vpt add M
  hpt neg vpt neg V hpt vpt neg V
  hpt vpt V hpt neg vpt V closepath fill} def
/Pent {stroke [] 0 setdash 2 copy gsave
  translate 0 hpt M 4 {72 rotate 0 hpt L} repeat
  closepath stroke grestore Pnt} def
/PentF {stroke [] 0 setdash gsave
  translate 0 hpt M 4 {72 rotate 0 hpt L} repeat
  closepath fill grestore} def
/Circle {stroke [] 0 setdash 2 copy
  hpt 0 360 arc stroke Pnt} def
/CircleF {stroke [] 0 setdash hpt 0 360 arc fill} def
/C0 {BL [] 0 setdash 2 copy moveto vpt 90 450 arc} bind def
/C1 {BL [] 0 setdash 2 copy moveto
	2 copy vpt 0 90 arc closepath fill
	vpt 0 360 arc closepath} bind def
/C2 {BL [] 0 setdash 2 copy moveto
	2 copy vpt 90 180 arc closepath fill
	vpt 0 360 arc closepath} bind def
/C3 {BL [] 0 setdash 2 copy moveto
	2 copy vpt 0 180 arc closepath fill
	vpt 0 360 arc closepath} bind def
/C4 {BL [] 0 setdash 2 copy moveto
	2 copy vpt 180 270 arc closepath fill
	vpt 0 360 arc closepath} bind def
/C5 {BL [] 0 setdash 2 copy moveto
	2 copy vpt 0 90 arc
	2 copy moveto
	2 copy vpt 180 270 arc closepath fill
	vpt 0 360 arc} bind def
/C6 {BL [] 0 setdash 2 copy moveto
	2 copy vpt 90 270 arc closepath fill
	vpt 0 360 arc closepath} bind def
/C7 {BL [] 0 setdash 2 copy moveto
	2 copy vpt 0 270 arc closepath fill
	vpt 0 360 arc closepath} bind def
/C8 {BL [] 0 setdash 2 copy moveto
	2 copy vpt 270 360 arc closepath fill
	vpt 0 360 arc closepath} bind def
/C9 {BL [] 0 setdash 2 copy moveto
	2 copy vpt 270 450 arc closepath fill
	vpt 0 360 arc closepath} bind def
/C10 {BL [] 0 setdash 2 copy 2 copy moveto vpt 270 360 arc closepath fill
	2 copy moveto
	2 copy vpt 90 180 arc closepath fill
	vpt 0 360 arc closepath} bind def
/C11 {BL [] 0 setdash 2 copy moveto
	2 copy vpt 0 180 arc closepath fill
	2 copy moveto
	2 copy vpt 270 360 arc closepath fill
	vpt 0 360 arc closepath} bind def
/C12 {BL [] 0 setdash 2 copy moveto
	2 copy vpt 180 360 arc closepath fill
	vpt 0 360 arc closepath} bind def
/C13 {BL [] 0 setdash 2 copy moveto
	2 copy vpt 0 90 arc closepath fill
	2 copy moveto
	2 copy vpt 180 360 arc closepath fill
	vpt 0 360 arc closepath} bind def
/C14 {BL [] 0 setdash 2 copy moveto
	2 copy vpt 90 360 arc closepath fill
	vpt 0 360 arc} bind def
/C15 {BL [] 0 setdash 2 copy vpt 0 360 arc closepath fill
	vpt 0 360 arc closepath} bind def
/Rec {newpath 4 2 roll moveto 1 index 0 rlineto 0 exch rlineto
	neg 0 rlineto closepath} bind def
/Square {dup Rec} bind def
/Bsquare {vpt sub exch vpt sub exch vpt2 Square} bind def
/S0 {BL [] 0 setdash 2 copy moveto 0 vpt rlineto BL Bsquare} bind def
/S1 {BL [] 0 setdash 2 copy vpt Square fill Bsquare} bind def
/S2 {BL [] 0 setdash 2 copy exch vpt sub exch vpt Square fill Bsquare} bind def
/S3 {BL [] 0 setdash 2 copy exch vpt sub exch vpt2 vpt Rec fill Bsquare} bind def
/S4 {BL [] 0 setdash 2 copy exch vpt sub exch vpt sub vpt Square fill Bsquare} bind def
/S5 {BL [] 0 setdash 2 copy 2 copy vpt Square fill
	exch vpt sub exch vpt sub vpt Square fill Bsquare} bind def
/S6 {BL [] 0 setdash 2 copy exch vpt sub exch vpt sub vpt vpt2 Rec fill Bsquare} bind def
/S7 {BL [] 0 setdash 2 copy exch vpt sub exch vpt sub vpt vpt2 Rec fill
	2 copy vpt Square fill Bsquare} bind def
/S8 {BL [] 0 setdash 2 copy vpt sub vpt Square fill Bsquare} bind def
/S9 {BL [] 0 setdash 2 copy vpt sub vpt vpt2 Rec fill Bsquare} bind def
/S10 {BL [] 0 setdash 2 copy vpt sub vpt Square fill 2 copy exch vpt sub exch vpt Square fill
	Bsquare} bind def
/S11 {BL [] 0 setdash 2 copy vpt sub vpt Square fill 2 copy exch vpt sub exch vpt2 vpt Rec fill
	Bsquare} bind def
/S12 {BL [] 0 setdash 2 copy exch vpt sub exch vpt sub vpt2 vpt Rec fill Bsquare} bind def
/S13 {BL [] 0 setdash 2 copy exch vpt sub exch vpt sub vpt2 vpt Rec fill
	2 copy vpt Square fill Bsquare} bind def
/S14 {BL [] 0 setdash 2 copy exch vpt sub exch vpt sub vpt2 vpt Rec fill
	2 copy exch vpt sub exch vpt Square fill Bsquare} bind def
/S15 {BL [] 0 setdash 2 copy Bsquare fill Bsquare} bind def
/D0 {gsave translate 45 rotate 0 0 S0 stroke grestore} bind def
/D1 {gsave translate 45 rotate 0 0 S1 stroke grestore} bind def
/D2 {gsave translate 45 rotate 0 0 S2 stroke grestore} bind def
/D3 {gsave translate 45 rotate 0 0 S3 stroke grestore} bind def
/D4 {gsave translate 45 rotate 0 0 S4 stroke grestore} bind def
/D5 {gsave translate 45 rotate 0 0 S5 stroke grestore} bind def
/D6 {gsave translate 45 rotate 0 0 S6 stroke grestore} bind def
/D7 {gsave translate 45 rotate 0 0 S7 stroke grestore} bind def
/D8 {gsave translate 45 rotate 0 0 S8 stroke grestore} bind def
/D9 {gsave translate 45 rotate 0 0 S9 stroke grestore} bind def
/D10 {gsave translate 45 rotate 0 0 S10 stroke grestore} bind def
/D11 {gsave translate 45 rotate 0 0 S11 stroke grestore} bind def
/D12 {gsave translate 45 rotate 0 0 S12 stroke grestore} bind def
/D13 {gsave translate 45 rotate 0 0 S13 stroke grestore} bind def
/D14 {gsave translate 45 rotate 0 0 S14 stroke grestore} bind def
/D15 {gsave translate 45 rotate 0 0 S15 stroke grestore} bind def
/DiaE {stroke [] 0 setdash vpt add M
  hpt neg vpt neg V hpt vpt neg V
  hpt vpt V hpt neg vpt V closepath stroke} def
/BoxE {stroke [] 0 setdash exch hpt sub exch vpt add M
  0 vpt2 neg V hpt2 0 V 0 vpt2 V
  hpt2 neg 0 V closepath stroke} def
/TriUE {stroke [] 0 setdash vpt 1.12 mul add M
  hpt neg vpt -1.62 mul V
  hpt 2 mul 0 V
  hpt neg vpt 1.62 mul V closepath stroke} def
/TriDE {stroke [] 0 setdash vpt 1.12 mul sub M
  hpt neg vpt 1.62 mul V
  hpt 2 mul 0 V
  hpt neg vpt -1.62 mul V closepath stroke} def
/PentE {stroke [] 0 setdash gsave
  translate 0 hpt M 4 {72 rotate 0 hpt L} repeat
  closepath stroke grestore} def
/CircE {stroke [] 0 setdash 
  hpt 0 360 arc stroke} def
/Opaque {gsave closepath 1 setgray fill grestore 0 setgray closepath} def
/DiaW {stroke [] 0 setdash vpt add M
  hpt neg vpt neg V hpt vpt neg V
  hpt vpt V hpt neg vpt V Opaque stroke} def
/BoxW {stroke [] 0 setdash exch hpt sub exch vpt add M
  0 vpt2 neg V hpt2 0 V 0 vpt2 V
  hpt2 neg 0 V Opaque stroke} def
/TriUW {stroke [] 0 setdash vpt 1.12 mul add M
  hpt neg vpt -1.62 mul V
  hpt 2 mul 0 V
  hpt neg vpt 1.62 mul V Opaque stroke} def
/TriDW {stroke [] 0 setdash vpt 1.12 mul sub M
  hpt neg vpt 1.62 mul V
  hpt 2 mul 0 V
  hpt neg vpt -1.62 mul V Opaque stroke} def
/PentW {stroke [] 0 setdash gsave
  translate 0 hpt M 4 {72 rotate 0 hpt L} repeat
  Opaque stroke grestore} def
/CircW {stroke [] 0 setdash 
  hpt 0 360 arc Opaque stroke} def
/BoxFill {gsave Rec 1 setgray fill grestore} def
/Density {
  /Fillden exch def
  currentrgbcolor
  /ColB exch def /ColG exch def /ColR exch def
  /ColR ColR Fillden mul Fillden sub 1 add def
  /ColG ColG Fillden mul Fillden sub 1 add def
  /ColB ColB Fillden mul Fillden sub 1 add def
  ColR ColG ColB setrgbcolor} def
/BoxColFill {gsave Rec PolyFill} def
/PolyFill {gsave Density fill grestore grestore} def
/h {rlineto rlineto rlineto gsave closepath fill grestore} bind def
%
% PostScript Level 1 Pattern Fill routine for rectangles
% Usage: x y w h s a XX PatternFill
%	x,y = lower left corner of box to be filled
%	w,h = width and height of box
%	  a = angle in degrees between lines and x-axis
%	 XX = 0/1 for no/yes cross-hatch
%
/PatternFill {gsave /PFa [ 9 2 roll ] def
  PFa 0 get PFa 2 get 2 div add PFa 1 get PFa 3 get 2 div add translate
  PFa 2 get -2 div PFa 3 get -2 div PFa 2 get PFa 3 get Rec
  gsave 1 setgray fill grestore clip
  currentlinewidth 0.5 mul setlinewidth
  /PFs PFa 2 get dup mul PFa 3 get dup mul add sqrt def
  0 0 M PFa 5 get rotate PFs -2 div dup translate
  0 1 PFs PFa 4 get div 1 add floor cvi
	{PFa 4 get mul 0 M 0 PFs V} for
  0 PFa 6 get ne {
	0 1 PFs PFa 4 get div 1 add floor cvi
	{PFa 4 get mul 0 2 1 roll M PFs 0 V} for
 } if
  stroke grestore} def
%
/languagelevel where
 {pop languagelevel} {1} ifelse
 2 lt
	{/InterpretLevel1 true def}
	{/InterpretLevel1 Level1 def}
 ifelse
%
% PostScript level 2 pattern fill definitions
%
/Level2PatternFill {
/Tile8x8 {/PaintType 2 /PatternType 1 /TilingType 1 /BBox [0 0 8 8] /XStep 8 /YStep 8}
	bind def
/KeepColor {currentrgbcolor [/Pattern /DeviceRGB] setcolorspace} bind def
<< Tile8x8
 /PaintProc {0.5 setlinewidth pop 0 0 M 8 8 L 0 8 M 8 0 L stroke} 
>> matrix makepattern
/Pat1 exch def
<< Tile8x8
 /PaintProc {0.5 setlinewidth pop 0 0 M 8 8 L 0 8 M 8 0 L stroke
	0 4 M 4 8 L 8 4 L 4 0 L 0 4 L stroke}
>> matrix makepattern
/Pat2 exch def
<< Tile8x8
 /PaintProc {0.5 setlinewidth pop 0 0 M 0 8 L
	8 8 L 8 0 L 0 0 L fill}
>> matrix makepattern
/Pat3 exch def
<< Tile8x8
 /PaintProc {0.5 setlinewidth pop -4 8 M 8 -4 L
	0 12 M 12 0 L stroke}
>> matrix makepattern
/Pat4 exch def
<< Tile8x8
 /PaintProc {0.5 setlinewidth pop -4 0 M 8 12 L
	0 -4 M 12 8 L stroke}
>> matrix makepattern
/Pat5 exch def
<< Tile8x8
 /PaintProc {0.5 setlinewidth pop -2 8 M 4 -4 L
	0 12 M 8 -4 L 4 12 M 10 0 L stroke}
>> matrix makepattern
/Pat6 exch def
<< Tile8x8
 /PaintProc {0.5 setlinewidth pop -2 0 M 4 12 L
	0 -4 M 8 12 L 4 -4 M 10 8 L stroke}
>> matrix makepattern
/Pat7 exch def
<< Tile8x8
 /PaintProc {0.5 setlinewidth pop 8 -2 M -4 4 L
	12 0 M -4 8 L 12 4 M 0 10 L stroke}
>> matrix makepattern
/Pat8 exch def
<< Tile8x8
 /PaintProc {0.5 setlinewidth pop 0 -2 M 12 4 L
	-4 0 M 12 8 L -4 4 M 8 10 L stroke}
>> matrix makepattern
/Pat9 exch def
/Pattern1 {PatternBgnd KeepColor Pat1 setpattern} bind def
/Pattern2 {PatternBgnd KeepColor Pat2 setpattern} bind def
/Pattern3 {PatternBgnd KeepColor Pat3 setpattern} bind def
/Pattern4 {PatternBgnd KeepColor Landscape {Pat5} {Pat4} ifelse setpattern} bind def
/Pattern5 {PatternBgnd KeepColor Landscape {Pat4} {Pat5} ifelse setpattern} bind def
/Pattern6 {PatternBgnd KeepColor Landscape {Pat9} {Pat6} ifelse setpattern} bind def
/Pattern7 {PatternBgnd KeepColor Landscape {Pat8} {Pat7} ifelse setpattern} bind def
} def
%
%
%End of PostScript Level 2 code
%
/PatternBgnd {
  TransparentPatterns {} {gsave 1 setgray fill grestore} ifelse
} def
%
% Substitute for Level 2 pattern fill codes with
% grayscale if Level 2 support is not selected.
%
/Level1PatternFill {
/Pattern1 {0.250 Density} bind def
/Pattern2 {0.500 Density} bind def
/Pattern3 {0.750 Density} bind def
/Pattern4 {0.125 Density} bind def
/Pattern5 {0.375 Density} bind def
/Pattern6 {0.625 Density} bind def
/Pattern7 {0.875 Density} bind def
} def
%
% Now test for support of Level 2 code
%
Level1 {Level1PatternFill} {Level2PatternFill} ifelse
%
/Symbol-Oblique /Symbol findfont [1 0 .167 1 0 0] makefont
dup length dict begin {1 index /FID eq {pop pop} {def} ifelse} forall
currentdict end definefont pop
/MFshow {
   { dup 5 get 3 ge
     { 5 get 3 eq {gsave} {grestore} ifelse }
     {dup dup 0 get findfont exch 1 get scalefont setfont
     [ currentpoint ] exch dup 2 get 0 exch R dup 5 get 2 ne {dup dup 6
     get exch 4 get {Gshow} {stringwidth pop 0 R} ifelse }if dup 5 get 0 eq
     {dup 3 get {2 get neg 0 exch R pop} {pop aload pop M} ifelse} {dup 5
     get 1 eq {dup 2 get exch dup 3 get exch 6 get stringwidth pop -2 div
     dup 0 R} {dup 6 get stringwidth pop -2 div 0 R 6 get
     show 2 index {aload pop M neg 3 -1 roll neg R pop pop} {pop pop pop
     pop aload pop M} ifelse }ifelse }ifelse }
     ifelse }
   forall} def
/Gswidth {dup type /stringtype eq {stringwidth} {pop (n) stringwidth} ifelse} def
/MFwidth {0 exch { dup 5 get 3 ge { 5 get 3 eq { 0 } { pop } ifelse }
 {dup 3 get{dup dup 0 get findfont exch 1 get scalefont setfont
     6 get Gswidth pop add} {pop} ifelse} ifelse} forall} def
/MLshow { currentpoint stroke M
  0 exch R
  Blacktext {gsave 0 setgray MFshow grestore} {MFshow} ifelse } bind def
/MRshow { currentpoint stroke M
  exch dup MFwidth neg 3 -1 roll R
  Blacktext {gsave 0 setgray MFshow grestore} {MFshow} ifelse } bind def
/MCshow { currentpoint stroke M
  exch dup MFwidth -2 div 3 -1 roll R
  Blacktext {gsave 0 setgray MFshow grestore} {MFshow} ifelse } bind def
/XYsave    { [( ) 1 2 true false 3 ()] } bind def
/XYrestore { [( ) 1 2 true false 4 ()] } bind def
end
%%EndProlog
gnudict begin
gsave
doclip
50 50 translate
0.050 0.050 scale
0 setgray
newpath
(Helvetica) findfont 250 scalefont setfont
1.000 UL
LTb
1375 800 M
63 0 V
5311 0 R
-63 0 V
stroke
1225 800 M
[ [(Helvetica) 250.0 0.0 true true 0 ( 0.6)]
] -83.3 MRshow
1.000 UL
LTb
1375 1292 M
63 0 V
5311 0 R
-63 0 V
stroke
1225 1292 M
[ [(Helvetica) 250.0 0.0 true true 0 ( 0.65)]
] -83.3 MRshow
1.000 UL
LTb
1375 1785 M
63 0 V
5311 0 R
-63 0 V
stroke
1225 1785 M
[ [(Helvetica) 250.0 0.0 true true 0 ( 0.7)]
] -83.3 MRshow
1.000 UL
LTb
1375 2277 M
63 0 V
5311 0 R
-63 0 V
stroke
1225 2277 M
[ [(Helvetica) 250.0 0.0 true true 0 ( 0.75)]
] -83.3 MRshow
1.000 UL
LTb
1375 2770 M
63 0 V
5311 0 R
-63 0 V
stroke
1225 2770 M
[ [(Helvetica) 250.0 0.0 true true 0 ( 0.8)]
] -83.3 MRshow
1.000 UL
LTb
1375 3262 M
63 0 V
5311 0 R
-63 0 V
stroke
1225 3262 M
[ [(Helvetica) 250.0 0.0 true true 0 ( 0.85)]
] -83.3 MRshow
1.000 UL
LTb
1375 3754 M
63 0 V
5311 0 R
-63 0 V
stroke
1225 3754 M
[ [(Helvetica) 250.0 0.0 true true 0 ( 0.9)]
] -83.3 MRshow
1.000 UL
LTb
1375 4247 M
63 0 V
5311 0 R
-63 0 V
stroke
1225 4247 M
[ [(Helvetica) 250.0 0.0 true true 0 ( 0.95)]
] -83.3 MRshow
1.000 UL
LTb
1375 4739 M
63 0 V
5311 0 R
-63 0 V
stroke
1225 4739 M
[ [(Helvetica) 250.0 0.0 true true 0 ( 1)]
] -83.3 MRshow
1.000 UL
LTb
1375 800 M
0 63 V
0 3876 R
0 -63 V
stroke
1375 550 M
[ [(Helvetica) 250.0 0.0 true true 0 ( 20)]
] -83.3 MCshow
1.000 UL
LTb
2047 800 M
0 63 V
0 3876 R
0 -63 V
stroke
2047 550 M
[ [(Helvetica) 250.0 0.0 true true 0 ( 30)]
] -83.3 MCshow
1.000 UL
LTb
2719 800 M
0 63 V
0 3876 R
0 -63 V
stroke
2719 550 M
[ [(Helvetica) 250.0 0.0 true true 0 ( 40)]
] -83.3 MCshow
1.000 UL
LTb
3390 800 M
0 63 V
0 3876 R
0 -63 V
stroke
3390 550 M
[ [(Helvetica) 250.0 0.0 true true 0 ( 50)]
] -83.3 MCshow
1.000 UL
LTb
4062 800 M
0 63 V
0 3876 R
0 -63 V
stroke
4062 550 M
[ [(Helvetica) 250.0 0.0 true true 0 ( 60)]
] -83.3 MCshow
1.000 UL
LTb
4734 800 M
0 63 V
0 3876 R
0 -63 V
stroke
4734 550 M
[ [(Helvetica) 250.0 0.0 true true 0 ( 70)]
] -83.3 MCshow
1.000 UL
LTb
5406 800 M
0 63 V
0 3876 R
0 -63 V
stroke
5406 550 M
[ [(Helvetica) 250.0 0.0 true true 0 ( 80)]
] -83.3 MCshow
1.000 UL
LTb
6077 800 M
0 63 V
0 3876 R
0 -63 V
stroke
6077 550 M
[ [(Helvetica) 250.0 0.0 true true 0 ( 90)]
] -83.3 MCshow
1.000 UL
LTb
6749 800 M
0 63 V
0 3876 R
0 -63 V
stroke
6749 550 M
[ [(Helvetica) 250.0 0.0 true true 0 ( 100)]
] -83.3 MCshow
1.000 UL
LTb
1.000 UL
LTb
1375 4739 N
0 -3939 V
5374 0 V
0 3939 V
-5374 0 V
Z stroke
LCb setrgbcolor
200 2769 M
currentpoint gsave translate -270 rotate 0 0 moveto
[ [(Helvetica) 250.0 0.0 true true 0 (Recall)]
] -83.3 MCshow
grestore
LTb
LCb setrgbcolor
4062 175 M
[ [(Helvetica) 250.0 0.0 true true 0 (Original Length)]
] -83.3 MCshow
LTb
1.000 UP
1.000 UL
LTb
% Begin plot #1
1.000 UP
1.000 UL
LT0
1375 4465 Pls
1375 3974 Pls
1375 4513 Pls
1375 4366 Pls
1375 3622 Pls
1375 4053 Pls
1375 4329 Pls
1375 4604 Pls
1375 3792 Pls
1375 4291 Pls
1375 4615 Pls
1375 4426 Pls
1375 3614 Pls
1375 3986 Pls
1375 4254 Pls
1375 4457 Pls
1375 2999 Pls
1375 4068 Pls
1375 4485 Pls
1375 4397 Pls
1375 3508 Pls
1375 3535 Pls
1375 4458 Pls
1375 4324 Pls
1375 3754 Pls
1375 4192 Pls
1375 4176 Pls
1375 4324 Pls
1375 3262 Pls
1375 3864 Pls
1375 4176 Pls
1375 4324 Pls
1375 4000 Pls
1375 3973 Pls
1375 4598 Pls
1375 4324 Pls
1375 4000 Pls
1375 4083 Pls
1375 4458 Pls
1375 4376 Pls
2719 4075 Pls
2719 4176 Pls
2719 3927 Pls
2719 4437 Pls
2719 3935 Pls
2719 4366 Pls
2719 4315 Pls
2719 4157 Pls
2719 3860 Pls
2719 4441 Pls
2719 4324 Pls
2719 4278 Pls
2719 3819 Pls
2719 3907 Pls
2719 4377 Pls
2719 4323 Pls
2719 3571 Pls
2719 4305 Pls
2719 4365 Pls
2719 4506 Pls
2719 3016 Pls
2719 3864 Pls
2719 4317 Pls
2719 4376 Pls
2719 3016 Pls
2719 4083 Pls
2719 4387 Pls
2719 4584 Pls
2719 3754 Pls
2719 3754 Pls
2719 3895 Pls
2719 4428 Pls
2719 3754 Pls
2719 4083 Pls
2719 3965 Pls
2719 4532 Pls
2719 4493 Pls
2719 3754 Pls
2719 4387 Pls
2719 4480 Pls
4062 3464 Pls
4062 3711 Pls
4062 4246 Pls
4062 4696 Pls
4062 4288 Pls
4062 4283 Pls
4062 4295 Pls
4062 4391 Pls
4062 4028 Pls
4062 4054 Pls
4062 4025 Pls
4062 4328 Pls
4062 3744 Pls
4062 4422 Pls
4062 4348 Pls
4062 4387 Pls
4062 3196 Pls
4062 4429 Pls
4062 4296 Pls
4062 4374 Pls
4062 3754 Pls
4062 4192 Pls
4062 4106 Pls
4062 4532 Pls
4062 4247 Pls
4062 4083 Pls
4062 4247 Pls
4062 4739 Pls
4062 4493 Pls
4062 4520 Pls
4062 4528 Pls
4062 4221 Pls
4062 4247 Pls
4062 3973 Pls
4062 4598 Pls
4062 4687 Pls
4062 4493 Pls
4062 4411 Pls
4062 4247 Pls
4062 4376 Pls
5406 4434 Pls
5406 4386 Pls
5406 3914 Pls
5406 4551 Pls
5406 4739 Pls
5406 4059 Pls
5406 4256 Pls
5406 4425 Pls
5406 3940 Pls
5406 4352 Pls
5406 4015 Pls
5406 4440 Pls
5406 3720 Pls
5406 3928 Pls
5406 4182 Pls
5406 4561 Pls
5406 3959 Pls
5406 4437 Pls
5406 4190 Pls
5406 4340 Pls
5406 3754 Pls
5406 4520 Pls
5406 4317 Pls
5406 4065 Pls
5406 2770 Pls
5406 4520 Pls
5406 4458 Pls
5406 4221 Pls
5406 4493 Pls
5406 4411 Pls
5406 4458 Pls
5406 4428 Pls
5406 4247 Pls
5406 4520 Pls
5406 4458 Pls
5406 4532 Pls
5406 4247 Pls
5406 4411 Pls
5406 4669 Pls
5406 4687 Pls
6749 4294 Pls
6749 4394 Pls
6749 4474 Pls
6749 4566 Pls
6749 4165 Pls
6749 4376 Pls
6749 4026 Pls
6749 4258 Pls
6749 4575 Pls
6749 4430 Pls
6749 4312 Pls
6749 4437 Pls
6749 4069 Pls
6749 4015 Pls
6749 4243 Pls
6749 4434 Pls
6749 3827 Pls
6749 4108 Pls
6749 4241 Pls
6749 4609 Pls
6749 3508 Pls
6749 3973 Pls
6749 4387 Pls
6749 4480 Pls
6749 4000 Pls
6749 4411 Pls
6749 4598 Pls
6749 4687 Pls
6749 4247 Pls
6749 4630 Pls
6749 4528 Pls
6749 4584 Pls
6749 4247 Pls
6749 4739 Pls
6749 4528 Pls
6749 4635 Pls
6749 4739 Pls
6749 4301 Pls
6749 4317 Pls
6749 4687 Pls
1375 4104 Pls
1375 4064 Pls
1375 4319 Pls
1375 4372 Pls
1375 4237 Pls
1375 4313 Pls
1375 4165 Pls
1375 4468 Pls
1375 3795 Pls
1375 4395 Pls
1375 4260 Pls
1375 4267 Pls
1375 4082 Pls
1375 3644 Pls
1375 3957 Pls
1375 4357 Pls
1375 2868 Pls
1375 4363 Pls
1375 4493 Pls
1375 4544 Pls
1375 2770 Pls
1375 3426 Pls
1375 4036 Pls
1375 4376 Pls
1375 3262 Pls
1375 4301 Pls
1375 4528 Pls
1375 4273 Pls
1375 2770 Pls
1375 3864 Pls
1375 4669 Pls
1375 4324 Pls
1375 3016 Pls
1375 4301 Pls
1375 4387 Pls
1375 4480 Pls
1375 4000 Pls
1375 3754 Pls
1375 4176 Pls
1375 4532 Pls
2719 4311 Pls
2719 4657 Pls
2719 4438 Pls
2719 4436 Pls
2719 4411 Pls
2719 3920 Pls
2719 4409 Pls
2719 4559 Pls
2719 4383 Pls
2719 4411 Pls
2719 4336 Pls
2719 4334 Pls
2719 4329 Pls
2719 3953 Pls
2719 4496 Pls
2719 4423 Pls
2719 3220 Pls
2719 4206 Pls
2719 4241 Pls
2719 4506 Pls
2719 3262 Pls
2719 3317 Pls
2719 4247 Pls
2719 4169 Pls
2719 3754 Pls
2719 4083 Pls
2719 4247 Pls
2719 4584 Pls
2719 4000 Pls
2719 3973 Pls
2719 4317 Pls
2719 4273 Pls
2719 2770 Pls
2719 4192 Pls
2719 4528 Pls
2719 4532 Pls
2719 4247 Pls
2719 4301 Pls
2719 4387 Pls
2719 4635 Pls
4062 3871 Pls
4062 4443 Pls
4062 4519 Pls
4062 4481 Pls
4062 4082 Pls
4062 4240 Pls
4062 4438 Pls
4062 4309 Pls
4062 4081 Pls
4062 4050 Pls
4062 4394 Pls
4062 4292 Pls
4062 3797 Pls
4062 4328 Pls
4062 4200 Pls
4062 4368 Pls
4062 3575 Pls
4062 3887 Pls
4062 4045 Pls
4062 4506 Pls
4062 4000 Pls
4062 3645 Pls
4062 4176 Pls
4062 4324 Pls
4062 3508 Pls
4062 4083 Pls
4062 4317 Pls
4062 3910 Pls
4062 3508 Pls
4062 4192 Pls
4062 4247 Pls
4062 4480 Pls
4062 4247 Pls
4062 3864 Pls
4062 4176 Pls
4062 4221 Pls
4062 4739 Pls
4062 4192 Pls
4062 4317 Pls
4062 4273 Pls
5406 4270 Pls
5406 4497 Pls
5406 4047 Pls
5406 4607 Pls
5406 4178 Pls
5406 4235 Pls
5406 4431 Pls
5406 4511 Pls
5406 4366 Pls
5406 4248 Pls
5406 4423 Pls
5406 4482 Pls
5406 4050 Pls
5406 4047 Pls
5406 4357 Pls
5406 4341 Pls
5406 3523 Pls
5406 4505 Pls
5406 4739 Pls
5406 4367 Pls
5406 3508 Pls
5406 3754 Pls
5406 4317 Pls
5406 4324 Pls
5406 4247 Pls
5406 4083 Pls
5406 4387 Pls
5406 4480 Pls
5406 3754 Pls
5406 4301 Pls
5406 4458 Pls
5406 4376 Pls
5406 4493 Pls
5406 4411 Pls
5406 4458 Pls
5406 4376 Pls
5406 4493 Pls
5406 3973 Pls
5406 4247 Pls
5406 4635 Pls
6749 4458 Pls
6749 4448 Pls
6749 4234 Pls
6749 4247 Pls
6749 4458 Pls
6749 4442 Pls
6749 4291 Pls
6749 4356 Pls
6749 4739 Pls
6749 4593 Pls
6749 4286 Pls
6749 4343 Pls
6749 4311 Pls
6749 4107 Pls
6749 4459 Pls
6749 4470 Pls
6749 4452 Pls
6749 4408 Pls
6749 4202 Pls
6749 4426 Pls
6749 3754 Pls
6749 4192 Pls
6749 4106 Pls
6749 4221 Pls
6749 4493 Pls
6749 4301 Pls
6749 4317 Pls
6749 4376 Pls
6749 3508 Pls
6749 4411 Pls
6749 4458 Pls
6749 4532 Pls
6749 4247 Pls
6749 4411 Pls
6749 4458 Pls
6749 4635 Pls
6749 4493 Pls
6749 4411 Pls
6749 4458 Pls
6749 4635 Pls
1375 3973 Pls
1375 4111 Pls
1375 4315 Pls
1375 4431 Pls
1375 4165 Pls
1375 4415 Pls
1375 4442 Pls
1375 4369 Pls
1375 3935 Pls
1375 3706 Pls
1375 4423 Pls
1375 4238 Pls
1375 4434 Pls
1375 4232 Pls
1375 4431 Pls
1375 4415 Pls
1375 3229 Pls
1375 3504 Pls
1375 4550 Pls
1375 4221 Pls
1375 3016 Pls
1375 2988 Pls
1375 3543 Pls
1375 4324 Pls
1375 2770 Pls
1375 3864 Pls
1375 4106 Pls
1375 3910 Pls
1375 3754 Pls
1375 4411 Pls
1375 4036 Pls
1375 4532 Pls
1375 4000 Pls
1375 3973 Pls
1375 4317 Pls
1375 4273 Pls
1375 3262 Pls
1375 4083 Pls
1375 4317 Pls
1375 4376 Pls
2719 4506 Pls
2719 4286 Pls
2719 4386 Pls
2719 4421 Pls
2719 4458 Pls
2719 3965 Pls
2719 4315 Pls
2719 4419 Pls
2719 4053 Pls
2719 4100 Pls
2719 4502 Pls
2719 4336 Pls
2719 4129 Pls
2719 3980 Pls
2719 4250 Pls
2719 4178 Pls
2719 4270 Pls
2719 4093 Pls
2719 4369 Pls
2719 4324 Pls
2719 3262 Pls
2719 3864 Pls
2719 4528 Pls
2719 4428 Pls
2719 3262 Pls
2719 4411 Pls
2719 4739 Pls
2719 4376 Pls
2719 2770 Pls
2719 3864 Pls
2719 4247 Pls
2719 4428 Pls
2719 3754 Pls
2719 4301 Pls
2719 4247 Pls
2719 4635 Pls
2719 2770 Pls
2719 3754 Pls
2719 4458 Pls
2719 4532 Pls
4062 3486 Pls
4062 4466 Pls
4062 4102 Pls
4062 4438 Pls
4062 3590 Pls
4062 4525 Pls
4062 4203 Pls
4062 4113 Pls
4062 3997 Pls
4062 4059 Pls
4062 3892 Pls
4062 4284 Pls
4062 4475 Pls
4062 4663 Pls
4062 4211 Pls
4062 4298 Pls
4062 4311 Pls
4062 3887 Pls
4062 4396 Pls
4062 4553 Pls
4062 4000 Pls
4062 3864 Pls
4062 3965 Pls
4062 4532 Pls
4062 3262 Pls
4062 4083 Pls
4062 4528 Pls
4062 4376 Pls
4062 3508 Pls
4062 4192 Pls
4062 4598 Pls
4062 4584 Pls
4062 4000 Pls
4062 3973 Pls
4062 4458 Pls
4062 4480 Pls
4062 4493 Pls
4062 4630 Pls
4062 4387 Pls
4062 4480 Pls
5406 4598 Pls
5406 4396 Pls
5406 3999 Pls
5406 4577 Pls
5406 4342 Pls
5406 4109 Pls
5406 4199 Pls
5406 4351 Pls
5406 4419 Pls
5406 4434 Pls
5406 4144 Pls
5406 4474 Pls
5406 4575 Pls
5406 4227 Pls
5406 4280 Pls
5406 4429 Pls
5406 3819 Pls
5406 4030 Pls
5406 4313 Pls
5406 4422 Pls
5406 2770 Pls
5406 4411 Pls
5406 4387 Pls
5406 4480 Pls
5406 3262 Pls
5406 3535 Pls
5406 4528 Pls
5406 4013 Pls
5406 4739 Pls
5406 3535 Pls
5406 4387 Pls
5406 4480 Pls
5406 4493 Pls
5406 4520 Pls
5406 4106 Pls
5406 4532 Pls
5406 4247 Pls
5406 3973 Pls
5406 4458 Pls
5406 4584 Pls
6749 4419 Pls
6749 4372 Pls
6749 4467 Pls
6749 4568 Pls
6749 4006 Pls
6749 3895 Pls
6749 4400 Pls
6749 4534 Pls
6749 4475 Pls
6749 4165 Pls
6749 4462 Pls
6749 4258 Pls
6749 4047 Pls
6749 4325 Pls
6749 4452 Pls
6749 4390 Pls
6749 4124 Pls
6749 4560 Pls
6749 4243 Pls
6749 4005 Pls
6749 4000 Pls
6749 4192 Pls
6749 4317 Pls
6749 4324 Pls
6749 3262 Pls
6749 3973 Pls
6749 4458 Pls
6749 4376 Pls
6749 3262 Pls
6749 3973 Pls
6749 4387 Pls
6749 4480 Pls
6749 4493 Pls
6749 4192 Pls
6749 4176 Pls
6749 4221 Pls
6749 4739 Pls
6749 4083 Pls
6749 4387 Pls
6749 4687 Pls
1375 4065 Pls
1375 4072 Pls
1375 4410 Pls
1375 4388 Pls
1375 4012 Pls
1375 4231 Pls
1375 4259 Pls
1375 4353 Pls
1375 3792 Pls
1375 3308 Pls
1375 4441 Pls
1375 4162 Pls
1375 3697 Pls
1375 3839 Pls
1375 4434 Pls
1375 4312 Pls
1375 3623 Pls
1375 4273 Pls
1375 4029 Pls
1375 4017 Pls
1375 2770 Pls
1375 3864 Pls
1375 3684 Pls
1375 4635 Pls
1375 2277 Pls
1375 3754 Pls
1375 4036 Pls
1375 4324 Pls
1375 4000 Pls
1375 3973 Pls
1375 4247 Pls
1375 4532 Pls
1375 3754 Pls
1375 4411 Pls
1375 3895 Pls
1375 4480 Pls
1375 3508 Pls
1375 3864 Pls
1375 4036 Pls
1375 4221 Pls
2719 4739 Pls
2719 4169 Pls
2719 4345 Pls
2719 4309 Pls
2719 4069 Pls
2719 4054 Pls
2719 4286 Pls
2719 4302 Pls
2719 3801 Pls
2719 4411 Pls
2719 4045 Pls
2719 4338 Pls
2719 4434 Pls
2719 4505 Pls
2719 4338 Pls
2719 4381 Pls
2719 4017 Pls
2719 4165 Pls
2719 4299 Pls
2719 4408 Pls
2719 2770 Pls
2719 3754 Pls
2719 4036 Pls
2719 4480 Pls
2719 3016 Pls
2719 4192 Pls
2719 4528 Pls
2719 4221 Pls
2719 3754 Pls
2719 3317 Pls
2719 4247 Pls
2719 4428 Pls
2719 4000 Pls
2719 4301 Pls
2719 4036 Pls
2719 4480 Pls
2719 2770 Pls
2719 3973 Pls
2719 4317 Pls
2719 4117 Pls
4062 4270 Pls
4062 4107 Pls
4062 4407 Pls
4062 4650 Pls
4062 3429 Pls
4062 4117 Pls
4062 4339 Pls
4062 4391 Pls
4062 3801 Pls
4062 4184 Pls
4062 4520 Pls
4062 4576 Pls
4062 4270 Pls
4062 4170 Pls
4062 4484 Pls
4062 4096 Pls
4062 3768 Pls
4062 4588 Pls
4062 4303 Pls
4062 4502 Pls
4062 3262 Pls
4062 3973 Pls
4062 4176 Pls
4062 4324 Pls
4062 4493 Pls
4062 3754 Pls
4062 4528 Pls
4062 4273 Pls
4062 3262 Pls
4062 3864 Pls
4062 3825 Pls
4062 4428 Pls
4062 4000 Pls
4062 3973 Pls
4062 4247 Pls
4062 4532 Pls
4062 4247 Pls
4062 4192 Pls
4062 4598 Pls
4062 4532 Pls
5406 4278 Pls
5406 4517 Pls
5406 4250 Pls
5406 4338 Pls
5406 4739 Pls
5406 4423 Pls
5406 4234 Pls
5406 4395 Pls
5406 4434 Pls
5406 4090 Pls
5406 4404 Pls
5406 4382 Pls
5406 3660 Pls
5406 4358 Pls
5406 4088 Pls
5406 4394 Pls
5406 2908 Pls
5406 4116 Pls
5406 4396 Pls
5406 4097 Pls
5406 3754 Pls
5406 3754 Pls
5406 3895 Pls
5406 4169 Pls
5406 4247 Pls
5406 3864 Pls
5406 4387 Pls
5406 4169 Pls
5406 4000 Pls
5406 4083 Pls
5406 4247 Pls
5406 4324 Pls
5406 4000 Pls
5406 4411 Pls
5406 4387 Pls
5406 4635 Pls
5406 4247 Pls
5406 4192 Pls
5406 4106 Pls
5406 4584 Pls
6749 4411 Pls
6749 4371 Pls
6749 4522 Pls
6749 4319 Pls
6749 4256 Pls
6749 4423 Pls
6749 4202 Pls
6749 4370 Pls
6749 4452 Pls
6749 4663 Pls
6749 4458 Pls
6749 4562 Pls
6749 4598 Pls
6749 4024 Pls
6749 4470 Pls
6749 4384 Pls
6749 3631 Pls
6749 4216 Pls
6749 4431 Pls
6749 4387 Pls
6749 3016 Pls
6749 4411 Pls
6749 4106 Pls
6749 4169 Pls
6749 3508 Pls
6749 4411 Pls
6749 4458 Pls
6749 4480 Pls
6749 4000 Pls
6749 4192 Pls
6749 4036 Pls
6749 4532 Pls
6749 4247 Pls
6749 4301 Pls
6749 4528 Pls
6749 4117 Pls
6749 4493 Pls
6749 4520 Pls
6749 4387 Pls
6749 4376 Pls
1375 4106 Pls
1375 4030 Pls
1375 4435 Pls
1375 4467 Pls
1375 4040 Pls
1375 3981 Pls
1375 4256 Pls
1375 4498 Pls
1375 3989 Pls
1375 3874 Pls
1375 4064 Pls
1375 4476 Pls
1375 3163 Pls
1375 4118 Pls
1375 4373 Pls
1375 4647 Pls
1375 2244 Pls
1375 4023 Pls
1375 4353 Pls
1375 4218 Pls
1375 3016 Pls
1375 3645 Pls
1375 4106 Pls
1375 4428 Pls
1375 3508 Pls
1375 3645 Pls
1375 4247 Pls
1375 4221 Pls
1375 2277 Pls
1375 4301 Pls
1375 3965 Pls
1375 4273 Pls
1375 4000 Pls
1375 3754 Pls
1375 4176 Pls
1375 4221 Pls
1375 3754 Pls
1375 3754 Pls
1375 4458 Pls
1375 4480 Pls
2719 4206 Pls
2719 3800 Pls
2719 4433 Pls
2719 4649 Pls
2719 4616 Pls
2719 4194 Pls
2719 4268 Pls
2719 4440 Pls
2719 4247 Pls
2719 4133 Pls
2719 4093 Pls
2719 4355 Pls
2719 3778 Pls
2719 3897 Pls
2719 3877 Pls
2719 4282 Pls
2719 3778 Pls
2719 3709 Pls
2719 4065 Pls
2719 4122 Pls
2719 3016 Pls
2719 3207 Pls
2719 4176 Pls
2719 4273 Pls
2719 3754 Pls
2719 4301 Pls
2719 4247 Pls
2719 4480 Pls
2719 3754 Pls
2719 3864 Pls
2719 4106 Pls
2719 4428 Pls
2719 4247 Pls
2719 4301 Pls
2719 4458 Pls
2719 4480 Pls
2719 3754 Pls
2719 4083 Pls
2719 4458 Pls
2719 4376 Pls
4062 4598 Pls
4062 4505 Pls
4062 4324 Pls
4062 4382 Pls
4062 4401 Pls
4062 4116 Pls
4062 4404 Pls
4062 4530 Pls
4062 4114 Pls
4062 4441 Pls
4062 4203 Pls
4062 4510 Pls
4062 4310 Pls
4062 4386 Pls
4062 4027 Pls
4062 4412 Pls
4062 3853 Pls
4062 3944 Pls
4062 4376 Pls
4062 4363 Pls
4062 2277 Pls
4062 4083 Pls
4062 4387 Pls
4062 4584 Pls
4062 4000 Pls
4062 3973 Pls
4062 4176 Pls
4062 4169 Pls
4062 3262 Pls
4062 3973 Pls
4062 4387 Pls
4062 4428 Pls
4062 3262 Pls
4062 4411 Pls
4062 4106 Pls
4062 4376 Pls
4062 3508 Pls
4062 3973 Pls
4062 4106 Pls
4062 4480 Pls
5406 4288 Pls
5406 4340 Pls
5406 4197 Pls
5406 4491 Pls
5406 4345 Pls
5406 4588 Pls
5406 4412 Pls
5406 4262 Pls
5406 4493 Pls
5406 4089 Pls
5406 4162 Pls
5406 4398 Pls
5406 4458 Pls
5406 4194 Pls
5406 4207 Pls
5406 4606 Pls
5406 3876 Pls
5406 4287 Pls
5406 4144 Pls
5406 4651 Pls
5406 4739 Pls
5406 4301 Pls
5406 4036 Pls
5406 4273 Pls
5406 3262 Pls
5406 4192 Pls
5406 4176 Pls
5406 4376 Pls
5406 3016 Pls
5406 3864 Pls
5406 4387 Pls
5406 4480 Pls
5406 3508 Pls
5406 4083 Pls
5406 4387 Pls
5406 4273 Pls
5406 4000 Pls
5406 4083 Pls
5406 4387 Pls
5406 4532 Pls
6749 4616 Pls
6749 4252 Pls
6749 4156 Pls
6749 4244 Pls
6749 4366 Pls
6749 4267 Pls
6749 4287 Pls
6749 4390 Pls
6749 4575 Pls
6749 4422 Pls
6749 4517 Pls
6749 4576 Pls
6749 4124 Pls
6749 4435 Pls
6749 4360 Pls
6749 4317 Pls
6749 3703 Pls
6749 4210 Pls
6749 4314 Pls
6749 4412 Pls
6749 3262 Pls
6749 3973 Pls
6749 4528 Pls
6749 4169 Pls
6749 3754 Pls
6749 4301 Pls
6749 4387 Pls
6749 4324 Pls
6749 4000 Pls
6749 4083 Pls
6749 4458 Pls
6749 4324 Pls
6749 3754 Pls
6749 4301 Pls
6749 4247 Pls
6749 4273 Pls
6749 3016 Pls
6749 4411 Pls
6749 4387 Pls
6749 4376 Pls
1375 4211 Pls
1375 3798 Pls
1375 4291 Pls
1375 4417 Pls
1375 3768 Pls
1375 4235 Pls
1375 4172 Pls
1375 4421 Pls
1375 4288 Pls
1375 4290 Pls
1375 4188 Pls
1375 4274 Pls
1375 2891 Pls
1375 4372 Pls
1375 3880 Pls
1375 4323 Pls
1375 3295 Pls
1375 4461 Pls
1375 4169 Pls
1375 4448 Pls
1375 3262 Pls
1375 3426 Pls
1375 4106 Pls
1375 4428 Pls
1375 2770 Pls
1375 4192 Pls
1375 4106 Pls
1375 4273 Pls
1375 2770 Pls
1375 4192 Pls
1375 4247 Pls
1375 4324 Pls
1375 4000 Pls
1375 3864 Pls
1375 3825 Pls
1375 4376 Pls
1375 3262 Pls
1375 4083 Pls
1375 4036 Pls
1375 4117 Pls
2719 4081 Pls
2719 4245 Pls
2719 4248 Pls
2719 4480 Pls
2719 4296 Pls
2719 4478 Pls
2719 4327 Pls
2719 4307 Pls
2719 3842 Pls
2719 4117 Pls
2719 4261 Pls
2719 4349 Pls
2719 4153 Pls
2719 4135 Pls
2719 4263 Pls
2719 4274 Pls
2719 4050 Pls
2719 4166 Pls
2719 4052 Pls
2719 4549 Pls
2719 3508 Pls
2719 4411 Pls
2719 4176 Pls
2719 4376 Pls
2719 4493 Pls
2719 3754 Pls
2719 4036 Pls
2719 4221 Pls
2719 3508 Pls
2719 4083 Pls
2719 4387 Pls
2719 4169 Pls
2719 4493 Pls
2719 4411 Pls
2719 4317 Pls
2719 4480 Pls
2719 4000 Pls
2719 4192 Pls
2719 4106 Pls
2719 4428 Pls
4062 4493 Pls
4062 4483 Pls
4062 4356 Pls
4062 4609 Pls
4062 3748 Pls
4062 4089 Pls
4062 4383 Pls
4062 4513 Pls
4062 4465 Pls
4062 4429 Pls
4062 4465 Pls
4062 4479 Pls
4062 4255 Pls
4062 4253 Pls
4062 3964 Pls
4062 4308 Pls
4062 3679 Pls
4062 4657 Pls
4062 4220 Pls
4062 4415 Pls
4062 3262 Pls
4062 4301 Pls
4062 4106 Pls
4062 4065 Pls
4062 3754 Pls
4062 3317 Pls
4062 4247 Pls
4062 4324 Pls
4062 3754 Pls
4062 3864 Pls
4062 4247 Pls
4062 4273 Pls
4062 3262 Pls
4062 4192 Pls
4062 4598 Pls
4062 4221 Pls
4062 4493 Pls
4062 4192 Pls
4062 4176 Pls
4062 4376 Pls
5406 4489 Pls
5406 4605 Pls
5406 4324 Pls
5406 4301 Pls
5406 4506 Pls
5406 4532 Pls
5406 4294 Pls
5406 4396 Pls
5406 4598 Pls
5406 4257 Pls
5406 4239 Pls
5406 4477 Pls
5406 3190 Pls
5406 4049 Pls
5406 4209 Pls
5406 4514 Pls
5406 3614 Pls
5406 3599 Pls
5406 4269 Pls
5406 4218 Pls
5406 4000 Pls
5406 4192 Pls
5406 4247 Pls
5406 4480 Pls
5406 4000 Pls
5406 3754 Pls
5406 4247 Pls
5406 4324 Pls
5406 4247 Pls
5406 4411 Pls
5406 4598 Pls
5406 4428 Pls
5406 4247 Pls
5406 3973 Pls
5406 4387 Pls
5406 4221 Pls
5406 3508 Pls
5406 4192 Pls
5406 4317 Pls
5406 4376 Pls
6749 4301 Pls
6749 4294 Pls
6749 4250 Pls
6749 4351 Pls
6749 4243 Pls
6749 4260 Pls
6749 4348 Pls
6749 4309 Pls
6749 4616 Pls
6749 4168 Pls
6749 4568 Pls
6749 4433 Pls
6749 4458 Pls
6749 4492 Pls
6749 4215 Pls
6749 4462 Pls
6749 3989 Pls
6749 4061 Pls
6749 4225 Pls
6749 4507 Pls
6749 3754 Pls
6749 4083 Pls
6749 3754 Pls
6749 4428 Pls
6749 4247 Pls
6749 3973 Pls
6749 4317 Pls
6749 4376 Pls
6749 4000 Pls
6749 4301 Pls
6749 4247 Pls
6749 4221 Pls
6749 4000 Pls
6749 4411 Pls
6749 4317 Pls
6749 4480 Pls
6749 4247 Pls
6749 4301 Pls
6749 4036 Pls
6749 4635 Pls
1375 4170 Pls
1375 4413 Pls
1375 4098 Pls
1375 4374 Pls
1375 4017 Pls
1375 4007 Pls
1375 4371 Pls
1375 4609 Pls
1375 3262 Pls
1375 3891 Pls
1375 4373 Pls
1375 4506 Pls
1375 4237 Pls
1375 3896 Pls
1375 4500 Pls
1375 4272 Pls
1375 3656 Pls
1375 3459 Pls
1375 4353 Pls
1375 4448 Pls
1375 2770 Pls
1375 3645 Pls
1375 4106 Pls
1375 4376 Pls
1375 3754 Pls
1375 3317 Pls
1375 3965 Pls
1375 4428 Pls
1375 3262 Pls
1375 3973 Pls
1375 4176 Pls
1375 4324 Pls
1375 3016 Pls
1375 3864 Pls
1375 4387 Pls
1375 3962 Pls
1375 3508 Pls
1375 4520 Pls
1375 3965 Pls
1375 4324 Pls
2719 4598 Pls
2719 4191 Pls
2719 4352 Pls
2719 4250 Pls
2719 4294 Pls
2719 4244 Pls
2719 4445 Pls
2719 4519 Pls
2719 3373 Pls
2719 4040 Pls
2719 4677 Pls
2719 4061 Pls
2719 4575 Pls
2719 3970 Pls
2719 4187 Pls
2719 4333 Pls
2719 3712 Pls
2719 4209 Pls
2719 4129 Pls
2719 4155 Pls
2719 3508 Pls
2719 4083 Pls
2719 4458 Pls
2719 4273 Pls
2719 3262 Pls
2719 3645 Pls
2719 4176 Pls
2719 4273 Pls
2719 4000 Pls
2719 3754 Pls
2719 4458 Pls
2719 4273 Pls
2719 3262 Pls
2719 4192 Pls
2719 4106 Pls
2719 4428 Pls
2719 4000 Pls
2719 4411 Pls
2719 3965 Pls
2719 4532 Pls
4062 4097 Pls
4062 4063 Pls
4062 4194 Pls
4062 4649 Pls
4062 4598 Pls
4062 4505 Pls
4062 4387 Pls
4062 4608 Pls
4062 4006 Pls
4062 4200 Pls
4062 4219 Pls
4062 4390 Pls
4062 4465 Pls
4062 4320 Pls
4062 4523 Pls
4062 4349 Pls
4062 3965 Pls
4062 3338 Pls
4062 4156 Pls
4062 4338 Pls
4062 1785 Pls
4062 4083 Pls
4062 3965 Pls
4062 4480 Pls
4062 3016 Pls
4062 4192 Pls
4062 4176 Pls
4062 4428 Pls
4062 4493 Pls
4062 4083 Pls
4062 4317 Pls
4062 4635 Pls
4062 4493 Pls
4062 4192 Pls
4062 4247 Pls
4062 4221 Pls
4062 4000 Pls
4062 4083 Pls
4062 3895 Pls
4062 4376 Pls
5406 4102 Pls
5406 3862 Pls
5406 4360 Pls
5406 4532 Pls
5406 4088 Pls
5406 3887 Pls
5406 4086 Pls
5406 4393 Pls
5406 4170 Pls
5406 3906 Pls
5406 4242 Pls
5406 3879 Pls
5406 4270 Pls
5406 4207 Pls
5406 4216 Pls
5406 4425 Pls
5406 4194 Pls
5406 3833 Pls
5406 4380 Pls
5406 4291 Pls
5406 4493 Pls
5406 3645 Pls
5406 4247 Pls
5406 4428 Pls
5406 3754 Pls
5406 3754 Pls
5406 4106 Pls
5406 4324 Pls
5406 4493 Pls
5406 4411 Pls
5406 4036 Pls
5406 4480 Pls
5406 3754 Pls
5406 4192 Pls
5406 4458 Pls
5406 4221 Pls
5406 3754 Pls
5406 3864 Pls
5406 4176 Pls
5406 4117 Pls
6749 4458 Pls
6749 4598 Pls
6749 4357 Pls
6749 4493 Pls
6749 3918 Pls
6749 4257 Pls
6749 4025 Pls
6749 4343 Pls
6749 3414 Pls
6749 4204 Pls
6749 4151 Pls
6749 4122 Pls
6749 4598 Pls
6749 4018 Pls
6749 4323 Pls
6749 4424 Pls
6749 3712 Pls
6749 4372 Pls
6749 4455 Pls
6749 4562 Pls
6749 3754 Pls
6749 3864 Pls
6749 3895 Pls
6749 4324 Pls
6749 4493 Pls
6749 3754 Pls
6749 4176 Pls
6749 4324 Pls
6749 4247 Pls
6749 4083 Pls
6749 4387 Pls
6749 4324 Pls
6749 4000 Pls
6749 3973 Pls
6749 4247 Pls
6749 4428 Pls
6749 4000 Pls
6749 4301 Pls
6749 4387 Pls
6749 4324 Pls
1375 4419 Pls
1375 4387 Pls
1375 4216 Pls
1375 4282 Pls
1375 4058 Pls
1375 4351 Pls
1375 4445 Pls
1375 4425 Pls
1375 3706 Pls
1375 4579 Pls
1375 4375 Pls
1375 4177 Pls
1375 4345 Pls
1375 3744 Pls
1375 4554 Pls
1375 4406 Pls
1375 4214 Pls
1375 3808 Pls
1375 4349 Pls
1375 4308 Pls
1375 3508 Pls
1375 3864 Pls
1375 4176 Pls
1375 4428 Pls
1375 3754 Pls
1375 4083 Pls
1375 4458 Pls
1375 4532 Pls
1375 3262 Pls
1375 4411 Pls
1375 3754 Pls
1375 4324 Pls
1375 3754 Pls
1375 4192 Pls
1375 4247 Pls
1375 4169 Pls
1375 4000 Pls
1375 3645 Pls
1375 4106 Pls
1375 4013 Pls
2719 4616 Pls
2719 3592 Pls
2719 4524 Pls
2719 4243 Pls
2719 3684 Pls
2719 4141 Pls
2719 4234 Pls
2719 4518 Pls
2719 4616 Pls
2719 4272 Pls
2719 4292 Pls
2719 4385 Pls
2719 3712 Pls
2719 3797 Pls
2719 4230 Pls
2719 4410 Pls
2719 3942 Pls
2719 3984 Pls
2719 3834 Pls
2719 4325 Pls
2719 3016 Pls
2719 3645 Pls
2719 4106 Pls
2719 4273 Pls
2719 4247 Pls
2719 4083 Pls
2719 3754 Pls
2719 4169 Pls
2719 3262 Pls
2719 3973 Pls
2719 4176 Pls
2719 4376 Pls
2719 4000 Pls
2719 3973 Pls
2719 4247 Pls
2719 4480 Pls
2719 3016 Pls
2719 4083 Pls
2719 4036 Pls
2719 4428 Pls
4062 4489 Pls
4062 4357 Pls
4062 4250 Pls
4062 4248 Pls
4062 3760 Pls
4062 4433 Pls
4062 4304 Pls
4062 4128 Pls
4062 4575 Pls
4062 4109 Pls
4062 3896 Pls
4062 4390 Pls
4062 3637 Pls
4062 4217 Pls
4062 4224 Pls
4062 4464 Pls
4062 3848 Pls
4062 3939 Pls
4062 4383 Pls
4062 4280 Pls
4062 4000 Pls
4062 4192 Pls
4062 4528 Pls
4062 4428 Pls
4062 4000 Pls
4062 4301 Pls
4062 4247 Pls
4062 4480 Pls
4062 3262 Pls
4062 4520 Pls
4062 4176 Pls
4062 4169 Pls
4062 4247 Pls
4062 4301 Pls
4062 4247 Pls
4062 4324 Pls
4062 4247 Pls
4062 3864 Pls
4062 4669 Pls
4062 4480 Pls
5406 4188 Pls
5406 4446 Pls
5406 4340 Pls
5406 4349 Pls
5406 4630 Pls
5406 4429 Pls
5406 4496 Pls
5406 4299 Pls
5406 4598 Pls
5406 4138 Pls
5406 4520 Pls
5406 4391 Pls
5406 4411 Pls
5406 3902 Pls
5406 4352 Pls
5406 4284 Pls
5406 3425 Pls
5406 4236 Pls
5406 4345 Pls
5406 4462 Pls
5406 4000 Pls
5406 3864 Pls
5406 3965 Pls
5406 4065 Pls
5406 3262 Pls
5406 4301 Pls
5406 4247 Pls
5406 4273 Pls
5406 4493 Pls
5406 3973 Pls
5406 3965 Pls
5406 4324 Pls
5406 3262 Pls
5406 4192 Pls
5406 4247 Pls
5406 4376 Pls
5406 4247 Pls
5406 3973 Pls
5406 4458 Pls
5406 4376 Pls
6749 4255 Pls
6749 4317 Pls
6749 3972 Pls
6749 4443 Pls
6749 4630 Pls
6749 4170 Pls
6749 4185 Pls
6749 4355 Pls
6749 4006 Pls
6749 4663 Pls
6749 4020 Pls
6749 4339 Pls
6749 4352 Pls
6749 3930 Pls
6749 4463 Pls
6749 4360 Pls
6749 3827 Pls
6749 4036 Pls
6749 4333 Pls
6749 4302 Pls
6749 4247 Pls
6749 3973 Pls
6749 4106 Pls
6749 4324 Pls
6749 4247 Pls
6749 3864 Pls
6749 4317 Pls
6749 4117 Pls
6749 4247 Pls
6749 4083 Pls
6749 4317 Pls
6749 4376 Pls
6749 3754 Pls
6749 4192 Pls
6749 4387 Pls
6749 4428 Pls
6749 3508 Pls
6749 4411 Pls
6749 4387 Pls
6749 4428 Pls
1375 4458 Pls
1375 4217 Pls
1375 4571 Pls
1375 4301 Pls
1375 3481 Pls
1375 4372 Pls
1375 4090 Pls
1375 4417 Pls
1375 3464 Pls
1375 4094 Pls
1375 4376 Pls
1375 4603 Pls
1375 2965 Pls
1375 4202 Pls
1375 4057 Pls
1375 4374 Pls
1375 3787 Pls
1375 4094 Pls
1375 4160 Pls
1375 4401 Pls
1375 3754 Pls
1375 4411 Pls
1375 4317 Pls
1375 4324 Pls
1375 3262 Pls
1375 4192 Pls
1375 4387 Pls
1375 4273 Pls
1375 3754 Pls
1375 4520 Pls
1375 4247 Pls
1375 4376 Pls
1375 3262 Pls
1375 4083 Pls
1375 4106 Pls
1375 4428 Pls
1375 4000 Pls
1375 3645 Pls
1375 4317 Pls
1375 4169 Pls
2719 3983 Pls
2719 4161 Pls
2719 4308 Pls
2719 4355 Pls
2719 4575 Pls
2719 3975 Pls
2719 4052 Pls
2719 4516 Pls
2719 4317 Pls
2719 4072 Pls
2719 4336 Pls
2719 4421 Pls
2719 4475 Pls
2719 3984 Pls
2719 4152 Pls
2719 4556 Pls
2719 3426 Pls
2719 3804 Pls
2719 4369 Pls
2719 4118 Pls
2719 3262 Pls
2719 4301 Pls
2719 4317 Pls
2719 4480 Pls
2719 3508 Pls
2719 3973 Pls
2719 4458 Pls
2719 4169 Pls
2719 4000 Pls
2719 4301 Pls
2719 4106 Pls
2719 4584 Pls
2719 3754 Pls
2719 4411 Pls
2719 4387 Pls
2719 4273 Pls
2719 4493 Pls
2719 4192 Pls
2719 4247 Pls
2719 4480 Pls
4062 4739 Pls
4062 4220 Pls
4062 4119 Pls
4062 4522 Pls
4062 4401 Pls
4062 4267 Pls
4062 4268 Pls
4062 4109 Pls
4062 4106 Pls
4062 4169 Pls
4062 4263 Pls
4062 4255 Pls
4062 3336 Pls
4062 4238 Pls
4062 3825 Pls
4062 4472 Pls
4062 4270 Pls
4062 4184 Pls
4062 4242 Pls
4062 4423 Pls
4062 3754 Pls
4062 3754 Pls
4062 3965 Pls
4062 4376 Pls
4062 4000 Pls
4062 3426 Pls
4062 4036 Pls
4062 4169 Pls
4062 4000 Pls
4062 4083 Pls
4062 4106 Pls
4062 4324 Pls
4062 4000 Pls
4062 3645 Pls
4062 4036 Pls
4062 4376 Pls
4062 4247 Pls
4062 4192 Pls
4062 4106 Pls
4062 4428 Pls
5406 4616 Pls
5406 4526 Pls
5406 4461 Pls
5406 4492 Pls
5406 4278 Pls
5406 4200 Pls
5406 4471 Pls
5406 4047 Pls
5406 3993 Pls
5406 3742 Pls
5406 4056 Pls
5406 4427 Pls
5406 4506 Pls
5406 4000 Pls
5406 4407 Pls
5406 4355 Pls
5406 3876 Pls
5406 4161 Pls
5406 4278 Pls
5406 4418 Pls
5406 4247 Pls
5406 4083 Pls
5406 4247 Pls
5406 4273 Pls
5406 4000 Pls
5406 4411 Pls
5406 4528 Pls
5406 4169 Pls
5406 4247 Pls
5406 4192 Pls
5406 4458 Pls
5406 4273 Pls
5406 3262 Pls
5406 4301 Pls
5406 4106 Pls
5406 4376 Pls
5406 3754 Pls
5406 4411 Pls
5406 4387 Pls
5406 4376 Pls
6749 4739 Pls
6749 4286 Pls
6749 4425 Pls
6749 4436 Pls
6749 4222 Pls
6749 4281 Pls
6749 4160 Pls
6749 4483 Pls
6749 4542 Pls
6749 4234 Pls
6749 4188 Pls
6749 4581 Pls
6749 3848 Pls
6749 4244 Pls
6749 4519 Pls
6749 4522 Pls
6749 4106 Pls
6749 4007 Pls
6749 4147 Pls
6749 4435 Pls
6749 4247 Pls
6749 3973 Pls
6749 4528 Pls
6749 4324 Pls
6749 4000 Pls
6749 4301 Pls
6749 4247 Pls
6749 4169 Pls
6749 3754 Pls
6749 4083 Pls
6749 4317 Pls
6749 4480 Pls
6749 4000 Pls
6749 4520 Pls
6749 4176 Pls
6749 4428 Pls
6749 4739 Pls
6749 4411 Pls
6749 4387 Pls
6749 4532 Pls
1375 3631 Pls
1375 4223 Pls
1375 4192 Pls
1375 4321 Pls
1375 4598 Pls
1375 3929 Pls
1375 4517 Pls
1375 4372 Pls
1375 3942 Pls
1375 4223 Pls
1375 4510 Pls
1375 4408 Pls
1375 3900 Pls
1375 3842 Pls
1375 4254 Pls
1375 4162 Pls
1375 3065 Pls
1375 3808 Pls
1375 4169 Pls
1375 4153 Pls
1375 2277 Pls
1375 3426 Pls
1375 4036 Pls
1375 4324 Pls
1375 4000 Pls
1375 4083 Pls
1375 3895 Pls
1375 4065 Pls
1375 3508 Pls
1375 3317 Pls
1375 3895 Pls
1375 4324 Pls
1375 3262 Pls
1375 4301 Pls
1375 4387 Pls
1375 4273 Pls
1375 3016 Pls
1375 3973 Pls
1375 4528 Pls
1375 4117 Pls
2719 4317 Pls
2719 4388 Pls
2719 4511 Pls
2719 4485 Pls
2719 3768 Pls
2719 4237 Pls
2719 4087 Pls
2719 4476 Pls
2719 4434 Pls
2719 4205 Pls
2719 4326 Pls
2719 4233 Pls
2719 4270 Pls
2719 4278 Pls
2719 4122 Pls
2719 4389 Pls
2719 3637 Pls
2719 4282 Pls
2719 4180 Pls
2719 4178 Pls
2719 2770 Pls
2719 3426 Pls
2719 4247 Pls
2719 4376 Pls
2719 3262 Pls
2719 3535 Pls
2719 4176 Pls
2719 3962 Pls
2719 3262 Pls
2719 4192 Pls
2719 4176 Pls
2719 4376 Pls
2719 4000 Pls
2719 3864 Pls
2719 3895 Pls
2719 4169 Pls
2719 4247 Pls
2719 4083 Pls
2719 4387 Pls
2719 4428 Pls
4062 4475 Pls
4062 4196 Pls
4062 4415 Pls
4062 4405 Pls
4062 4739 Pls
4062 4263 Pls
4062 4153 Pls
4062 4610 Pls
4062 4036 Pls
4062 4441 Pls
4062 4286 Pls
4062 4069 Pls
4062 4575 Pls
4062 4189 Pls
4062 4283 Pls
4062 4332 Pls
4062 4064 Pls
4062 4320 Pls
4062 4188 Pls
4062 4151 Pls
4062 3262 Pls
4062 4301 Pls
4062 4036 Pls
4062 4117 Pls
4062 4000 Pls
4062 4192 Pls
4062 4036 Pls
4062 4065 Pls
4062 4247 Pls
4062 3864 Pls
4062 4387 Pls
4062 4324 Pls
4062 3262 Pls
4062 3317 Pls
4062 4036 Pls
4062 4324 Pls
4062 3508 Pls
4062 4192 Pls
4062 4458 Pls
4062 4065 Pls
5406 4269 Pls
5406 4039 Pls
5406 4348 Pls
5406 4571 Pls
5406 4088 Pls
5406 4508 Pls
5406 4164 Pls
5406 4233 Pls
5406 4296 Pls
5406 4386 Pls
5406 4419 Pls
5406 4352 Pls
5406 4493 Pls
5406 4099 Pls
5406 4687 Pls
5406 4393 Pls
5406 4255 Pls
5406 4339 Pls
5406 4132 Pls
5406 4605 Pls
5406 3754 Pls
5406 3754 Pls
5406 4317 Pls
5406 4376 Pls
5406 4247 Pls
5406 3973 Pls
5406 4247 Pls
5406 4532 Pls
5406 3754 Pls
5406 3864 Pls
5406 4387 Pls
5406 4428 Pls
5406 4247 Pls
5406 4301 Pls
5406 4176 Pls
5406 4376 Pls
5406 4493 Pls
5406 4520 Pls
5406 4458 Pls
5406 4273 Pls
6749 4348 Pls
6749 4358 Pls
6749 4358 Pls
6749 4476 Pls
6749 4065 Pls
6749 4611 Pls
6749 4519 Pls
6749 4401 Pls
6749 4370 Pls
6749 3781 Pls
6749 4240 Pls
6749 4358 Pls
6749 4214 Pls
6749 4086 Pls
6749 4557 Pls
6749 4336 Pls
6749 4050 Pls
6749 3699 Pls
6749 4159 Pls
6749 4390 Pls
6749 3754 Pls
6749 3864 Pls
6749 4528 Pls
6749 4065 Pls
6749 4493 Pls
6749 4192 Pls
6749 4387 Pls
6749 4065 Pls
6749 4247 Pls
6749 3864 Pls
6749 3825 Pls
6749 4480 Pls
6749 4493 Pls
6749 4301 Pls
6749 3965 Pls
6749 4428 Pls
6749 3016 Pls
6749 4630 Pls
6749 4669 Pls
6749 4324 Pls
1375 4147 Pls
1375 4026 Pls
1375 4275 Pls
1375 4331 Pls
1375 4493 Pls
1375 4003 Pls
1375 4433 Pls
1375 4557 Pls
1375 3876 Pls
1375 4410 Pls
1375 4229 Pls
1375 4502 Pls
1375 3712 Pls
1375 3595 Pls
1375 4199 Pls
1375 4314 Pls
1375 3787 Pls
1375 3718 Pls
1375 3918 Pls
1375 4066 Pls
1375 2277 Pls
1375 4301 Pls
1375 4598 Pls
1375 4273 Pls
1375 3016 Pls
1375 3864 Pls
1375 4176 Pls
1375 4324 Pls
1375 3262 Pls
1375 4411 Pls
1375 4387 Pls
1375 4532 Pls
1375 3016 Pls
1375 3645 Pls
1375 4317 Pls
1375 4324 Pls
1375 3754 Pls
1375 3754 Pls
1375 4317 Pls
1375 4221 Pls
2719 4270 Pls
2719 4441 Pls
2719 4216 Pls
2719 4258 Pls
2719 4247 Pls
2719 4187 Pls
2719 4052 Pls
2719 4361 Pls
2719 3660 Pls
2719 4084 Pls
2719 4175 Pls
2719 4218 Pls
2719 4294 Pls
2719 4321 Pls
2719 4322 Pls
2719 4330 Pls
2719 3154 Pls
2719 3874 Pls
2719 4296 Pls
2719 4124 Pls
2719 3754 Pls
2719 3317 Pls
2719 4458 Pls
2719 4376 Pls
2719 4000 Pls
2719 4301 Pls
2719 4387 Pls
2719 4324 Pls
2719 4247 Pls
2719 4083 Pls
2719 4106 Pls
2719 4428 Pls
2719 3754 Pls
2719 4301 Pls
2719 3684 Pls
2719 4221 Pls
2719 3262 Pls
2719 4411 Pls
2719 4036 Pls
2719 4221 Pls
4062 4616 Pls
4062 4274 Pls
4062 4283 Pls
4062 4432 Pls
4062 4352 Pls
4062 4279 Pls
4062 4288 Pls
4062 4558 Pls
4062 4335 Pls
4062 4035 Pls
4062 4207 Pls
4062 4152 Pls
4062 3795 Pls
4062 3977 Pls
4062 4233 Pls
4062 4288 Pls
4062 3679 Pls
4062 3898 Pls
4062 4318 Pls
4062 4122 Pls
4062 3016 Pls
4062 4301 Pls
4062 4247 Pls
4062 4221 Pls
4062 3508 Pls
4062 3754 Pls
4062 4458 Pls
4062 4273 Pls
4062 3508 Pls
4062 3973 Pls
4062 3965 Pls
4062 3962 Pls
4062 4247 Pls
4062 3207 Pls
4062 3965 Pls
4062 4273 Pls
4062 4000 Pls
4062 4520 Pls
4062 4387 Pls
4062 4376 Pls
5406 3759 Pls
5406 4221 Pls
5406 4480 Pls
5406 4386 Pls
5406 4194 Pls
5406 4308 Pls
5406 4253 Pls
5406 4341 Pls
5406 4294 Pls
5406 4286 Pls
5406 4290 Pls
5406 4294 Pls
5406 4206 Pls
5406 4268 Pls
5406 4247 Pls
5406 4509 Pls
5406 4097 Pls
5406 4125 Pls
5406 4057 Pls
5406 4293 Pls
5406 3262 Pls
5406 4192 Pls
5406 4176 Pls
5406 4221 Pls
5406 4000 Pls
5406 3864 Pls
5406 3895 Pls
5406 4376 Pls
5406 3262 Pls
5406 3645 Pls
5406 4036 Pls
5406 4480 Pls
5406 3754 Pls
5406 4192 Pls
5406 4669 Pls
5406 4324 Pls
5406 3754 Pls
5406 4083 Pls
5406 4247 Pls
5406 4480 Pls
6749 4401 Pls
6749 4234 Pls
6749 4357 Pls
6749 4459 Pls
6749 4184 Pls
6749 4512 Pls
6749 4372 Pls
6749 4474 Pls
6749 4493 Pls
6749 4186 Pls
6749 4354 Pls
6749 4523 Pls
6749 3923 Pls
6749 4431 Pls
6749 4450 Pls
6749 4513 Pls
6749 3926 Pls
6749 3874 Pls
6749 4328 Pls
6749 4137 Pls
6749 4000 Pls
6749 3973 Pls
6749 4247 Pls
6749 4221 Pls
6749 4247 Pls
6749 4192 Pls
6749 3965 Pls
6749 4273 Pls
6749 4000 Pls
6749 4411 Pls
6749 4387 Pls
6749 4532 Pls
6749 4739 Pls
6749 4083 Pls
6749 4528 Pls
6749 4221 Pls
6749 4247 Pls
6749 3864 Pls
6749 4528 Pls
6749 4376 Pls
1375 4270 Pls
1375 3953 Pls
1375 4329 Pls
1375 4113 Pls
1375 3224 Pls
1375 3867 Pls
1375 4496 Pls
1375 4515 Pls
1375 4434 Pls
1375 3661 Pls
1375 4308 Pls
1375 4459 Pls
1375 3614 Pls
1375 3896 Pls
1375 3879 Pls
1375 4455 Pls
1375 3820 Pls
1375 3495 Pls
1375 4107 Pls
1375 4354 Pls
1375 2031 Pls
1375 4083 Pls
1375 3754 Pls
1375 3910 Pls
1375 3508 Pls
1375 4083 Pls
1375 4317 Pls
1375 4117 Pls
1375 4000 Pls
1375 3317 Pls
1375 4387 Pls
1375 4428 Pls
1375 3262 Pls
1375 3973 Pls
1375 3825 Pls
1375 4169 Pls
1375 3508 Pls
1375 3317 Pls
1375 4247 Pls
1375 4480 Pls
2719 4270 Pls
2719 4598 Pls
2719 4388 Pls
2719 4522 Pls
2719 4229 Pls
2719 4244 Pls
2719 4175 Pls
2719 4284 Pls
2719 3703 Pls
2719 3978 Pls
2719 4458 Pls
2719 4217 Pls
2719 4311 Pls
2719 4060 Pls
2719 4396 Pls
2719 4425 Pls
2719 3459 Pls
2719 4485 Pls
2719 4381 Pls
2719 4354 Pls
2719 3508 Pls
2719 3754 Pls
2719 4247 Pls
2719 4273 Pls
2719 3754 Pls
2719 3645 Pls
2719 4036 Pls
2719 4376 Pls
2719 3016 Pls
2719 3864 Pls
2719 3895 Pls
2719 4169 Pls
2719 4493 Pls
2719 4192 Pls
2719 4247 Pls
2719 4480 Pls
2719 4247 Pls
2719 4083 Pls
2719 4176 Pls
2719 4221 Pls
4062 4329 Pls
4062 4427 Pls
4062 4282 Pls
4062 4347 Pls
4062 4067 Pls
4062 4140 Pls
4062 4259 Pls
4062 4558 Pls
4062 4211 Pls
4062 4415 Pls
4062 4109 Pls
4062 4276 Pls
4062 4352 Pls
4062 4270 Pls
4062 4178 Pls
4062 4349 Pls
4062 4181 Pls
4062 4363 Pls
4062 4383 Pls
4062 4457 Pls
4062 3262 Pls
4062 4083 Pls
4062 4317 Pls
4062 4273 Pls
4062 4000 Pls
4062 3973 Pls
4062 4317 Pls
4062 4221 Pls
4062 4739 Pls
4062 4192 Pls
4062 4036 Pls
4062 4324 Pls
4062 4247 Pls
4062 4301 Pls
4062 4387 Pls
4062 4376 Pls
4062 4493 Pls
4062 4301 Pls
4062 4458 Pls
4062 4169 Pls
5406 4506 Pls
5406 4369 Pls
5406 4355 Pls
5406 4480 Pls
5406 4493 Pls
5406 4447 Pls
5406 4243 Pls
5406 4396 Pls
5406 3914 Pls
5406 4040 Pls
5406 4332 Pls
5406 4244 Pls
5406 4598 Pls
5406 4431 Pls
5406 4205 Pls
5406 4390 Pls
5406 3983 Pls
5406 4490 Pls
5406 4072 Pls
5406 4374 Pls
5406 3754 Pls
5406 3535 Pls
5406 4247 Pls
5406 4221 Pls
5406 4000 Pls
5406 3864 Pls
5406 4387 Pls
5406 4532 Pls
5406 3508 Pls
5406 4301 Pls
5406 3754 Pls
5406 4480 Pls
5406 4000 Pls
5406 4083 Pls
5406 4528 Pls
5406 4324 Pls
5406 4493 Pls
5406 4192 Pls
5406 4458 Pls
5406 4480 Pls
6749 4739 Pls
6749 4199 Pls
6749 4229 Pls
6749 4349 Pls
6749 4084 Pls
6749 4168 Pls
6749 4007 Pls
6749 4279 Pls
6749 4211 Pls
6749 4182 Pls
6749 4465 Pls
6749 4358 Pls
6749 4352 Pls
6749 4064 Pls
6749 4247 Pls
6749 4399 Pls
6749 4598 Pls
6749 3675 Pls
6749 4336 Pls
6749 4421 Pls
6749 4000 Pls
6749 4083 Pls
6749 4247 Pls
6749 4169 Pls
6749 4739 Pls
6749 4192 Pls
6749 4247 Pls
6749 4376 Pls
6749 4493 Pls
6749 3864 Pls
6749 4528 Pls
6749 4169 Pls
6749 3754 Pls
6749 4083 Pls
6749 3825 Pls
6749 4584 Pls
6749 4739 Pls
6749 4083 Pls
6749 4387 Pls
6749 4169 Pls
1375 4335 Pls
1375 3902 Pls
1375 4234 Pls
1375 4426 Pls
1375 4261 Pls
1375 4060 Pls
1375 3995 Pls
1375 4560 Pls
1375 4311 Pls
1375 4228 Pls
1375 4076 Pls
1375 4274 Pls
1375 3853 Pls
1375 3251 Pls
1375 4037 Pls
1375 4462 Pls
1375 3262 Pls
1375 3889 Pls
1375 4243 Pls
1375 4495 Pls
1375 3262 Pls
1375 3645 Pls
1375 4247 Pls
1375 3910 Pls
1375 3262 Pls
1375 4520 Pls
1375 4387 Pls
1375 4324 Pls
1375 4000 Pls
1375 3317 Pls
1375 4036 Pls
1375 4324 Pls
1375 3508 Pls
1375 4520 Pls
1375 4036 Pls
1375 4169 Pls
1375 4000 Pls
1375 4411 Pls
1375 4317 Pls
1375 4169 Pls
2719 4147 Pls
2719 4499 Pls
2719 4049 Pls
2719 4132 Pls
2719 4493 Pls
2719 4329 Pls
2719 4441 Pls
2719 4340 Pls
2719 4294 Pls
2719 4099 Pls
2719 4155 Pls
2719 4508 Pls
2719 4170 Pls
2719 4142 Pls
2719 4221 Pls
2719 4408 Pls
2719 3037 Pls
2719 4193 Pls
2719 3883 Pls
2719 4124 Pls
2719 3016 Pls
2719 3645 Pls
2719 4387 Pls
2719 4013 Pls
2719 3016 Pls
2719 3754 Pls
2719 3965 Pls
2719 4169 Pls
2719 3262 Pls
2719 3317 Pls
2719 4176 Pls
2719 4324 Pls
2719 3754 Pls
2719 4192 Pls
2719 4317 Pls
2719 4169 Pls
2719 3508 Pls
2719 4192 Pls
2719 3965 Pls
2719 4324 Pls
4062 4352 Pls
4062 4135 Pls
4062 4480 Pls
4062 4272 Pls
4062 4024 Pls
4062 4324 Pls
4062 4441 Pls
4062 4203 Pls
4062 4311 Pls
4062 4351 Pls
4062 4453 Pls
4062 4285 Pls
4062 4616 Pls
4062 4122 Pls
4062 4268 Pls
4062 4333 Pls
4062 3895 Pls
4062 4189 Pls
4062 4081 Pls
4062 4082 Pls
4062 4493 Pls
4062 3864 Pls
4062 4247 Pls
4062 4376 Pls
4062 4000 Pls
4062 4192 Pls
4062 3684 Pls
4062 4480 Pls
4062 3754 Pls
4062 3754 Pls
4062 4036 Pls
4062 4324 Pls
4062 2770 Pls
4062 4192 Pls
4062 4387 Pls
4062 4376 Pls
4062 4000 Pls
4062 3973 Pls
4062 4176 Pls
4062 4273 Pls
5406 4153 Pls
5406 4318 Pls
5406 4416 Pls
5406 4560 Pls
5406 4598 Pls
5406 3914 Pls
5406 4166 Pls
5406 4484 Pls
5406 4452 Pls
5406 4269 Pls
5406 4393 Pls
5406 4205 Pls
5406 3917 Pls
5406 4435 Pls
5406 4290 Pls
5406 4171 Pls
5406 4099 Pls
5406 4381 Pls
5406 4122 Pls
5406 4420 Pls
5406 3508 Pls
5406 3754 Pls
5406 3895 Pls
5406 4221 Pls
5406 4000 Pls
5406 4083 Pls
5406 4247 Pls
5406 4169 Pls
5406 4000 Pls
5406 4520 Pls
5406 4317 Pls
5406 4324 Pls
5406 4493 Pls
5406 3864 Pls
5406 4317 Pls
5406 4428 Pls
5406 4000 Pls
5406 4630 Pls
5406 4458 Pls
5406 4532 Pls
6749 4211 Pls
6749 4259 Pls
6749 4339 Pls
6749 4292 Pls
6749 4124 Pls
6749 4328 Pls
6749 4329 Pls
6749 4368 Pls
6749 4739 Pls
6749 4225 Pls
6749 4461 Pls
6749 4205 Pls
6749 4598 Pls
6749 4349 Pls
6749 4244 Pls
6749 4398 Pls
6749 4040 Pls
6749 3862 Pls
6749 4265 Pls
6749 4242 Pls
6749 3508 Pls
6749 4192 Pls
6749 3965 Pls
6749 4324 Pls
6749 4493 Pls
6749 3754 Pls
6749 4106 Pls
6749 4532 Pls
6749 4000 Pls
6749 3973 Pls
6749 4036 Pls
6749 4324 Pls
6749 3016 Pls
6749 4301 Pls
6749 4247 Pls
6749 4324 Pls
6749 4247 Pls
6749 4083 Pls
6749 4247 Pls
6749 4376 Pls
1375 4040 Pls
1375 4354 Pls
1375 4375 Pls
1375 4517 Pls
1375 3725 Pls
1375 3511 Pls
1375 4179 Pls
1375 4335 Pls
1375 4181 Pls
1375 4049 Pls
1375 4243 Pls
1375 4182 Pls
1375 3983 Pls
1375 3954 Pls
1375 4431 Pls
1375 4308 Pls
1375 2999 Pls
1375 3987 Pls
1375 4058 Pls
1375 4078 Pls
1375 3016 Pls
1375 4083 Pls
1375 4247 Pls
1375 4221 Pls
1375 4247 Pls
1375 3973 Pls
1375 3895 Pls
1375 4117 Pls
1375 4000 Pls
1375 3973 Pls
1375 4317 Pls
1375 4169 Pls
1375 3508 Pls
1375 4301 Pls
1375 4036 Pls
1375 4169 Pls
1375 4000 Pls
1375 3754 Pls
1375 4387 Pls
1375 4013 Pls
2719 4214 Pls
2719 3997 Pls
2719 4349 Pls
2719 4339 Pls
2719 4229 Pls
2719 4347 Pls
2719 4297 Pls
2719 4129 Pls
2719 3973 Pls
2719 4485 Pls
2719 4342 Pls
2719 3984 Pls
2719 4015 Pls
2719 4286 Pls
2719 4086 Pls
2719 4329 Pls
2719 2826 Pls
2719 3684 Pls
2719 4427 Pls
2719 4323 Pls
2719 3262 Pls
2719 4301 Pls
2719 4106 Pls
2719 4376 Pls
2719 3262 Pls
2719 4192 Pls
2719 4247 Pls
2719 4584 Pls
2719 4247 Pls
2719 3973 Pls
2719 4247 Pls
2719 4273 Pls
2719 3508 Pls
2719 3535 Pls
2719 4106 Pls
2719 4117 Pls
2719 4493 Pls
2719 4083 Pls
2719 4036 Pls
2719 4221 Pls
4062 4598 Pls
4062 4133 Pls
4062 4406 Pls
4062 4482 Pls
4062 4475 Pls
4062 4276 Pls
4062 4293 Pls
4062 4480 Pls
4062 3986 Pls
4062 4122 Pls
4062 4134 Pls
4062 4428 Pls
4062 4030 Pls
4062 4064 Pls
4062 4492 Pls
4062 4368 Pls
4062 4278 Pls
4062 4408 Pls
4062 4195 Pls
4062 4370 Pls
4062 3262 Pls
4062 3973 Pls
4062 4176 Pls
4062 4324 Pls
4062 3016 Pls
4062 4083 Pls
4062 4036 Pls
4062 4221 Pls
4062 3754 Pls
4062 4520 Pls
4062 3825 Pls
4062 4428 Pls
4062 4000 Pls
4062 4301 Pls
4062 4176 Pls
4062 4221 Pls
4062 3262 Pls
4062 3864 Pls
4062 4247 Pls
4062 4376 Pls
5406 4288 Pls
5406 4102 Pls
5406 4298 Pls
5406 4235 Pls
5406 4506 Pls
5406 4520 Pls
5406 4286 Pls
5406 4241 Pls
5406 3989 Pls
5406 3777 Pls
5406 4295 Pls
5406 4480 Pls
5406 4311 Pls
5406 3734 Pls
5406 4567 Pls
5406 4214 Pls
5406 4247 Pls
5406 4101 Pls
5406 4338 Pls
5406 4278 Pls
5406 4000 Pls
5406 3973 Pls
5406 4317 Pls
5406 4324 Pls
5406 3508 Pls
5406 4083 Pls
5406 4317 Pls
5406 4169 Pls
5406 3754 Pls
5406 3535 Pls
5406 4387 Pls
5406 4221 Pls
5406 3754 Pls
5406 4192 Pls
5406 4317 Pls
5406 4273 Pls
5406 4000 Pls
5406 4192 Pls
5406 4528 Pls
5406 4428 Pls
6749 4520 Pls
6749 4250 Pls
6749 4635 Pls
6749 4438 Pls
6749 4598 Pls
6749 4087 Pls
6749 4232 Pls
6749 4303 Pls
6749 4489 Pls
6749 4092 Pls
6749 4350 Pls
6749 4530 Pls
6749 4739 Pls
6749 4196 Pls
6749 4578 Pls
6749 4349 Pls
6749 3761 Pls
6749 4094 Pls
6749 4014 Pls
6749 4021 Pls
6749 3754 Pls
6749 3754 Pls
6749 4247 Pls
6749 4584 Pls
6749 3262 Pls
6749 4192 Pls
6749 4317 Pls
6749 4221 Pls
6749 3754 Pls
6749 4301 Pls
6749 4317 Pls
6749 4376 Pls
6749 3262 Pls
6749 4083 Pls
6749 4036 Pls
6749 4532 Pls
6749 4739 Pls
6749 4630 Pls
6749 4247 Pls
6749 4221 Pls
1375 4138 Pls
1375 4139 Pls
1375 4223 Pls
1375 4480 Pls
1375 4366 Pls
1375 3762 Pls
1375 4187 Pls
1375 4193 Pls
1375 4129 Pls
1375 4410 Pls
1375 4107 Pls
1375 4325 Pls
1375 4012 Pls
1375 3835 Pls
1375 4365 Pls
1375 4502 Pls
1375 3820 Pls
1375 4291 Pls
1375 4169 Pls
1375 4305 Pls
1375 3262 Pls
1375 3535 Pls
1375 4106 Pls
1375 4221 Pls
1375 3262 Pls
1375 3754 Pls
1375 4106 Pls
1375 4065 Pls
1375 3262 Pls
1375 3098 Pls
1375 4247 Pls
1375 4532 Pls
1375 3508 Pls
1375 3535 Pls
1375 4036 Pls
1375 4324 Pls
1375 3262 Pls
1375 4630 Pls
1375 4176 Pls
1375 4687 Pls
2719 3618 Pls
2719 3821 Pls
2719 4255 Pls
2719 4343 Pls
2719 4493 Pls
2719 4161 Pls
2719 4475 Pls
2719 4519 Pls
2719 4311 Pls
2719 3876 Pls
2719 4345 Pls
2719 4307 Pls
2719 4616 Pls
2719 4036 Pls
2719 4237 Pls
2719 4448 Pls
2719 3154 Pls
2719 4217 Pls
2719 4616 Pls
2719 4366 Pls
2719 1046 Pls
2719 3973 Pls
2719 4317 Pls
2719 4013 Pls
2719 3262 Pls
2719 4192 Pls
2719 4317 Pls
2719 4480 Pls
2719 3754 Pls
2719 4192 Pls
2719 4387 Pls
2719 4428 Pls
2719 3754 Pls
2719 4083 Pls
2719 4317 Pls
2719 4376 Pls
2719 3508 Pls
2719 3973 Pls
2719 4247 Pls
2719 4687 Pls
4062 4188 Pls
4062 4017 Pls
4062 4398 Pls
4062 4315 Pls
4062 3650 Pls
4062 4591 Pls
4062 4346 Pls
4062 4474 Pls
4062 3515 Pls
4062 4197 Pls
4062 4243 Pls
4062 4208 Pls
4062 3581 Pls
4062 4252 Pls
4062 4335 Pls
4062 4240 Pls
4062 4311 Pls
4062 4237 Pls
4062 4391 Pls
4062 4457 Pls
4062 3754 Pls
4062 3645 Pls
4062 4176 Pls
4062 4480 Pls
4062 3754 Pls
4062 3973 Pls
4062 4106 Pls
4062 4169 Pls
4062 4000 Pls
4062 3645 Pls
4062 4176 Pls
4062 4117 Pls
4062 4247 Pls
4062 4083 Pls
4062 4036 Pls
4062 4376 Pls
4062 4493 Pls
4062 4083 Pls
4062 4387 Pls
4062 4221 Pls
5406 4243 Pls
5406 4338 Pls
5406 4522 Pls
5406 4528 Pls
5406 4211 Pls
5406 4112 Pls
5406 4192 Pls
5406 4320 Pls
5406 4739 Pls
5406 3918 Pls
5406 4410 Pls
5406 4427 Pls
5406 4411 Pls
5406 4251 Pls
5406 4403 Pls
5406 4395 Pls
5406 4458 Pls
5406 3799 Pls
5406 4500 Pls
5406 4196 Pls
5406 4493 Pls
5406 4083 Pls
5406 3895 Pls
5406 4428 Pls
5406 3508 Pls
5406 3864 Pls
5406 4317 Pls
5406 4480 Pls
5406 4247 Pls
5406 4192 Pls
5406 4036 Pls
5406 4480 Pls
5406 3754 Pls
5406 4411 Pls
5406 4247 Pls
5406 4480 Pls
5406 4493 Pls
5406 4630 Pls
5406 3895 Pls
5406 4273 Pls
6749 4475 Pls
6749 4286 Pls
6749 4322 Pls
6749 4317 Pls
6749 4274 Pls
6749 4478 Pls
6749 4268 Pls
6749 4517 Pls
6749 4161 Pls
6749 4029 Pls
6749 4287 Pls
6749 4473 Pls
6749 4073 Pls
6749 4243 Pls
6749 4401 Pls
6749 4318 Pls
6749 3897 Pls
6749 4207 Pls
6749 4462 Pls
6749 4270 Pls
6749 3262 Pls
6749 3973 Pls
6749 4247 Pls
6749 4428 Pls
6749 4247 Pls
6749 4301 Pls
6749 4247 Pls
6749 4428 Pls
6749 4247 Pls
6749 3973 Pls
6749 4528 Pls
6749 4273 Pls
6749 3754 Pls
6749 3973 Pls
6749 4528 Pls
6749 4428 Pls
6749 4739 Pls
6749 4083 Pls
6749 3965 Pls
6749 4324 Pls
1375 3727 Pls
1375 3960 Pls
1375 4311 Pls
1375 4432 Pls
1375 3651 Pls
1375 4403 Pls
1375 4215 Pls
1375 4410 Pls
1375 3777 Pls
1375 3957 Pls
1375 4242 Pls
1375 4425 Pls
1375 3918 Pls
1375 4175 Pls
1375 4018 Pls
1375 4272 Pls
1375 3492 Pls
1375 3987 Pls
1375 4169 Pls
1375 4310 Pls
1375 3262 Pls
1375 2988 Pls
1375 4176 Pls
1375 4324 Pls
1375 3016 Pls
1375 3207 Pls
1375 3825 Pls
1375 4169 Pls
1375 3508 Pls
1375 3426 Pls
1375 4106 Pls
1375 4221 Pls
1375 3262 Pls
1375 3973 Pls
1375 4387 Pls
1375 4324 Pls
1375 3508 Pls
1375 3973 Pls
1375 4106 Pls
1375 4480 Pls
2719 4165 Pls
2719 4107 Pls
2719 3905 Pls
2719 4522 Pls
2719 4204 Pls
2719 4359 Pls
2719 4396 Pls
2719 4441 Pls
2719 4598 Pls
2719 4195 Pls
2719 4329 Pls
2719 4392 Pls
2719 4153 Pls
2719 4146 Pls
2719 4311 Pls
2719 4280 Pls
2719 4237 Pls
2719 4230 Pls
2719 4311 Pls
2719 4321 Pls
2719 3508 Pls
2719 4192 Pls
2719 4106 Pls
2719 4324 Pls
2719 4247 Pls
2719 3645 Pls
2719 4317 Pls
2719 4169 Pls
2719 3754 Pls
2719 4192 Pls
2719 4317 Pls
2719 3910 Pls
2719 4493 Pls
2719 4301 Pls
2719 4106 Pls
2719 4221 Pls
2719 4000 Pls
2719 4411 Pls
2719 4247 Pls
2719 4065 Pls
4062 4575 Pls
4062 3956 Pls
4062 4202 Pls
4062 4230 Pls
4062 4317 Pls
4062 4435 Pls
4062 4326 Pls
4062 4433 Pls
4062 3900 Pls
4062 4274 Pls
4062 4207 Pls
4062 4511 Pls
4062 4325 Pls
4062 4222 Pls
4062 4231 Pls
4062 4299 Pls
4062 4106 Pls
4062 3668 Pls
4062 4325 Pls
4062 4244 Pls
4062 3016 Pls
4062 4411 Pls
4062 4036 Pls
4062 4221 Pls
4062 3754 Pls
4062 3426 Pls
4062 4247 Pls
4062 3962 Pls
4062 4247 Pls
4062 3864 Pls
4062 4036 Pls
4062 4169 Pls
4062 4000 Pls
4062 4083 Pls
4062 4528 Pls
4062 4376 Pls
4062 4247 Pls
4062 3973 Pls
4062 4106 Pls
4062 4221 Pls
5406 4598 Pls
5406 4288 Pls
5406 4350 Pls
5406 4565 Pls
5406 3942 Pls
5406 4186 Pls
5406 4353 Pls
5406 4447 Pls
5406 3507 Pls
5406 4097 Pls
5406 4157 Pls
5406 4440 Pls
5406 4411 Pls
5406 3859 Pls
5406 4220 Pls
5406 4280 Pls
5406 3645 Pls
5406 4153 Pls
5406 4445 Pls
5406 4514 Pls
5406 4247 Pls
5406 3864 Pls
5406 3965 Pls
5406 4065 Pls
5406 4000 Pls
5406 3754 Pls
5406 4176 Pls
5406 4169 Pls
5406 4493 Pls
5406 4411 Pls
5406 3895 Pls
5406 4169 Pls
5406 4247 Pls
5406 3317 Pls
5406 4247 Pls
5406 4428 Pls
5406 4000 Pls
5406 3645 Pls
5406 4106 Pls
5406 4273 Pls
6749 4458 Pls
6749 4120 Pls
6749 4390 Pls
6749 4526 Pls
6749 4270 Pls
6749 4160 Pls
6749 4451 Pls
6749 4341 Pls
6749 3989 Pls
6749 4278 Pls
6749 4583 Pls
6749 4515 Pls
6749 4222 Pls
6749 4117 Pls
6749 4248 Pls
6749 4384 Pls
6749 4278 Pls
6749 4231 Pls
6749 4391 Pls
6749 4421 Pls
6749 4000 Pls
6749 3864 Pls
6749 4317 Pls
6749 4013 Pls
6749 3262 Pls
6749 3645 Pls
6749 4106 Pls
6749 4273 Pls
6749 4000 Pls
6749 4301 Pls
6749 3895 Pls
6749 4324 Pls
6749 4493 Pls
6749 4301 Pls
6749 4036 Pls
6749 4117 Pls
6749 3508 Pls
6749 4192 Pls
6749 4317 Pls
6749 4324 Pls
1375 3923 Pls
1375 4139 Pls
1375 4326 Pls
1375 4317 Pls
1375 3753 Pls
1375 4223 Pls
1375 3927 Pls
1375 4274 Pls
1375 3843 Pls
1375 3624 Pls
1375 4253 Pls
1375 4370 Pls
1375 3440 Pls
1375 3821 Pls
1375 4187 Pls
1375 4227 Pls
1375 3689 Pls
1375 4193 Pls
1375 3840 Pls
1375 4261 Pls
1375 3016 Pls
1375 3864 Pls
1375 4387 Pls
1375 4117 Pls
1375 2770 Pls
1375 4083 Pls
1375 4247 Pls
1375 4169 Pls
1375 3508 Pls
1375 4301 Pls
1375 4317 Pls
1375 4532 Pls
1375 3016 Pls
1375 4192 Pls
1375 4247 Pls
1375 4117 Pls
1375 4000 Pls
1375 4083 Pls
1375 4106 Pls
1375 4065 Pls
2719 4194 Pls
2719 4581 Pls
2719 4438 Pls
2719 4340 Pls
2719 3505 Pls
2719 4282 Pls
2719 4325 Pls
2719 4291 Pls
2719 4050 Pls
2719 4123 Pls
2719 4401 Pls
2719 4428 Pls
2719 3417 Pls
2719 4003 Pls
2719 4175 Pls
2719 4186 Pls
2719 4739 Pls
2719 3709 Pls
2719 4319 Pls
2719 4505 Pls
2719 3016 Pls
2719 4301 Pls
2719 4247 Pls
2719 4221 Pls
2719 3508 Pls
2719 4301 Pls
2719 4036 Pls
2719 4480 Pls
2719 3754 Pls
2719 4301 Pls
2719 3825 Pls
2719 4480 Pls
2719 4000 Pls
2719 4192 Pls
2719 3965 Pls
2719 4480 Pls
2719 4000 Pls
2719 4411 Pls
2719 4036 Pls
2719 4428 Pls
4062 3756 Pls
4062 4499 Pls
4062 4623 Pls
4062 4485 Pls
4062 4311 Pls
4062 4328 Pls
4062 4214 Pls
4062 4431 Pls
4062 3745 Pls
4062 4259 Pls
4062 4424 Pls
4062 4382 Pls
4062 4270 Pls
4062 4320 Pls
4062 3975 Pls
4062 4476 Pls
4062 4247 Pls
4062 4199 Pls
4062 4180 Pls
4062 4231 Pls
4062 4000 Pls
4062 4192 Pls
4062 3965 Pls
4062 4324 Pls
4062 4000 Pls
4062 4630 Pls
4062 4036 Pls
4062 4376 Pls
4062 4493 Pls
4062 4301 Pls
4062 4387 Pls
4062 4376 Pls
4062 4000 Pls
4062 3973 Pls
4062 4247 Pls
4062 4532 Pls
4062 4739 Pls
4062 3535 Pls
4062 4176 Pls
4062 4169 Pls
5406 4065 Pls
5406 3948 Pls
5406 4306 Pls
5406 4441 Pls
5406 4616 Pls
5406 4493 Pls
5406 4456 Pls
5406 4348 Pls
5406 3989 Pls
5406 4281 Pls
5406 4213 Pls
5406 4292 Pls
5406 3515 Pls
5406 4430 Pls
5406 4408 Pls
5406 4386 Pls
5406 3743 Pls
5406 3866 Pls
5406 4342 Pls
5406 4368 Pls
5406 3016 Pls
5406 3754 Pls
5406 4387 Pls
5406 4324 Pls
5406 3754 Pls
5406 4411 Pls
5406 4106 Pls
5406 3962 Pls
5406 4000 Pls
5406 4083 Pls
5406 4036 Pls
5406 4428 Pls
5406 4493 Pls
5406 3864 Pls
5406 4036 Pls
5406 4376 Pls
5406 4247 Pls
5406 4083 Pls
5406 4528 Pls
5406 4376 Pls
6749 4475 Pls
6749 4739 Pls
6749 4193 Pls
6749 4351 Pls
6749 4184 Pls
6749 4194 Pls
6749 4093 Pls
6749 4308 Pls
6749 3976 Pls
6749 4162 Pls
6749 4353 Pls
6749 4433 Pls
6749 4288 Pls
6749 4195 Pls
6749 4280 Pls
6749 4278 Pls
6749 4294 Pls
6749 3794 Pls
6749 4273 Pls
6749 4256 Pls
6749 3016 Pls
6749 3864 Pls
6749 4176 Pls
6749 4013 Pls
6749 4493 Pls
6749 3973 Pls
6749 4598 Pls
6749 4221 Pls
6749 4000 Pls
6749 3973 Pls
6749 4528 Pls
6749 4324 Pls
6749 4493 Pls
6749 4192 Pls
6749 4247 Pls
6749 4584 Pls
6749 4739 Pls
6749 4083 Pls
6749 4317 Pls
6749 4532 Pls
1375 4012 Pls
1375 4314 Pls
1375 4340 Pls
1375 4463 Pls
1375 4434 Pls
1375 3986 Pls
1375 4371 Pls
1375 4372 Pls
1375 4106 Pls
1375 4265 Pls
1375 4542 Pls
1375 4457 Pls
1375 2535 Pls
1375 4029 Pls
1375 4065 Pls
1375 4466 Pls
1375 4378 Pls
1375 3620 Pls
1375 4103 Pls
1375 4207 Pls
1375 3262 Pls
1375 4083 Pls
1375 4036 Pls
1375 4376 Pls
1375 4000 Pls
1375 3864 Pls
1375 4176 Pls
1375 4273 Pls
1375 3262 Pls
1375 3864 Pls
1375 4387 Pls
1375 4428 Pls
1375 3754 Pls
1375 4083 Pls
1375 4317 Pls
1375 4376 Pls
1375 3016 Pls
1375 3754 Pls
1375 4247 Pls
1375 3962 Pls
2719 4506 Pls
2719 4174 Pls
2719 4331 Pls
2719 4346 Pls
2719 4616 Pls
2719 4406 Pls
2719 4677 Pls
2719 4513 Pls
2719 3942 Pls
2719 4217 Pls
2719 4285 Pls
2719 4421 Pls
2719 4452 Pls
2719 4223 Pls
2719 4270 Pls
2719 4295 Pls
2719 3942 Pls
2719 4142 Pls
2719 4257 Pls
2719 4229 Pls
2719 4000 Pls
2719 3535 Pls
2719 4317 Pls
2719 4428 Pls
2719 4000 Pls
2719 3864 Pls
2719 3965 Pls
2719 4273 Pls
2719 4000 Pls
2719 4083 Pls
2719 4106 Pls
2719 4324 Pls
2719 3754 Pls
2719 4083 Pls
2719 4317 Pls
2719 4273 Pls
2719 4247 Pls
2719 4411 Pls
2719 3895 Pls
2719 4376 Pls
4062 4294 Pls
4062 3809 Pls
4062 4271 Pls
4062 4302 Pls
4062 4288 Pls
4062 4393 Pls
4062 4375 Pls
4062 4569 Pls
4062 4366 Pls
4062 4270 Pls
4062 4471 Pls
4062 4140 Pls
4062 3809 Pls
4062 4353 Pls
4062 4210 Pls
4062 4166 Pls
4062 3820 Pls
4062 3864 Pls
4062 3937 Pls
4062 4130 Pls
4062 4493 Pls
4062 3645 Pls
4062 4387 Pls
4062 4065 Pls
4062 3754 Pls
4062 4301 Pls
4062 4528 Pls
4062 4169 Pls
4062 2523 Pls
4062 4520 Pls
4062 4458 Pls
4062 4273 Pls
4062 3754 Pls
4062 4083 Pls
4062 4387 Pls
4062 4221 Pls
4062 4247 Pls
4062 4192 Pls
4062 4247 Pls
4062 4376 Pls
5406 4366 Pls
5406 4455 Pls
5406 4407 Pls
5406 4521 Pls
5406 4465 Pls
5406 4149 Pls
5406 4571 Pls
5406 4218 Pls
5406 4325 Pls
5406 4324 Pls
5406 4124 Pls
5406 4220 Pls
5406 4630 Pls
5406 4396 Pls
5406 4355 Pls
5406 4127 Pls
5406 4211 Pls
5406 4478 Pls
5406 4248 Pls
5406 4423 Pls
5406 4493 Pls
5406 4411 Pls
5406 4176 Pls
5406 4013 Pls
5406 3754 Pls
5406 3426 Pls
5406 4106 Pls
5406 4324 Pls
5406 3262 Pls
5406 3754 Pls
5406 3895 Pls
5406 4324 Pls
5406 4247 Pls
5406 4520 Pls
5406 4176 Pls
5406 4324 Pls
5406 4000 Pls
5406 3645 Pls
5406 4247 Pls
5406 4428 Pls
6749 4325 Pls
6749 4663 Pls
6749 4150 Pls
6749 4353 Pls
6749 4616 Pls
6749 4417 Pls
6749 4350 Pls
6749 4476 Pls
6749 4184 Pls
6749 4181 Pls
6749 4235 Pls
6749 4442 Pls
6749 4434 Pls
6749 4314 Pls
6749 4383 Pls
6749 4523 Pls
6749 4270 Pls
6749 4475 Pls
6749 4182 Pls
6749 4513 Pls
6749 2770 Pls
6749 3426 Pls
6749 4317 Pls
6749 4376 Pls
6749 3508 Pls
6749 3973 Pls
6749 3965 Pls
6749 4428 Pls
6749 4493 Pls
6749 3864 Pls
6749 4176 Pls
6749 4117 Pls
6749 4247 Pls
6749 3973 Pls
6749 4458 Pls
6749 4532 Pls
6749 4247 Pls
6749 4083 Pls
6749 4247 Pls
6749 4324 Pls
% End plot #1
% Begin plot #2
8.000 UL
LT1
LCb setrgbcolor
2575 1488 M
[ [(Helvetica) 250.0 0.0 true true 0 (Average)]
] -83.3 MRshow
LT1
2725 1488 M
663 0 V
1375 4033 M
1344 100 V
1343 44 V
1344 40 V
1343 35 V
% End plot #2
% Begin plot #3
stroke
4.000 UL
LT2
LCb setrgbcolor
2575 1238 M
[ [(Helvetica) 250.0 0.0 true true 0 (Min)]
] -83.3 MRshow
LT2
2725 1238 M
663 0 V
1375 2031 M
2719 1046 L
1343 739 V
1344 985 V
1343 0 V
% End plot #3
% Begin plot #4
stroke
LT3
LCb setrgbcolor
2575 988 M
[ [(Helvetica) 250.0 0.0 true true 0 (Max)]
] -83.3 MRshow
LT3
2725 988 M
663 0 V
1375 4687 M
1344 52 V
1343 0 V
1344 0 V
1343 0 V
% End plot #4
stroke
1.000 UL
LTb
1375 4739 N
0 -3939 V
5374 0 V
0 3939 V
-5374 0 V
Z stroke
1.000 UP
1.000 UL
LTb
stroke
grestore
end
showpage
%%Trailer
%%DocumentFonts: Helvetica
