%!PS-Adobe-2.0 EPSF-2.0
%%Title: n_noise_ratio-f1.eps
%%Creator: gnuplot 4.4 patchlevel 3
%%CreationDate: Fri Jun 14 19:20:04 2013
%%DocumentFonts: (atend)
%%BoundingBox: 50 50 410 302
%%EndComments
%%BeginProlog
/gnudict 256 dict def
gnudict begin
%
% The following true/false flags may be edited by hand if desired.
% The unit line width and grayscale image gamma correction may also be changed.
%
/Color true def
/Blacktext false def
/Solid false def
/Dashlength 1 def
/Landscape false def
/Level1 false def
/Rounded false def
/ClipToBoundingBox false def
/TransparentPatterns false def
/gnulinewidth 5.000 def
/userlinewidth gnulinewidth def
/Gamma 1.0 def
%
/vshift -83 def
/dl1 {
  10.0 Dashlength mul mul
  Rounded { currentlinewidth 0.75 mul sub dup 0 le { pop 0.01 } if } if
} def
/dl2 {
  10.0 Dashlength mul mul
  Rounded { currentlinewidth 0.75 mul add } if
} def
/hpt_ 31.5 def
/vpt_ 31.5 def
/hpt hpt_ def
/vpt vpt_ def
Level1 {} {
/SDict 10 dict def
systemdict /pdfmark known not {
  userdict /pdfmark systemdict /cleartomark get put
} if
SDict begin [
  /Title (n_noise_ratio-f1.eps)
  /Subject (gnuplot plot)
  /Creator (gnuplot 4.4 patchlevel 3)
  /Author (xjia)
%  /Producer (gnuplot)
%  /Keywords ()
  /CreationDate (Fri Jun 14 19:20:04 2013)
  /DOCINFO pdfmark
end
} ifelse
/doclip {
  ClipToBoundingBox {
    newpath 50 50 moveto 410 50 lineto 410 302 lineto 50 302 lineto closepath
    clip
  } if
} def
%
% Gnuplot Prolog Version 4.4 (August 2010)
%
%/SuppressPDFMark true def
%
/M {moveto} bind def
/L {lineto} bind def
/R {rmoveto} bind def
/V {rlineto} bind def
/N {newpath moveto} bind def
/Z {closepath} bind def
/C {setrgbcolor} bind def
/f {rlineto fill} bind def
/g {setgray} bind def
/Gshow {show} def   % May be redefined later in the file to support UTF-8
/vpt2 vpt 2 mul def
/hpt2 hpt 2 mul def
/Lshow {currentpoint stroke M 0 vshift R 
	Blacktext {gsave 0 setgray show grestore} {show} ifelse} def
/Rshow {currentpoint stroke M dup stringwidth pop neg vshift R
	Blacktext {gsave 0 setgray show grestore} {show} ifelse} def
/Cshow {currentpoint stroke M dup stringwidth pop -2 div vshift R 
	Blacktext {gsave 0 setgray show grestore} {show} ifelse} def
/UP {dup vpt_ mul /vpt exch def hpt_ mul /hpt exch def
  /hpt2 hpt 2 mul def /vpt2 vpt 2 mul def} def
/DL {Color {setrgbcolor Solid {pop []} if 0 setdash}
 {pop pop pop 0 setgray Solid {pop []} if 0 setdash} ifelse} def
/BL {stroke userlinewidth 2 mul setlinewidth
	Rounded {1 setlinejoin 1 setlinecap} if} def
/AL {stroke userlinewidth 2 div setlinewidth
	Rounded {1 setlinejoin 1 setlinecap} if} def
/UL {dup gnulinewidth mul /userlinewidth exch def
	dup 1 lt {pop 1} if 10 mul /udl exch def} def
/PL {stroke userlinewidth setlinewidth
	Rounded {1 setlinejoin 1 setlinecap} if} def
3.8 setmiterlimit
% Default Line colors
/LCw {1 1 1} def
/LCb {0 0 0} def
/LCa {0 0 0} def
/LC0 {1 0 0} def
/LC1 {0 1 0} def
/LC2 {0 0 1} def
/LC3 {1 0 1} def
/LC4 {0 1 1} def
/LC5 {1 1 0} def
/LC6 {0 0 0} def
/LC7 {1 0.3 0} def
/LC8 {0.5 0.5 0.5} def
% Default Line Types
/LTw {PL [] 1 setgray} def
/LTb {BL [] LCb DL} def
/LTa {AL [1 udl mul 2 udl mul] 0 setdash LCa setrgbcolor} def
/LT0 {PL [] LC0 DL} def
/LT1 {PL [4 dl1 2 dl2] LC1 DL} def
/LT2 {PL [2 dl1 3 dl2] LC2 DL} def
/LT3 {PL [1 dl1 1.5 dl2] LC3 DL} def
/LT4 {PL [6 dl1 2 dl2 1 dl1 2 dl2] LC4 DL} def
/LT5 {PL [3 dl1 3 dl2 1 dl1 3 dl2] LC5 DL} def
/LT6 {PL [2 dl1 2 dl2 2 dl1 6 dl2] LC6 DL} def
/LT7 {PL [1 dl1 2 dl2 6 dl1 2 dl2 1 dl1 2 dl2] LC7 DL} def
/LT8 {PL [2 dl1 2 dl2 2 dl1 2 dl2 2 dl1 2 dl2 2 dl1 4 dl2] LC8 DL} def
/Pnt {stroke [] 0 setdash gsave 1 setlinecap M 0 0 V stroke grestore} def
/Dia {stroke [] 0 setdash 2 copy vpt add M
  hpt neg vpt neg V hpt vpt neg V
  hpt vpt V hpt neg vpt V closepath stroke
  Pnt} def
/Pls {stroke [] 0 setdash vpt sub M 0 vpt2 V
  currentpoint stroke M
  hpt neg vpt neg R hpt2 0 V stroke
 } def
/Box {stroke [] 0 setdash 2 copy exch hpt sub exch vpt add M
  0 vpt2 neg V hpt2 0 V 0 vpt2 V
  hpt2 neg 0 V closepath stroke
  Pnt} def
/Crs {stroke [] 0 setdash exch hpt sub exch vpt add M
  hpt2 vpt2 neg V currentpoint stroke M
  hpt2 neg 0 R hpt2 vpt2 V stroke} def
/TriU {stroke [] 0 setdash 2 copy vpt 1.12 mul add M
  hpt neg vpt -1.62 mul V
  hpt 2 mul 0 V
  hpt neg vpt 1.62 mul V closepath stroke
  Pnt} def
/Star {2 copy Pls Crs} def
/BoxF {stroke [] 0 setdash exch hpt sub exch vpt add M
  0 vpt2 neg V hpt2 0 V 0 vpt2 V
  hpt2 neg 0 V closepath fill} def
/TriUF {stroke [] 0 setdash vpt 1.12 mul add M
  hpt neg vpt -1.62 mul V
  hpt 2 mul 0 V
  hpt neg vpt 1.62 mul V closepath fill} def
/TriD {stroke [] 0 setdash 2 copy vpt 1.12 mul sub M
  hpt neg vpt 1.62 mul V
  hpt 2 mul 0 V
  hpt neg vpt -1.62 mul V closepath stroke
  Pnt} def
/TriDF {stroke [] 0 setdash vpt 1.12 mul sub M
  hpt neg vpt 1.62 mul V
  hpt 2 mul 0 V
  hpt neg vpt -1.62 mul V closepath fill} def
/DiaF {stroke [] 0 setdash vpt add M
  hpt neg vpt neg V hpt vpt neg V
  hpt vpt V hpt neg vpt V closepath fill} def
/Pent {stroke [] 0 setdash 2 copy gsave
  translate 0 hpt M 4 {72 rotate 0 hpt L} repeat
  closepath stroke grestore Pnt} def
/PentF {stroke [] 0 setdash gsave
  translate 0 hpt M 4 {72 rotate 0 hpt L} repeat
  closepath fill grestore} def
/Circle {stroke [] 0 setdash 2 copy
  hpt 0 360 arc stroke Pnt} def
/CircleF {stroke [] 0 setdash hpt 0 360 arc fill} def
/C0 {BL [] 0 setdash 2 copy moveto vpt 90 450 arc} bind def
/C1 {BL [] 0 setdash 2 copy moveto
	2 copy vpt 0 90 arc closepath fill
	vpt 0 360 arc closepath} bind def
/C2 {BL [] 0 setdash 2 copy moveto
	2 copy vpt 90 180 arc closepath fill
	vpt 0 360 arc closepath} bind def
/C3 {BL [] 0 setdash 2 copy moveto
	2 copy vpt 0 180 arc closepath fill
	vpt 0 360 arc closepath} bind def
/C4 {BL [] 0 setdash 2 copy moveto
	2 copy vpt 180 270 arc closepath fill
	vpt 0 360 arc closepath} bind def
/C5 {BL [] 0 setdash 2 copy moveto
	2 copy vpt 0 90 arc
	2 copy moveto
	2 copy vpt 180 270 arc closepath fill
	vpt 0 360 arc} bind def
/C6 {BL [] 0 setdash 2 copy moveto
	2 copy vpt 90 270 arc closepath fill
	vpt 0 360 arc closepath} bind def
/C7 {BL [] 0 setdash 2 copy moveto
	2 copy vpt 0 270 arc closepath fill
	vpt 0 360 arc closepath} bind def
/C8 {BL [] 0 setdash 2 copy moveto
	2 copy vpt 270 360 arc closepath fill
	vpt 0 360 arc closepath} bind def
/C9 {BL [] 0 setdash 2 copy moveto
	2 copy vpt 270 450 arc closepath fill
	vpt 0 360 arc closepath} bind def
/C10 {BL [] 0 setdash 2 copy 2 copy moveto vpt 270 360 arc closepath fill
	2 copy moveto
	2 copy vpt 90 180 arc closepath fill
	vpt 0 360 arc closepath} bind def
/C11 {BL [] 0 setdash 2 copy moveto
	2 copy vpt 0 180 arc closepath fill
	2 copy moveto
	2 copy vpt 270 360 arc closepath fill
	vpt 0 360 arc closepath} bind def
/C12 {BL [] 0 setdash 2 copy moveto
	2 copy vpt 180 360 arc closepath fill
	vpt 0 360 arc closepath} bind def
/C13 {BL [] 0 setdash 2 copy moveto
	2 copy vpt 0 90 arc closepath fill
	2 copy moveto
	2 copy vpt 180 360 arc closepath fill
	vpt 0 360 arc closepath} bind def
/C14 {BL [] 0 setdash 2 copy moveto
	2 copy vpt 90 360 arc closepath fill
	vpt 0 360 arc} bind def
/C15 {BL [] 0 setdash 2 copy vpt 0 360 arc closepath fill
	vpt 0 360 arc closepath} bind def
/Rec {newpath 4 2 roll moveto 1 index 0 rlineto 0 exch rlineto
	neg 0 rlineto closepath} bind def
/Square {dup Rec} bind def
/Bsquare {vpt sub exch vpt sub exch vpt2 Square} bind def
/S0 {BL [] 0 setdash 2 copy moveto 0 vpt rlineto BL Bsquare} bind def
/S1 {BL [] 0 setdash 2 copy vpt Square fill Bsquare} bind def
/S2 {BL [] 0 setdash 2 copy exch vpt sub exch vpt Square fill Bsquare} bind def
/S3 {BL [] 0 setdash 2 copy exch vpt sub exch vpt2 vpt Rec fill Bsquare} bind def
/S4 {BL [] 0 setdash 2 copy exch vpt sub exch vpt sub vpt Square fill Bsquare} bind def
/S5 {BL [] 0 setdash 2 copy 2 copy vpt Square fill
	exch vpt sub exch vpt sub vpt Square fill Bsquare} bind def
/S6 {BL [] 0 setdash 2 copy exch vpt sub exch vpt sub vpt vpt2 Rec fill Bsquare} bind def
/S7 {BL [] 0 setdash 2 copy exch vpt sub exch vpt sub vpt vpt2 Rec fill
	2 copy vpt Square fill Bsquare} bind def
/S8 {BL [] 0 setdash 2 copy vpt sub vpt Square fill Bsquare} bind def
/S9 {BL [] 0 setdash 2 copy vpt sub vpt vpt2 Rec fill Bsquare} bind def
/S10 {BL [] 0 setdash 2 copy vpt sub vpt Square fill 2 copy exch vpt sub exch vpt Square fill
	Bsquare} bind def
/S11 {BL [] 0 setdash 2 copy vpt sub vpt Square fill 2 copy exch vpt sub exch vpt2 vpt Rec fill
	Bsquare} bind def
/S12 {BL [] 0 setdash 2 copy exch vpt sub exch vpt sub vpt2 vpt Rec fill Bsquare} bind def
/S13 {BL [] 0 setdash 2 copy exch vpt sub exch vpt sub vpt2 vpt Rec fill
	2 copy vpt Square fill Bsquare} bind def
/S14 {BL [] 0 setdash 2 copy exch vpt sub exch vpt sub vpt2 vpt Rec fill
	2 copy exch vpt sub exch vpt Square fill Bsquare} bind def
/S15 {BL [] 0 setdash 2 copy Bsquare fill Bsquare} bind def
/D0 {gsave translate 45 rotate 0 0 S0 stroke grestore} bind def
/D1 {gsave translate 45 rotate 0 0 S1 stroke grestore} bind def
/D2 {gsave translate 45 rotate 0 0 S2 stroke grestore} bind def
/D3 {gsave translate 45 rotate 0 0 S3 stroke grestore} bind def
/D4 {gsave translate 45 rotate 0 0 S4 stroke grestore} bind def
/D5 {gsave translate 45 rotate 0 0 S5 stroke grestore} bind def
/D6 {gsave translate 45 rotate 0 0 S6 stroke grestore} bind def
/D7 {gsave translate 45 rotate 0 0 S7 stroke grestore} bind def
/D8 {gsave translate 45 rotate 0 0 S8 stroke grestore} bind def
/D9 {gsave translate 45 rotate 0 0 S9 stroke grestore} bind def
/D10 {gsave translate 45 rotate 0 0 S10 stroke grestore} bind def
/D11 {gsave translate 45 rotate 0 0 S11 stroke grestore} bind def
/D12 {gsave translate 45 rotate 0 0 S12 stroke grestore} bind def
/D13 {gsave translate 45 rotate 0 0 S13 stroke grestore} bind def
/D14 {gsave translate 45 rotate 0 0 S14 stroke grestore} bind def
/D15 {gsave translate 45 rotate 0 0 S15 stroke grestore} bind def
/DiaE {stroke [] 0 setdash vpt add M
  hpt neg vpt neg V hpt vpt neg V
  hpt vpt V hpt neg vpt V closepath stroke} def
/BoxE {stroke [] 0 setdash exch hpt sub exch vpt add M
  0 vpt2 neg V hpt2 0 V 0 vpt2 V
  hpt2 neg 0 V closepath stroke} def
/TriUE {stroke [] 0 setdash vpt 1.12 mul add M
  hpt neg vpt -1.62 mul V
  hpt 2 mul 0 V
  hpt neg vpt 1.62 mul V closepath stroke} def
/TriDE {stroke [] 0 setdash vpt 1.12 mul sub M
  hpt neg vpt 1.62 mul V
  hpt 2 mul 0 V
  hpt neg vpt -1.62 mul V closepath stroke} def
/PentE {stroke [] 0 setdash gsave
  translate 0 hpt M 4 {72 rotate 0 hpt L} repeat
  closepath stroke grestore} def
/CircE {stroke [] 0 setdash 
  hpt 0 360 arc stroke} def
/Opaque {gsave closepath 1 setgray fill grestore 0 setgray closepath} def
/DiaW {stroke [] 0 setdash vpt add M
  hpt neg vpt neg V hpt vpt neg V
  hpt vpt V hpt neg vpt V Opaque stroke} def
/BoxW {stroke [] 0 setdash exch hpt sub exch vpt add M
  0 vpt2 neg V hpt2 0 V 0 vpt2 V
  hpt2 neg 0 V Opaque stroke} def
/TriUW {stroke [] 0 setdash vpt 1.12 mul add M
  hpt neg vpt -1.62 mul V
  hpt 2 mul 0 V
  hpt neg vpt 1.62 mul V Opaque stroke} def
/TriDW {stroke [] 0 setdash vpt 1.12 mul sub M
  hpt neg vpt 1.62 mul V
  hpt 2 mul 0 V
  hpt neg vpt -1.62 mul V Opaque stroke} def
/PentW {stroke [] 0 setdash gsave
  translate 0 hpt M 4 {72 rotate 0 hpt L} repeat
  Opaque stroke grestore} def
/CircW {stroke [] 0 setdash 
  hpt 0 360 arc Opaque stroke} def
/BoxFill {gsave Rec 1 setgray fill grestore} def
/Density {
  /Fillden exch def
  currentrgbcolor
  /ColB exch def /ColG exch def /ColR exch def
  /ColR ColR Fillden mul Fillden sub 1 add def
  /ColG ColG Fillden mul Fillden sub 1 add def
  /ColB ColB Fillden mul Fillden sub 1 add def
  ColR ColG ColB setrgbcolor} def
/BoxColFill {gsave Rec PolyFill} def
/PolyFill {gsave Density fill grestore grestore} def
/h {rlineto rlineto rlineto gsave closepath fill grestore} bind def
%
% PostScript Level 1 Pattern Fill routine for rectangles
% Usage: x y w h s a XX PatternFill
%	x,y = lower left corner of box to be filled
%	w,h = width and height of box
%	  a = angle in degrees between lines and x-axis
%	 XX = 0/1 for no/yes cross-hatch
%
/PatternFill {gsave /PFa [ 9 2 roll ] def
  PFa 0 get PFa 2 get 2 div add PFa 1 get PFa 3 get 2 div add translate
  PFa 2 get -2 div PFa 3 get -2 div PFa 2 get PFa 3 get Rec
  gsave 1 setgray fill grestore clip
  currentlinewidth 0.5 mul setlinewidth
  /PFs PFa 2 get dup mul PFa 3 get dup mul add sqrt def
  0 0 M PFa 5 get rotate PFs -2 div dup translate
  0 1 PFs PFa 4 get div 1 add floor cvi
	{PFa 4 get mul 0 M 0 PFs V} for
  0 PFa 6 get ne {
	0 1 PFs PFa 4 get div 1 add floor cvi
	{PFa 4 get mul 0 2 1 roll M PFs 0 V} for
 } if
  stroke grestore} def
%
/languagelevel where
 {pop languagelevel} {1} ifelse
 2 lt
	{/InterpretLevel1 true def}
	{/InterpretLevel1 Level1 def}
 ifelse
%
% PostScript level 2 pattern fill definitions
%
/Level2PatternFill {
/Tile8x8 {/PaintType 2 /PatternType 1 /TilingType 1 /BBox [0 0 8 8] /XStep 8 /YStep 8}
	bind def
/KeepColor {currentrgbcolor [/Pattern /DeviceRGB] setcolorspace} bind def
<< Tile8x8
 /PaintProc {0.5 setlinewidth pop 0 0 M 8 8 L 0 8 M 8 0 L stroke} 
>> matrix makepattern
/Pat1 exch def
<< Tile8x8
 /PaintProc {0.5 setlinewidth pop 0 0 M 8 8 L 0 8 M 8 0 L stroke
	0 4 M 4 8 L 8 4 L 4 0 L 0 4 L stroke}
>> matrix makepattern
/Pat2 exch def
<< Tile8x8
 /PaintProc {0.5 setlinewidth pop 0 0 M 0 8 L
	8 8 L 8 0 L 0 0 L fill}
>> matrix makepattern
/Pat3 exch def
<< Tile8x8
 /PaintProc {0.5 setlinewidth pop -4 8 M 8 -4 L
	0 12 M 12 0 L stroke}
>> matrix makepattern
/Pat4 exch def
<< Tile8x8
 /PaintProc {0.5 setlinewidth pop -4 0 M 8 12 L
	0 -4 M 12 8 L stroke}
>> matrix makepattern
/Pat5 exch def
<< Tile8x8
 /PaintProc {0.5 setlinewidth pop -2 8 M 4 -4 L
	0 12 M 8 -4 L 4 12 M 10 0 L stroke}
>> matrix makepattern
/Pat6 exch def
<< Tile8x8
 /PaintProc {0.5 setlinewidth pop -2 0 M 4 12 L
	0 -4 M 8 12 L 4 -4 M 10 8 L stroke}
>> matrix makepattern
/Pat7 exch def
<< Tile8x8
 /PaintProc {0.5 setlinewidth pop 8 -2 M -4 4 L
	12 0 M -4 8 L 12 4 M 0 10 L stroke}
>> matrix makepattern
/Pat8 exch def
<< Tile8x8
 /PaintProc {0.5 setlinewidth pop 0 -2 M 12 4 L
	-4 0 M 12 8 L -4 4 M 8 10 L stroke}
>> matrix makepattern
/Pat9 exch def
/Pattern1 {PatternBgnd KeepColor Pat1 setpattern} bind def
/Pattern2 {PatternBgnd KeepColor Pat2 setpattern} bind def
/Pattern3 {PatternBgnd KeepColor Pat3 setpattern} bind def
/Pattern4 {PatternBgnd KeepColor Landscape {Pat5} {Pat4} ifelse setpattern} bind def
/Pattern5 {PatternBgnd KeepColor Landscape {Pat4} {Pat5} ifelse setpattern} bind def
/Pattern6 {PatternBgnd KeepColor Landscape {Pat9} {Pat6} ifelse setpattern} bind def
/Pattern7 {PatternBgnd KeepColor Landscape {Pat8} {Pat7} ifelse setpattern} bind def
} def
%
%
%End of PostScript Level 2 code
%
/PatternBgnd {
  TransparentPatterns {} {gsave 1 setgray fill grestore} ifelse
} def
%
% Substitute for Level 2 pattern fill codes with
% grayscale if Level 2 support is not selected.
%
/Level1PatternFill {
/Pattern1 {0.250 Density} bind def
/Pattern2 {0.500 Density} bind def
/Pattern3 {0.750 Density} bind def
/Pattern4 {0.125 Density} bind def
/Pattern5 {0.375 Density} bind def
/Pattern6 {0.625 Density} bind def
/Pattern7 {0.875 Density} bind def
} def
%
% Now test for support of Level 2 code
%
Level1 {Level1PatternFill} {Level2PatternFill} ifelse
%
/Symbol-Oblique /Symbol findfont [1 0 .167 1 0 0] makefont
dup length dict begin {1 index /FID eq {pop pop} {def} ifelse} forall
currentdict end definefont pop
/MFshow {
   { dup 5 get 3 ge
     { 5 get 3 eq {gsave} {grestore} ifelse }
     {dup dup 0 get findfont exch 1 get scalefont setfont
     [ currentpoint ] exch dup 2 get 0 exch R dup 5 get 2 ne {dup dup 6
     get exch 4 get {Gshow} {stringwidth pop 0 R} ifelse }if dup 5 get 0 eq
     {dup 3 get {2 get neg 0 exch R pop} {pop aload pop M} ifelse} {dup 5
     get 1 eq {dup 2 get exch dup 3 get exch 6 get stringwidth pop -2 div
     dup 0 R} {dup 6 get stringwidth pop -2 div 0 R 6 get
     show 2 index {aload pop M neg 3 -1 roll neg R pop pop} {pop pop pop
     pop aload pop M} ifelse }ifelse }ifelse }
     ifelse }
   forall} def
/Gswidth {dup type /stringtype eq {stringwidth} {pop (n) stringwidth} ifelse} def
/MFwidth {0 exch { dup 5 get 3 ge { 5 get 3 eq { 0 } { pop } ifelse }
 {dup 3 get{dup dup 0 get findfont exch 1 get scalefont setfont
     6 get Gswidth pop add} {pop} ifelse} ifelse} forall} def
/MLshow { currentpoint stroke M
  0 exch R
  Blacktext {gsave 0 setgray MFshow grestore} {MFshow} ifelse } bind def
/MRshow { currentpoint stroke M
  exch dup MFwidth neg 3 -1 roll R
  Blacktext {gsave 0 setgray MFshow grestore} {MFshow} ifelse } bind def
/MCshow { currentpoint stroke M
  exch dup MFwidth -2 div 3 -1 roll R
  Blacktext {gsave 0 setgray MFshow grestore} {MFshow} ifelse } bind def
/XYsave    { [( ) 1 2 true false 3 ()] } bind def
/XYrestore { [( ) 1 2 true false 4 ()] } bind def
end
%%EndProlog
gnudict begin
gsave
doclip
50 50 translate
0.050 0.050 scale
0 setgray
newpath
(Helvetica) findfont 250 scalefont setfont
1.000 UL
LTb
1225 800 M
63 0 V
5461 0 R
-63 0 V
stroke
1075 800 M
[ [(Helvetica) 250.0 0.0 true true 0 ( 0.1)]
] -83.3 MRshow
1.000 UL
LTb
1225 1238 M
63 0 V
5461 0 R
-63 0 V
stroke
1075 1238 M
[ [(Helvetica) 250.0 0.0 true true 0 ( 0.2)]
] -83.3 MRshow
1.000 UL
LTb
1225 1675 M
63 0 V
5461 0 R
-63 0 V
stroke
1075 1675 M
[ [(Helvetica) 250.0 0.0 true true 0 ( 0.3)]
] -83.3 MRshow
1.000 UL
LTb
1225 2113 M
63 0 V
5461 0 R
-63 0 V
stroke
1075 2113 M
[ [(Helvetica) 250.0 0.0 true true 0 ( 0.4)]
] -83.3 MRshow
1.000 UL
LTb
1225 2551 M
63 0 V
5461 0 R
-63 0 V
stroke
1075 2551 M
[ [(Helvetica) 250.0 0.0 true true 0 ( 0.5)]
] -83.3 MRshow
1.000 UL
LTb
1225 2988 M
63 0 V
5461 0 R
-63 0 V
stroke
1075 2988 M
[ [(Helvetica) 250.0 0.0 true true 0 ( 0.6)]
] -83.3 MRshow
1.000 UL
LTb
1225 3426 M
63 0 V
5461 0 R
-63 0 V
stroke
1075 3426 M
[ [(Helvetica) 250.0 0.0 true true 0 ( 0.7)]
] -83.3 MRshow
1.000 UL
LTb
1225 3864 M
63 0 V
5461 0 R
-63 0 V
stroke
1075 3864 M
[ [(Helvetica) 250.0 0.0 true true 0 ( 0.8)]
] -83.3 MRshow
1.000 UL
LTb
1225 4301 M
63 0 V
5461 0 R
-63 0 V
stroke
1075 4301 M
[ [(Helvetica) 250.0 0.0 true true 0 ( 0.9)]
] -83.3 MRshow
1.000 UL
LTb
1225 4739 M
63 0 V
5461 0 R
-63 0 V
stroke
1075 4739 M
[ [(Helvetica) 250.0 0.0 true true 0 ( 1)]
] -83.3 MRshow
1.000 UL
LTb
1225 800 M
0 63 V
0 3876 R
0 -63 V
stroke
1225 550 M
[ [(Helvetica) 250.0 0.0 true true 0 (-0.6)]
] -83.3 MCshow
1.000 UL
LTb
2146 800 M
0 63 V
0 3876 R
0 -63 V
stroke
2146 550 M
[ [(Helvetica) 250.0 0.0 true true 0 (-0.4)]
] -83.3 MCshow
1.000 UL
LTb
3066 800 M
0 63 V
0 3876 R
0 -63 V
stroke
3066 550 M
[ [(Helvetica) 250.0 0.0 true true 0 (-0.2)]
] -83.3 MCshow
1.000 UL
LTb
3987 800 M
0 63 V
0 3876 R
0 -63 V
stroke
3987 550 M
[ [(Helvetica) 250.0 0.0 true true 0 ( 0)]
] -83.3 MCshow
1.000 UL
LTb
4908 800 M
0 63 V
0 3876 R
0 -63 V
stroke
4908 550 M
[ [(Helvetica) 250.0 0.0 true true 0 ( 0.2)]
] -83.3 MCshow
1.000 UL
LTb
5828 800 M
0 63 V
0 3876 R
0 -63 V
stroke
5828 550 M
[ [(Helvetica) 250.0 0.0 true true 0 ( 0.4)]
] -83.3 MCshow
1.000 UL
LTb
6749 800 M
0 63 V
0 3876 R
0 -63 V
stroke
6749 550 M
[ [(Helvetica) 250.0 0.0 true true 0 ( 0.6)]
] -83.3 MCshow
1.000 UL
LTb
1.000 UL
LTb
1225 4739 N
0 -3939 V
5524 0 V
0 3939 V
-5524 0 V
Z stroke
LCb setrgbcolor
200 2769 M
currentpoint gsave translate -270 rotate 0 0 moveto
[ [(Helvetica) 250.0 0.0 true true 0 (F1)]
] -83.3 MCshow
grestore
LTb
LCb setrgbcolor
3987 175 M
[ [(Helvetica) 250.0 0.0 true true 0 (Noise Ratio)]
] -83.3 MCshow
LTb
1.000 UP
1.000 UL
LTb
% Begin plot #1
1.000 UP
1.000 UL
LT0
1685 4582 Pls
1685 4324 Pls
1685 4418 Pls
1685 4408 Pls
2146 4245 Pls
2146 4368 Pls
2146 4441 Pls
2146 4505 Pls
2606 4441 Pls
2606 4165 Pls
2606 4428 Pls
2606 4578 Pls
3066 4309 Pls
3066 4307 Pls
3066 4485 Pls
3066 4645 Pls
3527 4067 Pls
3527 4306 Pls
3527 4525 Pls
3527 4648 Pls
4447 3744 Pls
4447 4209 Pls
4447 4526 Pls
4447 4642 Pls
4908 4274 Pls
4908 4255 Pls
4908 4458 Pls
4908 4642 Pls
5368 3573 Pls
5368 4135 Pls
5368 4406 Pls
5368 4642 Pls
5828 3520 Pls
5828 4020 Pls
5828 4565 Pls
5828 4643 Pls
6289 3203 Pls
6289 4143 Pls
6289 4458 Pls
6289 4654 Pls
1685 4360 Pls
1685 3887 Pls
1685 3949 Pls
1685 3932 Pls
2146 4400 Pls
2146 4135 Pls
2146 3967 Pls
2146 3896 Pls
2606 4408 Pls
2606 4142 Pls
2606 3802 Pls
2606 3960 Pls
3066 4375 Pls
3066 4059 Pls
3066 4066 Pls
3066 4092 Pls
3527 4362 Pls
3527 4156 Pls
3527 4188 Pls
3527 4207 Pls
4447 3185 Pls
4447 3600 Pls
4447 3852 Pls
4447 3982 Pls
4908 2785 Pls
4908 3400 Pls
4908 3851 Pls
4908 4010 Pls
5368 2494 Pls
5368 3079 Pls
5368 3625 Pls
5368 3797 Pls
5828 2069 Pls
5828 2923 Pls
5828 3572 Pls
5828 3859 Pls
6289 2072 Pls
6289 3070 Pls
6289 3233 Pls
6289 3678 Pls
1685 4054 Pls
1685 3470 Pls
1685 3531 Pls
1685 3386 Pls
2146 4574 Pls
2146 3814 Pls
2146 3724 Pls
2146 3575 Pls
2606 4189 Pls
2606 3708 Pls
2606 3750 Pls
2606 3666 Pls
3066 4414 Pls
3066 3972 Pls
3066 3811 Pls
3066 3683 Pls
3527 4061 Pls
3527 4061 Pls
3527 3744 Pls
3527 3816 Pls
4447 2707 Pls
4447 2958 Pls
4447 3217 Pls
4447 3601 Pls
4908 2147 Pls
4908 2603 Pls
4908 3290 Pls
4908 3360 Pls
5368 1797 Pls
5368 2329 Pls
5368 2905 Pls
5368 3035 Pls
5828 1394 Pls
5828 2358 Pls
5828 2864 Pls
5828 3255 Pls
6289 1298 Pls
6289 2129 Pls
6289 2603 Pls
6289 2990 Pls
1685 3799 Pls
1685 3779 Pls
1685 3309 Pls
1685 3156 Pls
2146 4144 Pls
2146 3917 Pls
2146 3443 Pls
2146 3304 Pls
2606 4010 Pls
2606 3767 Pls
2606 3434 Pls
2606 3282 Pls
3066 4342 Pls
3066 3654 Pls
3066 3638 Pls
3066 3448 Pls
3527 4480 Pls
3527 3885 Pls
3527 3573 Pls
3527 3567 Pls
4447 2293 Pls
4447 2726 Pls
4447 2761 Pls
4447 3085 Pls
4908 1543 Pls
4908 2178 Pls
4908 2458 Pls
4908 2845 Pls
5368 1349 Pls
5368 2057 Pls
5368 2457 Pls
5368 2631 Pls
5828 1098 Pls
5828 1864 Pls
5828 2320 Pls
5828 2551 Pls
6289 1076 Pls
6289 1670 Pls
6289 2247 Pls
6289 2506 Pls
1685 3886 Pls
1685 3545 Pls
1685 3087 Pls
1685 2998 Pls
2146 4342 Pls
2146 3301 Pls
2146 3297 Pls
2146 2866 Pls
2606 4488 Pls
2606 3598 Pls
2606 3686 Pls
2606 3097 Pls
3066 4279 Pls
3066 3554 Pls
3066 3228 Pls
3066 3324 Pls
3527 4354 Pls
3527 3354 Pls
3527 3294 Pls
3527 3343 Pls
4447 1546 Pls
4447 2394 Pls
4447 2794 Pls
4447 2757 Pls
4908 1208 Pls
4908 1823 Pls
4908 2217 Pls
4908 2480 Pls
5368 982 Pls
5368 1542 Pls
5368 2134 Pls
5368 2295 Pls
5828 933 Pls
5828 1553 Pls
5828 1836 Pls
5828 2231 Pls
6289 898 Pls
6289 1387 Pls
6289 1718 Pls
6289 2098 Pls
1685 4585 Pls
1685 4362 Pls
1685 4465 Pls
1685 4616 Pls
2146 4459 Pls
2146 4465 Pls
2146 4436 Pls
2146 4534 Pls
2606 4404 Pls
2606 4418 Pls
2606 4502 Pls
2606 4611 Pls
3066 4437 Pls
3066 4314 Pls
3066 4486 Pls
3066 4630 Pls
3527 4260 Pls
3527 4532 Pls
3527 4629 Pls
3527 4673 Pls
4447 3997 Pls
4447 4223 Pls
4447 4414 Pls
4447 4654 Pls
4908 4207 Pls
4908 4355 Pls
4908 4603 Pls
4908 4628 Pls
5368 3447 Pls
5368 4331 Pls
5368 4565 Pls
5368 4643 Pls
5828 3676 Pls
5828 4329 Pls
5828 4525 Pls
5828 4679 Pls
6289 4052 Pls
6289 4205 Pls
6289 4474 Pls
6289 4692 Pls
1685 4472 Pls
1685 4463 Pls
1685 4333 Pls
1685 4359 Pls
2146 4571 Pls
2146 4268 Pls
2146 4377 Pls
2146 4205 Pls
2606 4592 Pls
2606 4267 Pls
2606 4280 Pls
2606 4203 Pls
3066 4592 Pls
3066 4220 Pls
3066 4331 Pls
3066 4284 Pls
3527 4180 Pls
3527 4183 Pls
3527 4426 Pls
3527 4424 Pls
4447 3757 Pls
4447 3897 Pls
4447 4353 Pls
4447 4317 Pls
4908 3508 Pls
4908 3940 Pls
4908 3969 Pls
4908 4210 Pls
5368 3226 Pls
5368 3515 Pls
5368 3931 Pls
5368 4112 Pls
5828 2477 Pls
5828 3575 Pls
5828 3993 Pls
5828 4114 Pls
6289 2650 Pls
6289 3727 Pls
6289 3639 Pls
6289 4203 Pls
1685 4426 Pls
1685 4130 Pls
1685 4144 Pls
1685 4025 Pls
2146 4366 Pls
2146 4258 Pls
2146 4001 Pls
2146 4131 Pls
2606 4343 Pls
2606 4035 Pls
2606 3983 Pls
2606 4142 Pls
3066 4311 Pls
3066 4233 Pls
3066 4070 Pls
3066 4149 Pls
3527 4284 Pls
3527 4117 Pls
3527 4019 Pls
3527 4035 Pls
4447 3214 Pls
4447 3612 Pls
4447 4132 Pls
4447 3900 Pls
4908 2454 Pls
4908 3319 Pls
4908 3627 Pls
4908 3780 Pls
5368 2428 Pls
5368 2914 Pls
5368 3517 Pls
5368 3705 Pls
5828 2095 Pls
5828 2790 Pls
5828 3611 Pls
5828 3481 Pls
6289 1892 Pls
6289 2561 Pls
6289 3261 Pls
6289 3429 Pls
1685 4264 Pls
1685 4026 Pls
1685 3790 Pls
1685 3703 Pls
2146 4470 Pls
2146 4143 Pls
2146 3877 Pls
2146 3872 Pls
2606 4402 Pls
2606 4122 Pls
2606 3918 Pls
2606 3951 Pls
3066 4335 Pls
3066 3821 Pls
3066 3970 Pls
3066 4026 Pls
3527 4232 Pls
3527 4182 Pls
3527 4171 Pls
3527 3966 Pls
4447 2803 Pls
4447 3184 Pls
4447 3453 Pls
4447 3713 Pls
4908 2248 Pls
4908 2712 Pls
4908 3200 Pls
4908 3580 Pls
5368 1706 Pls
5368 2475 Pls
5368 3035 Pls
5368 3160 Pls
5828 1484 Pls
5828 2402 Pls
5828 2718 Pls
5828 3071 Pls
6289 1399 Pls
6289 2065 Pls
6289 2677 Pls
6289 3063 Pls
1685 4573 Pls
1685 3914 Pls
1685 3440 Pls
1685 3659 Pls
2146 4588 Pls
2146 3950 Pls
2146 3768 Pls
2146 3608 Pls
2606 4684 Pls
2606 4118 Pls
2606 3745 Pls
2606 3656 Pls
3066 4521 Pls
3066 4009 Pls
3066 3873 Pls
3066 3655 Pls
3527 4386 Pls
3527 4014 Pls
3527 3889 Pls
3527 3861 Pls
4447 2291 Pls
4447 2789 Pls
4447 3145 Pls
4447 3334 Pls
4908 1763 Pls
4908 2364 Pls
4908 2702 Pls
4908 3058 Pls
5368 1267 Pls
5368 2059 Pls
5368 2498 Pls
5368 2877 Pls
5828 1174 Pls
5828 1864 Pls
5828 2365 Pls
5828 2802 Pls
6289 1132 Pls
6289 1712 Pls
6289 2156 Pls
6289 2558 Pls
1685 4445 Pls
1685 4506 Pls
1685 4450 Pls
1685 4618 Pls
2146 4542 Pls
2146 4664 Pls
2146 4570 Pls
2146 4644 Pls
2606 4475 Pls
2606 4414 Pls
2606 4549 Pls
2606 4622 Pls
3066 4548 Pls
3066 4462 Pls
3066 4614 Pls
3066 4644 Pls
3527 4343 Pls
3527 4409 Pls
3527 4653 Pls
3527 4617 Pls
4447 3825 Pls
4447 4226 Pls
4447 4389 Pls
4447 4642 Pls
4908 3982 Pls
4908 4392 Pls
4908 4501 Pls
4908 4545 Pls
5368 4209 Pls
5368 4615 Pls
5368 4480 Pls
5368 4691 Pls
5828 4005 Pls
5828 4461 Pls
5828 4538 Pls
5828 4630 Pls
6289 4001 Pls
6289 4449 Pls
6289 4611 Pls
6289 4655 Pls
1685 4635 Pls
1685 4304 Pls
1685 4307 Pls
1685 4333 Pls
2146 4609 Pls
2146 4359 Pls
2146 4340 Pls
2146 4391 Pls
2606 4395 Pls
2606 4432 Pls
2606 4521 Pls
2606 4388 Pls
3066 4522 Pls
3066 4306 Pls
3066 4401 Pls
3066 4371 Pls
3527 4475 Pls
3527 4368 Pls
3527 4539 Pls
3527 4437 Pls
4447 3587 Pls
4447 4308 Pls
4447 4241 Pls
4447 4487 Pls
4908 3614 Pls
4908 4153 Pls
4908 4410 Pls
4908 4289 Pls
5368 3385 Pls
5368 3817 Pls
5368 4288 Pls
5368 4291 Pls
5828 3411 Pls
5828 3880 Pls
5828 4123 Pls
5828 4290 Pls
6289 2949 Pls
6289 3564 Pls
6289 4002 Pls
6289 4136 Pls
1685 4090 Pls
1685 4424 Pls
1685 4209 Pls
1685 4134 Pls
2146 4323 Pls
2146 4468 Pls
2146 4203 Pls
2146 4189 Pls
2606 4293 Pls
2606 4152 Pls
2606 4065 Pls
2606 4321 Pls
3066 4578 Pls
3066 4361 Pls
3066 4367 Pls
3066 4226 Pls
3527 4527 Pls
3527 4357 Pls
3527 4378 Pls
3527 4328 Pls
4447 4012 Pls
4447 3923 Pls
4447 4235 Pls
4447 4090 Pls
4908 2711 Pls
4908 3868 Pls
4908 4106 Pls
4908 4087 Pls
5368 2490 Pls
5368 3560 Pls
5368 3747 Pls
5368 3981 Pls
5828 2763 Pls
5828 3357 Pls
5828 3648 Pls
5828 3765 Pls
6289 2485 Pls
6289 3178 Pls
6289 3453 Pls
6289 3593 Pls
1685 4633 Pls
1685 4195 Pls
1685 3980 Pls
1685 4086 Pls
2146 4567 Pls
2146 4151 Pls
2146 4035 Pls
2146 3988 Pls
2606 4511 Pls
2606 4208 Pls
2606 4027 Pls
2606 4053 Pls
3066 4553 Pls
3066 4385 Pls
3066 4098 Pls
3066 4099 Pls
3527 4398 Pls
3527 4360 Pls
3527 4242 Pls
3527 4106 Pls
4447 3082 Pls
4447 3673 Pls
4447 3893 Pls
4447 3762 Pls
4908 2496 Pls
4908 2951 Pls
4908 3411 Pls
4908 3662 Pls
5368 2142 Pls
5368 2783 Pls
5368 3533 Pls
5368 3765 Pls
5828 1950 Pls
5828 2874 Pls
5828 3136 Pls
5828 3333 Pls
6289 1642 Pls
6289 2590 Pls
6289 3075 Pls
6289 3384 Pls
1685 4492 Pls
1685 3875 Pls
1685 4002 Pls
1685 3877 Pls
2146 4441 Pls
2146 4153 Pls
2146 3989 Pls
2146 3849 Pls
2606 4536 Pls
2606 4115 Pls
2606 4096 Pls
2606 3802 Pls
3066 4357 Pls
3066 4236 Pls
3066 4046 Pls
3066 4148 Pls
3527 4374 Pls
3527 4256 Pls
3527 4193 Pls
3527 3984 Pls
4447 2767 Pls
4447 3233 Pls
4447 3467 Pls
4447 3645 Pls
4908 1909 Pls
4908 2803 Pls
4908 3077 Pls
4908 3371 Pls
5368 1466 Pls
5368 2424 Pls
5368 2846 Pls
5368 3272 Pls
5828 1413 Pls
5828 2217 Pls
5828 2622 Pls
5828 2950 Pls
6289 1367 Pls
6289 1948 Pls
6289 2621 Pls
6289 2783 Pls
1685 4540 Pls
1685 4462 Pls
1685 4637 Pls
1685 4621 Pls
2146 4498 Pls
2146 4579 Pls
2146 4539 Pls
2146 4590 Pls
2606 4481 Pls
2606 4292 Pls
2606 4606 Pls
2606 4604 Pls
3066 4464 Pls
3066 4430 Pls
3066 4596 Pls
3066 4640 Pls
3527 4379 Pls
3527 4567 Pls
3527 4529 Pls
3527 4556 Pls
4447 4105 Pls
4447 4323 Pls
4447 4411 Pls
4447 4715 Pls
4908 3847 Pls
4908 4450 Pls
4908 4496 Pls
4908 4642 Pls
5368 4085 Pls
5368 4441 Pls
5368 4563 Pls
5368 4690 Pls
5828 4300 Pls
5828 4482 Pls
5828 4404 Pls
5828 4679 Pls
6289 3916 Pls
6289 4343 Pls
6289 4530 Pls
6289 4618 Pls
1685 4673 Pls
1685 4450 Pls
1685 4475 Pls
1685 4440 Pls
2146 4464 Pls
2146 4381 Pls
2146 4504 Pls
2146 4404 Pls
2606 4430 Pls
2606 4435 Pls
2606 4408 Pls
2606 4310 Pls
3066 4666 Pls
3066 4559 Pls
3066 4504 Pls
3066 4497 Pls
3527 4501 Pls
3527 4353 Pls
3527 4514 Pls
3527 4449 Pls
4447 4039 Pls
4447 4121 Pls
4447 4226 Pls
4447 4507 Pls
4908 3493 Pls
4908 4127 Pls
4908 4388 Pls
4908 4434 Pls
5368 3838 Pls
5368 4032 Pls
5368 4201 Pls
5368 4374 Pls
5828 3683 Pls
5828 3825 Pls
5828 4069 Pls
5828 4346 Pls
6289 3005 Pls
6289 3798 Pls
6289 4209 Pls
6289 4260 Pls
1685 4461 Pls
1685 4203 Pls
1685 4297 Pls
1685 4228 Pls
2146 4279 Pls
2146 4267 Pls
2146 4380 Pls
2146 4304 Pls
2606 4486 Pls
2606 4429 Pls
2606 4399 Pls
2606 4371 Pls
3066 4626 Pls
3066 4390 Pls
3066 4340 Pls
3066 4360 Pls
3527 4496 Pls
3527 4671 Pls
3527 4291 Pls
3527 4409 Pls
4447 3686 Pls
4447 4070 Pls
4447 4113 Pls
4447 4207 Pls
4908 3393 Pls
4908 3621 Pls
4908 4102 Pls
4908 4166 Pls
5368 2775 Pls
5368 3697 Pls
5368 3748 Pls
5368 4031 Pls
5828 2864 Pls
5828 3536 Pls
5828 3869 Pls
5828 4098 Pls
6289 2503 Pls
6289 3222 Pls
6289 3791 Pls
6289 3986 Pls
1685 4549 Pls
1685 4198 Pls
1685 4166 Pls
1685 4301 Pls
2146 4593 Pls
2146 4507 Pls
2146 4275 Pls
2146 4075 Pls
2606 4549 Pls
2606 4262 Pls
2606 4303 Pls
2606 4173 Pls
3066 4355 Pls
3066 4289 Pls
3066 4082 Pls
3066 4114 Pls
3527 4109 Pls
3527 4367 Pls
3527 4358 Pls
3527 4346 Pls
4447 3332 Pls
4447 3757 Pls
4447 3911 Pls
4447 3991 Pls
4908 2913 Pls
4908 3428 Pls
4908 3732 Pls
4908 3908 Pls
5368 2433 Pls
5368 3139 Pls
5368 3604 Pls
5368 3493 Pls
5828 2269 Pls
5828 3094 Pls
5828 3304 Pls
5828 3825 Pls
6289 1905 Pls
6289 2634 Pls
6289 3174 Pls
6289 3560 Pls
1685 4651 Pls
1685 4363 Pls
1685 4177 Pls
1685 3967 Pls
2146 4419 Pls
2146 4217 Pls
2146 3865 Pls
2146 4227 Pls
2606 4487 Pls
2606 4421 Pls
2606 4121 Pls
2606 4068 Pls
3066 4676 Pls
3066 4305 Pls
3066 4260 Pls
3066 4204 Pls
3527 4455 Pls
3527 4184 Pls
3527 4204 Pls
3527 4173 Pls
4447 2905 Pls
4447 3499 Pls
4447 3612 Pls
4447 3707 Pls
4908 2295 Pls
4908 3278 Pls
4908 3458 Pls
4908 3588 Pls
5368 1866 Pls
5368 2698 Pls
5368 3254 Pls
5368 3254 Pls
5828 1836 Pls
5828 2607 Pls
5828 3105 Pls
5828 3027 Pls
6289 1665 Pls
6289 2370 Pls
6289 2759 Pls
6289 3033 Pls
1685 4491 Pls
1685 4548 Pls
1685 4573 Pls
1685 4637 Pls
2146 4505 Pls
2146 4530 Pls
2146 4509 Pls
2146 4608 Pls
2606 4553 Pls
2606 4527 Pls
2606 4462 Pls
2606 4648 Pls
3066 4273 Pls
3066 4534 Pls
3066 4628 Pls
3066 4708 Pls
3527 4034 Pls
3527 4549 Pls
3527 4649 Pls
3527 4605 Pls
4447 4260 Pls
4447 4397 Pls
4447 4576 Pls
4447 4667 Pls
4908 4109 Pls
4908 4432 Pls
4908 4609 Pls
4908 4618 Pls
5368 3824 Pls
5368 4500 Pls
5368 4542 Pls
5368 4629 Pls
5828 4219 Pls
5828 4294 Pls
5828 4607 Pls
5828 4619 Pls
6289 4154 Pls
6289 4372 Pls
6289 4541 Pls
6289 4680 Pls
1685 4586 Pls
1685 4270 Pls
1685 4513 Pls
1685 4486 Pls
2146 4613 Pls
2146 4404 Pls
2146 4388 Pls
2146 4438 Pls
2606 4583 Pls
2606 4511 Pls
2606 4426 Pls
2606 4488 Pls
3066 4442 Pls
3066 4428 Pls
3066 4399 Pls
3066 4548 Pls
3527 4410 Pls
3527 4492 Pls
3527 4417 Pls
3527 4477 Pls
4447 3943 Pls
4447 4171 Pls
4447 4466 Pls
4447 4427 Pls
4908 4005 Pls
4908 4210 Pls
4908 4404 Pls
4908 4571 Pls
5368 3541 Pls
5368 3902 Pls
5368 4348 Pls
5368 4531 Pls
5828 3577 Pls
5828 4308 Pls
5828 4472 Pls
5828 4408 Pls
6289 3601 Pls
6289 4212 Pls
6289 4287 Pls
6289 4411 Pls
1685 4615 Pls
1685 4489 Pls
1685 4243 Pls
1685 4264 Pls
2146 4594 Pls
2146 4385 Pls
2146 4310 Pls
2146 4439 Pls
2606 4539 Pls
2606 4439 Pls
2606 4336 Pls
2606 4391 Pls
3066 4504 Pls
3066 4553 Pls
3066 4208 Pls
3066 4487 Pls
3527 4441 Pls
3527 4275 Pls
3527 4465 Pls
3527 4426 Pls
4447 3632 Pls
4447 3970 Pls
4447 4258 Pls
4447 4369 Pls
4908 3602 Pls
4908 3975 Pls
4908 4080 Pls
4908 4247 Pls
5368 3040 Pls
5368 3861 Pls
5368 3892 Pls
5368 3976 Pls
5828 2654 Pls
5828 3540 Pls
5828 3926 Pls
5828 3965 Pls
6289 2530 Pls
6289 3600 Pls
6289 3771 Pls
6289 4066 Pls
1685 4519 Pls
1685 4437 Pls
1685 4159 Pls
1685 4194 Pls
2146 4526 Pls
2146 4511 Pls
2146 4232 Pls
2146 4252 Pls
2606 4588 Pls
2606 4144 Pls
2606 4240 Pls
2606 4337 Pls
3066 4672 Pls
3066 4326 Pls
3066 4396 Pls
3066 4356 Pls
3527 4382 Pls
3527 4352 Pls
3527 4315 Pls
3527 4476 Pls
4447 3549 Pls
4447 4007 Pls
4447 3790 Pls
4447 4005 Pls
4908 2966 Pls
4908 3637 Pls
4908 3742 Pls
4908 3944 Pls
5368 2820 Pls
5368 3360 Pls
5368 3715 Pls
5368 3963 Pls
5828 2097 Pls
5828 2786 Pls
5828 3783 Pls
5828 3924 Pls
6289 2317 Pls
6289 2873 Pls
6289 3454 Pls
6289 3711 Pls
1685 4617 Pls
1685 4119 Pls
1685 4202 Pls
1685 4146 Pls
2146 4630 Pls
2146 4301 Pls
2146 4134 Pls
2146 4145 Pls
2606 4673 Pls
2606 4431 Pls
2606 4309 Pls
2606 4277 Pls
3066 4357 Pls
3066 4393 Pls
3066 4407 Pls
3066 4153 Pls
3527 4312 Pls
3527 4277 Pls
3527 4223 Pls
3527 4145 Pls
4447 3008 Pls
4447 3812 Pls
4447 3868 Pls
4447 3945 Pls
4908 2707 Pls
4908 3078 Pls
4908 3669 Pls
4908 3618 Pls
5368 2192 Pls
5368 3024 Pls
5368 3254 Pls
5368 3657 Pls
5828 1980 Pls
5828 2845 Pls
5828 3232 Pls
5828 3485 Pls
6289 1579 Pls
6289 2713 Pls
6289 3030 Pls
6289 3209 Pls
1685 4608 Pls
1685 4516 Pls
1685 4600 Pls
1685 4665 Pls
2146 4446 Pls
2146 4554 Pls
2146 4570 Pls
2146 4646 Pls
2606 4514 Pls
2606 4553 Pls
2606 4584 Pls
2606 4602 Pls
3066 4139 Pls
3066 4634 Pls
3066 4522 Pls
3066 4622 Pls
3527 4373 Pls
3527 4617 Pls
3527 4539 Pls
3527 4673 Pls
4447 4213 Pls
4447 4334 Pls
4447 4589 Pls
4447 4666 Pls
4908 3976 Pls
4908 4581 Pls
4908 4544 Pls
4908 4630 Pls
5368 3990 Pls
5368 4468 Pls
5368 4609 Pls
5368 4642 Pls
5828 4205 Pls
5828 4338 Pls
5828 4449 Pls
5828 4656 Pls
6289 4172 Pls
6289 4408 Pls
6289 4452 Pls
6289 4592 Pls
1685 4567 Pls
1685 4551 Pls
1685 4510 Pls
1685 4574 Pls
2146 4499 Pls
2146 4618 Pls
2146 4455 Pls
2146 4529 Pls
2606 4515 Pls
2606 4489 Pls
2606 4564 Pls
2606 4536 Pls
3066 4539 Pls
3066 4557 Pls
3066 4455 Pls
3066 4564 Pls
3527 4338 Pls
3527 4566 Pls
3527 4447 Pls
3527 4613 Pls
4447 3918 Pls
4447 4495 Pls
4447 4356 Pls
4447 4488 Pls
4908 4676 Pls
4908 4205 Pls
4908 4344 Pls
4908 4402 Pls
5368 3499 Pls
5368 4265 Pls
5368 4402 Pls
5368 4402 Pls
5828 3552 Pls
5828 4187 Pls
5828 4365 Pls
5828 4399 Pls
6289 3446 Pls
6289 4253 Pls
6289 4311 Pls
6289 4475 Pls
1685 4633 Pls
1685 4531 Pls
1685 4407 Pls
1685 4449 Pls
2146 4436 Pls
2146 4415 Pls
2146 4313 Pls
2146 4541 Pls
2606 4673 Pls
2606 4603 Pls
2606 4357 Pls
2606 4482 Pls
3066 4512 Pls
3066 4507 Pls
3066 4424 Pls
3066 4458 Pls
3527 4413 Pls
3527 4592 Pls
3527 4445 Pls
3527 4488 Pls
4447 3930 Pls
4447 4295 Pls
4447 4376 Pls
4447 4169 Pls
4908 3905 Pls
4908 3941 Pls
4908 4260 Pls
4908 4307 Pls
5368 3143 Pls
5368 3835 Pls
5368 4194 Pls
5368 4378 Pls
5828 2770 Pls
5828 3937 Pls
5828 4408 Pls
5828 4089 Pls
6289 3024 Pls
6289 3807 Pls
6289 4019 Pls
6289 4162 Pls
1685 4680 Pls
1685 4431 Pls
1685 4434 Pls
1685 4263 Pls
2146 4684 Pls
2146 4478 Pls
2146 4323 Pls
2146 4299 Pls
2606 4657 Pls
2606 4436 Pls
2606 4430 Pls
2606 4412 Pls
3066 4302 Pls
3066 4261 Pls
3066 4373 Pls
3066 4316 Pls
3527 4396 Pls
3527 4129 Pls
3527 4393 Pls
3527 4336 Pls
4447 3779 Pls
4447 4143 Pls
4447 4067 Pls
4447 4331 Pls
4908 3280 Pls
4908 3674 Pls
4908 4031 Pls
4908 4116 Pls
5368 2960 Pls
5368 3519 Pls
5368 3847 Pls
5368 3845 Pls
5828 2582 Pls
5828 3168 Pls
5828 3669 Pls
5828 3746 Pls
6289 2250 Pls
6289 3203 Pls
6289 3412 Pls
6289 3840 Pls
1685 4626 Pls
1685 4459 Pls
1685 4219 Pls
1685 4172 Pls
2146 4617 Pls
2146 4369 Pls
2146 4154 Pls
2146 4251 Pls
2606 4661 Pls
2606 4317 Pls
2606 4374 Pls
2606 4167 Pls
3066 4508 Pls
3066 4249 Pls
3066 4274 Pls
3066 4189 Pls
3527 4455 Pls
3527 4363 Pls
3527 4444 Pls
3527 4348 Pls
4447 3431 Pls
4447 3808 Pls
4447 3898 Pls
4447 4036 Pls
4908 3129 Pls
4908 3309 Pls
4908 3860 Pls
4908 3913 Pls
5368 2589 Pls
5368 2954 Pls
5368 3482 Pls
5368 3681 Pls
5828 2014 Pls
5828 2855 Pls
5828 3274 Pls
5828 3608 Pls
6289 1697 Pls
6289 2795 Pls
6289 3015 Pls
6289 3460 Pls
1685 4603 Pls
1685 4632 Pls
1685 4505 Pls
1685 4655 Pls
2146 4550 Pls
2146 4513 Pls
2146 4605 Pls
2146 4699 Pls
2606 4327 Pls
2606 4521 Pls
2606 4654 Pls
2606 4686 Pls
3066 4617 Pls
3066 4418 Pls
3066 4619 Pls
3066 4621 Pls
3527 4366 Pls
3527 4424 Pls
3527 4593 Pls
3527 4662 Pls
4447 4037 Pls
4447 4475 Pls
4447 4559 Pls
4447 4654 Pls
4908 4489 Pls
4908 4358 Pls
4908 4508 Pls
4908 4667 Pls
5368 4343 Pls
5368 4513 Pls
5368 4606 Pls
5368 4643 Pls
5828 4155 Pls
5828 4470 Pls
5828 4658 Pls
5828 4556 Pls
6289 4247 Pls
6289 4664 Pls
6289 4527 Pls
6289 4642 Pls
1685 4705 Pls
1685 4577 Pls
1685 4523 Pls
1685 4545 Pls
2146 4382 Pls
2146 4556 Pls
2146 4583 Pls
2146 4567 Pls
2606 4378 Pls
2606 4466 Pls
2606 4684 Pls
2606 4523 Pls
3066 4699 Pls
3066 4413 Pls
3066 4485 Pls
3066 4609 Pls
3527 4415 Pls
3527 4489 Pls
3527 4446 Pls
3527 4511 Pls
4447 4255 Pls
4447 4347 Pls
4447 4473 Pls
4447 4543 Pls
4908 4087 Pls
4908 4068 Pls
4908 4534 Pls
4908 4449 Pls
5368 3658 Pls
5368 4274 Pls
5368 4498 Pls
5368 4533 Pls
5828 3726 Pls
5828 4315 Pls
5828 4368 Pls
5828 4508 Pls
6289 3776 Pls
6289 4213 Pls
6289 4309 Pls
6289 4487 Pls
1685 4539 Pls
1685 4512 Pls
1685 4445 Pls
1685 4497 Pls
2146 4666 Pls
2146 4484 Pls
2146 4464 Pls
2146 4451 Pls
2606 4563 Pls
2606 4454 Pls
2606 4434 Pls
2606 4472 Pls
3066 4576 Pls
3066 4589 Pls
3066 4529 Pls
3066 4521 Pls
3527 4539 Pls
3527 4340 Pls
3527 4470 Pls
3527 4464 Pls
4447 3473 Pls
4447 4298 Pls
4447 4382 Pls
4447 4416 Pls
4908 3818 Pls
4908 4179 Pls
4908 4138 Pls
4908 4448 Pls
5368 3553 Pls
5368 3971 Pls
5368 4120 Pls
5368 4333 Pls
5828 3261 Pls
5828 3843 Pls
5828 4208 Pls
5828 4166 Pls
6289 3205 Pls
6289 3593 Pls
6289 4023 Pls
6289 4275 Pls
1685 4455 Pls
1685 4313 Pls
1685 4487 Pls
1685 4341 Pls
2146 4579 Pls
2146 4396 Pls
2146 4357 Pls
2146 4315 Pls
2606 4530 Pls
2606 4408 Pls
2606 4420 Pls
2606 4254 Pls
3066 4533 Pls
3066 4545 Pls
3066 4333 Pls
3066 4289 Pls
3527 4453 Pls
3527 4472 Pls
3527 4544 Pls
3527 4396 Pls
4447 4049 Pls
4447 3888 Pls
4447 4271 Pls
4447 4349 Pls
4908 3141 Pls
4908 3877 Pls
4908 3852 Pls
4908 4116 Pls
5368 3080 Pls
5368 3893 Pls
5368 3613 Pls
5368 4036 Pls
5828 2628 Pls
5828 3388 Pls
5828 3801 Pls
5828 3930 Pls
6289 2258 Pls
6289 3111 Pls
6289 3483 Pls
6289 3736 Pls
1685 4618 Pls
1685 4516 Pls
1685 4188 Pls
1685 4225 Pls
2146 4413 Pls
2146 4381 Pls
2146 4274 Pls
2146 4308 Pls
2606 4276 Pls
2606 4369 Pls
2606 4094 Pls
2606 4259 Pls
3066 4643 Pls
3066 4253 Pls
3066 4371 Pls
3066 4257 Pls
3527 4469 Pls
3527 4445 Pls
3527 4421 Pls
3527 4491 Pls
4447 3282 Pls
4447 3895 Pls
4447 3960 Pls
4447 4130 Pls
4908 3214 Pls
4908 3614 Pls
4908 3759 Pls
4908 3906 Pls
5368 2682 Pls
5368 3102 Pls
5368 3459 Pls
5368 3946 Pls
5828 2409 Pls
5828 2982 Pls
5828 3514 Pls
5828 3728 Pls
6289 2113 Pls
6289 2965 Pls
6289 3380 Pls
6289 3452 Pls
1685 4661 Pls
1685 4549 Pls
1685 4581 Pls
1685 4564 Pls
2146 4573 Pls
2146 4648 Pls
2146 4671 Pls
2146 4657 Pls
2606 4485 Pls
2606 4684 Pls
2606 4615 Pls
2606 4569 Pls
3066 4642 Pls
3066 4500 Pls
3066 4671 Pls
3066 4662 Pls
3527 4603 Pls
3527 4517 Pls
3527 4647 Pls
3527 4638 Pls
4447 4359 Pls
4447 4509 Pls
4447 4608 Pls
4447 4667 Pls
4908 4440 Pls
4908 4581 Pls
4908 4674 Pls
4908 4691 Pls
5368 4213 Pls
5368 4615 Pls
5368 4494 Pls
5368 4643 Pls
5828 4393 Pls
5828 4610 Pls
5828 4580 Pls
5828 4605 Pls
6289 4251 Pls
6289 4381 Pls
6289 4576 Pls
6289 4567 Pls
1685 4661 Pls
1685 4405 Pls
1685 4538 Pls
1685 4497 Pls
2146 4347 Pls
2146 4504 Pls
2146 4448 Pls
2146 4569 Pls
2606 4621 Pls
2606 4535 Pls
2606 4523 Pls
2606 4526 Pls
3066 4469 Pls
3066 4490 Pls
3066 4464 Pls
3066 4615 Pls
3527 4538 Pls
3527 4463 Pls
3527 4440 Pls
3527 4576 Pls
4447 4260 Pls
4447 4373 Pls
4447 4488 Pls
4447 4554 Pls
4908 4271 Pls
4908 4384 Pls
4908 4353 Pls
4908 4456 Pls
5368 3988 Pls
5368 4344 Pls
5368 4325 Pls
5368 4499 Pls
5828 3898 Pls
5828 4291 Pls
5828 4388 Pls
5828 4581 Pls
6289 3529 Pls
6289 4366 Pls
6289 4355 Pls
6289 4482 Pls
1685 4680 Pls
1685 4419 Pls
1685 4448 Pls
1685 4354 Pls
2146 4409 Pls
2146 4484 Pls
2146 4466 Pls
2146 4465 Pls
2606 4637 Pls
2606 4456 Pls
2606 4388 Pls
2606 4530 Pls
3066 4398 Pls
3066 4399 Pls
3066 4594 Pls
3066 4524 Pls
3527 4464 Pls
3527 4469 Pls
3527 4533 Pls
3527 4419 Pls
4447 4381 Pls
4447 4295 Pls
4447 4326 Pls
4447 4518 Pls
4908 3737 Pls
4908 4324 Pls
4908 4213 Pls
4908 4479 Pls
5368 3714 Pls
5368 3980 Pls
5368 4145 Pls
5368 4388 Pls
5828 3512 Pls
5828 4087 Pls
5828 4026 Pls
5828 4352 Pls
6289 3634 Pls
6289 3673 Pls
6289 4141 Pls
6289 4353 Pls
1685 4603 Pls
1685 4454 Pls
1685 4279 Pls
1685 4398 Pls
2146 4659 Pls
2146 4418 Pls
2146 4342 Pls
2146 4309 Pls
2606 4603 Pls
2606 4426 Pls
2606 4452 Pls
2606 4387 Pls
3066 4540 Pls
3066 4472 Pls
3066 4467 Pls
3066 4400 Pls
3527 4268 Pls
3527 4566 Pls
3527 4528 Pls
3527 4579 Pls
4447 4421 Pls
4447 4211 Pls
4447 4308 Pls
4447 4318 Pls
4908 3650 Pls
4908 3844 Pls
4908 4207 Pls
4908 4253 Pls
5368 3226 Pls
5368 3779 Pls
5368 4032 Pls
5368 4098 Pls
5828 2515 Pls
5828 3581 Pls
5828 3680 Pls
5828 3903 Pls
6289 2538 Pls
6289 3688 Pls
6289 3711 Pls
6289 4002 Pls
1685 4582 Pls
1685 4455 Pls
1685 4249 Pls
1685 4240 Pls
2146 4616 Pls
2146 4486 Pls
2146 4437 Pls
2146 4291 Pls
2606 4507 Pls
2606 4519 Pls
2606 4422 Pls
2606 4304 Pls
3066 4647 Pls
3066 4460 Pls
3066 4363 Pls
3066 4370 Pls
3527 4456 Pls
3527 4439 Pls
3527 4458 Pls
3527 4406 Pls
4447 3691 Pls
4447 4133 Pls
4447 4249 Pls
4447 4053 Pls
4908 3367 Pls
4908 3378 Pls
4908 3850 Pls
4908 4058 Pls
5368 2775 Pls
5368 3480 Pls
5368 3585 Pls
5368 3683 Pls
5828 2307 Pls
5828 3145 Pls
5828 3670 Pls
5828 3799 Pls
6289 1783 Pls
6289 2960 Pls
6289 3163 Pls
6289 3639 Pls
1685 4666 Pls
1685 4578 Pls
1685 4654 Pls
1685 4618 Pls
2146 4406 Pls
2146 4653 Pls
2146 4558 Pls
2146 4662 Pls
2606 4417 Pls
2606 4567 Pls
2606 4617 Pls
2606 4688 Pls
3066 4196 Pls
3066 4572 Pls
3066 4564 Pls
3066 4633 Pls
3527 4463 Pls
3527 4530 Pls
3527 4574 Pls
3527 4662 Pls
4447 4381 Pls
4447 4615 Pls
4447 4625 Pls
4447 4642 Pls
4908 4289 Pls
4908 4500 Pls
4908 4643 Pls
4908 4630 Pls
5368 4354 Pls
5368 4664 Pls
5368 4566 Pls
5368 4656 Pls
5828 4343 Pls
5828 4578 Pls
5828 4589 Pls
5828 4667 Pls
6289 4360 Pls
6289 4377 Pls
6289 4627 Pls
6289 4606 Pls
1685 4549 Pls
1685 4601 Pls
1685 4571 Pls
1685 4604 Pls
2146 4651 Pls
2146 4365 Pls
2146 4491 Pls
2146 4547 Pls
2606 4638 Pls
2606 4491 Pls
2606 4605 Pls
2606 4554 Pls
3066 4676 Pls
3066 4469 Pls
3066 4575 Pls
3066 4622 Pls
3527 4354 Pls
3527 4472 Pls
3527 4544 Pls
3527 4485 Pls
4447 4089 Pls
4447 4447 Pls
4447 4510 Pls
4447 4558 Pls
4908 3879 Pls
4908 4406 Pls
4908 4629 Pls
4908 4475 Pls
5368 4093 Pls
5368 4399 Pls
5368 4431 Pls
5368 4575 Pls
5828 3877 Pls
5828 4355 Pls
5828 4485 Pls
5828 4542 Pls
6289 4194 Pls
6289 4454 Pls
6289 4408 Pls
6289 4540 Pls
1685 4739 Pls
1685 4494 Pls
1685 4433 Pls
1685 4465 Pls
2146 4514 Pls
2146 4534 Pls
2146 4398 Pls
2146 4490 Pls
2606 4524 Pls
2606 4373 Pls
2606 4496 Pls
2606 4500 Pls
3066 4272 Pls
3066 4503 Pls
3066 4348 Pls
3066 4534 Pls
3527 4626 Pls
3527 4603 Pls
3527 4483 Pls
3527 4561 Pls
4447 4401 Pls
4447 4363 Pls
4447 4371 Pls
4447 4480 Pls
4908 3550 Pls
4908 4068 Pls
4908 4267 Pls
4908 4312 Pls
5368 3409 Pls
5368 4148 Pls
5368 4090 Pls
5368 4313 Pls
5828 3142 Pls
5828 3843 Pls
5828 4262 Pls
5828 4287 Pls
6289 3128 Pls
6289 4058 Pls
6289 4223 Pls
6289 4359 Pls
1685 4710 Pls
1685 4546 Pls
1685 4490 Pls
1685 4515 Pls
2146 4555 Pls
2146 4515 Pls
2146 4500 Pls
2146 4400 Pls
2606 4458 Pls
2606 4431 Pls
2606 4386 Pls
2606 4489 Pls
3066 4611 Pls
3066 4359 Pls
3066 4555 Pls
3066 4468 Pls
3527 4475 Pls
3527 4474 Pls
3527 4401 Pls
3527 4434 Pls
4447 3798 Pls
4447 4120 Pls
4447 4465 Pls
4447 4311 Pls
4908 3414 Pls
4908 4158 Pls
4908 4157 Pls
4908 4324 Pls
5368 3285 Pls
5368 3737 Pls
5368 4137 Pls
5368 4250 Pls
5828 2664 Pls
5828 3677 Pls
5828 3883 Pls
5828 4151 Pls
6289 2828 Pls
6289 3588 Pls
6289 3912 Pls
6289 4063 Pls
1685 4636 Pls
1685 4421 Pls
1685 4369 Pls
1685 4359 Pls
2146 4504 Pls
2146 4573 Pls
2146 4286 Pls
2146 4371 Pls
2606 4636 Pls
2606 4392 Pls
2606 4493 Pls
2606 4496 Pls
3066 4475 Pls
3066 4402 Pls
3066 4445 Pls
3066 4437 Pls
3527 4586 Pls
3527 4326 Pls
3527 4336 Pls
3527 4475 Pls
4447 3853 Pls
4447 4129 Pls
4447 4078 Pls
4447 4069 Pls
4908 3151 Pls
4908 3678 Pls
4908 3988 Pls
4908 4152 Pls
5368 2934 Pls
5368 3542 Pls
5368 3927 Pls
5368 3800 Pls
5828 2615 Pls
5828 3540 Pls
5828 3603 Pls
5828 3752 Pls
6289 2448 Pls
6289 3152 Pls
6289 3336 Pls
6289 3773 Pls
1685 4455 Pls
1685 4600 Pls
1685 4586 Pls
1685 4603 Pls
2146 4705 Pls
2146 4491 Pls
2146 4662 Pls
2146 4655 Pls
2606 4520 Pls
2606 4617 Pls
2606 4687 Pls
2606 4631 Pls
3066 4522 Pls
3066 4495 Pls
3066 4597 Pls
3066 4602 Pls
3527 4291 Pls
3527 4476 Pls
3527 4606 Pls
3527 4601 Pls
4447 4051 Pls
4447 4369 Pls
4447 4545 Pls
4447 4642 Pls
4908 4551 Pls
4908 4574 Pls
4908 4483 Pls
4908 4579 Pls
5368 4269 Pls
5368 4355 Pls
5368 4490 Pls
5368 4642 Pls
5828 4280 Pls
5828 4590 Pls
5828 4657 Pls
5828 4628 Pls
6289 4090 Pls
6289 4529 Pls
6289 4689 Pls
6289 4592 Pls
1685 4638 Pls
1685 4467 Pls
1685 4625 Pls
1685 4526 Pls
2146 4504 Pls
2146 4604 Pls
2146 4499 Pls
2146 4549 Pls
2606 4559 Pls
2606 4487 Pls
2606 4536 Pls
2606 4571 Pls
3066 4514 Pls
3066 4531 Pls
3066 4498 Pls
3066 4627 Pls
3527 4457 Pls
3527 4631 Pls
3527 4521 Pls
3527 4531 Pls
4447 4197 Pls
4447 4280 Pls
4447 4580 Pls
4447 4632 Pls
4908 4044 Pls
4908 4343 Pls
4908 4572 Pls
4908 4430 Pls
5368 3938 Pls
5368 4288 Pls
5368 4423 Pls
5368 4514 Pls
5828 4053 Pls
5828 4324 Pls
5828 4377 Pls
5828 4451 Pls
6289 3930 Pls
6289 4407 Pls
6289 4495 Pls
6289 4589 Pls
1685 4676 Pls
1685 4474 Pls
1685 4466 Pls
1685 4491 Pls
2146 4613 Pls
2146 4514 Pls
2146 4371 Pls
2146 4514 Pls
2606 4552 Pls
2606 4544 Pls
2606 4483 Pls
2606 4506 Pls
3066 4626 Pls
3066 4399 Pls
3066 4444 Pls
3066 4541 Pls
3527 4574 Pls
3527 4642 Pls
3527 4492 Pls
3527 4501 Pls
4447 4002 Pls
4447 4381 Pls
4447 4402 Pls
4447 4360 Pls
4908 4293 Pls
4908 4357 Pls
4908 4283 Pls
4908 4267 Pls
5368 3847 Pls
5368 4120 Pls
5368 4323 Pls
5368 4400 Pls
5828 3124 Pls
5828 3435 Pls
5828 4069 Pls
5828 4288 Pls
6289 2980 Pls
6289 3855 Pls
6289 4302 Pls
6289 4228 Pls
1685 4576 Pls
1685 4452 Pls
1685 4463 Pls
1685 4550 Pls
2146 4474 Pls
2146 4606 Pls
2146 4387 Pls
2146 4317 Pls
2606 4535 Pls
2606 4524 Pls
2606 4410 Pls
2606 4454 Pls
3066 4628 Pls
3066 4458 Pls
3066 4619 Pls
3066 4375 Pls
3527 4621 Pls
3527 4611 Pls
3527 4459 Pls
3527 4423 Pls
4447 3908 Pls
4447 4000 Pls
4447 4236 Pls
4447 4379 Pls
4908 3757 Pls
4908 4017 Pls
4908 4294 Pls
4908 4284 Pls
5368 3727 Pls
5368 3823 Pls
5368 4110 Pls
5368 4374 Pls
5828 3318 Pls
5828 3860 Pls
5828 3936 Pls
5828 4106 Pls
6289 3287 Pls
6289 3589 Pls
6289 3883 Pls
6289 3911 Pls
1685 4640 Pls
1685 4510 Pls
1685 4406 Pls
1685 4380 Pls
2146 4530 Pls
2146 4534 Pls
2146 4409 Pls
2146 4412 Pls
2606 4651 Pls
2606 4322 Pls
2606 4483 Pls
2606 4431 Pls
3066 4474 Pls
3066 4433 Pls
3066 4526 Pls
3066 4439 Pls
3527 4571 Pls
3527 4342 Pls
3527 4455 Pls
3527 4389 Pls
4447 3935 Pls
4447 3957 Pls
4447 4356 Pls
4447 4314 Pls
4908 4012 Pls
4908 3663 Pls
4908 4043 Pls
4908 4061 Pls
5368 2862 Pls
5368 3632 Pls
5368 3941 Pls
5368 3900 Pls
5828 2993 Pls
5828 3484 Pls
5828 3625 Pls
5828 3727 Pls
6289 2259 Pls
6289 3411 Pls
6289 3748 Pls
6289 3690 Pls
1685 4597 Pls
1685 4516 Pls
1685 4629 Pls
1685 4616 Pls
2146 4681 Pls
2146 4563 Pls
2146 4643 Pls
2146 4678 Pls
2606 4528 Pls
2606 4629 Pls
2606 4620 Pls
2606 4665 Pls
3066 4489 Pls
3066 4426 Pls
3066 4614 Pls
3066 4640 Pls
3527 4493 Pls
3527 4490 Pls
3527 4547 Pls
3527 4577 Pls
4447 4030 Pls
4447 4633 Pls
4447 4707 Pls
4447 4632 Pls
4908 4226 Pls
4908 4512 Pls
4908 4605 Pls
4908 4643 Pls
5368 4343 Pls
5368 4595 Pls
5368 4658 Pls
5368 4691 Pls
5828 4260 Pls
5828 4472 Pls
5828 4610 Pls
5828 4642 Pls
6289 4381 Pls
6289 4453 Pls
6289 4611 Pls
6289 4618 Pls
1685 4545 Pls
1685 4653 Pls
1685 4579 Pls
1685 4601 Pls
2146 4612 Pls
2146 4595 Pls
2146 4498 Pls
2146 4643 Pls
2606 4463 Pls
2606 4515 Pls
2606 4601 Pls
2606 4562 Pls
3066 4583 Pls
3066 4602 Pls
3066 4629 Pls
3066 4577 Pls
3527 4319 Pls
3527 4527 Pls
3527 4569 Pls
3527 4583 Pls
4447 4406 Pls
4447 4309 Pls
4447 4587 Pls
4447 4655 Pls
4908 4551 Pls
4908 4556 Pls
4908 4541 Pls
4908 4599 Pls
5368 4439 Pls
5368 4449 Pls
5368 4501 Pls
5368 4602 Pls
5828 4346 Pls
5828 4511 Pls
5828 4454 Pls
5828 4574 Pls
6289 3855 Pls
6289 4536 Pls
6289 4487 Pls
6289 4552 Pls
1685 4655 Pls
1685 4586 Pls
1685 4504 Pls
1685 4586 Pls
2146 4643 Pls
2146 4560 Pls
2146 4613 Pls
2146 4609 Pls
2606 4642 Pls
2606 4504 Pls
2606 4520 Pls
2606 4546 Pls
3066 4511 Pls
3066 4525 Pls
3066 4554 Pls
3066 4604 Pls
3527 4460 Pls
3527 4463 Pls
3527 4512 Pls
3527 4561 Pls
4447 4176 Pls
4447 4567 Pls
4447 4565 Pls
4447 4543 Pls
4908 4168 Pls
4908 4339 Pls
4908 4484 Pls
4908 4565 Pls
5368 3726 Pls
5368 4216 Pls
5368 4439 Pls
5368 4372 Pls
5828 3689 Pls
5828 4128 Pls
5828 4373 Pls
5828 4502 Pls
6289 3522 Pls
6289 4424 Pls
6289 4309 Pls
6289 4444 Pls
1685 4425 Pls
1685 4499 Pls
1685 4540 Pls
1685 4563 Pls
2146 4565 Pls
2146 4578 Pls
2146 4512 Pls
2146 4562 Pls
2606 4632 Pls
2606 4588 Pls
2606 4538 Pls
2606 4474 Pls
3066 4608 Pls
3066 4564 Pls
3066 4492 Pls
3066 4526 Pls
3527 4529 Pls
3527 4554 Pls
3527 4449 Pls
3527 4589 Pls
4447 4343 Pls
4447 4401 Pls
4447 4499 Pls
4447 4510 Pls
4908 4064 Pls
4908 4165 Pls
4908 4330 Pls
4908 4467 Pls
5368 3525 Pls
5368 4079 Pls
5368 4346 Pls
5368 4467 Pls
5828 3631 Pls
5828 4135 Pls
5828 4261 Pls
5828 4333 Pls
6289 3467 Pls
6289 4019 Pls
6289 4271 Pls
6289 4366 Pls
1685 4657 Pls
1685 4528 Pls
1685 4580 Pls
1685 4573 Pls
2146 4544 Pls
2146 4642 Pls
2146 4562 Pls
2146 4555 Pls
2606 4676 Pls
2606 4590 Pls
2606 4551 Pls
2606 4601 Pls
3066 4479 Pls
3066 4617 Pls
3066 4544 Pls
3066 4603 Pls
3527 4527 Pls
3527 4495 Pls
3527 4498 Pls
3527 4467 Pls
4447 4297 Pls
4447 4381 Pls
4447 4494 Pls
4447 4395 Pls
4908 4083 Pls
4908 4349 Pls
4908 4125 Pls
4908 4436 Pls
5368 3718 Pls
5368 4178 Pls
5368 4184 Pls
5368 4429 Pls
5828 3411 Pls
5828 3691 Pls
5828 4313 Pls
5828 4188 Pls
6289 3051 Pls
6289 3508 Pls
6289 4062 Pls
6289 4073 Pls
1685 4626 Pls
1685 4515 Pls
1685 4644 Pls
1685 4594 Pls
2146 4334 Pls
2146 4528 Pls
2146 4637 Pls
2146 4688 Pls
2606 4666 Pls
2606 4477 Pls
2606 4638 Pls
2606 4674 Pls
3066 4451 Pls
3066 4535 Pls
3066 4521 Pls
3066 4673 Pls
3527 4514 Pls
3527 4435 Pls
3527 4591 Pls
3527 4650 Pls
4447 3885 Pls
4447 4578 Pls
4447 4482 Pls
4447 4544 Pls
4908 4378 Pls
4908 4581 Pls
4908 4640 Pls
4908 4593 Pls
5368 4551 Pls
5368 4361 Pls
5368 4626 Pls
5368 4667 Pls
5828 4343 Pls
5828 4529 Pls
5828 4515 Pls
5828 4606 Pls
6289 4235 Pls
6289 4337 Pls
6289 4623 Pls
6289 4679 Pls
1685 4618 Pls
1685 4706 Pls
1685 4644 Pls
1685 4679 Pls
2146 4618 Pls
2146 4551 Pls
2146 4608 Pls
2146 4596 Pls
2606 4474 Pls
2606 4514 Pls
2606 4675 Pls
2606 4599 Pls
3066 4636 Pls
3066 4557 Pls
3066 4610 Pls
3066 4622 Pls
3527 4413 Pls
3527 4680 Pls
3527 4602 Pls
3527 4650 Pls
4447 4426 Pls
4447 4475 Pls
4447 4624 Pls
4447 4608 Pls
4908 4353 Pls
4908 4465 Pls
4908 4530 Pls
4908 4613 Pls
5368 4133 Pls
5368 4425 Pls
5368 4534 Pls
5368 4584 Pls
5828 4589 Pls
5828 4442 Pls
5828 4563 Pls
5828 4667 Pls
6289 4482 Pls
6289 4578 Pls
6289 4531 Pls
6289 4574 Pls
1685 4564 Pls
1685 4638 Pls
1685 4553 Pls
1685 4630 Pls
2146 4573 Pls
2146 4584 Pls
2146 4602 Pls
2146 4632 Pls
2606 4608 Pls
2606 4581 Pls
2606 4566 Pls
2606 4592 Pls
3066 4643 Pls
3066 4629 Pls
3066 4560 Pls
3066 4628 Pls
3527 4590 Pls
3527 4651 Pls
3527 4632 Pls
3527 4654 Pls
4447 4322 Pls
4447 4534 Pls
4447 4568 Pls
4447 4598 Pls
4908 4370 Pls
4908 4351 Pls
4908 4555 Pls
4908 4595 Pls
5368 4428 Pls
5368 4438 Pls
5368 4525 Pls
5368 4554 Pls
5828 4064 Pls
5828 4365 Pls
5828 4525 Pls
5828 4602 Pls
6289 4354 Pls
6289 4566 Pls
6289 4504 Pls
6289 4485 Pls
1685 4629 Pls
1685 4596 Pls
1685 4608 Pls
1685 4625 Pls
2146 4681 Pls
2146 4640 Pls
2146 4535 Pls
2146 4615 Pls
2606 4534 Pls
2606 4497 Pls
2606 4607 Pls
2606 4547 Pls
3066 4614 Pls
3066 4611 Pls
3066 4538 Pls
3066 4590 Pls
3527 4549 Pls
3527 4611 Pls
3527 4532 Pls
3527 4579 Pls
4447 4354 Pls
4447 4309 Pls
4447 4595 Pls
4447 4498 Pls
4908 4049 Pls
4908 4284 Pls
4908 4525 Pls
4908 4465 Pls
5368 3695 Pls
5368 4332 Pls
5368 4365 Pls
5368 4604 Pls
5828 4156 Pls
5828 4161 Pls
5828 4516 Pls
5828 4427 Pls
6289 3702 Pls
6289 4208 Pls
6289 4484 Pls
6289 4390 Pls
1685 4676 Pls
1685 4518 Pls
1685 4439 Pls
1685 4593 Pls
2146 4577 Pls
2146 4604 Pls
2146 4527 Pls
2146 4545 Pls
2606 4609 Pls
2606 4538 Pls
2606 4630 Pls
2606 4532 Pls
3066 4647 Pls
3066 4547 Pls
3066 4580 Pls
3066 4607 Pls
3527 4705 Pls
3527 4425 Pls
3527 4595 Pls
3527 4598 Pls
4447 4210 Pls
4447 4423 Pls
4447 4511 Pls
4447 4475 Pls
4908 4126 Pls
4908 4134 Pls
4908 4141 Pls
4908 4428 Pls
5368 4051 Pls
5368 3988 Pls
5368 4407 Pls
5368 4252 Pls
5828 3204 Pls
5828 3867 Pls
5828 4095 Pls
5828 4386 Pls
6289 3707 Pls
6289 4033 Pls
6289 4050 Pls
6289 4333 Pls
1685 4642 Pls
1685 4539 Pls
1685 4594 Pls
1685 4667 Pls
2146 4623 Pls
2146 4572 Pls
2146 4563 Pls
2146 4688 Pls
2606 4636 Pls
2606 4604 Pls
2606 4571 Pls
2606 4629 Pls
3066 4522 Pls
3066 4360 Pls
3066 4572 Pls
3066 4675 Pls
3527 4376 Pls
3527 4538 Pls
3527 4624 Pls
3527 4683 Pls
4447 4343 Pls
4447 4471 Pls
4447 4623 Pls
4447 4546 Pls
4908 4260 Pls
4908 4644 Pls
4908 4655 Pls
4908 4643 Pls
5368 4551 Pls
5368 4391 Pls
5368 4573 Pls
5368 4643 Pls
5828 4406 Pls
5828 4665 Pls
5828 4556 Pls
5828 4604 Pls
6289 4531 Pls
6289 4662 Pls
6289 4639 Pls
6289 4607 Pls
1685 4589 Pls
1685 4652 Pls
1685 4553 Pls
1685 4578 Pls
2146 4681 Pls
2146 4613 Pls
2146 4670 Pls
2146 4628 Pls
2606 4632 Pls
2606 4525 Pls
2606 4603 Pls
2606 4686 Pls
3066 4603 Pls
3066 4584 Pls
3066 4568 Pls
3066 4646 Pls
3527 4304 Pls
3527 4610 Pls
3527 4524 Pls
3527 4596 Pls
4447 4193 Pls
4447 4462 Pls
4447 4598 Pls
4447 4559 Pls
4908 4205 Pls
4908 4491 Pls
4908 4547 Pls
4908 4606 Pls
5368 4268 Pls
5368 4269 Pls
5368 4537 Pls
5368 4642 Pls
5828 4318 Pls
5828 4521 Pls
5828 4609 Pls
5828 4583 Pls
6289 4318 Pls
6289 4476 Pls
6289 4497 Pls
6289 4631 Pls
1685 4647 Pls
1685 4597 Pls
1685 4656 Pls
1685 4547 Pls
2146 4506 Pls
2146 4614 Pls
2146 4637 Pls
2146 4574 Pls
2606 4636 Pls
2606 4649 Pls
2606 4660 Pls
2606 4634 Pls
3066 4710 Pls
3066 4593 Pls
3066 4554 Pls
3066 4587 Pls
3527 4463 Pls
3527 4608 Pls
3527 4533 Pls
3527 4566 Pls
4447 4676 Pls
4447 4439 Pls
4447 4594 Pls
4447 4578 Pls
4908 4321 Pls
4908 4563 Pls
4908 4425 Pls
4908 4624 Pls
5368 4349 Pls
5368 4501 Pls
5368 4541 Pls
5368 4578 Pls
5828 4197 Pls
5828 4567 Pls
5828 4658 Pls
5828 4569 Pls
6289 3978 Pls
6289 4489 Pls
6289 4407 Pls
6289 4567 Pls
1685 4593 Pls
1685 4635 Pls
1685 4654 Pls
1685 4628 Pls
2146 4705 Pls
2146 4495 Pls
2146 4581 Pls
2146 4626 Pls
2606 4670 Pls
2606 4586 Pls
2606 4632 Pls
2606 4518 Pls
3066 4527 Pls
3066 4599 Pls
3066 4610 Pls
3066 4571 Pls
3527 4529 Pls
3527 4617 Pls
3527 4594 Pls
3527 4629 Pls
4447 4322 Pls
4447 4363 Pls
4447 4314 Pls
4447 4550 Pls
4908 4240 Pls
4908 4432 Pls
4908 4520 Pls
4908 4539 Pls
5368 3994 Pls
5368 4477 Pls
5368 4460 Pls
5368 4537 Pls
5828 4122 Pls
5828 4414 Pls
5828 4418 Pls
5828 4533 Pls
6289 3979 Pls
6289 4417 Pls
6289 4458 Pls
6289 4487 Pls
1685 4574 Pls
1685 4626 Pls
1685 4613 Pls
1685 4602 Pls
2146 4590 Pls
2146 4576 Pls
2146 4544 Pls
2146 4570 Pls
2606 4739 Pls
2606 4620 Pls
2606 4641 Pls
2606 4555 Pls
3066 4705 Pls
3066 4613 Pls
3066 4566 Pls
3066 4609 Pls
3527 4556 Pls
3527 4517 Pls
3527 4604 Pls
3527 4622 Pls
4447 4151 Pls
4447 4544 Pls
4447 4507 Pls
4447 4541 Pls
4908 4326 Pls
4908 4229 Pls
4908 4298 Pls
4908 4585 Pls
5368 4011 Pls
5368 4243 Pls
5368 4309 Pls
5368 4460 Pls
5828 3540 Pls
5828 4078 Pls
5828 4248 Pls
5828 4412 Pls
6289 3690 Pls
6289 4226 Pls
6289 4201 Pls
6289 4417 Pls
1685 4556 Pls
1685 4646 Pls
1685 4633 Pls
1685 4688 Pls
2146 4496 Pls
2146 4439 Pls
2146 4603 Pls
2146 4645 Pls
2606 4590 Pls
2606 4575 Pls
2606 4608 Pls
2606 4607 Pls
3066 4515 Pls
3066 4556 Pls
3066 4668 Pls
3066 4639 Pls
3527 4286 Pls
3527 4559 Pls
3527 4551 Pls
3527 4583 Pls
4447 4280 Pls
4447 4571 Pls
4447 4624 Pls
4447 4617 Pls
4908 4565 Pls
4908 4556 Pls
4908 4541 Pls
4908 4592 Pls
5368 4531 Pls
5368 4509 Pls
5368 4642 Pls
5368 4604 Pls
5828 4406 Pls
5828 4610 Pls
5828 4568 Pls
5828 4606 Pls
6289 4464 Pls
6289 4498 Pls
6289 4657 Pls
6289 4568 Pls
1685 4611 Pls
1685 4524 Pls
1685 4577 Pls
1685 4608 Pls
2146 4614 Pls
2146 4646 Pls
2146 4636 Pls
2146 4597 Pls
2606 4554 Pls
2606 4646 Pls
2606 4623 Pls
2606 4532 Pls
3066 4561 Pls
3066 4608 Pls
3066 4584 Pls
3066 4644 Pls
3527 4131 Pls
3527 4477 Pls
3527 4666 Pls
3527 4643 Pls
4447 4322 Pls
4447 4582 Pls
4447 4563 Pls
4447 4633 Pls
4908 4235 Pls
4908 4561 Pls
4908 4622 Pls
4908 4660 Pls
5368 4478 Pls
5368 4512 Pls
5368 4588 Pls
5368 4631 Pls
5828 4318 Pls
5828 4404 Pls
5828 4502 Pls
5828 4571 Pls
6289 4501 Pls
6289 4538 Pls
6289 4544 Pls
6289 4534 Pls
1685 4705 Pls
1685 4594 Pls
1685 4637 Pls
1685 4680 Pls
2146 4676 Pls
2146 4632 Pls
2146 4561 Pls
2146 4670 Pls
2606 4544 Pls
2606 4595 Pls
2606 4531 Pls
2606 4637 Pls
3066 4563 Pls
3066 4478 Pls
3066 4647 Pls
3066 4612 Pls
3527 4573 Pls
3527 4659 Pls
3527 4582 Pls
3527 4654 Pls
4447 4322 Pls
4447 4468 Pls
4447 4521 Pls
4447 4578 Pls
4908 4085 Pls
4908 4541 Pls
4908 4574 Pls
4908 4553 Pls
5368 4265 Pls
5368 4581 Pls
5368 4445 Pls
5368 4592 Pls
5828 4551 Pls
5828 4566 Pls
5828 4548 Pls
5828 4574 Pls
6289 3991 Pls
6289 4420 Pls
6289 4512 Pls
6289 4567 Pls
1685 4630 Pls
1685 4588 Pls
1685 4612 Pls
1685 4605 Pls
2146 4684 Pls
2146 4663 Pls
2146 4540 Pls
2146 4585 Pls
2606 4550 Pls
2606 4506 Pls
2606 4611 Pls
2606 4661 Pls
3066 4636 Pls
3066 4457 Pls
3066 4676 Pls
3066 4583 Pls
3527 4612 Pls
3527 4584 Pls
3527 4646 Pls
3527 4594 Pls
4447 4531 Pls
4447 4446 Pls
4447 4557 Pls
4447 4620 Pls
4908 4235 Pls
4908 4450 Pls
4908 4524 Pls
4908 4539 Pls
5368 4406 Pls
5368 4348 Pls
5368 4524 Pls
5368 4554 Pls
5828 4239 Pls
5828 4438 Pls
5828 4342 Pls
5828 4513 Pls
6289 4205 Pls
6289 4313 Pls
6289 4404 Pls
6289 4506 Pls
1685 4688 Pls
1685 4620 Pls
1685 4621 Pls
1685 4635 Pls
2146 4705 Pls
2146 4478 Pls
2146 4551 Pls
2146 4585 Pls
2606 4680 Pls
2606 4529 Pls
2606 4576 Pls
2606 4655 Pls
3066 4739 Pls
3066 4612 Pls
3066 4667 Pls
3066 4564 Pls
3527 4485 Pls
3527 4585 Pls
3527 4542 Pls
3527 4493 Pls
4447 4122 Pls
4447 4406 Pls
4447 4537 Pls
4447 4574 Pls
4908 3779 Pls
4908 4311 Pls
4908 4492 Pls
4908 4489 Pls
5368 3942 Pls
5368 4386 Pls
5368 4537 Pls
5368 4474 Pls
5828 3845 Pls
5828 4379 Pls
5828 4390 Pls
5828 4540 Pls
6289 3793 Pls
6289 4344 Pls
6289 4341 Pls
6289 4447 Pls
1685 4588 Pls
1685 4575 Pls
1685 4596 Pls
1685 4680 Pls
2146 4650 Pls
2146 4506 Pls
2146 4596 Pls
2146 4611 Pls
2606 4558 Pls
2606 4663 Pls
2606 4586 Pls
2606 4644 Pls
3066 4553 Pls
3066 4518 Pls
3066 4651 Pls
3066 4684 Pls
3527 4501 Pls
3527 4628 Pls
3527 4606 Pls
3527 4638 Pls
4447 4322 Pls
4447 4436 Pls
4447 4588 Pls
4447 4619 Pls
4908 4235 Pls
4908 4494 Pls
4908 4588 Pls
4908 4577 Pls
5368 4315 Pls
5368 4318 Pls
5368 4623 Pls
5368 4691 Pls
5828 4406 Pls
5828 4442 Pls
5828 4571 Pls
5828 4642 Pls
6289 4322 Pls
6289 4713 Pls
6289 4604 Pls
6289 4727 Pls
1685 4450 Pls
1685 4519 Pls
1685 4624 Pls
1685 4594 Pls
2146 4681 Pls
2146 4599 Pls
2146 4639 Pls
2146 4671 Pls
2606 4636 Pls
2606 4529 Pls
2606 4646 Pls
2606 4638 Pls
3066 4710 Pls
3066 4567 Pls
3066 4599 Pls
3066 4649 Pls
3527 4332 Pls
3527 4562 Pls
3527 4657 Pls
3527 4654 Pls
4447 3559 Pls
4447 4533 Pls
4447 4638 Pls
4447 4548 Pls
4908 4172 Pls
4908 4607 Pls
4908 4609 Pls
4908 4636 Pls
5368 4293 Pls
5368 4600 Pls
5368 4642 Pls
5368 4646 Pls
5828 4360 Pls
5828 4539 Pls
5828 4567 Pls
5828 4656 Pls
6289 4318 Pls
6289 4419 Pls
6289 4608 Pls
6289 4705 Pls
1685 4607 Pls
1685 4479 Pls
1685 4636 Pls
1685 4605 Pls
2146 4408 Pls
2146 4671 Pls
2146 4649 Pls
2146 4668 Pls
2606 4428 Pls
2606 4609 Pls
2606 4601 Pls
2606 4615 Pls
3066 4442 Pls
3066 4624 Pls
3066 4645 Pls
3066 4604 Pls
3527 4636 Pls
3527 4585 Pls
3527 4658 Pls
3527 4656 Pls
4447 4489 Pls
4447 4327 Pls
4447 4607 Pls
4447 4636 Pls
4908 4287 Pls
4908 4533 Pls
4908 4528 Pls
4908 4542 Pls
5368 4464 Pls
5368 4294 Pls
5368 4546 Pls
5368 4506 Pls
5828 4356 Pls
5828 4432 Pls
5828 4468 Pls
5828 4579 Pls
6289 4250 Pls
6289 4365 Pls
6289 4629 Pls
6289 4575 Pls
1685 4621 Pls
1685 4644 Pls
1685 4689 Pls
1685 4637 Pls
2146 4608 Pls
2146 4531 Pls
2146 4555 Pls
2146 4593 Pls
2606 4739 Pls
2606 4528 Pls
2606 4640 Pls
2606 4652 Pls
3066 4651 Pls
3066 4624 Pls
3066 4620 Pls
3066 4629 Pls
3527 4672 Pls
3527 4483 Pls
3527 4683 Pls
3527 4546 Pls
4447 4414 Pls
4447 4513 Pls
4447 4539 Pls
4447 4604 Pls
4908 4210 Pls
4908 4334 Pls
4908 4587 Pls
4908 4614 Pls
5368 4443 Pls
5368 4423 Pls
5368 4446 Pls
5368 4553 Pls
5828 3987 Pls
5828 4556 Pls
5828 4521 Pls
5828 4570 Pls
6289 4243 Pls
6289 4407 Pls
6289 4394 Pls
6289 4491 Pls
1685 4676 Pls
1685 4596 Pls
1685 4593 Pls
1685 4551 Pls
2146 4629 Pls
2146 4639 Pls
2146 4597 Pls
2146 4659 Pls
2606 4548 Pls
2606 4500 Pls
2606 4571 Pls
2606 4587 Pls
3066 4577 Pls
3066 4595 Pls
3066 4551 Pls
3066 4562 Pls
3527 4537 Pls
3527 4566 Pls
3527 4636 Pls
3527 4604 Pls
4447 4130 Pls
4447 4515 Pls
4447 4596 Pls
4447 4623 Pls
4908 4078 Pls
4908 4506 Pls
4908 4536 Pls
4908 4536 Pls
5368 4268 Pls
5368 4443 Pls
5368 4603 Pls
5368 4493 Pls
5828 4112 Pls
5828 4246 Pls
5828 4436 Pls
5828 4547 Pls
6289 4124 Pls
6289 4287 Pls
6289 4324 Pls
6289 4370 Pls
1685 4465 Pls
1685 4552 Pls
1685 4617 Pls
1685 4667 Pls
2146 4468 Pls
2146 4661 Pls
2146 4617 Pls
2146 4662 Pls
2606 4493 Pls
2606 4529 Pls
2606 4621 Pls
2606 4666 Pls
3066 4524 Pls
3066 4599 Pls
3066 4542 Pls
3066 4628 Pls
3527 4422 Pls
3527 4563 Pls
3527 4606 Pls
3527 4639 Pls
4447 4364 Pls
4447 4294 Pls
4447 4608 Pls
4447 4642 Pls
4908 4260 Pls
4908 4359 Pls
4908 4515 Pls
4908 4603 Pls
5368 4322 Pls
5368 4371 Pls
5368 4587 Pls
5368 4617 Pls
5828 4289 Pls
5828 4545 Pls
5828 4657 Pls
5828 4642 Pls
6289 4343 Pls
6289 4559 Pls
6289 4573 Pls
6289 4679 Pls
1685 4593 Pls
1685 4560 Pls
1685 4529 Pls
1685 4679 Pls
2146 4596 Pls
2146 4651 Pls
2146 4617 Pls
2146 4623 Pls
2606 4705 Pls
2606 4612 Pls
2606 4631 Pls
2606 4659 Pls
3066 4593 Pls
3066 4600 Pls
3066 4591 Pls
3066 4595 Pls
3527 4617 Pls
3527 4561 Pls
3527 4640 Pls
3527 4643 Pls
4447 4385 Pls
4447 4607 Pls
4447 4588 Pls
4447 4600 Pls
4908 4614 Pls
4908 4472 Pls
4908 4611 Pls
4908 4607 Pls
5368 4406 Pls
5368 4584 Pls
5368 4611 Pls
5368 4542 Pls
5828 4676 Pls
5828 4570 Pls
5828 4531 Pls
5828 4596 Pls
6289 4503 Pls
6289 4636 Pls
6289 4595 Pls
6289 4532 Pls
1685 4699 Pls
1685 4552 Pls
1685 4614 Pls
1685 4580 Pls
2146 4638 Pls
2146 4640 Pls
2146 4594 Pls
2146 4669 Pls
2606 4522 Pls
2606 4630 Pls
2606 4599 Pls
2606 4666 Pls
3066 4640 Pls
3066 4581 Pls
3066 4618 Pls
3066 4619 Pls
3527 4578 Pls
3527 4469 Pls
3527 4643 Pls
3527 4585 Pls
4447 4172 Pls
4447 4618 Pls
4447 4543 Pls
4447 4574 Pls
4908 4401 Pls
4908 4265 Pls
4908 4517 Pls
4908 4512 Pls
5368 4482 Pls
5368 4483 Pls
5368 4545 Pls
5368 4538 Pls
5828 4108 Pls
5828 4429 Pls
5828 4646 Pls
5828 4612 Pls
6289 4394 Pls
6289 4512 Pls
6289 4513 Pls
6289 4552 Pls
1685 4705 Pls
1685 4635 Pls
1685 4620 Pls
1685 4661 Pls
2146 4520 Pls
2146 4612 Pls
2146 4601 Pls
2146 4623 Pls
2606 4380 Pls
2606 4588 Pls
2606 4566 Pls
2606 4646 Pls
3066 4611 Pls
3066 4520 Pls
3066 4557 Pls
3066 4614 Pls
3527 4461 Pls
3527 4601 Pls
3527 4658 Pls
3527 4688 Pls
4447 4526 Pls
4447 4438 Pls
4447 4467 Pls
4447 4525 Pls
4908 4289 Pls
4908 4179 Pls
4908 4578 Pls
4908 4560 Pls
5368 4414 Pls
5368 4531 Pls
5368 4410 Pls
5368 4549 Pls
5828 4260 Pls
5828 4213 Pls
5828 4381 Pls
5828 4591 Pls
6289 4297 Pls
6289 4322 Pls
6289 4530 Pls
6289 4608 Pls
1685 4622 Pls
1685 4577 Pls
1685 4545 Pls
1685 4691 Pls
2146 4618 Pls
2146 4569 Pls
2146 4630 Pls
2146 4577 Pls
2606 4553 Pls
2606 4539 Pls
2606 4680 Pls
2606 4670 Pls
3066 4613 Pls
3066 4526 Pls
3066 4535 Pls
3066 4620 Pls
3527 4628 Pls
3527 4619 Pls
3527 4609 Pls
3527 4628 Pls
4447 4443 Pls
4447 4443 Pls
4447 4550 Pls
4447 4506 Pls
4908 3943 Pls
4908 4256 Pls
4908 4390 Pls
4908 4459 Pls
5368 4269 Pls
5368 4478 Pls
5368 4345 Pls
5368 4505 Pls
5828 4414 Pls
5828 4403 Pls
5828 4370 Pls
5828 4458 Pls
6289 3419 Pls
6289 4287 Pls
6289 4332 Pls
6289 4599 Pls
1685 4529 Pls
1685 4596 Pls
1685 4644 Pls
1685 4640 Pls
2146 4491 Pls
2146 4617 Pls
2146 4544 Pls
2146 4631 Pls
2606 4507 Pls
2606 4469 Pls
2606 4625 Pls
2606 4654 Pls
3066 4380 Pls
3066 4512 Pls
3066 4583 Pls
3066 4620 Pls
3527 4470 Pls
3527 4610 Pls
3527 4525 Pls
3527 4629 Pls
4447 4260 Pls
4447 4497 Pls
4447 4657 Pls
4447 4591 Pls
4908 4218 Pls
4908 4558 Pls
4908 4608 Pls
4908 4606 Pls
5368 4406 Pls
5368 4633 Pls
5368 4595 Pls
5368 4692 Pls
5828 4280 Pls
5828 4610 Pls
5828 4622 Pls
5828 4593 Pls
6289 4443 Pls
6289 4541 Pls
6289 4587 Pls
6289 4577 Pls
1685 4609 Pls
1685 4702 Pls
1685 4649 Pls
1685 4646 Pls
2146 4433 Pls
2146 4563 Pls
2146 4597 Pls
2146 4636 Pls
2606 4563 Pls
2606 4591 Pls
2606 4633 Pls
2606 4629 Pls
3066 4402 Pls
3066 4563 Pls
3066 4607 Pls
3066 4612 Pls
3527 4739 Pls
3527 4487 Pls
3527 4604 Pls
3527 4665 Pls
4447 4280 Pls
4447 4633 Pls
4447 4622 Pls
4447 4607 Pls
4908 4406 Pls
4908 4633 Pls
4908 4572 Pls
4908 4669 Pls
5368 4314 Pls
5368 4589 Pls
5368 4476 Pls
5368 4657 Pls
5828 4468 Pls
5828 4512 Pls
5828 4497 Pls
5828 4679 Pls
6289 4551 Pls
6289 4574 Pls
6289 4557 Pls
6289 4645 Pls
1685 4490 Pls
1685 4683 Pls
1685 4669 Pls
1685 4646 Pls
2146 4636 Pls
2146 4642 Pls
2146 4578 Pls
2146 4641 Pls
2606 4416 Pls
2606 4615 Pls
2606 4619 Pls
2606 4647 Pls
3066 4626 Pls
3066 4640 Pls
3066 4532 Pls
3066 4679 Pls
3527 4612 Pls
3527 4611 Pls
3527 4583 Pls
3527 4601 Pls
4447 4551 Pls
4447 4523 Pls
4447 4520 Pls
4447 4644 Pls
4908 4531 Pls
4908 4626 Pls
4908 4516 Pls
4908 4656 Pls
5368 4239 Pls
5368 4593 Pls
5368 4642 Pls
5368 4612 Pls
5828 4551 Pls
5828 4552 Pls
5828 4576 Pls
5828 4648 Pls
6289 4620 Pls
6289 4397 Pls
6289 4548 Pls
6289 4585 Pls
1685 4578 Pls
1685 4531 Pls
1685 4601 Pls
1685 4633 Pls
2146 4666 Pls
2146 4653 Pls
2146 4674 Pls
2146 4649 Pls
2606 4550 Pls
2606 4633 Pls
2606 4590 Pls
2606 4635 Pls
3066 4428 Pls
3066 4648 Pls
3066 4663 Pls
3066 4658 Pls
3527 4490 Pls
3527 4524 Pls
3527 4646 Pls
3527 4625 Pls
4447 4151 Pls
4447 4411 Pls
4447 4658 Pls
4447 4599 Pls
4908 4489 Pls
4908 4659 Pls
4908 4533 Pls
4908 4510 Pls
5368 4293 Pls
5368 4483 Pls
5368 4434 Pls
5368 4570 Pls
5828 4382 Pls
5828 4437 Pls
5828 4460 Pls
5828 4545 Pls
6289 4122 Pls
6289 4250 Pls
6289 4632 Pls
6289 4559 Pls
1685 4676 Pls
1685 4739 Pls
1685 4587 Pls
1685 4637 Pls
2146 4601 Pls
2146 4609 Pls
2146 4586 Pls
2146 4584 Pls
2606 4554 Pls
2606 4557 Pls
2606 4630 Pls
2606 4650 Pls
3066 4630 Pls
3066 4610 Pls
3066 4631 Pls
3066 4601 Pls
3527 4569 Pls
3527 4466 Pls
3527 4581 Pls
3527 4627 Pls
4447 4260 Pls
4447 4440 Pls
4447 4521 Pls
4447 4527 Pls
4908 4326 Pls
4908 4552 Pls
4908 4648 Pls
4908 4565 Pls
5368 4464 Pls
5368 4484 Pls
5368 4661 Pls
5368 4546 Pls
5828 4229 Pls
5828 4500 Pls
5828 4550 Pls
5828 4574 Pls
6289 4331 Pls
6289 4454 Pls
6289 4499 Pls
6289 4435 Pls
1685 4559 Pls
1685 4639 Pls
1685 4644 Pls
1685 4676 Pls
2146 4666 Pls
2146 4544 Pls
2146 4653 Pls
2146 4653 Pls
2606 4586 Pls
2606 4628 Pls
2606 4694 Pls
2606 4675 Pls
3066 4145 Pls
3066 4568 Pls
3066 4576 Pls
3066 4677 Pls
3527 4651 Pls
3527 4427 Pls
3527 4588 Pls
3527 4614 Pls
4447 4343 Pls
4447 4581 Pls
4447 4569 Pls
4447 4656 Pls
4908 4551 Pls
4908 4527 Pls
4908 4604 Pls
4908 4631 Pls
5368 4322 Pls
5368 4480 Pls
5368 4657 Pls
5368 4668 Pls
5828 4468 Pls
5828 4555 Pls
5828 4638 Pls
5828 4655 Pls
6289 4280 Pls
6289 4471 Pls
6289 4622 Pls
6289 4555 Pls
1685 4684 Pls
1685 4558 Pls
1685 4632 Pls
1685 4632 Pls
2146 4710 Pls
2146 4660 Pls
2146 4725 Pls
2146 4657 Pls
2606 4546 Pls
2606 4613 Pls
2606 4634 Pls
2606 4666 Pls
3066 4670 Pls
3066 4617 Pls
3066 4631 Pls
3066 4636 Pls
3527 4538 Pls
3527 4597 Pls
3527 4627 Pls
3527 4619 Pls
4447 4476 Pls
4447 4442 Pls
4447 4638 Pls
4447 4645 Pls
4908 4531 Pls
4908 4527 Pls
4908 4495 Pls
4908 4632 Pls
5368 4531 Pls
5368 4578 Pls
5368 4584 Pls
5368 4611 Pls
5828 4442 Pls
5828 4581 Pls
5828 4612 Pls
5828 4629 Pls
6289 4614 Pls
6289 4592 Pls
6289 4467 Pls
6289 4655 Pls
1685 4632 Pls
1685 4509 Pls
1685 4629 Pls
1685 4639 Pls
2146 4622 Pls
2146 4659 Pls
2146 4652 Pls
2146 4682 Pls
2606 4650 Pls
2606 4629 Pls
2606 4629 Pls
2606 4582 Pls
3066 4498 Pls
3066 4648 Pls
3066 4614 Pls
3066 4578 Pls
3527 4501 Pls
3527 4529 Pls
3527 4499 Pls
3527 4575 Pls
4447 4676 Pls
4447 4425 Pls
4447 4625 Pls
4447 4582 Pls
4908 4489 Pls
4908 4636 Pls
4908 4549 Pls
4908 4606 Pls
5368 3899 Pls
5368 4688 Pls
5368 4644 Pls
5368 4608 Pls
5828 4406 Pls
5828 4450 Pls
5828 4628 Pls
5828 4553 Pls
6289 4311 Pls
6289 4498 Pls
6289 4536 Pls
6289 4632 Pls
1685 4650 Pls
1685 4672 Pls
1685 4650 Pls
1685 4669 Pls
2146 4673 Pls
2146 4548 Pls
2146 4676 Pls
2146 4580 Pls
2606 4640 Pls
2606 4641 Pls
2606 4554 Pls
2606 4602 Pls
3066 4713 Pls
3066 4659 Pls
3066 4651 Pls
3066 4596 Pls
3527 4613 Pls
3527 4678 Pls
3527 4599 Pls
3527 4627 Pls
4447 4676 Pls
4447 4662 Pls
4447 4575 Pls
4447 4504 Pls
4908 4314 Pls
4908 4359 Pls
4908 4513 Pls
4908 4576 Pls
5368 4172 Pls
5368 4410 Pls
5368 4468 Pls
5368 4587 Pls
5828 4268 Pls
5828 4581 Pls
5828 4382 Pls
5828 4558 Pls
6289 4357 Pls
6289 4275 Pls
6289 4505 Pls
6289 4624 Pls
1685 4640 Pls
1685 4721 Pls
1685 4598 Pls
1685 4610 Pls
2146 4710 Pls
2146 4644 Pls
2146 4649 Pls
2146 4659 Pls
2606 4606 Pls
2606 4608 Pls
2606 4600 Pls
2606 4661 Pls
3066 4666 Pls
3066 4639 Pls
3066 4643 Pls
3066 4598 Pls
3527 4626 Pls
3527 4678 Pls
3527 4607 Pls
3527 4669 Pls
4447 4197 Pls
4447 4394 Pls
4447 4610 Pls
4447 4633 Pls
4908 4005 Pls
4908 4468 Pls
4908 4464 Pls
4908 4602 Pls
5368 4414 Pls
5368 4446 Pls
5368 4462 Pls
5368 4457 Pls
5828 4614 Pls
5828 4434 Pls
5828 4605 Pls
5828 4535 Pls
6289 4176 Pls
6289 4297 Pls
6289 4469 Pls
6289 4577 Pls
% End plot #1
% Begin plot #2
8.000 UL
LT1
LCb setrgbcolor
2425 1488 M
[ [(Helvetica) 250.0 0.0 true true 0 (Average)]
] -83.3 MRshow
LT1
2575 1488 M
663 0 V
1685 4471 M
461 3 V
460 -1 V
460 2 V
461 -11 V
920 -246 V
461 -107 V
460 -98 V
460 -68 V
461 -66 V
% End plot #2
% Begin plot #3
stroke
4.000 UL
LT2
LCb setrgbcolor
2425 1238 M
[ [(Helvetica) 250.0 0.0 true true 0 (Min)]
] -83.3 MRshow
LT2
2575 1238 M
663 0 V
1685 2998 M
461 -132 V
460 231 V
460 131 V
461 66 V
4447 1546 L
461 -338 V
5368 982 L
460 -49 V
461 -35 V
% End plot #3
% Begin plot #4
stroke
LT3
LCb setrgbcolor
2425 988 M
[ [(Helvetica) 250.0 0.0 true true 0 (Max)]
] -83.3 MRshow
LT3
2575 988 M
663 0 V
1685 4739 M
461 -14 V
460 14 V
460 0 V
461 0 V
920 -24 V
461 -24 V
460 1 V
460 -13 V
461 48 V
% End plot #4
stroke
1.000 UL
LTb
1225 4739 N
0 -3939 V
5524 0 V
0 3939 V
-5524 0 V
Z stroke
1.000 UP
1.000 UL
LTb
stroke
grestore
end
showpage
%%Trailer
%%DocumentFonts: Helvetica
