%!PS-Adobe-2.0 EPSF-2.0
%%Title: n_noise_ratio-time.eps
%%Creator: gnuplot 4.4 patchlevel 3
%%CreationDate: Fri Jun 14 19:20:04 2013
%%DocumentFonts: (atend)
%%BoundingBox: 50 50 410 302
%%EndComments
%%BeginProlog
/gnudict 256 dict def
gnudict begin
%
% The following true/false flags may be edited by hand if desired.
% The unit line width and grayscale image gamma correction may also be changed.
%
/Color true def
/Blacktext false def
/Solid false def
/Dashlength 1 def
/Landscape false def
/Level1 false def
/Rounded false def
/ClipToBoundingBox false def
/TransparentPatterns false def
/gnulinewidth 5.000 def
/userlinewidth gnulinewidth def
/Gamma 1.0 def
%
/vshift -83 def
/dl1 {
  10.0 Dashlength mul mul
  Rounded { currentlinewidth 0.75 mul sub dup 0 le { pop 0.01 } if } if
} def
/dl2 {
  10.0 Dashlength mul mul
  Rounded { currentlinewidth 0.75 mul add } if
} def
/hpt_ 31.5 def
/vpt_ 31.5 def
/hpt hpt_ def
/vpt vpt_ def
Level1 {} {
/SDict 10 dict def
systemdict /pdfmark known not {
  userdict /pdfmark systemdict /cleartomark get put
} if
SDict begin [
  /Title (n_noise_ratio-time.eps)
  /Subject (gnuplot plot)
  /Creator (gnuplot 4.4 patchlevel 3)
  /Author (xjia)
%  /Producer (gnuplot)
%  /Keywords ()
  /CreationDate (Fri Jun 14 19:20:04 2013)
  /DOCINFO pdfmark
end
} ifelse
/doclip {
  ClipToBoundingBox {
    newpath 50 50 moveto 410 50 lineto 410 302 lineto 50 302 lineto closepath
    clip
  } if
} def
%
% Gnuplot Prolog Version 4.4 (August 2010)
%
%/SuppressPDFMark true def
%
/M {moveto} bind def
/L {lineto} bind def
/R {rmoveto} bind def
/V {rlineto} bind def
/N {newpath moveto} bind def
/Z {closepath} bind def
/C {setrgbcolor} bind def
/f {rlineto fill} bind def
/g {setgray} bind def
/Gshow {show} def   % May be redefined later in the file to support UTF-8
/vpt2 vpt 2 mul def
/hpt2 hpt 2 mul def
/Lshow {currentpoint stroke M 0 vshift R 
	Blacktext {gsave 0 setgray show grestore} {show} ifelse} def
/Rshow {currentpoint stroke M dup stringwidth pop neg vshift R
	Blacktext {gsave 0 setgray show grestore} {show} ifelse} def
/Cshow {currentpoint stroke M dup stringwidth pop -2 div vshift R 
	Blacktext {gsave 0 setgray show grestore} {show} ifelse} def
/UP {dup vpt_ mul /vpt exch def hpt_ mul /hpt exch def
  /hpt2 hpt 2 mul def /vpt2 vpt 2 mul def} def
/DL {Color {setrgbcolor Solid {pop []} if 0 setdash}
 {pop pop pop 0 setgray Solid {pop []} if 0 setdash} ifelse} def
/BL {stroke userlinewidth 2 mul setlinewidth
	Rounded {1 setlinejoin 1 setlinecap} if} def
/AL {stroke userlinewidth 2 div setlinewidth
	Rounded {1 setlinejoin 1 setlinecap} if} def
/UL {dup gnulinewidth mul /userlinewidth exch def
	dup 1 lt {pop 1} if 10 mul /udl exch def} def
/PL {stroke userlinewidth setlinewidth
	Rounded {1 setlinejoin 1 setlinecap} if} def
3.8 setmiterlimit
% Default Line colors
/LCw {1 1 1} def
/LCb {0 0 0} def
/LCa {0 0 0} def
/LC0 {1 0 0} def
/LC1 {0 1 0} def
/LC2 {0 0 1} def
/LC3 {1 0 1} def
/LC4 {0 1 1} def
/LC5 {1 1 0} def
/LC6 {0 0 0} def
/LC7 {1 0.3 0} def
/LC8 {0.5 0.5 0.5} def
% Default Line Types
/LTw {PL [] 1 setgray} def
/LTb {BL [] LCb DL} def
/LTa {AL [1 udl mul 2 udl mul] 0 setdash LCa setrgbcolor} def
/LT0 {PL [] LC0 DL} def
/LT1 {PL [4 dl1 2 dl2] LC1 DL} def
/LT2 {PL [2 dl1 3 dl2] LC2 DL} def
/LT3 {PL [1 dl1 1.5 dl2] LC3 DL} def
/LT4 {PL [6 dl1 2 dl2 1 dl1 2 dl2] LC4 DL} def
/LT5 {PL [3 dl1 3 dl2 1 dl1 3 dl2] LC5 DL} def
/LT6 {PL [2 dl1 2 dl2 2 dl1 6 dl2] LC6 DL} def
/LT7 {PL [1 dl1 2 dl2 6 dl1 2 dl2 1 dl1 2 dl2] LC7 DL} def
/LT8 {PL [2 dl1 2 dl2 2 dl1 2 dl2 2 dl1 2 dl2 2 dl1 4 dl2] LC8 DL} def
/Pnt {stroke [] 0 setdash gsave 1 setlinecap M 0 0 V stroke grestore} def
/Dia {stroke [] 0 setdash 2 copy vpt add M
  hpt neg vpt neg V hpt vpt neg V
  hpt vpt V hpt neg vpt V closepath stroke
  Pnt} def
/Pls {stroke [] 0 setdash vpt sub M 0 vpt2 V
  currentpoint stroke M
  hpt neg vpt neg R hpt2 0 V stroke
 } def
/Box {stroke [] 0 setdash 2 copy exch hpt sub exch vpt add M
  0 vpt2 neg V hpt2 0 V 0 vpt2 V
  hpt2 neg 0 V closepath stroke
  Pnt} def
/Crs {stroke [] 0 setdash exch hpt sub exch vpt add M
  hpt2 vpt2 neg V currentpoint stroke M
  hpt2 neg 0 R hpt2 vpt2 V stroke} def
/TriU {stroke [] 0 setdash 2 copy vpt 1.12 mul add M
  hpt neg vpt -1.62 mul V
  hpt 2 mul 0 V
  hpt neg vpt 1.62 mul V closepath stroke
  Pnt} def
/Star {2 copy Pls Crs} def
/BoxF {stroke [] 0 setdash exch hpt sub exch vpt add M
  0 vpt2 neg V hpt2 0 V 0 vpt2 V
  hpt2 neg 0 V closepath fill} def
/TriUF {stroke [] 0 setdash vpt 1.12 mul add M
  hpt neg vpt -1.62 mul V
  hpt 2 mul 0 V
  hpt neg vpt 1.62 mul V closepath fill} def
/TriD {stroke [] 0 setdash 2 copy vpt 1.12 mul sub M
  hpt neg vpt 1.62 mul V
  hpt 2 mul 0 V
  hpt neg vpt -1.62 mul V closepath stroke
  Pnt} def
/TriDF {stroke [] 0 setdash vpt 1.12 mul sub M
  hpt neg vpt 1.62 mul V
  hpt 2 mul 0 V
  hpt neg vpt -1.62 mul V closepath fill} def
/DiaF {stroke [] 0 setdash vpt add M
  hpt neg vpt neg V hpt vpt neg V
  hpt vpt V hpt neg vpt V closepath fill} def
/Pent {stroke [] 0 setdash 2 copy gsave
  translate 0 hpt M 4 {72 rotate 0 hpt L} repeat
  closepath stroke grestore Pnt} def
/PentF {stroke [] 0 setdash gsave
  translate 0 hpt M 4 {72 rotate 0 hpt L} repeat
  closepath fill grestore} def
/Circle {stroke [] 0 setdash 2 copy
  hpt 0 360 arc stroke Pnt} def
/CircleF {stroke [] 0 setdash hpt 0 360 arc fill} def
/C0 {BL [] 0 setdash 2 copy moveto vpt 90 450 arc} bind def
/C1 {BL [] 0 setdash 2 copy moveto
	2 copy vpt 0 90 arc closepath fill
	vpt 0 360 arc closepath} bind def
/C2 {BL [] 0 setdash 2 copy moveto
	2 copy vpt 90 180 arc closepath fill
	vpt 0 360 arc closepath} bind def
/C3 {BL [] 0 setdash 2 copy moveto
	2 copy vpt 0 180 arc closepath fill
	vpt 0 360 arc closepath} bind def
/C4 {BL [] 0 setdash 2 copy moveto
	2 copy vpt 180 270 arc closepath fill
	vpt 0 360 arc closepath} bind def
/C5 {BL [] 0 setdash 2 copy moveto
	2 copy vpt 0 90 arc
	2 copy moveto
	2 copy vpt 180 270 arc closepath fill
	vpt 0 360 arc} bind def
/C6 {BL [] 0 setdash 2 copy moveto
	2 copy vpt 90 270 arc closepath fill
	vpt 0 360 arc closepath} bind def
/C7 {BL [] 0 setdash 2 copy moveto
	2 copy vpt 0 270 arc closepath fill
	vpt 0 360 arc closepath} bind def
/C8 {BL [] 0 setdash 2 copy moveto
	2 copy vpt 270 360 arc closepath fill
	vpt 0 360 arc closepath} bind def
/C9 {BL [] 0 setdash 2 copy moveto
	2 copy vpt 270 450 arc closepath fill
	vpt 0 360 arc closepath} bind def
/C10 {BL [] 0 setdash 2 copy 2 copy moveto vpt 270 360 arc closepath fill
	2 copy moveto
	2 copy vpt 90 180 arc closepath fill
	vpt 0 360 arc closepath} bind def
/C11 {BL [] 0 setdash 2 copy moveto
	2 copy vpt 0 180 arc closepath fill
	2 copy moveto
	2 copy vpt 270 360 arc closepath fill
	vpt 0 360 arc closepath} bind def
/C12 {BL [] 0 setdash 2 copy moveto
	2 copy vpt 180 360 arc closepath fill
	vpt 0 360 arc closepath} bind def
/C13 {BL [] 0 setdash 2 copy moveto
	2 copy vpt 0 90 arc closepath fill
	2 copy moveto
	2 copy vpt 180 360 arc closepath fill
	vpt 0 360 arc closepath} bind def
/C14 {BL [] 0 setdash 2 copy moveto
	2 copy vpt 90 360 arc closepath fill
	vpt 0 360 arc} bind def
/C15 {BL [] 0 setdash 2 copy vpt 0 360 arc closepath fill
	vpt 0 360 arc closepath} bind def
/Rec {newpath 4 2 roll moveto 1 index 0 rlineto 0 exch rlineto
	neg 0 rlineto closepath} bind def
/Square {dup Rec} bind def
/Bsquare {vpt sub exch vpt sub exch vpt2 Square} bind def
/S0 {BL [] 0 setdash 2 copy moveto 0 vpt rlineto BL Bsquare} bind def
/S1 {BL [] 0 setdash 2 copy vpt Square fill Bsquare} bind def
/S2 {BL [] 0 setdash 2 copy exch vpt sub exch vpt Square fill Bsquare} bind def
/S3 {BL [] 0 setdash 2 copy exch vpt sub exch vpt2 vpt Rec fill Bsquare} bind def
/S4 {BL [] 0 setdash 2 copy exch vpt sub exch vpt sub vpt Square fill Bsquare} bind def
/S5 {BL [] 0 setdash 2 copy 2 copy vpt Square fill
	exch vpt sub exch vpt sub vpt Square fill Bsquare} bind def
/S6 {BL [] 0 setdash 2 copy exch vpt sub exch vpt sub vpt vpt2 Rec fill Bsquare} bind def
/S7 {BL [] 0 setdash 2 copy exch vpt sub exch vpt sub vpt vpt2 Rec fill
	2 copy vpt Square fill Bsquare} bind def
/S8 {BL [] 0 setdash 2 copy vpt sub vpt Square fill Bsquare} bind def
/S9 {BL [] 0 setdash 2 copy vpt sub vpt vpt2 Rec fill Bsquare} bind def
/S10 {BL [] 0 setdash 2 copy vpt sub vpt Square fill 2 copy exch vpt sub exch vpt Square fill
	Bsquare} bind def
/S11 {BL [] 0 setdash 2 copy vpt sub vpt Square fill 2 copy exch vpt sub exch vpt2 vpt Rec fill
	Bsquare} bind def
/S12 {BL [] 0 setdash 2 copy exch vpt sub exch vpt sub vpt2 vpt Rec fill Bsquare} bind def
/S13 {BL [] 0 setdash 2 copy exch vpt sub exch vpt sub vpt2 vpt Rec fill
	2 copy vpt Square fill Bsquare} bind def
/S14 {BL [] 0 setdash 2 copy exch vpt sub exch vpt sub vpt2 vpt Rec fill
	2 copy exch vpt sub exch vpt Square fill Bsquare} bind def
/S15 {BL [] 0 setdash 2 copy Bsquare fill Bsquare} bind def
/D0 {gsave translate 45 rotate 0 0 S0 stroke grestore} bind def
/D1 {gsave translate 45 rotate 0 0 S1 stroke grestore} bind def
/D2 {gsave translate 45 rotate 0 0 S2 stroke grestore} bind def
/D3 {gsave translate 45 rotate 0 0 S3 stroke grestore} bind def
/D4 {gsave translate 45 rotate 0 0 S4 stroke grestore} bind def
/D5 {gsave translate 45 rotate 0 0 S5 stroke grestore} bind def
/D6 {gsave translate 45 rotate 0 0 S6 stroke grestore} bind def
/D7 {gsave translate 45 rotate 0 0 S7 stroke grestore} bind def
/D8 {gsave translate 45 rotate 0 0 S8 stroke grestore} bind def
/D9 {gsave translate 45 rotate 0 0 S9 stroke grestore} bind def
/D10 {gsave translate 45 rotate 0 0 S10 stroke grestore} bind def
/D11 {gsave translate 45 rotate 0 0 S11 stroke grestore} bind def
/D12 {gsave translate 45 rotate 0 0 S12 stroke grestore} bind def
/D13 {gsave translate 45 rotate 0 0 S13 stroke grestore} bind def
/D14 {gsave translate 45 rotate 0 0 S14 stroke grestore} bind def
/D15 {gsave translate 45 rotate 0 0 S15 stroke grestore} bind def
/DiaE {stroke [] 0 setdash vpt add M
  hpt neg vpt neg V hpt vpt neg V
  hpt vpt V hpt neg vpt V closepath stroke} def
/BoxE {stroke [] 0 setdash exch hpt sub exch vpt add M
  0 vpt2 neg V hpt2 0 V 0 vpt2 V
  hpt2 neg 0 V closepath stroke} def
/TriUE {stroke [] 0 setdash vpt 1.12 mul add M
  hpt neg vpt -1.62 mul V
  hpt 2 mul 0 V
  hpt neg vpt 1.62 mul V closepath stroke} def
/TriDE {stroke [] 0 setdash vpt 1.12 mul sub M
  hpt neg vpt 1.62 mul V
  hpt 2 mul 0 V
  hpt neg vpt -1.62 mul V closepath stroke} def
/PentE {stroke [] 0 setdash gsave
  translate 0 hpt M 4 {72 rotate 0 hpt L} repeat
  closepath stroke grestore} def
/CircE {stroke [] 0 setdash 
  hpt 0 360 arc stroke} def
/Opaque {gsave closepath 1 setgray fill grestore 0 setgray closepath} def
/DiaW {stroke [] 0 setdash vpt add M
  hpt neg vpt neg V hpt vpt neg V
  hpt vpt V hpt neg vpt V Opaque stroke} def
/BoxW {stroke [] 0 setdash exch hpt sub exch vpt add M
  0 vpt2 neg V hpt2 0 V 0 vpt2 V
  hpt2 neg 0 V Opaque stroke} def
/TriUW {stroke [] 0 setdash vpt 1.12 mul add M
  hpt neg vpt -1.62 mul V
  hpt 2 mul 0 V
  hpt neg vpt 1.62 mul V Opaque stroke} def
/TriDW {stroke [] 0 setdash vpt 1.12 mul sub M
  hpt neg vpt 1.62 mul V
  hpt 2 mul 0 V
  hpt neg vpt -1.62 mul V Opaque stroke} def
/PentW {stroke [] 0 setdash gsave
  translate 0 hpt M 4 {72 rotate 0 hpt L} repeat
  Opaque stroke grestore} def
/CircW {stroke [] 0 setdash 
  hpt 0 360 arc Opaque stroke} def
/BoxFill {gsave Rec 1 setgray fill grestore} def
/Density {
  /Fillden exch def
  currentrgbcolor
  /ColB exch def /ColG exch def /ColR exch def
  /ColR ColR Fillden mul Fillden sub 1 add def
  /ColG ColG Fillden mul Fillden sub 1 add def
  /ColB ColB Fillden mul Fillden sub 1 add def
  ColR ColG ColB setrgbcolor} def
/BoxColFill {gsave Rec PolyFill} def
/PolyFill {gsave Density fill grestore grestore} def
/h {rlineto rlineto rlineto gsave closepath fill grestore} bind def
%
% PostScript Level 1 Pattern Fill routine for rectangles
% Usage: x y w h s a XX PatternFill
%	x,y = lower left corner of box to be filled
%	w,h = width and height of box
%	  a = angle in degrees between lines and x-axis
%	 XX = 0/1 for no/yes cross-hatch
%
/PatternFill {gsave /PFa [ 9 2 roll ] def
  PFa 0 get PFa 2 get 2 div add PFa 1 get PFa 3 get 2 div add translate
  PFa 2 get -2 div PFa 3 get -2 div PFa 2 get PFa 3 get Rec
  gsave 1 setgray fill grestore clip
  currentlinewidth 0.5 mul setlinewidth
  /PFs PFa 2 get dup mul PFa 3 get dup mul add sqrt def
  0 0 M PFa 5 get rotate PFs -2 div dup translate
  0 1 PFs PFa 4 get div 1 add floor cvi
	{PFa 4 get mul 0 M 0 PFs V} for
  0 PFa 6 get ne {
	0 1 PFs PFa 4 get div 1 add floor cvi
	{PFa 4 get mul 0 2 1 roll M PFs 0 V} for
 } if
  stroke grestore} def
%
/languagelevel where
 {pop languagelevel} {1} ifelse
 2 lt
	{/InterpretLevel1 true def}
	{/InterpretLevel1 Level1 def}
 ifelse
%
% PostScript level 2 pattern fill definitions
%
/Level2PatternFill {
/Tile8x8 {/PaintType 2 /PatternType 1 /TilingType 1 /BBox [0 0 8 8] /XStep 8 /YStep 8}
	bind def
/KeepColor {currentrgbcolor [/Pattern /DeviceRGB] setcolorspace} bind def
<< Tile8x8
 /PaintProc {0.5 setlinewidth pop 0 0 M 8 8 L 0 8 M 8 0 L stroke} 
>> matrix makepattern
/Pat1 exch def
<< Tile8x8
 /PaintProc {0.5 setlinewidth pop 0 0 M 8 8 L 0 8 M 8 0 L stroke
	0 4 M 4 8 L 8 4 L 4 0 L 0 4 L stroke}
>> matrix makepattern
/Pat2 exch def
<< Tile8x8
 /PaintProc {0.5 setlinewidth pop 0 0 M 0 8 L
	8 8 L 8 0 L 0 0 L fill}
>> matrix makepattern
/Pat3 exch def
<< Tile8x8
 /PaintProc {0.5 setlinewidth pop -4 8 M 8 -4 L
	0 12 M 12 0 L stroke}
>> matrix makepattern
/Pat4 exch def
<< Tile8x8
 /PaintProc {0.5 setlinewidth pop -4 0 M 8 12 L
	0 -4 M 12 8 L stroke}
>> matrix makepattern
/Pat5 exch def
<< Tile8x8
 /PaintProc {0.5 setlinewidth pop -2 8 M 4 -4 L
	0 12 M 8 -4 L 4 12 M 10 0 L stroke}
>> matrix makepattern
/Pat6 exch def
<< Tile8x8
 /PaintProc {0.5 setlinewidth pop -2 0 M 4 12 L
	0 -4 M 8 12 L 4 -4 M 10 8 L stroke}
>> matrix makepattern
/Pat7 exch def
<< Tile8x8
 /PaintProc {0.5 setlinewidth pop 8 -2 M -4 4 L
	12 0 M -4 8 L 12 4 M 0 10 L stroke}
>> matrix makepattern
/Pat8 exch def
<< Tile8x8
 /PaintProc {0.5 setlinewidth pop 0 -2 M 12 4 L
	-4 0 M 12 8 L -4 4 M 8 10 L stroke}
>> matrix makepattern
/Pat9 exch def
/Pattern1 {PatternBgnd KeepColor Pat1 setpattern} bind def
/Pattern2 {PatternBgnd KeepColor Pat2 setpattern} bind def
/Pattern3 {PatternBgnd KeepColor Pat3 setpattern} bind def
/Pattern4 {PatternBgnd KeepColor Landscape {Pat5} {Pat4} ifelse setpattern} bind def
/Pattern5 {PatternBgnd KeepColor Landscape {Pat4} {Pat5} ifelse setpattern} bind def
/Pattern6 {PatternBgnd KeepColor Landscape {Pat9} {Pat6} ifelse setpattern} bind def
/Pattern7 {PatternBgnd KeepColor Landscape {Pat8} {Pat7} ifelse setpattern} bind def
} def
%
%
%End of PostScript Level 2 code
%
/PatternBgnd {
  TransparentPatterns {} {gsave 1 setgray fill grestore} ifelse
} def
%
% Substitute for Level 2 pattern fill codes with
% grayscale if Level 2 support is not selected.
%
/Level1PatternFill {
/Pattern1 {0.250 Density} bind def
/Pattern2 {0.500 Density} bind def
/Pattern3 {0.750 Density} bind def
/Pattern4 {0.125 Density} bind def
/Pattern5 {0.375 Density} bind def
/Pattern6 {0.625 Density} bind def
/Pattern7 {0.875 Density} bind def
} def
%
% Now test for support of Level 2 code
%
Level1 {Level1PatternFill} {Level2PatternFill} ifelse
%
/Symbol-Oblique /Symbol findfont [1 0 .167 1 0 0] makefont
dup length dict begin {1 index /FID eq {pop pop} {def} ifelse} forall
currentdict end definefont pop
/MFshow {
   { dup 5 get 3 ge
     { 5 get 3 eq {gsave} {grestore} ifelse }
     {dup dup 0 get findfont exch 1 get scalefont setfont
     [ currentpoint ] exch dup 2 get 0 exch R dup 5 get 2 ne {dup dup 6
     get exch 4 get {Gshow} {stringwidth pop 0 R} ifelse }if dup 5 get 0 eq
     {dup 3 get {2 get neg 0 exch R pop} {pop aload pop M} ifelse} {dup 5
     get 1 eq {dup 2 get exch dup 3 get exch 6 get stringwidth pop -2 div
     dup 0 R} {dup 6 get stringwidth pop -2 div 0 R 6 get
     show 2 index {aload pop M neg 3 -1 roll neg R pop pop} {pop pop pop
     pop aload pop M} ifelse }ifelse }ifelse }
     ifelse }
   forall} def
/Gswidth {dup type /stringtype eq {stringwidth} {pop (n) stringwidth} ifelse} def
/MFwidth {0 exch { dup 5 get 3 ge { 5 get 3 eq { 0 } { pop } ifelse }
 {dup 3 get{dup dup 0 get findfont exch 1 get scalefont setfont
     6 get Gswidth pop add} {pop} ifelse} ifelse} forall} def
/MLshow { currentpoint stroke M
  0 exch R
  Blacktext {gsave 0 setgray MFshow grestore} {MFshow} ifelse } bind def
/MRshow { currentpoint stroke M
  exch dup MFwidth neg 3 -1 roll R
  Blacktext {gsave 0 setgray MFshow grestore} {MFshow} ifelse } bind def
/MCshow { currentpoint stroke M
  exch dup MFwidth -2 div 3 -1 roll R
  Blacktext {gsave 0 setgray MFshow grestore} {MFshow} ifelse } bind def
/XYsave    { [( ) 1 2 true false 3 ()] } bind def
/XYrestore { [( ) 1 2 true false 4 ()] } bind def
end
%%EndProlog
gnudict begin
gsave
doclip
50 50 translate
0.050 0.050 scale
0 setgray
newpath
(Helvetica) findfont 250 scalefont setfont
1.000 UL
LTb
1225 800 M
63 0 V
5461 0 R
-63 0 V
stroke
1075 800 M
[ [(Helvetica) 250.0 0.0 true true 0 ( 0)]
] -83.3 MRshow
1.000 UL
LTb
1225 1457 M
63 0 V
5461 0 R
-63 0 V
stroke
1075 1457 M
[ [(Helvetica) 250.0 0.0 true true 0 ( 0.5)]
] -83.3 MRshow
1.000 UL
LTb
1225 2113 M
63 0 V
5461 0 R
-63 0 V
stroke
1075 2113 M
[ [(Helvetica) 250.0 0.0 true true 0 ( 1)]
] -83.3 MRshow
1.000 UL
LTb
1225 2770 M
63 0 V
5461 0 R
-63 0 V
stroke
1075 2770 M
[ [(Helvetica) 250.0 0.0 true true 0 ( 1.5)]
] -83.3 MRshow
1.000 UL
LTb
1225 3426 M
63 0 V
5461 0 R
-63 0 V
stroke
1075 3426 M
[ [(Helvetica) 250.0 0.0 true true 0 ( 2)]
] -83.3 MRshow
1.000 UL
LTb
1225 4083 M
63 0 V
5461 0 R
-63 0 V
stroke
1075 4083 M
[ [(Helvetica) 250.0 0.0 true true 0 ( 2.5)]
] -83.3 MRshow
1.000 UL
LTb
1225 4739 M
63 0 V
5461 0 R
-63 0 V
stroke
1075 4739 M
[ [(Helvetica) 250.0 0.0 true true 0 ( 3)]
] -83.3 MRshow
1.000 UL
LTb
1225 800 M
0 63 V
0 3876 R
0 -63 V
stroke
1225 550 M
[ [(Helvetica) 250.0 0.0 true true 0 (-0.6)]
] -83.3 MCshow
1.000 UL
LTb
2146 800 M
0 63 V
0 3876 R
0 -63 V
stroke
2146 550 M
[ [(Helvetica) 250.0 0.0 true true 0 (-0.4)]
] -83.3 MCshow
1.000 UL
LTb
3066 800 M
0 63 V
0 3876 R
0 -63 V
stroke
3066 550 M
[ [(Helvetica) 250.0 0.0 true true 0 (-0.2)]
] -83.3 MCshow
1.000 UL
LTb
3987 800 M
0 63 V
0 3876 R
0 -63 V
stroke
3987 550 M
[ [(Helvetica) 250.0 0.0 true true 0 ( 0)]
] -83.3 MCshow
1.000 UL
LTb
4908 800 M
0 63 V
0 3876 R
0 -63 V
stroke
4908 550 M
[ [(Helvetica) 250.0 0.0 true true 0 ( 0.2)]
] -83.3 MCshow
1.000 UL
LTb
5828 800 M
0 63 V
0 3876 R
0 -63 V
stroke
5828 550 M
[ [(Helvetica) 250.0 0.0 true true 0 ( 0.4)]
] -83.3 MCshow
1.000 UL
LTb
6749 800 M
0 63 V
0 3876 R
0 -63 V
stroke
6749 550 M
[ [(Helvetica) 250.0 0.0 true true 0 ( 0.6)]
] -83.3 MCshow
1.000 UL
LTb
1.000 UL
LTb
1225 4739 N
0 -3939 V
5524 0 V
0 3939 V
-5524 0 V
Z stroke
LCb setrgbcolor
200 2769 M
currentpoint gsave translate -270 rotate 0 0 moveto
[ [(Helvetica) 250.0 0.0 true true 0 (Time \(sec\))]
] -83.3 MCshow
grestore
LTb
LCb setrgbcolor
3987 175 M
[ [(Helvetica) 250.0 0.0 true true 0 (Noise Ratio)]
] -83.3 MCshow
LTb
1.000 UP
1.000 UL
LTb
% Begin plot #1
1.000 UP
1.000 UL
LT0
1685 802 Pls
1685 802 Pls
1685 803 Pls
1685 804 Pls
2146 801 Pls
2146 802 Pls
2146 803 Pls
2146 804 Pls
2606 801 Pls
2606 802 Pls
2606 802 Pls
2606 804 Pls
3066 801 Pls
3066 801 Pls
3066 802 Pls
3066 803 Pls
3527 800 Pls
3527 801 Pls
3527 801 Pls
3527 802 Pls
4447 801 Pls
4447 801 Pls
4447 802 Pls
4447 802 Pls
4908 801 Pls
4908 802 Pls
4908 802 Pls
4908 802 Pls
5368 801 Pls
5368 802 Pls
5368 803 Pls
5368 803 Pls
5828 802 Pls
5828 802 Pls
5828 803 Pls
5828 803 Pls
6289 802 Pls
6289 803 Pls
6289 803 Pls
6289 804 Pls
1685 812 Pls
1685 817 Pls
1685 819 Pls
1685 826 Pls
2146 810 Pls
2146 812 Pls
2146 817 Pls
2146 822 Pls
2606 807 Pls
2606 812 Pls
2606 814 Pls
2606 819 Pls
3066 806 Pls
3066 811 Pls
3066 812 Pls
3066 816 Pls
3527 804 Pls
3527 807 Pls
3527 810 Pls
3527 813 Pls
4447 811 Pls
4447 816 Pls
4447 819 Pls
4447 822 Pls
4908 816 Pls
4908 823 Pls
4908 825 Pls
4908 829 Pls
5368 822 Pls
5368 828 Pls
5368 834 Pls
5368 837 Pls
5828 830 Pls
5828 835 Pls
5828 841 Pls
5828 844 Pls
6289 836 Pls
6289 846 Pls
6289 850 Pls
6289 855 Pls
1685 840 Pls
1685 841 Pls
1685 872 Pls
1685 895 Pls
2146 833 Pls
2146 857 Pls
2146 867 Pls
2146 880 Pls
2606 825 Pls
2606 829 Pls
2606 852 Pls
2606 874 Pls
3066 819 Pls
3066 828 Pls
3066 834 Pls
3066 852 Pls
3527 817 Pls
3527 821 Pls
3527 825 Pls
3527 839 Pls
4447 846 Pls
4447 858 Pls
4447 876 Pls
4447 890 Pls
4908 874 Pls
4908 892 Pls
4908 905 Pls
4908 926 Pls
5368 907 Pls
5368 910 Pls
5368 949 Pls
5368 963 Pls
5828 950 Pls
5828 974 Pls
5828 988 Pls
5828 1007 Pls
6289 991 Pls
6289 1023 Pls
6289 1018 Pls
6289 1054 Pls
1685 928 Pls
1685 960 Pls
1685 1042 Pls
1685 1110 Pls
2146 897 Pls
2146 939 Pls
2146 1003 Pls
2146 1070 Pls
2606 892 Pls
2606 900 Pls
2606 930 Pls
2606 1009 Pls
3066 861 Pls
3066 868 Pls
3066 925 Pls
3066 949 Pls
3527 846 Pls
3527 847 Pls
3527 869 Pls
3527 897 Pls
4447 947 Pls
4447 999 Pls
4447 1070 Pls
4447 1090 Pls
4908 1068 Pls
4908 1161 Pls
4908 1166 Pls
4908 1209 Pls
5368 1202 Pls
5368 1287 Pls
5368 1330 Pls
5368 1343 Pls
5828 1414 Pls
5828 1433 Pls
5828 1416 Pls
5828 1502 Pls
6289 1505 Pls
6289 1604 Pls
6289 1652 Pls
6289 1687 Pls
1685 1047 Pls
1685 1188 Pls
1685 1298 Pls
1685 1499 Pls
2146 1021 Pls
2146 1070 Pls
2146 1249 Pls
2146 1353 Pls
2606 1008 Pls
2606 1099 Pls
2606 1206 Pls
2606 1273 Pls
3066 946 Pls
3066 979 Pls
3066 1040 Pls
3066 1174 Pls
3527 919 Pls
3527 934 Pls
3527 1005 Pls
3527 1075 Pls
4447 1411 Pls
4447 1567 Pls
4447 1703 Pls
4447 1812 Pls
4908 1696 Pls
4908 2063 Pls
4908 2375 Pls
4908 2485 Pls
5368 2444 Pls
5368 2730 Pls
5368 2965 Pls
5368 3194 Pls
5828 3138 Pls
5828 3406 Pls
5828 3671 Pls
5828 3787 Pls
6289 3638 Pls
6289 4234 Pls
6289 4444 Pls
6289 4299 Pls
1685 802 Pls
1685 802 Pls
1685 803 Pls
1685 805 Pls
2146 801 Pls
2146 802 Pls
2146 803 Pls
2146 804 Pls
2606 801 Pls
2606 802 Pls
2606 803 Pls
2606 804 Pls
3066 801 Pls
3066 801 Pls
3066 802 Pls
3066 803 Pls
3527 800 Pls
3527 801 Pls
3527 801 Pls
3527 802 Pls
4447 801 Pls
4447 801 Pls
4447 802 Pls
4447 802 Pls
4908 801 Pls
4908 802 Pls
4908 802 Pls
4908 802 Pls
5368 801 Pls
5368 802 Pls
5368 802 Pls
5368 803 Pls
5828 802 Pls
5828 802 Pls
5828 803 Pls
5828 803 Pls
6289 802 Pls
6289 803 Pls
6289 803 Pls
6289 804 Pls
1685 811 Pls
1685 817 Pls
1685 821 Pls
1685 832 Pls
2146 811 Pls
2146 814 Pls
2146 817 Pls
2146 822 Pls
2606 807 Pls
2606 810 Pls
2606 814 Pls
2606 821 Pls
3066 806 Pls
3066 810 Pls
3066 812 Pls
3066 817 Pls
3527 804 Pls
3527 807 Pls
3527 810 Pls
3527 813 Pls
4447 811 Pls
4447 813 Pls
4447 820 Pls
4447 823 Pls
4908 817 Pls
4908 822 Pls
4908 825 Pls
4908 831 Pls
5368 823 Pls
5368 827 Pls
5368 834 Pls
5368 836 Pls
5828 829 Pls
5828 837 Pls
5828 841 Pls
5828 846 Pls
6289 839 Pls
6289 844 Pls
6289 848 Pls
6289 851 Pls
1685 843 Pls
1685 866 Pls
1685 886 Pls
1685 907 Pls
2146 839 Pls
2146 847 Pls
2146 858 Pls
2146 879 Pls
2606 829 Pls
2606 834 Pls
2606 853 Pls
2606 864 Pls
3066 820 Pls
3066 827 Pls
3066 842 Pls
3066 847 Pls
3527 816 Pls
3527 830 Pls
3527 831 Pls
3527 838 Pls
4447 850 Pls
4447 866 Pls
4447 868 Pls
4447 898 Pls
4908 878 Pls
4908 895 Pls
4908 912 Pls
4908 920 Pls
5368 905 Pls
5368 935 Pls
5368 962 Pls
5368 964 Pls
5828 951 Pls
5828 977 Pls
5828 989 Pls
5828 1009 Pls
6289 990 Pls
6289 1007 Pls
6289 1032 Pls
6289 1043 Pls
1685 966 Pls
1685 960 Pls
1685 1057 Pls
1685 1139 Pls
2146 887 Pls
2146 928 Pls
2146 976 Pls
2146 1048 Pls
2606 861 Pls
2606 925 Pls
2606 955 Pls
2606 1000 Pls
3066 853 Pls
3066 853 Pls
3066 906 Pls
3066 936 Pls
3527 851 Pls
3527 847 Pls
3527 880 Pls
3527 902 Pls
4447 954 Pls
4447 1019 Pls
4447 1041 Pls
4447 1088 Pls
4908 1076 Pls
4908 1151 Pls
4908 1177 Pls
4908 1207 Pls
5368 1238 Pls
5368 1246 Pls
5368 1297 Pls
5368 1387 Pls
5828 1368 Pls
5828 1308 Pls
5828 1434 Pls
5828 1539 Pls
6289 1513 Pls
6289 1552 Pls
6289 1630 Pls
6289 1720 Pls
1685 1162 Pls
1685 1137 Pls
1685 1299 Pls
1685 1380 Pls
2146 1015 Pls
2146 1089 Pls
2146 1277 Pls
2146 1355 Pls
2606 1006 Pls
2606 1086 Pls
2606 1145 Pls
2606 1253 Pls
3066 960 Pls
3066 986 Pls
3066 1107 Pls
3066 1161 Pls
3527 916 Pls
3527 953 Pls
3527 1016 Pls
3527 1067 Pls
4447 1382 Pls
4447 1542 Pls
4447 1693 Pls
4447 1882 Pls
4908 1994 Pls
4908 2036 Pls
4908 2380 Pls
4908 2316 Pls
5368 2375 Pls
5368 2679 Pls
5368 2934 Pls
5368 3078 Pls
5828 3226 Pls
5828 3340 Pls
5828 3597 Pls
5828 3816 Pls
6289 3781 Pls
6289 4198 Pls
6289 4453 Pls
6289 4642 Pls
1685 801 Pls
1685 802 Pls
1685 803 Pls
1685 805 Pls
2146 801 Pls
2146 801 Pls
2146 803 Pls
2146 804 Pls
2606 801 Pls
2606 801 Pls
2606 802 Pls
2606 804 Pls
3066 801 Pls
3066 801 Pls
3066 802 Pls
3066 803 Pls
3527 800 Pls
3527 801 Pls
3527 802 Pls
3527 802 Pls
4447 801 Pls
4447 801 Pls
4447 802 Pls
4447 802 Pls
4908 801 Pls
4908 802 Pls
4908 802 Pls
4908 802 Pls
5368 801 Pls
5368 802 Pls
5368 802 Pls
5368 803 Pls
5828 802 Pls
5828 802 Pls
5828 803 Pls
5828 803 Pls
6289 802 Pls
6289 803 Pls
6289 803 Pls
6289 804 Pls
1685 814 Pls
1685 814 Pls
1685 821 Pls
1685 833 Pls
2146 811 Pls
2146 814 Pls
2146 818 Pls
2146 823 Pls
2606 809 Pls
2606 811 Pls
2606 815 Pls
2606 819 Pls
3066 806 Pls
3066 807 Pls
3066 812 Pls
3066 816 Pls
3527 806 Pls
3527 807 Pls
3527 810 Pls
3527 813 Pls
4447 810 Pls
4447 814 Pls
4447 819 Pls
4447 824 Pls
4908 815 Pls
4908 822 Pls
4908 828 Pls
4908 829 Pls
5368 823 Pls
5368 829 Pls
5368 830 Pls
5368 835 Pls
5828 829 Pls
5828 836 Pls
5828 841 Pls
5828 845 Pls
6289 839 Pls
6289 845 Pls
6289 848 Pls
6289 852 Pls
1685 842 Pls
1685 865 Pls
1685 877 Pls
1685 915 Pls
2146 831 Pls
2146 845 Pls
2146 864 Pls
2146 880 Pls
2606 829 Pls
2606 839 Pls
2606 843 Pls
2606 862 Pls
3066 821 Pls
3066 829 Pls
3066 842 Pls
3066 846 Pls
3527 817 Pls
3527 822 Pls
3527 831 Pls
3527 839 Pls
4447 851 Pls
4447 862 Pls
4447 873 Pls
4447 887 Pls
4908 877 Pls
4908 896 Pls
4908 915 Pls
4908 920 Pls
5368 904 Pls
5368 941 Pls
5368 948 Pls
5368 958 Pls
5828 953 Pls
5828 973 Pls
5828 990 Pls
5828 1003 Pls
6289 992 Pls
6289 1013 Pls
6289 1030 Pls
6289 1053 Pls
1685 946 Pls
1685 996 Pls
1685 1051 Pls
1685 1144 Pls
2146 910 Pls
2146 988 Pls
2146 988 Pls
2146 1082 Pls
2606 874 Pls
2606 954 Pls
2606 953 Pls
2606 1009 Pls
3066 865 Pls
3066 874 Pls
3066 910 Pls
3066 961 Pls
3527 847 Pls
3527 878 Pls
3527 877 Pls
3527 908 Pls
4447 957 Pls
4447 1000 Pls
4447 1025 Pls
4447 1032 Pls
4908 1098 Pls
4908 1089 Pls
4908 1187 Pls
4908 1211 Pls
5368 1183 Pls
5368 1302 Pls
5368 1288 Pls
5368 1379 Pls
5828 1328 Pls
5828 1430 Pls
5828 1504 Pls
5828 1562 Pls
6289 1445 Pls
6289 1625 Pls
6289 1645 Pls
6289 1701 Pls
1685 1071 Pls
1685 1191 Pls
1685 1309 Pls
1685 1458 Pls
2146 1075 Pls
2146 1126 Pls
2146 1222 Pls
2146 1344 Pls
2606 1001 Pls
2606 993 Pls
2606 1208 Pls
2606 1222 Pls
3066 902 Pls
3066 986 Pls
3066 1033 Pls
3066 1146 Pls
3527 908 Pls
3527 945 Pls
3527 1013 Pls
3527 1069 Pls
4447 1423 Pls
4447 1598 Pls
4447 1704 Pls
4447 1866 Pls
4908 1937 Pls
4908 2132 Pls
4908 2316 Pls
4908 2379 Pls
5368 2499 Pls
5368 2830 Pls
5368 3002 Pls
5368 3085 Pls
5828 3025 Pls
5828 3468 Pls
5828 3784 Pls
5828 3767 Pls
6289 3658 Pls
6289 4382 Pls
6289 4296 Pls
6289 4531 Pls
1685 801 Pls
1685 802 Pls
1685 803 Pls
1685 805 Pls
2146 801 Pls
2146 802 Pls
2146 803 Pls
2146 804 Pls
2606 801 Pls
2606 802 Pls
2606 803 Pls
2606 803 Pls
3066 801 Pls
3066 801 Pls
3066 802 Pls
3066 803 Pls
3527 800 Pls
3527 801 Pls
3527 801 Pls
3527 802 Pls
4447 801 Pls
4447 801 Pls
4447 802 Pls
4447 802 Pls
4908 801 Pls
4908 802 Pls
4908 802 Pls
4908 802 Pls
5368 801 Pls
5368 802 Pls
5368 803 Pls
5368 803 Pls
5828 802 Pls
5828 802 Pls
5828 803 Pls
5828 803 Pls
6289 802 Pls
6289 803 Pls
6289 803 Pls
6289 804 Pls
1685 812 Pls
1685 820 Pls
1685 822 Pls
1685 828 Pls
2146 809 Pls
2146 813 Pls
2146 819 Pls
2146 824 Pls
2606 806 Pls
2606 812 Pls
2606 817 Pls
2606 820 Pls
3066 806 Pls
3066 808 Pls
3066 814 Pls
3066 816 Pls
3527 805 Pls
3527 807 Pls
3527 810 Pls
3527 813 Pls
4447 812 Pls
4447 814 Pls
4447 817 Pls
4447 825 Pls
4908 815 Pls
4908 824 Pls
4908 824 Pls
4908 829 Pls
5368 823 Pls
5368 828 Pls
5368 834 Pls
5368 838 Pls
5828 826 Pls
5828 838 Pls
5828 841 Pls
5828 844 Pls
6289 836 Pls
6289 844 Pls
6289 849 Pls
6289 855 Pls
1685 845 Pls
1685 853 Pls
1685 878 Pls
1685 921 Pls
2146 835 Pls
2146 845 Pls
2146 858 Pls
2146 882 Pls
2606 824 Pls
2606 845 Pls
2606 843 Pls
2606 864 Pls
3066 822 Pls
3066 827 Pls
3066 834 Pls
3066 850 Pls
3527 817 Pls
3527 828 Pls
3527 832 Pls
3527 844 Pls
4447 846 Pls
4447 862 Pls
4447 883 Pls
4447 895 Pls
4908 882 Pls
4908 895 Pls
4908 920 Pls
4908 928 Pls
5368 906 Pls
5368 934 Pls
5368 946 Pls
5368 958 Pls
5828 944 Pls
5828 973 Pls
5828 988 Pls
5828 1001 Pls
6289 978 Pls
6289 1003 Pls
6289 1038 Pls
6289 1062 Pls
1685 951 Pls
1685 993 Pls
1685 1057 Pls
1685 1097 Pls
2146 913 Pls
2146 990 Pls
2146 1000 Pls
2146 1041 Pls
2606 887 Pls
2606 904 Pls
2606 951 Pls
2606 1004 Pls
3066 861 Pls
3066 890 Pls
3066 892 Pls
3066 936 Pls
3527 845 Pls
3527 860 Pls
3527 872 Pls
3527 898 Pls
4447 955 Pls
4447 1002 Pls
4447 1048 Pls
4447 1048 Pls
4908 1066 Pls
4908 1106 Pls
4908 1184 Pls
4908 1164 Pls
5368 1185 Pls
5368 1298 Pls
5368 1288 Pls
5368 1341 Pls
5828 1303 Pls
5828 1457 Pls
5828 1453 Pls
5828 1548 Pls
6289 1512 Pls
6289 1602 Pls
6289 1698 Pls
6289 1754 Pls
1685 1094 Pls
1685 1139 Pls
1685 1332 Pls
1685 1383 Pls
2146 1010 Pls
2146 1030 Pls
2146 1186 Pls
2146 1332 Pls
2606 1026 Pls
2606 1045 Pls
2606 1110 Pls
2606 1232 Pls
3066 984 Pls
3066 1002 Pls
3066 1093 Pls
3066 1201 Pls
3527 882 Pls
3527 929 Pls
3527 986 Pls
3527 1035 Pls
4447 1347 Pls
4447 1612 Pls
4447 1734 Pls
4447 1819 Pls
4908 1974 Pls
4908 2231 Pls
4908 2448 Pls
4908 2576 Pls
5368 2432 Pls
5368 2594 Pls
5368 3018 Pls
5368 3128 Pls
5828 3046 Pls
5828 3528 Pls
5828 3781 Pls
5828 3907 Pls
6289 3965 Pls
6289 4032 Pls
6289 4353 Pls
6289 4625 Pls
1685 801 Pls
1685 804 Pls
1685 803 Pls
1685 805 Pls
2146 801 Pls
2146 802 Pls
2146 803 Pls
2146 804 Pls
2606 801 Pls
2606 801 Pls
2606 802 Pls
2606 803 Pls
3066 801 Pls
3066 801 Pls
3066 802 Pls
3066 803 Pls
3527 800 Pls
3527 801 Pls
3527 802 Pls
3527 802 Pls
4447 801 Pls
4447 801 Pls
4447 802 Pls
4447 802 Pls
4908 801 Pls
4908 802 Pls
4908 802 Pls
4908 802 Pls
5368 801 Pls
5368 802 Pls
5368 802 Pls
5368 803 Pls
5828 802 Pls
5828 802 Pls
5828 803 Pls
5828 803 Pls
6289 802 Pls
6289 803 Pls
6289 803 Pls
6289 804 Pls
1685 813 Pls
1685 817 Pls
1685 821 Pls
1685 829 Pls
2146 810 Pls
2146 814 Pls
2146 814 Pls
2146 823 Pls
2606 808 Pls
2606 811 Pls
2606 814 Pls
2606 823 Pls
3066 805 Pls
3066 808 Pls
3066 814 Pls
3066 818 Pls
3527 804 Pls
3527 808 Pls
3527 809 Pls
3527 815 Pls
4447 810 Pls
4447 815 Pls
4447 818 Pls
4447 823 Pls
4908 816 Pls
4908 822 Pls
4908 824 Pls
4908 829 Pls
5368 826 Pls
5368 827 Pls
5368 833 Pls
5368 839 Pls
5828 831 Pls
5828 837 Pls
5828 841 Pls
5828 846 Pls
6289 840 Pls
6289 844 Pls
6289 847 Pls
6289 852 Pls
1685 848 Pls
1685 864 Pls
1685 894 Pls
1685 916 Pls
2146 835 Pls
2146 842 Pls
2146 853 Pls
2146 891 Pls
2606 828 Pls
2606 832 Pls
2606 854 Pls
2606 865 Pls
3066 820 Pls
3066 826 Pls
3066 839 Pls
3066 850 Pls
3527 823 Pls
3527 824 Pls
3527 832 Pls
3527 841 Pls
4447 847 Pls
4447 867 Pls
4447 886 Pls
4447 890 Pls
4908 879 Pls
4908 897 Pls
4908 915 Pls
4908 913 Pls
5368 915 Pls
5368 929 Pls
5368 947 Pls
5368 964 Pls
5828 956 Pls
5828 969 Pls
5828 990 Pls
5828 1000 Pls
6289 984 Pls
6289 1018 Pls
6289 1021 Pls
6289 1045 Pls
1685 930 Pls
1685 1025 Pls
1685 1059 Pls
1685 1140 Pls
2146 899 Pls
2146 939 Pls
2146 975 Pls
2146 1050 Pls
2606 877 Pls
2606 898 Pls
2606 968 Pls
2606 1018 Pls
3066 853 Pls
3066 870 Pls
3066 909 Pls
3066 939 Pls
3527 842 Pls
3527 851 Pls
3527 877 Pls
3527 905 Pls
4447 974 Pls
4447 1009 Pls
4447 1040 Pls
4447 1076 Pls
4908 1074 Pls
4908 1155 Pls
4908 1177 Pls
4908 1183 Pls
5368 1198 Pls
5368 1249 Pls
5368 1324 Pls
5368 1399 Pls
5828 1360 Pls
5828 1448 Pls
5828 1477 Pls
5828 1497 Pls
6289 1552 Pls
6289 1651 Pls
6289 1678 Pls
6289 1761 Pls
1685 1147 Pls
1685 1104 Pls
1685 1284 Pls
1685 1450 Pls
2146 1017 Pls
2146 1091 Pls
2146 1205 Pls
2146 1305 Pls
2606 979 Pls
2606 1010 Pls
2606 1198 Pls
2606 1277 Pls
3066 925 Pls
3066 946 Pls
3066 1058 Pls
3066 1124 Pls
3527 893 Pls
3527 943 Pls
3527 957 Pls
3527 1082 Pls
4447 1420 Pls
4447 1549 Pls
4447 1759 Pls
4447 1892 Pls
4908 1930 Pls
4908 2191 Pls
4908 2373 Pls
4908 2467 Pls
5368 2467 Pls
5368 2754 Pls
5368 2982 Pls
5368 3100 Pls
5828 3064 Pls
5828 3313 Pls
5828 3612 Pls
5828 3772 Pls
6289 3649 Pls
6289 4174 Pls
6289 4451 Pls
6289 4569 Pls
1685 802 Pls
1685 803 Pls
1685 803 Pls
1685 805 Pls
2146 801 Pls
2146 802 Pls
2146 803 Pls
2146 804 Pls
2606 801 Pls
2606 801 Pls
2606 802 Pls
2606 803 Pls
3066 801 Pls
3066 801 Pls
3066 802 Pls
3066 803 Pls
3527 801 Pls
3527 801 Pls
3527 802 Pls
3527 802 Pls
4447 801 Pls
4447 801 Pls
4447 802 Pls
4447 802 Pls
4908 801 Pls
4908 802 Pls
4908 802 Pls
4908 802 Pls
5368 802 Pls
5368 802 Pls
5368 802 Pls
5368 803 Pls
5828 802 Pls
5828 802 Pls
5828 803 Pls
5828 803 Pls
6289 802 Pls
6289 803 Pls
6289 803 Pls
6289 804 Pls
1685 813 Pls
1685 816 Pls
1685 821 Pls
1685 831 Pls
2146 810 Pls
2146 810 Pls
2146 815 Pls
2146 822 Pls
2606 809 Pls
2606 811 Pls
2606 814 Pls
2606 820 Pls
3066 806 Pls
3066 810 Pls
3066 812 Pls
3066 818 Pls
3527 806 Pls
3527 806 Pls
3527 811 Pls
3527 814 Pls
4447 812 Pls
4447 816 Pls
4447 820 Pls
4447 824 Pls
4908 816 Pls
4908 823 Pls
4908 823 Pls
4908 831 Pls
5368 823 Pls
5368 830 Pls
5368 834 Pls
5368 836 Pls
5828 832 Pls
5828 837 Pls
5828 840 Pls
5828 846 Pls
6289 839 Pls
6289 844 Pls
6289 850 Pls
6289 854 Pls
1685 847 Pls
1685 866 Pls
1685 876 Pls
1685 917 Pls
2146 827 Pls
2146 853 Pls
2146 861 Pls
2146 877 Pls
2606 832 Pls
2606 839 Pls
2606 849 Pls
2606 861 Pls
3066 821 Pls
3066 834 Pls
3066 832 Pls
3066 854 Pls
3527 819 Pls
3527 820 Pls
3527 830 Pls
3527 834 Pls
4447 850 Pls
4447 871 Pls
4447 872 Pls
4447 881 Pls
4908 878 Pls
4908 895 Pls
4908 914 Pls
4908 922 Pls
5368 921 Pls
5368 925 Pls
5368 952 Pls
5368 966 Pls
5828 943 Pls
5828 969 Pls
5828 992 Pls
5828 1006 Pls
6289 966 Pls
6289 1024 Pls
6289 1033 Pls
6289 1039 Pls
1685 946 Pls
1685 966 Pls
1685 1063 Pls
1685 1140 Pls
2146 895 Pls
2146 958 Pls
2146 986 Pls
2146 1093 Pls
2606 893 Pls
2606 898 Pls
2606 969 Pls
2606 1006 Pls
3066 850 Pls
3066 877 Pls
3066 900 Pls
3066 959 Pls
3527 837 Pls
3527 849 Pls
3527 877 Pls
3527 905 Pls
4447 945 Pls
4447 1029 Pls
4447 1051 Pls
4447 1101 Pls
4908 1103 Pls
4908 1150 Pls
4908 1185 Pls
4908 1217 Pls
5368 1199 Pls
5368 1308 Pls
5368 1331 Pls
5368 1355 Pls
5828 1363 Pls
5828 1450 Pls
5828 1504 Pls
5828 1555 Pls
6289 1572 Pls
6289 1593 Pls
6289 1737 Pls
6289 1792 Pls
1685 1073 Pls
1685 1131 Pls
1685 1220 Pls
1685 1414 Pls
2146 985 Pls
2146 1069 Pls
2146 1240 Pls
2146 1357 Pls
2606 1019 Pls
2606 1008 Pls
2606 1155 Pls
2606 1243 Pls
3066 970 Pls
3066 977 Pls
3066 1082 Pls
3066 1178 Pls
3527 887 Pls
3527 959 Pls
3527 992 Pls
3527 1049 Pls
4447 1465 Pls
4447 1608 Pls
4447 1603 Pls
4447 1924 Pls
4908 2012 Pls
4908 2022 Pls
4908 2220 Pls
4908 2520 Pls
5368 2524 Pls
5368 2864 Pls
5368 2977 Pls
5368 3104 Pls
5828 3026 Pls
5828 3496 Pls
5828 3553 Pls
5828 3785 Pls
6289 3652 Pls
6289 4144 Pls
6289 4205 Pls
6289 4620 Pls
1685 801 Pls
1685 802 Pls
1685 804 Pls
1685 805 Pls
2146 801 Pls
2146 801 Pls
2146 803 Pls
2146 804 Pls
2606 801 Pls
2606 801 Pls
2606 802 Pls
2606 803 Pls
3066 801 Pls
3066 801 Pls
3066 802 Pls
3066 803 Pls
3527 800 Pls
3527 801 Pls
3527 802 Pls
3527 802 Pls
4447 801 Pls
4447 801 Pls
4447 802 Pls
4447 802 Pls
4908 801 Pls
4908 802 Pls
4908 802 Pls
4908 802 Pls
5368 801 Pls
5368 802 Pls
5368 802 Pls
5368 803 Pls
5828 802 Pls
5828 802 Pls
5828 803 Pls
5828 803 Pls
6289 802 Pls
6289 803 Pls
6289 803 Pls
6289 804 Pls
1685 811 Pls
1685 814 Pls
1685 820 Pls
1685 826 Pls
2146 812 Pls
2146 812 Pls
2146 823 Pls
2146 827 Pls
2606 807 Pls
2606 810 Pls
2606 817 Pls
2606 817 Pls
3066 806 Pls
3066 809 Pls
3066 811 Pls
3066 817 Pls
3527 804 Pls
3527 808 Pls
3527 809 Pls
3527 813 Pls
4447 811 Pls
4447 815 Pls
4447 821 Pls
4447 823 Pls
4908 817 Pls
4908 821 Pls
4908 824 Pls
4908 829 Pls
5368 824 Pls
5368 827 Pls
5368 834 Pls
5368 836 Pls
5828 830 Pls
5828 835 Pls
5828 841 Pls
5828 846 Pls
6289 836 Pls
6289 844 Pls
6289 850 Pls
6289 852 Pls
1685 838 Pls
1685 857 Pls
1685 874 Pls
1685 913 Pls
2146 838 Pls
2146 849 Pls
2146 867 Pls
2146 876 Pls
2606 829 Pls
2606 834 Pls
2606 845 Pls
2606 873 Pls
3066 823 Pls
3066 825 Pls
3066 835 Pls
3066 842 Pls
3527 819 Pls
3527 824 Pls
3527 826 Pls
3527 840 Pls
4447 846 Pls
4447 867 Pls
4447 878 Pls
4447 887 Pls
4908 886 Pls
4908 896 Pls
4908 906 Pls
4908 931 Pls
5368 900 Pls
5368 939 Pls
5368 948 Pls
5368 955 Pls
5828 952 Pls
5828 957 Pls
5828 987 Pls
5828 996 Pls
6289 985 Pls
6289 1012 Pls
6289 1032 Pls
6289 1046 Pls
1685 963 Pls
1685 971 Pls
1685 1040 Pls
1685 1159 Pls
2146 919 Pls
2146 972 Pls
2146 1002 Pls
2146 1066 Pls
2606 865 Pls
2606 896 Pls
2606 970 Pls
2606 999 Pls
3066 853 Pls
3066 871 Pls
3066 897 Pls
3066 942 Pls
3527 849 Pls
3527 848 Pls
3527 882 Pls
3527 905 Pls
4447 978 Pls
4447 1016 Pls
4447 1032 Pls
4447 1101 Pls
4908 1097 Pls
4908 1129 Pls
4908 1204 Pls
4908 1234 Pls
5368 1218 Pls
5368 1289 Pls
5368 1350 Pls
5368 1395 Pls
5828 1397 Pls
5828 1444 Pls
5828 1451 Pls
5828 1525 Pls
6289 1510 Pls
6289 1619 Pls
6289 1655 Pls
6289 1718 Pls
1685 1087 Pls
1685 1104 Pls
1685 1289 Pls
1685 1436 Pls
2146 970 Pls
2146 1119 Pls
2146 1178 Pls
2146 1326 Pls
2606 945 Pls
2606 1075 Pls
2606 1150 Pls
2606 1297 Pls
3066 960 Pls
3066 1012 Pls
3066 1073 Pls
3066 1174 Pls
3527 906 Pls
3527 955 Pls
3527 999 Pls
3527 1095 Pls
4447 1421 Pls
4447 1489 Pls
4447 1746 Pls
4447 1804 Pls
4908 1943 Pls
4908 2133 Pls
4908 2306 Pls
4908 2471 Pls
5368 2397 Pls
5368 2728 Pls
5368 2866 Pls
5368 3091 Pls
5828 3276 Pls
5828 3349 Pls
5828 3717 Pls
5828 3706 Pls
6289 3878 Pls
6289 4352 Pls
6289 4383 Pls
6289 4619 Pls
1685 803 Pls
1685 802 Pls
1685 803 Pls
1685 805 Pls
2146 801 Pls
2146 802 Pls
2146 803 Pls
2146 805 Pls
2606 801 Pls
2606 801 Pls
2606 802 Pls
2606 803 Pls
3066 801 Pls
3066 801 Pls
3066 802 Pls
3066 803 Pls
3527 800 Pls
3527 801 Pls
3527 802 Pls
3527 802 Pls
4447 801 Pls
4447 801 Pls
4447 802 Pls
4447 802 Pls
4908 801 Pls
4908 802 Pls
4908 802 Pls
4908 803 Pls
5368 802 Pls
5368 802 Pls
5368 802 Pls
5368 803 Pls
5828 802 Pls
5828 802 Pls
5828 803 Pls
5828 803 Pls
6289 802 Pls
6289 803 Pls
6289 803 Pls
6289 804 Pls
1685 814 Pls
1685 817 Pls
1685 817 Pls
1685 832 Pls
2146 810 Pls
2146 814 Pls
2146 818 Pls
2146 826 Pls
2606 807 Pls
2606 811 Pls
2606 814 Pls
2606 820 Pls
3066 806 Pls
3066 809 Pls
3066 813 Pls
3066 816 Pls
3527 805 Pls
3527 807 Pls
3527 811 Pls
3527 814 Pls
4447 810 Pls
4447 813 Pls
4447 821 Pls
4447 826 Pls
4908 816 Pls
4908 822 Pls
4908 826 Pls
4908 830 Pls
5368 822 Pls
5368 830 Pls
5368 834 Pls
5368 837 Pls
5828 831 Pls
5828 838 Pls
5828 839 Pls
5828 843 Pls
6289 839 Pls
6289 844 Pls
6289 850 Pls
6289 852 Pls
1685 849 Pls
1685 856 Pls
1685 887 Pls
1685 899 Pls
2146 826 Pls
2146 843 Pls
2146 857 Pls
2146 867 Pls
2606 831 Pls
2606 830 Pls
2606 845 Pls
2606 857 Pls
3066 822 Pls
3066 824 Pls
3066 831 Pls
3066 845 Pls
3527 820 Pls
3527 821 Pls
3527 831 Pls
3527 837 Pls
4447 856 Pls
4447 860 Pls
4447 875 Pls
4447 889 Pls
4908 874 Pls
4908 898 Pls
4908 912 Pls
4908 923 Pls
5368 912 Pls
5368 935 Pls
5368 947 Pls
5368 958 Pls
5828 953 Pls
5828 968 Pls
5828 998 Pls
5828 999 Pls
6289 995 Pls
6289 1017 Pls
6289 1048 Pls
6289 1049 Pls
1685 931 Pls
1685 974 Pls
1685 1051 Pls
1685 1139 Pls
2146 914 Pls
2146 946 Pls
2146 998 Pls
2146 1065 Pls
2606 880 Pls
2606 906 Pls
2606 949 Pls
2606 998 Pls
3066 846 Pls
3066 895 Pls
3066 925 Pls
3066 952 Pls
3527 841 Pls
3527 873 Pls
3527 875 Pls
3527 908 Pls
4447 943 Pls
4447 998 Pls
4447 1033 Pls
4447 1088 Pls
4908 1093 Pls
4908 1137 Pls
4908 1149 Pls
4908 1219 Pls
5368 1164 Pls
5368 1213 Pls
5368 1344 Pls
5368 1365 Pls
5828 1346 Pls
5828 1485 Pls
5828 1521 Pls
5828 1543 Pls
6289 1495 Pls
6289 1634 Pls
6289 1653 Pls
6289 1701 Pls
1685 1090 Pls
1685 1241 Pls
1685 1341 Pls
1685 1483 Pls
2146 1030 Pls
2146 1106 Pls
2146 1213 Pls
2146 1344 Pls
2606 994 Pls
2606 1047 Pls
2606 1168 Pls
2606 1272 Pls
3066 969 Pls
3066 1020 Pls
3066 1076 Pls
3066 1183 Pls
3527 905 Pls
3527 922 Pls
3527 999 Pls
3527 1075 Pls
4447 1427 Pls
4447 1612 Pls
4447 1704 Pls
4447 1914 Pls
4908 1867 Pls
4908 2137 Pls
4908 2285 Pls
4908 2515 Pls
5368 2565 Pls
5368 2728 Pls
5368 2962 Pls
5368 3048 Pls
5828 2980 Pls
5828 3457 Pls
5828 3722 Pls
5828 3822 Pls
6289 4014 Pls
6289 4140 Pls
6289 4263 Pls
6289 4628 Pls
1685 801 Pls
1685 802 Pls
1685 804 Pls
1685 805 Pls
2146 801 Pls
2146 801 Pls
2146 803 Pls
2146 804 Pls
2606 801 Pls
2606 802 Pls
2606 802 Pls
2606 803 Pls
3066 801 Pls
3066 801 Pls
3066 802 Pls
3066 803 Pls
3527 800 Pls
3527 801 Pls
3527 802 Pls
3527 802 Pls
4447 801 Pls
4447 801 Pls
4447 802 Pls
4447 802 Pls
4908 801 Pls
4908 802 Pls
4908 802 Pls
4908 802 Pls
5368 801 Pls
5368 802 Pls
5368 803 Pls
5368 803 Pls
5828 802 Pls
5828 802 Pls
5828 803 Pls
5828 803 Pls
6289 802 Pls
6289 803 Pls
6289 803 Pls
6289 804 Pls
1685 811 Pls
1685 817 Pls
1685 821 Pls
1685 830 Pls
2146 809 Pls
2146 812 Pls
2146 818 Pls
2146 826 Pls
2606 808 Pls
2606 810 Pls
2606 816 Pls
2606 822 Pls
3066 806 Pls
3066 808 Pls
3066 812 Pls
3066 818 Pls
3527 804 Pls
3527 807 Pls
3527 809 Pls
3527 812 Pls
4447 811 Pls
4447 816 Pls
4447 819 Pls
4447 823 Pls
4908 816 Pls
4908 820 Pls
4908 825 Pls
4908 832 Pls
5368 823 Pls
5368 829 Pls
5368 832 Pls
5368 835 Pls
5828 834 Pls
5828 835 Pls
5828 841 Pls
5828 846 Pls
6289 839 Pls
6289 844 Pls
6289 849 Pls
6289 855 Pls
1685 847 Pls
1685 857 Pls
1685 880 Pls
1685 895 Pls
2146 837 Pls
2146 847 Pls
2146 869 Pls
2146 889 Pls
2606 826 Pls
2606 840 Pls
2606 844 Pls
2606 866 Pls
3066 818 Pls
3066 822 Pls
3066 828 Pls
3066 846 Pls
3527 816 Pls
3527 826 Pls
3527 828 Pls
3527 834 Pls
4447 845 Pls
4447 862 Pls
4447 882 Pls
4447 891 Pls
4908 874 Pls
4908 893 Pls
4908 914 Pls
4908 931 Pls
5368 921 Pls
5368 925 Pls
5368 951 Pls
5368 960 Pls
5828 944 Pls
5828 960 Pls
5828 977 Pls
5828 1003 Pls
6289 998 Pls
6289 1021 Pls
6289 1040 Pls
6289 1049 Pls
1685 963 Pls
1685 991 Pls
1685 1038 Pls
1685 1165 Pls
2146 881 Pls
2146 940 Pls
2146 991 Pls
2146 1033 Pls
2606 872 Pls
2606 901 Pls
2606 953 Pls
2606 1000 Pls
3066 874 Pls
3066 871 Pls
3066 912 Pls
3066 940 Pls
3527 849 Pls
3527 859 Pls
3527 876 Pls
3527 898 Pls
4447 953 Pls
4447 1008 Pls
4447 1057 Pls
4447 1081 Pls
4908 1085 Pls
4908 1150 Pls
4908 1171 Pls
4908 1233 Pls
5368 1227 Pls
5368 1283 Pls
5368 1351 Pls
5368 1351 Pls
5828 1427 Pls
5828 1442 Pls
5828 1501 Pls
5828 1520 Pls
6289 1501 Pls
6289 1663 Pls
6289 1637 Pls
6289 1758 Pls
1685 1057 Pls
1685 1139 Pls
1685 1341 Pls
1685 1503 Pls
2146 1016 Pls
2146 1118 Pls
2146 1162 Pls
2146 1401 Pls
2606 999 Pls
2606 1047 Pls
2606 1119 Pls
2606 1289 Pls
3066 955 Pls
3066 996 Pls
3066 1057 Pls
3066 1214 Pls
3527 939 Pls
3527 941 Pls
3527 985 Pls
3527 1050 Pls
4447 1381 Pls
4447 1609 Pls
4447 1667 Pls
4447 1828 Pls
4908 1796 Pls
4908 2197 Pls
4908 2323 Pls
4908 2453 Pls
5368 2669 Pls
5368 2817 Pls
5368 2948 Pls
5368 3231 Pls
5828 3296 Pls
5828 3550 Pls
5828 3740 Pls
5828 3627 Pls
6289 3798 Pls
6289 4319 Pls
6289 4370 Pls
6289 4465 Pls
1685 801 Pls
1685 803 Pls
1685 803 Pls
1685 805 Pls
2146 801 Pls
2146 801 Pls
2146 803 Pls
2146 804 Pls
2606 801 Pls
2606 802 Pls
2606 802 Pls
2606 804 Pls
3066 801 Pls
3066 801 Pls
3066 802 Pls
3066 803 Pls
3527 801 Pls
3527 801 Pls
3527 802 Pls
3527 802 Pls
4447 801 Pls
4447 801 Pls
4447 802 Pls
4447 802 Pls
4908 801 Pls
4908 802 Pls
4908 802 Pls
4908 802 Pls
5368 801 Pls
5368 802 Pls
5368 802 Pls
5368 803 Pls
5828 802 Pls
5828 802 Pls
5828 803 Pls
5828 803 Pls
6289 802 Pls
6289 803 Pls
6289 803 Pls
6289 804 Pls
1685 812 Pls
1685 816 Pls
1685 823 Pls
1685 828 Pls
2146 810 Pls
2146 815 Pls
2146 818 Pls
2146 823 Pls
2606 808 Pls
2606 811 Pls
2606 815 Pls
2606 819 Pls
3066 807 Pls
3066 808 Pls
3066 812 Pls
3066 815 Pls
3527 804 Pls
3527 807 Pls
3527 810 Pls
3527 814 Pls
4447 810 Pls
4447 814 Pls
4447 819 Pls
4447 823 Pls
4908 818 Pls
4908 821 Pls
4908 824 Pls
4908 829 Pls
5368 824 Pls
5368 828 Pls
5368 832 Pls
5368 838 Pls
5828 830 Pls
5828 833 Pls
5828 840 Pls
5828 845 Pls
6289 837 Pls
6289 845 Pls
6289 850 Pls
6289 854 Pls
1685 852 Pls
1685 856 Pls
1685 886 Pls
1685 910 Pls
2146 836 Pls
2146 844 Pls
2146 857 Pls
2146 885 Pls
2606 830 Pls
2606 836 Pls
2606 849 Pls
2606 870 Pls
3066 822 Pls
3066 830 Pls
3066 836 Pls
3066 845 Pls
3527 818 Pls
3527 823 Pls
3527 836 Pls
3527 840 Pls
4447 851 Pls
4447 865 Pls
4447 870 Pls
4447 897 Pls
4908 874 Pls
4908 880 Pls
4908 920 Pls
4908 923 Pls
5368 917 Pls
5368 937 Pls
5368 954 Pls
5368 964 Pls
5828 925 Pls
5828 960 Pls
5828 990 Pls
5828 1011 Pls
6289 1005 Pls
6289 1023 Pls
6289 1036 Pls
6289 1042 Pls
1685 944 Pls
1685 969 Pls
1685 1051 Pls
1685 1134 Pls
2146 888 Pls
2146 949 Pls
2146 977 Pls
2146 1061 Pls
2606 877 Pls
2606 898 Pls
2606 948 Pls
2606 1024 Pls
3066 861 Pls
3066 892 Pls
3066 928 Pls
3066 934 Pls
3527 843 Pls
3527 857 Pls
3527 885 Pls
3527 905 Pls
4447 930 Pls
4447 1009 Pls
4447 1046 Pls
4447 1100 Pls
4908 1072 Pls
4908 1140 Pls
4908 1177 Pls
4908 1243 Pls
5368 1190 Pls
5368 1254 Pls
5368 1339 Pls
5368 1353 Pls
5828 1370 Pls
5828 1382 Pls
5828 1509 Pls
5828 1532 Pls
6289 1410 Pls
6289 1639 Pls
6289 1658 Pls
6289 1583 Pls
1685 1088 Pls
1685 1164 Pls
1685 1295 Pls
1685 1501 Pls
2146 1012 Pls
2146 1104 Pls
2146 1294 Pls
2146 1377 Pls
2606 995 Pls
2606 1000 Pls
2606 1148 Pls
2606 1221 Pls
3066 1008 Pls
3066 1004 Pls
3066 1090 Pls
3066 1146 Pls
3527 893 Pls
3527 953 Pls
3527 1005 Pls
3527 1086 Pls
4447 1425 Pls
4447 1621 Pls
4447 1811 Pls
4447 1815 Pls
4908 1925 Pls
4908 2213 Pls
4908 2393 Pls
4908 2617 Pls
5368 2503 Pls
5368 2879 Pls
5368 2885 Pls
5368 3140 Pls
5828 3101 Pls
5828 3598 Pls
5828 3451 Pls
5828 3900 Pls
6289 3876 Pls
6289 3865 Pls
6289 4548 Pls
6289 4679 Pls
1685 801 Pls
1685 802 Pls
1685 803 Pls
1685 805 Pls
2146 801 Pls
2146 802 Pls
2146 803 Pls
2146 804 Pls
2606 801 Pls
2606 801 Pls
2606 802 Pls
2606 804 Pls
3066 801 Pls
3066 801 Pls
3066 802 Pls
3066 803 Pls
3527 801 Pls
3527 801 Pls
3527 801 Pls
3527 802 Pls
4447 801 Pls
4447 801 Pls
4447 802 Pls
4447 802 Pls
4908 801 Pls
4908 802 Pls
4908 802 Pls
4908 803 Pls
5368 802 Pls
5368 802 Pls
5368 803 Pls
5368 803 Pls
5828 802 Pls
5828 802 Pls
5828 803 Pls
5828 803 Pls
6289 802 Pls
6289 803 Pls
6289 803 Pls
6289 804 Pls
1685 812 Pls
1685 815 Pls
1685 824 Pls
1685 830 Pls
2146 812 Pls
2146 815 Pls
2146 817 Pls
2146 827 Pls
2606 807 Pls
2606 810 Pls
2606 816 Pls
2606 822 Pls
3066 806 Pls
3066 808 Pls
3066 813 Pls
3066 818 Pls
3527 805 Pls
3527 806 Pls
3527 811 Pls
3527 813 Pls
4447 811 Pls
4447 815 Pls
4447 820 Pls
4447 822 Pls
4908 820 Pls
4908 820 Pls
4908 824 Pls
4908 830 Pls
5368 822 Pls
5368 826 Pls
5368 831 Pls
5368 837 Pls
5828 830 Pls
5828 835 Pls
5828 840 Pls
5828 844 Pls
6289 836 Pls
6289 843 Pls
6289 849 Pls
6289 853 Pls
1685 860 Pls
1685 871 Pls
1685 864 Pls
1685 911 Pls
2146 831 Pls
2146 845 Pls
2146 852 Pls
2146 889 Pls
2606 827 Pls
2606 840 Pls
2606 844 Pls
2606 864 Pls
3066 820 Pls
3066 831 Pls
3066 837 Pls
3066 847 Pls
3527 812 Pls
3527 824 Pls
3527 829 Pls
3527 840 Pls
4447 840 Pls
4447 853 Pls
4447 872 Pls
4447 884 Pls
4908 881 Pls
4908 888 Pls
4908 903 Pls
4908 922 Pls
5368 910 Pls
5368 934 Pls
5368 938 Pls
5368 964 Pls
5828 940 Pls
5828 976 Pls
5828 988 Pls
5828 1009 Pls
6289 1004 Pls
6289 1016 Pls
6289 1035 Pls
6289 1057 Pls
1685 949 Pls
1685 987 Pls
1685 1046 Pls
1685 1159 Pls
2146 883 Pls
2146 946 Pls
2146 978 Pls
2146 1085 Pls
2606 894 Pls
2606 926 Pls
2606 949 Pls
2606 993 Pls
3066 880 Pls
3066 876 Pls
3066 914 Pls
3066 943 Pls
3527 842 Pls
3527 853 Pls
3527 879 Pls
3527 902 Pls
4447 952 Pls
4447 1003 Pls
4447 1057 Pls
4447 1075 Pls
4908 1076 Pls
4908 1152 Pls
4908 1147 Pls
4908 1232 Pls
5368 1224 Pls
5368 1298 Pls
5368 1331 Pls
5368 1406 Pls
5828 1333 Pls
5828 1384 Pls
5828 1507 Pls
5828 1548 Pls
6289 1504 Pls
6289 1574 Pls
6289 1672 Pls
6289 1740 Pls
1685 1080 Pls
1685 1151 Pls
1685 1269 Pls
1685 1473 Pls
2146 1041 Pls
2146 1144 Pls
2146 1194 Pls
2146 1397 Pls
2606 1002 Pls
2606 1098 Pls
2606 1130 Pls
2606 1247 Pls
3066 963 Pls
3066 982 Pls
3066 1063 Pls
3066 1191 Pls
3527 913 Pls
3527 913 Pls
3527 998 Pls
3527 1072 Pls
4447 1385 Pls
4447 1554 Pls
4447 1700 Pls
4447 1879 Pls
4908 1878 Pls
4908 2179 Pls
4908 2230 Pls
4908 2361 Pls
5368 2596 Pls
5368 2726 Pls
5368 2963 Pls
5368 3155 Pls
5828 2985 Pls
5828 3324 Pls
5828 3485 Pls
5828 3960 Pls
6289 3965 Pls
6289 4134 Pls
6289 4472 Pls
6289 4586 Pls
1685 803 Pls
1685 802 Pls
1685 804 Pls
1685 805 Pls
2146 801 Pls
2146 801 Pls
2146 803 Pls
2146 804 Pls
2606 801 Pls
2606 801 Pls
2606 802 Pls
2606 804 Pls
3066 801 Pls
3066 801 Pls
3066 802 Pls
3066 803 Pls
3527 800 Pls
3527 801 Pls
3527 802 Pls
3527 802 Pls
4447 801 Pls
4447 801 Pls
4447 802 Pls
4447 802 Pls
4908 801 Pls
4908 802 Pls
4908 802 Pls
4908 802 Pls
5368 802 Pls
5368 802 Pls
5368 802 Pls
5368 803 Pls
5828 802 Pls
5828 802 Pls
5828 803 Pls
5828 803 Pls
6289 802 Pls
6289 803 Pls
6289 803 Pls
6289 804 Pls
1685 812 Pls
1685 813 Pls
1685 821 Pls
1685 827 Pls
2146 812 Pls
2146 814 Pls
2146 817 Pls
2146 823 Pls
2606 808 Pls
2606 810 Pls
2606 815 Pls
2606 822 Pls
3066 806 Pls
3066 808 Pls
3066 811 Pls
3066 817 Pls
3527 805 Pls
3527 808 Pls
3527 811 Pls
3527 816 Pls
4447 813 Pls
4447 815 Pls
4447 818 Pls
4447 823 Pls
4908 817 Pls
4908 822 Pls
4908 824 Pls
4908 829 Pls
5368 824 Pls
5368 829 Pls
5368 834 Pls
5368 836 Pls
5828 830 Pls
5828 836 Pls
5828 838 Pls
5828 845 Pls
6289 839 Pls
6289 844 Pls
6289 849 Pls
6289 853 Pls
1685 843 Pls
1685 850 Pls
1685 877 Pls
1685 914 Pls
2146 830 Pls
2146 847 Pls
2146 866 Pls
2146 878 Pls
2606 825 Pls
2606 833 Pls
2606 842 Pls
2606 864 Pls
3066 822 Pls
3066 834 Pls
3066 840 Pls
3066 852 Pls
3527 817 Pls
3527 824 Pls
3527 830 Pls
3527 840 Pls
4447 849 Pls
4447 864 Pls
4447 875 Pls
4447 892 Pls
4908 886 Pls
4908 896 Pls
4908 920 Pls
4908 931 Pls
5368 916 Pls
5368 936 Pls
5368 950 Pls
5368 958 Pls
5828 942 Pls
5828 978 Pls
5828 982 Pls
5828 1014 Pls
6289 988 Pls
6289 1014 Pls
6289 1035 Pls
6289 1049 Pls
1685 936 Pls
1685 951 Pls
1685 1103 Pls
1685 1156 Pls
2146 890 Pls
2146 954 Pls
2146 1012 Pls
2146 1089 Pls
2606 878 Pls
2606 922 Pls
2606 949 Pls
2606 1009 Pls
3066 844 Pls
3066 909 Pls
3066 905 Pls
3066 938 Pls
3527 858 Pls
3527 861 Pls
3527 888 Pls
3527 907 Pls
4447 960 Pls
4447 993 Pls
4447 1019 Pls
4447 1066 Pls
4908 1055 Pls
4908 1167 Pls
4908 1199 Pls
4908 1222 Pls
5368 1221 Pls
5368 1289 Pls
5368 1339 Pls
5368 1418 Pls
5828 1344 Pls
5828 1394 Pls
5828 1519 Pls
5828 1527 Pls
6289 1553 Pls
6289 1628 Pls
6289 1639 Pls
6289 1749 Pls
1685 1118 Pls
1685 1135 Pls
1685 1273 Pls
1685 1456 Pls
2146 984 Pls
2146 1066 Pls
2146 1219 Pls
2146 1375 Pls
2606 1007 Pls
2606 1084 Pls
2606 1142 Pls
2606 1240 Pls
3066 945 Pls
3066 1004 Pls
3066 1086 Pls
3066 1123 Pls
3527 954 Pls
3527 996 Pls
3527 1020 Pls
3527 1064 Pls
4447 1487 Pls
4447 1627 Pls
4447 1812 Pls
4447 1875 Pls
4908 1912 Pls
4908 2225 Pls
4908 2094 Pls
4908 2430 Pls
5368 2548 Pls
5368 2389 Pls
5368 3053 Pls
5368 3292 Pls
5828 3229 Pls
5828 3568 Pls
5828 3561 Pls
5828 3978 Pls
6289 3841 Pls
6289 4140 Pls
6289 4469 Pls
6289 4724 Pls
1685 801 Pls
1685 804 Pls
1685 804 Pls
1685 805 Pls
2146 801 Pls
2146 802 Pls
2146 803 Pls
2146 804 Pls
2606 801 Pls
2606 801 Pls
2606 802 Pls
2606 804 Pls
3066 801 Pls
3066 801 Pls
3066 802 Pls
3066 803 Pls
3527 801 Pls
3527 801 Pls
3527 802 Pls
3527 802 Pls
4447 801 Pls
4447 801 Pls
4447 802 Pls
4447 802 Pls
4908 801 Pls
4908 802 Pls
4908 802 Pls
4908 802 Pls
5368 801 Pls
5368 802 Pls
5368 803 Pls
5368 803 Pls
5828 802 Pls
5828 802 Pls
5828 803 Pls
5828 803 Pls
6289 802 Pls
6289 803 Pls
6289 803 Pls
6289 804 Pls
1685 812 Pls
1685 817 Pls
1685 823 Pls
1685 826 Pls
2146 811 Pls
2146 814 Pls
2146 818 Pls
2146 824 Pls
2606 807 Pls
2606 812 Pls
2606 813 Pls
2606 821 Pls
3066 806 Pls
3066 808 Pls
3066 812 Pls
3066 818 Pls
3527 804 Pls
3527 807 Pls
3527 810 Pls
3527 813 Pls
4447 811 Pls
4447 814 Pls
4447 819 Pls
4447 823 Pls
4908 817 Pls
4908 821 Pls
4908 824 Pls
4908 830 Pls
5368 823 Pls
5368 828 Pls
5368 832 Pls
5368 839 Pls
5828 827 Pls
5828 838 Pls
5828 840 Pls
5828 844 Pls
6289 835 Pls
6289 842 Pls
6289 846 Pls
6289 853 Pls
1685 838 Pls
1685 856 Pls
1685 888 Pls
1685 903 Pls
2146 838 Pls
2146 847 Pls
2146 859 Pls
2146 880 Pls
2606 830 Pls
2606 842 Pls
2606 848 Pls
2606 861 Pls
3066 822 Pls
3066 825 Pls
3066 838 Pls
3066 846 Pls
3527 819 Pls
3527 820 Pls
3527 826 Pls
3527 844 Pls
4447 849 Pls
4447 864 Pls
4447 881 Pls
4447 895 Pls
4908 875 Pls
4908 894 Pls
4908 915 Pls
4908 928 Pls
5368 908 Pls
5368 934 Pls
5368 939 Pls
5368 951 Pls
5828 947 Pls
5828 968 Pls
5828 997 Pls
5828 998 Pls
6289 995 Pls
6289 996 Pls
6289 1042 Pls
6289 1050 Pls
1685 969 Pls
1685 982 Pls
1685 1047 Pls
1685 1136 Pls
2146 913 Pls
2146 945 Pls
2146 998 Pls
2146 1100 Pls
2606 873 Pls
2606 905 Pls
2606 975 Pls
2606 991 Pls
3066 867 Pls
3066 891 Pls
3066 908 Pls
3066 938 Pls
3527 848 Pls
3527 869 Pls
3527 872 Pls
3527 905 Pls
4447 982 Pls
4447 1000 Pls
4447 1018 Pls
4447 1047 Pls
4908 1037 Pls
4908 1149 Pls
4908 1228 Pls
4908 1231 Pls
5368 1219 Pls
5368 1262 Pls
5368 1341 Pls
5368 1349 Pls
5828 1395 Pls
5828 1428 Pls
5828 1502 Pls
5828 1508 Pls
6289 1547 Pls
6289 1640 Pls
6289 1628 Pls
6289 1734 Pls
1685 1068 Pls
1685 1167 Pls
1685 1264 Pls
1685 1493 Pls
2146 1005 Pls
2146 1083 Pls
2146 1157 Pls
2146 1401 Pls
2606 960 Pls
2606 1052 Pls
2606 1154 Pls
2606 1267 Pls
3066 951 Pls
3066 1021 Pls
3066 1078 Pls
3066 1177 Pls
3527 931 Pls
3527 926 Pls
3527 997 Pls
3527 1058 Pls
4447 1400 Pls
4447 1578 Pls
4447 1750 Pls
4447 1869 Pls
4908 1791 Pls
4908 2056 Pls
4908 2321 Pls
4908 2337 Pls
5368 2605 Pls
5368 2817 Pls
5368 3080 Pls
5368 2985 Pls
5828 3102 Pls
5828 3287 Pls
5828 3802 Pls
5828 3790 Pls
6289 3860 Pls
6289 4246 Pls
6289 4155 Pls
6289 4553 Pls
1685 801 Pls
1685 802 Pls
1685 803 Pls
1685 805 Pls
2146 801 Pls
2146 802 Pls
2146 803 Pls
2146 804 Pls
2606 801 Pls
2606 801 Pls
2606 802 Pls
2606 804 Pls
3066 801 Pls
3066 801 Pls
3066 802 Pls
3066 803 Pls
3527 801 Pls
3527 801 Pls
3527 801 Pls
3527 802 Pls
4447 801 Pls
4447 801 Pls
4447 802 Pls
4447 802 Pls
4908 801 Pls
4908 802 Pls
4908 802 Pls
4908 802 Pls
5368 802 Pls
5368 802 Pls
5368 802 Pls
5368 803 Pls
5828 802 Pls
5828 802 Pls
5828 803 Pls
5828 803 Pls
6289 802 Pls
6289 803 Pls
6289 803 Pls
6289 804 Pls
1685 812 Pls
1685 813 Pls
1685 818 Pls
1685 825 Pls
2146 807 Pls
2146 811 Pls
2146 816 Pls
2146 823 Pls
2606 810 Pls
2606 811 Pls
2606 818 Pls
2606 819 Pls
3066 806 Pls
3066 808 Pls
3066 811 Pls
3066 819 Pls
3527 805 Pls
3527 807 Pls
3527 809 Pls
3527 814 Pls
4447 812 Pls
4447 818 Pls
4447 818 Pls
4447 824 Pls
4908 816 Pls
4908 822 Pls
4908 827 Pls
4908 830 Pls
5368 823 Pls
5368 831 Pls
5368 833 Pls
5368 838 Pls
5828 829 Pls
5828 835 Pls
5828 842 Pls
5828 843 Pls
6289 839 Pls
6289 845 Pls
6289 848 Pls
6289 852 Pls
1685 852 Pls
1685 869 Pls
1685 885 Pls
1685 901 Pls
2146 839 Pls
2146 841 Pls
2146 855 Pls
2146 888 Pls
2606 829 Pls
2606 838 Pls
2606 843 Pls
2606 873 Pls
3066 819 Pls
3066 831 Pls
3066 839 Pls
3066 858 Pls
3527 818 Pls
3527 822 Pls
3527 833 Pls
3527 843 Pls
4447 847 Pls
4447 865 Pls
4447 878 Pls
4447 888 Pls
4908 879 Pls
4908 899 Pls
4908 902 Pls
4908 922 Pls
5368 907 Pls
5368 934 Pls
5368 951 Pls
5368 965 Pls
5828 957 Pls
5828 976 Pls
5828 986 Pls
5828 1013 Pls
6289 999 Pls
6289 1016 Pls
6289 1033 Pls
6289 1060 Pls
1685 936 Pls
1685 1005 Pls
1685 1053 Pls
1685 1089 Pls
2146 898 Pls
2146 991 Pls
2146 997 Pls
2146 1045 Pls
2606 879 Pls
2606 897 Pls
2606 961 Pls
2606 1015 Pls
3066 862 Pls
3066 875 Pls
3066 918 Pls
3066 938 Pls
3527 850 Pls
3527 868 Pls
3527 871 Pls
3527 911 Pls
4447 951 Pls
4447 986 Pls
4447 1032 Pls
4447 1068 Pls
4908 1068 Pls
4908 1138 Pls
4908 1175 Pls
4908 1196 Pls
5368 1220 Pls
5368 1258 Pls
5368 1326 Pls
5368 1329 Pls
5828 1333 Pls
5828 1424 Pls
5828 1509 Pls
5828 1513 Pls
6289 1509 Pls
6289 1618 Pls
6289 1683 Pls
6289 1713 Pls
1685 1093 Pls
1685 1141 Pls
1685 1388 Pls
1685 1451 Pls
2146 1055 Pls
2146 1094 Pls
2146 1235 Pls
2146 1393 Pls
2606 1078 Pls
2606 1024 Pls
2606 1117 Pls
2606 1281 Pls
3066 963 Pls
3066 1025 Pls
3066 1078 Pls
3066 1162 Pls
3527 899 Pls
3527 975 Pls
3527 1017 Pls
3527 1056 Pls
4447 1389 Pls
4447 1598 Pls
4447 1689 Pls
4447 1862 Pls
4908 1891 Pls
4908 2112 Pls
4908 2285 Pls
4908 2473 Pls
5368 2610 Pls
5368 2834 Pls
5368 3033 Pls
5368 3137 Pls
5828 3022 Pls
5828 3556 Pls
5828 3600 Pls
5828 3755 Pls
6289 3735 Pls
6289 4268 Pls
6289 4452 Pls
6289 4540 Pls
1685 801 Pls
1685 802 Pls
1685 803 Pls
1685 805 Pls
2146 801 Pls
2146 802 Pls
2146 803 Pls
2146 804 Pls
2606 801 Pls
2606 801 Pls
2606 802 Pls
2606 803 Pls
3066 801 Pls
3066 801 Pls
3066 802 Pls
3066 803 Pls
3527 801 Pls
3527 801 Pls
3527 802 Pls
3527 802 Pls
4447 801 Pls
4447 801 Pls
4447 802 Pls
4447 802 Pls
4908 801 Pls
4908 802 Pls
4908 802 Pls
4908 802 Pls
5368 802 Pls
5368 802 Pls
5368 803 Pls
5368 803 Pls
5828 802 Pls
5828 802 Pls
5828 803 Pls
5828 803 Pls
6289 802 Pls
6289 803 Pls
6289 803 Pls
6289 804 Pls
1685 812 Pls
1685 813 Pls
1685 823 Pls
1685 828 Pls
2146 811 Pls
2146 814 Pls
2146 818 Pls
2146 824 Pls
2606 807 Pls
2606 811 Pls
2606 817 Pls
2606 819 Pls
3066 807 Pls
3066 809 Pls
3066 812 Pls
3066 817 Pls
3527 804 Pls
3527 808 Pls
3527 813 Pls
3527 813 Pls
4447 810 Pls
4447 815 Pls
4447 820 Pls
4447 823 Pls
4908 816 Pls
4908 822 Pls
4908 827 Pls
4908 828 Pls
5368 822 Pls
5368 827 Pls
5368 832 Pls
5368 835 Pls
5828 829 Pls
5828 836 Pls
5828 840 Pls
5828 844 Pls
6289 836 Pls
6289 845 Pls
6289 847 Pls
6289 852 Pls
1685 851 Pls
1685 859 Pls
1685 889 Pls
1685 887 Pls
2146 831 Pls
2146 849 Pls
2146 877 Pls
2146 880 Pls
2606 824 Pls
2606 829 Pls
2606 843 Pls
2606 857 Pls
3066 823 Pls
3066 822 Pls
3066 837 Pls
3066 851 Pls
3527 818 Pls
3527 822 Pls
3527 825 Pls
3527 844 Pls
4447 847 Pls
4447 857 Pls
4447 874 Pls
4447 890 Pls
4908 894 Pls
4908 899 Pls
4908 915 Pls
4908 930 Pls
5368 908 Pls
5368 932 Pls
5368 945 Pls
5368 956 Pls
5828 958 Pls
5828 958 Pls
5828 997 Pls
5828 1001 Pls
6289 987 Pls
6289 1013 Pls
6289 1032 Pls
6289 1058 Pls
1685 927 Pls
1685 965 Pls
1685 1072 Pls
1685 1163 Pls
2146 909 Pls
2146 896 Pls
2146 1010 Pls
2146 1060 Pls
2606 893 Pls
2606 931 Pls
2606 971 Pls
2606 1010 Pls
3066 862 Pls
3066 873 Pls
3066 927 Pls
3066 952 Pls
3527 842 Pls
3527 858 Pls
3527 889 Pls
3527 902 Pls
4447 946 Pls
4447 1017 Pls
4447 1034 Pls
4447 1104 Pls
4908 1053 Pls
4908 1132 Pls
4908 1162 Pls
4908 1234 Pls
5368 1211 Pls
5368 1252 Pls
5368 1340 Pls
5368 1383 Pls
5828 1296 Pls
5828 1460 Pls
5828 1509 Pls
5828 1514 Pls
6289 1446 Pls
6289 1629 Pls
6289 1677 Pls
6289 1716 Pls
1685 1008 Pls
1685 1129 Pls
1685 1314 Pls
1685 1482 Pls
2146 1068 Pls
2146 1144 Pls
2146 1193 Pls
2146 1377 Pls
2606 1018 Pls
2606 1067 Pls
2606 1084 Pls
2606 1258 Pls
3066 909 Pls
3066 1013 Pls
3066 1072 Pls
3066 1182 Pls
3527 963 Pls
3527 987 Pls
3527 990 Pls
3527 1053 Pls
4447 1462 Pls
4447 1518 Pls
4447 1645 Pls
4447 1835 Pls
4908 1852 Pls
4908 2103 Pls
4908 2328 Pls
4908 2604 Pls
5368 2370 Pls
5368 2843 Pls
5368 3027 Pls
5368 3210 Pls
5828 3067 Pls
5828 3525 Pls
5828 3687 Pls
5828 3863 Pls
6289 3431 Pls
6289 4041 Pls
6289 4233 Pls
6289 4715 Pls
1685 801 Pls
1685 804 Pls
1685 803 Pls
1685 805 Pls
2146 801 Pls
2146 802 Pls
2146 803 Pls
2146 804 Pls
2606 801 Pls
2606 801 Pls
2606 802 Pls
2606 803 Pls
3066 801 Pls
3066 801 Pls
3066 802 Pls
3066 803 Pls
3527 801 Pls
3527 801 Pls
3527 802 Pls
3527 802 Pls
4447 801 Pls
4447 801 Pls
4447 802 Pls
4447 802 Pls
4908 801 Pls
4908 801 Pls
4908 802 Pls
4908 802 Pls
5368 801 Pls
5368 802 Pls
5368 802 Pls
5368 803 Pls
5828 802 Pls
5828 802 Pls
5828 803 Pls
5828 803 Pls
6289 802 Pls
6289 803 Pls
6289 803 Pls
6289 804 Pls
1685 814 Pls
1685 816 Pls
1685 823 Pls
1685 828 Pls
2146 809 Pls
2146 814 Pls
2146 819 Pls
2146 826 Pls
2606 808 Pls
2606 812 Pls
2606 813 Pls
2606 821 Pls
3066 806 Pls
3066 810 Pls
3066 814 Pls
3066 816 Pls
3527 805 Pls
3527 806 Pls
3527 810 Pls
3527 815 Pls
4447 810 Pls
4447 814 Pls
4447 821 Pls
4447 821 Pls
4908 814 Pls
4908 821 Pls
4908 826 Pls
4908 829 Pls
5368 824 Pls
5368 829 Pls
5368 833 Pls
5368 835 Pls
5828 829 Pls
5828 837 Pls
5828 844 Pls
5828 846 Pls
6289 839 Pls
6289 843 Pls
6289 849 Pls
6289 853 Pls
1685 850 Pls
1685 845 Pls
1685 880 Pls
1685 911 Pls
2146 833 Pls
2146 842 Pls
2146 867 Pls
2146 889 Pls
2606 826 Pls
2606 835 Pls
2606 851 Pls
2606 865 Pls
3066 823 Pls
3066 829 Pls
3066 838 Pls
3066 853 Pls
3527 816 Pls
3527 825 Pls
3527 830 Pls
3527 841 Pls
4447 855 Pls
4447 875 Pls
4447 873 Pls
4447 892 Pls
4908 880 Pls
4908 897 Pls
4908 912 Pls
4908 920 Pls
5368 917 Pls
5368 935 Pls
5368 939 Pls
5368 968 Pls
5828 952 Pls
5828 980 Pls
5828 988 Pls
5828 1007 Pls
6289 979 Pls
6289 1026 Pls
6289 1037 Pls
6289 1059 Pls
1685 960 Pls
1685 989 Pls
1685 1032 Pls
1685 1164 Pls
2146 904 Pls
2146 922 Pls
2146 973 Pls
2146 1083 Pls
2606 863 Pls
2606 883 Pls
2606 956 Pls
2606 1003 Pls
3066 862 Pls
3066 875 Pls
3066 919 Pls
3066 936 Pls
3527 849 Pls
3527 865 Pls
3527 880 Pls
3527 908 Pls
4447 966 Pls
4447 1018 Pls
4447 1051 Pls
4447 1065 Pls
4908 1094 Pls
4908 1155 Pls
4908 1196 Pls
4908 1212 Pls
5368 1210 Pls
5368 1265 Pls
5368 1338 Pls
5368 1366 Pls
5828 1391 Pls
5828 1467 Pls
5828 1476 Pls
5828 1542 Pls
6289 1562 Pls
6289 1596 Pls
6289 1676 Pls
6289 1583 Pls
1685 1101 Pls
1685 1180 Pls
1685 1290 Pls
1685 1408 Pls
2146 982 Pls
2146 1166 Pls
2146 1276 Pls
2146 1336 Pls
2606 972 Pls
2606 1043 Pls
2606 1177 Pls
2606 1263 Pls
3066 1004 Pls
3066 964 Pls
3066 1080 Pls
3066 1185 Pls
3527 926 Pls
3527 913 Pls
3527 1015 Pls
3527 1070 Pls
4447 1362 Pls
4447 1554 Pls
4447 1774 Pls
4447 1821 Pls
4908 1911 Pls
4908 2109 Pls
4908 2348 Pls
4908 2491 Pls
5368 2467 Pls
5368 2875 Pls
5368 3047 Pls
5368 3149 Pls
5828 3039 Pls
5828 3341 Pls
5828 3745 Pls
5828 3813 Pls
6289 3918 Pls
6289 4369 Pls
6289 4182 Pls
6289 4642 Pls
1685 801 Pls
1685 802 Pls
1685 803 Pls
1685 805 Pls
2146 801 Pls
2146 802 Pls
2146 803 Pls
2146 804 Pls
2606 801 Pls
2606 801 Pls
2606 802 Pls
2606 803 Pls
3066 801 Pls
3066 801 Pls
3066 802 Pls
3066 803 Pls
3527 800 Pls
3527 801 Pls
3527 802 Pls
3527 802 Pls
4447 801 Pls
4447 801 Pls
4447 802 Pls
4447 802 Pls
4908 801 Pls
4908 802 Pls
4908 802 Pls
4908 802 Pls
5368 801 Pls
5368 802 Pls
5368 802 Pls
5368 803 Pls
5828 802 Pls
5828 802 Pls
5828 803 Pls
5828 803 Pls
6289 802 Pls
6289 802 Pls
6289 803 Pls
6289 804 Pls
1685 815 Pls
1685 815 Pls
1685 826 Pls
1685 829 Pls
2146 810 Pls
2146 813 Pls
2146 820 Pls
2146 824 Pls
2606 808 Pls
2606 810 Pls
2606 815 Pls
2606 819 Pls
3066 806 Pls
3066 808 Pls
3066 813 Pls
3066 818 Pls
3527 805 Pls
3527 807 Pls
3527 809 Pls
3527 815 Pls
4447 811 Pls
4447 816 Pls
4447 820 Pls
4447 822 Pls
4908 817 Pls
4908 820 Pls
4908 826 Pls
4908 831 Pls
5368 825 Pls
5368 827 Pls
5368 832 Pls
5368 836 Pls
5828 830 Pls
5828 836 Pls
5828 839 Pls
5828 847 Pls
6289 835 Pls
6289 845 Pls
6289 849 Pls
6289 856 Pls
1685 839 Pls
1685 857 Pls
1685 883 Pls
1685 908 Pls
2146 838 Pls
2146 850 Pls
2146 861 Pls
2146 880 Pls
2606 828 Pls
2606 840 Pls
2606 845 Pls
2606 859 Pls
3066 819 Pls
3066 829 Pls
3066 835 Pls
3066 855 Pls
3527 818 Pls
3527 821 Pls
3527 832 Pls
3527 838 Pls
4447 844 Pls
4447 865 Pls
4447 878 Pls
4447 889 Pls
4908 877 Pls
4908 897 Pls
4908 909 Pls
4908 927 Pls
5368 913 Pls
5368 926 Pls
5368 952 Pls
5368 959 Pls
5828 951 Pls
5828 974 Pls
5828 988 Pls
5828 1002 Pls
6289 983 Pls
6289 1021 Pls
6289 1041 Pls
6289 1044 Pls
1685 927 Pls
1685 980 Pls
1685 1060 Pls
1685 1132 Pls
2146 953 Pls
2146 935 Pls
2146 998 Pls
2146 1086 Pls
2606 908 Pls
2606 901 Pls
2606 952 Pls
2606 1029 Pls
3066 850 Pls
3066 873 Pls
3066 914 Pls
3066 935 Pls
3527 852 Pls
3527 839 Pls
3527 869 Pls
3527 897 Pls
4447 968 Pls
4447 1017 Pls
4447 1067 Pls
4447 1086 Pls
4908 1098 Pls
4908 1147 Pls
4908 1210 Pls
4908 1239 Pls
5368 1186 Pls
5368 1244 Pls
5368 1333 Pls
5368 1336 Pls
5828 1347 Pls
5828 1391 Pls
5828 1455 Pls
5828 1557 Pls
6289 1538 Pls
6289 1482 Pls
6289 1680 Pls
6289 1666 Pls
1685 1072 Pls
1685 1168 Pls
1685 1331 Pls
1685 1437 Pls
2146 1051 Pls
2146 1081 Pls
2146 1171 Pls
2146 1333 Pls
2606 979 Pls
2606 1048 Pls
2606 1129 Pls
2606 1277 Pls
3066 960 Pls
3066 985 Pls
3066 1075 Pls
3066 1136 Pls
3527 912 Pls
3527 898 Pls
3527 1037 Pls
3527 1065 Pls
4447 1464 Pls
4447 1556 Pls
4447 1705 Pls
4447 1852 Pls
4908 1827 Pls
4908 2204 Pls
4908 2258 Pls
4908 2497 Pls
5368 2543 Pls
5368 2886 Pls
5368 3071 Pls
5368 2888 Pls
5828 3149 Pls
5828 3401 Pls
5828 3667 Pls
5828 3826 Pls
6289 3561 Pls
6289 4122 Pls
6289 4455 Pls
6289 4354 Pls
1685 801 Pls
1685 802 Pls
1685 803 Pls
1685 805 Pls
2146 801 Pls
2146 802 Pls
2146 803 Pls
2146 805 Pls
2606 801 Pls
2606 802 Pls
2606 802 Pls
2606 804 Pls
3066 801 Pls
3066 801 Pls
3066 802 Pls
3066 803 Pls
3527 801 Pls
3527 801 Pls
3527 801 Pls
3527 802 Pls
4447 801 Pls
4447 801 Pls
4447 802 Pls
4447 802 Pls
4908 801 Pls
4908 802 Pls
4908 802 Pls
4908 802 Pls
5368 801 Pls
5368 802 Pls
5368 803 Pls
5368 803 Pls
5828 802 Pls
5828 802 Pls
5828 803 Pls
5828 803 Pls
6289 802 Pls
6289 803 Pls
6289 803 Pls
6289 804 Pls
1685 816 Pls
1685 817 Pls
1685 822 Pls
1685 827 Pls
2146 809 Pls
2146 815 Pls
2146 820 Pls
2146 825 Pls
2606 807 Pls
2606 812 Pls
2606 814 Pls
2606 820 Pls
3066 805 Pls
3066 809 Pls
3066 812 Pls
3066 816 Pls
3527 805 Pls
3527 807 Pls
3527 811 Pls
3527 814 Pls
4447 810 Pls
4447 814 Pls
4447 822 Pls
4447 824 Pls
4908 817 Pls
4908 824 Pls
4908 824 Pls
4908 829 Pls
5368 824 Pls
5368 828 Pls
5368 833 Pls
5368 837 Pls
5828 829 Pls
5828 836 Pls
5828 841 Pls
5828 845 Pls
6289 840 Pls
6289 847 Pls
6289 849 Pls
6289 852 Pls
1685 842 Pls
1685 866 Pls
1685 878 Pls
1685 907 Pls
2146 838 Pls
2146 845 Pls
2146 855 Pls
2146 871 Pls
2606 829 Pls
2606 832 Pls
2606 852 Pls
2606 863 Pls
3066 814 Pls
3066 830 Pls
3066 832 Pls
3066 850 Pls
3527 814 Pls
3527 829 Pls
3527 829 Pls
3527 841 Pls
4447 845 Pls
4447 863 Pls
4447 876 Pls
4447 890 Pls
4908 871 Pls
4908 891 Pls
4908 907 Pls
4908 922 Pls
5368 899 Pls
5368 940 Pls
5368 951 Pls
5368 967 Pls
5828 953 Pls
5828 974 Pls
5828 995 Pls
5828 1014 Pls
6289 999 Pls
6289 1026 Pls
6289 1029 Pls
6289 1048 Pls
1685 955 Pls
1685 971 Pls
1685 1048 Pls
1685 1160 Pls
2146 901 Pls
2146 938 Pls
2146 1010 Pls
2146 1067 Pls
2606 888 Pls
2606 907 Pls
2606 931 Pls
2606 994 Pls
3066 854 Pls
3066 873 Pls
3066 921 Pls
3066 944 Pls
3527 839 Pls
3527 852 Pls
3527 873 Pls
3527 893 Pls
4447 950 Pls
4447 1028 Pls
4447 1081 Pls
4447 1083 Pls
4908 1059 Pls
4908 1131 Pls
4908 1199 Pls
4908 1277 Pls
5368 1172 Pls
5368 1269 Pls
5368 1314 Pls
5368 1424 Pls
5828 1352 Pls
5828 1406 Pls
5828 1431 Pls
5828 1555 Pls
6289 1481 Pls
6289 1629 Pls
6289 1648 Pls
6289 1721 Pls
1685 1097 Pls
1685 1196 Pls
1685 1292 Pls
1685 1433 Pls
2146 1032 Pls
2146 1088 Pls
2146 1145 Pls
2146 1367 Pls
2606 996 Pls
2606 1021 Pls
2606 1165 Pls
2606 1209 Pls
3066 952 Pls
3066 988 Pls
3066 1047 Pls
3066 1207 Pls
3527 933 Pls
3527 982 Pls
3527 1023 Pls
3527 1051 Pls
4447 1429 Pls
4447 1547 Pls
4447 1847 Pls
4447 1975 Pls
4908 1985 Pls
4908 2135 Pls
4908 2331 Pls
4908 2438 Pls
5368 2190 Pls
5368 2835 Pls
5368 2944 Pls
5368 3143 Pls
5828 3101 Pls
5828 3414 Pls
5828 3698 Pls
5828 3934 Pls
6289 3953 Pls
6289 4217 Pls
6289 4536 Pls
6289 4683 Pls
% End plot #1
% Begin plot #2
8.000 UL
LT1
LCb setrgbcolor
2425 4551 M
[ [(Helvetica) 250.0 0.0 true true 0 (Average)]
] -83.3 MRshow
LT1
2575 4551 M
663 0 V
1685 955 M
461 -30 V
460 -23 V
460 -24 V
461 -20 V
920 173 V
461 146 V
460 164 V
460 174 V
461 190 V
% End plot #2
% Begin plot #3
stroke
4.000 UL
LT2
LCb setrgbcolor
2425 4301 M
[ [(Helvetica) 250.0 0.0 true true 0 (Min)]
] -83.3 MRshow
LT2
2575 4301 M
663 0 V
1685 801 M
461 0 V
460 0 V
460 0 V
461 -1 V
920 1 V
461 0 V
460 0 V
460 1 V
461 0 V
% End plot #3
% Begin plot #4
stroke
LT3
LCb setrgbcolor
2425 4051 M
[ [(Helvetica) 250.0 0.0 true true 0 (Max)]
] -83.3 MRshow
LT3
2575 4051 M
663 0 V
1685 1503 M
461 -102 V
460 -104 V
460 -83 V
461 -119 V
920 880 V
461 642 V
460 675 V
460 686 V
461 746 V
% End plot #4
stroke
1.000 UL
LTb
1225 4739 N
0 -3939 V
5524 0 V
0 3939 V
-5524 0 V
Z stroke
1.000 UP
1.000 UL
LTb
stroke
grestore
end
showpage
%%Trailer
%%DocumentFonts: Helvetica
