%!PS-Adobe-2.0 EPSF-2.0
%%Title: n_noise_ratio-precision.eps
%%Creator: gnuplot 4.4 patchlevel 3
%%CreationDate: Fri Jun 14 19:20:04 2013
%%DocumentFonts: (atend)
%%BoundingBox: 50 50 410 302
%%EndComments
%%BeginProlog
/gnudict 256 dict def
gnudict begin
%
% The following true/false flags may be edited by hand if desired.
% The unit line width and grayscale image gamma correction may also be changed.
%
/Color true def
/Blacktext false def
/Solid false def
/Dashlength 1 def
/Landscape false def
/Level1 false def
/Rounded false def
/ClipToBoundingBox false def
/TransparentPatterns false def
/gnulinewidth 5.000 def
/userlinewidth gnulinewidth def
/Gamma 1.0 def
%
/vshift -83 def
/dl1 {
  10.0 Dashlength mul mul
  Rounded { currentlinewidth 0.75 mul sub dup 0 le { pop 0.01 } if } if
} def
/dl2 {
  10.0 Dashlength mul mul
  Rounded { currentlinewidth 0.75 mul add } if
} def
/hpt_ 31.5 def
/vpt_ 31.5 def
/hpt hpt_ def
/vpt vpt_ def
Level1 {} {
/SDict 10 dict def
systemdict /pdfmark known not {
  userdict /pdfmark systemdict /cleartomark get put
} if
SDict begin [
  /Title (n_noise_ratio-precision.eps)
  /Subject (gnuplot plot)
  /Creator (gnuplot 4.4 patchlevel 3)
  /Author (xjia)
%  /Producer (gnuplot)
%  /Keywords ()
  /CreationDate (Fri Jun 14 19:20:04 2013)
  /DOCINFO pdfmark
end
} ifelse
/doclip {
  ClipToBoundingBox {
    newpath 50 50 moveto 410 50 lineto 410 302 lineto 50 302 lineto closepath
    clip
  } if
} def
%
% Gnuplot Prolog Version 4.4 (August 2010)
%
%/SuppressPDFMark true def
%
/M {moveto} bind def
/L {lineto} bind def
/R {rmoveto} bind def
/V {rlineto} bind def
/N {newpath moveto} bind def
/Z {closepath} bind def
/C {setrgbcolor} bind def
/f {rlineto fill} bind def
/g {setgray} bind def
/Gshow {show} def   % May be redefined later in the file to support UTF-8
/vpt2 vpt 2 mul def
/hpt2 hpt 2 mul def
/Lshow {currentpoint stroke M 0 vshift R 
	Blacktext {gsave 0 setgray show grestore} {show} ifelse} def
/Rshow {currentpoint stroke M dup stringwidth pop neg vshift R
	Blacktext {gsave 0 setgray show grestore} {show} ifelse} def
/Cshow {currentpoint stroke M dup stringwidth pop -2 div vshift R 
	Blacktext {gsave 0 setgray show grestore} {show} ifelse} def
/UP {dup vpt_ mul /vpt exch def hpt_ mul /hpt exch def
  /hpt2 hpt 2 mul def /vpt2 vpt 2 mul def} def
/DL {Color {setrgbcolor Solid {pop []} if 0 setdash}
 {pop pop pop 0 setgray Solid {pop []} if 0 setdash} ifelse} def
/BL {stroke userlinewidth 2 mul setlinewidth
	Rounded {1 setlinejoin 1 setlinecap} if} def
/AL {stroke userlinewidth 2 div setlinewidth
	Rounded {1 setlinejoin 1 setlinecap} if} def
/UL {dup gnulinewidth mul /userlinewidth exch def
	dup 1 lt {pop 1} if 10 mul /udl exch def} def
/PL {stroke userlinewidth setlinewidth
	Rounded {1 setlinejoin 1 setlinecap} if} def
3.8 setmiterlimit
% Default Line colors
/LCw {1 1 1} def
/LCb {0 0 0} def
/LCa {0 0 0} def
/LC0 {1 0 0} def
/LC1 {0 1 0} def
/LC2 {0 0 1} def
/LC3 {1 0 1} def
/LC4 {0 1 1} def
/LC5 {1 1 0} def
/LC6 {0 0 0} def
/LC7 {1 0.3 0} def
/LC8 {0.5 0.5 0.5} def
% Default Line Types
/LTw {PL [] 1 setgray} def
/LTb {BL [] LCb DL} def
/LTa {AL [1 udl mul 2 udl mul] 0 setdash LCa setrgbcolor} def
/LT0 {PL [] LC0 DL} def
/LT1 {PL [4 dl1 2 dl2] LC1 DL} def
/LT2 {PL [2 dl1 3 dl2] LC2 DL} def
/LT3 {PL [1 dl1 1.5 dl2] LC3 DL} def
/LT4 {PL [6 dl1 2 dl2 1 dl1 2 dl2] LC4 DL} def
/LT5 {PL [3 dl1 3 dl2 1 dl1 3 dl2] LC5 DL} def
/LT6 {PL [2 dl1 2 dl2 2 dl1 6 dl2] LC6 DL} def
/LT7 {PL [1 dl1 2 dl2 6 dl1 2 dl2 1 dl1 2 dl2] LC7 DL} def
/LT8 {PL [2 dl1 2 dl2 2 dl1 2 dl2 2 dl1 2 dl2 2 dl1 4 dl2] LC8 DL} def
/Pnt {stroke [] 0 setdash gsave 1 setlinecap M 0 0 V stroke grestore} def
/Dia {stroke [] 0 setdash 2 copy vpt add M
  hpt neg vpt neg V hpt vpt neg V
  hpt vpt V hpt neg vpt V closepath stroke
  Pnt} def
/Pls {stroke [] 0 setdash vpt sub M 0 vpt2 V
  currentpoint stroke M
  hpt neg vpt neg R hpt2 0 V stroke
 } def
/Box {stroke [] 0 setdash 2 copy exch hpt sub exch vpt add M
  0 vpt2 neg V hpt2 0 V 0 vpt2 V
  hpt2 neg 0 V closepath stroke
  Pnt} def
/Crs {stroke [] 0 setdash exch hpt sub exch vpt add M
  hpt2 vpt2 neg V currentpoint stroke M
  hpt2 neg 0 R hpt2 vpt2 V stroke} def
/TriU {stroke [] 0 setdash 2 copy vpt 1.12 mul add M
  hpt neg vpt -1.62 mul V
  hpt 2 mul 0 V
  hpt neg vpt 1.62 mul V closepath stroke
  Pnt} def
/Star {2 copy Pls Crs} def
/BoxF {stroke [] 0 setdash exch hpt sub exch vpt add M
  0 vpt2 neg V hpt2 0 V 0 vpt2 V
  hpt2 neg 0 V closepath fill} def
/TriUF {stroke [] 0 setdash vpt 1.12 mul add M
  hpt neg vpt -1.62 mul V
  hpt 2 mul 0 V
  hpt neg vpt 1.62 mul V closepath fill} def
/TriD {stroke [] 0 setdash 2 copy vpt 1.12 mul sub M
  hpt neg vpt 1.62 mul V
  hpt 2 mul 0 V
  hpt neg vpt -1.62 mul V closepath stroke
  Pnt} def
/TriDF {stroke [] 0 setdash vpt 1.12 mul sub M
  hpt neg vpt 1.62 mul V
  hpt 2 mul 0 V
  hpt neg vpt -1.62 mul V closepath fill} def
/DiaF {stroke [] 0 setdash vpt add M
  hpt neg vpt neg V hpt vpt neg V
  hpt vpt V hpt neg vpt V closepath fill} def
/Pent {stroke [] 0 setdash 2 copy gsave
  translate 0 hpt M 4 {72 rotate 0 hpt L} repeat
  closepath stroke grestore Pnt} def
/PentF {stroke [] 0 setdash gsave
  translate 0 hpt M 4 {72 rotate 0 hpt L} repeat
  closepath fill grestore} def
/Circle {stroke [] 0 setdash 2 copy
  hpt 0 360 arc stroke Pnt} def
/CircleF {stroke [] 0 setdash hpt 0 360 arc fill} def
/C0 {BL [] 0 setdash 2 copy moveto vpt 90 450 arc} bind def
/C1 {BL [] 0 setdash 2 copy moveto
	2 copy vpt 0 90 arc closepath fill
	vpt 0 360 arc closepath} bind def
/C2 {BL [] 0 setdash 2 copy moveto
	2 copy vpt 90 180 arc closepath fill
	vpt 0 360 arc closepath} bind def
/C3 {BL [] 0 setdash 2 copy moveto
	2 copy vpt 0 180 arc closepath fill
	vpt 0 360 arc closepath} bind def
/C4 {BL [] 0 setdash 2 copy moveto
	2 copy vpt 180 270 arc closepath fill
	vpt 0 360 arc closepath} bind def
/C5 {BL [] 0 setdash 2 copy moveto
	2 copy vpt 0 90 arc
	2 copy moveto
	2 copy vpt 180 270 arc closepath fill
	vpt 0 360 arc} bind def
/C6 {BL [] 0 setdash 2 copy moveto
	2 copy vpt 90 270 arc closepath fill
	vpt 0 360 arc closepath} bind def
/C7 {BL [] 0 setdash 2 copy moveto
	2 copy vpt 0 270 arc closepath fill
	vpt 0 360 arc closepath} bind def
/C8 {BL [] 0 setdash 2 copy moveto
	2 copy vpt 270 360 arc closepath fill
	vpt 0 360 arc closepath} bind def
/C9 {BL [] 0 setdash 2 copy moveto
	2 copy vpt 270 450 arc closepath fill
	vpt 0 360 arc closepath} bind def
/C10 {BL [] 0 setdash 2 copy 2 copy moveto vpt 270 360 arc closepath fill
	2 copy moveto
	2 copy vpt 90 180 arc closepath fill
	vpt 0 360 arc closepath} bind def
/C11 {BL [] 0 setdash 2 copy moveto
	2 copy vpt 0 180 arc closepath fill
	2 copy moveto
	2 copy vpt 270 360 arc closepath fill
	vpt 0 360 arc closepath} bind def
/C12 {BL [] 0 setdash 2 copy moveto
	2 copy vpt 180 360 arc closepath fill
	vpt 0 360 arc closepath} bind def
/C13 {BL [] 0 setdash 2 copy moveto
	2 copy vpt 0 90 arc closepath fill
	2 copy moveto
	2 copy vpt 180 360 arc closepath fill
	vpt 0 360 arc closepath} bind def
/C14 {BL [] 0 setdash 2 copy moveto
	2 copy vpt 90 360 arc closepath fill
	vpt 0 360 arc} bind def
/C15 {BL [] 0 setdash 2 copy vpt 0 360 arc closepath fill
	vpt 0 360 arc closepath} bind def
/Rec {newpath 4 2 roll moveto 1 index 0 rlineto 0 exch rlineto
	neg 0 rlineto closepath} bind def
/Square {dup Rec} bind def
/Bsquare {vpt sub exch vpt sub exch vpt2 Square} bind def
/S0 {BL [] 0 setdash 2 copy moveto 0 vpt rlineto BL Bsquare} bind def
/S1 {BL [] 0 setdash 2 copy vpt Square fill Bsquare} bind def
/S2 {BL [] 0 setdash 2 copy exch vpt sub exch vpt Square fill Bsquare} bind def
/S3 {BL [] 0 setdash 2 copy exch vpt sub exch vpt2 vpt Rec fill Bsquare} bind def
/S4 {BL [] 0 setdash 2 copy exch vpt sub exch vpt sub vpt Square fill Bsquare} bind def
/S5 {BL [] 0 setdash 2 copy 2 copy vpt Square fill
	exch vpt sub exch vpt sub vpt Square fill Bsquare} bind def
/S6 {BL [] 0 setdash 2 copy exch vpt sub exch vpt sub vpt vpt2 Rec fill Bsquare} bind def
/S7 {BL [] 0 setdash 2 copy exch vpt sub exch vpt sub vpt vpt2 Rec fill
	2 copy vpt Square fill Bsquare} bind def
/S8 {BL [] 0 setdash 2 copy vpt sub vpt Square fill Bsquare} bind def
/S9 {BL [] 0 setdash 2 copy vpt sub vpt vpt2 Rec fill Bsquare} bind def
/S10 {BL [] 0 setdash 2 copy vpt sub vpt Square fill 2 copy exch vpt sub exch vpt Square fill
	Bsquare} bind def
/S11 {BL [] 0 setdash 2 copy vpt sub vpt Square fill 2 copy exch vpt sub exch vpt2 vpt Rec fill
	Bsquare} bind def
/S12 {BL [] 0 setdash 2 copy exch vpt sub exch vpt sub vpt2 vpt Rec fill Bsquare} bind def
/S13 {BL [] 0 setdash 2 copy exch vpt sub exch vpt sub vpt2 vpt Rec fill
	2 copy vpt Square fill Bsquare} bind def
/S14 {BL [] 0 setdash 2 copy exch vpt sub exch vpt sub vpt2 vpt Rec fill
	2 copy exch vpt sub exch vpt Square fill Bsquare} bind def
/S15 {BL [] 0 setdash 2 copy Bsquare fill Bsquare} bind def
/D0 {gsave translate 45 rotate 0 0 S0 stroke grestore} bind def
/D1 {gsave translate 45 rotate 0 0 S1 stroke grestore} bind def
/D2 {gsave translate 45 rotate 0 0 S2 stroke grestore} bind def
/D3 {gsave translate 45 rotate 0 0 S3 stroke grestore} bind def
/D4 {gsave translate 45 rotate 0 0 S4 stroke grestore} bind def
/D5 {gsave translate 45 rotate 0 0 S5 stroke grestore} bind def
/D6 {gsave translate 45 rotate 0 0 S6 stroke grestore} bind def
/D7 {gsave translate 45 rotate 0 0 S7 stroke grestore} bind def
/D8 {gsave translate 45 rotate 0 0 S8 stroke grestore} bind def
/D9 {gsave translate 45 rotate 0 0 S9 stroke grestore} bind def
/D10 {gsave translate 45 rotate 0 0 S10 stroke grestore} bind def
/D11 {gsave translate 45 rotate 0 0 S11 stroke grestore} bind def
/D12 {gsave translate 45 rotate 0 0 S12 stroke grestore} bind def
/D13 {gsave translate 45 rotate 0 0 S13 stroke grestore} bind def
/D14 {gsave translate 45 rotate 0 0 S14 stroke grestore} bind def
/D15 {gsave translate 45 rotate 0 0 S15 stroke grestore} bind def
/DiaE {stroke [] 0 setdash vpt add M
  hpt neg vpt neg V hpt vpt neg V
  hpt vpt V hpt neg vpt V closepath stroke} def
/BoxE {stroke [] 0 setdash exch hpt sub exch vpt add M
  0 vpt2 neg V hpt2 0 V 0 vpt2 V
  hpt2 neg 0 V closepath stroke} def
/TriUE {stroke [] 0 setdash vpt 1.12 mul add M
  hpt neg vpt -1.62 mul V
  hpt 2 mul 0 V
  hpt neg vpt 1.62 mul V closepath stroke} def
/TriDE {stroke [] 0 setdash vpt 1.12 mul sub M
  hpt neg vpt 1.62 mul V
  hpt 2 mul 0 V
  hpt neg vpt -1.62 mul V closepath stroke} def
/PentE {stroke [] 0 setdash gsave
  translate 0 hpt M 4 {72 rotate 0 hpt L} repeat
  closepath stroke grestore} def
/CircE {stroke [] 0 setdash 
  hpt 0 360 arc stroke} def
/Opaque {gsave closepath 1 setgray fill grestore 0 setgray closepath} def
/DiaW {stroke [] 0 setdash vpt add M
  hpt neg vpt neg V hpt vpt neg V
  hpt vpt V hpt neg vpt V Opaque stroke} def
/BoxW {stroke [] 0 setdash exch hpt sub exch vpt add M
  0 vpt2 neg V hpt2 0 V 0 vpt2 V
  hpt2 neg 0 V Opaque stroke} def
/TriUW {stroke [] 0 setdash vpt 1.12 mul add M
  hpt neg vpt -1.62 mul V
  hpt 2 mul 0 V
  hpt neg vpt 1.62 mul V Opaque stroke} def
/TriDW {stroke [] 0 setdash vpt 1.12 mul sub M
  hpt neg vpt 1.62 mul V
  hpt 2 mul 0 V
  hpt neg vpt -1.62 mul V Opaque stroke} def
/PentW {stroke [] 0 setdash gsave
  translate 0 hpt M 4 {72 rotate 0 hpt L} repeat
  Opaque stroke grestore} def
/CircW {stroke [] 0 setdash 
  hpt 0 360 arc Opaque stroke} def
/BoxFill {gsave Rec 1 setgray fill grestore} def
/Density {
  /Fillden exch def
  currentrgbcolor
  /ColB exch def /ColG exch def /ColR exch def
  /ColR ColR Fillden mul Fillden sub 1 add def
  /ColG ColG Fillden mul Fillden sub 1 add def
  /ColB ColB Fillden mul Fillden sub 1 add def
  ColR ColG ColB setrgbcolor} def
/BoxColFill {gsave Rec PolyFill} def
/PolyFill {gsave Density fill grestore grestore} def
/h {rlineto rlineto rlineto gsave closepath fill grestore} bind def
%
% PostScript Level 1 Pattern Fill routine for rectangles
% Usage: x y w h s a XX PatternFill
%	x,y = lower left corner of box to be filled
%	w,h = width and height of box
%	  a = angle in degrees between lines and x-axis
%	 XX = 0/1 for no/yes cross-hatch
%
/PatternFill {gsave /PFa [ 9 2 roll ] def
  PFa 0 get PFa 2 get 2 div add PFa 1 get PFa 3 get 2 div add translate
  PFa 2 get -2 div PFa 3 get -2 div PFa 2 get PFa 3 get Rec
  gsave 1 setgray fill grestore clip
  currentlinewidth 0.5 mul setlinewidth
  /PFs PFa 2 get dup mul PFa 3 get dup mul add sqrt def
  0 0 M PFa 5 get rotate PFs -2 div dup translate
  0 1 PFs PFa 4 get div 1 add floor cvi
	{PFa 4 get mul 0 M 0 PFs V} for
  0 PFa 6 get ne {
	0 1 PFs PFa 4 get div 1 add floor cvi
	{PFa 4 get mul 0 2 1 roll M PFs 0 V} for
 } if
  stroke grestore} def
%
/languagelevel where
 {pop languagelevel} {1} ifelse
 2 lt
	{/InterpretLevel1 true def}
	{/InterpretLevel1 Level1 def}
 ifelse
%
% PostScript level 2 pattern fill definitions
%
/Level2PatternFill {
/Tile8x8 {/PaintType 2 /PatternType 1 /TilingType 1 /BBox [0 0 8 8] /XStep 8 /YStep 8}
	bind def
/KeepColor {currentrgbcolor [/Pattern /DeviceRGB] setcolorspace} bind def
<< Tile8x8
 /PaintProc {0.5 setlinewidth pop 0 0 M 8 8 L 0 8 M 8 0 L stroke} 
>> matrix makepattern
/Pat1 exch def
<< Tile8x8
 /PaintProc {0.5 setlinewidth pop 0 0 M 8 8 L 0 8 M 8 0 L stroke
	0 4 M 4 8 L 8 4 L 4 0 L 0 4 L stroke}
>> matrix makepattern
/Pat2 exch def
<< Tile8x8
 /PaintProc {0.5 setlinewidth pop 0 0 M 0 8 L
	8 8 L 8 0 L 0 0 L fill}
>> matrix makepattern
/Pat3 exch def
<< Tile8x8
 /PaintProc {0.5 setlinewidth pop -4 8 M 8 -4 L
	0 12 M 12 0 L stroke}
>> matrix makepattern
/Pat4 exch def
<< Tile8x8
 /PaintProc {0.5 setlinewidth pop -4 0 M 8 12 L
	0 -4 M 12 8 L stroke}
>> matrix makepattern
/Pat5 exch def
<< Tile8x8
 /PaintProc {0.5 setlinewidth pop -2 8 M 4 -4 L
	0 12 M 8 -4 L 4 12 M 10 0 L stroke}
>> matrix makepattern
/Pat6 exch def
<< Tile8x8
 /PaintProc {0.5 setlinewidth pop -2 0 M 4 12 L
	0 -4 M 8 12 L 4 -4 M 10 8 L stroke}
>> matrix makepattern
/Pat7 exch def
<< Tile8x8
 /PaintProc {0.5 setlinewidth pop 8 -2 M -4 4 L
	12 0 M -4 8 L 12 4 M 0 10 L stroke}
>> matrix makepattern
/Pat8 exch def
<< Tile8x8
 /PaintProc {0.5 setlinewidth pop 0 -2 M 12 4 L
	-4 0 M 12 8 L -4 4 M 8 10 L stroke}
>> matrix makepattern
/Pat9 exch def
/Pattern1 {PatternBgnd KeepColor Pat1 setpattern} bind def
/Pattern2 {PatternBgnd KeepColor Pat2 setpattern} bind def
/Pattern3 {PatternBgnd KeepColor Pat3 setpattern} bind def
/Pattern4 {PatternBgnd KeepColor Landscape {Pat5} {Pat4} ifelse setpattern} bind def
/Pattern5 {PatternBgnd KeepColor Landscape {Pat4} {Pat5} ifelse setpattern} bind def
/Pattern6 {PatternBgnd KeepColor Landscape {Pat9} {Pat6} ifelse setpattern} bind def
/Pattern7 {PatternBgnd KeepColor Landscape {Pat8} {Pat7} ifelse setpattern} bind def
} def
%
%
%End of PostScript Level 2 code
%
/PatternBgnd {
  TransparentPatterns {} {gsave 1 setgray fill grestore} ifelse
} def
%
% Substitute for Level 2 pattern fill codes with
% grayscale if Level 2 support is not selected.
%
/Level1PatternFill {
/Pattern1 {0.250 Density} bind def
/Pattern2 {0.500 Density} bind def
/Pattern3 {0.750 Density} bind def
/Pattern4 {0.125 Density} bind def
/Pattern5 {0.375 Density} bind def
/Pattern6 {0.625 Density} bind def
/Pattern7 {0.875 Density} bind def
} def
%
% Now test for support of Level 2 code
%
Level1 {Level1PatternFill} {Level2PatternFill} ifelse
%
/Symbol-Oblique /Symbol findfont [1 0 .167 1 0 0] makefont
dup length dict begin {1 index /FID eq {pop pop} {def} ifelse} forall
currentdict end definefont pop
/MFshow {
   { dup 5 get 3 ge
     { 5 get 3 eq {gsave} {grestore} ifelse }
     {dup dup 0 get findfont exch 1 get scalefont setfont
     [ currentpoint ] exch dup 2 get 0 exch R dup 5 get 2 ne {dup dup 6
     get exch 4 get {Gshow} {stringwidth pop 0 R} ifelse }if dup 5 get 0 eq
     {dup 3 get {2 get neg 0 exch R pop} {pop aload pop M} ifelse} {dup 5
     get 1 eq {dup 2 get exch dup 3 get exch 6 get stringwidth pop -2 div
     dup 0 R} {dup 6 get stringwidth pop -2 div 0 R 6 get
     show 2 index {aload pop M neg 3 -1 roll neg R pop pop} {pop pop pop
     pop aload pop M} ifelse }ifelse }ifelse }
     ifelse }
   forall} def
/Gswidth {dup type /stringtype eq {stringwidth} {pop (n) stringwidth} ifelse} def
/MFwidth {0 exch { dup 5 get 3 ge { 5 get 3 eq { 0 } { pop } ifelse }
 {dup 3 get{dup dup 0 get findfont exch 1 get scalefont setfont
     6 get Gswidth pop add} {pop} ifelse} ifelse} forall} def
/MLshow { currentpoint stroke M
  0 exch R
  Blacktext {gsave 0 setgray MFshow grestore} {MFshow} ifelse } bind def
/MRshow { currentpoint stroke M
  exch dup MFwidth neg 3 -1 roll R
  Blacktext {gsave 0 setgray MFshow grestore} {MFshow} ifelse } bind def
/MCshow { currentpoint stroke M
  exch dup MFwidth -2 div 3 -1 roll R
  Blacktext {gsave 0 setgray MFshow grestore} {MFshow} ifelse } bind def
/XYsave    { [( ) 1 2 true false 3 ()] } bind def
/XYrestore { [( ) 1 2 true false 4 ()] } bind def
end
%%EndProlog
gnudict begin
gsave
doclip
50 50 translate
0.050 0.050 scale
0 setgray
newpath
(Helvetica) findfont 250 scalefont setfont
1.000 UL
LTb
1225 800 M
63 0 V
5461 0 R
-63 0 V
stroke
1075 800 M
[ [(Helvetica) 250.0 0.0 true true 0 ( 0)]
] -83.3 MRshow
1.000 UL
LTb
1225 1194 M
63 0 V
5461 0 R
-63 0 V
stroke
1075 1194 M
[ [(Helvetica) 250.0 0.0 true true 0 ( 0.1)]
] -83.3 MRshow
1.000 UL
LTb
1225 1588 M
63 0 V
5461 0 R
-63 0 V
stroke
1075 1588 M
[ [(Helvetica) 250.0 0.0 true true 0 ( 0.2)]
] -83.3 MRshow
1.000 UL
LTb
1225 1982 M
63 0 V
5461 0 R
-63 0 V
stroke
1075 1982 M
[ [(Helvetica) 250.0 0.0 true true 0 ( 0.3)]
] -83.3 MRshow
1.000 UL
LTb
1225 2376 M
63 0 V
5461 0 R
-63 0 V
stroke
1075 2376 M
[ [(Helvetica) 250.0 0.0 true true 0 ( 0.4)]
] -83.3 MRshow
1.000 UL
LTb
1225 2770 M
63 0 V
5461 0 R
-63 0 V
stroke
1075 2770 M
[ [(Helvetica) 250.0 0.0 true true 0 ( 0.5)]
] -83.3 MRshow
1.000 UL
LTb
1225 3163 M
63 0 V
5461 0 R
-63 0 V
stroke
1075 3163 M
[ [(Helvetica) 250.0 0.0 true true 0 ( 0.6)]
] -83.3 MRshow
1.000 UL
LTb
1225 3557 M
63 0 V
5461 0 R
-63 0 V
stroke
1075 3557 M
[ [(Helvetica) 250.0 0.0 true true 0 ( 0.7)]
] -83.3 MRshow
1.000 UL
LTb
1225 3951 M
63 0 V
5461 0 R
-63 0 V
stroke
1075 3951 M
[ [(Helvetica) 250.0 0.0 true true 0 ( 0.8)]
] -83.3 MRshow
1.000 UL
LTb
1225 4345 M
63 0 V
5461 0 R
-63 0 V
stroke
1075 4345 M
[ [(Helvetica) 250.0 0.0 true true 0 ( 0.9)]
] -83.3 MRshow
1.000 UL
LTb
1225 4739 M
63 0 V
5461 0 R
-63 0 V
stroke
1075 4739 M
[ [(Helvetica) 250.0 0.0 true true 0 ( 1)]
] -83.3 MRshow
1.000 UL
LTb
1225 800 M
0 63 V
0 3876 R
0 -63 V
stroke
1225 550 M
[ [(Helvetica) 250.0 0.0 true true 0 (-0.6)]
] -83.3 MCshow
1.000 UL
LTb
2146 800 M
0 63 V
0 3876 R
0 -63 V
stroke
2146 550 M
[ [(Helvetica) 250.0 0.0 true true 0 (-0.4)]
] -83.3 MCshow
1.000 UL
LTb
3066 800 M
0 63 V
0 3876 R
0 -63 V
stroke
3066 550 M
[ [(Helvetica) 250.0 0.0 true true 0 (-0.2)]
] -83.3 MCshow
1.000 UL
LTb
3987 800 M
0 63 V
0 3876 R
0 -63 V
stroke
3987 550 M
[ [(Helvetica) 250.0 0.0 true true 0 ( 0)]
] -83.3 MCshow
1.000 UL
LTb
4908 800 M
0 63 V
0 3876 R
0 -63 V
stroke
4908 550 M
[ [(Helvetica) 250.0 0.0 true true 0 ( 0.2)]
] -83.3 MCshow
1.000 UL
LTb
5828 800 M
0 63 V
0 3876 R
0 -63 V
stroke
5828 550 M
[ [(Helvetica) 250.0 0.0 true true 0 ( 0.4)]
] -83.3 MCshow
1.000 UL
LTb
6749 800 M
0 63 V
0 3876 R
0 -63 V
stroke
6749 550 M
[ [(Helvetica) 250.0 0.0 true true 0 ( 0.6)]
] -83.3 MCshow
1.000 UL
LTb
1.000 UL
LTb
1225 4739 N
0 -3939 V
5524 0 V
0 3939 V
-5524 0 V
Z stroke
LCb setrgbcolor
200 2769 M
currentpoint gsave translate -270 rotate 0 0 moveto
[ [(Helvetica) 250.0 0.0 true true 0 (Precision)]
] -83.3 MCshow
grestore
LTb
LCb setrgbcolor
3987 175 M
[ [(Helvetica) 250.0 0.0 true true 0 (Noise Ratio)]
] -83.3 MCshow
LTb
1.000 UP
1.000 UL
LTb
% Begin plot #1
1.000 UP
1.000 UL
LT0
1685 4591 Pls
1685 4334 Pls
1685 4285 Pls
1685 4324 Pls
2146 4389 Pls
2146 4387 Pls
2146 4385 Pls
2146 4392 Pls
2606 4632 Pls
2606 3980 Pls
2606 4275 Pls
2606 4579 Pls
3066 4509 Pls
3066 4312 Pls
3066 4494 Pls
3066 4684 Pls
3527 4370 Pls
3527 4276 Pls
3527 4470 Pls
3527 4720 Pls
4447 3692 Pls
4447 4297 Pls
4447 4479 Pls
4447 4739 Pls
4908 4424 Pls
4908 4149 Pls
4908 4488 Pls
4908 4739 Pls
5368 3546 Pls
5368 4046 Pls
5368 4381 Pls
5368 4739 Pls
5828 3311 Pls
5828 3860 Pls
5828 4496 Pls
5828 4739 Pls
6289 2798 Pls
6289 4033 Pls
6289 4368 Pls
6289 4739 Pls
1685 4345 Pls
1685 3627 Pls
1685 3782 Pls
1685 3593 Pls
2146 4520 Pls
2146 3912 Pls
2146 3665 Pls
2146 3599 Pls
2606 4570 Pls
2606 3894 Pls
2606 3466 Pls
2606 3665 Pls
3066 4520 Pls
3066 3950 Pls
3066 3790 Pls
3066 3850 Pls
3527 4608 Pls
3527 3962 Pls
3527 3970 Pls
3527 3955 Pls
4447 3012 Pls
4447 3331 Pls
4447 3513 Pls
4447 3668 Pls
4908 2631 Pls
4908 3010 Pls
4908 3495 Pls
4908 3664 Pls
5368 2131 Pls
5368 2713 Pls
5368 3303 Pls
5368 3411 Pls
5828 1787 Pls
5828 2489 Pls
5828 3204 Pls
5828 3481 Pls
6289 1797 Pls
6289 2701 Pls
6289 2766 Pls
6289 3247 Pls
1685 4143 Pls
1685 3185 Pls
1685 3147 Pls
1685 2891 Pls
2146 4660 Pls
2146 3479 Pls
2146 3351 Pls
2146 3140 Pls
2606 4136 Pls
2606 3384 Pls
2606 3467 Pls
2606 3268 Pls
3066 4608 Pls
3066 3690 Pls
3066 3457 Pls
3066 3275 Pls
3527 4422 Pls
3527 3792 Pls
3527 3394 Pls
3527 3468 Pls
4447 2335 Pls
4447 2520 Pls
4447 2800 Pls
4447 3167 Pls
4908 1840 Pls
4908 2195 Pls
4908 2853 Pls
4908 2858 Pls
5368 1578 Pls
5368 1953 Pls
5368 2440 Pls
5368 2580 Pls
5828 1331 Pls
5828 2010 Pls
5828 2395 Pls
5828 2758 Pls
6289 1274 Pls
6289 1807 Pls
6289 2186 Pls
6289 2524 Pls
1685 3499 Pls
1685 3471 Pls
1685 2921 Pls
1685 2675 Pls
2146 3875 Pls
2146 3654 Pls
2146 3032 Pls
2146 2847 Pls
2606 3967 Pls
2606 3428 Pls
2606 3056 Pls
2606 2820 Pls
3066 4450 Pls
3066 3423 Pls
3066 3296 Pls
3066 2973 Pls
3527 4651 Pls
3527 3586 Pls
3527 3203 Pls
3527 3149 Pls
4447 1981 Pls
4447 2288 Pls
4447 2320 Pls
4447 2657 Pls
4908 1445 Pls
4908 1840 Pls
4908 2054 Pls
4908 2401 Pls
5368 1303 Pls
5368 1759 Pls
5368 2053 Pls
5368 2197 Pls
5828 1163 Pls
5828 1622 Pls
5828 1947 Pls
5828 2123 Pls
6289 1152 Pls
6289 1497 Pls
6289 1892 Pls
6289 2081 Pls
1685 3718 Pls
1685 3168 Pls
1685 2619 Pls
1685 2521 Pls
2146 4398 Pls
2146 2891 Pls
2146 2899 Pls
2146 2421 Pls
2606 4415 Pls
2606 3202 Pls
2606 3293 Pls
2606 2629 Pls
3066 4242 Pls
3066 3270 Pls
3066 2783 Pls
3066 2866 Pls
3527 4501 Pls
3527 2984 Pls
3527 2861 Pls
3527 2868 Pls
4447 1436 Pls
4447 2036 Pls
4447 2356 Pls
4447 2302 Pls
4908 1227 Pls
4908 1596 Pls
4908 1866 Pls
4908 2061 Pls
5368 1101 Pls
5368 1415 Pls
5368 1810 Pls
5368 1925 Pls
5828 1076 Pls
5828 1423 Pls
5828 1604 Pls
5828 1873 Pls
6289 1057 Pls
6289 1326 Pls
6289 1529 Pls
6289 1776 Pls
1685 4739 Pls
1685 4381 Pls
1685 4432 Pls
1685 4672 Pls
2146 4503 Pls
2146 4451 Pls
2146 4441 Pls
2146 4491 Pls
2606 4551 Pls
2606 4335 Pls
2606 4513 Pls
2606 4703 Pls
3066 4498 Pls
3066 4457 Pls
3066 4612 Pls
3066 4705 Pls
3527 4739 Pls
3527 4533 Pls
3527 4647 Pls
3527 4701 Pls
4447 4411 Pls
4447 4387 Pls
4447 4504 Pls
4447 4739 Pls
4908 4529 Pls
4908 4287 Pls
4908 4588 Pls
4908 4739 Pls
5368 3419 Pls
5368 4380 Pls
5368 4475 Pls
5368 4739 Pls
5828 3682 Pls
5828 4263 Pls
5828 4514 Pls
5828 4739 Pls
6289 3945 Pls
6289 4227 Pls
6289 4501 Pls
6289 4739 Pls
1685 4460 Pls
1685 4323 Pls
1685 4179 Pls
1685 4227 Pls
2146 4597 Pls
2146 4283 Pls
2146 4248 Pls
2146 3944 Pls
2606 4641 Pls
2606 4096 Pls
2606 4128 Pls
2606 3996 Pls
3066 4660 Pls
3066 4205 Pls
3066 4149 Pls
3066 4098 Pls
3527 4497 Pls
3527 4037 Pls
3527 4391 Pls
3527 4307 Pls
4447 3859 Pls
4447 3889 Pls
4447 4264 Pls
4447 4245 Pls
4908 3300 Pls
4908 3709 Pls
4908 3706 Pls
4908 3945 Pls
5368 2815 Pls
5368 3153 Pls
5368 3628 Pls
5368 3875 Pls
5828 2205 Pls
5828 3178 Pls
5828 3642 Pls
5828 3826 Pls
6289 2267 Pls
6289 3389 Pls
6289 3222 Pls
6289 3912 Pls
1685 4608 Pls
1685 3886 Pls
1685 3875 Pls
1685 3713 Pls
2146 4455 Pls
2146 4131 Pls
2146 3683 Pls
2146 3900 Pls
2606 4328 Pls
2606 3840 Pls
2606 3665 Pls
2606 3924 Pls
3066 4459 Pls
3066 4059 Pls
3066 3867 Pls
3066 3912 Pls
3527 4470 Pls
3527 4062 Pls
3527 3815 Pls
3527 3712 Pls
4447 2880 Pls
4447 3338 Pls
4447 3993 Pls
4447 3584 Pls
4908 2123 Pls
4908 2906 Pls
4908 3257 Pls
4908 3519 Pls
5368 2137 Pls
5368 2491 Pls
5368 3102 Pls
5368 3288 Pls
5828 1797 Pls
5828 2383 Pls
5828 3239 Pls
5828 3057 Pls
6289 1650 Pls
6289 2157 Pls
6289 2809 Pls
6289 2992 Pls
1685 4171 Pls
1685 3730 Pls
1685 3519 Pls
1685 3264 Pls
2146 4548 Pls
2146 3988 Pls
2146 3543 Pls
2146 3497 Pls
2606 4353 Pls
2606 3967 Pls
2606 3569 Pls
2606 3615 Pls
3066 4381 Pls
3066 3576 Pls
3066 3657 Pls
3066 3744 Pls
3527 4455 Pls
3527 3955 Pls
3527 3844 Pls
3527 3666 Pls
4447 2491 Pls
4447 2795 Pls
4447 3040 Pls
4447 3338 Pls
4908 1951 Pls
4908 2291 Pls
4908 2730 Pls
4908 3135 Pls
5368 1535 Pls
5368 2075 Pls
5368 2567 Pls
5368 2694 Pls
5828 1385 Pls
5828 2017 Pls
5828 2274 Pls
5828 2608 Pls
6289 1338 Pls
6289 1781 Pls
6289 2254 Pls
6289 2574 Pls
1685 4580 Pls
1685 3618 Pls
1685 3017 Pls
1685 3292 Pls
2146 4602 Pls
2146 3627 Pls
2146 3415 Pls
2146 3188 Pls
2606 4651 Pls
2606 3831 Pls
2606 3389 Pls
2606 3263 Pls
3066 4528 Pls
3066 3812 Pls
3066 3508 Pls
3066 3218 Pls
3527 4335 Pls
3527 3744 Pls
3527 3606 Pls
3527 3495 Pls
4447 1967 Pls
4447 2377 Pls
4447 2705 Pls
4447 2896 Pls
4908 1563 Pls
4908 1991 Pls
4908 2268 Pls
4908 2593 Pls
5368 1262 Pls
5368 1760 Pls
5368 2087 Pls
5368 2413 Pls
5828 1206 Pls
5828 1624 Pls
5828 1983 Pls
5828 2335 Pls
6289 1182 Pls
6289 1523 Pls
6289 1827 Pls
6289 2126 Pls
1685 4573 Pls
1685 4591 Pls
1685 4398 Pls
1685 4651 Pls
2146 4651 Pls
2146 4739 Pls
2146 4563 Pls
2146 4720 Pls
2606 4624 Pls
2606 4605 Pls
2606 4537 Pls
2606 4739 Pls
3066 4553 Pls
3066 4484 Pls
3066 4644 Pls
3066 4702 Pls
3527 4739 Pls
3527 4695 Pls
3527 4668 Pls
3527 4739 Pls
4447 4043 Pls
4447 4583 Pls
4447 4637 Pls
4447 4739 Pls
4908 4660 Pls
4908 4519 Pls
4908 4576 Pls
4908 4739 Pls
5368 4312 Pls
5368 4667 Pls
5368 4573 Pls
5368 4739 Pls
5828 3951 Pls
5828 4589 Pls
5828 4551 Pls
5828 4739 Pls
6289 4161 Pls
6289 4503 Pls
6289 4686 Pls
6289 4739 Pls
1685 4660 Pls
1685 4194 Pls
1685 4151 Pls
1685 4177 Pls
2146 4641 Pls
2146 4405 Pls
2146 4226 Pls
2146 4280 Pls
2606 4435 Pls
2606 4497 Pls
2606 4456 Pls
2606 4296 Pls
3066 4641 Pls
3066 4298 Pls
3066 4358 Pls
3066 4325 Pls
3527 4525 Pls
3527 4358 Pls
3527 4535 Pls
3527 4376 Pls
4447 3595 Pls
4447 4367 Pls
4447 4008 Pls
4447 4427 Pls
4908 3526 Pls
4908 3926 Pls
4908 4209 Pls
4908 4131 Pls
5368 3572 Pls
5368 3591 Pls
5368 4197 Pls
5368 4112 Pls
5828 3133 Pls
5828 3634 Pls
5828 3935 Pls
5828 4046 Pls
6289 2741 Pls
6289 3283 Pls
6289 3678 Pls
6289 3850 Pls
1685 4243 Pls
1685 4332 Pls
1685 4105 Pls
1685 3873 Pls
2146 4621 Pls
2146 4363 Pls
2146 4057 Pls
2146 4046 Pls
2606 4319 Pls
2606 4061 Pls
2606 3919 Pls
2606 4220 Pls
3066 4580 Pls
3066 4184 Pls
3066 4316 Pls
3066 4045 Pls
3527 4564 Pls
3527 4437 Pls
3527 4250 Pls
3527 4122 Pls
4447 3861 Pls
4447 3808 Pls
4447 4190 Pls
4447 3790 Pls
4908 2542 Pls
4908 3596 Pls
4908 3818 Pls
4908 3826 Pls
5368 2157 Pls
5368 3167 Pls
5368 3318 Pls
5368 3626 Pls
5828 2409 Pls
5828 2974 Pls
5828 3224 Pls
5828 3362 Pls
6289 2101 Pls
6289 2706 Pls
6289 3001 Pls
6289 3163 Pls
1685 4611 Pls
1685 3980 Pls
1685 3793 Pls
1685 3784 Pls
2146 4602 Pls
2146 4068 Pls
2146 3811 Pls
2146 3696 Pls
2606 4509 Pls
2606 4031 Pls
2606 3857 Pls
2606 3751 Pls
3066 4503 Pls
3066 4346 Pls
3066 3905 Pls
3066 3820 Pls
3527 4553 Pls
3527 4354 Pls
3527 4071 Pls
3527 3850 Pls
4447 2934 Pls
4447 3289 Pls
4447 3562 Pls
4447 3356 Pls
4908 2202 Pls
4908 2590 Pls
4908 2948 Pls
4908 3322 Pls
5368 1811 Pls
5368 2420 Pls
5368 3108 Pls
5368 3354 Pls
5828 1690 Pls
5828 2408 Pls
5828 2695 Pls
5828 2855 Pls
6289 1483 Pls
6289 2193 Pls
6289 2611 Pls
6289 2898 Pls
1685 4503 Pls
1685 3552 Pls
1685 3700 Pls
1685 3494 Pls
2146 4558 Pls
2146 4109 Pls
2146 3702 Pls
2146 3484 Pls
2606 4505 Pls
2606 3987 Pls
2606 3847 Pls
2606 3461 Pls
3066 4415 Pls
3066 4101 Pls
3066 3753 Pls
3066 3925 Pls
3527 4392 Pls
3527 4053 Pls
3527 4075 Pls
3527 3761 Pls
4447 2378 Pls
4447 2814 Pls
4447 3030 Pls
4447 3240 Pls
4908 1727 Pls
4908 2407 Pls
4908 2619 Pls
4908 2918 Pls
5368 1394 Pls
5368 2057 Pls
5368 2391 Pls
5368 2794 Pls
5828 1341 Pls
5828 1882 Pls
5828 2204 Pls
5828 2513 Pls
6289 1314 Pls
6289 1688 Pls
6289 2195 Pls
6289 2311 Pls
1685 4673 Pls
1685 4530 Pls
1685 4698 Pls
1685 4672 Pls
2146 4626 Pls
2146 4660 Pls
2146 4578 Pls
2146 4640 Pls
2606 4683 Pls
2606 4568 Pls
2606 4623 Pls
2606 4739 Pls
3066 4739 Pls
3066 4608 Pls
3066 4615 Pls
3066 4739 Pls
3527 4617 Pls
3527 4638 Pls
3527 4665 Pls
3527 4718 Pls
4447 4542 Pls
4447 4389 Pls
4447 4588 Pls
4447 4739 Pls
4908 4450 Pls
4908 4667 Pls
4908 4611 Pls
4908 4739 Pls
5368 4037 Pls
5368 4528 Pls
5368 4633 Pls
5368 4739 Pls
5828 4491 Pls
5828 4429 Pls
5828 4513 Pls
5828 4739 Pls
6289 4061 Pls
6289 4402 Pls
6289 4658 Pls
6289 4739 Pls
1685 4630 Pls
1685 4452 Pls
1685 4435 Pls
1685 4398 Pls
2146 4573 Pls
2146 4393 Pls
2146 4508 Pls
2146 4324 Pls
2606 4616 Pls
2606 4357 Pls
2606 4441 Pls
2606 4164 Pls
3066 4739 Pls
3066 4522 Pls
3066 4487 Pls
3066 4463 Pls
3527 4626 Pls
3527 4310 Pls
3527 4526 Pls
3527 4371 Pls
4447 4476 Pls
4447 4078 Pls
4447 4168 Pls
4447 4436 Pls
4908 3413 Pls
4908 3953 Pls
4908 4237 Pls
4908 4413 Pls
5368 3738 Pls
5368 4093 Pls
5368 4056 Pls
5368 4240 Pls
5828 3516 Pls
5828 3494 Pls
5828 3889 Pls
5828 4179 Pls
6289 2946 Pls
6289 3569 Pls
6289 4023 Pls
6289 4180 Pls
1685 4474 Pls
1685 4075 Pls
1685 4146 Pls
1685 3954 Pls
2146 4581 Pls
2146 4188 Pls
2146 4283 Pls
2146 4141 Pls
2606 4739 Pls
2606 4429 Pls
2606 4266 Pls
2606 4203 Pls
3066 4739 Pls
3066 4360 Pls
3066 4207 Pls
3066 4334 Pls
3527 4739 Pls
3527 4686 Pls
3527 4173 Pls
3527 4279 Pls
4447 3966 Pls
4447 3949 Pls
4447 3915 Pls
4447 4022 Pls
4908 3020 Pls
4908 3347 Pls
4908 3820 Pls
4908 3971 Pls
5368 2440 Pls
5368 3463 Pls
5368 3476 Pls
5368 3740 Pls
5828 2547 Pls
5828 3246 Pls
5828 3581 Pls
5828 3802 Pls
6289 2132 Pls
6289 2787 Pls
6289 3382 Pls
6289 3652 Pls
1685 4595 Pls
1685 3943 Pls
1685 3981 Pls
1685 4177 Pls
2146 4517 Pls
2146 4462 Pls
2146 4160 Pls
2146 3816 Pls
2606 4555 Pls
2606 4181 Pls
2606 4163 Pls
2606 3967 Pls
3066 4548 Pls
3066 4165 Pls
3066 3887 Pls
3066 3855 Pls
3527 4464 Pls
3527 4356 Pls
3527 4232 Pls
3527 4311 Pls
4447 3039 Pls
4447 3580 Pls
4447 3692 Pls
4447 3739 Pls
4908 2486 Pls
4908 3107 Pls
4908 3328 Pls
4908 3640 Pls
5368 2072 Pls
5368 2740 Pls
5368 3241 Pls
5368 3069 Pls
5828 1934 Pls
5828 2660 Pls
5828 2848 Pls
5828 3411 Pls
6289 1664 Pls
6289 2221 Pls
6289 2753 Pls
6289 3103 Pls
1685 4739 Pls
1685 4268 Pls
1685 3930 Pls
1685 3684 Pls
2146 4421 Pls
2146 4025 Pls
2146 3551 Pls
2146 4033 Pls
2606 4451 Pls
2606 4247 Pls
2606 3843 Pls
2606 3737 Pls
3066 4690 Pls
3066 4324 Pls
3066 4070 Pls
3066 3983 Pls
3527 4739 Pls
3527 4081 Pls
3527 3984 Pls
3527 3941 Pls
4447 2640 Pls
4447 3072 Pls
4447 3250 Pls
4447 3353 Pls
4908 1982 Pls
4908 2890 Pls
4908 3022 Pls
4908 3149 Pls
5368 1658 Pls
5368 2286 Pls
5368 2843 Pls
5368 2772 Pls
5828 1616 Pls
5828 2198 Pls
5828 2630 Pls
5828 2580 Pls
6289 1504 Pls
6289 1993 Pls
6289 2317 Pls
6289 2566 Pls
1685 4586 Pls
1685 4709 Pls
1685 4574 Pls
1685 4670 Pls
2146 4633 Pls
2146 4686 Pls
2146 4536 Pls
2146 4606 Pls
2606 4739 Pls
2606 4739 Pls
2606 4531 Pls
2606 4685 Pls
3066 4626 Pls
3066 4632 Pls
3066 4693 Pls
3066 4721 Pls
3527 4739 Pls
3527 4700 Pls
3527 4739 Pls
3527 4718 Pls
4447 4739 Pls
4447 4602 Pls
4447 4713 Pls
4447 4739 Pls
4908 4201 Pls
4908 4660 Pls
4908 4711 Pls
4908 4739 Pls
5368 4279 Pls
5368 4505 Pls
5368 4711 Pls
5368 4739 Pls
5828 4266 Pls
5828 4361 Pls
5828 4739 Pls
5828 4739 Pls
6289 4176 Pls
6289 4525 Pls
6289 4513 Pls
6289 4739 Pls
1685 4690 Pls
1685 4318 Pls
1685 4478 Pls
1685 4347 Pls
2146 4596 Pls
2146 4411 Pls
2146 4335 Pls
2146 4344 Pls
2606 4690 Pls
2606 4604 Pls
2606 4460 Pls
2606 4464 Pls
3066 4660 Pls
3066 4544 Pls
3066 4493 Pls
3066 4581 Pls
3527 4608 Pls
3527 4739 Pls
3527 4453 Pls
3527 4522 Pls
4447 4135 Pls
4447 4381 Pls
4447 4481 Pls
4447 4386 Pls
4908 3994 Pls
4908 4061 Pls
4908 4375 Pls
4908 4556 Pls
5368 3295 Pls
5368 3717 Pls
5368 4303 Pls
5368 4503 Pls
5828 3279 Pls
5828 4192 Pls
5828 4389 Pls
5828 4282 Pls
6289 3362 Pls
6289 4138 Pls
6289 4097 Pls
6289 4321 Pls
1685 4588 Pls
1685 4413 Pls
1685 4074 Pls
1685 4075 Pls
2146 4641 Pls
2146 4407 Pls
2146 4156 Pls
2146 4312 Pls
2606 4660 Pls
2606 4353 Pls
2606 4271 Pls
2606 4239 Pls
3066 4533 Pls
3066 4565 Pls
3066 4105 Pls
3066 4430 Pls
3527 4651 Pls
3527 4266 Pls
3527 4415 Pls
3527 4347 Pls
4447 3991 Pls
4447 3772 Pls
4447 4068 Pls
4447 4191 Pls
4908 3448 Pls
4908 3792 Pls
4908 3874 Pls
4908 4138 Pls
5368 2806 Pls
5368 3624 Pls
5368 3567 Pls
5368 3652 Pls
5828 2489 Pls
5828 3126 Pls
5828 3682 Pls
5828 3635 Pls
6289 2184 Pls
6289 3257 Pls
6289 3446 Pls
6289 3764 Pls
1685 4562 Pls
1685 4386 Pls
1685 3989 Pls
1685 3963 Pls
2146 4573 Pls
2146 4436 Pls
2146 4032 Pls
2146 4099 Pls
2606 4589 Pls
2606 4018 Pls
2606 4128 Pls
2606 4185 Pls
3066 4739 Pls
3066 4305 Pls
3066 4370 Pls
3066 4175 Pls
3527 4506 Pls
3527 4278 Pls
3527 4240 Pls
3527 4340 Pls
4447 3140 Pls
4447 3741 Pls
4447 3497 Pls
4447 3739 Pls
4908 2698 Pls
4908 3257 Pls
4908 3391 Pls
4908 3621 Pls
5368 2517 Pls
5368 2995 Pls
5368 3393 Pls
5368 3623 Pls
5828 1826 Pls
5828 2355 Pls
5828 3403 Pls
5828 3609 Pls
6289 1970 Pls
6289 2471 Pls
6289 3024 Pls
6289 3283 Pls
1685 4589 Pls
1685 3959 Pls
1685 4071 Pls
1685 3969 Pls
2146 4703 Pls
2146 4211 Pls
2146 3910 Pls
2146 3902 Pls
2606 4695 Pls
2606 4346 Pls
2606 4115 Pls
2606 4033 Pls
3066 4364 Pls
3066 4302 Pls
3066 4319 Pls
3066 3925 Pls
3527 4455 Pls
3527 4175 Pls
3527 4065 Pls
3527 3896 Pls
4447 2721 Pls
4447 3584 Pls
4447 3488 Pls
4447 3678 Pls
4908 2349 Pls
4908 2637 Pls
4908 3291 Pls
4908 3205 Pls
5368 1883 Pls
5368 2617 Pls
5368 2781 Pls
5368 3257 Pls
5828 1735 Pls
5828 2416 Pls
5828 2790 Pls
5828 3076 Pls
6289 1467 Pls
6289 2281 Pls
6289 2568 Pls
6289 2740 Pls
1685 4739 Pls
1685 4739 Pls
1685 4676 Pls
1685 4739 Pls
2146 4626 Pls
2146 4629 Pls
2146 4677 Pls
2146 4703 Pls
2606 4539 Pls
2606 4599 Pls
2606 4693 Pls
2606 4690 Pls
3066 4641 Pls
3066 4709 Pls
3066 4716 Pls
3066 4700 Pls
3527 4739 Pls
3527 4646 Pls
3527 4616 Pls
3527 4739 Pls
4447 4483 Pls
4447 4604 Pls
4447 4739 Pls
4447 4739 Pls
4908 4384 Pls
4908 4695 Pls
4908 4658 Pls
4908 4739 Pls
5368 4439 Pls
5368 4493 Pls
5368 4713 Pls
5368 4739 Pls
5828 4188 Pls
5828 4394 Pls
5828 4609 Pls
5828 4739 Pls
6289 4450 Pls
6289 4422 Pls
6289 4527 Pls
6289 4739 Pls
1685 4739 Pls
1685 4611 Pls
1685 4538 Pls
1685 4555 Pls
2146 4509 Pls
2146 4637 Pls
2146 4405 Pls
2146 4544 Pls
2606 4739 Pls
2606 4575 Pls
2606 4634 Pls
2606 4536 Pls
3066 4641 Pls
3066 4673 Pls
3066 4431 Pls
3066 4616 Pls
3527 4385 Pls
3527 4673 Pls
3527 4518 Pls
3527 4600 Pls
4447 3886 Pls
4447 4467 Pls
4447 4304 Pls
4447 4472 Pls
4908 4739 Pls
4908 4280 Pls
4908 4366 Pls
4908 4358 Pls
5368 3259 Pls
5368 4255 Pls
5368 4323 Pls
5368 4383 Pls
5828 3188 Pls
5828 4017 Pls
5828 4277 Pls
5828 4267 Pls
6289 3121 Pls
6289 4158 Pls
6289 4254 Pls
6289 4412 Pls
1685 4651 Pls
1685 4491 Pls
1685 4333 Pls
1685 4306 Pls
2146 4651 Pls
2146 4438 Pls
2146 4178 Pls
2146 4487 Pls
2606 4739 Pls
2606 4622 Pls
2606 4214 Pls
2606 4407 Pls
3066 4581 Pls
3066 4541 Pls
3066 4535 Pls
3066 4419 Pls
3527 4651 Pls
3527 4520 Pls
3527 4447 Pls
3527 4440 Pls
4447 4017 Pls
4447 4159 Pls
4447 4362 Pls
4447 4031 Pls
4908 3816 Pls
4908 4015 Pls
4908 4126 Pls
4908 4167 Pls
5368 2840 Pls
5368 3617 Pls
5368 4047 Pls
5368 4294 Pls
5828 2728 Pls
5828 3657 Pls
5828 4258 Pls
5828 3883 Pls
6289 2592 Pls
6289 3491 Pls
6289 3848 Pls
6289 3928 Pls
1685 4739 Pls
1685 4292 Pls
1685 4372 Pls
1685 4100 Pls
2146 4739 Pls
2146 4379 Pls
2146 4201 Pls
2146 4124 Pls
2606 4660 Pls
2606 4416 Pls
2606 4404 Pls
2606 4282 Pls
3066 4660 Pls
3066 4221 Pls
3066 4314 Pls
3066 4118 Pls
3527 4651 Pls
3527 4186 Pls
3527 4335 Pls
3527 4270 Pls
4447 3555 Pls
4447 4006 Pls
4447 3813 Pls
4447 4157 Pls
4908 2988 Pls
4908 3388 Pls
4908 3795 Pls
4908 3878 Pls
5368 2531 Pls
5368 3102 Pls
5368 3466 Pls
5368 3471 Pls
5828 2197 Pls
5828 2750 Pls
5828 3293 Pls
5828 3383 Pls
6289 1937 Pls
6289 2792 Pls
6289 2972 Pls
6289 3477 Pls
1685 4739 Pls
1685 4430 Pls
1685 4052 Pls
1685 3954 Pls
2146 4739 Pls
2146 4310 Pls
2146 3923 Pls
2146 4097 Pls
2606 4660 Pls
2606 4261 Pls
2606 4222 Pls
2606 3923 Pls
3066 4494 Pls
3066 4041 Pls
3066 4181 Pls
3066 3939 Pls
3527 4573 Pls
3527 4364 Pls
3527 4443 Pls
3527 4193 Pls
4447 3199 Pls
4447 3585 Pls
4447 3740 Pls
4447 3743 Pls
4908 2718 Pls
4908 2922 Pls
4908 3565 Pls
4908 3582 Pls
5368 2252 Pls
5368 2498 Pls
5368 3054 Pls
5368 3309 Pls
5828 1741 Pls
5828 2400 Pls
5828 2828 Pls
5828 3176 Pls
6289 1521 Pls
6289 2357 Pls
6289 2575 Pls
6289 2980 Pls
1685 4739 Pls
1685 4686 Pls
1685 4585 Pls
1685 4739 Pls
2146 4739 Pls
2146 4652 Pls
2146 4664 Pls
2146 4722 Pls
2606 4739 Pls
2606 4711 Pls
2606 4739 Pls
2606 4739 Pls
3066 4739 Pls
3066 4520 Pls
3066 4625 Pls
3066 4720 Pls
3527 4608 Pls
3527 4739 Pls
3527 4640 Pls
3527 4718 Pls
4447 4411 Pls
4447 4739 Pls
4447 4690 Pls
4447 4739 Pls
4908 4739 Pls
4908 4700 Pls
4908 4658 Pls
4908 4739 Pls
5368 4739 Pls
5368 4660 Pls
5368 4739 Pls
5368 4739 Pls
5828 4476 Pls
5828 4660 Pls
5828 4739 Pls
5828 4739 Pls
6289 4404 Pls
6289 4700 Pls
6289 4683 Pls
6289 4739 Pls
1685 4739 Pls
1685 4683 Pls
1685 4514 Pls
1685 4601 Pls
2146 4345 Pls
2146 4624 Pls
2146 4581 Pls
2146 4527 Pls
2606 4739 Pls
2606 4548 Pls
2606 4669 Pls
2606 4633 Pls
3066 4739 Pls
3066 4494 Pls
3066 4510 Pls
3066 4678 Pls
3527 4626 Pls
3527 4512 Pls
3527 4474 Pls
3527 4577 Pls
4447 4450 Pls
4447 4337 Pls
4447 4394 Pls
4447 4592 Pls
4908 4360 Pls
4908 4146 Pls
4908 4613 Pls
4908 4425 Pls
5368 3400 Pls
5368 4384 Pls
5368 4430 Pls
5368 4561 Pls
5828 3752 Pls
5828 4259 Pls
5828 4380 Pls
5828 4460 Pls
6289 3597 Pls
6289 4035 Pls
6289 4329 Pls
6289 4386 Pls
1685 4667 Pls
1685 4618 Pls
1685 4466 Pls
1685 4370 Pls
2146 4673 Pls
2146 4406 Pls
2146 4414 Pls
2146 4300 Pls
2606 4739 Pls
2606 4456 Pls
2606 4421 Pls
2606 4414 Pls
3066 4596 Pls
3066 4660 Pls
3066 4468 Pls
3066 4518 Pls
3527 4739 Pls
3527 4632 Pls
3527 4505 Pls
3527 4421 Pls
4447 3831 Pls
4447 4287 Pls
4447 4445 Pls
4447 4319 Pls
4908 4056 Pls
4908 4031 Pls
4908 3962 Pls
4908 4367 Pls
5368 3178 Pls
5368 3764 Pls
5368 3904 Pls
5368 4123 Pls
5828 2880 Pls
5828 3567 Pls
5828 4026 Pls
5828 3990 Pls
6289 2848 Pls
6289 3242 Pls
6289 3878 Pls
6289 4095 Pls
1685 4529 Pls
1685 4401 Pls
1685 4449 Pls
1685 4149 Pls
2146 4739 Pls
2146 4477 Pls
2146 4340 Pls
2146 4154 Pls
2606 4626 Pls
2606 4519 Pls
2606 4386 Pls
2606 4237 Pls
3066 4589 Pls
3066 4622 Pls
3066 4248 Pls
3066 4110 Pls
3527 4509 Pls
3527 4650 Pls
3527 4540 Pls
3527 4328 Pls
4447 3886 Pls
4447 3756 Pls
4447 4141 Pls
4447 4207 Pls
4908 2784 Pls
4908 3723 Pls
4908 3589 Pls
4908 3863 Pls
5368 2648 Pls
5368 3588 Pls
5368 3273 Pls
5368 3727 Pls
5828 2255 Pls
5828 2977 Pls
5828 3432 Pls
5828 3637 Pls
6289 1947 Pls
6289 2741 Pls
6289 3083 Pls
6289 3397 Pls
1685 4641 Pls
1685 4415 Pls
1685 3994 Pls
1685 3988 Pls
2146 4589 Pls
2146 4331 Pls
2146 4241 Pls
2146 4159 Pls
2606 4561 Pls
2606 4335 Pls
2606 3921 Pls
2606 4188 Pls
3066 4641 Pls
3066 4236 Pls
3066 4286 Pls
3066 4049 Pls
3527 4739 Pls
3527 4397 Pls
3527 4311 Pls
3527 4383 Pls
4447 3034 Pls
4447 3734 Pls
4447 3782 Pls
4447 3926 Pls
4908 2749 Pls
4908 3375 Pls
4908 3414 Pls
4908 3586 Pls
5368 2272 Pls
5368 2690 Pls
5368 3028 Pls
5368 3659 Pls
5828 2082 Pls
5828 2572 Pls
5828 3097 Pls
5828 3324 Pls
6289 1821 Pls
6289 2516 Pls
6289 2935 Pls
6289 3017 Pls
1685 4739 Pls
1685 4556 Pls
1685 4669 Pls
1685 4612 Pls
2146 4739 Pls
2146 4739 Pls
2146 4739 Pls
2146 4723 Pls
2606 4739 Pls
2606 4709 Pls
2606 4669 Pls
2606 4667 Pls
3066 4739 Pls
3066 4739 Pls
3066 4695 Pls
3066 4739 Pls
3527 4739 Pls
3527 4739 Pls
3527 4739 Pls
3527 4739 Pls
4447 4641 Pls
4447 4739 Pls
4447 4739 Pls
4447 4739 Pls
4908 4660 Pls
4908 4739 Pls
4908 4739 Pls
4908 4739 Pls
5368 4483 Pls
5368 4667 Pls
5368 4739 Pls
5368 4739 Pls
5828 4562 Pls
5828 4739 Pls
5828 4656 Pls
5828 4739 Pls
6289 4255 Pls
6289 4589 Pls
6289 4713 Pls
6289 4739 Pls
1685 4660 Pls
1685 4647 Pls
1685 4477 Pls
1685 4512 Pls
2146 4542 Pls
2146 4580 Pls
2146 4448 Pls
2146 4529 Pls
2606 4595 Pls
2606 4600 Pls
2606 4551 Pls
2606 4503 Pls
3066 4739 Pls
3066 4706 Pls
3066 4473 Pls
3066 4657 Pls
3527 4739 Pls
3527 4575 Pls
3527 4591 Pls
3527 4622 Pls
4447 4739 Pls
4447 4596 Pls
4447 4553 Pls
4447 4599 Pls
4908 4214 Pls
4908 4394 Pls
4908 4468 Pls
4908 4475 Pls
5368 4125 Pls
5368 4395 Pls
5368 4246 Pls
5368 4470 Pls
5828 3660 Pls
5828 4324 Pls
5828 4348 Pls
5828 4563 Pls
6289 3516 Pls
6289 4370 Pls
6289 4368 Pls
6289 4413 Pls
1685 4739 Pls
1685 4348 Pls
1685 4432 Pls
1685 4262 Pls
2146 4608 Pls
2146 4431 Pls
2146 4440 Pls
2146 4494 Pls
2606 4641 Pls
2606 4493 Pls
2606 4470 Pls
2606 4512 Pls
3066 4626 Pls
3066 4365 Pls
3066 4693 Pls
3066 4480 Pls
3527 4651 Pls
3527 4608 Pls
3527 4521 Pls
3527 4363 Pls
4447 4450 Pls
4447 4221 Pls
4447 4131 Pls
4447 4479 Pls
4908 3614 Pls
4908 4251 Pls
4908 4044 Pls
4908 4400 Pls
5368 3636 Pls
5368 3640 Pls
5368 3970 Pls
5368 4358 Pls
5828 3133 Pls
5828 3891 Pls
5828 3787 Pls
5828 4237 Pls
6289 3299 Pls
6289 3374 Pls
6289 3824 Pls
6289 4201 Pls
1685 4739 Pls
1685 4385 Pls
1685 4120 Pls
1685 4315 Pls
2146 4651 Pls
2146 4315 Pls
2146 4168 Pls
2146 4178 Pls
2606 4562 Pls
2606 4454 Pls
2606 4342 Pls
2606 4291 Pls
3066 4562 Pls
3066 4622 Pls
3066 4423 Pls
3066 4328 Pls
3527 4536 Pls
3527 4641 Pls
3527 4523 Pls
3527 4568 Pls
4447 4483 Pls
4447 4190 Pls
4447 4303 Pls
4447 4285 Pls
4908 3637 Pls
4908 3578 Pls
4908 4049 Pls
4908 4096 Pls
5368 2777 Pls
5368 3524 Pls
5368 3884 Pls
5368 3845 Pls
5828 2175 Pls
5828 3245 Pls
5828 3293 Pls
5828 3560 Pls
6289 2141 Pls
6289 3361 Pls
6289 3316 Pls
6289 3700 Pls
1685 4673 Pls
1685 4435 Pls
1685 4191 Pls
1685 4017 Pls
2146 4581 Pls
2146 4527 Pls
2146 4431 Pls
2146 4159 Pls
2606 4651 Pls
2606 4404 Pls
2606 4473 Pls
2606 4166 Pls
3066 4739 Pls
3066 4571 Pls
3066 4221 Pls
3066 4253 Pls
3527 4651 Pls
3527 4503 Pls
3527 4416 Pls
3527 4336 Pls
4447 3453 Pls
4447 4018 Pls
4447 4155 Pls
4447 3784 Pls
4908 3063 Pls
4908 3044 Pls
4908 3542 Pls
4908 3836 Pls
5368 2354 Pls
5368 3146 Pls
5368 3197 Pls
5368 3295 Pls
5828 2007 Pls
5828 2749 Pls
5828 3271 Pls
5828 3420 Pls
6289 1592 Pls
6289 2510 Pls
6289 2695 Pls
6289 3237 Pls
1685 4739 Pls
1685 4680 Pls
1685 4655 Pls
1685 4705 Pls
2146 4739 Pls
2146 4739 Pls
2146 4693 Pls
2146 4739 Pls
2606 4739 Pls
2606 4709 Pls
2606 4672 Pls
2606 4704 Pls
3066 4651 Pls
3066 4683 Pls
3066 4711 Pls
3066 4705 Pls
3527 4739 Pls
3527 4638 Pls
3527 4685 Pls
3527 4739 Pls
4447 4608 Pls
4447 4667 Pls
4447 4711 Pls
4447 4739 Pls
4908 4739 Pls
4908 4549 Pls
4908 4713 Pls
4908 4739 Pls
5368 4509 Pls
5368 4700 Pls
5368 4633 Pls
5368 4739 Pls
5828 4739 Pls
5828 4739 Pls
5828 4739 Pls
5828 4739 Pls
6289 4450 Pls
6289 4562 Pls
6289 4711 Pls
6289 4739 Pls
1685 4739 Pls
1685 4739 Pls
1685 4624 Pls
1685 4655 Pls
2146 4660 Pls
2146 4405 Pls
2146 4576 Pls
2146 4492 Pls
2606 4739 Pls
2606 4580 Pls
2606 4669 Pls
2606 4535 Pls
3066 4739 Pls
3066 4574 Pls
3066 4695 Pls
3066 4610 Pls
3527 4739 Pls
3527 4673 Pls
3527 4549 Pls
3527 4550 Pls
4447 4293 Pls
4447 4460 Pls
4447 4517 Pls
4447 4523 Pls
4908 3905 Pls
4908 4497 Pls
4908 4664 Pls
4908 4511 Pls
5368 4083 Pls
5368 4347 Pls
5368 4456 Pls
5368 4520 Pls
5828 3748 Pls
5828 4227 Pls
5828 4441 Pls
5828 4583 Pls
6289 3977 Pls
6289 4490 Pls
6289 4379 Pls
6289 4495 Pls
1685 4739 Pls
1685 4534 Pls
1685 4448 Pls
1685 4356 Pls
2146 4503 Pls
2146 4566 Pls
2146 4339 Pls
2146 4560 Pls
2606 4641 Pls
2606 4369 Pls
2606 4506 Pls
2606 4517 Pls
3066 4739 Pls
3066 4526 Pls
3066 4421 Pls
3066 4488 Pls
3527 4739 Pls
3527 4739 Pls
3527 4489 Pls
3527 4557 Pls
4447 4608 Pls
4447 4510 Pls
4447 4413 Pls
4447 4438 Pls
4908 3243 Pls
4908 4116 Pls
4908 4199 Pls
4908 4243 Pls
5368 3113 Pls
5368 3999 Pls
5368 3918 Pls
5368 4186 Pls
5828 2830 Pls
5828 3759 Pls
5828 4218 Pls
5828 4124 Pls
6289 2840 Pls
6289 3851 Pls
6289 4111 Pls
6289 4225 Pls
1685 4739 Pls
1685 4495 Pls
1685 4422 Pls
1685 4450 Pls
2146 4626 Pls
2146 4566 Pls
2146 4431 Pls
2146 4433 Pls
2606 4580 Pls
2606 4624 Pls
2606 4391 Pls
2606 4428 Pls
3066 4618 Pls
3066 4383 Pls
3066 4563 Pls
3066 4433 Pls
3527 4641 Pls
3527 4529 Pls
3527 4335 Pls
3527 4352 Pls
4447 3638 Pls
4447 4048 Pls
4447 4458 Pls
4447 4199 Pls
4908 3141 Pls
4908 3959 Pls
4908 3883 Pls
4908 4253 Pls
5368 2894 Pls
5368 3423 Pls
5368 3911 Pls
5368 4112 Pls
5828 2319 Pls
5828 3309 Pls
5828 3617 Pls
5828 3911 Pls
6289 2499 Pls
6289 3225 Pls
6289 3572 Pls
6289 3789 Pls
1685 4573 Pls
1685 4367 Pls
1685 4241 Pls
1685 4217 Pls
2146 4573 Pls
2146 4633 Pls
2146 4189 Pls
2146 4218 Pls
2606 4651 Pls
2606 4344 Pls
2606 4542 Pls
2606 4387 Pls
3066 4667 Pls
3066 4366 Pls
3066 4329 Pls
3066 4308 Pls
3527 4739 Pls
3527 4325 Pls
3527 4291 Pls
3527 4406 Pls
4447 3651 Pls
4447 4017 Pls
4447 3777 Pls
4447 3802 Pls
4908 2755 Pls
4908 3287 Pls
4908 3713 Pls
4908 3987 Pls
5368 2589 Pls
5368 3175 Pls
5368 3624 Pls
5368 3410 Pls
5828 2250 Pls
5828 3126 Pls
5828 3219 Pls
5828 3367 Pls
6289 2057 Pls
6289 2749 Pls
6289 2901 Pls
6289 3395 Pls
1685 4739 Pls
1685 4709 Pls
1685 4693 Pls
1685 4668 Pls
2146 4739 Pls
2146 4641 Pls
2146 4695 Pls
2146 4739 Pls
2606 4739 Pls
2606 4739 Pls
2606 4739 Pls
2606 4684 Pls
3066 4739 Pls
3066 4706 Pls
3066 4693 Pls
3066 4739 Pls
3527 4739 Pls
3527 4673 Pls
3527 4739 Pls
3527 4739 Pls
4447 4739 Pls
4447 4641 Pls
4447 4690 Pls
4447 4739 Pls
4908 4739 Pls
4908 4739 Pls
4908 4690 Pls
4908 4739 Pls
5368 4529 Pls
5368 4739 Pls
5368 4655 Pls
5368 4739 Pls
5828 4581 Pls
5828 4660 Pls
5828 4739 Pls
5828 4739 Pls
6289 4514 Pls
6289 4700 Pls
6289 4739 Pls
6289 4739 Pls
1685 4739 Pls
1685 4430 Pls
1685 4636 Pls
1685 4472 Pls
2146 4739 Pls
2146 4716 Pls
2146 4593 Pls
2146 4512 Pls
2606 4569 Pls
2606 4524 Pls
2606 4555 Pls
2606 4648 Pls
3066 4573 Pls
3066 4580 Pls
3066 4572 Pls
3066 4684 Pls
3527 4739 Pls
3527 4739 Pls
3527 4592 Pls
3527 4596 Pls
4447 4739 Pls
4447 4546 Pls
4447 4662 Pls
4447 4698 Pls
4908 4398 Pls
4908 4596 Pls
4908 4686 Pls
4908 4524 Pls
5368 4069 Pls
5368 4190 Pls
5368 4418 Pls
5368 4492 Pls
5828 3925 Pls
5828 4401 Pls
5828 4469 Pls
5828 4489 Pls
6289 3756 Pls
6289 4438 Pls
6289 4474 Pls
6289 4603 Pls
1685 4739 Pls
1685 4509 Pls
1685 4399 Pls
1685 4442 Pls
2146 4533 Pls
2146 4541 Pls
2146 4350 Pls
2146 4402 Pls
2606 4739 Pls
2606 4541 Pls
2606 4472 Pls
2606 4602 Pls
3066 4626 Pls
3066 4395 Pls
3066 4410 Pls
3066 4557 Pls
3527 4739 Pls
3527 4739 Pls
3527 4548 Pls
3527 4560 Pls
4447 4120 Pls
4447 4321 Pls
4447 4425 Pls
4447 4326 Pls
4908 4319 Pls
4908 4310 Pls
4908 4236 Pls
4908 4200 Pls
5368 3623 Pls
5368 4026 Pls
5368 4206 Pls
5368 4323 Pls
5828 2901 Pls
5828 3195 Pls
5828 3903 Pls
5828 4139 Pls
6289 2655 Pls
6289 3542 Pls
6289 4148 Pls
6289 4149 Pls
1685 4660 Pls
1685 4525 Pls
1685 4423 Pls
1685 4486 Pls
2146 4561 Pls
2146 4604 Pls
2146 4351 Pls
2146 4218 Pls
2606 4589 Pls
2606 4525 Pls
2606 4306 Pls
2606 4392 Pls
3066 4660 Pls
3066 4500 Pls
3066 4556 Pls
3066 4245 Pls
3527 4739 Pls
3527 4676 Pls
3527 4498 Pls
3527 4264 Pls
4447 3752 Pls
4447 3896 Pls
4447 4068 Pls
4447 4281 Pls
4908 3504 Pls
4908 3869 Pls
4908 4179 Pls
4908 4089 Pls
5368 3647 Pls
5368 3597 Pls
5368 3857 Pls
5368 4240 Pls
5828 3069 Pls
5828 3544 Pls
5828 3678 Pls
5828 3858 Pls
6289 2946 Pls
6289 3192 Pls
6289 3523 Pls
6289 3588 Pls
1685 4739 Pls
1685 4496 Pls
1685 4342 Pls
1685 4238 Pls
2146 4651 Pls
2146 4446 Pls
2146 4275 Pls
2146 4306 Pls
2606 4739 Pls
2606 4398 Pls
2606 4496 Pls
2606 4349 Pls
3066 4511 Pls
3066 4463 Pls
3066 4445 Pls
3066 4379 Pls
3527 4739 Pls
3527 4497 Pls
3527 4480 Pls
3527 4289 Pls
4447 3951 Pls
4447 3830 Pls
4447 4180 Pls
4447 4289 Pls
4908 3754 Pls
4908 3318 Pls
4908 3773 Pls
4908 3870 Pls
5368 2425 Pls
5368 3345 Pls
5368 3796 Pls
5368 3543 Pls
5828 2551 Pls
5828 3089 Pls
5828 3305 Pls
5828 3329 Pls
6289 2069 Pls
6289 2999 Pls
6289 3314 Pls
6289 3335 Pls
1685 4739 Pls
1685 4648 Pls
1685 4739 Pls
1685 4687 Pls
2146 4739 Pls
2146 4739 Pls
2146 4695 Pls
2146 4705 Pls
2606 4739 Pls
2606 4683 Pls
2606 4739 Pls
2606 4705 Pls
3066 4739 Pls
3066 4667 Pls
3066 4739 Pls
3066 4739 Pls
3527 4739 Pls
3527 4739 Pls
3527 4739 Pls
3527 4739 Pls
4447 4739 Pls
4447 4739 Pls
4447 4739 Pls
4447 4739 Pls
4908 4739 Pls
4908 4739 Pls
4908 4739 Pls
4908 4739 Pls
5368 4739 Pls
5368 4628 Pls
5368 4739 Pls
5368 4739 Pls
5828 4739 Pls
5828 4739 Pls
5828 4686 Pls
5828 4739 Pls
6289 4608 Pls
6289 4667 Pls
6289 4686 Pls
6289 4739 Pls
1685 4626 Pls
1685 4709 Pls
1685 4675 Pls
1685 4690 Pls
2146 4739 Pls
2146 4709 Pls
2146 4601 Pls
2146 4723 Pls
2606 4739 Pls
2606 4632 Pls
2606 4739 Pls
2606 4638 Pls
3066 4660 Pls
3066 4678 Pls
3066 4716 Pls
3066 4623 Pls
3527 4739 Pls
3527 4739 Pls
3527 4617 Pls
3527 4720 Pls
4447 4581 Pls
4447 4628 Pls
4447 4585 Pls
4447 4739 Pls
4908 4739 Pls
4908 4618 Pls
4908 4535 Pls
4908 4660 Pls
5368 4476 Pls
5368 4538 Pls
5368 4578 Pls
5368 4621 Pls
5828 4463 Pls
5828 4536 Pls
5828 4678 Pls
5828 4659 Pls
6289 3886 Pls
6289 4536 Pls
6289 4585 Pls
6289 4625 Pls
1685 4651 Pls
1685 4662 Pls
1685 4532 Pls
1685 4588 Pls
2146 4739 Pls
2146 4616 Pls
2146 4703 Pls
2146 4585 Pls
2606 4739 Pls
2606 4613 Pls
2606 4580 Pls
2606 4643 Pls
3066 4739 Pls
3066 4678 Pls
3066 4629 Pls
3066 4682 Pls
3527 4739 Pls
3527 4646 Pls
3527 4508 Pls
3527 4678 Pls
4447 4581 Pls
4447 4618 Pls
4447 4630 Pls
4447 4611 Pls
4908 4319 Pls
4908 4450 Pls
4908 4413 Pls
4908 4626 Pls
5368 3656 Pls
5368 4171 Pls
5368 4537 Pls
5368 4423 Pls
5828 3391 Pls
5828 4340 Pls
5828 4412 Pls
5828 4509 Pls
6289 3173 Pls
6289 4320 Pls
6289 4159 Pls
6289 4370 Pls
1685 4608 Pls
1685 4527 Pls
1685 4493 Pls
1685 4571 Pls
2146 4667 Pls
2146 4640 Pls
2146 4535 Pls
2146 4588 Pls
2606 4739 Pls
2606 4654 Pls
2606 4566 Pls
2606 4458 Pls
3066 4739 Pls
3066 4630 Pls
3066 4507 Pls
3066 4456 Pls
3527 4651 Pls
3527 4667 Pls
3527 4503 Pls
3527 4654 Pls
4447 4739 Pls
4447 4386 Pls
4447 4568 Pls
4447 4542 Pls
4908 3964 Pls
4908 4144 Pls
4908 4363 Pls
4908 4410 Pls
5368 3323 Pls
5368 4074 Pls
5368 4340 Pls
5368 4379 Pls
5828 3529 Pls
5828 3977 Pls
5828 4010 Pls
5828 4202 Pls
6289 3143 Pls
6289 3827 Pls
6289 4151 Pls
6289 4210 Pls
1685 4739 Pls
1685 4574 Pls
1685 4623 Pls
1685 4567 Pls
2146 4641 Pls
2146 4664 Pls
2146 4580 Pls
2146 4525 Pls
2606 4739 Pls
2606 4711 Pls
2606 4565 Pls
2606 4581 Pls
3066 4667 Pls
3066 4654 Pls
3066 4515 Pls
3066 4594 Pls
3527 4739 Pls
3527 4678 Pls
3527 4485 Pls
3527 4501 Pls
4447 4411 Pls
4447 4406 Pls
4447 4504 Pls
4447 4359 Pls
4908 3886 Pls
4908 4339 Pls
4908 3993 Pls
4908 4393 Pls
5368 3557 Pls
5368 3973 Pls
5368 3987 Pls
5368 4306 Pls
5828 2952 Pls
5828 3362 Pls
5828 4115 Pls
5828 4012 Pls
6289 2714 Pls
6289 3185 Pls
6289 3762 Pls
6289 3815 Pls
1685 4739 Pls
1685 4683 Pls
1685 4739 Pls
1685 4739 Pls
2146 4739 Pls
2146 4739 Pls
2146 4664 Pls
2146 4739 Pls
2606 4739 Pls
2606 4739 Pls
2606 4739 Pls
2606 4739 Pls
3066 4739 Pls
3066 4739 Pls
3066 4714 Pls
3066 4739 Pls
3527 4739 Pls
3527 4739 Pls
3527 4739 Pls
3527 4739 Pls
4447 4476 Pls
4447 4739 Pls
4447 4713 Pls
4447 4739 Pls
4908 4660 Pls
4908 4739 Pls
4908 4739 Pls
4908 4739 Pls
5368 4739 Pls
5368 4695 Pls
5368 4690 Pls
5368 4739 Pls
5828 4739 Pls
5828 4695 Pls
5828 4739 Pls
5828 4739 Pls
6289 4450 Pls
6289 4667 Pls
6289 4739 Pls
6289 4739 Pls
1685 4739 Pls
1685 4739 Pls
1685 4717 Pls
1685 4722 Pls
2146 4739 Pls
2146 4617 Pls
2146 4739 Pls
2146 4672 Pls
2606 4739 Pls
2606 4660 Pls
2606 4739 Pls
2606 4706 Pls
3066 4739 Pls
3066 4706 Pls
3066 4651 Pls
3066 4656 Pls
3527 4739 Pls
3527 4739 Pls
3527 4643 Pls
3527 4739 Pls
4447 4739 Pls
4447 4700 Pls
4447 4739 Pls
4447 4701 Pls
4908 4529 Pls
4908 4739 Pls
4908 4658 Pls
4908 4670 Pls
5368 4542 Pls
5368 4548 Pls
5368 4739 Pls
5368 4701 Pls
5828 4608 Pls
5828 4449 Pls
5828 4637 Pls
5828 4719 Pls
6289 4503 Pls
6289 4739 Pls
6289 4611 Pls
6289 4660 Pls
1685 4626 Pls
1685 4690 Pls
1685 4600 Pls
1685 4707 Pls
2146 4739 Pls
2146 4739 Pls
2146 4693 Pls
2146 4625 Pls
2606 4739 Pls
2606 4604 Pls
2606 4698 Pls
2606 4669 Pls
3066 4739 Pls
3066 4739 Pls
3066 4651 Pls
3066 4703 Pls
3527 4739 Pls
3527 4739 Pls
3527 4695 Pls
3527 4705 Pls
4447 4739 Pls
4447 4667 Pls
4447 4611 Pls
4447 4677 Pls
4908 4411 Pls
4908 4409 Pls
4908 4586 Pls
4908 4701 Pls
5368 4266 Pls
5368 4451 Pls
5368 4664 Pls
5368 4579 Pls
5828 3925 Pls
5828 4278 Pls
5828 4511 Pls
5828 4646 Pls
6289 4273 Pls
6289 4628 Pls
6289 4454 Pls
6289 4519 Pls
1685 4651 Pls
1685 4640 Pls
1685 4665 Pls
1685 4642 Pls
2146 4739 Pls
2146 4683 Pls
2146 4582 Pls
2146 4660 Pls
2606 4739 Pls
2606 4610 Pls
2606 4677 Pls
2606 4606 Pls
3066 4591 Pls
3066 4643 Pls
3066 4610 Pls
3066 4621 Pls
3527 4739 Pls
3527 4622 Pls
3527 4648 Pls
3527 4605 Pls
4447 4509 Pls
4447 4503 Pls
4447 4686 Pls
4447 4531 Pls
4908 3951 Pls
4908 4393 Pls
4908 4509 Pls
4908 4346 Pls
5368 3597 Pls
5368 4273 Pls
5368 4489 Pls
5368 4605 Pls
5828 4117 Pls
5828 4059 Pls
5828 4440 Pls
5828 4356 Pls
6289 3373 Pls
6289 4061 Pls
6289 4430 Pls
6289 4271 Pls
1685 4641 Pls
1685 4568 Pls
1685 4419 Pls
1685 4635 Pls
2146 4739 Pls
2146 4739 Pls
2146 4677 Pls
2146 4583 Pls
2606 4739 Pls
2606 4629 Pls
2606 4664 Pls
2606 4534 Pls
3066 4739 Pls
3066 4683 Pls
3066 4662 Pls
3066 4639 Pls
3527 4739 Pls
3527 4627 Pls
3527 4646 Pls
3527 4618 Pls
4447 4161 Pls
4447 4487 Pls
4447 4550 Pls
4447 4498 Pls
4908 3886 Pls
4908 3974 Pls
4908 3959 Pls
4908 4356 Pls
5368 3851 Pls
5368 3867 Pls
5368 4261 Pls
5368 4133 Pls
5828 2923 Pls
5828 3641 Pls
5828 3993 Pls
5828 4219 Pls
6289 3340 Pls
6289 3849 Pls
6289 3771 Pls
6289 4260 Pls
1685 4739 Pls
1685 4739 Pls
1685 4686 Pls
1685 4739 Pls
2146 4739 Pls
2146 4739 Pls
2146 4739 Pls
2146 4723 Pls
2606 4739 Pls
2606 4709 Pls
2606 4713 Pls
2606 4739 Pls
3066 4739 Pls
3066 4739 Pls
3066 4739 Pls
3066 4739 Pls
3527 4739 Pls
3527 4739 Pls
3527 4739 Pls
3527 4739 Pls
4447 4739 Pls
4447 4739 Pls
4447 4739 Pls
4447 4739 Pls
4908 4581 Pls
4908 4667 Pls
4908 4739 Pls
4908 4739 Pls
5368 4739 Pls
5368 4739 Pls
5368 4739 Pls
5368 4739 Pls
5828 4739 Pls
5828 4695 Pls
5828 4706 Pls
5828 4739 Pls
6289 4739 Pls
6289 4739 Pls
6289 4739 Pls
6289 4739 Pls
1685 4739 Pls
1685 4686 Pls
1685 4695 Pls
1685 4705 Pls
2146 4739 Pls
2146 4690 Pls
2146 4739 Pls
2146 4705 Pls
2606 4739 Pls
2606 4621 Pls
2606 4739 Pls
2606 4739 Pls
3066 4739 Pls
3066 4711 Pls
3066 4651 Pls
3066 4709 Pls
3527 4739 Pls
3527 4739 Pls
3527 4714 Pls
3527 4739 Pls
4447 4608 Pls
4447 4739 Pls
4447 4637 Pls
4447 4718 Pls
4908 4739 Pls
4908 4739 Pls
4908 4739 Pls
4908 4739 Pls
5368 4739 Pls
5368 4525 Pls
5368 4621 Pls
5368 4739 Pls
5828 4450 Pls
5828 4573 Pls
5828 4682 Pls
5828 4698 Pls
6289 4608 Pls
6289 4524 Pls
6289 4626 Pls
6289 4718 Pls
1685 4739 Pls
1685 4739 Pls
1685 4698 Pls
1685 4592 Pls
2146 4626 Pls
2146 4690 Pls
2146 4681 Pls
2146 4667 Pls
2606 4739 Pls
2606 4739 Pls
2606 4714 Pls
2606 4739 Pls
3066 4739 Pls
3066 4739 Pls
3066 4601 Pls
3066 4635 Pls
3527 4641 Pls
3527 4739 Pls
3527 4648 Pls
3527 4700 Pls
4447 4739 Pls
4447 4589 Pls
4447 4686 Pls
4447 4603 Pls
4908 4317 Pls
4908 4667 Pls
4908 4621 Pls
4908 4642 Pls
5368 4570 Pls
5368 4739 Pls
5368 4690 Pls
5368 4623 Pls
5828 4739 Pls
5828 4667 Pls
5828 4739 Pls
5828 4595 Pls
6289 3887 Pls
6289 4616 Pls
6289 4396 Pls
6289 4631 Pls
1685 4739 Pls
1685 4739 Pls
1685 4721 Pls
1685 4620 Pls
2146 4739 Pls
2146 4660 Pls
2146 4703 Pls
2146 4640 Pls
2606 4739 Pls
2606 4662 Pls
2606 4690 Pls
2606 4570 Pls
3066 4739 Pls
3066 4618 Pls
3066 4698 Pls
3066 4670 Pls
3527 4651 Pls
3527 4678 Pls
3527 4739 Pls
3527 4674 Pls
4447 4542 Pls
4447 4510 Pls
4447 4350 Pls
4447 4626 Pls
4908 4266 Pls
4908 4497 Pls
4908 4550 Pls
4908 4621 Pls
5368 3914 Pls
5368 4396 Pls
5368 4433 Pls
5368 4555 Pls
5828 3951 Pls
5828 4540 Pls
5828 4365 Pls
5828 4514 Pls
6289 3857 Pls
6289 4265 Pls
6289 4393 Pls
6289 4405 Pls
1685 4673 Pls
1685 4739 Pls
1685 4682 Pls
1685 4677 Pls
2146 4739 Pls
2146 4634 Pls
2146 4577 Pls
2146 4593 Pls
2606 4739 Pls
2606 4739 Pls
2606 4678 Pls
2606 4628 Pls
3066 4739 Pls
3066 4683 Pls
3066 4639 Pls
3066 4657 Pls
3527 4739 Pls
3527 4739 Pls
3527 4698 Pls
3527 4739 Pls
4447 4293 Pls
4447 4621 Pls
4447 4658 Pls
4447 4558 Pls
4908 4214 Pls
4908 4253 Pls
4908 4235 Pls
4908 4553 Pls
5368 3897 Pls
5368 4229 Pls
5368 4284 Pls
5368 4417 Pls
5828 3498 Pls
5828 3894 Pls
5828 4109 Pls
5828 4347 Pls
6289 3398 Pls
6289 4197 Pls
6289 4059 Pls
6289 4330 Pls
1685 4739 Pls
1685 4739 Pls
1685 4701 Pls
1685 4739 Pls
2146 4739 Pls
2146 4739 Pls
2146 4739 Pls
2146 4739 Pls
2606 4739 Pls
2606 4739 Pls
2606 4716 Pls
2606 4739 Pls
3066 4683 Pls
3066 4739 Pls
3066 4739 Pls
3066 4739 Pls
3527 4739 Pls
3527 4739 Pls
3527 4691 Pls
3527 4739 Pls
4447 4739 Pls
4447 4739 Pls
4447 4739 Pls
4447 4739 Pls
4908 4660 Pls
4908 4739 Pls
4908 4739 Pls
4908 4739 Pls
5368 4739 Pls
5368 4667 Pls
5368 4739 Pls
5368 4739 Pls
5828 4739 Pls
5828 4700 Pls
5828 4739 Pls
5828 4739 Pls
6289 4608 Pls
6289 4739 Pls
6289 4739 Pls
6289 4739 Pls
1685 4739 Pls
1685 4667 Pls
1685 4620 Pls
1685 4673 Pls
2146 4739 Pls
2146 4739 Pls
2146 4739 Pls
2146 4739 Pls
2606 4739 Pls
2606 4683 Pls
2606 4698 Pls
2606 4683 Pls
3066 4739 Pls
3066 4709 Pls
3066 4739 Pls
3066 4739 Pls
3527 4608 Pls
3527 4739 Pls
3527 4739 Pls
3527 4739 Pls
4447 4739 Pls
4447 4667 Pls
4447 4690 Pls
4447 4700 Pls
4908 4608 Pls
4908 4651 Pls
4908 4739 Pls
4908 4664 Pls
5368 4529 Pls
5368 4660 Pls
5368 4690 Pls
5368 4739 Pls
5828 4608 Pls
5828 4695 Pls
5828 4585 Pls
5828 4698 Pls
6289 4476 Pls
6289 4667 Pls
6289 4686 Pls
6289 4588 Pls
1685 4739 Pls
1685 4739 Pls
1685 4698 Pls
1685 4739 Pls
2146 4739 Pls
2146 4739 Pls
2146 4610 Pls
2146 4723 Pls
2606 4739 Pls
2606 4739 Pls
2606 4628 Pls
2606 4684 Pls
3066 4739 Pls
3066 4568 Pls
3066 4680 Pls
3066 4668 Pls
3527 4651 Pls
3527 4739 Pls
3527 4690 Pls
3527 4739 Pls
4447 4739 Pls
4447 4589 Pls
4447 4595 Pls
4447 4623 Pls
4908 4476 Pls
4908 4667 Pls
4908 4739 Pls
4908 4621 Pls
5368 4398 Pls
5368 4569 Pls
5368 4591 Pls
5368 4605 Pls
5828 4739 Pls
5828 4628 Pls
5828 4633 Pls
5828 4660 Pls
6289 4235 Pls
6289 4596 Pls
6289 4548 Pls
6289 4586 Pls
1685 4739 Pls
1685 4739 Pls
1685 4695 Pls
1685 4710 Pls
2146 4739 Pls
2146 4695 Pls
2146 4577 Pls
2146 4669 Pls
2606 4739 Pls
2606 4739 Pls
2606 4693 Pls
2606 4710 Pls
3066 4739 Pls
3066 4686 Pls
3066 4700 Pls
3066 4676 Pls
3527 4739 Pls
3527 4739 Pls
3527 4739 Pls
3527 4672 Pls
4447 4739 Pls
4447 4542 Pls
4447 4599 Pls
4447 4695 Pls
4908 4450 Pls
4908 4517 Pls
4908 4535 Pls
4908 4629 Pls
5368 4581 Pls
5368 4581 Pls
5368 4513 Pls
5368 4622 Pls
5828 4384 Pls
5828 4439 Pls
5828 4243 Pls
5828 4535 Pls
6289 4188 Pls
6289 4262 Pls
6289 4280 Pls
6289 4455 Pls
1685 4739 Pls
1685 4739 Pls
1685 4575 Pls
1685 4674 Pls
2146 4739 Pls
2146 4565 Pls
2146 4613 Pls
2146 4645 Pls
2606 4739 Pls
2606 4651 Pls
2606 4611 Pls
2606 4678 Pls
3066 4739 Pls
3066 4739 Pls
3066 4676 Pls
3066 4588 Pls
3527 4739 Pls
3527 4739 Pls
3527 4693 Pls
3527 4596 Pls
4447 4188 Pls
4447 4596 Pls
4447 4585 Pls
4447 4517 Pls
4908 3800 Pls
4908 4235 Pls
4908 4490 Pls
4908 4508 Pls
5368 3846 Pls
5368 4353 Pls
5368 4558 Pls
5368 4433 Pls
5828 3833 Pls
5828 4418 Pls
5828 4411 Pls
5828 4479 Pls
6289 3513 Pls
6289 4165 Pls
6289 4250 Pls
6289 4427 Pls
1685 4739 Pls
1685 4711 Pls
1685 4695 Pls
1685 4739 Pls
2146 4739 Pls
2146 4739 Pls
2146 4714 Pls
2146 4739 Pls
2606 4673 Pls
2606 4739 Pls
2606 4739 Pls
2606 4739 Pls
3066 4739 Pls
3066 4739 Pls
3066 4739 Pls
3066 4739 Pls
3527 4739 Pls
3527 4739 Pls
3527 4739 Pls
3527 4739 Pls
4447 4739 Pls
4447 4739 Pls
4447 4739 Pls
4447 4739 Pls
4908 4608 Pls
4908 4739 Pls
4908 4739 Pls
4908 4739 Pls
5368 4660 Pls
5368 4739 Pls
5368 4739 Pls
5368 4739 Pls
5828 4739 Pls
5828 4739 Pls
5828 4739 Pls
5828 4739 Pls
6289 4739 Pls
6289 4739 Pls
6289 4739 Pls
6289 4739 Pls
1685 4739 Pls
1685 4739 Pls
1685 4739 Pls
1685 4643 Pls
2146 4739 Pls
2146 4739 Pls
2146 4675 Pls
2146 4709 Pls
2606 4739 Pls
2606 4739 Pls
2606 4739 Pls
2606 4739 Pls
3066 4739 Pls
3066 4739 Pls
3066 4700 Pls
3066 4705 Pls
3527 4739 Pls
3527 4648 Pls
3527 4643 Pls
3527 4739 Pls
4447 4476 Pls
4447 4700 Pls
4447 4739 Pls
4447 4698 Pls
4908 4450 Pls
4908 4739 Pls
4908 4690 Pls
4908 4658 Pls
5368 4476 Pls
5368 4739 Pls
5368 4713 Pls
5368 4698 Pls
5828 4608 Pls
5828 4651 Pls
5828 4611 Pls
5828 4739 Pls
6289 4608 Pls
6289 4507 Pls
6289 4709 Pls
6289 4700 Pls
1685 4739 Pls
1685 4595 Pls
1685 4693 Pls
1685 4680 Pls
2146 4651 Pls
2146 4678 Pls
2146 4739 Pls
2146 4721 Pls
2606 4739 Pls
2606 4739 Pls
2606 4700 Pls
2606 4739 Pls
3066 4739 Pls
3066 4739 Pls
3066 4739 Pls
3066 4704 Pls
3527 4739 Pls
3527 4673 Pls
3527 4739 Pls
3527 4707 Pls
4447 4739 Pls
4447 4517 Pls
4447 4739 Pls
4447 4662 Pls
4908 4411 Pls
4908 4695 Pls
4908 4641 Pls
4908 4619 Pls
5368 4608 Pls
5368 4410 Pls
5368 4641 Pls
5368 4581 Pls
5828 4319 Pls
5828 4517 Pls
5828 4551 Pls
5828 4601 Pls
6289 4100 Pls
6289 4388 Pls
6289 4690 Pls
6289 4656 Pls
1685 4739 Pls
1685 4739 Pls
1685 4739 Pls
1685 4643 Pls
2146 4739 Pls
2146 4637 Pls
2146 4637 Pls
2146 4656 Pls
2606 4739 Pls
2606 4739 Pls
2606 4698 Pls
2606 4712 Pls
3066 4739 Pls
3066 4739 Pls
3066 4670 Pls
3066 4687 Pls
3527 4739 Pls
3527 4678 Pls
3527 4739 Pls
3527 4623 Pls
4447 4345 Pls
4447 4612 Pls
4447 4739 Pls
4447 4630 Pls
4908 4476 Pls
4908 4382 Pls
4908 4651 Pls
4908 4625 Pls
5368 4450 Pls
5368 4449 Pls
5368 4534 Pls
5368 4522 Pls
5828 3951 Pls
5828 4562 Pls
5828 4571 Pls
5828 4546 Pls
6289 4056 Pls
6289 4231 Pls
6289 4475 Pls
6289 4488 Pls
1685 4739 Pls
1685 4673 Pls
1685 4656 Pls
1685 4581 Pls
2146 4739 Pls
2146 4673 Pls
2146 4680 Pls
2146 4691 Pls
2606 4667 Pls
2606 4615 Pls
2606 4630 Pls
2606 4580 Pls
3066 4739 Pls
3066 4690 Pls
3066 4551 Pls
3066 4598 Pls
3527 4739 Pls
3527 4665 Pls
3527 4672 Pls
3527 4694 Pls
4447 4345 Pls
4447 4667 Pls
4447 4686 Pls
4447 4662 Pls
4908 3886 Pls
4908 4510 Pls
4908 4588 Pls
4908 4506 Pls
5368 4188 Pls
5368 4536 Pls
5368 4585 Pls
5368 4489 Pls
5828 4148 Pls
5828 4208 Pls
5828 4306 Pls
5828 4531 Pls
6289 3848 Pls
6289 4238 Pls
6289 4333 Pls
6289 4276 Pls
1685 4739 Pls
1685 4739 Pls
1685 4700 Pls
1685 4739 Pls
2146 4739 Pls
2146 4739 Pls
2146 4739 Pls
2146 4739 Pls
2606 4739 Pls
2606 4706 Pls
2606 4739 Pls
2606 4739 Pls
3066 4739 Pls
3066 4739 Pls
3066 4695 Pls
3066 4739 Pls
3527 4739 Pls
3527 4739 Pls
3527 4739 Pls
3527 4739 Pls
4447 4739 Pls
4447 4739 Pls
4447 4739 Pls
4447 4739 Pls
4908 4739 Pls
4908 4739 Pls
4908 4739 Pls
4908 4739 Pls
5368 4581 Pls
5368 4660 Pls
5368 4739 Pls
5368 4739 Pls
5828 4739 Pls
5828 4739 Pls
5828 4739 Pls
5828 4739 Pls
6289 4581 Pls
6289 4739 Pls
6289 4711 Pls
6289 4739 Pls
1685 4739 Pls
1685 4683 Pls
1685 4714 Pls
1685 4722 Pls
2146 4739 Pls
2146 4739 Pls
2146 4660 Pls
2146 4653 Pls
2606 4739 Pls
2606 4739 Pls
2606 4713 Pls
2606 4739 Pls
3066 4739 Pls
3066 4739 Pls
3066 4656 Pls
3066 4673 Pls
3527 4739 Pls
3527 4645 Pls
3527 4739 Pls
3527 4739 Pls
4447 4739 Pls
4447 4739 Pls
4447 4739 Pls
4447 4664 Pls
4908 4739 Pls
4908 4739 Pls
4908 4686 Pls
4908 4739 Pls
5368 4581 Pls
5368 4695 Pls
5368 4686 Pls
5368 4739 Pls
5828 4739 Pls
5828 4621 Pls
5828 4634 Pls
5828 4695 Pls
6289 4660 Pls
6289 4700 Pls
6289 4686 Pls
6289 4662 Pls
1685 4739 Pls
1685 4739 Pls
1685 4739 Pls
1685 4667 Pls
2146 4739 Pls
2146 4693 Pls
2146 4660 Pls
2146 4739 Pls
2606 4739 Pls
2606 4739 Pls
2606 4718 Pls
2606 4706 Pls
3066 4739 Pls
3066 4683 Pls
3066 4739 Pls
3066 4706 Pls
3527 4739 Pls
3527 4739 Pls
3527 4739 Pls
3527 4672 Pls
4447 4608 Pls
4447 4660 Pls
4447 4690 Pls
4447 4662 Pls
4908 4608 Pls
4908 4455 Pls
4908 4555 Pls
4908 4653 Pls
5368 4503 Pls
5368 4667 Pls
5368 4686 Pls
5368 4623 Pls
5828 4017 Pls
5828 4497 Pls
5828 4660 Pls
5828 4660 Pls
6289 4371 Pls
6289 4660 Pls
6289 4596 Pls
6289 4620 Pls
1685 4739 Pls
1685 4739 Pls
1685 4693 Pls
1685 4672 Pls
2146 4739 Pls
2146 4739 Pls
2146 4656 Pls
2146 4650 Pls
2606 4660 Pls
2606 4739 Pls
2606 4671 Pls
2606 4698 Pls
3066 4660 Pls
3066 4739 Pls
3066 4628 Pls
3066 4706 Pls
3527 4739 Pls
3527 4739 Pls
3527 4717 Pls
3527 4739 Pls
4447 4608 Pls
4447 4562 Pls
4447 4584 Pls
4447 4637 Pls
4908 4345 Pls
4908 4191 Pls
4908 4690 Pls
4908 4660 Pls
5368 4345 Pls
5368 4510 Pls
5368 4510 Pls
5368 4640 Pls
5828 4214 Pls
5828 4517 Pls
5828 4311 Pls
5828 4602 Pls
6289 4411 Pls
6289 4470 Pls
6289 4634 Pls
6289 4698 Pls
1685 4667 Pls
1685 4711 Pls
1685 4541 Pls
1685 4739 Pls
2146 4739 Pls
2146 4690 Pls
2146 4670 Pls
2146 4616 Pls
2606 4739 Pls
2606 4596 Pls
2606 4700 Pls
2606 4709 Pls
3066 4739 Pls
3066 4634 Pls
3066 4581 Pls
3066 4670 Pls
3527 4739 Pls
3527 4739 Pls
3527 4651 Pls
3527 4672 Pls
4447 4608 Pls
4447 4589 Pls
4447 4581 Pls
4447 4630 Pls
4908 4411 Pls
4908 4335 Pls
4908 4390 Pls
4908 4440 Pls
5368 4332 Pls
5368 4470 Pls
5368 4413 Pls
5368 4493 Pls
5828 4345 Pls
5828 4352 Pls
5828 4383 Pls
5828 4522 Pls
6289 3162 Pls
6289 4205 Pls
6289 4217 Pls
6289 4660 Pls
1685 4739 Pls
1685 4739 Pls
1685 4739 Pls
1685 4739 Pls
2146 4739 Pls
2146 4739 Pls
2146 4739 Pls
2146 4739 Pls
2606 4739 Pls
2606 4739 Pls
2606 4739 Pls
2606 4739 Pls
3066 4660 Pls
3066 4739 Pls
3066 4695 Pls
3066 4739 Pls
3527 4739 Pls
3527 4739 Pls
3527 4739 Pls
3527 4739 Pls
4447 4739 Pls
4447 4700 Pls
4447 4739 Pls
4447 4739 Pls
4908 4739 Pls
4908 4700 Pls
4908 4713 Pls
4908 4739 Pls
5368 4739 Pls
5368 4739 Pls
5368 4652 Pls
5368 4739 Pls
5828 4739 Pls
5828 4739 Pls
5828 4739 Pls
5828 4739 Pls
6289 4608 Pls
6289 4660 Pls
6289 4739 Pls
6289 4739 Pls
1685 4739 Pls
1685 4739 Pls
1685 4705 Pls
1685 4739 Pls
2146 4739 Pls
2146 4627 Pls
2146 4654 Pls
2146 4739 Pls
2606 4739 Pls
2606 4739 Pls
2606 4686 Pls
2606 4673 Pls
3066 4739 Pls
3066 4739 Pls
3066 4739 Pls
3066 4739 Pls
3527 4739 Pls
3527 4739 Pls
3527 4671 Pls
3527 4703 Pls
4447 4739 Pls
4447 4739 Pls
4447 4739 Pls
4447 4718 Pls
4908 4739 Pls
4908 4739 Pls
4908 4739 Pls
4908 4718 Pls
5368 4476 Pls
5368 4667 Pls
5368 4660 Pls
5368 4701 Pls
5828 4581 Pls
5828 4596 Pls
5828 4630 Pls
5828 4739 Pls
6289 4739 Pls
6289 4596 Pls
6289 4711 Pls
6289 4701 Pls
1685 4739 Pls
1685 4739 Pls
1685 4664 Pls
1685 4678 Pls
2146 4739 Pls
2146 4739 Pls
2146 4676 Pls
2146 4692 Pls
2606 4651 Pls
2606 4739 Pls
2606 4658 Pls
2606 4721 Pls
3066 4739 Pls
3066 4739 Pls
3066 4700 Pls
3066 4739 Pls
3527 4739 Pls
3527 4739 Pls
3527 4695 Pls
3527 4700 Pls
4447 4739 Pls
4447 4596 Pls
4447 4690 Pls
4447 4739 Pls
4908 4739 Pls
4908 4589 Pls
4908 4634 Pls
4908 4739 Pls
5368 4083 Pls
5368 4660 Pls
5368 4709 Pls
5368 4662 Pls
5828 4739 Pls
5828 4739 Pls
5828 4660 Pls
5828 4664 Pls
6289 4570 Pls
6289 4651 Pls
6289 4635 Pls
6289 4701 Pls
1685 4739 Pls
1685 4701 Pls
1685 4674 Pls
1685 4673 Pls
2146 4667 Pls
2146 4690 Pls
2146 4739 Pls
2146 4739 Pls
2606 4739 Pls
2606 4739 Pls
2606 4698 Pls
2606 4739 Pls
3066 4739 Pls
3066 4706 Pls
3066 4739 Pls
3066 4739 Pls
3527 4739 Pls
3527 4739 Pls
3527 4739 Pls
3527 4688 Pls
4447 4608 Pls
4447 4596 Pls
4447 4739 Pls
4447 4658 Pls
4908 4739 Pls
4908 4739 Pls
4908 4630 Pls
4908 4658 Pls
5368 4319 Pls
5368 4596 Pls
5368 4479 Pls
5368 4567 Pls
5828 4308 Pls
5828 4573 Pls
5828 4525 Pls
5828 4548 Pls
6289 3991 Pls
6289 4167 Pls
6289 4641 Pls
6289 4574 Pls
1685 4739 Pls
1685 4739 Pls
1685 4690 Pls
1685 4722 Pls
2146 4739 Pls
2146 4739 Pls
2146 4739 Pls
2146 4638 Pls
2606 4739 Pls
2606 4664 Pls
2606 4705 Pls
2606 4706 Pls
3066 4739 Pls
3066 4739 Pls
3066 4739 Pls
3066 4679 Pls
3527 4641 Pls
3527 4678 Pls
3527 4653 Pls
3527 4739 Pls
4447 4739 Pls
4447 4596 Pls
4447 4585 Pls
4447 4656 Pls
4908 4214 Pls
4908 4739 Pls
4908 4641 Pls
4908 4639 Pls
5368 4608 Pls
5368 4602 Pls
5368 4690 Pls
5368 4579 Pls
5828 4041 Pls
5828 4549 Pls
5828 4604 Pls
5828 4516 Pls
6289 4148 Pls
6289 4510 Pls
6289 4493 Pls
6289 4298 Pls
1685 4739 Pls
1685 4739 Pls
1685 4739 Pls
1685 4739 Pls
2146 4739 Pls
2146 4739 Pls
2146 4739 Pls
2146 4739 Pls
2606 4739 Pls
2606 4739 Pls
2606 4739 Pls
2606 4739 Pls
3066 4739 Pls
3066 4739 Pls
3066 4739 Pls
3066 4739 Pls
3527 4739 Pls
3527 4673 Pls
3527 4739 Pls
3527 4739 Pls
4447 4739 Pls
4447 4739 Pls
4447 4739 Pls
4447 4739 Pls
4908 4739 Pls
4908 4739 Pls
4908 4739 Pls
4908 4739 Pls
5368 4739 Pls
5368 4667 Pls
5368 4739 Pls
5368 4739 Pls
5828 4739 Pls
5828 4700 Pls
5828 4739 Pls
5828 4739 Pls
6289 4739 Pls
6289 4700 Pls
6289 4739 Pls
6289 4739 Pls
1685 4739 Pls
1685 4651 Pls
1685 4716 Pls
1685 4709 Pls
2146 4739 Pls
2146 4739 Pls
2146 4739 Pls
2146 4686 Pls
2606 4739 Pls
2606 4739 Pls
2606 4739 Pls
2606 4739 Pls
3066 4739 Pls
3066 4739 Pls
3066 4739 Pls
3066 4739 Pls
3527 4739 Pls
3527 4739 Pls
3527 4739 Pls
3527 4739 Pls
4447 4739 Pls
4447 4739 Pls
4447 4739 Pls
4447 4701 Pls
4908 4739 Pls
4908 4739 Pls
4908 4633 Pls
4908 4739 Pls
5368 4739 Pls
5368 4739 Pls
5368 4739 Pls
5368 4683 Pls
5828 4641 Pls
5828 4739 Pls
5828 4683 Pls
5828 4739 Pls
6289 4739 Pls
6289 4628 Pls
6289 4611 Pls
6289 4739 Pls
1685 4739 Pls
1685 4739 Pls
1685 4739 Pls
1685 4739 Pls
2146 4739 Pls
2146 4739 Pls
2146 4739 Pls
2146 4707 Pls
2606 4739 Pls
2606 4739 Pls
2606 4656 Pls
2606 4705 Pls
3066 4739 Pls
3066 4739 Pls
3066 4739 Pls
3066 4687 Pls
3527 4739 Pls
3527 4739 Pls
3527 4646 Pls
3527 4698 Pls
4447 4739 Pls
4447 4660 Pls
4447 4690 Pls
4447 4739 Pls
4908 4739 Pls
4908 4739 Pls
4908 4495 Pls
4908 4739 Pls
5368 4411 Pls
5368 4739 Pls
5368 4690 Pls
5368 4700 Pls
5828 4581 Pls
5828 4517 Pls
5828 4690 Pls
5828 4617 Pls
6289 4214 Pls
6289 4533 Pls
6289 4588 Pls
6289 4701 Pls
1685 4739 Pls
1685 4739 Pls
1685 4718 Pls
1685 4705 Pls
2146 4739 Pls
2146 4643 Pls
2146 4698 Pls
2146 4667 Pls
2606 4739 Pls
2606 4739 Pls
2606 4664 Pls
2606 4710 Pls
3066 4739 Pls
3066 4739 Pls
3066 4739 Pls
3066 4739 Pls
3527 4739 Pls
3527 4739 Pls
3527 4695 Pls
3527 4672 Pls
4447 4739 Pls
4447 4739 Pls
4447 4690 Pls
4447 4614 Pls
4908 4476 Pls
4908 4667 Pls
4908 4610 Pls
4908 4620 Pls
5368 4450 Pls
5368 4596 Pls
5368 4635 Pls
5368 4640 Pls
5828 4188 Pls
5828 4569 Pls
5828 4359 Pls
5828 4592 Pls
6289 4463 Pls
6289 4398 Pls
6289 4539 Pls
6289 4662 Pls
1685 4739 Pls
1685 4739 Pls
1685 4739 Pls
1685 4670 Pls
2146 4739 Pls
2146 4713 Pls
2146 4739 Pls
2146 4703 Pls
2606 4739 Pls
2606 4739 Pls
2606 4703 Pls
2606 4723 Pls
3066 4739 Pls
3066 4739 Pls
3066 4717 Pls
3066 4580 Pls
3527 4739 Pls
3527 4739 Pls
3527 4739 Pls
3527 4707 Pls
4447 4739 Pls
4447 4739 Pls
4447 4690 Pls
4447 4698 Pls
4908 4096 Pls
4908 4589 Pls
4908 4580 Pls
4908 4625 Pls
5368 4345 Pls
5368 4589 Pls
5368 4476 Pls
5368 4488 Pls
5828 4739 Pls
5828 4529 Pls
5828 4620 Pls
5828 4471 Pls
6289 4083 Pls
6289 4247 Pls
6289 4464 Pls
6289 4621 Pls
% End plot #1
% Begin plot #2
8.000 UL
LT1
LCb setrgbcolor
2425 1488 M
[ [(Helvetica) 250.0 0.0 true true 0 (Average)]
] -83.3 MRshow
LT1
2575 1488 M
663 0 V
1685 4475 M
461 15 V
460 14 V
460 14 V
461 21 V
920 -288 V
461 -169 V
460 -136 V
460 -92 V
461 -86 V
% End plot #2
% Begin plot #3
stroke
4.000 UL
LT2
LCb setrgbcolor
2425 1238 M
[ [(Helvetica) 250.0 0.0 true true 0 (Min)]
] -83.3 MRshow
LT2
2575 1238 M
663 0 V
1685 2521 M
461 -100 V
460 208 V
460 154 V
461 78 V
4447 1436 L
461 -209 V
460 -126 V
460 -25 V
461 -19 V
% End plot #3
% Begin plot #4
stroke
LT3
LCb setrgbcolor
2425 988 M
[ [(Helvetica) 250.0 0.0 true true 0 (Max)]
] -83.3 MRshow
LT3
2575 988 M
663 0 V
1685 4739 M
461 0 V
460 0 V
460 0 V
461 0 V
920 0 V
461 0 V
460 0 V
460 0 V
461 0 V
% End plot #4
stroke
1.000 UL
LTb
1225 4739 N
0 -3939 V
5524 0 V
0 3939 V
-5524 0 V
Z stroke
1.000 UP
1.000 UL
LTb
stroke
grestore
end
showpage
%%Trailer
%%DocumentFonts: Helvetica
