%!PS-Adobe-2.0 EPSF-2.0
%%Title: n_num_segments-time.eps
%%Creator: gnuplot 4.4 patchlevel 3
%%CreationDate: Fri Jun 14 19:20:09 2013
%%DocumentFonts: (atend)
%%BoundingBox: 50 50 410 302
%%EndComments
%%BeginProlog
/gnudict 256 dict def
gnudict begin
%
% The following true/false flags may be edited by hand if desired.
% The unit line width and grayscale image gamma correction may also be changed.
%
/Color true def
/Blacktext false def
/Solid false def
/Dashlength 1 def
/Landscape false def
/Level1 false def
/Rounded false def
/ClipToBoundingBox false def
/TransparentPatterns false def
/gnulinewidth 5.000 def
/userlinewidth gnulinewidth def
/Gamma 1.0 def
%
/vshift -83 def
/dl1 {
  10.0 Dashlength mul mul
  Rounded { currentlinewidth 0.75 mul sub dup 0 le { pop 0.01 } if } if
} def
/dl2 {
  10.0 Dashlength mul mul
  Rounded { currentlinewidth 0.75 mul add } if
} def
/hpt_ 31.5 def
/vpt_ 31.5 def
/hpt hpt_ def
/vpt vpt_ def
Level1 {} {
/SDict 10 dict def
systemdict /pdfmark known not {
  userdict /pdfmark systemdict /cleartomark get put
} if
SDict begin [
  /Title (n_num_segments-time.eps)
  /Subject (gnuplot plot)
  /Creator (gnuplot 4.4 patchlevel 3)
  /Author (xjia)
%  /Producer (gnuplot)
%  /Keywords ()
  /CreationDate (Fri Jun 14 19:20:09 2013)
  /DOCINFO pdfmark
end
} ifelse
/doclip {
  ClipToBoundingBox {
    newpath 50 50 moveto 410 50 lineto 410 302 lineto 50 302 lineto closepath
    clip
  } if
} def
%
% Gnuplot Prolog Version 4.4 (August 2010)
%
%/SuppressPDFMark true def
%
/M {moveto} bind def
/L {lineto} bind def
/R {rmoveto} bind def
/V {rlineto} bind def
/N {newpath moveto} bind def
/Z {closepath} bind def
/C {setrgbcolor} bind def
/f {rlineto fill} bind def
/g {setgray} bind def
/Gshow {show} def   % May be redefined later in the file to support UTF-8
/vpt2 vpt 2 mul def
/hpt2 hpt 2 mul def
/Lshow {currentpoint stroke M 0 vshift R 
	Blacktext {gsave 0 setgray show grestore} {show} ifelse} def
/Rshow {currentpoint stroke M dup stringwidth pop neg vshift R
	Blacktext {gsave 0 setgray show grestore} {show} ifelse} def
/Cshow {currentpoint stroke M dup stringwidth pop -2 div vshift R 
	Blacktext {gsave 0 setgray show grestore} {show} ifelse} def
/UP {dup vpt_ mul /vpt exch def hpt_ mul /hpt exch def
  /hpt2 hpt 2 mul def /vpt2 vpt 2 mul def} def
/DL {Color {setrgbcolor Solid {pop []} if 0 setdash}
 {pop pop pop 0 setgray Solid {pop []} if 0 setdash} ifelse} def
/BL {stroke userlinewidth 2 mul setlinewidth
	Rounded {1 setlinejoin 1 setlinecap} if} def
/AL {stroke userlinewidth 2 div setlinewidth
	Rounded {1 setlinejoin 1 setlinecap} if} def
/UL {dup gnulinewidth mul /userlinewidth exch def
	dup 1 lt {pop 1} if 10 mul /udl exch def} def
/PL {stroke userlinewidth setlinewidth
	Rounded {1 setlinejoin 1 setlinecap} if} def
3.8 setmiterlimit
% Default Line colors
/LCw {1 1 1} def
/LCb {0 0 0} def
/LCa {0 0 0} def
/LC0 {1 0 0} def
/LC1 {0 1 0} def
/LC2 {0 0 1} def
/LC3 {1 0 1} def
/LC4 {0 1 1} def
/LC5 {1 1 0} def
/LC6 {0 0 0} def
/LC7 {1 0.3 0} def
/LC8 {0.5 0.5 0.5} def
% Default Line Types
/LTw {PL [] 1 setgray} def
/LTb {BL [] LCb DL} def
/LTa {AL [1 udl mul 2 udl mul] 0 setdash LCa setrgbcolor} def
/LT0 {PL [] LC0 DL} def
/LT1 {PL [4 dl1 2 dl2] LC1 DL} def
/LT2 {PL [2 dl1 3 dl2] LC2 DL} def
/LT3 {PL [1 dl1 1.5 dl2] LC3 DL} def
/LT4 {PL [6 dl1 2 dl2 1 dl1 2 dl2] LC4 DL} def
/LT5 {PL [3 dl1 3 dl2 1 dl1 3 dl2] LC5 DL} def
/LT6 {PL [2 dl1 2 dl2 2 dl1 6 dl2] LC6 DL} def
/LT7 {PL [1 dl1 2 dl2 6 dl1 2 dl2 1 dl1 2 dl2] LC7 DL} def
/LT8 {PL [2 dl1 2 dl2 2 dl1 2 dl2 2 dl1 2 dl2 2 dl1 4 dl2] LC8 DL} def
/Pnt {stroke [] 0 setdash gsave 1 setlinecap M 0 0 V stroke grestore} def
/Dia {stroke [] 0 setdash 2 copy vpt add M
  hpt neg vpt neg V hpt vpt neg V
  hpt vpt V hpt neg vpt V closepath stroke
  Pnt} def
/Pls {stroke [] 0 setdash vpt sub M 0 vpt2 V
  currentpoint stroke M
  hpt neg vpt neg R hpt2 0 V stroke
 } def
/Box {stroke [] 0 setdash 2 copy exch hpt sub exch vpt add M
  0 vpt2 neg V hpt2 0 V 0 vpt2 V
  hpt2 neg 0 V closepath stroke
  Pnt} def
/Crs {stroke [] 0 setdash exch hpt sub exch vpt add M
  hpt2 vpt2 neg V currentpoint stroke M
  hpt2 neg 0 R hpt2 vpt2 V stroke} def
/TriU {stroke [] 0 setdash 2 copy vpt 1.12 mul add M
  hpt neg vpt -1.62 mul V
  hpt 2 mul 0 V
  hpt neg vpt 1.62 mul V closepath stroke
  Pnt} def
/Star {2 copy Pls Crs} def
/BoxF {stroke [] 0 setdash exch hpt sub exch vpt add M
  0 vpt2 neg V hpt2 0 V 0 vpt2 V
  hpt2 neg 0 V closepath fill} def
/TriUF {stroke [] 0 setdash vpt 1.12 mul add M
  hpt neg vpt -1.62 mul V
  hpt 2 mul 0 V
  hpt neg vpt 1.62 mul V closepath fill} def
/TriD {stroke [] 0 setdash 2 copy vpt 1.12 mul sub M
  hpt neg vpt 1.62 mul V
  hpt 2 mul 0 V
  hpt neg vpt -1.62 mul V closepath stroke
  Pnt} def
/TriDF {stroke [] 0 setdash vpt 1.12 mul sub M
  hpt neg vpt 1.62 mul V
  hpt 2 mul 0 V
  hpt neg vpt -1.62 mul V closepath fill} def
/DiaF {stroke [] 0 setdash vpt add M
  hpt neg vpt neg V hpt vpt neg V
  hpt vpt V hpt neg vpt V closepath fill} def
/Pent {stroke [] 0 setdash 2 copy gsave
  translate 0 hpt M 4 {72 rotate 0 hpt L} repeat
  closepath stroke grestore Pnt} def
/PentF {stroke [] 0 setdash gsave
  translate 0 hpt M 4 {72 rotate 0 hpt L} repeat
  closepath fill grestore} def
/Circle {stroke [] 0 setdash 2 copy
  hpt 0 360 arc stroke Pnt} def
/CircleF {stroke [] 0 setdash hpt 0 360 arc fill} def
/C0 {BL [] 0 setdash 2 copy moveto vpt 90 450 arc} bind def
/C1 {BL [] 0 setdash 2 copy moveto
	2 copy vpt 0 90 arc closepath fill
	vpt 0 360 arc closepath} bind def
/C2 {BL [] 0 setdash 2 copy moveto
	2 copy vpt 90 180 arc closepath fill
	vpt 0 360 arc closepath} bind def
/C3 {BL [] 0 setdash 2 copy moveto
	2 copy vpt 0 180 arc closepath fill
	vpt 0 360 arc closepath} bind def
/C4 {BL [] 0 setdash 2 copy moveto
	2 copy vpt 180 270 arc closepath fill
	vpt 0 360 arc closepath} bind def
/C5 {BL [] 0 setdash 2 copy moveto
	2 copy vpt 0 90 arc
	2 copy moveto
	2 copy vpt 180 270 arc closepath fill
	vpt 0 360 arc} bind def
/C6 {BL [] 0 setdash 2 copy moveto
	2 copy vpt 90 270 arc closepath fill
	vpt 0 360 arc closepath} bind def
/C7 {BL [] 0 setdash 2 copy moveto
	2 copy vpt 0 270 arc closepath fill
	vpt 0 360 arc closepath} bind def
/C8 {BL [] 0 setdash 2 copy moveto
	2 copy vpt 270 360 arc closepath fill
	vpt 0 360 arc closepath} bind def
/C9 {BL [] 0 setdash 2 copy moveto
	2 copy vpt 270 450 arc closepath fill
	vpt 0 360 arc closepath} bind def
/C10 {BL [] 0 setdash 2 copy 2 copy moveto vpt 270 360 arc closepath fill
	2 copy moveto
	2 copy vpt 90 180 arc closepath fill
	vpt 0 360 arc closepath} bind def
/C11 {BL [] 0 setdash 2 copy moveto
	2 copy vpt 0 180 arc closepath fill
	2 copy moveto
	2 copy vpt 270 360 arc closepath fill
	vpt 0 360 arc closepath} bind def
/C12 {BL [] 0 setdash 2 copy moveto
	2 copy vpt 180 360 arc closepath fill
	vpt 0 360 arc closepath} bind def
/C13 {BL [] 0 setdash 2 copy moveto
	2 copy vpt 0 90 arc closepath fill
	2 copy moveto
	2 copy vpt 180 360 arc closepath fill
	vpt 0 360 arc closepath} bind def
/C14 {BL [] 0 setdash 2 copy moveto
	2 copy vpt 90 360 arc closepath fill
	vpt 0 360 arc} bind def
/C15 {BL [] 0 setdash 2 copy vpt 0 360 arc closepath fill
	vpt 0 360 arc closepath} bind def
/Rec {newpath 4 2 roll moveto 1 index 0 rlineto 0 exch rlineto
	neg 0 rlineto closepath} bind def
/Square {dup Rec} bind def
/Bsquare {vpt sub exch vpt sub exch vpt2 Square} bind def
/S0 {BL [] 0 setdash 2 copy moveto 0 vpt rlineto BL Bsquare} bind def
/S1 {BL [] 0 setdash 2 copy vpt Square fill Bsquare} bind def
/S2 {BL [] 0 setdash 2 copy exch vpt sub exch vpt Square fill Bsquare} bind def
/S3 {BL [] 0 setdash 2 copy exch vpt sub exch vpt2 vpt Rec fill Bsquare} bind def
/S4 {BL [] 0 setdash 2 copy exch vpt sub exch vpt sub vpt Square fill Bsquare} bind def
/S5 {BL [] 0 setdash 2 copy 2 copy vpt Square fill
	exch vpt sub exch vpt sub vpt Square fill Bsquare} bind def
/S6 {BL [] 0 setdash 2 copy exch vpt sub exch vpt sub vpt vpt2 Rec fill Bsquare} bind def
/S7 {BL [] 0 setdash 2 copy exch vpt sub exch vpt sub vpt vpt2 Rec fill
	2 copy vpt Square fill Bsquare} bind def
/S8 {BL [] 0 setdash 2 copy vpt sub vpt Square fill Bsquare} bind def
/S9 {BL [] 0 setdash 2 copy vpt sub vpt vpt2 Rec fill Bsquare} bind def
/S10 {BL [] 0 setdash 2 copy vpt sub vpt Square fill 2 copy exch vpt sub exch vpt Square fill
	Bsquare} bind def
/S11 {BL [] 0 setdash 2 copy vpt sub vpt Square fill 2 copy exch vpt sub exch vpt2 vpt Rec fill
	Bsquare} bind def
/S12 {BL [] 0 setdash 2 copy exch vpt sub exch vpt sub vpt2 vpt Rec fill Bsquare} bind def
/S13 {BL [] 0 setdash 2 copy exch vpt sub exch vpt sub vpt2 vpt Rec fill
	2 copy vpt Square fill Bsquare} bind def
/S14 {BL [] 0 setdash 2 copy exch vpt sub exch vpt sub vpt2 vpt Rec fill
	2 copy exch vpt sub exch vpt Square fill Bsquare} bind def
/S15 {BL [] 0 setdash 2 copy Bsquare fill Bsquare} bind def
/D0 {gsave translate 45 rotate 0 0 S0 stroke grestore} bind def
/D1 {gsave translate 45 rotate 0 0 S1 stroke grestore} bind def
/D2 {gsave translate 45 rotate 0 0 S2 stroke grestore} bind def
/D3 {gsave translate 45 rotate 0 0 S3 stroke grestore} bind def
/D4 {gsave translate 45 rotate 0 0 S4 stroke grestore} bind def
/D5 {gsave translate 45 rotate 0 0 S5 stroke grestore} bind def
/D6 {gsave translate 45 rotate 0 0 S6 stroke grestore} bind def
/D7 {gsave translate 45 rotate 0 0 S7 stroke grestore} bind def
/D8 {gsave translate 45 rotate 0 0 S8 stroke grestore} bind def
/D9 {gsave translate 45 rotate 0 0 S9 stroke grestore} bind def
/D10 {gsave translate 45 rotate 0 0 S10 stroke grestore} bind def
/D11 {gsave translate 45 rotate 0 0 S11 stroke grestore} bind def
/D12 {gsave translate 45 rotate 0 0 S12 stroke grestore} bind def
/D13 {gsave translate 45 rotate 0 0 S13 stroke grestore} bind def
/D14 {gsave translate 45 rotate 0 0 S14 stroke grestore} bind def
/D15 {gsave translate 45 rotate 0 0 S15 stroke grestore} bind def
/DiaE {stroke [] 0 setdash vpt add M
  hpt neg vpt neg V hpt vpt neg V
  hpt vpt V hpt neg vpt V closepath stroke} def
/BoxE {stroke [] 0 setdash exch hpt sub exch vpt add M
  0 vpt2 neg V hpt2 0 V 0 vpt2 V
  hpt2 neg 0 V closepath stroke} def
/TriUE {stroke [] 0 setdash vpt 1.12 mul add M
  hpt neg vpt -1.62 mul V
  hpt 2 mul 0 V
  hpt neg vpt 1.62 mul V closepath stroke} def
/TriDE {stroke [] 0 setdash vpt 1.12 mul sub M
  hpt neg vpt 1.62 mul V
  hpt 2 mul 0 V
  hpt neg vpt -1.62 mul V closepath stroke} def
/PentE {stroke [] 0 setdash gsave
  translate 0 hpt M 4 {72 rotate 0 hpt L} repeat
  closepath stroke grestore} def
/CircE {stroke [] 0 setdash 
  hpt 0 360 arc stroke} def
/Opaque {gsave closepath 1 setgray fill grestore 0 setgray closepath} def
/DiaW {stroke [] 0 setdash vpt add M
  hpt neg vpt neg V hpt vpt neg V
  hpt vpt V hpt neg vpt V Opaque stroke} def
/BoxW {stroke [] 0 setdash exch hpt sub exch vpt add M
  0 vpt2 neg V hpt2 0 V 0 vpt2 V
  hpt2 neg 0 V Opaque stroke} def
/TriUW {stroke [] 0 setdash vpt 1.12 mul add M
  hpt neg vpt -1.62 mul V
  hpt 2 mul 0 V
  hpt neg vpt 1.62 mul V Opaque stroke} def
/TriDW {stroke [] 0 setdash vpt 1.12 mul sub M
  hpt neg vpt 1.62 mul V
  hpt 2 mul 0 V
  hpt neg vpt -1.62 mul V Opaque stroke} def
/PentW {stroke [] 0 setdash gsave
  translate 0 hpt M 4 {72 rotate 0 hpt L} repeat
  Opaque stroke grestore} def
/CircW {stroke [] 0 setdash 
  hpt 0 360 arc Opaque stroke} def
/BoxFill {gsave Rec 1 setgray fill grestore} def
/Density {
  /Fillden exch def
  currentrgbcolor
  /ColB exch def /ColG exch def /ColR exch def
  /ColR ColR Fillden mul Fillden sub 1 add def
  /ColG ColG Fillden mul Fillden sub 1 add def
  /ColB ColB Fillden mul Fillden sub 1 add def
  ColR ColG ColB setrgbcolor} def
/BoxColFill {gsave Rec PolyFill} def
/PolyFill {gsave Density fill grestore grestore} def
/h {rlineto rlineto rlineto gsave closepath fill grestore} bind def
%
% PostScript Level 1 Pattern Fill routine for rectangles
% Usage: x y w h s a XX PatternFill
%	x,y = lower left corner of box to be filled
%	w,h = width and height of box
%	  a = angle in degrees between lines and x-axis
%	 XX = 0/1 for no/yes cross-hatch
%
/PatternFill {gsave /PFa [ 9 2 roll ] def
  PFa 0 get PFa 2 get 2 div add PFa 1 get PFa 3 get 2 div add translate
  PFa 2 get -2 div PFa 3 get -2 div PFa 2 get PFa 3 get Rec
  gsave 1 setgray fill grestore clip
  currentlinewidth 0.5 mul setlinewidth
  /PFs PFa 2 get dup mul PFa 3 get dup mul add sqrt def
  0 0 M PFa 5 get rotate PFs -2 div dup translate
  0 1 PFs PFa 4 get div 1 add floor cvi
	{PFa 4 get mul 0 M 0 PFs V} for
  0 PFa 6 get ne {
	0 1 PFs PFa 4 get div 1 add floor cvi
	{PFa 4 get mul 0 2 1 roll M PFs 0 V} for
 } if
  stroke grestore} def
%
/languagelevel where
 {pop languagelevel} {1} ifelse
 2 lt
	{/InterpretLevel1 true def}
	{/InterpretLevel1 Level1 def}
 ifelse
%
% PostScript level 2 pattern fill definitions
%
/Level2PatternFill {
/Tile8x8 {/PaintType 2 /PatternType 1 /TilingType 1 /BBox [0 0 8 8] /XStep 8 /YStep 8}
	bind def
/KeepColor {currentrgbcolor [/Pattern /DeviceRGB] setcolorspace} bind def
<< Tile8x8
 /PaintProc {0.5 setlinewidth pop 0 0 M 8 8 L 0 8 M 8 0 L stroke} 
>> matrix makepattern
/Pat1 exch def
<< Tile8x8
 /PaintProc {0.5 setlinewidth pop 0 0 M 8 8 L 0 8 M 8 0 L stroke
	0 4 M 4 8 L 8 4 L 4 0 L 0 4 L stroke}
>> matrix makepattern
/Pat2 exch def
<< Tile8x8
 /PaintProc {0.5 setlinewidth pop 0 0 M 0 8 L
	8 8 L 8 0 L 0 0 L fill}
>> matrix makepattern
/Pat3 exch def
<< Tile8x8
 /PaintProc {0.5 setlinewidth pop -4 8 M 8 -4 L
	0 12 M 12 0 L stroke}
>> matrix makepattern
/Pat4 exch def
<< Tile8x8
 /PaintProc {0.5 setlinewidth pop -4 0 M 8 12 L
	0 -4 M 12 8 L stroke}
>> matrix makepattern
/Pat5 exch def
<< Tile8x8
 /PaintProc {0.5 setlinewidth pop -2 8 M 4 -4 L
	0 12 M 8 -4 L 4 12 M 10 0 L stroke}
>> matrix makepattern
/Pat6 exch def
<< Tile8x8
 /PaintProc {0.5 setlinewidth pop -2 0 M 4 12 L
	0 -4 M 8 12 L 4 -4 M 10 8 L stroke}
>> matrix makepattern
/Pat7 exch def
<< Tile8x8
 /PaintProc {0.5 setlinewidth pop 8 -2 M -4 4 L
	12 0 M -4 8 L 12 4 M 0 10 L stroke}
>> matrix makepattern
/Pat8 exch def
<< Tile8x8
 /PaintProc {0.5 setlinewidth pop 0 -2 M 12 4 L
	-4 0 M 12 8 L -4 4 M 8 10 L stroke}
>> matrix makepattern
/Pat9 exch def
/Pattern1 {PatternBgnd KeepColor Pat1 setpattern} bind def
/Pattern2 {PatternBgnd KeepColor Pat2 setpattern} bind def
/Pattern3 {PatternBgnd KeepColor Pat3 setpattern} bind def
/Pattern4 {PatternBgnd KeepColor Landscape {Pat5} {Pat4} ifelse setpattern} bind def
/Pattern5 {PatternBgnd KeepColor Landscape {Pat4} {Pat5} ifelse setpattern} bind def
/Pattern6 {PatternBgnd KeepColor Landscape {Pat9} {Pat6} ifelse setpattern} bind def
/Pattern7 {PatternBgnd KeepColor Landscape {Pat8} {Pat7} ifelse setpattern} bind def
} def
%
%
%End of PostScript Level 2 code
%
/PatternBgnd {
  TransparentPatterns {} {gsave 1 setgray fill grestore} ifelse
} def
%
% Substitute for Level 2 pattern fill codes with
% grayscale if Level 2 support is not selected.
%
/Level1PatternFill {
/Pattern1 {0.250 Density} bind def
/Pattern2 {0.500 Density} bind def
/Pattern3 {0.750 Density} bind def
/Pattern4 {0.125 Density} bind def
/Pattern5 {0.375 Density} bind def
/Pattern6 {0.625 Density} bind def
/Pattern7 {0.875 Density} bind def
} def
%
% Now test for support of Level 2 code
%
Level1 {Level1PatternFill} {Level2PatternFill} ifelse
%
/Symbol-Oblique /Symbol findfont [1 0 .167 1 0 0] makefont
dup length dict begin {1 index /FID eq {pop pop} {def} ifelse} forall
currentdict end definefont pop
/MFshow {
   { dup 5 get 3 ge
     { 5 get 3 eq {gsave} {grestore} ifelse }
     {dup dup 0 get findfont exch 1 get scalefont setfont
     [ currentpoint ] exch dup 2 get 0 exch R dup 5 get 2 ne {dup dup 6
     get exch 4 get {Gshow} {stringwidth pop 0 R} ifelse }if dup 5 get 0 eq
     {dup 3 get {2 get neg 0 exch R pop} {pop aload pop M} ifelse} {dup 5
     get 1 eq {dup 2 get exch dup 3 get exch 6 get stringwidth pop -2 div
     dup 0 R} {dup 6 get stringwidth pop -2 div 0 R 6 get
     show 2 index {aload pop M neg 3 -1 roll neg R pop pop} {pop pop pop
     pop aload pop M} ifelse }ifelse }ifelse }
     ifelse }
   forall} def
/Gswidth {dup type /stringtype eq {stringwidth} {pop (n) stringwidth} ifelse} def
/MFwidth {0 exch { dup 5 get 3 ge { 5 get 3 eq { 0 } { pop } ifelse }
 {dup 3 get{dup dup 0 get findfont exch 1 get scalefont setfont
     6 get Gswidth pop add} {pop} ifelse} ifelse} forall} def
/MLshow { currentpoint stroke M
  0 exch R
  Blacktext {gsave 0 setgray MFshow grestore} {MFshow} ifelse } bind def
/MRshow { currentpoint stroke M
  exch dup MFwidth neg 3 -1 roll R
  Blacktext {gsave 0 setgray MFshow grestore} {MFshow} ifelse } bind def
/MCshow { currentpoint stroke M
  exch dup MFwidth -2 div 3 -1 roll R
  Blacktext {gsave 0 setgray MFshow grestore} {MFshow} ifelse } bind def
/XYsave    { [( ) 1 2 true false 3 ()] } bind def
/XYrestore { [( ) 1 2 true false 4 ()] } bind def
end
%%EndProlog
gnudict begin
gsave
doclip
50 50 translate
0.050 0.050 scale
0 setgray
newpath
(Helvetica) findfont 250 scalefont setfont
1.000 UL
LTb
1225 800 M
63 0 V
5461 0 R
-63 0 V
stroke
1075 800 M
[ [(Helvetica) 250.0 0.0 true true 0 ( 0)]
] -83.3 MRshow
1.000 UL
LTb
1225 1457 M
63 0 V
5461 0 R
-63 0 V
stroke
1075 1457 M
[ [(Helvetica) 250.0 0.0 true true 0 ( 0.5)]
] -83.3 MRshow
1.000 UL
LTb
1225 2113 M
63 0 V
5461 0 R
-63 0 V
stroke
1075 2113 M
[ [(Helvetica) 250.0 0.0 true true 0 ( 1)]
] -83.3 MRshow
1.000 UL
LTb
1225 2770 M
63 0 V
5461 0 R
-63 0 V
stroke
1075 2770 M
[ [(Helvetica) 250.0 0.0 true true 0 ( 1.5)]
] -83.3 MRshow
1.000 UL
LTb
1225 3426 M
63 0 V
5461 0 R
-63 0 V
stroke
1075 3426 M
[ [(Helvetica) 250.0 0.0 true true 0 ( 2)]
] -83.3 MRshow
1.000 UL
LTb
1225 4083 M
63 0 V
5461 0 R
-63 0 V
stroke
1075 4083 M
[ [(Helvetica) 250.0 0.0 true true 0 ( 2.5)]
] -83.3 MRshow
1.000 UL
LTb
1225 4739 M
63 0 V
5461 0 R
-63 0 V
stroke
1075 4739 M
[ [(Helvetica) 250.0 0.0 true true 0 ( 3)]
] -83.3 MRshow
1.000 UL
LTb
1225 800 M
0 63 V
0 3876 R
0 -63 V
stroke
1225 550 M
[ [(Helvetica) 250.0 0.0 true true 0 ( 4)]
] -83.3 MCshow
1.000 UL
LTb
1916 800 M
0 63 V
0 3876 R
0 -63 V
stroke
1916 550 M
[ [(Helvetica) 250.0 0.0 true true 0 ( 6)]
] -83.3 MCshow
1.000 UL
LTb
2606 800 M
0 63 V
0 3876 R
0 -63 V
stroke
2606 550 M
[ [(Helvetica) 250.0 0.0 true true 0 ( 8)]
] -83.3 MCshow
1.000 UL
LTb
3297 800 M
0 63 V
0 3876 R
0 -63 V
stroke
3297 550 M
[ [(Helvetica) 250.0 0.0 true true 0 ( 10)]
] -83.3 MCshow
1.000 UL
LTb
3987 800 M
0 63 V
0 3876 R
0 -63 V
stroke
3987 550 M
[ [(Helvetica) 250.0 0.0 true true 0 ( 12)]
] -83.3 MCshow
1.000 UL
LTb
4678 800 M
0 63 V
0 3876 R
0 -63 V
stroke
4678 550 M
[ [(Helvetica) 250.0 0.0 true true 0 ( 14)]
] -83.3 MCshow
1.000 UL
LTb
5368 800 M
0 63 V
0 3876 R
0 -63 V
stroke
5368 550 M
[ [(Helvetica) 250.0 0.0 true true 0 ( 16)]
] -83.3 MCshow
1.000 UL
LTb
6059 800 M
0 63 V
0 3876 R
0 -63 V
stroke
6059 550 M
[ [(Helvetica) 250.0 0.0 true true 0 ( 18)]
] -83.3 MCshow
1.000 UL
LTb
6749 800 M
0 63 V
0 3876 R
0 -63 V
stroke
6749 550 M
[ [(Helvetica) 250.0 0.0 true true 0 ( 20)]
] -83.3 MCshow
1.000 UL
LTb
1.000 UL
LTb
1225 4739 N
0 -3939 V
5524 0 V
0 3939 V
-5524 0 V
Z stroke
LCb setrgbcolor
200 2769 M
currentpoint gsave translate -270 rotate 0 0 moveto
[ [(Helvetica) 250.0 0.0 true true 0 (Time \(sec\))]
] -83.3 MCshow
grestore
LTb
LCb setrgbcolor
3987 175 M
[ [(Helvetica) 250.0 0.0 true true 0 (Number of Segments)]
] -83.3 MCshow
LTb
1.000 UP
1.000 UL
LTb
% Begin plot #1
1.000 UP
1.000 UL
LT0
1570 802 Pls
3297 802 Pls
5023 803 Pls
6749 804 Pls
1570 801 Pls
3297 802 Pls
5023 803 Pls
6749 804 Pls
1570 801 Pls
3297 802 Pls
5023 802 Pls
6749 804 Pls
1570 801 Pls
3297 801 Pls
5023 802 Pls
6749 803 Pls
1570 800 Pls
3297 801 Pls
5023 801 Pls
6749 802 Pls
1570 801 Pls
3297 801 Pls
5023 802 Pls
6749 802 Pls
1570 801 Pls
3297 802 Pls
5023 802 Pls
6749 802 Pls
1570 801 Pls
3297 802 Pls
5023 803 Pls
6749 803 Pls
1570 802 Pls
3297 802 Pls
5023 803 Pls
6749 803 Pls
1570 802 Pls
3297 803 Pls
5023 803 Pls
6749 804 Pls
1570 812 Pls
3297 817 Pls
5023 819 Pls
6749 826 Pls
1570 810 Pls
3297 812 Pls
5023 817 Pls
6749 822 Pls
1570 807 Pls
3297 812 Pls
5023 814 Pls
6749 819 Pls
1570 806 Pls
3297 811 Pls
5023 812 Pls
6749 816 Pls
1570 804 Pls
3297 807 Pls
5023 810 Pls
6749 813 Pls
1570 811 Pls
3297 816 Pls
5023 819 Pls
6749 822 Pls
1570 816 Pls
3297 823 Pls
5023 825 Pls
6749 829 Pls
1570 822 Pls
3297 828 Pls
5023 834 Pls
6749 837 Pls
1570 830 Pls
3297 835 Pls
5023 841 Pls
6749 844 Pls
1570 836 Pls
3297 846 Pls
5023 850 Pls
6749 855 Pls
1570 840 Pls
3297 841 Pls
5023 872 Pls
6749 895 Pls
1570 833 Pls
3297 857 Pls
5023 867 Pls
6749 880 Pls
1570 825 Pls
3297 829 Pls
5023 852 Pls
6749 874 Pls
1570 819 Pls
3297 828 Pls
5023 834 Pls
6749 852 Pls
1570 817 Pls
3297 821 Pls
5023 825 Pls
6749 839 Pls
1570 846 Pls
3297 858 Pls
5023 876 Pls
6749 890 Pls
1570 874 Pls
3297 892 Pls
5023 905 Pls
6749 926 Pls
1570 907 Pls
3297 910 Pls
5023 949 Pls
6749 963 Pls
1570 950 Pls
3297 974 Pls
5023 988 Pls
6749 1007 Pls
1570 991 Pls
3297 1023 Pls
5023 1018 Pls
6749 1054 Pls
1570 928 Pls
3297 960 Pls
5023 1042 Pls
6749 1110 Pls
1570 897 Pls
3297 939 Pls
5023 1003 Pls
6749 1070 Pls
1570 892 Pls
3297 900 Pls
5023 930 Pls
6749 1009 Pls
1570 861 Pls
3297 868 Pls
5023 925 Pls
6749 949 Pls
1570 846 Pls
3297 847 Pls
5023 869 Pls
6749 897 Pls
1570 947 Pls
3297 999 Pls
5023 1070 Pls
6749 1090 Pls
1570 1068 Pls
3297 1161 Pls
5023 1166 Pls
6749 1209 Pls
1570 1202 Pls
3297 1287 Pls
5023 1330 Pls
6749 1343 Pls
1570 1414 Pls
3297 1433 Pls
5023 1416 Pls
6749 1502 Pls
1570 1505 Pls
3297 1604 Pls
5023 1652 Pls
6749 1687 Pls
1570 1047 Pls
3297 1188 Pls
5023 1298 Pls
6749 1499 Pls
1570 1021 Pls
3297 1070 Pls
5023 1249 Pls
6749 1353 Pls
1570 1008 Pls
3297 1099 Pls
5023 1206 Pls
6749 1273 Pls
1570 946 Pls
3297 979 Pls
5023 1040 Pls
6749 1174 Pls
1570 919 Pls
3297 934 Pls
5023 1005 Pls
6749 1075 Pls
1570 1411 Pls
3297 1567 Pls
5023 1703 Pls
6749 1812 Pls
1570 1696 Pls
3297 2063 Pls
5023 2375 Pls
6749 2485 Pls
1570 2444 Pls
3297 2730 Pls
5023 2965 Pls
6749 3194 Pls
1570 3138 Pls
3297 3406 Pls
5023 3671 Pls
6749 3787 Pls
1570 3638 Pls
3297 4234 Pls
5023 4444 Pls
6749 4299 Pls
1570 802 Pls
3297 802 Pls
5023 803 Pls
6749 805 Pls
1570 801 Pls
3297 802 Pls
5023 803 Pls
6749 804 Pls
1570 801 Pls
3297 802 Pls
5023 803 Pls
6749 804 Pls
1570 801 Pls
3297 801 Pls
5023 802 Pls
6749 803 Pls
1570 800 Pls
3297 801 Pls
5023 801 Pls
6749 802 Pls
1570 801 Pls
3297 801 Pls
5023 802 Pls
6749 802 Pls
1570 801 Pls
3297 802 Pls
5023 802 Pls
6749 802 Pls
1570 801 Pls
3297 802 Pls
5023 802 Pls
6749 803 Pls
1570 802 Pls
3297 802 Pls
5023 803 Pls
6749 803 Pls
1570 802 Pls
3297 803 Pls
5023 803 Pls
6749 804 Pls
1570 811 Pls
3297 817 Pls
5023 821 Pls
6749 832 Pls
1570 811 Pls
3297 814 Pls
5023 817 Pls
6749 822 Pls
1570 807 Pls
3297 810 Pls
5023 814 Pls
6749 821 Pls
1570 806 Pls
3297 810 Pls
5023 812 Pls
6749 817 Pls
1570 804 Pls
3297 807 Pls
5023 810 Pls
6749 813 Pls
1570 811 Pls
3297 813 Pls
5023 820 Pls
6749 823 Pls
1570 817 Pls
3297 822 Pls
5023 825 Pls
6749 831 Pls
1570 823 Pls
3297 827 Pls
5023 834 Pls
6749 836 Pls
1570 829 Pls
3297 837 Pls
5023 841 Pls
6749 846 Pls
1570 839 Pls
3297 844 Pls
5023 848 Pls
6749 851 Pls
1570 843 Pls
3297 866 Pls
5023 886 Pls
6749 907 Pls
1570 839 Pls
3297 847 Pls
5023 858 Pls
6749 879 Pls
1570 829 Pls
3297 834 Pls
5023 853 Pls
6749 864 Pls
1570 820 Pls
3297 827 Pls
5023 842 Pls
6749 847 Pls
1570 816 Pls
3297 830 Pls
5023 831 Pls
6749 838 Pls
1570 850 Pls
3297 866 Pls
5023 868 Pls
6749 898 Pls
1570 878 Pls
3297 895 Pls
5023 912 Pls
6749 920 Pls
1570 905 Pls
3297 935 Pls
5023 962 Pls
6749 964 Pls
1570 951 Pls
3297 977 Pls
5023 989 Pls
6749 1009 Pls
1570 990 Pls
3297 1007 Pls
5023 1032 Pls
6749 1043 Pls
1570 966 Pls
3297 960 Pls
5023 1057 Pls
6749 1139 Pls
1570 887 Pls
3297 928 Pls
5023 976 Pls
6749 1048 Pls
1570 861 Pls
3297 925 Pls
5023 955 Pls
6749 1000 Pls
1570 853 Pls
3297 853 Pls
5023 906 Pls
6749 936 Pls
1570 851 Pls
3297 847 Pls
5023 880 Pls
6749 902 Pls
1570 954 Pls
3297 1019 Pls
5023 1041 Pls
6749 1088 Pls
1570 1076 Pls
3297 1151 Pls
5023 1177 Pls
6749 1207 Pls
1570 1238 Pls
3297 1246 Pls
5023 1297 Pls
6749 1387 Pls
1570 1368 Pls
3297 1308 Pls
5023 1434 Pls
6749 1539 Pls
1570 1513 Pls
3297 1552 Pls
5023 1630 Pls
6749 1720 Pls
1570 1162 Pls
3297 1137 Pls
5023 1299 Pls
6749 1380 Pls
1570 1015 Pls
3297 1089 Pls
5023 1277 Pls
6749 1355 Pls
1570 1006 Pls
3297 1086 Pls
5023 1145 Pls
6749 1253 Pls
1570 960 Pls
3297 986 Pls
5023 1107 Pls
6749 1161 Pls
1570 916 Pls
3297 953 Pls
5023 1016 Pls
6749 1067 Pls
1570 1382 Pls
3297 1542 Pls
5023 1693 Pls
6749 1882 Pls
1570 1994 Pls
3297 2036 Pls
5023 2380 Pls
6749 2316 Pls
1570 2375 Pls
3297 2679 Pls
5023 2934 Pls
6749 3078 Pls
1570 3226 Pls
3297 3340 Pls
5023 3597 Pls
6749 3816 Pls
1570 3781 Pls
3297 4198 Pls
5023 4453 Pls
6749 4642 Pls
1570 801 Pls
3297 802 Pls
5023 803 Pls
6749 805 Pls
1570 801 Pls
3297 801 Pls
5023 803 Pls
6749 804 Pls
1570 801 Pls
3297 801 Pls
5023 802 Pls
6749 804 Pls
1570 801 Pls
3297 801 Pls
5023 802 Pls
6749 803 Pls
1570 800 Pls
3297 801 Pls
5023 802 Pls
6749 802 Pls
1570 801 Pls
3297 801 Pls
5023 802 Pls
6749 802 Pls
1570 801 Pls
3297 802 Pls
5023 802 Pls
6749 802 Pls
1570 801 Pls
3297 802 Pls
5023 802 Pls
6749 803 Pls
1570 802 Pls
3297 802 Pls
5023 803 Pls
6749 803 Pls
1570 802 Pls
3297 803 Pls
5023 803 Pls
6749 804 Pls
1570 814 Pls
3297 814 Pls
5023 821 Pls
6749 833 Pls
1570 811 Pls
3297 814 Pls
5023 818 Pls
6749 823 Pls
1570 809 Pls
3297 811 Pls
5023 815 Pls
6749 819 Pls
1570 806 Pls
3297 807 Pls
5023 812 Pls
6749 816 Pls
1570 806 Pls
3297 807 Pls
5023 810 Pls
6749 813 Pls
1570 810 Pls
3297 814 Pls
5023 819 Pls
6749 824 Pls
1570 815 Pls
3297 822 Pls
5023 828 Pls
6749 829 Pls
1570 823 Pls
3297 829 Pls
5023 830 Pls
6749 835 Pls
1570 829 Pls
3297 836 Pls
5023 841 Pls
6749 845 Pls
1570 839 Pls
3297 845 Pls
5023 848 Pls
6749 852 Pls
1570 842 Pls
3297 865 Pls
5023 877 Pls
6749 915 Pls
1570 831 Pls
3297 845 Pls
5023 864 Pls
6749 880 Pls
1570 829 Pls
3297 839 Pls
5023 843 Pls
6749 862 Pls
1570 821 Pls
3297 829 Pls
5023 842 Pls
6749 846 Pls
1570 817 Pls
3297 822 Pls
5023 831 Pls
6749 839 Pls
1570 851 Pls
3297 862 Pls
5023 873 Pls
6749 887 Pls
1570 877 Pls
3297 896 Pls
5023 915 Pls
6749 920 Pls
1570 904 Pls
3297 941 Pls
5023 948 Pls
6749 958 Pls
1570 953 Pls
3297 973 Pls
5023 990 Pls
6749 1003 Pls
1570 992 Pls
3297 1013 Pls
5023 1030 Pls
6749 1053 Pls
1570 946 Pls
3297 996 Pls
5023 1051 Pls
6749 1144 Pls
1570 910 Pls
3297 988 Pls
5023 988 Pls
6749 1082 Pls
1570 874 Pls
3297 954 Pls
5023 953 Pls
6749 1009 Pls
1570 865 Pls
3297 874 Pls
5023 910 Pls
6749 961 Pls
1570 847 Pls
3297 878 Pls
5023 877 Pls
6749 908 Pls
1570 957 Pls
3297 1000 Pls
5023 1025 Pls
6749 1032 Pls
1570 1098 Pls
3297 1089 Pls
5023 1187 Pls
6749 1211 Pls
1570 1183 Pls
3297 1302 Pls
5023 1288 Pls
6749 1379 Pls
1570 1328 Pls
3297 1430 Pls
5023 1504 Pls
6749 1562 Pls
1570 1445 Pls
3297 1625 Pls
5023 1645 Pls
6749 1701 Pls
1570 1071 Pls
3297 1191 Pls
5023 1309 Pls
6749 1458 Pls
1570 1075 Pls
3297 1126 Pls
5023 1222 Pls
6749 1344 Pls
1570 1001 Pls
3297 993 Pls
5023 1208 Pls
6749 1222 Pls
1570 902 Pls
3297 986 Pls
5023 1033 Pls
6749 1146 Pls
1570 908 Pls
3297 945 Pls
5023 1013 Pls
6749 1069 Pls
1570 1423 Pls
3297 1598 Pls
5023 1704 Pls
6749 1866 Pls
1570 1937 Pls
3297 2132 Pls
5023 2316 Pls
6749 2379 Pls
1570 2499 Pls
3297 2830 Pls
5023 3002 Pls
6749 3085 Pls
1570 3025 Pls
3297 3468 Pls
5023 3784 Pls
6749 3767 Pls
1570 3658 Pls
3297 4382 Pls
5023 4296 Pls
6749 4531 Pls
1570 801 Pls
3297 802 Pls
5023 803 Pls
6749 805 Pls
1570 801 Pls
3297 802 Pls
5023 803 Pls
6749 804 Pls
1570 801 Pls
3297 802 Pls
5023 803 Pls
6749 803 Pls
1570 801 Pls
3297 801 Pls
5023 802 Pls
6749 803 Pls
1570 800 Pls
3297 801 Pls
5023 801 Pls
6749 802 Pls
1570 801 Pls
3297 801 Pls
5023 802 Pls
6749 802 Pls
1570 801 Pls
3297 802 Pls
5023 802 Pls
6749 802 Pls
1570 801 Pls
3297 802 Pls
5023 803 Pls
6749 803 Pls
1570 802 Pls
3297 802 Pls
5023 803 Pls
6749 803 Pls
1570 802 Pls
3297 803 Pls
5023 803 Pls
6749 804 Pls
1570 812 Pls
3297 820 Pls
5023 822 Pls
6749 828 Pls
1570 809 Pls
3297 813 Pls
5023 819 Pls
6749 824 Pls
1570 806 Pls
3297 812 Pls
5023 817 Pls
6749 820 Pls
1570 806 Pls
3297 808 Pls
5023 814 Pls
6749 816 Pls
1570 805 Pls
3297 807 Pls
5023 810 Pls
6749 813 Pls
1570 812 Pls
3297 814 Pls
5023 817 Pls
6749 825 Pls
1570 815 Pls
3297 824 Pls
5023 824 Pls
6749 829 Pls
1570 823 Pls
3297 828 Pls
5023 834 Pls
6749 838 Pls
1570 826 Pls
3297 838 Pls
5023 841 Pls
6749 844 Pls
1570 836 Pls
3297 844 Pls
5023 849 Pls
6749 855 Pls
1570 845 Pls
3297 853 Pls
5023 878 Pls
6749 921 Pls
1570 835 Pls
3297 845 Pls
5023 858 Pls
6749 882 Pls
1570 824 Pls
3297 845 Pls
5023 843 Pls
6749 864 Pls
1570 822 Pls
3297 827 Pls
5023 834 Pls
6749 850 Pls
1570 817 Pls
3297 828 Pls
5023 832 Pls
6749 844 Pls
1570 846 Pls
3297 862 Pls
5023 883 Pls
6749 895 Pls
1570 882 Pls
3297 895 Pls
5023 920 Pls
6749 928 Pls
1570 906 Pls
3297 934 Pls
5023 946 Pls
6749 958 Pls
1570 944 Pls
3297 973 Pls
5023 988 Pls
6749 1001 Pls
1570 978 Pls
3297 1003 Pls
5023 1038 Pls
6749 1062 Pls
1570 951 Pls
3297 993 Pls
5023 1057 Pls
6749 1097 Pls
1570 913 Pls
3297 990 Pls
5023 1000 Pls
6749 1041 Pls
1570 887 Pls
3297 904 Pls
5023 951 Pls
6749 1004 Pls
1570 861 Pls
3297 890 Pls
5023 892 Pls
6749 936 Pls
1570 845 Pls
3297 860 Pls
5023 872 Pls
6749 898 Pls
1570 955 Pls
3297 1002 Pls
5023 1048 Pls
6749 1048 Pls
1570 1066 Pls
3297 1106 Pls
5023 1184 Pls
6749 1164 Pls
1570 1185 Pls
3297 1298 Pls
5023 1288 Pls
6749 1341 Pls
1570 1303 Pls
3297 1457 Pls
5023 1453 Pls
6749 1548 Pls
1570 1512 Pls
3297 1602 Pls
5023 1698 Pls
6749 1754 Pls
1570 1094 Pls
3297 1139 Pls
5023 1332 Pls
6749 1383 Pls
1570 1010 Pls
3297 1030 Pls
5023 1186 Pls
6749 1332 Pls
1570 1026 Pls
3297 1045 Pls
5023 1110 Pls
6749 1232 Pls
1570 984 Pls
3297 1002 Pls
5023 1093 Pls
6749 1201 Pls
1570 882 Pls
3297 929 Pls
5023 986 Pls
6749 1035 Pls
1570 1347 Pls
3297 1612 Pls
5023 1734 Pls
6749 1819 Pls
1570 1974 Pls
3297 2231 Pls
5023 2448 Pls
6749 2576 Pls
1570 2432 Pls
3297 2594 Pls
5023 3018 Pls
6749 3128 Pls
1570 3046 Pls
3297 3528 Pls
5023 3781 Pls
6749 3907 Pls
1570 3965 Pls
3297 4032 Pls
5023 4353 Pls
6749 4625 Pls
1570 801 Pls
3297 804 Pls
5023 803 Pls
6749 805 Pls
1570 801 Pls
3297 802 Pls
5023 803 Pls
6749 804 Pls
1570 801 Pls
3297 801 Pls
5023 802 Pls
6749 803 Pls
1570 801 Pls
3297 801 Pls
5023 802 Pls
6749 803 Pls
1570 800 Pls
3297 801 Pls
5023 802 Pls
6749 802 Pls
1570 801 Pls
3297 801 Pls
5023 802 Pls
6749 802 Pls
1570 801 Pls
3297 802 Pls
5023 802 Pls
6749 802 Pls
1570 801 Pls
3297 802 Pls
5023 802 Pls
6749 803 Pls
1570 802 Pls
3297 802 Pls
5023 803 Pls
6749 803 Pls
1570 802 Pls
3297 803 Pls
5023 803 Pls
6749 804 Pls
1570 813 Pls
3297 817 Pls
5023 821 Pls
6749 829 Pls
1570 810 Pls
3297 814 Pls
5023 814 Pls
6749 823 Pls
1570 808 Pls
3297 811 Pls
5023 814 Pls
6749 823 Pls
1570 805 Pls
3297 808 Pls
5023 814 Pls
6749 818 Pls
1570 804 Pls
3297 808 Pls
5023 809 Pls
6749 815 Pls
1570 810 Pls
3297 815 Pls
5023 818 Pls
6749 823 Pls
1570 816 Pls
3297 822 Pls
5023 824 Pls
6749 829 Pls
1570 826 Pls
3297 827 Pls
5023 833 Pls
6749 839 Pls
1570 831 Pls
3297 837 Pls
5023 841 Pls
6749 846 Pls
1570 840 Pls
3297 844 Pls
5023 847 Pls
6749 852 Pls
1570 848 Pls
3297 864 Pls
5023 894 Pls
6749 916 Pls
1570 835 Pls
3297 842 Pls
5023 853 Pls
6749 891 Pls
1570 828 Pls
3297 832 Pls
5023 854 Pls
6749 865 Pls
1570 820 Pls
3297 826 Pls
5023 839 Pls
6749 850 Pls
1570 823 Pls
3297 824 Pls
5023 832 Pls
6749 841 Pls
1570 847 Pls
3297 867 Pls
5023 886 Pls
6749 890 Pls
1570 879 Pls
3297 897 Pls
5023 915 Pls
6749 913 Pls
1570 915 Pls
3297 929 Pls
5023 947 Pls
6749 964 Pls
1570 956 Pls
3297 969 Pls
5023 990 Pls
6749 1000 Pls
1570 984 Pls
3297 1018 Pls
5023 1021 Pls
6749 1045 Pls
1570 930 Pls
3297 1025 Pls
5023 1059 Pls
6749 1140 Pls
1570 899 Pls
3297 939 Pls
5023 975 Pls
6749 1050 Pls
1570 877 Pls
3297 898 Pls
5023 968 Pls
6749 1018 Pls
1570 853 Pls
3297 870 Pls
5023 909 Pls
6749 939 Pls
1570 842 Pls
3297 851 Pls
5023 877 Pls
6749 905 Pls
1570 974 Pls
3297 1009 Pls
5023 1040 Pls
6749 1076 Pls
1570 1074 Pls
3297 1155 Pls
5023 1177 Pls
6749 1183 Pls
1570 1198 Pls
3297 1249 Pls
5023 1324 Pls
6749 1399 Pls
1570 1360 Pls
3297 1448 Pls
5023 1477 Pls
6749 1497 Pls
1570 1552 Pls
3297 1651 Pls
5023 1678 Pls
6749 1761 Pls
1570 1147 Pls
3297 1104 Pls
5023 1284 Pls
6749 1450 Pls
1570 1017 Pls
3297 1091 Pls
5023 1205 Pls
6749 1305 Pls
1570 979 Pls
3297 1010 Pls
5023 1198 Pls
6749 1277 Pls
1570 925 Pls
3297 946 Pls
5023 1058 Pls
6749 1124 Pls
1570 893 Pls
3297 943 Pls
5023 957 Pls
6749 1082 Pls
1570 1420 Pls
3297 1549 Pls
5023 1759 Pls
6749 1892 Pls
1570 1930 Pls
3297 2191 Pls
5023 2373 Pls
6749 2467 Pls
1570 2467 Pls
3297 2754 Pls
5023 2982 Pls
6749 3100 Pls
1570 3064 Pls
3297 3313 Pls
5023 3612 Pls
6749 3772 Pls
1570 3649 Pls
3297 4174 Pls
5023 4451 Pls
6749 4569 Pls
1570 802 Pls
3297 803 Pls
5023 803 Pls
6749 805 Pls
1570 801 Pls
3297 802 Pls
5023 803 Pls
6749 804 Pls
1570 801 Pls
3297 801 Pls
5023 802 Pls
6749 803 Pls
1570 801 Pls
3297 801 Pls
5023 802 Pls
6749 803 Pls
1570 801 Pls
3297 801 Pls
5023 802 Pls
6749 802 Pls
1570 801 Pls
3297 801 Pls
5023 802 Pls
6749 802 Pls
1570 801 Pls
3297 802 Pls
5023 802 Pls
6749 802 Pls
1570 802 Pls
3297 802 Pls
5023 802 Pls
6749 803 Pls
1570 802 Pls
3297 802 Pls
5023 803 Pls
6749 803 Pls
1570 802 Pls
3297 803 Pls
5023 803 Pls
6749 804 Pls
1570 813 Pls
3297 816 Pls
5023 821 Pls
6749 831 Pls
1570 810 Pls
3297 810 Pls
5023 815 Pls
6749 822 Pls
1570 809 Pls
3297 811 Pls
5023 814 Pls
6749 820 Pls
1570 806 Pls
3297 810 Pls
5023 812 Pls
6749 818 Pls
1570 806 Pls
3297 806 Pls
5023 811 Pls
6749 814 Pls
1570 812 Pls
3297 816 Pls
5023 820 Pls
6749 824 Pls
1570 816 Pls
3297 823 Pls
5023 823 Pls
6749 831 Pls
1570 823 Pls
3297 830 Pls
5023 834 Pls
6749 836 Pls
1570 832 Pls
3297 837 Pls
5023 840 Pls
6749 846 Pls
1570 839 Pls
3297 844 Pls
5023 850 Pls
6749 854 Pls
1570 847 Pls
3297 866 Pls
5023 876 Pls
6749 917 Pls
1570 827 Pls
3297 853 Pls
5023 861 Pls
6749 877 Pls
1570 832 Pls
3297 839 Pls
5023 849 Pls
6749 861 Pls
1570 821 Pls
3297 834 Pls
5023 832 Pls
6749 854 Pls
1570 819 Pls
3297 820 Pls
5023 830 Pls
6749 834 Pls
1570 850 Pls
3297 871 Pls
5023 872 Pls
6749 881 Pls
1570 878 Pls
3297 895 Pls
5023 914 Pls
6749 922 Pls
1570 921 Pls
3297 925 Pls
5023 952 Pls
6749 966 Pls
1570 943 Pls
3297 969 Pls
5023 992 Pls
6749 1006 Pls
1570 966 Pls
3297 1024 Pls
5023 1033 Pls
6749 1039 Pls
1570 946 Pls
3297 966 Pls
5023 1063 Pls
6749 1140 Pls
1570 895 Pls
3297 958 Pls
5023 986 Pls
6749 1093 Pls
1570 893 Pls
3297 898 Pls
5023 969 Pls
6749 1006 Pls
1570 850 Pls
3297 877 Pls
5023 900 Pls
6749 959 Pls
1570 837 Pls
3297 849 Pls
5023 877 Pls
6749 905 Pls
1570 945 Pls
3297 1029 Pls
5023 1051 Pls
6749 1101 Pls
1570 1103 Pls
3297 1150 Pls
5023 1185 Pls
6749 1217 Pls
1570 1199 Pls
3297 1308 Pls
5023 1331 Pls
6749 1355 Pls
1570 1363 Pls
3297 1450 Pls
5023 1504 Pls
6749 1555 Pls
1570 1572 Pls
3297 1593 Pls
5023 1737 Pls
6749 1792 Pls
1570 1073 Pls
3297 1131 Pls
5023 1220 Pls
6749 1414 Pls
1570 985 Pls
3297 1069 Pls
5023 1240 Pls
6749 1357 Pls
1570 1019 Pls
3297 1008 Pls
5023 1155 Pls
6749 1243 Pls
1570 970 Pls
3297 977 Pls
5023 1082 Pls
6749 1178 Pls
1570 887 Pls
3297 959 Pls
5023 992 Pls
6749 1049 Pls
1570 1465 Pls
3297 1608 Pls
5023 1603 Pls
6749 1924 Pls
1570 2012 Pls
3297 2022 Pls
5023 2220 Pls
6749 2520 Pls
1570 2524 Pls
3297 2864 Pls
5023 2977 Pls
6749 3104 Pls
1570 3026 Pls
3297 3496 Pls
5023 3553 Pls
6749 3785 Pls
1570 3652 Pls
3297 4144 Pls
5023 4205 Pls
6749 4620 Pls
1570 801 Pls
3297 802 Pls
5023 804 Pls
6749 805 Pls
1570 801 Pls
3297 801 Pls
5023 803 Pls
6749 804 Pls
1570 801 Pls
3297 801 Pls
5023 802 Pls
6749 803 Pls
1570 801 Pls
3297 801 Pls
5023 802 Pls
6749 803 Pls
1570 800 Pls
3297 801 Pls
5023 802 Pls
6749 802 Pls
1570 801 Pls
3297 801 Pls
5023 802 Pls
6749 802 Pls
1570 801 Pls
3297 802 Pls
5023 802 Pls
6749 802 Pls
1570 801 Pls
3297 802 Pls
5023 802 Pls
6749 803 Pls
1570 802 Pls
3297 802 Pls
5023 803 Pls
6749 803 Pls
1570 802 Pls
3297 803 Pls
5023 803 Pls
6749 804 Pls
1570 811 Pls
3297 814 Pls
5023 820 Pls
6749 826 Pls
1570 812 Pls
3297 812 Pls
5023 823 Pls
6749 827 Pls
1570 807 Pls
3297 810 Pls
5023 817 Pls
6749 817 Pls
1570 806 Pls
3297 809 Pls
5023 811 Pls
6749 817 Pls
1570 804 Pls
3297 808 Pls
5023 809 Pls
6749 813 Pls
1570 811 Pls
3297 815 Pls
5023 821 Pls
6749 823 Pls
1570 817 Pls
3297 821 Pls
5023 824 Pls
6749 829 Pls
1570 824 Pls
3297 827 Pls
5023 834 Pls
6749 836 Pls
1570 830 Pls
3297 835 Pls
5023 841 Pls
6749 846 Pls
1570 836 Pls
3297 844 Pls
5023 850 Pls
6749 852 Pls
1570 838 Pls
3297 857 Pls
5023 874 Pls
6749 913 Pls
1570 838 Pls
3297 849 Pls
5023 867 Pls
6749 876 Pls
1570 829 Pls
3297 834 Pls
5023 845 Pls
6749 873 Pls
1570 823 Pls
3297 825 Pls
5023 835 Pls
6749 842 Pls
1570 819 Pls
3297 824 Pls
5023 826 Pls
6749 840 Pls
1570 846 Pls
3297 867 Pls
5023 878 Pls
6749 887 Pls
1570 886 Pls
3297 896 Pls
5023 906 Pls
6749 931 Pls
1570 900 Pls
3297 939 Pls
5023 948 Pls
6749 955 Pls
1570 952 Pls
3297 957 Pls
5023 987 Pls
6749 996 Pls
1570 985 Pls
3297 1012 Pls
5023 1032 Pls
6749 1046 Pls
1570 963 Pls
3297 971 Pls
5023 1040 Pls
6749 1159 Pls
1570 919 Pls
3297 972 Pls
5023 1002 Pls
6749 1066 Pls
1570 865 Pls
3297 896 Pls
5023 970 Pls
6749 999 Pls
1570 853 Pls
3297 871 Pls
5023 897 Pls
6749 942 Pls
1570 849 Pls
3297 848 Pls
5023 882 Pls
6749 905 Pls
1570 978 Pls
3297 1016 Pls
5023 1032 Pls
6749 1101 Pls
1570 1097 Pls
3297 1129 Pls
5023 1204 Pls
6749 1234 Pls
1570 1218 Pls
3297 1289 Pls
5023 1350 Pls
6749 1395 Pls
1570 1397 Pls
3297 1444 Pls
5023 1451 Pls
6749 1525 Pls
1570 1510 Pls
3297 1619 Pls
5023 1655 Pls
6749 1718 Pls
1570 1087 Pls
3297 1104 Pls
5023 1289 Pls
6749 1436 Pls
1570 970 Pls
3297 1119 Pls
5023 1178 Pls
6749 1326 Pls
1570 945 Pls
3297 1075 Pls
5023 1150 Pls
6749 1297 Pls
1570 960 Pls
3297 1012 Pls
5023 1073 Pls
6749 1174 Pls
1570 906 Pls
3297 955 Pls
5023 999 Pls
6749 1095 Pls
1570 1421 Pls
3297 1489 Pls
5023 1746 Pls
6749 1804 Pls
1570 1943 Pls
3297 2133 Pls
5023 2306 Pls
6749 2471 Pls
1570 2397 Pls
3297 2728 Pls
5023 2866 Pls
6749 3091 Pls
1570 3276 Pls
3297 3349 Pls
5023 3717 Pls
6749 3706 Pls
1570 3878 Pls
3297 4352 Pls
5023 4383 Pls
6749 4619 Pls
1570 803 Pls
3297 802 Pls
5023 803 Pls
6749 805 Pls
1570 801 Pls
3297 802 Pls
5023 803 Pls
6749 805 Pls
1570 801 Pls
3297 801 Pls
5023 802 Pls
6749 803 Pls
1570 801 Pls
3297 801 Pls
5023 802 Pls
6749 803 Pls
1570 800 Pls
3297 801 Pls
5023 802 Pls
6749 802 Pls
1570 801 Pls
3297 801 Pls
5023 802 Pls
6749 802 Pls
1570 801 Pls
3297 802 Pls
5023 802 Pls
6749 803 Pls
1570 802 Pls
3297 802 Pls
5023 802 Pls
6749 803 Pls
1570 802 Pls
3297 802 Pls
5023 803 Pls
6749 803 Pls
1570 802 Pls
3297 803 Pls
5023 803 Pls
6749 804 Pls
1570 814 Pls
3297 817 Pls
5023 817 Pls
6749 832 Pls
1570 810 Pls
3297 814 Pls
5023 818 Pls
6749 826 Pls
1570 807 Pls
3297 811 Pls
5023 814 Pls
6749 820 Pls
1570 806 Pls
3297 809 Pls
5023 813 Pls
6749 816 Pls
1570 805 Pls
3297 807 Pls
5023 811 Pls
6749 814 Pls
1570 810 Pls
3297 813 Pls
5023 821 Pls
6749 826 Pls
1570 816 Pls
3297 822 Pls
5023 826 Pls
6749 830 Pls
1570 822 Pls
3297 830 Pls
5023 834 Pls
6749 837 Pls
1570 831 Pls
3297 838 Pls
5023 839 Pls
6749 843 Pls
1570 839 Pls
3297 844 Pls
5023 850 Pls
6749 852 Pls
1570 849 Pls
3297 856 Pls
5023 887 Pls
6749 899 Pls
1570 826 Pls
3297 843 Pls
5023 857 Pls
6749 867 Pls
1570 831 Pls
3297 830 Pls
5023 845 Pls
6749 857 Pls
1570 822 Pls
3297 824 Pls
5023 831 Pls
6749 845 Pls
1570 820 Pls
3297 821 Pls
5023 831 Pls
6749 837 Pls
1570 856 Pls
3297 860 Pls
5023 875 Pls
6749 889 Pls
1570 874 Pls
3297 898 Pls
5023 912 Pls
6749 923 Pls
1570 912 Pls
3297 935 Pls
5023 947 Pls
6749 958 Pls
1570 953 Pls
3297 968 Pls
5023 998 Pls
6749 999 Pls
1570 995 Pls
3297 1017 Pls
5023 1048 Pls
6749 1049 Pls
1570 931 Pls
3297 974 Pls
5023 1051 Pls
6749 1139 Pls
1570 914 Pls
3297 946 Pls
5023 998 Pls
6749 1065 Pls
1570 880 Pls
3297 906 Pls
5023 949 Pls
6749 998 Pls
1570 846 Pls
3297 895 Pls
5023 925 Pls
6749 952 Pls
1570 841 Pls
3297 873 Pls
5023 875 Pls
6749 908 Pls
1570 943 Pls
3297 998 Pls
5023 1033 Pls
6749 1088 Pls
1570 1093 Pls
3297 1137 Pls
5023 1149 Pls
6749 1219 Pls
1570 1164 Pls
3297 1213 Pls
5023 1344 Pls
6749 1365 Pls
1570 1346 Pls
3297 1485 Pls
5023 1521 Pls
6749 1543 Pls
1570 1495 Pls
3297 1634 Pls
5023 1653 Pls
6749 1701 Pls
1570 1090 Pls
3297 1241 Pls
5023 1341 Pls
6749 1483 Pls
1570 1030 Pls
3297 1106 Pls
5023 1213 Pls
6749 1344 Pls
1570 994 Pls
3297 1047 Pls
5023 1168 Pls
6749 1272 Pls
1570 969 Pls
3297 1020 Pls
5023 1076 Pls
6749 1183 Pls
1570 905 Pls
3297 922 Pls
5023 999 Pls
6749 1075 Pls
1570 1427 Pls
3297 1612 Pls
5023 1704 Pls
6749 1914 Pls
1570 1867 Pls
3297 2137 Pls
5023 2285 Pls
6749 2515 Pls
1570 2565 Pls
3297 2728 Pls
5023 2962 Pls
6749 3048 Pls
1570 2980 Pls
3297 3457 Pls
5023 3722 Pls
6749 3822 Pls
1570 4014 Pls
3297 4140 Pls
5023 4263 Pls
6749 4628 Pls
1570 801 Pls
3297 802 Pls
5023 804 Pls
6749 805 Pls
1570 801 Pls
3297 801 Pls
5023 803 Pls
6749 804 Pls
1570 801 Pls
3297 802 Pls
5023 802 Pls
6749 803 Pls
1570 801 Pls
3297 801 Pls
5023 802 Pls
6749 803 Pls
1570 800 Pls
3297 801 Pls
5023 802 Pls
6749 802 Pls
1570 801 Pls
3297 801 Pls
5023 802 Pls
6749 802 Pls
1570 801 Pls
3297 802 Pls
5023 802 Pls
6749 802 Pls
1570 801 Pls
3297 802 Pls
5023 803 Pls
6749 803 Pls
1570 802 Pls
3297 802 Pls
5023 803 Pls
6749 803 Pls
1570 802 Pls
3297 803 Pls
5023 803 Pls
6749 804 Pls
1570 811 Pls
3297 817 Pls
5023 821 Pls
6749 830 Pls
1570 809 Pls
3297 812 Pls
5023 818 Pls
6749 826 Pls
1570 808 Pls
3297 810 Pls
5023 816 Pls
6749 822 Pls
1570 806 Pls
3297 808 Pls
5023 812 Pls
6749 818 Pls
1570 804 Pls
3297 807 Pls
5023 809 Pls
6749 812 Pls
1570 811 Pls
3297 816 Pls
5023 819 Pls
6749 823 Pls
1570 816 Pls
3297 820 Pls
5023 825 Pls
6749 832 Pls
1570 823 Pls
3297 829 Pls
5023 832 Pls
6749 835 Pls
1570 834 Pls
3297 835 Pls
5023 841 Pls
6749 846 Pls
1570 839 Pls
3297 844 Pls
5023 849 Pls
6749 855 Pls
1570 847 Pls
3297 857 Pls
5023 880 Pls
6749 895 Pls
1570 837 Pls
3297 847 Pls
5023 869 Pls
6749 889 Pls
1570 826 Pls
3297 840 Pls
5023 844 Pls
6749 866 Pls
1570 818 Pls
3297 822 Pls
5023 828 Pls
6749 846 Pls
1570 816 Pls
3297 826 Pls
5023 828 Pls
6749 834 Pls
1570 845 Pls
3297 862 Pls
5023 882 Pls
6749 891 Pls
1570 874 Pls
3297 893 Pls
5023 914 Pls
6749 931 Pls
1570 921 Pls
3297 925 Pls
5023 951 Pls
6749 960 Pls
1570 944 Pls
3297 960 Pls
5023 977 Pls
6749 1003 Pls
1570 998 Pls
3297 1021 Pls
5023 1040 Pls
6749 1049 Pls
1570 963 Pls
3297 991 Pls
5023 1038 Pls
6749 1165 Pls
1570 881 Pls
3297 940 Pls
5023 991 Pls
6749 1033 Pls
1570 872 Pls
3297 901 Pls
5023 953 Pls
6749 1000 Pls
1570 874 Pls
3297 871 Pls
5023 912 Pls
6749 940 Pls
1570 849 Pls
3297 859 Pls
5023 876 Pls
6749 898 Pls
1570 953 Pls
3297 1008 Pls
5023 1057 Pls
6749 1081 Pls
1570 1085 Pls
3297 1150 Pls
5023 1171 Pls
6749 1233 Pls
1570 1227 Pls
3297 1283 Pls
5023 1351 Pls
6749 1351 Pls
1570 1427 Pls
3297 1442 Pls
5023 1501 Pls
6749 1520 Pls
1570 1501 Pls
3297 1663 Pls
5023 1637 Pls
6749 1758 Pls
1570 1057 Pls
3297 1139 Pls
5023 1341 Pls
6749 1503 Pls
1570 1016 Pls
3297 1118 Pls
5023 1162 Pls
6749 1401 Pls
1570 999 Pls
3297 1047 Pls
5023 1119 Pls
6749 1289 Pls
1570 955 Pls
3297 996 Pls
5023 1057 Pls
6749 1214 Pls
1570 939 Pls
3297 941 Pls
5023 985 Pls
6749 1050 Pls
1570 1381 Pls
3297 1609 Pls
5023 1667 Pls
6749 1828 Pls
1570 1796 Pls
3297 2197 Pls
5023 2323 Pls
6749 2453 Pls
1570 2669 Pls
3297 2817 Pls
5023 2948 Pls
6749 3231 Pls
1570 3296 Pls
3297 3550 Pls
5023 3740 Pls
6749 3627 Pls
1570 3798 Pls
3297 4319 Pls
5023 4370 Pls
6749 4465 Pls
1570 801 Pls
3297 803 Pls
5023 803 Pls
6749 805 Pls
1570 801 Pls
3297 801 Pls
5023 803 Pls
6749 804 Pls
1570 801 Pls
3297 802 Pls
5023 802 Pls
6749 804 Pls
1570 801 Pls
3297 801 Pls
5023 802 Pls
6749 803 Pls
1570 801 Pls
3297 801 Pls
5023 802 Pls
6749 802 Pls
1570 801 Pls
3297 801 Pls
5023 802 Pls
6749 802 Pls
1570 801 Pls
3297 802 Pls
5023 802 Pls
6749 802 Pls
1570 801 Pls
3297 802 Pls
5023 802 Pls
6749 803 Pls
1570 802 Pls
3297 802 Pls
5023 803 Pls
6749 803 Pls
1570 802 Pls
3297 803 Pls
5023 803 Pls
6749 804 Pls
1570 812 Pls
3297 816 Pls
5023 823 Pls
6749 828 Pls
1570 810 Pls
3297 815 Pls
5023 818 Pls
6749 823 Pls
1570 808 Pls
3297 811 Pls
5023 815 Pls
6749 819 Pls
1570 807 Pls
3297 808 Pls
5023 812 Pls
6749 815 Pls
1570 804 Pls
3297 807 Pls
5023 810 Pls
6749 814 Pls
1570 810 Pls
3297 814 Pls
5023 819 Pls
6749 823 Pls
1570 818 Pls
3297 821 Pls
5023 824 Pls
6749 829 Pls
1570 824 Pls
3297 828 Pls
5023 832 Pls
6749 838 Pls
1570 830 Pls
3297 833 Pls
5023 840 Pls
6749 845 Pls
1570 837 Pls
3297 845 Pls
5023 850 Pls
6749 854 Pls
1570 852 Pls
3297 856 Pls
5023 886 Pls
6749 910 Pls
1570 836 Pls
3297 844 Pls
5023 857 Pls
6749 885 Pls
1570 830 Pls
3297 836 Pls
5023 849 Pls
6749 870 Pls
1570 822 Pls
3297 830 Pls
5023 836 Pls
6749 845 Pls
1570 818 Pls
3297 823 Pls
5023 836 Pls
6749 840 Pls
1570 851 Pls
3297 865 Pls
5023 870 Pls
6749 897 Pls
1570 874 Pls
3297 880 Pls
5023 920 Pls
6749 923 Pls
1570 917 Pls
3297 937 Pls
5023 954 Pls
6749 964 Pls
1570 925 Pls
3297 960 Pls
5023 990 Pls
6749 1011 Pls
1570 1005 Pls
3297 1023 Pls
5023 1036 Pls
6749 1042 Pls
1570 944 Pls
3297 969 Pls
5023 1051 Pls
6749 1134 Pls
1570 888 Pls
3297 949 Pls
5023 977 Pls
6749 1061 Pls
1570 877 Pls
3297 898 Pls
5023 948 Pls
6749 1024 Pls
1570 861 Pls
3297 892 Pls
5023 928 Pls
6749 934 Pls
1570 843 Pls
3297 857 Pls
5023 885 Pls
6749 905 Pls
1570 930 Pls
3297 1009 Pls
5023 1046 Pls
6749 1100 Pls
1570 1072 Pls
3297 1140 Pls
5023 1177 Pls
6749 1243 Pls
1570 1190 Pls
3297 1254 Pls
5023 1339 Pls
6749 1353 Pls
1570 1370 Pls
3297 1382 Pls
5023 1509 Pls
6749 1532 Pls
1570 1410 Pls
3297 1639 Pls
5023 1658 Pls
6749 1583 Pls
1570 1088 Pls
3297 1164 Pls
5023 1295 Pls
6749 1501 Pls
1570 1012 Pls
3297 1104 Pls
5023 1294 Pls
6749 1377 Pls
1570 995 Pls
3297 1000 Pls
5023 1148 Pls
6749 1221 Pls
1570 1008 Pls
3297 1004 Pls
5023 1090 Pls
6749 1146 Pls
1570 893 Pls
3297 953 Pls
5023 1005 Pls
6749 1086 Pls
1570 1425 Pls
3297 1621 Pls
5023 1811 Pls
6749 1815 Pls
1570 1925 Pls
3297 2213 Pls
5023 2393 Pls
6749 2617 Pls
1570 2503 Pls
3297 2879 Pls
5023 2885 Pls
6749 3140 Pls
1570 3101 Pls
3297 3598 Pls
5023 3451 Pls
6749 3900 Pls
1570 3876 Pls
3297 3865 Pls
5023 4548 Pls
6749 4679 Pls
1570 801 Pls
3297 802 Pls
5023 803 Pls
6749 805 Pls
1570 801 Pls
3297 802 Pls
5023 803 Pls
6749 804 Pls
1570 801 Pls
3297 801 Pls
5023 802 Pls
6749 804 Pls
1570 801 Pls
3297 801 Pls
5023 802 Pls
6749 803 Pls
1570 801 Pls
3297 801 Pls
5023 801 Pls
6749 802 Pls
1570 801 Pls
3297 801 Pls
5023 802 Pls
6749 802 Pls
1570 801 Pls
3297 802 Pls
5023 802 Pls
6749 803 Pls
1570 802 Pls
3297 802 Pls
5023 803 Pls
6749 803 Pls
1570 802 Pls
3297 802 Pls
5023 803 Pls
6749 803 Pls
1570 802 Pls
3297 803 Pls
5023 803 Pls
6749 804 Pls
1570 812 Pls
3297 815 Pls
5023 824 Pls
6749 830 Pls
1570 812 Pls
3297 815 Pls
5023 817 Pls
6749 827 Pls
1570 807 Pls
3297 810 Pls
5023 816 Pls
6749 822 Pls
1570 806 Pls
3297 808 Pls
5023 813 Pls
6749 818 Pls
1570 805 Pls
3297 806 Pls
5023 811 Pls
6749 813 Pls
1570 811 Pls
3297 815 Pls
5023 820 Pls
6749 822 Pls
1570 820 Pls
3297 820 Pls
5023 824 Pls
6749 830 Pls
1570 822 Pls
3297 826 Pls
5023 831 Pls
6749 837 Pls
1570 830 Pls
3297 835 Pls
5023 840 Pls
6749 844 Pls
1570 836 Pls
3297 843 Pls
5023 849 Pls
6749 853 Pls
1570 860 Pls
3297 871 Pls
5023 864 Pls
6749 911 Pls
1570 831 Pls
3297 845 Pls
5023 852 Pls
6749 889 Pls
1570 827 Pls
3297 840 Pls
5023 844 Pls
6749 864 Pls
1570 820 Pls
3297 831 Pls
5023 837 Pls
6749 847 Pls
1570 812 Pls
3297 824 Pls
5023 829 Pls
6749 840 Pls
1570 840 Pls
3297 853 Pls
5023 872 Pls
6749 884 Pls
1570 881 Pls
3297 888 Pls
5023 903 Pls
6749 922 Pls
1570 910 Pls
3297 934 Pls
5023 938 Pls
6749 964 Pls
1570 940 Pls
3297 976 Pls
5023 988 Pls
6749 1009 Pls
1570 1004 Pls
3297 1016 Pls
5023 1035 Pls
6749 1057 Pls
1570 949 Pls
3297 987 Pls
5023 1046 Pls
6749 1159 Pls
1570 883 Pls
3297 946 Pls
5023 978 Pls
6749 1085 Pls
1570 894 Pls
3297 926 Pls
5023 949 Pls
6749 993 Pls
1570 880 Pls
3297 876 Pls
5023 914 Pls
6749 943 Pls
1570 842 Pls
3297 853 Pls
5023 879 Pls
6749 902 Pls
1570 952 Pls
3297 1003 Pls
5023 1057 Pls
6749 1075 Pls
1570 1076 Pls
3297 1152 Pls
5023 1147 Pls
6749 1232 Pls
1570 1224 Pls
3297 1298 Pls
5023 1331 Pls
6749 1406 Pls
1570 1333 Pls
3297 1384 Pls
5023 1507 Pls
6749 1548 Pls
1570 1504 Pls
3297 1574 Pls
5023 1672 Pls
6749 1740 Pls
1570 1080 Pls
3297 1151 Pls
5023 1269 Pls
6749 1473 Pls
1570 1041 Pls
3297 1144 Pls
5023 1194 Pls
6749 1397 Pls
1570 1002 Pls
3297 1098 Pls
5023 1130 Pls
6749 1247 Pls
1570 963 Pls
3297 982 Pls
5023 1063 Pls
6749 1191 Pls
1570 913 Pls
3297 913 Pls
5023 998 Pls
6749 1072 Pls
1570 1385 Pls
3297 1554 Pls
5023 1700 Pls
6749 1879 Pls
1570 1878 Pls
3297 2179 Pls
5023 2230 Pls
6749 2361 Pls
1570 2596 Pls
3297 2726 Pls
5023 2963 Pls
6749 3155 Pls
1570 2985 Pls
3297 3324 Pls
5023 3485 Pls
6749 3960 Pls
1570 3965 Pls
3297 4134 Pls
5023 4472 Pls
6749 4586 Pls
1570 803 Pls
3297 802 Pls
5023 804 Pls
6749 805 Pls
1570 801 Pls
3297 801 Pls
5023 803 Pls
6749 804 Pls
1570 801 Pls
3297 801 Pls
5023 802 Pls
6749 804 Pls
1570 801 Pls
3297 801 Pls
5023 802 Pls
6749 803 Pls
1570 800 Pls
3297 801 Pls
5023 802 Pls
6749 802 Pls
1570 801 Pls
3297 801 Pls
5023 802 Pls
6749 802 Pls
1570 801 Pls
3297 802 Pls
5023 802 Pls
6749 802 Pls
1570 802 Pls
3297 802 Pls
5023 802 Pls
6749 803 Pls
1570 802 Pls
3297 802 Pls
5023 803 Pls
6749 803 Pls
1570 802 Pls
3297 803 Pls
5023 803 Pls
6749 804 Pls
1570 812 Pls
3297 813 Pls
5023 821 Pls
6749 827 Pls
1570 812 Pls
3297 814 Pls
5023 817 Pls
6749 823 Pls
1570 808 Pls
3297 810 Pls
5023 815 Pls
6749 822 Pls
1570 806 Pls
3297 808 Pls
5023 811 Pls
6749 817 Pls
1570 805 Pls
3297 808 Pls
5023 811 Pls
6749 816 Pls
1570 813 Pls
3297 815 Pls
5023 818 Pls
6749 823 Pls
1570 817 Pls
3297 822 Pls
5023 824 Pls
6749 829 Pls
1570 824 Pls
3297 829 Pls
5023 834 Pls
6749 836 Pls
1570 830 Pls
3297 836 Pls
5023 838 Pls
6749 845 Pls
1570 839 Pls
3297 844 Pls
5023 849 Pls
6749 853 Pls
1570 843 Pls
3297 850 Pls
5023 877 Pls
6749 914 Pls
1570 830 Pls
3297 847 Pls
5023 866 Pls
6749 878 Pls
1570 825 Pls
3297 833 Pls
5023 842 Pls
6749 864 Pls
1570 822 Pls
3297 834 Pls
5023 840 Pls
6749 852 Pls
1570 817 Pls
3297 824 Pls
5023 830 Pls
6749 840 Pls
1570 849 Pls
3297 864 Pls
5023 875 Pls
6749 892 Pls
1570 886 Pls
3297 896 Pls
5023 920 Pls
6749 931 Pls
1570 916 Pls
3297 936 Pls
5023 950 Pls
6749 958 Pls
1570 942 Pls
3297 978 Pls
5023 982 Pls
6749 1014 Pls
1570 988 Pls
3297 1014 Pls
5023 1035 Pls
6749 1049 Pls
1570 936 Pls
3297 951 Pls
5023 1103 Pls
6749 1156 Pls
1570 890 Pls
3297 954 Pls
5023 1012 Pls
6749 1089 Pls
1570 878 Pls
3297 922 Pls
5023 949 Pls
6749 1009 Pls
1570 844 Pls
3297 909 Pls
5023 905 Pls
6749 938 Pls
1570 858 Pls
3297 861 Pls
5023 888 Pls
6749 907 Pls
1570 960 Pls
3297 993 Pls
5023 1019 Pls
6749 1066 Pls
1570 1055 Pls
3297 1167 Pls
5023 1199 Pls
6749 1222 Pls
1570 1221 Pls
3297 1289 Pls
5023 1339 Pls
6749 1418 Pls
1570 1344 Pls
3297 1394 Pls
5023 1519 Pls
6749 1527 Pls
1570 1553 Pls
3297 1628 Pls
5023 1639 Pls
6749 1749 Pls
1570 1118 Pls
3297 1135 Pls
5023 1273 Pls
6749 1456 Pls
1570 984 Pls
3297 1066 Pls
5023 1219 Pls
6749 1375 Pls
1570 1007 Pls
3297 1084 Pls
5023 1142 Pls
6749 1240 Pls
1570 945 Pls
3297 1004 Pls
5023 1086 Pls
6749 1123 Pls
1570 954 Pls
3297 996 Pls
5023 1020 Pls
6749 1064 Pls
1570 1487 Pls
3297 1627 Pls
5023 1812 Pls
6749 1875 Pls
1570 1912 Pls
3297 2225 Pls
5023 2094 Pls
6749 2430 Pls
1570 2548 Pls
3297 2389 Pls
5023 3053 Pls
6749 3292 Pls
1570 3229 Pls
3297 3568 Pls
5023 3561 Pls
6749 3978 Pls
1570 3841 Pls
3297 4140 Pls
5023 4469 Pls
6749 4724 Pls
1570 801 Pls
3297 804 Pls
5023 804 Pls
6749 805 Pls
1570 801 Pls
3297 802 Pls
5023 803 Pls
6749 804 Pls
1570 801 Pls
3297 801 Pls
5023 802 Pls
6749 804 Pls
1570 801 Pls
3297 801 Pls
5023 802 Pls
6749 803 Pls
1570 801 Pls
3297 801 Pls
5023 802 Pls
6749 802 Pls
1570 801 Pls
3297 801 Pls
5023 802 Pls
6749 802 Pls
1570 801 Pls
3297 802 Pls
5023 802 Pls
6749 802 Pls
1570 801 Pls
3297 802 Pls
5023 803 Pls
6749 803 Pls
1570 802 Pls
3297 802 Pls
5023 803 Pls
6749 803 Pls
1570 802 Pls
3297 803 Pls
5023 803 Pls
6749 804 Pls
1570 812 Pls
3297 817 Pls
5023 823 Pls
6749 826 Pls
1570 811 Pls
3297 814 Pls
5023 818 Pls
6749 824 Pls
1570 807 Pls
3297 812 Pls
5023 813 Pls
6749 821 Pls
1570 806 Pls
3297 808 Pls
5023 812 Pls
6749 818 Pls
1570 804 Pls
3297 807 Pls
5023 810 Pls
6749 813 Pls
1570 811 Pls
3297 814 Pls
5023 819 Pls
6749 823 Pls
1570 817 Pls
3297 821 Pls
5023 824 Pls
6749 830 Pls
1570 823 Pls
3297 828 Pls
5023 832 Pls
6749 839 Pls
1570 827 Pls
3297 838 Pls
5023 840 Pls
6749 844 Pls
1570 835 Pls
3297 842 Pls
5023 846 Pls
6749 853 Pls
1570 838 Pls
3297 856 Pls
5023 888 Pls
6749 903 Pls
1570 838 Pls
3297 847 Pls
5023 859 Pls
6749 880 Pls
1570 830 Pls
3297 842 Pls
5023 848 Pls
6749 861 Pls
1570 822 Pls
3297 825 Pls
5023 838 Pls
6749 846 Pls
1570 819 Pls
3297 820 Pls
5023 826 Pls
6749 844 Pls
1570 849 Pls
3297 864 Pls
5023 881 Pls
6749 895 Pls
1570 875 Pls
3297 894 Pls
5023 915 Pls
6749 928 Pls
1570 908 Pls
3297 934 Pls
5023 939 Pls
6749 951 Pls
1570 947 Pls
3297 968 Pls
5023 997 Pls
6749 998 Pls
1570 995 Pls
3297 996 Pls
5023 1042 Pls
6749 1050 Pls
1570 969 Pls
3297 982 Pls
5023 1047 Pls
6749 1136 Pls
1570 913 Pls
3297 945 Pls
5023 998 Pls
6749 1100 Pls
1570 873 Pls
3297 905 Pls
5023 975 Pls
6749 991 Pls
1570 867 Pls
3297 891 Pls
5023 908 Pls
6749 938 Pls
1570 848 Pls
3297 869 Pls
5023 872 Pls
6749 905 Pls
1570 982 Pls
3297 1000 Pls
5023 1018 Pls
6749 1047 Pls
1570 1037 Pls
3297 1149 Pls
5023 1228 Pls
6749 1231 Pls
1570 1219 Pls
3297 1262 Pls
5023 1341 Pls
6749 1349 Pls
1570 1395 Pls
3297 1428 Pls
5023 1502 Pls
6749 1508 Pls
1570 1547 Pls
3297 1640 Pls
5023 1628 Pls
6749 1734 Pls
1570 1068 Pls
3297 1167 Pls
5023 1264 Pls
6749 1493 Pls
1570 1005 Pls
3297 1083 Pls
5023 1157 Pls
6749 1401 Pls
1570 960 Pls
3297 1052 Pls
5023 1154 Pls
6749 1267 Pls
1570 951 Pls
3297 1021 Pls
5023 1078 Pls
6749 1177 Pls
1570 931 Pls
3297 926 Pls
5023 997 Pls
6749 1058 Pls
1570 1400 Pls
3297 1578 Pls
5023 1750 Pls
6749 1869 Pls
1570 1791 Pls
3297 2056 Pls
5023 2321 Pls
6749 2337 Pls
1570 2605 Pls
3297 2817 Pls
5023 3080 Pls
6749 2985 Pls
1570 3102 Pls
3297 3287 Pls
5023 3802 Pls
6749 3790 Pls
1570 3860 Pls
3297 4246 Pls
5023 4155 Pls
6749 4553 Pls
1570 801 Pls
3297 802 Pls
5023 803 Pls
6749 805 Pls
1570 801 Pls
3297 802 Pls
5023 803 Pls
6749 804 Pls
1570 801 Pls
3297 801 Pls
5023 802 Pls
6749 804 Pls
1570 801 Pls
3297 801 Pls
5023 802 Pls
6749 803 Pls
1570 801 Pls
3297 801 Pls
5023 801 Pls
6749 802 Pls
1570 801 Pls
3297 801 Pls
5023 802 Pls
6749 802 Pls
1570 801 Pls
3297 802 Pls
5023 802 Pls
6749 802 Pls
1570 802 Pls
3297 802 Pls
5023 802 Pls
6749 803 Pls
1570 802 Pls
3297 802 Pls
5023 803 Pls
6749 803 Pls
1570 802 Pls
3297 803 Pls
5023 803 Pls
6749 804 Pls
1570 812 Pls
3297 813 Pls
5023 818 Pls
6749 825 Pls
1570 807 Pls
3297 811 Pls
5023 816 Pls
6749 823 Pls
1570 810 Pls
3297 811 Pls
5023 818 Pls
6749 819 Pls
1570 806 Pls
3297 808 Pls
5023 811 Pls
6749 819 Pls
1570 805 Pls
3297 807 Pls
5023 809 Pls
6749 814 Pls
1570 812 Pls
3297 818 Pls
5023 818 Pls
6749 824 Pls
1570 816 Pls
3297 822 Pls
5023 827 Pls
6749 830 Pls
1570 823 Pls
3297 831 Pls
5023 833 Pls
6749 838 Pls
1570 829 Pls
3297 835 Pls
5023 842 Pls
6749 843 Pls
1570 839 Pls
3297 845 Pls
5023 848 Pls
6749 852 Pls
1570 852 Pls
3297 869 Pls
5023 885 Pls
6749 901 Pls
1570 839 Pls
3297 841 Pls
5023 855 Pls
6749 888 Pls
1570 829 Pls
3297 838 Pls
5023 843 Pls
6749 873 Pls
1570 819 Pls
3297 831 Pls
5023 839 Pls
6749 858 Pls
1570 818 Pls
3297 822 Pls
5023 833 Pls
6749 843 Pls
1570 847 Pls
3297 865 Pls
5023 878 Pls
6749 888 Pls
1570 879 Pls
3297 899 Pls
5023 902 Pls
6749 922 Pls
1570 907 Pls
3297 934 Pls
5023 951 Pls
6749 965 Pls
1570 957 Pls
3297 976 Pls
5023 986 Pls
6749 1013 Pls
1570 999 Pls
3297 1016 Pls
5023 1033 Pls
6749 1060 Pls
1570 936 Pls
3297 1005 Pls
5023 1053 Pls
6749 1089 Pls
1570 898 Pls
3297 991 Pls
5023 997 Pls
6749 1045 Pls
1570 879 Pls
3297 897 Pls
5023 961 Pls
6749 1015 Pls
1570 862 Pls
3297 875 Pls
5023 918 Pls
6749 938 Pls
1570 850 Pls
3297 868 Pls
5023 871 Pls
6749 911 Pls
1570 951 Pls
3297 986 Pls
5023 1032 Pls
6749 1068 Pls
1570 1068 Pls
3297 1138 Pls
5023 1175 Pls
6749 1196 Pls
1570 1220 Pls
3297 1258 Pls
5023 1326 Pls
6749 1329 Pls
1570 1333 Pls
3297 1424 Pls
5023 1509 Pls
6749 1513 Pls
1570 1509 Pls
3297 1618 Pls
5023 1683 Pls
6749 1713 Pls
1570 1093 Pls
3297 1141 Pls
5023 1388 Pls
6749 1451 Pls
1570 1055 Pls
3297 1094 Pls
5023 1235 Pls
6749 1393 Pls
1570 1078 Pls
3297 1024 Pls
5023 1117 Pls
6749 1281 Pls
1570 963 Pls
3297 1025 Pls
5023 1078 Pls
6749 1162 Pls
1570 899 Pls
3297 975 Pls
5023 1017 Pls
6749 1056 Pls
1570 1389 Pls
3297 1598 Pls
5023 1689 Pls
6749 1862 Pls
1570 1891 Pls
3297 2112 Pls
5023 2285 Pls
6749 2473 Pls
1570 2610 Pls
3297 2834 Pls
5023 3033 Pls
6749 3137 Pls
1570 3022 Pls
3297 3556 Pls
5023 3600 Pls
6749 3755 Pls
1570 3735 Pls
3297 4268 Pls
5023 4452 Pls
6749 4540 Pls
1570 801 Pls
3297 802 Pls
5023 803 Pls
6749 805 Pls
1570 801 Pls
3297 802 Pls
5023 803 Pls
6749 804 Pls
1570 801 Pls
3297 801 Pls
5023 802 Pls
6749 803 Pls
1570 801 Pls
3297 801 Pls
5023 802 Pls
6749 803 Pls
1570 801 Pls
3297 801 Pls
5023 802 Pls
6749 802 Pls
1570 801 Pls
3297 801 Pls
5023 802 Pls
6749 802 Pls
1570 801 Pls
3297 802 Pls
5023 802 Pls
6749 802 Pls
1570 802 Pls
3297 802 Pls
5023 803 Pls
6749 803 Pls
1570 802 Pls
3297 802 Pls
5023 803 Pls
6749 803 Pls
1570 802 Pls
3297 803 Pls
5023 803 Pls
6749 804 Pls
1570 812 Pls
3297 813 Pls
5023 823 Pls
6749 828 Pls
1570 811 Pls
3297 814 Pls
5023 818 Pls
6749 824 Pls
1570 807 Pls
3297 811 Pls
5023 817 Pls
6749 819 Pls
1570 807 Pls
3297 809 Pls
5023 812 Pls
6749 817 Pls
1570 804 Pls
3297 808 Pls
5023 813 Pls
6749 813 Pls
1570 810 Pls
3297 815 Pls
5023 820 Pls
6749 823 Pls
1570 816 Pls
3297 822 Pls
5023 827 Pls
6749 828 Pls
1570 822 Pls
3297 827 Pls
5023 832 Pls
6749 835 Pls
1570 829 Pls
3297 836 Pls
5023 840 Pls
6749 844 Pls
1570 836 Pls
3297 845 Pls
5023 847 Pls
6749 852 Pls
1570 851 Pls
3297 859 Pls
5023 889 Pls
6749 887 Pls
1570 831 Pls
3297 849 Pls
5023 877 Pls
6749 880 Pls
1570 824 Pls
3297 829 Pls
5023 843 Pls
6749 857 Pls
1570 823 Pls
3297 822 Pls
5023 837 Pls
6749 851 Pls
1570 818 Pls
3297 822 Pls
5023 825 Pls
6749 844 Pls
1570 847 Pls
3297 857 Pls
5023 874 Pls
6749 890 Pls
1570 894 Pls
3297 899 Pls
5023 915 Pls
6749 930 Pls
1570 908 Pls
3297 932 Pls
5023 945 Pls
6749 956 Pls
1570 958 Pls
3297 958 Pls
5023 997 Pls
6749 1001 Pls
1570 987 Pls
3297 1013 Pls
5023 1032 Pls
6749 1058 Pls
1570 927 Pls
3297 965 Pls
5023 1072 Pls
6749 1163 Pls
1570 909 Pls
3297 896 Pls
5023 1010 Pls
6749 1060 Pls
1570 893 Pls
3297 931 Pls
5023 971 Pls
6749 1010 Pls
1570 862 Pls
3297 873 Pls
5023 927 Pls
6749 952 Pls
1570 842 Pls
3297 858 Pls
5023 889 Pls
6749 902 Pls
1570 946 Pls
3297 1017 Pls
5023 1034 Pls
6749 1104 Pls
1570 1053 Pls
3297 1132 Pls
5023 1162 Pls
6749 1234 Pls
1570 1211 Pls
3297 1252 Pls
5023 1340 Pls
6749 1383 Pls
1570 1296 Pls
3297 1460 Pls
5023 1509 Pls
6749 1514 Pls
1570 1446 Pls
3297 1629 Pls
5023 1677 Pls
6749 1716 Pls
1570 1008 Pls
3297 1129 Pls
5023 1314 Pls
6749 1482 Pls
1570 1068 Pls
3297 1144 Pls
5023 1193 Pls
6749 1377 Pls
1570 1018 Pls
3297 1067 Pls
5023 1084 Pls
6749 1258 Pls
1570 909 Pls
3297 1013 Pls
5023 1072 Pls
6749 1182 Pls
1570 963 Pls
3297 987 Pls
5023 990 Pls
6749 1053 Pls
1570 1462 Pls
3297 1518 Pls
5023 1645 Pls
6749 1835 Pls
1570 1852 Pls
3297 2103 Pls
5023 2328 Pls
6749 2604 Pls
1570 2370 Pls
3297 2843 Pls
5023 3027 Pls
6749 3210 Pls
1570 3067 Pls
3297 3525 Pls
5023 3687 Pls
6749 3863 Pls
1570 3431 Pls
3297 4041 Pls
5023 4233 Pls
6749 4715 Pls
1570 801 Pls
3297 804 Pls
5023 803 Pls
6749 805 Pls
1570 801 Pls
3297 802 Pls
5023 803 Pls
6749 804 Pls
1570 801 Pls
3297 801 Pls
5023 802 Pls
6749 803 Pls
1570 801 Pls
3297 801 Pls
5023 802 Pls
6749 803 Pls
1570 801 Pls
3297 801 Pls
5023 802 Pls
6749 802 Pls
1570 801 Pls
3297 801 Pls
5023 802 Pls
6749 802 Pls
1570 801 Pls
3297 801 Pls
5023 802 Pls
6749 802 Pls
1570 801 Pls
3297 802 Pls
5023 802 Pls
6749 803 Pls
1570 802 Pls
3297 802 Pls
5023 803 Pls
6749 803 Pls
1570 802 Pls
3297 803 Pls
5023 803 Pls
6749 804 Pls
1570 814 Pls
3297 816 Pls
5023 823 Pls
6749 828 Pls
1570 809 Pls
3297 814 Pls
5023 819 Pls
6749 826 Pls
1570 808 Pls
3297 812 Pls
5023 813 Pls
6749 821 Pls
1570 806 Pls
3297 810 Pls
5023 814 Pls
6749 816 Pls
1570 805 Pls
3297 806 Pls
5023 810 Pls
6749 815 Pls
1570 810 Pls
3297 814 Pls
5023 821 Pls
6749 821 Pls
1570 814 Pls
3297 821 Pls
5023 826 Pls
6749 829 Pls
1570 824 Pls
3297 829 Pls
5023 833 Pls
6749 835 Pls
1570 829 Pls
3297 837 Pls
5023 844 Pls
6749 846 Pls
1570 839 Pls
3297 843 Pls
5023 849 Pls
6749 853 Pls
1570 850 Pls
3297 845 Pls
5023 880 Pls
6749 911 Pls
1570 833 Pls
3297 842 Pls
5023 867 Pls
6749 889 Pls
1570 826 Pls
3297 835 Pls
5023 851 Pls
6749 865 Pls
1570 823 Pls
3297 829 Pls
5023 838 Pls
6749 853 Pls
1570 816 Pls
3297 825 Pls
5023 830 Pls
6749 841 Pls
1570 855 Pls
3297 875 Pls
5023 873 Pls
6749 892 Pls
1570 880 Pls
3297 897 Pls
5023 912 Pls
6749 920 Pls
1570 917 Pls
3297 935 Pls
5023 939 Pls
6749 968 Pls
1570 952 Pls
3297 980 Pls
5023 988 Pls
6749 1007 Pls
1570 979 Pls
3297 1026 Pls
5023 1037 Pls
6749 1059 Pls
1570 960 Pls
3297 989 Pls
5023 1032 Pls
6749 1164 Pls
1570 904 Pls
3297 922 Pls
5023 973 Pls
6749 1083 Pls
1570 863 Pls
3297 883 Pls
5023 956 Pls
6749 1003 Pls
1570 862 Pls
3297 875 Pls
5023 919 Pls
6749 936 Pls
1570 849 Pls
3297 865 Pls
5023 880 Pls
6749 908 Pls
1570 966 Pls
3297 1018 Pls
5023 1051 Pls
6749 1065 Pls
1570 1094 Pls
3297 1155 Pls
5023 1196 Pls
6749 1212 Pls
1570 1210 Pls
3297 1265 Pls
5023 1338 Pls
6749 1366 Pls
1570 1391 Pls
3297 1467 Pls
5023 1476 Pls
6749 1542 Pls
1570 1562 Pls
3297 1596 Pls
5023 1676 Pls
6749 1583 Pls
1570 1101 Pls
3297 1180 Pls
5023 1290 Pls
6749 1408 Pls
1570 982 Pls
3297 1166 Pls
5023 1276 Pls
6749 1336 Pls
1570 972 Pls
3297 1043 Pls
5023 1177 Pls
6749 1263 Pls
1570 1004 Pls
3297 964 Pls
5023 1080 Pls
6749 1185 Pls
1570 926 Pls
3297 913 Pls
5023 1015 Pls
6749 1070 Pls
1570 1362 Pls
3297 1554 Pls
5023 1774 Pls
6749 1821 Pls
1570 1911 Pls
3297 2109 Pls
5023 2348 Pls
6749 2491 Pls
1570 2467 Pls
3297 2875 Pls
5023 3047 Pls
6749 3149 Pls
1570 3039 Pls
3297 3341 Pls
5023 3745 Pls
6749 3813 Pls
1570 3918 Pls
3297 4369 Pls
5023 4182 Pls
6749 4642 Pls
1570 801 Pls
3297 802 Pls
5023 803 Pls
6749 805 Pls
1570 801 Pls
3297 802 Pls
5023 803 Pls
6749 804 Pls
1570 801 Pls
3297 801 Pls
5023 802 Pls
6749 803 Pls
1570 801 Pls
3297 801 Pls
5023 802 Pls
6749 803 Pls
1570 800 Pls
3297 801 Pls
5023 802 Pls
6749 802 Pls
1570 801 Pls
3297 801 Pls
5023 802 Pls
6749 802 Pls
1570 801 Pls
3297 802 Pls
5023 802 Pls
6749 802 Pls
1570 801 Pls
3297 802 Pls
5023 802 Pls
6749 803 Pls
1570 802 Pls
3297 802 Pls
5023 803 Pls
6749 803 Pls
1570 802 Pls
3297 802 Pls
5023 803 Pls
6749 804 Pls
1570 815 Pls
3297 815 Pls
5023 826 Pls
6749 829 Pls
1570 810 Pls
3297 813 Pls
5023 820 Pls
6749 824 Pls
1570 808 Pls
3297 810 Pls
5023 815 Pls
6749 819 Pls
1570 806 Pls
3297 808 Pls
5023 813 Pls
6749 818 Pls
1570 805 Pls
3297 807 Pls
5023 809 Pls
6749 815 Pls
1570 811 Pls
3297 816 Pls
5023 820 Pls
6749 822 Pls
1570 817 Pls
3297 820 Pls
5023 826 Pls
6749 831 Pls
1570 825 Pls
3297 827 Pls
5023 832 Pls
6749 836 Pls
1570 830 Pls
3297 836 Pls
5023 839 Pls
6749 847 Pls
1570 835 Pls
3297 845 Pls
5023 849 Pls
6749 856 Pls
1570 839 Pls
3297 857 Pls
5023 883 Pls
6749 908 Pls
1570 838 Pls
3297 850 Pls
5023 861 Pls
6749 880 Pls
1570 828 Pls
3297 840 Pls
5023 845 Pls
6749 859 Pls
1570 819 Pls
3297 829 Pls
5023 835 Pls
6749 855 Pls
1570 818 Pls
3297 821 Pls
5023 832 Pls
6749 838 Pls
1570 844 Pls
3297 865 Pls
5023 878 Pls
6749 889 Pls
1570 877 Pls
3297 897 Pls
5023 909 Pls
6749 927 Pls
1570 913 Pls
3297 926 Pls
5023 952 Pls
6749 959 Pls
1570 951 Pls
3297 974 Pls
5023 988 Pls
6749 1002 Pls
1570 983 Pls
3297 1021 Pls
5023 1041 Pls
6749 1044 Pls
1570 927 Pls
3297 980 Pls
5023 1060 Pls
6749 1132 Pls
1570 953 Pls
3297 935 Pls
5023 998 Pls
6749 1086 Pls
1570 908 Pls
3297 901 Pls
5023 952 Pls
6749 1029 Pls
1570 850 Pls
3297 873 Pls
5023 914 Pls
6749 935 Pls
1570 852 Pls
3297 839 Pls
5023 869 Pls
6749 897 Pls
1570 968 Pls
3297 1017 Pls
5023 1067 Pls
6749 1086 Pls
1570 1098 Pls
3297 1147 Pls
5023 1210 Pls
6749 1239 Pls
1570 1186 Pls
3297 1244 Pls
5023 1333 Pls
6749 1336 Pls
1570 1347 Pls
3297 1391 Pls
5023 1455 Pls
6749 1557 Pls
1570 1538 Pls
3297 1482 Pls
5023 1680 Pls
6749 1666 Pls
1570 1072 Pls
3297 1168 Pls
5023 1331 Pls
6749 1437 Pls
1570 1051 Pls
3297 1081 Pls
5023 1171 Pls
6749 1333 Pls
1570 979 Pls
3297 1048 Pls
5023 1129 Pls
6749 1277 Pls
1570 960 Pls
3297 985 Pls
5023 1075 Pls
6749 1136 Pls
1570 912 Pls
3297 898 Pls
5023 1037 Pls
6749 1065 Pls
1570 1464 Pls
3297 1556 Pls
5023 1705 Pls
6749 1852 Pls
1570 1827 Pls
3297 2204 Pls
5023 2258 Pls
6749 2497 Pls
1570 2543 Pls
3297 2886 Pls
5023 3071 Pls
6749 2888 Pls
1570 3149 Pls
3297 3401 Pls
5023 3667 Pls
6749 3826 Pls
1570 3561 Pls
3297 4122 Pls
5023 4455 Pls
6749 4354 Pls
1570 801 Pls
3297 802 Pls
5023 803 Pls
6749 805 Pls
1570 801 Pls
3297 802 Pls
5023 803 Pls
6749 805 Pls
1570 801 Pls
3297 802 Pls
5023 802 Pls
6749 804 Pls
1570 801 Pls
3297 801 Pls
5023 802 Pls
6749 803 Pls
1570 801 Pls
3297 801 Pls
5023 801 Pls
6749 802 Pls
1570 801 Pls
3297 801 Pls
5023 802 Pls
6749 802 Pls
1570 801 Pls
3297 802 Pls
5023 802 Pls
6749 802 Pls
1570 801 Pls
3297 802 Pls
5023 803 Pls
6749 803 Pls
1570 802 Pls
3297 802 Pls
5023 803 Pls
6749 803 Pls
1570 802 Pls
3297 803 Pls
5023 803 Pls
6749 804 Pls
1570 816 Pls
3297 817 Pls
5023 822 Pls
6749 827 Pls
1570 809 Pls
3297 815 Pls
5023 820 Pls
6749 825 Pls
1570 807 Pls
3297 812 Pls
5023 814 Pls
6749 820 Pls
1570 805 Pls
3297 809 Pls
5023 812 Pls
6749 816 Pls
1570 805 Pls
3297 807 Pls
5023 811 Pls
6749 814 Pls
1570 810 Pls
3297 814 Pls
5023 822 Pls
6749 824 Pls
1570 817 Pls
3297 824 Pls
5023 824 Pls
6749 829 Pls
1570 824 Pls
3297 828 Pls
5023 833 Pls
6749 837 Pls
1570 829 Pls
3297 836 Pls
5023 841 Pls
6749 845 Pls
1570 840 Pls
3297 847 Pls
5023 849 Pls
6749 852 Pls
1570 842 Pls
3297 866 Pls
5023 878 Pls
6749 907 Pls
1570 838 Pls
3297 845 Pls
5023 855 Pls
6749 871 Pls
1570 829 Pls
3297 832 Pls
5023 852 Pls
6749 863 Pls
1570 814 Pls
3297 830 Pls
5023 832 Pls
6749 850 Pls
1570 814 Pls
3297 829 Pls
5023 829 Pls
6749 841 Pls
1570 845 Pls
3297 863 Pls
5023 876 Pls
6749 890 Pls
1570 871 Pls
3297 891 Pls
5023 907 Pls
6749 922 Pls
1570 899 Pls
3297 940 Pls
5023 951 Pls
6749 967 Pls
1570 953 Pls
3297 974 Pls
5023 995 Pls
6749 1014 Pls
1570 999 Pls
3297 1026 Pls
5023 1029 Pls
6749 1048 Pls
1570 955 Pls
3297 971 Pls
5023 1048 Pls
6749 1160 Pls
1570 901 Pls
3297 938 Pls
5023 1010 Pls
6749 1067 Pls
1570 888 Pls
3297 907 Pls
5023 931 Pls
6749 994 Pls
1570 854 Pls
3297 873 Pls
5023 921 Pls
6749 944 Pls
1570 839 Pls
3297 852 Pls
5023 873 Pls
6749 893 Pls
1570 950 Pls
3297 1028 Pls
5023 1081 Pls
6749 1083 Pls
1570 1059 Pls
3297 1131 Pls
5023 1199 Pls
6749 1277 Pls
1570 1172 Pls
3297 1269 Pls
5023 1314 Pls
6749 1424 Pls
1570 1352 Pls
3297 1406 Pls
5023 1431 Pls
6749 1555 Pls
1570 1481 Pls
3297 1629 Pls
5023 1648 Pls
6749 1721 Pls
1570 1097 Pls
3297 1196 Pls
5023 1292 Pls
6749 1433 Pls
1570 1032 Pls
3297 1088 Pls
5023 1145 Pls
6749 1367 Pls
1570 996 Pls
3297 1021 Pls
5023 1165 Pls
6749 1209 Pls
1570 952 Pls
3297 988 Pls
5023 1047 Pls
6749 1207 Pls
1570 933 Pls
3297 982 Pls
5023 1023 Pls
6749 1051 Pls
1570 1429 Pls
3297 1547 Pls
5023 1847 Pls
6749 1975 Pls
1570 1985 Pls
3297 2135 Pls
5023 2331 Pls
6749 2438 Pls
1570 2190 Pls
3297 2835 Pls
5023 2944 Pls
6749 3143 Pls
1570 3101 Pls
3297 3414 Pls
5023 3698 Pls
6749 3934 Pls
1570 3953 Pls
3297 4217 Pls
5023 4536 Pls
6749 4683 Pls
% End plot #1
% Begin plot #2
8.000 UL
LT1
LCb setrgbcolor
5636 4551 M
[ [(Helvetica) 250.0 0.0 true true 0 (Average)]
] -83.3 MRshow
LT1
5786 4551 M
663 0 V
1570 1062 M
1727 47 V
1726 42 V
1726 42 V
% End plot #2
% Begin plot #3
stroke
4.000 UL
LT2
LCb setrgbcolor
5636 4301 M
[ [(Helvetica) 250.0 0.0 true true 0 (Min)]
] -83.3 MRshow
LT2
5786 4301 M
663 0 V
1570 800 M
1727 1 V
1726 0 V
1726 1 V
% End plot #3
% Begin plot #4
stroke
LT3
LCb setrgbcolor
5636 4051 M
[ [(Helvetica) 250.0 0.0 true true 0 (Max)]
] -83.3 MRshow
LT3
5786 4051 M
663 0 V
1570 4014 M
1727 368 V
1726 166 V
1726 176 V
% End plot #4
stroke
1.000 UL
LTb
1225 4739 N
0 -3939 V
5524 0 V
0 3939 V
-5524 0 V
Z stroke
1.000 UP
1.000 UL
LTb
stroke
grestore
end
showpage
%%Trailer
%%DocumentFonts: Helvetica
