%!PS-Adobe-2.0 EPSF-2.0
%%Title: r_alphabet_size_100-f1.eps
%%Creator: gnuplot 4.4 patchlevel 3
%%CreationDate: Fri Jun 14 19:20:12 2013
%%DocumentFonts: (atend)
%%BoundingBox: 50 50 410 302
%%EndComments
%%BeginProlog
/gnudict 256 dict def
gnudict begin
%
% The following true/false flags may be edited by hand if desired.
% The unit line width and grayscale image gamma correction may also be changed.
%
/Color true def
/Blacktext false def
/Solid false def
/Dashlength 1 def
/Landscape false def
/Level1 false def
/Rounded false def
/ClipToBoundingBox false def
/TransparentPatterns false def
/gnulinewidth 5.000 def
/userlinewidth gnulinewidth def
/Gamma 1.0 def
%
/vshift -83 def
/dl1 {
  10.0 Dashlength mul mul
  Rounded { currentlinewidth 0.75 mul sub dup 0 le { pop 0.01 } if } if
} def
/dl2 {
  10.0 Dashlength mul mul
  Rounded { currentlinewidth 0.75 mul add } if
} def
/hpt_ 31.5 def
/vpt_ 31.5 def
/hpt hpt_ def
/vpt vpt_ def
Level1 {} {
/SDict 10 dict def
systemdict /pdfmark known not {
  userdict /pdfmark systemdict /cleartomark get put
} if
SDict begin [
  /Title (r_alphabet_size_100-f1.eps)
  /Subject (gnuplot plot)
  /Creator (gnuplot 4.4 patchlevel 3)
  /Author (xjia)
%  /Producer (gnuplot)
%  /Keywords ()
  /CreationDate (Fri Jun 14 19:20:12 2013)
  /DOCINFO pdfmark
end
} ifelse
/doclip {
  ClipToBoundingBox {
    newpath 50 50 moveto 410 50 lineto 410 302 lineto 50 302 lineto closepath
    clip
  } if
} def
%
% Gnuplot Prolog Version 4.4 (August 2010)
%
%/SuppressPDFMark true def
%
/M {moveto} bind def
/L {lineto} bind def
/R {rmoveto} bind def
/V {rlineto} bind def
/N {newpath moveto} bind def
/Z {closepath} bind def
/C {setrgbcolor} bind def
/f {rlineto fill} bind def
/g {setgray} bind def
/Gshow {show} def   % May be redefined later in the file to support UTF-8
/vpt2 vpt 2 mul def
/hpt2 hpt 2 mul def
/Lshow {currentpoint stroke M 0 vshift R 
	Blacktext {gsave 0 setgray show grestore} {show} ifelse} def
/Rshow {currentpoint stroke M dup stringwidth pop neg vshift R
	Blacktext {gsave 0 setgray show grestore} {show} ifelse} def
/Cshow {currentpoint stroke M dup stringwidth pop -2 div vshift R 
	Blacktext {gsave 0 setgray show grestore} {show} ifelse} def
/UP {dup vpt_ mul /vpt exch def hpt_ mul /hpt exch def
  /hpt2 hpt 2 mul def /vpt2 vpt 2 mul def} def
/DL {Color {setrgbcolor Solid {pop []} if 0 setdash}
 {pop pop pop 0 setgray Solid {pop []} if 0 setdash} ifelse} def
/BL {stroke userlinewidth 2 mul setlinewidth
	Rounded {1 setlinejoin 1 setlinecap} if} def
/AL {stroke userlinewidth 2 div setlinewidth
	Rounded {1 setlinejoin 1 setlinecap} if} def
/UL {dup gnulinewidth mul /userlinewidth exch def
	dup 1 lt {pop 1} if 10 mul /udl exch def} def
/PL {stroke userlinewidth setlinewidth
	Rounded {1 setlinejoin 1 setlinecap} if} def
3.8 setmiterlimit
% Default Line colors
/LCw {1 1 1} def
/LCb {0 0 0} def
/LCa {0 0 0} def
/LC0 {1 0 0} def
/LC1 {0 1 0} def
/LC2 {0 0 1} def
/LC3 {1 0 1} def
/LC4 {0 1 1} def
/LC5 {1 1 0} def
/LC6 {0 0 0} def
/LC7 {1 0.3 0} def
/LC8 {0.5 0.5 0.5} def
% Default Line Types
/LTw {PL [] 1 setgray} def
/LTb {BL [] LCb DL} def
/LTa {AL [1 udl mul 2 udl mul] 0 setdash LCa setrgbcolor} def
/LT0 {PL [] LC0 DL} def
/LT1 {PL [4 dl1 2 dl2] LC1 DL} def
/LT2 {PL [2 dl1 3 dl2] LC2 DL} def
/LT3 {PL [1 dl1 1.5 dl2] LC3 DL} def
/LT4 {PL [6 dl1 2 dl2 1 dl1 2 dl2] LC4 DL} def
/LT5 {PL [3 dl1 3 dl2 1 dl1 3 dl2] LC5 DL} def
/LT6 {PL [2 dl1 2 dl2 2 dl1 6 dl2] LC6 DL} def
/LT7 {PL [1 dl1 2 dl2 6 dl1 2 dl2 1 dl1 2 dl2] LC7 DL} def
/LT8 {PL [2 dl1 2 dl2 2 dl1 2 dl2 2 dl1 2 dl2 2 dl1 4 dl2] LC8 DL} def
/Pnt {stroke [] 0 setdash gsave 1 setlinecap M 0 0 V stroke grestore} def
/Dia {stroke [] 0 setdash 2 copy vpt add M
  hpt neg vpt neg V hpt vpt neg V
  hpt vpt V hpt neg vpt V closepath stroke
  Pnt} def
/Pls {stroke [] 0 setdash vpt sub M 0 vpt2 V
  currentpoint stroke M
  hpt neg vpt neg R hpt2 0 V stroke
 } def
/Box {stroke [] 0 setdash 2 copy exch hpt sub exch vpt add M
  0 vpt2 neg V hpt2 0 V 0 vpt2 V
  hpt2 neg 0 V closepath stroke
  Pnt} def
/Crs {stroke [] 0 setdash exch hpt sub exch vpt add M
  hpt2 vpt2 neg V currentpoint stroke M
  hpt2 neg 0 R hpt2 vpt2 V stroke} def
/TriU {stroke [] 0 setdash 2 copy vpt 1.12 mul add M
  hpt neg vpt -1.62 mul V
  hpt 2 mul 0 V
  hpt neg vpt 1.62 mul V closepath stroke
  Pnt} def
/Star {2 copy Pls Crs} def
/BoxF {stroke [] 0 setdash exch hpt sub exch vpt add M
  0 vpt2 neg V hpt2 0 V 0 vpt2 V
  hpt2 neg 0 V closepath fill} def
/TriUF {stroke [] 0 setdash vpt 1.12 mul add M
  hpt neg vpt -1.62 mul V
  hpt 2 mul 0 V
  hpt neg vpt 1.62 mul V closepath fill} def
/TriD {stroke [] 0 setdash 2 copy vpt 1.12 mul sub M
  hpt neg vpt 1.62 mul V
  hpt 2 mul 0 V
  hpt neg vpt -1.62 mul V closepath stroke
  Pnt} def
/TriDF {stroke [] 0 setdash vpt 1.12 mul sub M
  hpt neg vpt 1.62 mul V
  hpt 2 mul 0 V
  hpt neg vpt -1.62 mul V closepath fill} def
/DiaF {stroke [] 0 setdash vpt add M
  hpt neg vpt neg V hpt vpt neg V
  hpt vpt V hpt neg vpt V closepath fill} def
/Pent {stroke [] 0 setdash 2 copy gsave
  translate 0 hpt M 4 {72 rotate 0 hpt L} repeat
  closepath stroke grestore Pnt} def
/PentF {stroke [] 0 setdash gsave
  translate 0 hpt M 4 {72 rotate 0 hpt L} repeat
  closepath fill grestore} def
/Circle {stroke [] 0 setdash 2 copy
  hpt 0 360 arc stroke Pnt} def
/CircleF {stroke [] 0 setdash hpt 0 360 arc fill} def
/C0 {BL [] 0 setdash 2 copy moveto vpt 90 450 arc} bind def
/C1 {BL [] 0 setdash 2 copy moveto
	2 copy vpt 0 90 arc closepath fill
	vpt 0 360 arc closepath} bind def
/C2 {BL [] 0 setdash 2 copy moveto
	2 copy vpt 90 180 arc closepath fill
	vpt 0 360 arc closepath} bind def
/C3 {BL [] 0 setdash 2 copy moveto
	2 copy vpt 0 180 arc closepath fill
	vpt 0 360 arc closepath} bind def
/C4 {BL [] 0 setdash 2 copy moveto
	2 copy vpt 180 270 arc closepath fill
	vpt 0 360 arc closepath} bind def
/C5 {BL [] 0 setdash 2 copy moveto
	2 copy vpt 0 90 arc
	2 copy moveto
	2 copy vpt 180 270 arc closepath fill
	vpt 0 360 arc} bind def
/C6 {BL [] 0 setdash 2 copy moveto
	2 copy vpt 90 270 arc closepath fill
	vpt 0 360 arc closepath} bind def
/C7 {BL [] 0 setdash 2 copy moveto
	2 copy vpt 0 270 arc closepath fill
	vpt 0 360 arc closepath} bind def
/C8 {BL [] 0 setdash 2 copy moveto
	2 copy vpt 270 360 arc closepath fill
	vpt 0 360 arc closepath} bind def
/C9 {BL [] 0 setdash 2 copy moveto
	2 copy vpt 270 450 arc closepath fill
	vpt 0 360 arc closepath} bind def
/C10 {BL [] 0 setdash 2 copy 2 copy moveto vpt 270 360 arc closepath fill
	2 copy moveto
	2 copy vpt 90 180 arc closepath fill
	vpt 0 360 arc closepath} bind def
/C11 {BL [] 0 setdash 2 copy moveto
	2 copy vpt 0 180 arc closepath fill
	2 copy moveto
	2 copy vpt 270 360 arc closepath fill
	vpt 0 360 arc closepath} bind def
/C12 {BL [] 0 setdash 2 copy moveto
	2 copy vpt 180 360 arc closepath fill
	vpt 0 360 arc closepath} bind def
/C13 {BL [] 0 setdash 2 copy moveto
	2 copy vpt 0 90 arc closepath fill
	2 copy moveto
	2 copy vpt 180 360 arc closepath fill
	vpt 0 360 arc closepath} bind def
/C14 {BL [] 0 setdash 2 copy moveto
	2 copy vpt 90 360 arc closepath fill
	vpt 0 360 arc} bind def
/C15 {BL [] 0 setdash 2 copy vpt 0 360 arc closepath fill
	vpt 0 360 arc closepath} bind def
/Rec {newpath 4 2 roll moveto 1 index 0 rlineto 0 exch rlineto
	neg 0 rlineto closepath} bind def
/Square {dup Rec} bind def
/Bsquare {vpt sub exch vpt sub exch vpt2 Square} bind def
/S0 {BL [] 0 setdash 2 copy moveto 0 vpt rlineto BL Bsquare} bind def
/S1 {BL [] 0 setdash 2 copy vpt Square fill Bsquare} bind def
/S2 {BL [] 0 setdash 2 copy exch vpt sub exch vpt Square fill Bsquare} bind def
/S3 {BL [] 0 setdash 2 copy exch vpt sub exch vpt2 vpt Rec fill Bsquare} bind def
/S4 {BL [] 0 setdash 2 copy exch vpt sub exch vpt sub vpt Square fill Bsquare} bind def
/S5 {BL [] 0 setdash 2 copy 2 copy vpt Square fill
	exch vpt sub exch vpt sub vpt Square fill Bsquare} bind def
/S6 {BL [] 0 setdash 2 copy exch vpt sub exch vpt sub vpt vpt2 Rec fill Bsquare} bind def
/S7 {BL [] 0 setdash 2 copy exch vpt sub exch vpt sub vpt vpt2 Rec fill
	2 copy vpt Square fill Bsquare} bind def
/S8 {BL [] 0 setdash 2 copy vpt sub vpt Square fill Bsquare} bind def
/S9 {BL [] 0 setdash 2 copy vpt sub vpt vpt2 Rec fill Bsquare} bind def
/S10 {BL [] 0 setdash 2 copy vpt sub vpt Square fill 2 copy exch vpt sub exch vpt Square fill
	Bsquare} bind def
/S11 {BL [] 0 setdash 2 copy vpt sub vpt Square fill 2 copy exch vpt sub exch vpt2 vpt Rec fill
	Bsquare} bind def
/S12 {BL [] 0 setdash 2 copy exch vpt sub exch vpt sub vpt2 vpt Rec fill Bsquare} bind def
/S13 {BL [] 0 setdash 2 copy exch vpt sub exch vpt sub vpt2 vpt Rec fill
	2 copy vpt Square fill Bsquare} bind def
/S14 {BL [] 0 setdash 2 copy exch vpt sub exch vpt sub vpt2 vpt Rec fill
	2 copy exch vpt sub exch vpt Square fill Bsquare} bind def
/S15 {BL [] 0 setdash 2 copy Bsquare fill Bsquare} bind def
/D0 {gsave translate 45 rotate 0 0 S0 stroke grestore} bind def
/D1 {gsave translate 45 rotate 0 0 S1 stroke grestore} bind def
/D2 {gsave translate 45 rotate 0 0 S2 stroke grestore} bind def
/D3 {gsave translate 45 rotate 0 0 S3 stroke grestore} bind def
/D4 {gsave translate 45 rotate 0 0 S4 stroke grestore} bind def
/D5 {gsave translate 45 rotate 0 0 S5 stroke grestore} bind def
/D6 {gsave translate 45 rotate 0 0 S6 stroke grestore} bind def
/D7 {gsave translate 45 rotate 0 0 S7 stroke grestore} bind def
/D8 {gsave translate 45 rotate 0 0 S8 stroke grestore} bind def
/D9 {gsave translate 45 rotate 0 0 S9 stroke grestore} bind def
/D10 {gsave translate 45 rotate 0 0 S10 stroke grestore} bind def
/D11 {gsave translate 45 rotate 0 0 S11 stroke grestore} bind def
/D12 {gsave translate 45 rotate 0 0 S12 stroke grestore} bind def
/D13 {gsave translate 45 rotate 0 0 S13 stroke grestore} bind def
/D14 {gsave translate 45 rotate 0 0 S14 stroke grestore} bind def
/D15 {gsave translate 45 rotate 0 0 S15 stroke grestore} bind def
/DiaE {stroke [] 0 setdash vpt add M
  hpt neg vpt neg V hpt vpt neg V
  hpt vpt V hpt neg vpt V closepath stroke} def
/BoxE {stroke [] 0 setdash exch hpt sub exch vpt add M
  0 vpt2 neg V hpt2 0 V 0 vpt2 V
  hpt2 neg 0 V closepath stroke} def
/TriUE {stroke [] 0 setdash vpt 1.12 mul add M
  hpt neg vpt -1.62 mul V
  hpt 2 mul 0 V
  hpt neg vpt 1.62 mul V closepath stroke} def
/TriDE {stroke [] 0 setdash vpt 1.12 mul sub M
  hpt neg vpt 1.62 mul V
  hpt 2 mul 0 V
  hpt neg vpt -1.62 mul V closepath stroke} def
/PentE {stroke [] 0 setdash gsave
  translate 0 hpt M 4 {72 rotate 0 hpt L} repeat
  closepath stroke grestore} def
/CircE {stroke [] 0 setdash 
  hpt 0 360 arc stroke} def
/Opaque {gsave closepath 1 setgray fill grestore 0 setgray closepath} def
/DiaW {stroke [] 0 setdash vpt add M
  hpt neg vpt neg V hpt vpt neg V
  hpt vpt V hpt neg vpt V Opaque stroke} def
/BoxW {stroke [] 0 setdash exch hpt sub exch vpt add M
  0 vpt2 neg V hpt2 0 V 0 vpt2 V
  hpt2 neg 0 V Opaque stroke} def
/TriUW {stroke [] 0 setdash vpt 1.12 mul add M
  hpt neg vpt -1.62 mul V
  hpt 2 mul 0 V
  hpt neg vpt 1.62 mul V Opaque stroke} def
/TriDW {stroke [] 0 setdash vpt 1.12 mul sub M
  hpt neg vpt 1.62 mul V
  hpt 2 mul 0 V
  hpt neg vpt -1.62 mul V Opaque stroke} def
/PentW {stroke [] 0 setdash gsave
  translate 0 hpt M 4 {72 rotate 0 hpt L} repeat
  Opaque stroke grestore} def
/CircW {stroke [] 0 setdash 
  hpt 0 360 arc Opaque stroke} def
/BoxFill {gsave Rec 1 setgray fill grestore} def
/Density {
  /Fillden exch def
  currentrgbcolor
  /ColB exch def /ColG exch def /ColR exch def
  /ColR ColR Fillden mul Fillden sub 1 add def
  /ColG ColG Fillden mul Fillden sub 1 add def
  /ColB ColB Fillden mul Fillden sub 1 add def
  ColR ColG ColB setrgbcolor} def
/BoxColFill {gsave Rec PolyFill} def
/PolyFill {gsave Density fill grestore grestore} def
/h {rlineto rlineto rlineto gsave closepath fill grestore} bind def
%
% PostScript Level 1 Pattern Fill routine for rectangles
% Usage: x y w h s a XX PatternFill
%	x,y = lower left corner of box to be filled
%	w,h = width and height of box
%	  a = angle in degrees between lines and x-axis
%	 XX = 0/1 for no/yes cross-hatch
%
/PatternFill {gsave /PFa [ 9 2 roll ] def
  PFa 0 get PFa 2 get 2 div add PFa 1 get PFa 3 get 2 div add translate
  PFa 2 get -2 div PFa 3 get -2 div PFa 2 get PFa 3 get Rec
  gsave 1 setgray fill grestore clip
  currentlinewidth 0.5 mul setlinewidth
  /PFs PFa 2 get dup mul PFa 3 get dup mul add sqrt def
  0 0 M PFa 5 get rotate PFs -2 div dup translate
  0 1 PFs PFa 4 get div 1 add floor cvi
	{PFa 4 get mul 0 M 0 PFs V} for
  0 PFa 6 get ne {
	0 1 PFs PFa 4 get div 1 add floor cvi
	{PFa 4 get mul 0 2 1 roll M PFs 0 V} for
 } if
  stroke grestore} def
%
/languagelevel where
 {pop languagelevel} {1} ifelse
 2 lt
	{/InterpretLevel1 true def}
	{/InterpretLevel1 Level1 def}
 ifelse
%
% PostScript level 2 pattern fill definitions
%
/Level2PatternFill {
/Tile8x8 {/PaintType 2 /PatternType 1 /TilingType 1 /BBox [0 0 8 8] /XStep 8 /YStep 8}
	bind def
/KeepColor {currentrgbcolor [/Pattern /DeviceRGB] setcolorspace} bind def
<< Tile8x8
 /PaintProc {0.5 setlinewidth pop 0 0 M 8 8 L 0 8 M 8 0 L stroke} 
>> matrix makepattern
/Pat1 exch def
<< Tile8x8
 /PaintProc {0.5 setlinewidth pop 0 0 M 8 8 L 0 8 M 8 0 L stroke
	0 4 M 4 8 L 8 4 L 4 0 L 0 4 L stroke}
>> matrix makepattern
/Pat2 exch def
<< Tile8x8
 /PaintProc {0.5 setlinewidth pop 0 0 M 0 8 L
	8 8 L 8 0 L 0 0 L fill}
>> matrix makepattern
/Pat3 exch def
<< Tile8x8
 /PaintProc {0.5 setlinewidth pop -4 8 M 8 -4 L
	0 12 M 12 0 L stroke}
>> matrix makepattern
/Pat4 exch def
<< Tile8x8
 /PaintProc {0.5 setlinewidth pop -4 0 M 8 12 L
	0 -4 M 12 8 L stroke}
>> matrix makepattern
/Pat5 exch def
<< Tile8x8
 /PaintProc {0.5 setlinewidth pop -2 8 M 4 -4 L
	0 12 M 8 -4 L 4 12 M 10 0 L stroke}
>> matrix makepattern
/Pat6 exch def
<< Tile8x8
 /PaintProc {0.5 setlinewidth pop -2 0 M 4 12 L
	0 -4 M 8 12 L 4 -4 M 10 8 L stroke}
>> matrix makepattern
/Pat7 exch def
<< Tile8x8
 /PaintProc {0.5 setlinewidth pop 8 -2 M -4 4 L
	12 0 M -4 8 L 12 4 M 0 10 L stroke}
>> matrix makepattern
/Pat8 exch def
<< Tile8x8
 /PaintProc {0.5 setlinewidth pop 0 -2 M 12 4 L
	-4 0 M 12 8 L -4 4 M 8 10 L stroke}
>> matrix makepattern
/Pat9 exch def
/Pattern1 {PatternBgnd KeepColor Pat1 setpattern} bind def
/Pattern2 {PatternBgnd KeepColor Pat2 setpattern} bind def
/Pattern3 {PatternBgnd KeepColor Pat3 setpattern} bind def
/Pattern4 {PatternBgnd KeepColor Landscape {Pat5} {Pat4} ifelse setpattern} bind def
/Pattern5 {PatternBgnd KeepColor Landscape {Pat4} {Pat5} ifelse setpattern} bind def
/Pattern6 {PatternBgnd KeepColor Landscape {Pat9} {Pat6} ifelse setpattern} bind def
/Pattern7 {PatternBgnd KeepColor Landscape {Pat8} {Pat7} ifelse setpattern} bind def
} def
%
%
%End of PostScript Level 2 code
%
/PatternBgnd {
  TransparentPatterns {} {gsave 1 setgray fill grestore} ifelse
} def
%
% Substitute for Level 2 pattern fill codes with
% grayscale if Level 2 support is not selected.
%
/Level1PatternFill {
/Pattern1 {0.250 Density} bind def
/Pattern2 {0.500 Density} bind def
/Pattern3 {0.750 Density} bind def
/Pattern4 {0.125 Density} bind def
/Pattern5 {0.375 Density} bind def
/Pattern6 {0.625 Density} bind def
/Pattern7 {0.875 Density} bind def
} def
%
% Now test for support of Level 2 code
%
Level1 {Level1PatternFill} {Level2PatternFill} ifelse
%
/Symbol-Oblique /Symbol findfont [1 0 .167 1 0 0] makefont
dup length dict begin {1 index /FID eq {pop pop} {def} ifelse} forall
currentdict end definefont pop
/MFshow {
   { dup 5 get 3 ge
     { 5 get 3 eq {gsave} {grestore} ifelse }
     {dup dup 0 get findfont exch 1 get scalefont setfont
     [ currentpoint ] exch dup 2 get 0 exch R dup 5 get 2 ne {dup dup 6
     get exch 4 get {Gshow} {stringwidth pop 0 R} ifelse }if dup 5 get 0 eq
     {dup 3 get {2 get neg 0 exch R pop} {pop aload pop M} ifelse} {dup 5
     get 1 eq {dup 2 get exch dup 3 get exch 6 get stringwidth pop -2 div
     dup 0 R} {dup 6 get stringwidth pop -2 div 0 R 6 get
     show 2 index {aload pop M neg 3 -1 roll neg R pop pop} {pop pop pop
     pop aload pop M} ifelse }ifelse }ifelse }
     ifelse }
   forall} def
/Gswidth {dup type /stringtype eq {stringwidth} {pop (n) stringwidth} ifelse} def
/MFwidth {0 exch { dup 5 get 3 ge { 5 get 3 eq { 0 } { pop } ifelse }
 {dup 3 get{dup dup 0 get findfont exch 1 get scalefont setfont
     6 get Gswidth pop add} {pop} ifelse} ifelse} forall} def
/MLshow { currentpoint stroke M
  0 exch R
  Blacktext {gsave 0 setgray MFshow grestore} {MFshow} ifelse } bind def
/MRshow { currentpoint stroke M
  exch dup MFwidth neg 3 -1 roll R
  Blacktext {gsave 0 setgray MFshow grestore} {MFshow} ifelse } bind def
/MCshow { currentpoint stroke M
  exch dup MFwidth -2 div 3 -1 roll R
  Blacktext {gsave 0 setgray MFshow grestore} {MFshow} ifelse } bind def
/XYsave    { [( ) 1 2 true false 3 ()] } bind def
/XYrestore { [( ) 1 2 true false 4 ()] } bind def
end
%%EndProlog
gnudict begin
gsave
doclip
50 50 translate
0.050 0.050 scale
0 setgray
newpath
(Helvetica) findfont 250 scalefont setfont
1.000 UL
LTb
1225 800 M
63 0 V
5461 0 R
-63 0 V
stroke
1075 800 M
[ [(Helvetica) 250.0 0.0 true true 0 ( 0.1)]
] -83.3 MRshow
1.000 UL
LTb
1225 1238 M
63 0 V
5461 0 R
-63 0 V
stroke
1075 1238 M
[ [(Helvetica) 250.0 0.0 true true 0 ( 0.2)]
] -83.3 MRshow
1.000 UL
LTb
1225 1675 M
63 0 V
5461 0 R
-63 0 V
stroke
1075 1675 M
[ [(Helvetica) 250.0 0.0 true true 0 ( 0.3)]
] -83.3 MRshow
1.000 UL
LTb
1225 2113 M
63 0 V
5461 0 R
-63 0 V
stroke
1075 2113 M
[ [(Helvetica) 250.0 0.0 true true 0 ( 0.4)]
] -83.3 MRshow
1.000 UL
LTb
1225 2551 M
63 0 V
5461 0 R
-63 0 V
stroke
1075 2551 M
[ [(Helvetica) 250.0 0.0 true true 0 ( 0.5)]
] -83.3 MRshow
1.000 UL
LTb
1225 2988 M
63 0 V
5461 0 R
-63 0 V
stroke
1075 2988 M
[ [(Helvetica) 250.0 0.0 true true 0 ( 0.6)]
] -83.3 MRshow
1.000 UL
LTb
1225 3426 M
63 0 V
5461 0 R
-63 0 V
stroke
1075 3426 M
[ [(Helvetica) 250.0 0.0 true true 0 ( 0.7)]
] -83.3 MRshow
1.000 UL
LTb
1225 3864 M
63 0 V
5461 0 R
-63 0 V
stroke
1075 3864 M
[ [(Helvetica) 250.0 0.0 true true 0 ( 0.8)]
] -83.3 MRshow
1.000 UL
LTb
1225 4301 M
63 0 V
5461 0 R
-63 0 V
stroke
1075 4301 M
[ [(Helvetica) 250.0 0.0 true true 0 ( 0.9)]
] -83.3 MRshow
1.000 UL
LTb
1225 4739 M
63 0 V
5461 0 R
-63 0 V
stroke
1075 4739 M
[ [(Helvetica) 250.0 0.0 true true 0 ( 1)]
] -83.3 MRshow
1.000 UL
LTb
1225 800 M
0 63 V
0 3876 R
0 -63 V
stroke
1225 550 M
[ [(Helvetica) 250.0 0.0 true true 0 ( 100)]
] -83.3 MCshow
1.000 UL
LTb
1916 800 M
0 63 V
0 3876 R
0 -63 V
stroke
1916 550 M
[ [(Helvetica) 250.0 0.0 true true 0 ( 200)]
] -83.3 MCshow
1.000 UL
LTb
2606 800 M
0 63 V
0 3876 R
0 -63 V
stroke
2606 550 M
[ [(Helvetica) 250.0 0.0 true true 0 ( 300)]
] -83.3 MCshow
1.000 UL
LTb
3297 800 M
0 63 V
0 3876 R
0 -63 V
stroke
3297 550 M
[ [(Helvetica) 250.0 0.0 true true 0 ( 400)]
] -83.3 MCshow
1.000 UL
LTb
3987 800 M
0 63 V
0 3876 R
0 -63 V
stroke
3987 550 M
[ [(Helvetica) 250.0 0.0 true true 0 ( 500)]
] -83.3 MCshow
1.000 UL
LTb
4678 800 M
0 63 V
0 3876 R
0 -63 V
stroke
4678 550 M
[ [(Helvetica) 250.0 0.0 true true 0 ( 600)]
] -83.3 MCshow
1.000 UL
LTb
5368 800 M
0 63 V
0 3876 R
0 -63 V
stroke
5368 550 M
[ [(Helvetica) 250.0 0.0 true true 0 ( 700)]
] -83.3 MCshow
1.000 UL
LTb
6059 800 M
0 63 V
0 3876 R
0 -63 V
stroke
6059 550 M
[ [(Helvetica) 250.0 0.0 true true 0 ( 800)]
] -83.3 MCshow
1.000 UL
LTb
6749 800 M
0 63 V
0 3876 R
0 -63 V
stroke
6749 550 M
[ [(Helvetica) 250.0 0.0 true true 0 ( 900)]
] -83.3 MCshow
1.000 UL
LTb
1.000 UL
LTb
1225 4739 N
0 -3939 V
5524 0 V
0 3939 V
-5524 0 V
Z stroke
LCb setrgbcolor
200 2769 M
currentpoint gsave translate -270 rotate 0 0 moveto
[ [(Helvetica) 250.0 0.0 true true 0 (F1)]
] -83.3 MCshow
grestore
LTb
LCb setrgbcolor
3987 175 M
[ [(Helvetica) 250.0 0.0 true true 0 (Alphabet Size)]
] -83.3 MCshow
LTb
1.000 UP
1.000 UL
LTb
% Begin plot #1
1.000 UP
1.000 UL
LT0
1225 4582 Pls
1225 4324 Pls
1225 4418 Pls
1225 4408 Pls
1225 4245 Pls
1225 4368 Pls
1225 4441 Pls
1225 4505 Pls
1225 4441 Pls
1225 4165 Pls
1225 4428 Pls
1225 4578 Pls
1225 4309 Pls
1225 4307 Pls
1225 4485 Pls
1225 4645 Pls
1225 4067 Pls
1225 4306 Pls
1225 4525 Pls
1225 4648 Pls
1225 3744 Pls
1225 4209 Pls
1225 4526 Pls
1225 4642 Pls
1225 4274 Pls
1225 4255 Pls
1225 4458 Pls
1225 4642 Pls
1225 3573 Pls
1225 4135 Pls
1225 4406 Pls
1225 4642 Pls
1225 3520 Pls
1225 4020 Pls
1225 4565 Pls
1225 4643 Pls
1225 3203 Pls
1225 4143 Pls
1225 4458 Pls
1225 4654 Pls
1225 4360 Pls
1225 3887 Pls
1225 3949 Pls
1225 3932 Pls
1225 4400 Pls
1225 4135 Pls
1225 3967 Pls
1225 3896 Pls
1225 4408 Pls
1225 4142 Pls
1225 3802 Pls
1225 3960 Pls
1225 4375 Pls
1225 4059 Pls
1225 4066 Pls
1225 4092 Pls
1225 4362 Pls
1225 4156 Pls
1225 4188 Pls
1225 4207 Pls
1225 3185 Pls
1225 3600 Pls
1225 3852 Pls
1225 3982 Pls
1225 2785 Pls
1225 3400 Pls
1225 3851 Pls
1225 4010 Pls
1225 2494 Pls
1225 3079 Pls
1225 3625 Pls
1225 3797 Pls
1225 2069 Pls
1225 2923 Pls
1225 3572 Pls
1225 3859 Pls
1225 2072 Pls
1225 3070 Pls
1225 3233 Pls
1225 3678 Pls
1225 4054 Pls
1225 3470 Pls
1225 3531 Pls
1225 3386 Pls
1225 4574 Pls
1225 3814 Pls
1225 3724 Pls
1225 3575 Pls
1225 4189 Pls
1225 3708 Pls
1225 3750 Pls
1225 3666 Pls
1225 4414 Pls
1225 3972 Pls
1225 3811 Pls
1225 3683 Pls
1225 4061 Pls
1225 4061 Pls
1225 3744 Pls
1225 3816 Pls
1225 2707 Pls
1225 2958 Pls
1225 3217 Pls
1225 3601 Pls
1225 2147 Pls
1225 2603 Pls
1225 3290 Pls
1225 3360 Pls
1225 1797 Pls
1225 2329 Pls
1225 2905 Pls
1225 3035 Pls
1225 1394 Pls
1225 2358 Pls
1225 2864 Pls
1225 3255 Pls
1225 1298 Pls
1225 2129 Pls
1225 2603 Pls
1225 2990 Pls
1225 3799 Pls
1225 3779 Pls
1225 3309 Pls
1225 3156 Pls
1225 4144 Pls
1225 3917 Pls
1225 3443 Pls
1225 3304 Pls
1225 4010 Pls
1225 3767 Pls
1225 3434 Pls
1225 3282 Pls
1225 4342 Pls
1225 3654 Pls
1225 3638 Pls
1225 3448 Pls
1225 4480 Pls
1225 3885 Pls
1225 3573 Pls
1225 3567 Pls
1225 2293 Pls
1225 2726 Pls
1225 2761 Pls
1225 3085 Pls
1225 1543 Pls
1225 2178 Pls
1225 2458 Pls
1225 2845 Pls
1225 1349 Pls
1225 2057 Pls
1225 2457 Pls
1225 2631 Pls
1225 1098 Pls
1225 1864 Pls
1225 2320 Pls
1225 2551 Pls
1225 1076 Pls
1225 1670 Pls
1225 2247 Pls
1225 2506 Pls
1225 3886 Pls
1225 3545 Pls
1225 3087 Pls
1225 2998 Pls
1225 4342 Pls
1225 3301 Pls
1225 3297 Pls
1225 2866 Pls
1225 4488 Pls
1225 3598 Pls
1225 3686 Pls
1225 3097 Pls
1225 4279 Pls
1225 3554 Pls
1225 3228 Pls
1225 3324 Pls
1225 4354 Pls
1225 3354 Pls
1225 3294 Pls
1225 3343 Pls
1225 1546 Pls
1225 2394 Pls
1225 2794 Pls
1225 2757 Pls
1225 1208 Pls
1225 1823 Pls
1225 2217 Pls
1225 2480 Pls
1225 982 Pls
1225 1542 Pls
1225 2134 Pls
1225 2295 Pls
1225 933 Pls
1225 1553 Pls
1225 1836 Pls
1225 2231 Pls
1225 898 Pls
1225 1387 Pls
1225 1718 Pls
1225 2098 Pls
1916 4585 Pls
1916 4362 Pls
1916 4465 Pls
1916 4616 Pls
1916 4459 Pls
1916 4465 Pls
1916 4436 Pls
1916 4534 Pls
1916 4404 Pls
1916 4418 Pls
1916 4502 Pls
1916 4611 Pls
1916 4437 Pls
1916 4314 Pls
1916 4486 Pls
1916 4630 Pls
1916 4260 Pls
1916 4532 Pls
1916 4629 Pls
1916 4673 Pls
1916 3997 Pls
1916 4223 Pls
1916 4414 Pls
1916 4654 Pls
1916 4207 Pls
1916 4355 Pls
1916 4603 Pls
1916 4628 Pls
1916 3447 Pls
1916 4331 Pls
1916 4565 Pls
1916 4643 Pls
1916 3676 Pls
1916 4329 Pls
1916 4525 Pls
1916 4679 Pls
1916 4052 Pls
1916 4205 Pls
1916 4474 Pls
1916 4692 Pls
1916 4472 Pls
1916 4463 Pls
1916 4333 Pls
1916 4359 Pls
1916 4571 Pls
1916 4268 Pls
1916 4377 Pls
1916 4205 Pls
1916 4592 Pls
1916 4267 Pls
1916 4280 Pls
1916 4203 Pls
1916 4592 Pls
1916 4220 Pls
1916 4331 Pls
1916 4284 Pls
1916 4180 Pls
1916 4183 Pls
1916 4426 Pls
1916 4424 Pls
1916 3757 Pls
1916 3897 Pls
1916 4353 Pls
1916 4317 Pls
1916 3508 Pls
1916 3940 Pls
1916 3969 Pls
1916 4210 Pls
1916 3226 Pls
1916 3515 Pls
1916 3931 Pls
1916 4112 Pls
1916 2477 Pls
1916 3575 Pls
1916 3993 Pls
1916 4114 Pls
1916 2650 Pls
1916 3727 Pls
1916 3639 Pls
1916 4203 Pls
1916 4426 Pls
1916 4130 Pls
1916 4144 Pls
1916 4025 Pls
1916 4366 Pls
1916 4258 Pls
1916 4001 Pls
1916 4131 Pls
1916 4343 Pls
1916 4035 Pls
1916 3983 Pls
1916 4142 Pls
1916 4311 Pls
1916 4233 Pls
1916 4070 Pls
1916 4149 Pls
1916 4284 Pls
1916 4117 Pls
1916 4019 Pls
1916 4035 Pls
1916 3214 Pls
1916 3612 Pls
1916 4132 Pls
1916 3900 Pls
1916 2454 Pls
1916 3319 Pls
1916 3627 Pls
1916 3780 Pls
1916 2428 Pls
1916 2914 Pls
1916 3517 Pls
1916 3705 Pls
1916 2095 Pls
1916 2790 Pls
1916 3611 Pls
1916 3481 Pls
1916 1892 Pls
1916 2561 Pls
1916 3261 Pls
1916 3429 Pls
1916 4264 Pls
1916 4026 Pls
1916 3790 Pls
1916 3703 Pls
1916 4470 Pls
1916 4143 Pls
1916 3877 Pls
1916 3872 Pls
1916 4402 Pls
1916 4122 Pls
1916 3918 Pls
1916 3951 Pls
1916 4335 Pls
1916 3821 Pls
1916 3970 Pls
1916 4026 Pls
1916 4232 Pls
1916 4182 Pls
1916 4171 Pls
1916 3966 Pls
1916 2803 Pls
1916 3184 Pls
1916 3453 Pls
1916 3713 Pls
1916 2248 Pls
1916 2712 Pls
1916 3200 Pls
1916 3580 Pls
1916 1706 Pls
1916 2475 Pls
1916 3035 Pls
1916 3160 Pls
1916 1484 Pls
1916 2402 Pls
1916 2718 Pls
1916 3071 Pls
1916 1399 Pls
1916 2065 Pls
1916 2677 Pls
1916 3063 Pls
1916 4573 Pls
1916 3914 Pls
1916 3440 Pls
1916 3659 Pls
1916 4588 Pls
1916 3950 Pls
1916 3768 Pls
1916 3608 Pls
1916 4684 Pls
1916 4118 Pls
1916 3745 Pls
1916 3656 Pls
1916 4521 Pls
1916 4009 Pls
1916 3873 Pls
1916 3655 Pls
1916 4386 Pls
1916 4014 Pls
1916 3889 Pls
1916 3861 Pls
1916 2291 Pls
1916 2789 Pls
1916 3145 Pls
1916 3334 Pls
1916 1763 Pls
1916 2364 Pls
1916 2702 Pls
1916 3058 Pls
1916 1267 Pls
1916 2059 Pls
1916 2498 Pls
1916 2877 Pls
1916 1174 Pls
1916 1864 Pls
1916 2365 Pls
1916 2802 Pls
1916 1132 Pls
1916 1712 Pls
1916 2156 Pls
1916 2558 Pls
2606 4445 Pls
2606 4506 Pls
2606 4450 Pls
2606 4618 Pls
2606 4542 Pls
2606 4664 Pls
2606 4570 Pls
2606 4644 Pls
2606 4475 Pls
2606 4414 Pls
2606 4549 Pls
2606 4622 Pls
2606 4548 Pls
2606 4462 Pls
2606 4614 Pls
2606 4644 Pls
2606 4343 Pls
2606 4409 Pls
2606 4653 Pls
2606 4617 Pls
2606 3825 Pls
2606 4226 Pls
2606 4389 Pls
2606 4642 Pls
2606 3982 Pls
2606 4392 Pls
2606 4501 Pls
2606 4545 Pls
2606 4209 Pls
2606 4615 Pls
2606 4480 Pls
2606 4691 Pls
2606 4005 Pls
2606 4461 Pls
2606 4538 Pls
2606 4630 Pls
2606 4001 Pls
2606 4449 Pls
2606 4611 Pls
2606 4655 Pls
2606 4635 Pls
2606 4304 Pls
2606 4307 Pls
2606 4333 Pls
2606 4609 Pls
2606 4359 Pls
2606 4340 Pls
2606 4391 Pls
2606 4395 Pls
2606 4432 Pls
2606 4521 Pls
2606 4388 Pls
2606 4522 Pls
2606 4306 Pls
2606 4401 Pls
2606 4371 Pls
2606 4475 Pls
2606 4368 Pls
2606 4539 Pls
2606 4437 Pls
2606 3587 Pls
2606 4308 Pls
2606 4241 Pls
2606 4487 Pls
2606 3614 Pls
2606 4153 Pls
2606 4410 Pls
2606 4289 Pls
2606 3385 Pls
2606 3817 Pls
2606 4288 Pls
2606 4291 Pls
2606 3411 Pls
2606 3880 Pls
2606 4123 Pls
2606 4290 Pls
2606 2949 Pls
2606 3564 Pls
2606 4002 Pls
2606 4136 Pls
2606 4090 Pls
2606 4424 Pls
2606 4209 Pls
2606 4134 Pls
2606 4323 Pls
2606 4468 Pls
2606 4203 Pls
2606 4189 Pls
2606 4293 Pls
2606 4152 Pls
2606 4065 Pls
2606 4321 Pls
2606 4578 Pls
2606 4361 Pls
2606 4367 Pls
2606 4226 Pls
2606 4527 Pls
2606 4357 Pls
2606 4378 Pls
2606 4328 Pls
2606 4012 Pls
2606 3923 Pls
2606 4235 Pls
2606 4090 Pls
2606 2711 Pls
2606 3868 Pls
2606 4106 Pls
2606 4087 Pls
2606 2490 Pls
2606 3560 Pls
2606 3747 Pls
2606 3981 Pls
2606 2763 Pls
2606 3357 Pls
2606 3648 Pls
2606 3765 Pls
2606 2485 Pls
2606 3178 Pls
2606 3453 Pls
2606 3593 Pls
2606 4633 Pls
2606 4195 Pls
2606 3980 Pls
2606 4086 Pls
2606 4567 Pls
2606 4151 Pls
2606 4035 Pls
2606 3988 Pls
2606 4511 Pls
2606 4208 Pls
2606 4027 Pls
2606 4053 Pls
2606 4553 Pls
2606 4385 Pls
2606 4098 Pls
2606 4099 Pls
2606 4398 Pls
2606 4360 Pls
2606 4242 Pls
2606 4106 Pls
2606 3082 Pls
2606 3673 Pls
2606 3893 Pls
2606 3762 Pls
2606 2496 Pls
2606 2951 Pls
2606 3411 Pls
2606 3662 Pls
2606 2142 Pls
2606 2783 Pls
2606 3533 Pls
2606 3765 Pls
2606 1950 Pls
2606 2874 Pls
2606 3136 Pls
2606 3333 Pls
2606 1642 Pls
2606 2590 Pls
2606 3075 Pls
2606 3384 Pls
2606 4492 Pls
2606 3875 Pls
2606 4002 Pls
2606 3877 Pls
2606 4441 Pls
2606 4153 Pls
2606 3989 Pls
2606 3849 Pls
2606 4536 Pls
2606 4115 Pls
2606 4096 Pls
2606 3802 Pls
2606 4357 Pls
2606 4236 Pls
2606 4046 Pls
2606 4148 Pls
2606 4374 Pls
2606 4256 Pls
2606 4193 Pls
2606 3984 Pls
2606 2767 Pls
2606 3233 Pls
2606 3467 Pls
2606 3645 Pls
2606 1909 Pls
2606 2803 Pls
2606 3077 Pls
2606 3371 Pls
2606 1466 Pls
2606 2424 Pls
2606 2846 Pls
2606 3272 Pls
2606 1413 Pls
2606 2217 Pls
2606 2622 Pls
2606 2950 Pls
2606 1367 Pls
2606 1948 Pls
2606 2621 Pls
2606 2783 Pls
3297 4540 Pls
3297 4462 Pls
3297 4637 Pls
3297 4621 Pls
3297 4498 Pls
3297 4579 Pls
3297 4539 Pls
3297 4590 Pls
3297 4481 Pls
3297 4292 Pls
3297 4606 Pls
3297 4604 Pls
3297 4464 Pls
3297 4430 Pls
3297 4596 Pls
3297 4640 Pls
3297 4379 Pls
3297 4567 Pls
3297 4529 Pls
3297 4556 Pls
3297 4105 Pls
3297 4323 Pls
3297 4411 Pls
3297 4715 Pls
3297 3847 Pls
3297 4450 Pls
3297 4496 Pls
3297 4642 Pls
3297 4085 Pls
3297 4441 Pls
3297 4563 Pls
3297 4690 Pls
3297 4300 Pls
3297 4482 Pls
3297 4404 Pls
3297 4679 Pls
3297 3916 Pls
3297 4343 Pls
3297 4530 Pls
3297 4618 Pls
3297 4673 Pls
3297 4450 Pls
3297 4475 Pls
3297 4440 Pls
3297 4464 Pls
3297 4381 Pls
3297 4504 Pls
3297 4404 Pls
3297 4430 Pls
3297 4435 Pls
3297 4408 Pls
3297 4310 Pls
3297 4666 Pls
3297 4559 Pls
3297 4504 Pls
3297 4497 Pls
3297 4501 Pls
3297 4353 Pls
3297 4514 Pls
3297 4449 Pls
3297 4039 Pls
3297 4121 Pls
3297 4226 Pls
3297 4507 Pls
3297 3493 Pls
3297 4127 Pls
3297 4388 Pls
3297 4434 Pls
3297 3838 Pls
3297 4032 Pls
3297 4201 Pls
3297 4374 Pls
3297 3683 Pls
3297 3825 Pls
3297 4069 Pls
3297 4346 Pls
3297 3005 Pls
3297 3798 Pls
3297 4209 Pls
3297 4260 Pls
3297 4461 Pls
3297 4203 Pls
3297 4297 Pls
3297 4228 Pls
3297 4279 Pls
3297 4267 Pls
3297 4380 Pls
3297 4304 Pls
3297 4486 Pls
3297 4429 Pls
3297 4399 Pls
3297 4371 Pls
3297 4626 Pls
3297 4390 Pls
3297 4340 Pls
3297 4360 Pls
3297 4496 Pls
3297 4671 Pls
3297 4291 Pls
3297 4409 Pls
3297 3686 Pls
3297 4070 Pls
3297 4113 Pls
3297 4207 Pls
3297 3393 Pls
3297 3621 Pls
3297 4102 Pls
3297 4166 Pls
3297 2775 Pls
3297 3697 Pls
3297 3748 Pls
3297 4031 Pls
3297 2864 Pls
3297 3536 Pls
3297 3869 Pls
3297 4098 Pls
3297 2503 Pls
3297 3222 Pls
3297 3791 Pls
3297 3986 Pls
3297 4549 Pls
3297 4198 Pls
3297 4166 Pls
3297 4301 Pls
3297 4593 Pls
3297 4507 Pls
3297 4275 Pls
3297 4075 Pls
3297 4549 Pls
3297 4262 Pls
3297 4303 Pls
3297 4173 Pls
3297 4355 Pls
3297 4289 Pls
3297 4082 Pls
3297 4114 Pls
3297 4109 Pls
3297 4367 Pls
3297 4358 Pls
3297 4346 Pls
3297 3332 Pls
3297 3757 Pls
3297 3911 Pls
3297 3991 Pls
3297 2913 Pls
3297 3428 Pls
3297 3732 Pls
3297 3908 Pls
3297 2433 Pls
3297 3139 Pls
3297 3604 Pls
3297 3493 Pls
3297 2269 Pls
3297 3094 Pls
3297 3304 Pls
3297 3825 Pls
3297 1905 Pls
3297 2634 Pls
3297 3174 Pls
3297 3560 Pls
3297 4651 Pls
3297 4363 Pls
3297 4177 Pls
3297 3967 Pls
3297 4419 Pls
3297 4217 Pls
3297 3865 Pls
3297 4227 Pls
3297 4487 Pls
3297 4421 Pls
3297 4121 Pls
3297 4068 Pls
3297 4676 Pls
3297 4305 Pls
3297 4260 Pls
3297 4204 Pls
3297 4455 Pls
3297 4184 Pls
3297 4204 Pls
3297 4173 Pls
3297 2905 Pls
3297 3499 Pls
3297 3612 Pls
3297 3707 Pls
3297 2295 Pls
3297 3278 Pls
3297 3458 Pls
3297 3588 Pls
3297 1866 Pls
3297 2698 Pls
3297 3254 Pls
3297 3254 Pls
3297 1836 Pls
3297 2607 Pls
3297 3105 Pls
3297 3027 Pls
3297 1665 Pls
3297 2370 Pls
3297 2759 Pls
3297 3033 Pls
3987 4491 Pls
3987 4548 Pls
3987 4573 Pls
3987 4637 Pls
3987 4505 Pls
3987 4530 Pls
3987 4509 Pls
3987 4608 Pls
3987 4553 Pls
3987 4527 Pls
3987 4462 Pls
3987 4648 Pls
3987 4273 Pls
3987 4534 Pls
3987 4628 Pls
3987 4708 Pls
3987 4034 Pls
3987 4549 Pls
3987 4649 Pls
3987 4605 Pls
3987 4260 Pls
3987 4397 Pls
3987 4576 Pls
3987 4667 Pls
3987 4109 Pls
3987 4432 Pls
3987 4609 Pls
3987 4618 Pls
3987 3824 Pls
3987 4500 Pls
3987 4542 Pls
3987 4629 Pls
3987 4219 Pls
3987 4294 Pls
3987 4607 Pls
3987 4619 Pls
3987 4154 Pls
3987 4372 Pls
3987 4541 Pls
3987 4680 Pls
3987 4586 Pls
3987 4270 Pls
3987 4513 Pls
3987 4486 Pls
3987 4613 Pls
3987 4404 Pls
3987 4388 Pls
3987 4438 Pls
3987 4583 Pls
3987 4511 Pls
3987 4426 Pls
3987 4488 Pls
3987 4442 Pls
3987 4428 Pls
3987 4399 Pls
3987 4548 Pls
3987 4410 Pls
3987 4492 Pls
3987 4417 Pls
3987 4477 Pls
3987 3943 Pls
3987 4171 Pls
3987 4466 Pls
3987 4427 Pls
3987 4005 Pls
3987 4210 Pls
3987 4404 Pls
3987 4571 Pls
3987 3541 Pls
3987 3902 Pls
3987 4348 Pls
3987 4531 Pls
3987 3577 Pls
3987 4308 Pls
3987 4472 Pls
3987 4408 Pls
3987 3601 Pls
3987 4212 Pls
3987 4287 Pls
3987 4411 Pls
3987 4615 Pls
3987 4489 Pls
3987 4243 Pls
3987 4264 Pls
3987 4594 Pls
3987 4385 Pls
3987 4310 Pls
3987 4439 Pls
3987 4539 Pls
3987 4439 Pls
3987 4336 Pls
3987 4391 Pls
3987 4504 Pls
3987 4553 Pls
3987 4208 Pls
3987 4487 Pls
3987 4441 Pls
3987 4275 Pls
3987 4465 Pls
3987 4426 Pls
3987 3632 Pls
3987 3970 Pls
3987 4258 Pls
3987 4369 Pls
3987 3602 Pls
3987 3975 Pls
3987 4080 Pls
3987 4247 Pls
3987 3040 Pls
3987 3861 Pls
3987 3892 Pls
3987 3976 Pls
3987 2654 Pls
3987 3540 Pls
3987 3926 Pls
3987 3965 Pls
3987 2530 Pls
3987 3600 Pls
3987 3771 Pls
3987 4066 Pls
3987 4519 Pls
3987 4437 Pls
3987 4159 Pls
3987 4194 Pls
3987 4526 Pls
3987 4511 Pls
3987 4232 Pls
3987 4252 Pls
3987 4588 Pls
3987 4144 Pls
3987 4240 Pls
3987 4337 Pls
3987 4672 Pls
3987 4326 Pls
3987 4396 Pls
3987 4356 Pls
3987 4382 Pls
3987 4352 Pls
3987 4315 Pls
3987 4476 Pls
3987 3549 Pls
3987 4007 Pls
3987 3790 Pls
3987 4005 Pls
3987 2966 Pls
3987 3637 Pls
3987 3742 Pls
3987 3944 Pls
3987 2820 Pls
3987 3360 Pls
3987 3715 Pls
3987 3963 Pls
3987 2097 Pls
3987 2786 Pls
3987 3783 Pls
3987 3924 Pls
3987 2317 Pls
3987 2873 Pls
3987 3454 Pls
3987 3711 Pls
3987 4617 Pls
3987 4119 Pls
3987 4202 Pls
3987 4146 Pls
3987 4630 Pls
3987 4301 Pls
3987 4134 Pls
3987 4145 Pls
3987 4673 Pls
3987 4431 Pls
3987 4309 Pls
3987 4277 Pls
3987 4357 Pls
3987 4393 Pls
3987 4407 Pls
3987 4153 Pls
3987 4312 Pls
3987 4277 Pls
3987 4223 Pls
3987 4145 Pls
3987 3008 Pls
3987 3812 Pls
3987 3868 Pls
3987 3945 Pls
3987 2707 Pls
3987 3078 Pls
3987 3669 Pls
3987 3618 Pls
3987 2192 Pls
3987 3024 Pls
3987 3254 Pls
3987 3657 Pls
3987 1980 Pls
3987 2845 Pls
3987 3232 Pls
3987 3485 Pls
3987 1579 Pls
3987 2713 Pls
3987 3030 Pls
3987 3209 Pls
4678 4608 Pls
4678 4516 Pls
4678 4600 Pls
4678 4665 Pls
4678 4446 Pls
4678 4554 Pls
4678 4570 Pls
4678 4646 Pls
4678 4514 Pls
4678 4553 Pls
4678 4584 Pls
4678 4602 Pls
4678 4139 Pls
4678 4634 Pls
4678 4522 Pls
4678 4622 Pls
4678 4373 Pls
4678 4617 Pls
4678 4539 Pls
4678 4673 Pls
4678 4213 Pls
4678 4334 Pls
4678 4589 Pls
4678 4666 Pls
4678 3976 Pls
4678 4581 Pls
4678 4544 Pls
4678 4630 Pls
4678 3990 Pls
4678 4468 Pls
4678 4609 Pls
4678 4642 Pls
4678 4205 Pls
4678 4338 Pls
4678 4449 Pls
4678 4656 Pls
4678 4172 Pls
4678 4408 Pls
4678 4452 Pls
4678 4592 Pls
4678 4567 Pls
4678 4551 Pls
4678 4510 Pls
4678 4574 Pls
4678 4499 Pls
4678 4618 Pls
4678 4455 Pls
4678 4529 Pls
4678 4515 Pls
4678 4489 Pls
4678 4564 Pls
4678 4536 Pls
4678 4539 Pls
4678 4557 Pls
4678 4455 Pls
4678 4564 Pls
4678 4338 Pls
4678 4566 Pls
4678 4447 Pls
4678 4613 Pls
4678 3918 Pls
4678 4495 Pls
4678 4356 Pls
4678 4488 Pls
4678 4676 Pls
4678 4205 Pls
4678 4344 Pls
4678 4402 Pls
4678 3499 Pls
4678 4265 Pls
4678 4402 Pls
4678 4402 Pls
4678 3552 Pls
4678 4187 Pls
4678 4365 Pls
4678 4399 Pls
4678 3446 Pls
4678 4253 Pls
4678 4311 Pls
4678 4475 Pls
4678 4633 Pls
4678 4531 Pls
4678 4407 Pls
4678 4449 Pls
4678 4436 Pls
4678 4415 Pls
4678 4313 Pls
4678 4541 Pls
4678 4673 Pls
4678 4603 Pls
4678 4357 Pls
4678 4482 Pls
4678 4512 Pls
4678 4507 Pls
4678 4424 Pls
4678 4458 Pls
4678 4413 Pls
4678 4592 Pls
4678 4445 Pls
4678 4488 Pls
4678 3930 Pls
4678 4295 Pls
4678 4376 Pls
4678 4169 Pls
4678 3905 Pls
4678 3941 Pls
4678 4260 Pls
4678 4307 Pls
4678 3143 Pls
4678 3835 Pls
4678 4194 Pls
4678 4378 Pls
4678 2770 Pls
4678 3937 Pls
4678 4408 Pls
4678 4089 Pls
4678 3024 Pls
4678 3807 Pls
4678 4019 Pls
4678 4162 Pls
4678 4680 Pls
4678 4431 Pls
4678 4434 Pls
4678 4263 Pls
4678 4684 Pls
4678 4478 Pls
4678 4323 Pls
4678 4299 Pls
4678 4657 Pls
4678 4436 Pls
4678 4430 Pls
4678 4412 Pls
4678 4302 Pls
4678 4261 Pls
4678 4373 Pls
4678 4316 Pls
4678 4396 Pls
4678 4129 Pls
4678 4393 Pls
4678 4336 Pls
4678 3779 Pls
4678 4143 Pls
4678 4067 Pls
4678 4331 Pls
4678 3280 Pls
4678 3674 Pls
4678 4031 Pls
4678 4116 Pls
4678 2960 Pls
4678 3519 Pls
4678 3847 Pls
4678 3845 Pls
4678 2582 Pls
4678 3168 Pls
4678 3669 Pls
4678 3746 Pls
4678 2250 Pls
4678 3203 Pls
4678 3412 Pls
4678 3840 Pls
4678 4626 Pls
4678 4459 Pls
4678 4219 Pls
4678 4172 Pls
4678 4617 Pls
4678 4369 Pls
4678 4154 Pls
4678 4251 Pls
4678 4661 Pls
4678 4317 Pls
4678 4374 Pls
4678 4167 Pls
4678 4508 Pls
4678 4249 Pls
4678 4274 Pls
4678 4189 Pls
4678 4455 Pls
4678 4363 Pls
4678 4444 Pls
4678 4348 Pls
4678 3431 Pls
4678 3808 Pls
4678 3898 Pls
4678 4036 Pls
4678 3129 Pls
4678 3309 Pls
4678 3860 Pls
4678 3913 Pls
4678 2589 Pls
4678 2954 Pls
4678 3482 Pls
4678 3681 Pls
4678 2014 Pls
4678 2855 Pls
4678 3274 Pls
4678 3608 Pls
4678 1697 Pls
4678 2795 Pls
4678 3015 Pls
4678 3460 Pls
5368 4603 Pls
5368 4632 Pls
5368 4505 Pls
5368 4655 Pls
5368 4550 Pls
5368 4513 Pls
5368 4605 Pls
5368 4699 Pls
5368 4327 Pls
5368 4521 Pls
5368 4654 Pls
5368 4686 Pls
5368 4617 Pls
5368 4418 Pls
5368 4619 Pls
5368 4621 Pls
5368 4366 Pls
5368 4424 Pls
5368 4593 Pls
5368 4662 Pls
5368 4037 Pls
5368 4475 Pls
5368 4559 Pls
5368 4654 Pls
5368 4489 Pls
5368 4358 Pls
5368 4508 Pls
5368 4667 Pls
5368 4343 Pls
5368 4513 Pls
5368 4606 Pls
5368 4643 Pls
5368 4155 Pls
5368 4470 Pls
5368 4658 Pls
5368 4556 Pls
5368 4247 Pls
5368 4664 Pls
5368 4527 Pls
5368 4642 Pls
5368 4705 Pls
5368 4577 Pls
5368 4523 Pls
5368 4545 Pls
5368 4382 Pls
5368 4556 Pls
5368 4583 Pls
5368 4567 Pls
5368 4378 Pls
5368 4466 Pls
5368 4684 Pls
5368 4523 Pls
5368 4699 Pls
5368 4413 Pls
5368 4485 Pls
5368 4609 Pls
5368 4415 Pls
5368 4489 Pls
5368 4446 Pls
5368 4511 Pls
5368 4255 Pls
5368 4347 Pls
5368 4473 Pls
5368 4543 Pls
5368 4087 Pls
5368 4068 Pls
5368 4534 Pls
5368 4449 Pls
5368 3658 Pls
5368 4274 Pls
5368 4498 Pls
5368 4533 Pls
5368 3726 Pls
5368 4315 Pls
5368 4368 Pls
5368 4508 Pls
5368 3776 Pls
5368 4213 Pls
5368 4309 Pls
5368 4487 Pls
5368 4539 Pls
5368 4512 Pls
5368 4445 Pls
5368 4497 Pls
5368 4666 Pls
5368 4484 Pls
5368 4464 Pls
5368 4451 Pls
5368 4563 Pls
5368 4454 Pls
5368 4434 Pls
5368 4472 Pls
5368 4576 Pls
5368 4589 Pls
5368 4529 Pls
5368 4521 Pls
5368 4539 Pls
5368 4340 Pls
5368 4470 Pls
5368 4464 Pls
5368 3473 Pls
5368 4298 Pls
5368 4382 Pls
5368 4416 Pls
5368 3818 Pls
5368 4179 Pls
5368 4138 Pls
5368 4448 Pls
5368 3553 Pls
5368 3971 Pls
5368 4120 Pls
5368 4333 Pls
5368 3261 Pls
5368 3843 Pls
5368 4208 Pls
5368 4166 Pls
5368 3205 Pls
5368 3593 Pls
5368 4023 Pls
5368 4275 Pls
5368 4455 Pls
5368 4313 Pls
5368 4487 Pls
5368 4341 Pls
5368 4579 Pls
5368 4396 Pls
5368 4357 Pls
5368 4315 Pls
5368 4530 Pls
5368 4408 Pls
5368 4420 Pls
5368 4254 Pls
5368 4533 Pls
5368 4545 Pls
5368 4333 Pls
5368 4289 Pls
5368 4453 Pls
5368 4472 Pls
5368 4544 Pls
5368 4396 Pls
5368 4049 Pls
5368 3888 Pls
5368 4271 Pls
5368 4349 Pls
5368 3141 Pls
5368 3877 Pls
5368 3852 Pls
5368 4116 Pls
5368 3080 Pls
5368 3893 Pls
5368 3613 Pls
5368 4036 Pls
5368 2628 Pls
5368 3388 Pls
5368 3801 Pls
5368 3930 Pls
5368 2258 Pls
5368 3111 Pls
5368 3483 Pls
5368 3736 Pls
5368 4618 Pls
5368 4516 Pls
5368 4188 Pls
5368 4225 Pls
5368 4413 Pls
5368 4381 Pls
5368 4274 Pls
5368 4308 Pls
5368 4276 Pls
5368 4369 Pls
5368 4094 Pls
5368 4259 Pls
5368 4643 Pls
5368 4253 Pls
5368 4371 Pls
5368 4257 Pls
5368 4469 Pls
5368 4445 Pls
5368 4421 Pls
5368 4491 Pls
5368 3282 Pls
5368 3895 Pls
5368 3960 Pls
5368 4130 Pls
5368 3214 Pls
5368 3614 Pls
5368 3759 Pls
5368 3906 Pls
5368 2682 Pls
5368 3102 Pls
5368 3459 Pls
5368 3946 Pls
5368 2409 Pls
5368 2982 Pls
5368 3514 Pls
5368 3728 Pls
5368 2113 Pls
5368 2965 Pls
5368 3380 Pls
5368 3452 Pls
6059 4661 Pls
6059 4549 Pls
6059 4581 Pls
6059 4564 Pls
6059 4573 Pls
6059 4648 Pls
6059 4671 Pls
6059 4657 Pls
6059 4485 Pls
6059 4684 Pls
6059 4615 Pls
6059 4569 Pls
6059 4642 Pls
6059 4500 Pls
6059 4671 Pls
6059 4662 Pls
6059 4603 Pls
6059 4517 Pls
6059 4647 Pls
6059 4638 Pls
6059 4359 Pls
6059 4509 Pls
6059 4608 Pls
6059 4667 Pls
6059 4440 Pls
6059 4581 Pls
6059 4674 Pls
6059 4691 Pls
6059 4213 Pls
6059 4615 Pls
6059 4494 Pls
6059 4643 Pls
6059 4393 Pls
6059 4610 Pls
6059 4580 Pls
6059 4605 Pls
6059 4251 Pls
6059 4381 Pls
6059 4576 Pls
6059 4567 Pls
6059 4661 Pls
6059 4405 Pls
6059 4538 Pls
6059 4497 Pls
6059 4347 Pls
6059 4504 Pls
6059 4448 Pls
6059 4569 Pls
6059 4621 Pls
6059 4535 Pls
6059 4523 Pls
6059 4526 Pls
6059 4469 Pls
6059 4490 Pls
6059 4464 Pls
6059 4615 Pls
6059 4538 Pls
6059 4463 Pls
6059 4440 Pls
6059 4576 Pls
6059 4260 Pls
6059 4373 Pls
6059 4488 Pls
6059 4554 Pls
6059 4271 Pls
6059 4384 Pls
6059 4353 Pls
6059 4456 Pls
6059 3988 Pls
6059 4344 Pls
6059 4325 Pls
6059 4499 Pls
6059 3898 Pls
6059 4291 Pls
6059 4388 Pls
6059 4581 Pls
6059 3529 Pls
6059 4366 Pls
6059 4355 Pls
6059 4482 Pls
6059 4680 Pls
6059 4419 Pls
6059 4448 Pls
6059 4354 Pls
6059 4409 Pls
6059 4484 Pls
6059 4466 Pls
6059 4465 Pls
6059 4637 Pls
6059 4456 Pls
6059 4388 Pls
6059 4530 Pls
6059 4398 Pls
6059 4399 Pls
6059 4594 Pls
6059 4524 Pls
6059 4464 Pls
6059 4469 Pls
6059 4533 Pls
6059 4419 Pls
6059 4381 Pls
6059 4295 Pls
6059 4326 Pls
6059 4518 Pls
6059 3737 Pls
6059 4324 Pls
6059 4213 Pls
6059 4479 Pls
6059 3714 Pls
6059 3980 Pls
6059 4145 Pls
6059 4388 Pls
6059 3512 Pls
6059 4087 Pls
6059 4026 Pls
6059 4352 Pls
6059 3634 Pls
6059 3673 Pls
6059 4141 Pls
6059 4353 Pls
6059 4603 Pls
6059 4454 Pls
6059 4279 Pls
6059 4398 Pls
6059 4659 Pls
6059 4418 Pls
6059 4342 Pls
6059 4309 Pls
6059 4603 Pls
6059 4426 Pls
6059 4452 Pls
6059 4387 Pls
6059 4540 Pls
6059 4472 Pls
6059 4467 Pls
6059 4400 Pls
6059 4268 Pls
6059 4566 Pls
6059 4528 Pls
6059 4579 Pls
6059 4421 Pls
6059 4211 Pls
6059 4308 Pls
6059 4318 Pls
6059 3650 Pls
6059 3844 Pls
6059 4207 Pls
6059 4253 Pls
6059 3226 Pls
6059 3779 Pls
6059 4032 Pls
6059 4098 Pls
6059 2515 Pls
6059 3581 Pls
6059 3680 Pls
6059 3903 Pls
6059 2538 Pls
6059 3688 Pls
6059 3711 Pls
6059 4002 Pls
6059 4582 Pls
6059 4455 Pls
6059 4249 Pls
6059 4240 Pls
6059 4616 Pls
6059 4486 Pls
6059 4437 Pls
6059 4291 Pls
6059 4507 Pls
6059 4519 Pls
6059 4422 Pls
6059 4304 Pls
6059 4647 Pls
6059 4460 Pls
6059 4363 Pls
6059 4370 Pls
6059 4456 Pls
6059 4439 Pls
6059 4458 Pls
6059 4406 Pls
6059 3691 Pls
6059 4133 Pls
6059 4249 Pls
6059 4053 Pls
6059 3367 Pls
6059 3378 Pls
6059 3850 Pls
6059 4058 Pls
6059 2775 Pls
6059 3480 Pls
6059 3585 Pls
6059 3683 Pls
6059 2307 Pls
6059 3145 Pls
6059 3670 Pls
6059 3799 Pls
6059 1783 Pls
6059 2960 Pls
6059 3163 Pls
6059 3639 Pls
6749 4666 Pls
6749 4578 Pls
6749 4654 Pls
6749 4618 Pls
6749 4406 Pls
6749 4653 Pls
6749 4558 Pls
6749 4662 Pls
6749 4417 Pls
6749 4567 Pls
6749 4617 Pls
6749 4688 Pls
6749 4196 Pls
6749 4572 Pls
6749 4564 Pls
6749 4633 Pls
6749 4463 Pls
6749 4530 Pls
6749 4574 Pls
6749 4662 Pls
6749 4381 Pls
6749 4615 Pls
6749 4625 Pls
6749 4642 Pls
6749 4289 Pls
6749 4500 Pls
6749 4643 Pls
6749 4630 Pls
6749 4354 Pls
6749 4664 Pls
6749 4566 Pls
6749 4656 Pls
6749 4343 Pls
6749 4578 Pls
6749 4589 Pls
6749 4667 Pls
6749 4360 Pls
6749 4377 Pls
6749 4627 Pls
6749 4606 Pls
6749 4549 Pls
6749 4601 Pls
6749 4571 Pls
6749 4604 Pls
6749 4651 Pls
6749 4365 Pls
6749 4491 Pls
6749 4547 Pls
6749 4638 Pls
6749 4491 Pls
6749 4605 Pls
6749 4554 Pls
6749 4676 Pls
6749 4469 Pls
6749 4575 Pls
6749 4622 Pls
6749 4354 Pls
6749 4472 Pls
6749 4544 Pls
6749 4485 Pls
6749 4089 Pls
6749 4447 Pls
6749 4510 Pls
6749 4558 Pls
6749 3879 Pls
6749 4406 Pls
6749 4629 Pls
6749 4475 Pls
6749 4093 Pls
6749 4399 Pls
6749 4431 Pls
6749 4575 Pls
6749 3877 Pls
6749 4355 Pls
6749 4485 Pls
6749 4542 Pls
6749 4194 Pls
6749 4454 Pls
6749 4408 Pls
6749 4540 Pls
6749 4739 Pls
6749 4494 Pls
6749 4433 Pls
6749 4465 Pls
6749 4514 Pls
6749 4534 Pls
6749 4398 Pls
6749 4490 Pls
6749 4524 Pls
6749 4373 Pls
6749 4496 Pls
6749 4500 Pls
6749 4272 Pls
6749 4503 Pls
6749 4348 Pls
6749 4534 Pls
6749 4626 Pls
6749 4603 Pls
6749 4483 Pls
6749 4561 Pls
6749 4401 Pls
6749 4363 Pls
6749 4371 Pls
6749 4480 Pls
6749 3550 Pls
6749 4068 Pls
6749 4267 Pls
6749 4312 Pls
6749 3409 Pls
6749 4148 Pls
6749 4090 Pls
6749 4313 Pls
6749 3142 Pls
6749 3843 Pls
6749 4262 Pls
6749 4287 Pls
6749 3128 Pls
6749 4058 Pls
6749 4223 Pls
6749 4359 Pls
6749 4710 Pls
6749 4546 Pls
6749 4490 Pls
6749 4515 Pls
6749 4555 Pls
6749 4515 Pls
6749 4500 Pls
6749 4400 Pls
6749 4458 Pls
6749 4431 Pls
6749 4386 Pls
6749 4489 Pls
6749 4611 Pls
6749 4359 Pls
6749 4555 Pls
6749 4468 Pls
6749 4475 Pls
6749 4474 Pls
6749 4401 Pls
6749 4434 Pls
6749 3798 Pls
6749 4120 Pls
6749 4465 Pls
6749 4311 Pls
6749 3414 Pls
6749 4158 Pls
6749 4157 Pls
6749 4324 Pls
6749 3285 Pls
6749 3737 Pls
6749 4137 Pls
6749 4250 Pls
6749 2664 Pls
6749 3677 Pls
6749 3883 Pls
6749 4151 Pls
6749 2828 Pls
6749 3588 Pls
6749 3912 Pls
6749 4063 Pls
6749 4636 Pls
6749 4421 Pls
6749 4369 Pls
6749 4359 Pls
6749 4504 Pls
6749 4573 Pls
6749 4286 Pls
6749 4371 Pls
6749 4636 Pls
6749 4392 Pls
6749 4493 Pls
6749 4496 Pls
6749 4475 Pls
6749 4402 Pls
6749 4445 Pls
6749 4437 Pls
6749 4586 Pls
6749 4326 Pls
6749 4336 Pls
6749 4475 Pls
6749 3853 Pls
6749 4129 Pls
6749 4078 Pls
6749 4069 Pls
6749 3151 Pls
6749 3678 Pls
6749 3988 Pls
6749 4152 Pls
6749 2934 Pls
6749 3542 Pls
6749 3927 Pls
6749 3800 Pls
6749 2615 Pls
6749 3540 Pls
6749 3603 Pls
6749 3752 Pls
6749 2448 Pls
6749 3152 Pls
6749 3336 Pls
6749 3773 Pls
% End plot #1
% Begin plot #2
8.000 UL
LT1
LCb setrgbcolor
5636 1488 M
[ [(Helvetica) 250.0 0.0 true true 0 (Average)]
] -83.3 MRshow
LT1
5786 1488 M
663 0 V
1225 3383 M
691 351 V
690 187 V
691 103 V
690 75 V
691 74 V
690 39 V
691 55 V
690 25 V
% End plot #2
% Begin plot #3
stroke
4.000 UL
LT2
LCb setrgbcolor
5636 1238 M
[ [(Helvetica) 250.0 0.0 true true 0 (Min)]
] -83.3 MRshow
LT2
5786 1238 M
663 0 V
1225 898 M
691 234 V
690 235 V
691 298 V
690 -86 V
691 118 V
690 416 V
691 -330 V
690 665 V
% End plot #3
% Begin plot #4
stroke
LT3
LCb setrgbcolor
5636 988 M
[ [(Helvetica) 250.0 0.0 true true 0 (Max)]
] -83.3 MRshow
LT3
5786 988 M
663 0 V
1225 4654 M
691 38 V
690 -1 V
691 24 V
690 -7 V
691 -24 V
690 21 V
691 -14 V
690 48 V
% End plot #4
stroke
1.000 UL
LTb
1225 4739 N
0 -3939 V
5524 0 V
0 3939 V
-5524 0 V
Z stroke
1.000 UP
1.000 UL
LTb
stroke
grestore
end
showpage
%%Trailer
%%DocumentFonts: Helvetica
