%!PS-Adobe-2.0 EPSF-2.0
%%Title: r_alphabet_size_100-precision.eps
%%Creator: gnuplot 4.4 patchlevel 3
%%CreationDate: Fri Jun 14 19:20:12 2013
%%DocumentFonts: (atend)
%%BoundingBox: 50 50 410 302
%%EndComments
%%BeginProlog
/gnudict 256 dict def
gnudict begin
%
% The following true/false flags may be edited by hand if desired.
% The unit line width and grayscale image gamma correction may also be changed.
%
/Color true def
/Blacktext false def
/Solid false def
/Dashlength 1 def
/Landscape false def
/Level1 false def
/Rounded false def
/ClipToBoundingBox false def
/TransparentPatterns false def
/gnulinewidth 5.000 def
/userlinewidth gnulinewidth def
/Gamma 1.0 def
%
/vshift -83 def
/dl1 {
  10.0 Dashlength mul mul
  Rounded { currentlinewidth 0.75 mul sub dup 0 le { pop 0.01 } if } if
} def
/dl2 {
  10.0 Dashlength mul mul
  Rounded { currentlinewidth 0.75 mul add } if
} def
/hpt_ 31.5 def
/vpt_ 31.5 def
/hpt hpt_ def
/vpt vpt_ def
Level1 {} {
/SDict 10 dict def
systemdict /pdfmark known not {
  userdict /pdfmark systemdict /cleartomark get put
} if
SDict begin [
  /Title (r_alphabet_size_100-precision.eps)
  /Subject (gnuplot plot)
  /Creator (gnuplot 4.4 patchlevel 3)
  /Author (xjia)
%  /Producer (gnuplot)
%  /Keywords ()
  /CreationDate (Fri Jun 14 19:20:12 2013)
  /DOCINFO pdfmark
end
} ifelse
/doclip {
  ClipToBoundingBox {
    newpath 50 50 moveto 410 50 lineto 410 302 lineto 50 302 lineto closepath
    clip
  } if
} def
%
% Gnuplot Prolog Version 4.4 (August 2010)
%
%/SuppressPDFMark true def
%
/M {moveto} bind def
/L {lineto} bind def
/R {rmoveto} bind def
/V {rlineto} bind def
/N {newpath moveto} bind def
/Z {closepath} bind def
/C {setrgbcolor} bind def
/f {rlineto fill} bind def
/g {setgray} bind def
/Gshow {show} def   % May be redefined later in the file to support UTF-8
/vpt2 vpt 2 mul def
/hpt2 hpt 2 mul def
/Lshow {currentpoint stroke M 0 vshift R 
	Blacktext {gsave 0 setgray show grestore} {show} ifelse} def
/Rshow {currentpoint stroke M dup stringwidth pop neg vshift R
	Blacktext {gsave 0 setgray show grestore} {show} ifelse} def
/Cshow {currentpoint stroke M dup stringwidth pop -2 div vshift R 
	Blacktext {gsave 0 setgray show grestore} {show} ifelse} def
/UP {dup vpt_ mul /vpt exch def hpt_ mul /hpt exch def
  /hpt2 hpt 2 mul def /vpt2 vpt 2 mul def} def
/DL {Color {setrgbcolor Solid {pop []} if 0 setdash}
 {pop pop pop 0 setgray Solid {pop []} if 0 setdash} ifelse} def
/BL {stroke userlinewidth 2 mul setlinewidth
	Rounded {1 setlinejoin 1 setlinecap} if} def
/AL {stroke userlinewidth 2 div setlinewidth
	Rounded {1 setlinejoin 1 setlinecap} if} def
/UL {dup gnulinewidth mul /userlinewidth exch def
	dup 1 lt {pop 1} if 10 mul /udl exch def} def
/PL {stroke userlinewidth setlinewidth
	Rounded {1 setlinejoin 1 setlinecap} if} def
3.8 setmiterlimit
% Default Line colors
/LCw {1 1 1} def
/LCb {0 0 0} def
/LCa {0 0 0} def
/LC0 {1 0 0} def
/LC1 {0 1 0} def
/LC2 {0 0 1} def
/LC3 {1 0 1} def
/LC4 {0 1 1} def
/LC5 {1 1 0} def
/LC6 {0 0 0} def
/LC7 {1 0.3 0} def
/LC8 {0.5 0.5 0.5} def
% Default Line Types
/LTw {PL [] 1 setgray} def
/LTb {BL [] LCb DL} def
/LTa {AL [1 udl mul 2 udl mul] 0 setdash LCa setrgbcolor} def
/LT0 {PL [] LC0 DL} def
/LT1 {PL [4 dl1 2 dl2] LC1 DL} def
/LT2 {PL [2 dl1 3 dl2] LC2 DL} def
/LT3 {PL [1 dl1 1.5 dl2] LC3 DL} def
/LT4 {PL [6 dl1 2 dl2 1 dl1 2 dl2] LC4 DL} def
/LT5 {PL [3 dl1 3 dl2 1 dl1 3 dl2] LC5 DL} def
/LT6 {PL [2 dl1 2 dl2 2 dl1 6 dl2] LC6 DL} def
/LT7 {PL [1 dl1 2 dl2 6 dl1 2 dl2 1 dl1 2 dl2] LC7 DL} def
/LT8 {PL [2 dl1 2 dl2 2 dl1 2 dl2 2 dl1 2 dl2 2 dl1 4 dl2] LC8 DL} def
/Pnt {stroke [] 0 setdash gsave 1 setlinecap M 0 0 V stroke grestore} def
/Dia {stroke [] 0 setdash 2 copy vpt add M
  hpt neg vpt neg V hpt vpt neg V
  hpt vpt V hpt neg vpt V closepath stroke
  Pnt} def
/Pls {stroke [] 0 setdash vpt sub M 0 vpt2 V
  currentpoint stroke M
  hpt neg vpt neg R hpt2 0 V stroke
 } def
/Box {stroke [] 0 setdash 2 copy exch hpt sub exch vpt add M
  0 vpt2 neg V hpt2 0 V 0 vpt2 V
  hpt2 neg 0 V closepath stroke
  Pnt} def
/Crs {stroke [] 0 setdash exch hpt sub exch vpt add M
  hpt2 vpt2 neg V currentpoint stroke M
  hpt2 neg 0 R hpt2 vpt2 V stroke} def
/TriU {stroke [] 0 setdash 2 copy vpt 1.12 mul add M
  hpt neg vpt -1.62 mul V
  hpt 2 mul 0 V
  hpt neg vpt 1.62 mul V closepath stroke
  Pnt} def
/Star {2 copy Pls Crs} def
/BoxF {stroke [] 0 setdash exch hpt sub exch vpt add M
  0 vpt2 neg V hpt2 0 V 0 vpt2 V
  hpt2 neg 0 V closepath fill} def
/TriUF {stroke [] 0 setdash vpt 1.12 mul add M
  hpt neg vpt -1.62 mul V
  hpt 2 mul 0 V
  hpt neg vpt 1.62 mul V closepath fill} def
/TriD {stroke [] 0 setdash 2 copy vpt 1.12 mul sub M
  hpt neg vpt 1.62 mul V
  hpt 2 mul 0 V
  hpt neg vpt -1.62 mul V closepath stroke
  Pnt} def
/TriDF {stroke [] 0 setdash vpt 1.12 mul sub M
  hpt neg vpt 1.62 mul V
  hpt 2 mul 0 V
  hpt neg vpt -1.62 mul V closepath fill} def
/DiaF {stroke [] 0 setdash vpt add M
  hpt neg vpt neg V hpt vpt neg V
  hpt vpt V hpt neg vpt V closepath fill} def
/Pent {stroke [] 0 setdash 2 copy gsave
  translate 0 hpt M 4 {72 rotate 0 hpt L} repeat
  closepath stroke grestore Pnt} def
/PentF {stroke [] 0 setdash gsave
  translate 0 hpt M 4 {72 rotate 0 hpt L} repeat
  closepath fill grestore} def
/Circle {stroke [] 0 setdash 2 copy
  hpt 0 360 arc stroke Pnt} def
/CircleF {stroke [] 0 setdash hpt 0 360 arc fill} def
/C0 {BL [] 0 setdash 2 copy moveto vpt 90 450 arc} bind def
/C1 {BL [] 0 setdash 2 copy moveto
	2 copy vpt 0 90 arc closepath fill
	vpt 0 360 arc closepath} bind def
/C2 {BL [] 0 setdash 2 copy moveto
	2 copy vpt 90 180 arc closepath fill
	vpt 0 360 arc closepath} bind def
/C3 {BL [] 0 setdash 2 copy moveto
	2 copy vpt 0 180 arc closepath fill
	vpt 0 360 arc closepath} bind def
/C4 {BL [] 0 setdash 2 copy moveto
	2 copy vpt 180 270 arc closepath fill
	vpt 0 360 arc closepath} bind def
/C5 {BL [] 0 setdash 2 copy moveto
	2 copy vpt 0 90 arc
	2 copy moveto
	2 copy vpt 180 270 arc closepath fill
	vpt 0 360 arc} bind def
/C6 {BL [] 0 setdash 2 copy moveto
	2 copy vpt 90 270 arc closepath fill
	vpt 0 360 arc closepath} bind def
/C7 {BL [] 0 setdash 2 copy moveto
	2 copy vpt 0 270 arc closepath fill
	vpt 0 360 arc closepath} bind def
/C8 {BL [] 0 setdash 2 copy moveto
	2 copy vpt 270 360 arc closepath fill
	vpt 0 360 arc closepath} bind def
/C9 {BL [] 0 setdash 2 copy moveto
	2 copy vpt 270 450 arc closepath fill
	vpt 0 360 arc closepath} bind def
/C10 {BL [] 0 setdash 2 copy 2 copy moveto vpt 270 360 arc closepath fill
	2 copy moveto
	2 copy vpt 90 180 arc closepath fill
	vpt 0 360 arc closepath} bind def
/C11 {BL [] 0 setdash 2 copy moveto
	2 copy vpt 0 180 arc closepath fill
	2 copy moveto
	2 copy vpt 270 360 arc closepath fill
	vpt 0 360 arc closepath} bind def
/C12 {BL [] 0 setdash 2 copy moveto
	2 copy vpt 180 360 arc closepath fill
	vpt 0 360 arc closepath} bind def
/C13 {BL [] 0 setdash 2 copy moveto
	2 copy vpt 0 90 arc closepath fill
	2 copy moveto
	2 copy vpt 180 360 arc closepath fill
	vpt 0 360 arc closepath} bind def
/C14 {BL [] 0 setdash 2 copy moveto
	2 copy vpt 90 360 arc closepath fill
	vpt 0 360 arc} bind def
/C15 {BL [] 0 setdash 2 copy vpt 0 360 arc closepath fill
	vpt 0 360 arc closepath} bind def
/Rec {newpath 4 2 roll moveto 1 index 0 rlineto 0 exch rlineto
	neg 0 rlineto closepath} bind def
/Square {dup Rec} bind def
/Bsquare {vpt sub exch vpt sub exch vpt2 Square} bind def
/S0 {BL [] 0 setdash 2 copy moveto 0 vpt rlineto BL Bsquare} bind def
/S1 {BL [] 0 setdash 2 copy vpt Square fill Bsquare} bind def
/S2 {BL [] 0 setdash 2 copy exch vpt sub exch vpt Square fill Bsquare} bind def
/S3 {BL [] 0 setdash 2 copy exch vpt sub exch vpt2 vpt Rec fill Bsquare} bind def
/S4 {BL [] 0 setdash 2 copy exch vpt sub exch vpt sub vpt Square fill Bsquare} bind def
/S5 {BL [] 0 setdash 2 copy 2 copy vpt Square fill
	exch vpt sub exch vpt sub vpt Square fill Bsquare} bind def
/S6 {BL [] 0 setdash 2 copy exch vpt sub exch vpt sub vpt vpt2 Rec fill Bsquare} bind def
/S7 {BL [] 0 setdash 2 copy exch vpt sub exch vpt sub vpt vpt2 Rec fill
	2 copy vpt Square fill Bsquare} bind def
/S8 {BL [] 0 setdash 2 copy vpt sub vpt Square fill Bsquare} bind def
/S9 {BL [] 0 setdash 2 copy vpt sub vpt vpt2 Rec fill Bsquare} bind def
/S10 {BL [] 0 setdash 2 copy vpt sub vpt Square fill 2 copy exch vpt sub exch vpt Square fill
	Bsquare} bind def
/S11 {BL [] 0 setdash 2 copy vpt sub vpt Square fill 2 copy exch vpt sub exch vpt2 vpt Rec fill
	Bsquare} bind def
/S12 {BL [] 0 setdash 2 copy exch vpt sub exch vpt sub vpt2 vpt Rec fill Bsquare} bind def
/S13 {BL [] 0 setdash 2 copy exch vpt sub exch vpt sub vpt2 vpt Rec fill
	2 copy vpt Square fill Bsquare} bind def
/S14 {BL [] 0 setdash 2 copy exch vpt sub exch vpt sub vpt2 vpt Rec fill
	2 copy exch vpt sub exch vpt Square fill Bsquare} bind def
/S15 {BL [] 0 setdash 2 copy Bsquare fill Bsquare} bind def
/D0 {gsave translate 45 rotate 0 0 S0 stroke grestore} bind def
/D1 {gsave translate 45 rotate 0 0 S1 stroke grestore} bind def
/D2 {gsave translate 45 rotate 0 0 S2 stroke grestore} bind def
/D3 {gsave translate 45 rotate 0 0 S3 stroke grestore} bind def
/D4 {gsave translate 45 rotate 0 0 S4 stroke grestore} bind def
/D5 {gsave translate 45 rotate 0 0 S5 stroke grestore} bind def
/D6 {gsave translate 45 rotate 0 0 S6 stroke grestore} bind def
/D7 {gsave translate 45 rotate 0 0 S7 stroke grestore} bind def
/D8 {gsave translate 45 rotate 0 0 S8 stroke grestore} bind def
/D9 {gsave translate 45 rotate 0 0 S9 stroke grestore} bind def
/D10 {gsave translate 45 rotate 0 0 S10 stroke grestore} bind def
/D11 {gsave translate 45 rotate 0 0 S11 stroke grestore} bind def
/D12 {gsave translate 45 rotate 0 0 S12 stroke grestore} bind def
/D13 {gsave translate 45 rotate 0 0 S13 stroke grestore} bind def
/D14 {gsave translate 45 rotate 0 0 S14 stroke grestore} bind def
/D15 {gsave translate 45 rotate 0 0 S15 stroke grestore} bind def
/DiaE {stroke [] 0 setdash vpt add M
  hpt neg vpt neg V hpt vpt neg V
  hpt vpt V hpt neg vpt V closepath stroke} def
/BoxE {stroke [] 0 setdash exch hpt sub exch vpt add M
  0 vpt2 neg V hpt2 0 V 0 vpt2 V
  hpt2 neg 0 V closepath stroke} def
/TriUE {stroke [] 0 setdash vpt 1.12 mul add M
  hpt neg vpt -1.62 mul V
  hpt 2 mul 0 V
  hpt neg vpt 1.62 mul V closepath stroke} def
/TriDE {stroke [] 0 setdash vpt 1.12 mul sub M
  hpt neg vpt 1.62 mul V
  hpt 2 mul 0 V
  hpt neg vpt -1.62 mul V closepath stroke} def
/PentE {stroke [] 0 setdash gsave
  translate 0 hpt M 4 {72 rotate 0 hpt L} repeat
  closepath stroke grestore} def
/CircE {stroke [] 0 setdash 
  hpt 0 360 arc stroke} def
/Opaque {gsave closepath 1 setgray fill grestore 0 setgray closepath} def
/DiaW {stroke [] 0 setdash vpt add M
  hpt neg vpt neg V hpt vpt neg V
  hpt vpt V hpt neg vpt V Opaque stroke} def
/BoxW {stroke [] 0 setdash exch hpt sub exch vpt add M
  0 vpt2 neg V hpt2 0 V 0 vpt2 V
  hpt2 neg 0 V Opaque stroke} def
/TriUW {stroke [] 0 setdash vpt 1.12 mul add M
  hpt neg vpt -1.62 mul V
  hpt 2 mul 0 V
  hpt neg vpt 1.62 mul V Opaque stroke} def
/TriDW {stroke [] 0 setdash vpt 1.12 mul sub M
  hpt neg vpt 1.62 mul V
  hpt 2 mul 0 V
  hpt neg vpt -1.62 mul V Opaque stroke} def
/PentW {stroke [] 0 setdash gsave
  translate 0 hpt M 4 {72 rotate 0 hpt L} repeat
  Opaque stroke grestore} def
/CircW {stroke [] 0 setdash 
  hpt 0 360 arc Opaque stroke} def
/BoxFill {gsave Rec 1 setgray fill grestore} def
/Density {
  /Fillden exch def
  currentrgbcolor
  /ColB exch def /ColG exch def /ColR exch def
  /ColR ColR Fillden mul Fillden sub 1 add def
  /ColG ColG Fillden mul Fillden sub 1 add def
  /ColB ColB Fillden mul Fillden sub 1 add def
  ColR ColG ColB setrgbcolor} def
/BoxColFill {gsave Rec PolyFill} def
/PolyFill {gsave Density fill grestore grestore} def
/h {rlineto rlineto rlineto gsave closepath fill grestore} bind def
%
% PostScript Level 1 Pattern Fill routine for rectangles
% Usage: x y w h s a XX PatternFill
%	x,y = lower left corner of box to be filled
%	w,h = width and height of box
%	  a = angle in degrees between lines and x-axis
%	 XX = 0/1 for no/yes cross-hatch
%
/PatternFill {gsave /PFa [ 9 2 roll ] def
  PFa 0 get PFa 2 get 2 div add PFa 1 get PFa 3 get 2 div add translate
  PFa 2 get -2 div PFa 3 get -2 div PFa 2 get PFa 3 get Rec
  gsave 1 setgray fill grestore clip
  currentlinewidth 0.5 mul setlinewidth
  /PFs PFa 2 get dup mul PFa 3 get dup mul add sqrt def
  0 0 M PFa 5 get rotate PFs -2 div dup translate
  0 1 PFs PFa 4 get div 1 add floor cvi
	{PFa 4 get mul 0 M 0 PFs V} for
  0 PFa 6 get ne {
	0 1 PFs PFa 4 get div 1 add floor cvi
	{PFa 4 get mul 0 2 1 roll M PFs 0 V} for
 } if
  stroke grestore} def
%
/languagelevel where
 {pop languagelevel} {1} ifelse
 2 lt
	{/InterpretLevel1 true def}
	{/InterpretLevel1 Level1 def}
 ifelse
%
% PostScript level 2 pattern fill definitions
%
/Level2PatternFill {
/Tile8x8 {/PaintType 2 /PatternType 1 /TilingType 1 /BBox [0 0 8 8] /XStep 8 /YStep 8}
	bind def
/KeepColor {currentrgbcolor [/Pattern /DeviceRGB] setcolorspace} bind def
<< Tile8x8
 /PaintProc {0.5 setlinewidth pop 0 0 M 8 8 L 0 8 M 8 0 L stroke} 
>> matrix makepattern
/Pat1 exch def
<< Tile8x8
 /PaintProc {0.5 setlinewidth pop 0 0 M 8 8 L 0 8 M 8 0 L stroke
	0 4 M 4 8 L 8 4 L 4 0 L 0 4 L stroke}
>> matrix makepattern
/Pat2 exch def
<< Tile8x8
 /PaintProc {0.5 setlinewidth pop 0 0 M 0 8 L
	8 8 L 8 0 L 0 0 L fill}
>> matrix makepattern
/Pat3 exch def
<< Tile8x8
 /PaintProc {0.5 setlinewidth pop -4 8 M 8 -4 L
	0 12 M 12 0 L stroke}
>> matrix makepattern
/Pat4 exch def
<< Tile8x8
 /PaintProc {0.5 setlinewidth pop -4 0 M 8 12 L
	0 -4 M 12 8 L stroke}
>> matrix makepattern
/Pat5 exch def
<< Tile8x8
 /PaintProc {0.5 setlinewidth pop -2 8 M 4 -4 L
	0 12 M 8 -4 L 4 12 M 10 0 L stroke}
>> matrix makepattern
/Pat6 exch def
<< Tile8x8
 /PaintProc {0.5 setlinewidth pop -2 0 M 4 12 L
	0 -4 M 8 12 L 4 -4 M 10 8 L stroke}
>> matrix makepattern
/Pat7 exch def
<< Tile8x8
 /PaintProc {0.5 setlinewidth pop 8 -2 M -4 4 L
	12 0 M -4 8 L 12 4 M 0 10 L stroke}
>> matrix makepattern
/Pat8 exch def
<< Tile8x8
 /PaintProc {0.5 setlinewidth pop 0 -2 M 12 4 L
	-4 0 M 12 8 L -4 4 M 8 10 L stroke}
>> matrix makepattern
/Pat9 exch def
/Pattern1 {PatternBgnd KeepColor Pat1 setpattern} bind def
/Pattern2 {PatternBgnd KeepColor Pat2 setpattern} bind def
/Pattern3 {PatternBgnd KeepColor Pat3 setpattern} bind def
/Pattern4 {PatternBgnd KeepColor Landscape {Pat5} {Pat4} ifelse setpattern} bind def
/Pattern5 {PatternBgnd KeepColor Landscape {Pat4} {Pat5} ifelse setpattern} bind def
/Pattern6 {PatternBgnd KeepColor Landscape {Pat9} {Pat6} ifelse setpattern} bind def
/Pattern7 {PatternBgnd KeepColor Landscape {Pat8} {Pat7} ifelse setpattern} bind def
} def
%
%
%End of PostScript Level 2 code
%
/PatternBgnd {
  TransparentPatterns {} {gsave 1 setgray fill grestore} ifelse
} def
%
% Substitute for Level 2 pattern fill codes with
% grayscale if Level 2 support is not selected.
%
/Level1PatternFill {
/Pattern1 {0.250 Density} bind def
/Pattern2 {0.500 Density} bind def
/Pattern3 {0.750 Density} bind def
/Pattern4 {0.125 Density} bind def
/Pattern5 {0.375 Density} bind def
/Pattern6 {0.625 Density} bind def
/Pattern7 {0.875 Density} bind def
} def
%
% Now test for support of Level 2 code
%
Level1 {Level1PatternFill} {Level2PatternFill} ifelse
%
/Symbol-Oblique /Symbol findfont [1 0 .167 1 0 0] makefont
dup length dict begin {1 index /FID eq {pop pop} {def} ifelse} forall
currentdict end definefont pop
/MFshow {
   { dup 5 get 3 ge
     { 5 get 3 eq {gsave} {grestore} ifelse }
     {dup dup 0 get findfont exch 1 get scalefont setfont
     [ currentpoint ] exch dup 2 get 0 exch R dup 5 get 2 ne {dup dup 6
     get exch 4 get {Gshow} {stringwidth pop 0 R} ifelse }if dup 5 get 0 eq
     {dup 3 get {2 get neg 0 exch R pop} {pop aload pop M} ifelse} {dup 5
     get 1 eq {dup 2 get exch dup 3 get exch 6 get stringwidth pop -2 div
     dup 0 R} {dup 6 get stringwidth pop -2 div 0 R 6 get
     show 2 index {aload pop M neg 3 -1 roll neg R pop pop} {pop pop pop
     pop aload pop M} ifelse }ifelse }ifelse }
     ifelse }
   forall} def
/Gswidth {dup type /stringtype eq {stringwidth} {pop (n) stringwidth} ifelse} def
/MFwidth {0 exch { dup 5 get 3 ge { 5 get 3 eq { 0 } { pop } ifelse }
 {dup 3 get{dup dup 0 get findfont exch 1 get scalefont setfont
     6 get Gswidth pop add} {pop} ifelse} ifelse} forall} def
/MLshow { currentpoint stroke M
  0 exch R
  Blacktext {gsave 0 setgray MFshow grestore} {MFshow} ifelse } bind def
/MRshow { currentpoint stroke M
  exch dup MFwidth neg 3 -1 roll R
  Blacktext {gsave 0 setgray MFshow grestore} {MFshow} ifelse } bind def
/MCshow { currentpoint stroke M
  exch dup MFwidth -2 div 3 -1 roll R
  Blacktext {gsave 0 setgray MFshow grestore} {MFshow} ifelse } bind def
/XYsave    { [( ) 1 2 true false 3 ()] } bind def
/XYrestore { [( ) 1 2 true false 4 ()] } bind def
end
%%EndProlog
gnudict begin
gsave
doclip
50 50 translate
0.050 0.050 scale
0 setgray
newpath
(Helvetica) findfont 250 scalefont setfont
1.000 UL
LTb
1225 800 M
63 0 V
5461 0 R
-63 0 V
stroke
1075 800 M
[ [(Helvetica) 250.0 0.0 true true 0 ( 0)]
] -83.3 MRshow
1.000 UL
LTb
1225 1194 M
63 0 V
5461 0 R
-63 0 V
stroke
1075 1194 M
[ [(Helvetica) 250.0 0.0 true true 0 ( 0.1)]
] -83.3 MRshow
1.000 UL
LTb
1225 1588 M
63 0 V
5461 0 R
-63 0 V
stroke
1075 1588 M
[ [(Helvetica) 250.0 0.0 true true 0 ( 0.2)]
] -83.3 MRshow
1.000 UL
LTb
1225 1982 M
63 0 V
5461 0 R
-63 0 V
stroke
1075 1982 M
[ [(Helvetica) 250.0 0.0 true true 0 ( 0.3)]
] -83.3 MRshow
1.000 UL
LTb
1225 2376 M
63 0 V
5461 0 R
-63 0 V
stroke
1075 2376 M
[ [(Helvetica) 250.0 0.0 true true 0 ( 0.4)]
] -83.3 MRshow
1.000 UL
LTb
1225 2770 M
63 0 V
5461 0 R
-63 0 V
stroke
1075 2770 M
[ [(Helvetica) 250.0 0.0 true true 0 ( 0.5)]
] -83.3 MRshow
1.000 UL
LTb
1225 3163 M
63 0 V
5461 0 R
-63 0 V
stroke
1075 3163 M
[ [(Helvetica) 250.0 0.0 true true 0 ( 0.6)]
] -83.3 MRshow
1.000 UL
LTb
1225 3557 M
63 0 V
5461 0 R
-63 0 V
stroke
1075 3557 M
[ [(Helvetica) 250.0 0.0 true true 0 ( 0.7)]
] -83.3 MRshow
1.000 UL
LTb
1225 3951 M
63 0 V
5461 0 R
-63 0 V
stroke
1075 3951 M
[ [(Helvetica) 250.0 0.0 true true 0 ( 0.8)]
] -83.3 MRshow
1.000 UL
LTb
1225 4345 M
63 0 V
5461 0 R
-63 0 V
stroke
1075 4345 M
[ [(Helvetica) 250.0 0.0 true true 0 ( 0.9)]
] -83.3 MRshow
1.000 UL
LTb
1225 4739 M
63 0 V
5461 0 R
-63 0 V
stroke
1075 4739 M
[ [(Helvetica) 250.0 0.0 true true 0 ( 1)]
] -83.3 MRshow
1.000 UL
LTb
1225 800 M
0 63 V
0 3876 R
0 -63 V
stroke
1225 550 M
[ [(Helvetica) 250.0 0.0 true true 0 ( 100)]
] -83.3 MCshow
1.000 UL
LTb
1916 800 M
0 63 V
0 3876 R
0 -63 V
stroke
1916 550 M
[ [(Helvetica) 250.0 0.0 true true 0 ( 200)]
] -83.3 MCshow
1.000 UL
LTb
2606 800 M
0 63 V
0 3876 R
0 -63 V
stroke
2606 550 M
[ [(Helvetica) 250.0 0.0 true true 0 ( 300)]
] -83.3 MCshow
1.000 UL
LTb
3297 800 M
0 63 V
0 3876 R
0 -63 V
stroke
3297 550 M
[ [(Helvetica) 250.0 0.0 true true 0 ( 400)]
] -83.3 MCshow
1.000 UL
LTb
3987 800 M
0 63 V
0 3876 R
0 -63 V
stroke
3987 550 M
[ [(Helvetica) 250.0 0.0 true true 0 ( 500)]
] -83.3 MCshow
1.000 UL
LTb
4678 800 M
0 63 V
0 3876 R
0 -63 V
stroke
4678 550 M
[ [(Helvetica) 250.0 0.0 true true 0 ( 600)]
] -83.3 MCshow
1.000 UL
LTb
5368 800 M
0 63 V
0 3876 R
0 -63 V
stroke
5368 550 M
[ [(Helvetica) 250.0 0.0 true true 0 ( 700)]
] -83.3 MCshow
1.000 UL
LTb
6059 800 M
0 63 V
0 3876 R
0 -63 V
stroke
6059 550 M
[ [(Helvetica) 250.0 0.0 true true 0 ( 800)]
] -83.3 MCshow
1.000 UL
LTb
6749 800 M
0 63 V
0 3876 R
0 -63 V
stroke
6749 550 M
[ [(Helvetica) 250.0 0.0 true true 0 ( 900)]
] -83.3 MCshow
1.000 UL
LTb
1.000 UL
LTb
1225 4739 N
0 -3939 V
5524 0 V
0 3939 V
-5524 0 V
Z stroke
LCb setrgbcolor
200 2769 M
currentpoint gsave translate -270 rotate 0 0 moveto
[ [(Helvetica) 250.0 0.0 true true 0 (Precision)]
] -83.3 MCshow
grestore
LTb
LCb setrgbcolor
3987 175 M
[ [(Helvetica) 250.0 0.0 true true 0 (Alphabet Size)]
] -83.3 MCshow
LTb
1.000 UP
1.000 UL
LTb
% Begin plot #1
1.000 UP
1.000 UL
LT0
1225 4591 Pls
1225 4334 Pls
1225 4285 Pls
1225 4324 Pls
1225 4389 Pls
1225 4387 Pls
1225 4385 Pls
1225 4392 Pls
1225 4632 Pls
1225 3980 Pls
1225 4275 Pls
1225 4579 Pls
1225 4509 Pls
1225 4312 Pls
1225 4494 Pls
1225 4684 Pls
1225 4370 Pls
1225 4276 Pls
1225 4470 Pls
1225 4720 Pls
1225 3692 Pls
1225 4297 Pls
1225 4479 Pls
1225 4739 Pls
1225 4424 Pls
1225 4149 Pls
1225 4488 Pls
1225 4739 Pls
1225 3546 Pls
1225 4046 Pls
1225 4381 Pls
1225 4739 Pls
1225 3311 Pls
1225 3860 Pls
1225 4496 Pls
1225 4739 Pls
1225 2798 Pls
1225 4033 Pls
1225 4368 Pls
1225 4739 Pls
1225 4345 Pls
1225 3627 Pls
1225 3782 Pls
1225 3593 Pls
1225 4520 Pls
1225 3912 Pls
1225 3665 Pls
1225 3599 Pls
1225 4570 Pls
1225 3894 Pls
1225 3466 Pls
1225 3665 Pls
1225 4520 Pls
1225 3950 Pls
1225 3790 Pls
1225 3850 Pls
1225 4608 Pls
1225 3962 Pls
1225 3970 Pls
1225 3955 Pls
1225 3012 Pls
1225 3331 Pls
1225 3513 Pls
1225 3668 Pls
1225 2631 Pls
1225 3010 Pls
1225 3495 Pls
1225 3664 Pls
1225 2131 Pls
1225 2713 Pls
1225 3303 Pls
1225 3411 Pls
1225 1787 Pls
1225 2489 Pls
1225 3204 Pls
1225 3481 Pls
1225 1797 Pls
1225 2701 Pls
1225 2766 Pls
1225 3247 Pls
1225 4143 Pls
1225 3185 Pls
1225 3147 Pls
1225 2891 Pls
1225 4660 Pls
1225 3479 Pls
1225 3351 Pls
1225 3140 Pls
1225 4136 Pls
1225 3384 Pls
1225 3467 Pls
1225 3268 Pls
1225 4608 Pls
1225 3690 Pls
1225 3457 Pls
1225 3275 Pls
1225 4422 Pls
1225 3792 Pls
1225 3394 Pls
1225 3468 Pls
1225 2335 Pls
1225 2520 Pls
1225 2800 Pls
1225 3167 Pls
1225 1840 Pls
1225 2195 Pls
1225 2853 Pls
1225 2858 Pls
1225 1578 Pls
1225 1953 Pls
1225 2440 Pls
1225 2580 Pls
1225 1331 Pls
1225 2010 Pls
1225 2395 Pls
1225 2758 Pls
1225 1274 Pls
1225 1807 Pls
1225 2186 Pls
1225 2524 Pls
1225 3499 Pls
1225 3471 Pls
1225 2921 Pls
1225 2675 Pls
1225 3875 Pls
1225 3654 Pls
1225 3032 Pls
1225 2847 Pls
1225 3967 Pls
1225 3428 Pls
1225 3056 Pls
1225 2820 Pls
1225 4450 Pls
1225 3423 Pls
1225 3296 Pls
1225 2973 Pls
1225 4651 Pls
1225 3586 Pls
1225 3203 Pls
1225 3149 Pls
1225 1981 Pls
1225 2288 Pls
1225 2320 Pls
1225 2657 Pls
1225 1445 Pls
1225 1840 Pls
1225 2054 Pls
1225 2401 Pls
1225 1303 Pls
1225 1759 Pls
1225 2053 Pls
1225 2197 Pls
1225 1163 Pls
1225 1622 Pls
1225 1947 Pls
1225 2123 Pls
1225 1152 Pls
1225 1497 Pls
1225 1892 Pls
1225 2081 Pls
1225 3718 Pls
1225 3168 Pls
1225 2619 Pls
1225 2521 Pls
1225 4398 Pls
1225 2891 Pls
1225 2899 Pls
1225 2421 Pls
1225 4415 Pls
1225 3202 Pls
1225 3293 Pls
1225 2629 Pls
1225 4242 Pls
1225 3270 Pls
1225 2783 Pls
1225 2866 Pls
1225 4501 Pls
1225 2984 Pls
1225 2861 Pls
1225 2868 Pls
1225 1436 Pls
1225 2036 Pls
1225 2356 Pls
1225 2302 Pls
1225 1227 Pls
1225 1596 Pls
1225 1866 Pls
1225 2061 Pls
1225 1101 Pls
1225 1415 Pls
1225 1810 Pls
1225 1925 Pls
1225 1076 Pls
1225 1423 Pls
1225 1604 Pls
1225 1873 Pls
1225 1057 Pls
1225 1326 Pls
1225 1529 Pls
1225 1776 Pls
1916 4739 Pls
1916 4381 Pls
1916 4432 Pls
1916 4672 Pls
1916 4503 Pls
1916 4451 Pls
1916 4441 Pls
1916 4491 Pls
1916 4551 Pls
1916 4335 Pls
1916 4513 Pls
1916 4703 Pls
1916 4498 Pls
1916 4457 Pls
1916 4612 Pls
1916 4705 Pls
1916 4739 Pls
1916 4533 Pls
1916 4647 Pls
1916 4701 Pls
1916 4411 Pls
1916 4387 Pls
1916 4504 Pls
1916 4739 Pls
1916 4529 Pls
1916 4287 Pls
1916 4588 Pls
1916 4739 Pls
1916 3419 Pls
1916 4380 Pls
1916 4475 Pls
1916 4739 Pls
1916 3682 Pls
1916 4263 Pls
1916 4514 Pls
1916 4739 Pls
1916 3945 Pls
1916 4227 Pls
1916 4501 Pls
1916 4739 Pls
1916 4460 Pls
1916 4323 Pls
1916 4179 Pls
1916 4227 Pls
1916 4597 Pls
1916 4283 Pls
1916 4248 Pls
1916 3944 Pls
1916 4641 Pls
1916 4096 Pls
1916 4128 Pls
1916 3996 Pls
1916 4660 Pls
1916 4205 Pls
1916 4149 Pls
1916 4098 Pls
1916 4497 Pls
1916 4037 Pls
1916 4391 Pls
1916 4307 Pls
1916 3859 Pls
1916 3889 Pls
1916 4264 Pls
1916 4245 Pls
1916 3300 Pls
1916 3709 Pls
1916 3706 Pls
1916 3945 Pls
1916 2815 Pls
1916 3153 Pls
1916 3628 Pls
1916 3875 Pls
1916 2205 Pls
1916 3178 Pls
1916 3642 Pls
1916 3826 Pls
1916 2267 Pls
1916 3389 Pls
1916 3222 Pls
1916 3912 Pls
1916 4608 Pls
1916 3886 Pls
1916 3875 Pls
1916 3713 Pls
1916 4455 Pls
1916 4131 Pls
1916 3683 Pls
1916 3900 Pls
1916 4328 Pls
1916 3840 Pls
1916 3665 Pls
1916 3924 Pls
1916 4459 Pls
1916 4059 Pls
1916 3867 Pls
1916 3912 Pls
1916 4470 Pls
1916 4062 Pls
1916 3815 Pls
1916 3712 Pls
1916 2880 Pls
1916 3338 Pls
1916 3993 Pls
1916 3584 Pls
1916 2123 Pls
1916 2906 Pls
1916 3257 Pls
1916 3519 Pls
1916 2137 Pls
1916 2491 Pls
1916 3102 Pls
1916 3288 Pls
1916 1797 Pls
1916 2383 Pls
1916 3239 Pls
1916 3057 Pls
1916 1650 Pls
1916 2157 Pls
1916 2809 Pls
1916 2992 Pls
1916 4171 Pls
1916 3730 Pls
1916 3519 Pls
1916 3264 Pls
1916 4548 Pls
1916 3988 Pls
1916 3543 Pls
1916 3497 Pls
1916 4353 Pls
1916 3967 Pls
1916 3569 Pls
1916 3615 Pls
1916 4381 Pls
1916 3576 Pls
1916 3657 Pls
1916 3744 Pls
1916 4455 Pls
1916 3955 Pls
1916 3844 Pls
1916 3666 Pls
1916 2491 Pls
1916 2795 Pls
1916 3040 Pls
1916 3338 Pls
1916 1951 Pls
1916 2291 Pls
1916 2730 Pls
1916 3135 Pls
1916 1535 Pls
1916 2075 Pls
1916 2567 Pls
1916 2694 Pls
1916 1385 Pls
1916 2017 Pls
1916 2274 Pls
1916 2608 Pls
1916 1338 Pls
1916 1781 Pls
1916 2254 Pls
1916 2574 Pls
1916 4580 Pls
1916 3618 Pls
1916 3017 Pls
1916 3292 Pls
1916 4602 Pls
1916 3627 Pls
1916 3415 Pls
1916 3188 Pls
1916 4651 Pls
1916 3831 Pls
1916 3389 Pls
1916 3263 Pls
1916 4528 Pls
1916 3812 Pls
1916 3508 Pls
1916 3218 Pls
1916 4335 Pls
1916 3744 Pls
1916 3606 Pls
1916 3495 Pls
1916 1967 Pls
1916 2377 Pls
1916 2705 Pls
1916 2896 Pls
1916 1563 Pls
1916 1991 Pls
1916 2268 Pls
1916 2593 Pls
1916 1262 Pls
1916 1760 Pls
1916 2087 Pls
1916 2413 Pls
1916 1206 Pls
1916 1624 Pls
1916 1983 Pls
1916 2335 Pls
1916 1182 Pls
1916 1523 Pls
1916 1827 Pls
1916 2126 Pls
2606 4573 Pls
2606 4591 Pls
2606 4398 Pls
2606 4651 Pls
2606 4651 Pls
2606 4739 Pls
2606 4563 Pls
2606 4720 Pls
2606 4624 Pls
2606 4605 Pls
2606 4537 Pls
2606 4739 Pls
2606 4553 Pls
2606 4484 Pls
2606 4644 Pls
2606 4702 Pls
2606 4739 Pls
2606 4695 Pls
2606 4668 Pls
2606 4739 Pls
2606 4043 Pls
2606 4583 Pls
2606 4637 Pls
2606 4739 Pls
2606 4660 Pls
2606 4519 Pls
2606 4576 Pls
2606 4739 Pls
2606 4312 Pls
2606 4667 Pls
2606 4573 Pls
2606 4739 Pls
2606 3951 Pls
2606 4589 Pls
2606 4551 Pls
2606 4739 Pls
2606 4161 Pls
2606 4503 Pls
2606 4686 Pls
2606 4739 Pls
2606 4660 Pls
2606 4194 Pls
2606 4151 Pls
2606 4177 Pls
2606 4641 Pls
2606 4405 Pls
2606 4226 Pls
2606 4280 Pls
2606 4435 Pls
2606 4497 Pls
2606 4456 Pls
2606 4296 Pls
2606 4641 Pls
2606 4298 Pls
2606 4358 Pls
2606 4325 Pls
2606 4525 Pls
2606 4358 Pls
2606 4535 Pls
2606 4376 Pls
2606 3595 Pls
2606 4367 Pls
2606 4008 Pls
2606 4427 Pls
2606 3526 Pls
2606 3926 Pls
2606 4209 Pls
2606 4131 Pls
2606 3572 Pls
2606 3591 Pls
2606 4197 Pls
2606 4112 Pls
2606 3133 Pls
2606 3634 Pls
2606 3935 Pls
2606 4046 Pls
2606 2741 Pls
2606 3283 Pls
2606 3678 Pls
2606 3850 Pls
2606 4243 Pls
2606 4332 Pls
2606 4105 Pls
2606 3873 Pls
2606 4621 Pls
2606 4363 Pls
2606 4057 Pls
2606 4046 Pls
2606 4319 Pls
2606 4061 Pls
2606 3919 Pls
2606 4220 Pls
2606 4580 Pls
2606 4184 Pls
2606 4316 Pls
2606 4045 Pls
2606 4564 Pls
2606 4437 Pls
2606 4250 Pls
2606 4122 Pls
2606 3861 Pls
2606 3808 Pls
2606 4190 Pls
2606 3790 Pls
2606 2542 Pls
2606 3596 Pls
2606 3818 Pls
2606 3826 Pls
2606 2157 Pls
2606 3167 Pls
2606 3318 Pls
2606 3626 Pls
2606 2409 Pls
2606 2974 Pls
2606 3224 Pls
2606 3362 Pls
2606 2101 Pls
2606 2706 Pls
2606 3001 Pls
2606 3163 Pls
2606 4611 Pls
2606 3980 Pls
2606 3793 Pls
2606 3784 Pls
2606 4602 Pls
2606 4068 Pls
2606 3811 Pls
2606 3696 Pls
2606 4509 Pls
2606 4031 Pls
2606 3857 Pls
2606 3751 Pls
2606 4503 Pls
2606 4346 Pls
2606 3905 Pls
2606 3820 Pls
2606 4553 Pls
2606 4354 Pls
2606 4071 Pls
2606 3850 Pls
2606 2934 Pls
2606 3289 Pls
2606 3562 Pls
2606 3356 Pls
2606 2202 Pls
2606 2590 Pls
2606 2948 Pls
2606 3322 Pls
2606 1811 Pls
2606 2420 Pls
2606 3108 Pls
2606 3354 Pls
2606 1690 Pls
2606 2408 Pls
2606 2695 Pls
2606 2855 Pls
2606 1483 Pls
2606 2193 Pls
2606 2611 Pls
2606 2898 Pls
2606 4503 Pls
2606 3552 Pls
2606 3700 Pls
2606 3494 Pls
2606 4558 Pls
2606 4109 Pls
2606 3702 Pls
2606 3484 Pls
2606 4505 Pls
2606 3987 Pls
2606 3847 Pls
2606 3461 Pls
2606 4415 Pls
2606 4101 Pls
2606 3753 Pls
2606 3925 Pls
2606 4392 Pls
2606 4053 Pls
2606 4075 Pls
2606 3761 Pls
2606 2378 Pls
2606 2814 Pls
2606 3030 Pls
2606 3240 Pls
2606 1727 Pls
2606 2407 Pls
2606 2619 Pls
2606 2918 Pls
2606 1394 Pls
2606 2057 Pls
2606 2391 Pls
2606 2794 Pls
2606 1341 Pls
2606 1882 Pls
2606 2204 Pls
2606 2513 Pls
2606 1314 Pls
2606 1688 Pls
2606 2195 Pls
2606 2311 Pls
3297 4673 Pls
3297 4530 Pls
3297 4698 Pls
3297 4672 Pls
3297 4626 Pls
3297 4660 Pls
3297 4578 Pls
3297 4640 Pls
3297 4683 Pls
3297 4568 Pls
3297 4623 Pls
3297 4739 Pls
3297 4739 Pls
3297 4608 Pls
3297 4615 Pls
3297 4739 Pls
3297 4617 Pls
3297 4638 Pls
3297 4665 Pls
3297 4718 Pls
3297 4542 Pls
3297 4389 Pls
3297 4588 Pls
3297 4739 Pls
3297 4450 Pls
3297 4667 Pls
3297 4611 Pls
3297 4739 Pls
3297 4037 Pls
3297 4528 Pls
3297 4633 Pls
3297 4739 Pls
3297 4491 Pls
3297 4429 Pls
3297 4513 Pls
3297 4739 Pls
3297 4061 Pls
3297 4402 Pls
3297 4658 Pls
3297 4739 Pls
3297 4630 Pls
3297 4452 Pls
3297 4435 Pls
3297 4398 Pls
3297 4573 Pls
3297 4393 Pls
3297 4508 Pls
3297 4324 Pls
3297 4616 Pls
3297 4357 Pls
3297 4441 Pls
3297 4164 Pls
3297 4739 Pls
3297 4522 Pls
3297 4487 Pls
3297 4463 Pls
3297 4626 Pls
3297 4310 Pls
3297 4526 Pls
3297 4371 Pls
3297 4476 Pls
3297 4078 Pls
3297 4168 Pls
3297 4436 Pls
3297 3413 Pls
3297 3953 Pls
3297 4237 Pls
3297 4413 Pls
3297 3738 Pls
3297 4093 Pls
3297 4056 Pls
3297 4240 Pls
3297 3516 Pls
3297 3494 Pls
3297 3889 Pls
3297 4179 Pls
3297 2946 Pls
3297 3569 Pls
3297 4023 Pls
3297 4180 Pls
3297 4474 Pls
3297 4075 Pls
3297 4146 Pls
3297 3954 Pls
3297 4581 Pls
3297 4188 Pls
3297 4283 Pls
3297 4141 Pls
3297 4739 Pls
3297 4429 Pls
3297 4266 Pls
3297 4203 Pls
3297 4739 Pls
3297 4360 Pls
3297 4207 Pls
3297 4334 Pls
3297 4739 Pls
3297 4686 Pls
3297 4173 Pls
3297 4279 Pls
3297 3966 Pls
3297 3949 Pls
3297 3915 Pls
3297 4022 Pls
3297 3020 Pls
3297 3347 Pls
3297 3820 Pls
3297 3971 Pls
3297 2440 Pls
3297 3463 Pls
3297 3476 Pls
3297 3740 Pls
3297 2547 Pls
3297 3246 Pls
3297 3581 Pls
3297 3802 Pls
3297 2132 Pls
3297 2787 Pls
3297 3382 Pls
3297 3652 Pls
3297 4595 Pls
3297 3943 Pls
3297 3981 Pls
3297 4177 Pls
3297 4517 Pls
3297 4462 Pls
3297 4160 Pls
3297 3816 Pls
3297 4555 Pls
3297 4181 Pls
3297 4163 Pls
3297 3967 Pls
3297 4548 Pls
3297 4165 Pls
3297 3887 Pls
3297 3855 Pls
3297 4464 Pls
3297 4356 Pls
3297 4232 Pls
3297 4311 Pls
3297 3039 Pls
3297 3580 Pls
3297 3692 Pls
3297 3739 Pls
3297 2486 Pls
3297 3107 Pls
3297 3328 Pls
3297 3640 Pls
3297 2072 Pls
3297 2740 Pls
3297 3241 Pls
3297 3069 Pls
3297 1934 Pls
3297 2660 Pls
3297 2848 Pls
3297 3411 Pls
3297 1664 Pls
3297 2221 Pls
3297 2753 Pls
3297 3103 Pls
3297 4739 Pls
3297 4268 Pls
3297 3930 Pls
3297 3684 Pls
3297 4421 Pls
3297 4025 Pls
3297 3551 Pls
3297 4033 Pls
3297 4451 Pls
3297 4247 Pls
3297 3843 Pls
3297 3737 Pls
3297 4690 Pls
3297 4324 Pls
3297 4070 Pls
3297 3983 Pls
3297 4739 Pls
3297 4081 Pls
3297 3984 Pls
3297 3941 Pls
3297 2640 Pls
3297 3072 Pls
3297 3250 Pls
3297 3353 Pls
3297 1982 Pls
3297 2890 Pls
3297 3022 Pls
3297 3149 Pls
3297 1658 Pls
3297 2286 Pls
3297 2843 Pls
3297 2772 Pls
3297 1616 Pls
3297 2198 Pls
3297 2630 Pls
3297 2580 Pls
3297 1504 Pls
3297 1993 Pls
3297 2317 Pls
3297 2566 Pls
3987 4586 Pls
3987 4709 Pls
3987 4574 Pls
3987 4670 Pls
3987 4633 Pls
3987 4686 Pls
3987 4536 Pls
3987 4606 Pls
3987 4739 Pls
3987 4739 Pls
3987 4531 Pls
3987 4685 Pls
3987 4626 Pls
3987 4632 Pls
3987 4693 Pls
3987 4721 Pls
3987 4739 Pls
3987 4700 Pls
3987 4739 Pls
3987 4718 Pls
3987 4739 Pls
3987 4602 Pls
3987 4713 Pls
3987 4739 Pls
3987 4201 Pls
3987 4660 Pls
3987 4711 Pls
3987 4739 Pls
3987 4279 Pls
3987 4505 Pls
3987 4711 Pls
3987 4739 Pls
3987 4266 Pls
3987 4361 Pls
3987 4739 Pls
3987 4739 Pls
3987 4176 Pls
3987 4525 Pls
3987 4513 Pls
3987 4739 Pls
3987 4690 Pls
3987 4318 Pls
3987 4478 Pls
3987 4347 Pls
3987 4596 Pls
3987 4411 Pls
3987 4335 Pls
3987 4344 Pls
3987 4690 Pls
3987 4604 Pls
3987 4460 Pls
3987 4464 Pls
3987 4660 Pls
3987 4544 Pls
3987 4493 Pls
3987 4581 Pls
3987 4608 Pls
3987 4739 Pls
3987 4453 Pls
3987 4522 Pls
3987 4135 Pls
3987 4381 Pls
3987 4481 Pls
3987 4386 Pls
3987 3994 Pls
3987 4061 Pls
3987 4375 Pls
3987 4556 Pls
3987 3295 Pls
3987 3717 Pls
3987 4303 Pls
3987 4503 Pls
3987 3279 Pls
3987 4192 Pls
3987 4389 Pls
3987 4282 Pls
3987 3362 Pls
3987 4138 Pls
3987 4097 Pls
3987 4321 Pls
3987 4588 Pls
3987 4413 Pls
3987 4074 Pls
3987 4075 Pls
3987 4641 Pls
3987 4407 Pls
3987 4156 Pls
3987 4312 Pls
3987 4660 Pls
3987 4353 Pls
3987 4271 Pls
3987 4239 Pls
3987 4533 Pls
3987 4565 Pls
3987 4105 Pls
3987 4430 Pls
3987 4651 Pls
3987 4266 Pls
3987 4415 Pls
3987 4347 Pls
3987 3991 Pls
3987 3772 Pls
3987 4068 Pls
3987 4191 Pls
3987 3448 Pls
3987 3792 Pls
3987 3874 Pls
3987 4138 Pls
3987 2806 Pls
3987 3624 Pls
3987 3567 Pls
3987 3652 Pls
3987 2489 Pls
3987 3126 Pls
3987 3682 Pls
3987 3635 Pls
3987 2184 Pls
3987 3257 Pls
3987 3446 Pls
3987 3764 Pls
3987 4562 Pls
3987 4386 Pls
3987 3989 Pls
3987 3963 Pls
3987 4573 Pls
3987 4436 Pls
3987 4032 Pls
3987 4099 Pls
3987 4589 Pls
3987 4018 Pls
3987 4128 Pls
3987 4185 Pls
3987 4739 Pls
3987 4305 Pls
3987 4370 Pls
3987 4175 Pls
3987 4506 Pls
3987 4278 Pls
3987 4240 Pls
3987 4340 Pls
3987 3140 Pls
3987 3741 Pls
3987 3497 Pls
3987 3739 Pls
3987 2698 Pls
3987 3257 Pls
3987 3391 Pls
3987 3621 Pls
3987 2517 Pls
3987 2995 Pls
3987 3393 Pls
3987 3623 Pls
3987 1826 Pls
3987 2355 Pls
3987 3403 Pls
3987 3609 Pls
3987 1970 Pls
3987 2471 Pls
3987 3024 Pls
3987 3283 Pls
3987 4589 Pls
3987 3959 Pls
3987 4071 Pls
3987 3969 Pls
3987 4703 Pls
3987 4211 Pls
3987 3910 Pls
3987 3902 Pls
3987 4695 Pls
3987 4346 Pls
3987 4115 Pls
3987 4033 Pls
3987 4364 Pls
3987 4302 Pls
3987 4319 Pls
3987 3925 Pls
3987 4455 Pls
3987 4175 Pls
3987 4065 Pls
3987 3896 Pls
3987 2721 Pls
3987 3584 Pls
3987 3488 Pls
3987 3678 Pls
3987 2349 Pls
3987 2637 Pls
3987 3291 Pls
3987 3205 Pls
3987 1883 Pls
3987 2617 Pls
3987 2781 Pls
3987 3257 Pls
3987 1735 Pls
3987 2416 Pls
3987 2790 Pls
3987 3076 Pls
3987 1467 Pls
3987 2281 Pls
3987 2568 Pls
3987 2740 Pls
4678 4739 Pls
4678 4739 Pls
4678 4676 Pls
4678 4739 Pls
4678 4626 Pls
4678 4629 Pls
4678 4677 Pls
4678 4703 Pls
4678 4539 Pls
4678 4599 Pls
4678 4693 Pls
4678 4690 Pls
4678 4641 Pls
4678 4709 Pls
4678 4716 Pls
4678 4700 Pls
4678 4739 Pls
4678 4646 Pls
4678 4616 Pls
4678 4739 Pls
4678 4483 Pls
4678 4604 Pls
4678 4739 Pls
4678 4739 Pls
4678 4384 Pls
4678 4695 Pls
4678 4658 Pls
4678 4739 Pls
4678 4439 Pls
4678 4493 Pls
4678 4713 Pls
4678 4739 Pls
4678 4188 Pls
4678 4394 Pls
4678 4609 Pls
4678 4739 Pls
4678 4450 Pls
4678 4422 Pls
4678 4527 Pls
4678 4739 Pls
4678 4739 Pls
4678 4611 Pls
4678 4538 Pls
4678 4555 Pls
4678 4509 Pls
4678 4637 Pls
4678 4405 Pls
4678 4544 Pls
4678 4739 Pls
4678 4575 Pls
4678 4634 Pls
4678 4536 Pls
4678 4641 Pls
4678 4673 Pls
4678 4431 Pls
4678 4616 Pls
4678 4385 Pls
4678 4673 Pls
4678 4518 Pls
4678 4600 Pls
4678 3886 Pls
4678 4467 Pls
4678 4304 Pls
4678 4472 Pls
4678 4739 Pls
4678 4280 Pls
4678 4366 Pls
4678 4358 Pls
4678 3259 Pls
4678 4255 Pls
4678 4323 Pls
4678 4383 Pls
4678 3188 Pls
4678 4017 Pls
4678 4277 Pls
4678 4267 Pls
4678 3121 Pls
4678 4158 Pls
4678 4254 Pls
4678 4412 Pls
4678 4651 Pls
4678 4491 Pls
4678 4333 Pls
4678 4306 Pls
4678 4651 Pls
4678 4438 Pls
4678 4178 Pls
4678 4487 Pls
4678 4739 Pls
4678 4622 Pls
4678 4214 Pls
4678 4407 Pls
4678 4581 Pls
4678 4541 Pls
4678 4535 Pls
4678 4419 Pls
4678 4651 Pls
4678 4520 Pls
4678 4447 Pls
4678 4440 Pls
4678 4017 Pls
4678 4159 Pls
4678 4362 Pls
4678 4031 Pls
4678 3816 Pls
4678 4015 Pls
4678 4126 Pls
4678 4167 Pls
4678 2840 Pls
4678 3617 Pls
4678 4047 Pls
4678 4294 Pls
4678 2728 Pls
4678 3657 Pls
4678 4258 Pls
4678 3883 Pls
4678 2592 Pls
4678 3491 Pls
4678 3848 Pls
4678 3928 Pls
4678 4739 Pls
4678 4292 Pls
4678 4372 Pls
4678 4100 Pls
4678 4739 Pls
4678 4379 Pls
4678 4201 Pls
4678 4124 Pls
4678 4660 Pls
4678 4416 Pls
4678 4404 Pls
4678 4282 Pls
4678 4660 Pls
4678 4221 Pls
4678 4314 Pls
4678 4118 Pls
4678 4651 Pls
4678 4186 Pls
4678 4335 Pls
4678 4270 Pls
4678 3555 Pls
4678 4006 Pls
4678 3813 Pls
4678 4157 Pls
4678 2988 Pls
4678 3388 Pls
4678 3795 Pls
4678 3878 Pls
4678 2531 Pls
4678 3102 Pls
4678 3466 Pls
4678 3471 Pls
4678 2197 Pls
4678 2750 Pls
4678 3293 Pls
4678 3383 Pls
4678 1937 Pls
4678 2792 Pls
4678 2972 Pls
4678 3477 Pls
4678 4739 Pls
4678 4430 Pls
4678 4052 Pls
4678 3954 Pls
4678 4739 Pls
4678 4310 Pls
4678 3923 Pls
4678 4097 Pls
4678 4660 Pls
4678 4261 Pls
4678 4222 Pls
4678 3923 Pls
4678 4494 Pls
4678 4041 Pls
4678 4181 Pls
4678 3939 Pls
4678 4573 Pls
4678 4364 Pls
4678 4443 Pls
4678 4193 Pls
4678 3199 Pls
4678 3585 Pls
4678 3740 Pls
4678 3743 Pls
4678 2718 Pls
4678 2922 Pls
4678 3565 Pls
4678 3582 Pls
4678 2252 Pls
4678 2498 Pls
4678 3054 Pls
4678 3309 Pls
4678 1741 Pls
4678 2400 Pls
4678 2828 Pls
4678 3176 Pls
4678 1521 Pls
4678 2357 Pls
4678 2575 Pls
4678 2980 Pls
5368 4739 Pls
5368 4686 Pls
5368 4585 Pls
5368 4739 Pls
5368 4739 Pls
5368 4652 Pls
5368 4664 Pls
5368 4722 Pls
5368 4739 Pls
5368 4711 Pls
5368 4739 Pls
5368 4739 Pls
5368 4739 Pls
5368 4520 Pls
5368 4625 Pls
5368 4720 Pls
5368 4608 Pls
5368 4739 Pls
5368 4640 Pls
5368 4718 Pls
5368 4411 Pls
5368 4739 Pls
5368 4690 Pls
5368 4739 Pls
5368 4739 Pls
5368 4700 Pls
5368 4658 Pls
5368 4739 Pls
5368 4739 Pls
5368 4660 Pls
5368 4739 Pls
5368 4739 Pls
5368 4476 Pls
5368 4660 Pls
5368 4739 Pls
5368 4739 Pls
5368 4404 Pls
5368 4700 Pls
5368 4683 Pls
5368 4739 Pls
5368 4739 Pls
5368 4683 Pls
5368 4514 Pls
5368 4601 Pls
5368 4345 Pls
5368 4624 Pls
5368 4581 Pls
5368 4527 Pls
5368 4739 Pls
5368 4548 Pls
5368 4669 Pls
5368 4633 Pls
5368 4739 Pls
5368 4494 Pls
5368 4510 Pls
5368 4678 Pls
5368 4626 Pls
5368 4512 Pls
5368 4474 Pls
5368 4577 Pls
5368 4450 Pls
5368 4337 Pls
5368 4394 Pls
5368 4592 Pls
5368 4360 Pls
5368 4146 Pls
5368 4613 Pls
5368 4425 Pls
5368 3400 Pls
5368 4384 Pls
5368 4430 Pls
5368 4561 Pls
5368 3752 Pls
5368 4259 Pls
5368 4380 Pls
5368 4460 Pls
5368 3597 Pls
5368 4035 Pls
5368 4329 Pls
5368 4386 Pls
5368 4667 Pls
5368 4618 Pls
5368 4466 Pls
5368 4370 Pls
5368 4673 Pls
5368 4406 Pls
5368 4414 Pls
5368 4300 Pls
5368 4739 Pls
5368 4456 Pls
5368 4421 Pls
5368 4414 Pls
5368 4596 Pls
5368 4660 Pls
5368 4468 Pls
5368 4518 Pls
5368 4739 Pls
5368 4632 Pls
5368 4505 Pls
5368 4421 Pls
5368 3831 Pls
5368 4287 Pls
5368 4445 Pls
5368 4319 Pls
5368 4056 Pls
5368 4031 Pls
5368 3962 Pls
5368 4367 Pls
5368 3178 Pls
5368 3764 Pls
5368 3904 Pls
5368 4123 Pls
5368 2880 Pls
5368 3567 Pls
5368 4026 Pls
5368 3990 Pls
5368 2848 Pls
5368 3242 Pls
5368 3878 Pls
5368 4095 Pls
5368 4529 Pls
5368 4401 Pls
5368 4449 Pls
5368 4149 Pls
5368 4739 Pls
5368 4477 Pls
5368 4340 Pls
5368 4154 Pls
5368 4626 Pls
5368 4519 Pls
5368 4386 Pls
5368 4237 Pls
5368 4589 Pls
5368 4622 Pls
5368 4248 Pls
5368 4110 Pls
5368 4509 Pls
5368 4650 Pls
5368 4540 Pls
5368 4328 Pls
5368 3886 Pls
5368 3756 Pls
5368 4141 Pls
5368 4207 Pls
5368 2784 Pls
5368 3723 Pls
5368 3589 Pls
5368 3863 Pls
5368 2648 Pls
5368 3588 Pls
5368 3273 Pls
5368 3727 Pls
5368 2255 Pls
5368 2977 Pls
5368 3432 Pls
5368 3637 Pls
5368 1947 Pls
5368 2741 Pls
5368 3083 Pls
5368 3397 Pls
5368 4641 Pls
5368 4415 Pls
5368 3994 Pls
5368 3988 Pls
5368 4589 Pls
5368 4331 Pls
5368 4241 Pls
5368 4159 Pls
5368 4561 Pls
5368 4335 Pls
5368 3921 Pls
5368 4188 Pls
5368 4641 Pls
5368 4236 Pls
5368 4286 Pls
5368 4049 Pls
5368 4739 Pls
5368 4397 Pls
5368 4311 Pls
5368 4383 Pls
5368 3034 Pls
5368 3734 Pls
5368 3782 Pls
5368 3926 Pls
5368 2749 Pls
5368 3375 Pls
5368 3414 Pls
5368 3586 Pls
5368 2272 Pls
5368 2690 Pls
5368 3028 Pls
5368 3659 Pls
5368 2082 Pls
5368 2572 Pls
5368 3097 Pls
5368 3324 Pls
5368 1821 Pls
5368 2516 Pls
5368 2935 Pls
5368 3017 Pls
6059 4739 Pls
6059 4556 Pls
6059 4669 Pls
6059 4612 Pls
6059 4739 Pls
6059 4739 Pls
6059 4739 Pls
6059 4723 Pls
6059 4739 Pls
6059 4709 Pls
6059 4669 Pls
6059 4667 Pls
6059 4739 Pls
6059 4739 Pls
6059 4695 Pls
6059 4739 Pls
6059 4739 Pls
6059 4739 Pls
6059 4739 Pls
6059 4739 Pls
6059 4641 Pls
6059 4739 Pls
6059 4739 Pls
6059 4739 Pls
6059 4660 Pls
6059 4739 Pls
6059 4739 Pls
6059 4739 Pls
6059 4483 Pls
6059 4667 Pls
6059 4739 Pls
6059 4739 Pls
6059 4562 Pls
6059 4739 Pls
6059 4656 Pls
6059 4739 Pls
6059 4255 Pls
6059 4589 Pls
6059 4713 Pls
6059 4739 Pls
6059 4660 Pls
6059 4647 Pls
6059 4477 Pls
6059 4512 Pls
6059 4542 Pls
6059 4580 Pls
6059 4448 Pls
6059 4529 Pls
6059 4595 Pls
6059 4600 Pls
6059 4551 Pls
6059 4503 Pls
6059 4739 Pls
6059 4706 Pls
6059 4473 Pls
6059 4657 Pls
6059 4739 Pls
6059 4575 Pls
6059 4591 Pls
6059 4622 Pls
6059 4739 Pls
6059 4596 Pls
6059 4553 Pls
6059 4599 Pls
6059 4214 Pls
6059 4394 Pls
6059 4468 Pls
6059 4475 Pls
6059 4125 Pls
6059 4395 Pls
6059 4246 Pls
6059 4470 Pls
6059 3660 Pls
6059 4324 Pls
6059 4348 Pls
6059 4563 Pls
6059 3516 Pls
6059 4370 Pls
6059 4368 Pls
6059 4413 Pls
6059 4739 Pls
6059 4348 Pls
6059 4432 Pls
6059 4262 Pls
6059 4608 Pls
6059 4431 Pls
6059 4440 Pls
6059 4494 Pls
6059 4641 Pls
6059 4493 Pls
6059 4470 Pls
6059 4512 Pls
6059 4626 Pls
6059 4365 Pls
6059 4693 Pls
6059 4480 Pls
6059 4651 Pls
6059 4608 Pls
6059 4521 Pls
6059 4363 Pls
6059 4450 Pls
6059 4221 Pls
6059 4131 Pls
6059 4479 Pls
6059 3614 Pls
6059 4251 Pls
6059 4044 Pls
6059 4400 Pls
6059 3636 Pls
6059 3640 Pls
6059 3970 Pls
6059 4358 Pls
6059 3133 Pls
6059 3891 Pls
6059 3787 Pls
6059 4237 Pls
6059 3299 Pls
6059 3374 Pls
6059 3824 Pls
6059 4201 Pls
6059 4739 Pls
6059 4385 Pls
6059 4120 Pls
6059 4315 Pls
6059 4651 Pls
6059 4315 Pls
6059 4168 Pls
6059 4178 Pls
6059 4562 Pls
6059 4454 Pls
6059 4342 Pls
6059 4291 Pls
6059 4562 Pls
6059 4622 Pls
6059 4423 Pls
6059 4328 Pls
6059 4536 Pls
6059 4641 Pls
6059 4523 Pls
6059 4568 Pls
6059 4483 Pls
6059 4190 Pls
6059 4303 Pls
6059 4285 Pls
6059 3637 Pls
6059 3578 Pls
6059 4049 Pls
6059 4096 Pls
6059 2777 Pls
6059 3524 Pls
6059 3884 Pls
6059 3845 Pls
6059 2175 Pls
6059 3245 Pls
6059 3293 Pls
6059 3560 Pls
6059 2141 Pls
6059 3361 Pls
6059 3316 Pls
6059 3700 Pls
6059 4673 Pls
6059 4435 Pls
6059 4191 Pls
6059 4017 Pls
6059 4581 Pls
6059 4527 Pls
6059 4431 Pls
6059 4159 Pls
6059 4651 Pls
6059 4404 Pls
6059 4473 Pls
6059 4166 Pls
6059 4739 Pls
6059 4571 Pls
6059 4221 Pls
6059 4253 Pls
6059 4651 Pls
6059 4503 Pls
6059 4416 Pls
6059 4336 Pls
6059 3453 Pls
6059 4018 Pls
6059 4155 Pls
6059 3784 Pls
6059 3063 Pls
6059 3044 Pls
6059 3542 Pls
6059 3836 Pls
6059 2354 Pls
6059 3146 Pls
6059 3197 Pls
6059 3295 Pls
6059 2007 Pls
6059 2749 Pls
6059 3271 Pls
6059 3420 Pls
6059 1592 Pls
6059 2510 Pls
6059 2695 Pls
6059 3237 Pls
6749 4739 Pls
6749 4680 Pls
6749 4655 Pls
6749 4705 Pls
6749 4739 Pls
6749 4739 Pls
6749 4693 Pls
6749 4739 Pls
6749 4739 Pls
6749 4709 Pls
6749 4672 Pls
6749 4704 Pls
6749 4651 Pls
6749 4683 Pls
6749 4711 Pls
6749 4705 Pls
6749 4739 Pls
6749 4638 Pls
6749 4685 Pls
6749 4739 Pls
6749 4608 Pls
6749 4667 Pls
6749 4711 Pls
6749 4739 Pls
6749 4739 Pls
6749 4549 Pls
6749 4713 Pls
6749 4739 Pls
6749 4509 Pls
6749 4700 Pls
6749 4633 Pls
6749 4739 Pls
6749 4739 Pls
6749 4739 Pls
6749 4739 Pls
6749 4739 Pls
6749 4450 Pls
6749 4562 Pls
6749 4711 Pls
6749 4739 Pls
6749 4739 Pls
6749 4739 Pls
6749 4624 Pls
6749 4655 Pls
6749 4660 Pls
6749 4405 Pls
6749 4576 Pls
6749 4492 Pls
6749 4739 Pls
6749 4580 Pls
6749 4669 Pls
6749 4535 Pls
6749 4739 Pls
6749 4574 Pls
6749 4695 Pls
6749 4610 Pls
6749 4739 Pls
6749 4673 Pls
6749 4549 Pls
6749 4550 Pls
6749 4293 Pls
6749 4460 Pls
6749 4517 Pls
6749 4523 Pls
6749 3905 Pls
6749 4497 Pls
6749 4664 Pls
6749 4511 Pls
6749 4083 Pls
6749 4347 Pls
6749 4456 Pls
6749 4520 Pls
6749 3748 Pls
6749 4227 Pls
6749 4441 Pls
6749 4583 Pls
6749 3977 Pls
6749 4490 Pls
6749 4379 Pls
6749 4495 Pls
6749 4739 Pls
6749 4534 Pls
6749 4448 Pls
6749 4356 Pls
6749 4503 Pls
6749 4566 Pls
6749 4339 Pls
6749 4560 Pls
6749 4641 Pls
6749 4369 Pls
6749 4506 Pls
6749 4517 Pls
6749 4739 Pls
6749 4526 Pls
6749 4421 Pls
6749 4488 Pls
6749 4739 Pls
6749 4739 Pls
6749 4489 Pls
6749 4557 Pls
6749 4608 Pls
6749 4510 Pls
6749 4413 Pls
6749 4438 Pls
6749 3243 Pls
6749 4116 Pls
6749 4199 Pls
6749 4243 Pls
6749 3113 Pls
6749 3999 Pls
6749 3918 Pls
6749 4186 Pls
6749 2830 Pls
6749 3759 Pls
6749 4218 Pls
6749 4124 Pls
6749 2840 Pls
6749 3851 Pls
6749 4111 Pls
6749 4225 Pls
6749 4739 Pls
6749 4495 Pls
6749 4422 Pls
6749 4450 Pls
6749 4626 Pls
6749 4566 Pls
6749 4431 Pls
6749 4433 Pls
6749 4580 Pls
6749 4624 Pls
6749 4391 Pls
6749 4428 Pls
6749 4618 Pls
6749 4383 Pls
6749 4563 Pls
6749 4433 Pls
6749 4641 Pls
6749 4529 Pls
6749 4335 Pls
6749 4352 Pls
6749 3638 Pls
6749 4048 Pls
6749 4458 Pls
6749 4199 Pls
6749 3141 Pls
6749 3959 Pls
6749 3883 Pls
6749 4253 Pls
6749 2894 Pls
6749 3423 Pls
6749 3911 Pls
6749 4112 Pls
6749 2319 Pls
6749 3309 Pls
6749 3617 Pls
6749 3911 Pls
6749 2499 Pls
6749 3225 Pls
6749 3572 Pls
6749 3789 Pls
6749 4573 Pls
6749 4367 Pls
6749 4241 Pls
6749 4217 Pls
6749 4573 Pls
6749 4633 Pls
6749 4189 Pls
6749 4218 Pls
6749 4651 Pls
6749 4344 Pls
6749 4542 Pls
6749 4387 Pls
6749 4667 Pls
6749 4366 Pls
6749 4329 Pls
6749 4308 Pls
6749 4739 Pls
6749 4325 Pls
6749 4291 Pls
6749 4406 Pls
6749 3651 Pls
6749 4017 Pls
6749 3777 Pls
6749 3802 Pls
6749 2755 Pls
6749 3287 Pls
6749 3713 Pls
6749 3987 Pls
6749 2589 Pls
6749 3175 Pls
6749 3624 Pls
6749 3410 Pls
6749 2250 Pls
6749 3126 Pls
6749 3219 Pls
6749 3367 Pls
6749 2057 Pls
6749 2749 Pls
6749 2901 Pls
6749 3395 Pls
% End plot #1
% Begin plot #2
8.000 UL
LT1
LCb setrgbcolor
5636 1488 M
[ [(Helvetica) 250.0 0.0 true true 0 (Average)]
] -83.3 MRshow
LT1
5786 1488 M
663 0 V
1225 3160 M
691 389 V
690 234 V
691 133 V
690 90 V
691 97 V
690 66 V
691 62 V
690 31 V
% End plot #2
% Begin plot #3
stroke
4.000 UL
LT2
LCb setrgbcolor
5636 1238 M
[ [(Helvetica) 250.0 0.0 true true 0 (Min)]
] -83.3 MRshow
LT2
5786 1238 M
663 0 V
1225 1057 M
691 125 V
690 132 V
691 190 V
690 -37 V
691 54 V
690 300 V
691 -229 V
690 465 V
% End plot #3
% Begin plot #4
stroke
LT3
LCb setrgbcolor
5636 988 M
[ [(Helvetica) 250.0 0.0 true true 0 (Max)]
] -83.3 MRshow
LT3
5786 988 M
663 0 V
1225 4739 M
691 0 V
690 0 V
691 0 V
690 0 V
691 0 V
690 0 V
691 0 V
690 0 V
% End plot #4
stroke
1.000 UL
LTb
1225 4739 N
0 -3939 V
5524 0 V
0 3939 V
-5524 0 V
Z stroke
1.000 UP
1.000 UL
LTb
stroke
grestore
end
showpage
%%Trailer
%%DocumentFonts: Helvetica
