%!PS-Adobe-2.0 EPSF-2.0
%%Title: r_alphabet_size_1000-time.eps
%%Creator: gnuplot 4.4 patchlevel 3
%%CreationDate: Fri Jun 14 19:20:12 2013
%%DocumentFonts: (atend)
%%BoundingBox: 50 50 410 302
%%EndComments
%%BeginProlog
/gnudict 256 dict def
gnudict begin
%
% The following true/false flags may be edited by hand if desired.
% The unit line width and grayscale image gamma correction may also be changed.
%
/Color true def
/Blacktext false def
/Solid false def
/Dashlength 1 def
/Landscape false def
/Level1 false def
/Rounded false def
/ClipToBoundingBox false def
/TransparentPatterns false def
/gnulinewidth 5.000 def
/userlinewidth gnulinewidth def
/Gamma 1.0 def
%
/vshift -83 def
/dl1 {
  10.0 Dashlength mul mul
  Rounded { currentlinewidth 0.75 mul sub dup 0 le { pop 0.01 } if } if
} def
/dl2 {
  10.0 Dashlength mul mul
  Rounded { currentlinewidth 0.75 mul add } if
} def
/hpt_ 31.5 def
/vpt_ 31.5 def
/hpt hpt_ def
/vpt vpt_ def
Level1 {} {
/SDict 10 dict def
systemdict /pdfmark known not {
  userdict /pdfmark systemdict /cleartomark get put
} if
SDict begin [
  /Title (r_alphabet_size_1000-time.eps)
  /Subject (gnuplot plot)
  /Creator (gnuplot 4.4 patchlevel 3)
  /Author (xjia)
%  /Producer (gnuplot)
%  /Keywords ()
  /CreationDate (Fri Jun 14 19:20:12 2013)
  /DOCINFO pdfmark
end
} ifelse
/doclip {
  ClipToBoundingBox {
    newpath 50 50 moveto 410 50 lineto 410 302 lineto 50 302 lineto closepath
    clip
  } if
} def
%
% Gnuplot Prolog Version 4.4 (August 2010)
%
%/SuppressPDFMark true def
%
/M {moveto} bind def
/L {lineto} bind def
/R {rmoveto} bind def
/V {rlineto} bind def
/N {newpath moveto} bind def
/Z {closepath} bind def
/C {setrgbcolor} bind def
/f {rlineto fill} bind def
/g {setgray} bind def
/Gshow {show} def   % May be redefined later in the file to support UTF-8
/vpt2 vpt 2 mul def
/hpt2 hpt 2 mul def
/Lshow {currentpoint stroke M 0 vshift R 
	Blacktext {gsave 0 setgray show grestore} {show} ifelse} def
/Rshow {currentpoint stroke M dup stringwidth pop neg vshift R
	Blacktext {gsave 0 setgray show grestore} {show} ifelse} def
/Cshow {currentpoint stroke M dup stringwidth pop -2 div vshift R 
	Blacktext {gsave 0 setgray show grestore} {show} ifelse} def
/UP {dup vpt_ mul /vpt exch def hpt_ mul /hpt exch def
  /hpt2 hpt 2 mul def /vpt2 vpt 2 mul def} def
/DL {Color {setrgbcolor Solid {pop []} if 0 setdash}
 {pop pop pop 0 setgray Solid {pop []} if 0 setdash} ifelse} def
/BL {stroke userlinewidth 2 mul setlinewidth
	Rounded {1 setlinejoin 1 setlinecap} if} def
/AL {stroke userlinewidth 2 div setlinewidth
	Rounded {1 setlinejoin 1 setlinecap} if} def
/UL {dup gnulinewidth mul /userlinewidth exch def
	dup 1 lt {pop 1} if 10 mul /udl exch def} def
/PL {stroke userlinewidth setlinewidth
	Rounded {1 setlinejoin 1 setlinecap} if} def
3.8 setmiterlimit
% Default Line colors
/LCw {1 1 1} def
/LCb {0 0 0} def
/LCa {0 0 0} def
/LC0 {1 0 0} def
/LC1 {0 1 0} def
/LC2 {0 0 1} def
/LC3 {1 0 1} def
/LC4 {0 1 1} def
/LC5 {1 1 0} def
/LC6 {0 0 0} def
/LC7 {1 0.3 0} def
/LC8 {0.5 0.5 0.5} def
% Default Line Types
/LTw {PL [] 1 setgray} def
/LTb {BL [] LCb DL} def
/LTa {AL [1 udl mul 2 udl mul] 0 setdash LCa setrgbcolor} def
/LT0 {PL [] LC0 DL} def
/LT1 {PL [4 dl1 2 dl2] LC1 DL} def
/LT2 {PL [2 dl1 3 dl2] LC2 DL} def
/LT3 {PL [1 dl1 1.5 dl2] LC3 DL} def
/LT4 {PL [6 dl1 2 dl2 1 dl1 2 dl2] LC4 DL} def
/LT5 {PL [3 dl1 3 dl2 1 dl1 3 dl2] LC5 DL} def
/LT6 {PL [2 dl1 2 dl2 2 dl1 6 dl2] LC6 DL} def
/LT7 {PL [1 dl1 2 dl2 6 dl1 2 dl2 1 dl1 2 dl2] LC7 DL} def
/LT8 {PL [2 dl1 2 dl2 2 dl1 2 dl2 2 dl1 2 dl2 2 dl1 4 dl2] LC8 DL} def
/Pnt {stroke [] 0 setdash gsave 1 setlinecap M 0 0 V stroke grestore} def
/Dia {stroke [] 0 setdash 2 copy vpt add M
  hpt neg vpt neg V hpt vpt neg V
  hpt vpt V hpt neg vpt V closepath stroke
  Pnt} def
/Pls {stroke [] 0 setdash vpt sub M 0 vpt2 V
  currentpoint stroke M
  hpt neg vpt neg R hpt2 0 V stroke
 } def
/Box {stroke [] 0 setdash 2 copy exch hpt sub exch vpt add M
  0 vpt2 neg V hpt2 0 V 0 vpt2 V
  hpt2 neg 0 V closepath stroke
  Pnt} def
/Crs {stroke [] 0 setdash exch hpt sub exch vpt add M
  hpt2 vpt2 neg V currentpoint stroke M
  hpt2 neg 0 R hpt2 vpt2 V stroke} def
/TriU {stroke [] 0 setdash 2 copy vpt 1.12 mul add M
  hpt neg vpt -1.62 mul V
  hpt 2 mul 0 V
  hpt neg vpt 1.62 mul V closepath stroke
  Pnt} def
/Star {2 copy Pls Crs} def
/BoxF {stroke [] 0 setdash exch hpt sub exch vpt add M
  0 vpt2 neg V hpt2 0 V 0 vpt2 V
  hpt2 neg 0 V closepath fill} def
/TriUF {stroke [] 0 setdash vpt 1.12 mul add M
  hpt neg vpt -1.62 mul V
  hpt 2 mul 0 V
  hpt neg vpt 1.62 mul V closepath fill} def
/TriD {stroke [] 0 setdash 2 copy vpt 1.12 mul sub M
  hpt neg vpt 1.62 mul V
  hpt 2 mul 0 V
  hpt neg vpt -1.62 mul V closepath stroke
  Pnt} def
/TriDF {stroke [] 0 setdash vpt 1.12 mul sub M
  hpt neg vpt 1.62 mul V
  hpt 2 mul 0 V
  hpt neg vpt -1.62 mul V closepath fill} def
/DiaF {stroke [] 0 setdash vpt add M
  hpt neg vpt neg V hpt vpt neg V
  hpt vpt V hpt neg vpt V closepath fill} def
/Pent {stroke [] 0 setdash 2 copy gsave
  translate 0 hpt M 4 {72 rotate 0 hpt L} repeat
  closepath stroke grestore Pnt} def
/PentF {stroke [] 0 setdash gsave
  translate 0 hpt M 4 {72 rotate 0 hpt L} repeat
  closepath fill grestore} def
/Circle {stroke [] 0 setdash 2 copy
  hpt 0 360 arc stroke Pnt} def
/CircleF {stroke [] 0 setdash hpt 0 360 arc fill} def
/C0 {BL [] 0 setdash 2 copy moveto vpt 90 450 arc} bind def
/C1 {BL [] 0 setdash 2 copy moveto
	2 copy vpt 0 90 arc closepath fill
	vpt 0 360 arc closepath} bind def
/C2 {BL [] 0 setdash 2 copy moveto
	2 copy vpt 90 180 arc closepath fill
	vpt 0 360 arc closepath} bind def
/C3 {BL [] 0 setdash 2 copy moveto
	2 copy vpt 0 180 arc closepath fill
	vpt 0 360 arc closepath} bind def
/C4 {BL [] 0 setdash 2 copy moveto
	2 copy vpt 180 270 arc closepath fill
	vpt 0 360 arc closepath} bind def
/C5 {BL [] 0 setdash 2 copy moveto
	2 copy vpt 0 90 arc
	2 copy moveto
	2 copy vpt 180 270 arc closepath fill
	vpt 0 360 arc} bind def
/C6 {BL [] 0 setdash 2 copy moveto
	2 copy vpt 90 270 arc closepath fill
	vpt 0 360 arc closepath} bind def
/C7 {BL [] 0 setdash 2 copy moveto
	2 copy vpt 0 270 arc closepath fill
	vpt 0 360 arc closepath} bind def
/C8 {BL [] 0 setdash 2 copy moveto
	2 copy vpt 270 360 arc closepath fill
	vpt 0 360 arc closepath} bind def
/C9 {BL [] 0 setdash 2 copy moveto
	2 copy vpt 270 450 arc closepath fill
	vpt 0 360 arc closepath} bind def
/C10 {BL [] 0 setdash 2 copy 2 copy moveto vpt 270 360 arc closepath fill
	2 copy moveto
	2 copy vpt 90 180 arc closepath fill
	vpt 0 360 arc closepath} bind def
/C11 {BL [] 0 setdash 2 copy moveto
	2 copy vpt 0 180 arc closepath fill
	2 copy moveto
	2 copy vpt 270 360 arc closepath fill
	vpt 0 360 arc closepath} bind def
/C12 {BL [] 0 setdash 2 copy moveto
	2 copy vpt 180 360 arc closepath fill
	vpt 0 360 arc closepath} bind def
/C13 {BL [] 0 setdash 2 copy moveto
	2 copy vpt 0 90 arc closepath fill
	2 copy moveto
	2 copy vpt 180 360 arc closepath fill
	vpt 0 360 arc closepath} bind def
/C14 {BL [] 0 setdash 2 copy moveto
	2 copy vpt 90 360 arc closepath fill
	vpt 0 360 arc} bind def
/C15 {BL [] 0 setdash 2 copy vpt 0 360 arc closepath fill
	vpt 0 360 arc closepath} bind def
/Rec {newpath 4 2 roll moveto 1 index 0 rlineto 0 exch rlineto
	neg 0 rlineto closepath} bind def
/Square {dup Rec} bind def
/Bsquare {vpt sub exch vpt sub exch vpt2 Square} bind def
/S0 {BL [] 0 setdash 2 copy moveto 0 vpt rlineto BL Bsquare} bind def
/S1 {BL [] 0 setdash 2 copy vpt Square fill Bsquare} bind def
/S2 {BL [] 0 setdash 2 copy exch vpt sub exch vpt Square fill Bsquare} bind def
/S3 {BL [] 0 setdash 2 copy exch vpt sub exch vpt2 vpt Rec fill Bsquare} bind def
/S4 {BL [] 0 setdash 2 copy exch vpt sub exch vpt sub vpt Square fill Bsquare} bind def
/S5 {BL [] 0 setdash 2 copy 2 copy vpt Square fill
	exch vpt sub exch vpt sub vpt Square fill Bsquare} bind def
/S6 {BL [] 0 setdash 2 copy exch vpt sub exch vpt sub vpt vpt2 Rec fill Bsquare} bind def
/S7 {BL [] 0 setdash 2 copy exch vpt sub exch vpt sub vpt vpt2 Rec fill
	2 copy vpt Square fill Bsquare} bind def
/S8 {BL [] 0 setdash 2 copy vpt sub vpt Square fill Bsquare} bind def
/S9 {BL [] 0 setdash 2 copy vpt sub vpt vpt2 Rec fill Bsquare} bind def
/S10 {BL [] 0 setdash 2 copy vpt sub vpt Square fill 2 copy exch vpt sub exch vpt Square fill
	Bsquare} bind def
/S11 {BL [] 0 setdash 2 copy vpt sub vpt Square fill 2 copy exch vpt sub exch vpt2 vpt Rec fill
	Bsquare} bind def
/S12 {BL [] 0 setdash 2 copy exch vpt sub exch vpt sub vpt2 vpt Rec fill Bsquare} bind def
/S13 {BL [] 0 setdash 2 copy exch vpt sub exch vpt sub vpt2 vpt Rec fill
	2 copy vpt Square fill Bsquare} bind def
/S14 {BL [] 0 setdash 2 copy exch vpt sub exch vpt sub vpt2 vpt Rec fill
	2 copy exch vpt sub exch vpt Square fill Bsquare} bind def
/S15 {BL [] 0 setdash 2 copy Bsquare fill Bsquare} bind def
/D0 {gsave translate 45 rotate 0 0 S0 stroke grestore} bind def
/D1 {gsave translate 45 rotate 0 0 S1 stroke grestore} bind def
/D2 {gsave translate 45 rotate 0 0 S2 stroke grestore} bind def
/D3 {gsave translate 45 rotate 0 0 S3 stroke grestore} bind def
/D4 {gsave translate 45 rotate 0 0 S4 stroke grestore} bind def
/D5 {gsave translate 45 rotate 0 0 S5 stroke grestore} bind def
/D6 {gsave translate 45 rotate 0 0 S6 stroke grestore} bind def
/D7 {gsave translate 45 rotate 0 0 S7 stroke grestore} bind def
/D8 {gsave translate 45 rotate 0 0 S8 stroke grestore} bind def
/D9 {gsave translate 45 rotate 0 0 S9 stroke grestore} bind def
/D10 {gsave translate 45 rotate 0 0 S10 stroke grestore} bind def
/D11 {gsave translate 45 rotate 0 0 S11 stroke grestore} bind def
/D12 {gsave translate 45 rotate 0 0 S12 stroke grestore} bind def
/D13 {gsave translate 45 rotate 0 0 S13 stroke grestore} bind def
/D14 {gsave translate 45 rotate 0 0 S14 stroke grestore} bind def
/D15 {gsave translate 45 rotate 0 0 S15 stroke grestore} bind def
/DiaE {stroke [] 0 setdash vpt add M
  hpt neg vpt neg V hpt vpt neg V
  hpt vpt V hpt neg vpt V closepath stroke} def
/BoxE {stroke [] 0 setdash exch hpt sub exch vpt add M
  0 vpt2 neg V hpt2 0 V 0 vpt2 V
  hpt2 neg 0 V closepath stroke} def
/TriUE {stroke [] 0 setdash vpt 1.12 mul add M
  hpt neg vpt -1.62 mul V
  hpt 2 mul 0 V
  hpt neg vpt 1.62 mul V closepath stroke} def
/TriDE {stroke [] 0 setdash vpt 1.12 mul sub M
  hpt neg vpt 1.62 mul V
  hpt 2 mul 0 V
  hpt neg vpt -1.62 mul V closepath stroke} def
/PentE {stroke [] 0 setdash gsave
  translate 0 hpt M 4 {72 rotate 0 hpt L} repeat
  closepath stroke grestore} def
/CircE {stroke [] 0 setdash 
  hpt 0 360 arc stroke} def
/Opaque {gsave closepath 1 setgray fill grestore 0 setgray closepath} def
/DiaW {stroke [] 0 setdash vpt add M
  hpt neg vpt neg V hpt vpt neg V
  hpt vpt V hpt neg vpt V Opaque stroke} def
/BoxW {stroke [] 0 setdash exch hpt sub exch vpt add M
  0 vpt2 neg V hpt2 0 V 0 vpt2 V
  hpt2 neg 0 V Opaque stroke} def
/TriUW {stroke [] 0 setdash vpt 1.12 mul add M
  hpt neg vpt -1.62 mul V
  hpt 2 mul 0 V
  hpt neg vpt 1.62 mul V Opaque stroke} def
/TriDW {stroke [] 0 setdash vpt 1.12 mul sub M
  hpt neg vpt 1.62 mul V
  hpt 2 mul 0 V
  hpt neg vpt -1.62 mul V Opaque stroke} def
/PentW {stroke [] 0 setdash gsave
  translate 0 hpt M 4 {72 rotate 0 hpt L} repeat
  Opaque stroke grestore} def
/CircW {stroke [] 0 setdash 
  hpt 0 360 arc Opaque stroke} def
/BoxFill {gsave Rec 1 setgray fill grestore} def
/Density {
  /Fillden exch def
  currentrgbcolor
  /ColB exch def /ColG exch def /ColR exch def
  /ColR ColR Fillden mul Fillden sub 1 add def
  /ColG ColG Fillden mul Fillden sub 1 add def
  /ColB ColB Fillden mul Fillden sub 1 add def
  ColR ColG ColB setrgbcolor} def
/BoxColFill {gsave Rec PolyFill} def
/PolyFill {gsave Density fill grestore grestore} def
/h {rlineto rlineto rlineto gsave closepath fill grestore} bind def
%
% PostScript Level 1 Pattern Fill routine for rectangles
% Usage: x y w h s a XX PatternFill
%	x,y = lower left corner of box to be filled
%	w,h = width and height of box
%	  a = angle in degrees between lines and x-axis
%	 XX = 0/1 for no/yes cross-hatch
%
/PatternFill {gsave /PFa [ 9 2 roll ] def
  PFa 0 get PFa 2 get 2 div add PFa 1 get PFa 3 get 2 div add translate
  PFa 2 get -2 div PFa 3 get -2 div PFa 2 get PFa 3 get Rec
  gsave 1 setgray fill grestore clip
  currentlinewidth 0.5 mul setlinewidth
  /PFs PFa 2 get dup mul PFa 3 get dup mul add sqrt def
  0 0 M PFa 5 get rotate PFs -2 div dup translate
  0 1 PFs PFa 4 get div 1 add floor cvi
	{PFa 4 get mul 0 M 0 PFs V} for
  0 PFa 6 get ne {
	0 1 PFs PFa 4 get div 1 add floor cvi
	{PFa 4 get mul 0 2 1 roll M PFs 0 V} for
 } if
  stroke grestore} def
%
/languagelevel where
 {pop languagelevel} {1} ifelse
 2 lt
	{/InterpretLevel1 true def}
	{/InterpretLevel1 Level1 def}
 ifelse
%
% PostScript level 2 pattern fill definitions
%
/Level2PatternFill {
/Tile8x8 {/PaintType 2 /PatternType 1 /TilingType 1 /BBox [0 0 8 8] /XStep 8 /YStep 8}
	bind def
/KeepColor {currentrgbcolor [/Pattern /DeviceRGB] setcolorspace} bind def
<< Tile8x8
 /PaintProc {0.5 setlinewidth pop 0 0 M 8 8 L 0 8 M 8 0 L stroke} 
>> matrix makepattern
/Pat1 exch def
<< Tile8x8
 /PaintProc {0.5 setlinewidth pop 0 0 M 8 8 L 0 8 M 8 0 L stroke
	0 4 M 4 8 L 8 4 L 4 0 L 0 4 L stroke}
>> matrix makepattern
/Pat2 exch def
<< Tile8x8
 /PaintProc {0.5 setlinewidth pop 0 0 M 0 8 L
	8 8 L 8 0 L 0 0 L fill}
>> matrix makepattern
/Pat3 exch def
<< Tile8x8
 /PaintProc {0.5 setlinewidth pop -4 8 M 8 -4 L
	0 12 M 12 0 L stroke}
>> matrix makepattern
/Pat4 exch def
<< Tile8x8
 /PaintProc {0.5 setlinewidth pop -4 0 M 8 12 L
	0 -4 M 12 8 L stroke}
>> matrix makepattern
/Pat5 exch def
<< Tile8x8
 /PaintProc {0.5 setlinewidth pop -2 8 M 4 -4 L
	0 12 M 8 -4 L 4 12 M 10 0 L stroke}
>> matrix makepattern
/Pat6 exch def
<< Tile8x8
 /PaintProc {0.5 setlinewidth pop -2 0 M 4 12 L
	0 -4 M 8 12 L 4 -4 M 10 8 L stroke}
>> matrix makepattern
/Pat7 exch def
<< Tile8x8
 /PaintProc {0.5 setlinewidth pop 8 -2 M -4 4 L
	12 0 M -4 8 L 12 4 M 0 10 L stroke}
>> matrix makepattern
/Pat8 exch def
<< Tile8x8
 /PaintProc {0.5 setlinewidth pop 0 -2 M 12 4 L
	-4 0 M 12 8 L -4 4 M 8 10 L stroke}
>> matrix makepattern
/Pat9 exch def
/Pattern1 {PatternBgnd KeepColor Pat1 setpattern} bind def
/Pattern2 {PatternBgnd KeepColor Pat2 setpattern} bind def
/Pattern3 {PatternBgnd KeepColor Pat3 setpattern} bind def
/Pattern4 {PatternBgnd KeepColor Landscape {Pat5} {Pat4} ifelse setpattern} bind def
/Pattern5 {PatternBgnd KeepColor Landscape {Pat4} {Pat5} ifelse setpattern} bind def
/Pattern6 {PatternBgnd KeepColor Landscape {Pat9} {Pat6} ifelse setpattern} bind def
/Pattern7 {PatternBgnd KeepColor Landscape {Pat8} {Pat7} ifelse setpattern} bind def
} def
%
%
%End of PostScript Level 2 code
%
/PatternBgnd {
  TransparentPatterns {} {gsave 1 setgray fill grestore} ifelse
} def
%
% Substitute for Level 2 pattern fill codes with
% grayscale if Level 2 support is not selected.
%
/Level1PatternFill {
/Pattern1 {0.250 Density} bind def
/Pattern2 {0.500 Density} bind def
/Pattern3 {0.750 Density} bind def
/Pattern4 {0.125 Density} bind def
/Pattern5 {0.375 Density} bind def
/Pattern6 {0.625 Density} bind def
/Pattern7 {0.875 Density} bind def
} def
%
% Now test for support of Level 2 code
%
Level1 {Level1PatternFill} {Level2PatternFill} ifelse
%
/Symbol-Oblique /Symbol findfont [1 0 .167 1 0 0] makefont
dup length dict begin {1 index /FID eq {pop pop} {def} ifelse} forall
currentdict end definefont pop
/MFshow {
   { dup 5 get 3 ge
     { 5 get 3 eq {gsave} {grestore} ifelse }
     {dup dup 0 get findfont exch 1 get scalefont setfont
     [ currentpoint ] exch dup 2 get 0 exch R dup 5 get 2 ne {dup dup 6
     get exch 4 get {Gshow} {stringwidth pop 0 R} ifelse }if dup 5 get 0 eq
     {dup 3 get {2 get neg 0 exch R pop} {pop aload pop M} ifelse} {dup 5
     get 1 eq {dup 2 get exch dup 3 get exch 6 get stringwidth pop -2 div
     dup 0 R} {dup 6 get stringwidth pop -2 div 0 R 6 get
     show 2 index {aload pop M neg 3 -1 roll neg R pop pop} {pop pop pop
     pop aload pop M} ifelse }ifelse }ifelse }
     ifelse }
   forall} def
/Gswidth {dup type /stringtype eq {stringwidth} {pop (n) stringwidth} ifelse} def
/MFwidth {0 exch { dup 5 get 3 ge { 5 get 3 eq { 0 } { pop } ifelse }
 {dup 3 get{dup dup 0 get findfont exch 1 get scalefont setfont
     6 get Gswidth pop add} {pop} ifelse} ifelse} forall} def
/MLshow { currentpoint stroke M
  0 exch R
  Blacktext {gsave 0 setgray MFshow grestore} {MFshow} ifelse } bind def
/MRshow { currentpoint stroke M
  exch dup MFwidth neg 3 -1 roll R
  Blacktext {gsave 0 setgray MFshow grestore} {MFshow} ifelse } bind def
/MCshow { currentpoint stroke M
  exch dup MFwidth -2 div 3 -1 roll R
  Blacktext {gsave 0 setgray MFshow grestore} {MFshow} ifelse } bind def
/XYsave    { [( ) 1 2 true false 3 ()] } bind def
/XYrestore { [( ) 1 2 true false 4 ()] } bind def
end
%%EndProlog
gnudict begin
gsave
doclip
50 50 translate
0.050 0.050 scale
0 setgray
newpath
(Helvetica) findfont 250 scalefont setfont
1.000 UL
LTb
1225 800 M
63 0 V
5461 0 R
-63 0 V
stroke
1075 800 M
[ [(Helvetica) 250.0 0.0 true true 0 ( 0)]
] -83.3 MRshow
1.000 UL
LTb
1225 1457 M
63 0 V
5461 0 R
-63 0 V
stroke
1075 1457 M
[ [(Helvetica) 250.0 0.0 true true 0 ( 0.5)]
] -83.3 MRshow
1.000 UL
LTb
1225 2113 M
63 0 V
5461 0 R
-63 0 V
stroke
1075 2113 M
[ [(Helvetica) 250.0 0.0 true true 0 ( 1)]
] -83.3 MRshow
1.000 UL
LTb
1225 2770 M
63 0 V
5461 0 R
-63 0 V
stroke
1075 2770 M
[ [(Helvetica) 250.0 0.0 true true 0 ( 1.5)]
] -83.3 MRshow
1.000 UL
LTb
1225 3426 M
63 0 V
5461 0 R
-63 0 V
stroke
1075 3426 M
[ [(Helvetica) 250.0 0.0 true true 0 ( 2)]
] -83.3 MRshow
1.000 UL
LTb
1225 4083 M
63 0 V
5461 0 R
-63 0 V
stroke
1075 4083 M
[ [(Helvetica) 250.0 0.0 true true 0 ( 2.5)]
] -83.3 MRshow
1.000 UL
LTb
1225 4739 M
63 0 V
5461 0 R
-63 0 V
stroke
1075 4739 M
[ [(Helvetica) 250.0 0.0 true true 0 ( 3)]
] -83.3 MRshow
1.000 UL
LTb
1225 800 M
0 63 V
0 3876 R
0 -63 V
stroke
1225 550 M
[ [(Helvetica) 250.0 0.0 true true 0 ( 1000)]
] -83.3 MCshow
1.000 UL
LTb
1916 800 M
0 63 V
0 3876 R
0 -63 V
stroke
1916 550 M
[ [(Helvetica) 250.0 0.0 true true 0 ( 2000)]
] -83.3 MCshow
1.000 UL
LTb
2606 800 M
0 63 V
0 3876 R
0 -63 V
stroke
2606 550 M
[ [(Helvetica) 250.0 0.0 true true 0 ( 3000)]
] -83.3 MCshow
1.000 UL
LTb
3297 800 M
0 63 V
0 3876 R
0 -63 V
stroke
3297 550 M
[ [(Helvetica) 250.0 0.0 true true 0 ( 4000)]
] -83.3 MCshow
1.000 UL
LTb
3987 800 M
0 63 V
0 3876 R
0 -63 V
stroke
3987 550 M
[ [(Helvetica) 250.0 0.0 true true 0 ( 5000)]
] -83.3 MCshow
1.000 UL
LTb
4678 800 M
0 63 V
0 3876 R
0 -63 V
stroke
4678 550 M
[ [(Helvetica) 250.0 0.0 true true 0 ( 6000)]
] -83.3 MCshow
1.000 UL
LTb
5368 800 M
0 63 V
0 3876 R
0 -63 V
stroke
5368 550 M
[ [(Helvetica) 250.0 0.0 true true 0 ( 7000)]
] -83.3 MCshow
1.000 UL
LTb
6059 800 M
0 63 V
0 3876 R
0 -63 V
stroke
6059 550 M
[ [(Helvetica) 250.0 0.0 true true 0 ( 8000)]
] -83.3 MCshow
1.000 UL
LTb
6749 800 M
0 63 V
0 3876 R
0 -63 V
stroke
6749 550 M
[ [(Helvetica) 250.0 0.0 true true 0 ( 9000)]
] -83.3 MCshow
1.000 UL
LTb
1.000 UL
LTb
1225 4739 N
0 -3939 V
5524 0 V
0 3939 V
-5524 0 V
Z stroke
LCb setrgbcolor
200 2769 M
currentpoint gsave translate -270 rotate 0 0 moveto
[ [(Helvetica) 250.0 0.0 true true 0 (Time \(sec\))]
] -83.3 MCshow
grestore
LTb
LCb setrgbcolor
3987 175 M
[ [(Helvetica) 250.0 0.0 true true 0 (Alphabet Size)]
] -83.3 MCshow
LTb
1.000 UP
1.000 UL
LTb
% Begin plot #1
1.000 UP
1.000 UL
LT0
1225 801 Pls
1225 803 Pls
1225 803 Pls
1225 805 Pls
1225 801 Pls
1225 801 Pls
1225 803 Pls
1225 804 Pls
1225 801 Pls
1225 802 Pls
1225 802 Pls
1225 804 Pls
1225 801 Pls
1225 801 Pls
1225 802 Pls
1225 803 Pls
1225 801 Pls
1225 801 Pls
1225 802 Pls
1225 802 Pls
1225 801 Pls
1225 801 Pls
1225 802 Pls
1225 802 Pls
1225 801 Pls
1225 802 Pls
1225 802 Pls
1225 802 Pls
1225 801 Pls
1225 802 Pls
1225 802 Pls
1225 803 Pls
1225 802 Pls
1225 802 Pls
1225 803 Pls
1225 803 Pls
1225 802 Pls
1225 803 Pls
1225 803 Pls
1225 804 Pls
1225 812 Pls
1225 816 Pls
1225 823 Pls
1225 828 Pls
1225 810 Pls
1225 815 Pls
1225 818 Pls
1225 823 Pls
1225 808 Pls
1225 811 Pls
1225 815 Pls
1225 819 Pls
1225 807 Pls
1225 808 Pls
1225 812 Pls
1225 815 Pls
1225 804 Pls
1225 807 Pls
1225 810 Pls
1225 814 Pls
1225 810 Pls
1225 814 Pls
1225 819 Pls
1225 823 Pls
1225 818 Pls
1225 821 Pls
1225 824 Pls
1225 829 Pls
1225 824 Pls
1225 828 Pls
1225 832 Pls
1225 838 Pls
1225 830 Pls
1225 833 Pls
1225 840 Pls
1225 845 Pls
1225 837 Pls
1225 845 Pls
1225 850 Pls
1225 854 Pls
1225 852 Pls
1225 856 Pls
1225 886 Pls
1225 910 Pls
1225 836 Pls
1225 844 Pls
1225 857 Pls
1225 885 Pls
1225 830 Pls
1225 836 Pls
1225 849 Pls
1225 870 Pls
1225 822 Pls
1225 830 Pls
1225 836 Pls
1225 845 Pls
1225 818 Pls
1225 823 Pls
1225 836 Pls
1225 840 Pls
1225 851 Pls
1225 865 Pls
1225 870 Pls
1225 897 Pls
1225 874 Pls
1225 880 Pls
1225 920 Pls
1225 923 Pls
1225 917 Pls
1225 937 Pls
1225 954 Pls
1225 964 Pls
1225 925 Pls
1225 960 Pls
1225 990 Pls
1225 1011 Pls
1225 1005 Pls
1225 1023 Pls
1225 1036 Pls
1225 1042 Pls
1225 944 Pls
1225 969 Pls
1225 1051 Pls
1225 1134 Pls
1225 888 Pls
1225 949 Pls
1225 977 Pls
1225 1061 Pls
1225 877 Pls
1225 898 Pls
1225 948 Pls
1225 1024 Pls
1225 861 Pls
1225 892 Pls
1225 928 Pls
1225 934 Pls
1225 843 Pls
1225 857 Pls
1225 885 Pls
1225 905 Pls
1225 930 Pls
1225 1009 Pls
1225 1046 Pls
1225 1100 Pls
1225 1072 Pls
1225 1140 Pls
1225 1177 Pls
1225 1243 Pls
1225 1190 Pls
1225 1254 Pls
1225 1339 Pls
1225 1353 Pls
1225 1370 Pls
1225 1382 Pls
1225 1509 Pls
1225 1532 Pls
1225 1410 Pls
1225 1639 Pls
1225 1658 Pls
1225 1583 Pls
1225 1088 Pls
1225 1164 Pls
1225 1295 Pls
1225 1501 Pls
1225 1012 Pls
1225 1104 Pls
1225 1294 Pls
1225 1377 Pls
1225 995 Pls
1225 1000 Pls
1225 1148 Pls
1225 1221 Pls
1225 1008 Pls
1225 1004 Pls
1225 1090 Pls
1225 1146 Pls
1225 893 Pls
1225 953 Pls
1225 1005 Pls
1225 1086 Pls
1225 1425 Pls
1225 1621 Pls
1225 1811 Pls
1225 1815 Pls
1225 1925 Pls
1225 2213 Pls
1225 2393 Pls
1225 2617 Pls
1225 2503 Pls
1225 2879 Pls
1225 2885 Pls
1225 3140 Pls
1225 3101 Pls
1225 3598 Pls
1225 3451 Pls
1225 3900 Pls
1225 3876 Pls
1225 3865 Pls
1225 4548 Pls
1225 4679 Pls
1916 801 Pls
1916 802 Pls
1916 803 Pls
1916 805 Pls
1916 801 Pls
1916 802 Pls
1916 803 Pls
1916 804 Pls
1916 801 Pls
1916 801 Pls
1916 802 Pls
1916 804 Pls
1916 801 Pls
1916 801 Pls
1916 802 Pls
1916 803 Pls
1916 801 Pls
1916 801 Pls
1916 801 Pls
1916 802 Pls
1916 801 Pls
1916 801 Pls
1916 802 Pls
1916 802 Pls
1916 801 Pls
1916 802 Pls
1916 802 Pls
1916 803 Pls
1916 802 Pls
1916 802 Pls
1916 803 Pls
1916 803 Pls
1916 802 Pls
1916 802 Pls
1916 803 Pls
1916 803 Pls
1916 802 Pls
1916 803 Pls
1916 803 Pls
1916 804 Pls
1916 812 Pls
1916 815 Pls
1916 824 Pls
1916 830 Pls
1916 812 Pls
1916 815 Pls
1916 817 Pls
1916 827 Pls
1916 807 Pls
1916 810 Pls
1916 816 Pls
1916 822 Pls
1916 806 Pls
1916 808 Pls
1916 813 Pls
1916 818 Pls
1916 805 Pls
1916 806 Pls
1916 811 Pls
1916 813 Pls
1916 811 Pls
1916 815 Pls
1916 820 Pls
1916 822 Pls
1916 820 Pls
1916 820 Pls
1916 824 Pls
1916 830 Pls
1916 822 Pls
1916 826 Pls
1916 831 Pls
1916 837 Pls
1916 830 Pls
1916 835 Pls
1916 840 Pls
1916 844 Pls
1916 836 Pls
1916 843 Pls
1916 849 Pls
1916 853 Pls
1916 860 Pls
1916 871 Pls
1916 864 Pls
1916 911 Pls
1916 831 Pls
1916 845 Pls
1916 852 Pls
1916 889 Pls
1916 827 Pls
1916 840 Pls
1916 844 Pls
1916 864 Pls
1916 820 Pls
1916 831 Pls
1916 837 Pls
1916 847 Pls
1916 812 Pls
1916 824 Pls
1916 829 Pls
1916 840 Pls
1916 840 Pls
1916 853 Pls
1916 872 Pls
1916 884 Pls
1916 881 Pls
1916 888 Pls
1916 903 Pls
1916 922 Pls
1916 910 Pls
1916 934 Pls
1916 938 Pls
1916 964 Pls
1916 940 Pls
1916 976 Pls
1916 988 Pls
1916 1009 Pls
1916 1004 Pls
1916 1016 Pls
1916 1035 Pls
1916 1057 Pls
1916 949 Pls
1916 987 Pls
1916 1046 Pls
1916 1159 Pls
1916 883 Pls
1916 946 Pls
1916 978 Pls
1916 1085 Pls
1916 894 Pls
1916 926 Pls
1916 949 Pls
1916 993 Pls
1916 880 Pls
1916 876 Pls
1916 914 Pls
1916 943 Pls
1916 842 Pls
1916 853 Pls
1916 879 Pls
1916 902 Pls
1916 952 Pls
1916 1003 Pls
1916 1057 Pls
1916 1075 Pls
1916 1076 Pls
1916 1152 Pls
1916 1147 Pls
1916 1232 Pls
1916 1224 Pls
1916 1298 Pls
1916 1331 Pls
1916 1406 Pls
1916 1333 Pls
1916 1384 Pls
1916 1507 Pls
1916 1548 Pls
1916 1504 Pls
1916 1574 Pls
1916 1672 Pls
1916 1740 Pls
1916 1080 Pls
1916 1151 Pls
1916 1269 Pls
1916 1473 Pls
1916 1041 Pls
1916 1144 Pls
1916 1194 Pls
1916 1397 Pls
1916 1002 Pls
1916 1098 Pls
1916 1130 Pls
1916 1247 Pls
1916 963 Pls
1916 982 Pls
1916 1063 Pls
1916 1191 Pls
1916 913 Pls
1916 913 Pls
1916 998 Pls
1916 1072 Pls
1916 1385 Pls
1916 1554 Pls
1916 1700 Pls
1916 1879 Pls
1916 1878 Pls
1916 2179 Pls
1916 2230 Pls
1916 2361 Pls
1916 2596 Pls
1916 2726 Pls
1916 2963 Pls
1916 3155 Pls
1916 2985 Pls
1916 3324 Pls
1916 3485 Pls
1916 3960 Pls
1916 3965 Pls
1916 4134 Pls
1916 4472 Pls
1916 4586 Pls
2606 803 Pls
2606 802 Pls
2606 804 Pls
2606 805 Pls
2606 801 Pls
2606 801 Pls
2606 803 Pls
2606 804 Pls
2606 801 Pls
2606 801 Pls
2606 802 Pls
2606 804 Pls
2606 801 Pls
2606 801 Pls
2606 802 Pls
2606 803 Pls
2606 800 Pls
2606 801 Pls
2606 802 Pls
2606 802 Pls
2606 801 Pls
2606 801 Pls
2606 802 Pls
2606 802 Pls
2606 801 Pls
2606 802 Pls
2606 802 Pls
2606 802 Pls
2606 802 Pls
2606 802 Pls
2606 802 Pls
2606 803 Pls
2606 802 Pls
2606 802 Pls
2606 803 Pls
2606 803 Pls
2606 802 Pls
2606 803 Pls
2606 803 Pls
2606 804 Pls
2606 812 Pls
2606 813 Pls
2606 821 Pls
2606 827 Pls
2606 812 Pls
2606 814 Pls
2606 817 Pls
2606 823 Pls
2606 808 Pls
2606 810 Pls
2606 815 Pls
2606 822 Pls
2606 806 Pls
2606 808 Pls
2606 811 Pls
2606 817 Pls
2606 805 Pls
2606 808 Pls
2606 811 Pls
2606 816 Pls
2606 813 Pls
2606 815 Pls
2606 818 Pls
2606 823 Pls
2606 817 Pls
2606 822 Pls
2606 824 Pls
2606 829 Pls
2606 824 Pls
2606 829 Pls
2606 834 Pls
2606 836 Pls
2606 830 Pls
2606 836 Pls
2606 838 Pls
2606 845 Pls
2606 839 Pls
2606 844 Pls
2606 849 Pls
2606 853 Pls
2606 843 Pls
2606 850 Pls
2606 877 Pls
2606 914 Pls
2606 830 Pls
2606 847 Pls
2606 866 Pls
2606 878 Pls
2606 825 Pls
2606 833 Pls
2606 842 Pls
2606 864 Pls
2606 822 Pls
2606 834 Pls
2606 840 Pls
2606 852 Pls
2606 817 Pls
2606 824 Pls
2606 830 Pls
2606 840 Pls
2606 849 Pls
2606 864 Pls
2606 875 Pls
2606 892 Pls
2606 886 Pls
2606 896 Pls
2606 920 Pls
2606 931 Pls
2606 916 Pls
2606 936 Pls
2606 950 Pls
2606 958 Pls
2606 942 Pls
2606 978 Pls
2606 982 Pls
2606 1014 Pls
2606 988 Pls
2606 1014 Pls
2606 1035 Pls
2606 1049 Pls
2606 936 Pls
2606 951 Pls
2606 1103 Pls
2606 1156 Pls
2606 890 Pls
2606 954 Pls
2606 1012 Pls
2606 1089 Pls
2606 878 Pls
2606 922 Pls
2606 949 Pls
2606 1009 Pls
2606 844 Pls
2606 909 Pls
2606 905 Pls
2606 938 Pls
2606 858 Pls
2606 861 Pls
2606 888 Pls
2606 907 Pls
2606 960 Pls
2606 993 Pls
2606 1019 Pls
2606 1066 Pls
2606 1055 Pls
2606 1167 Pls
2606 1199 Pls
2606 1222 Pls
2606 1221 Pls
2606 1289 Pls
2606 1339 Pls
2606 1418 Pls
2606 1344 Pls
2606 1394 Pls
2606 1519 Pls
2606 1527 Pls
2606 1553 Pls
2606 1628 Pls
2606 1639 Pls
2606 1749 Pls
2606 1118 Pls
2606 1135 Pls
2606 1273 Pls
2606 1456 Pls
2606 984 Pls
2606 1066 Pls
2606 1219 Pls
2606 1375 Pls
2606 1007 Pls
2606 1084 Pls
2606 1142 Pls
2606 1240 Pls
2606 945 Pls
2606 1004 Pls
2606 1086 Pls
2606 1123 Pls
2606 954 Pls
2606 996 Pls
2606 1020 Pls
2606 1064 Pls
2606 1487 Pls
2606 1627 Pls
2606 1812 Pls
2606 1875 Pls
2606 1912 Pls
2606 2225 Pls
2606 2094 Pls
2606 2430 Pls
2606 2548 Pls
2606 2389 Pls
2606 3053 Pls
2606 3292 Pls
2606 3229 Pls
2606 3568 Pls
2606 3561 Pls
2606 3978 Pls
2606 3841 Pls
2606 4140 Pls
2606 4469 Pls
2606 4724 Pls
3297 801 Pls
3297 804 Pls
3297 804 Pls
3297 805 Pls
3297 801 Pls
3297 802 Pls
3297 803 Pls
3297 804 Pls
3297 801 Pls
3297 801 Pls
3297 802 Pls
3297 804 Pls
3297 801 Pls
3297 801 Pls
3297 802 Pls
3297 803 Pls
3297 801 Pls
3297 801 Pls
3297 802 Pls
3297 802 Pls
3297 801 Pls
3297 801 Pls
3297 802 Pls
3297 802 Pls
3297 801 Pls
3297 802 Pls
3297 802 Pls
3297 802 Pls
3297 801 Pls
3297 802 Pls
3297 803 Pls
3297 803 Pls
3297 802 Pls
3297 802 Pls
3297 803 Pls
3297 803 Pls
3297 802 Pls
3297 803 Pls
3297 803 Pls
3297 804 Pls
3297 812 Pls
3297 817 Pls
3297 823 Pls
3297 826 Pls
3297 811 Pls
3297 814 Pls
3297 818 Pls
3297 824 Pls
3297 807 Pls
3297 812 Pls
3297 813 Pls
3297 821 Pls
3297 806 Pls
3297 808 Pls
3297 812 Pls
3297 818 Pls
3297 804 Pls
3297 807 Pls
3297 810 Pls
3297 813 Pls
3297 811 Pls
3297 814 Pls
3297 819 Pls
3297 823 Pls
3297 817 Pls
3297 821 Pls
3297 824 Pls
3297 830 Pls
3297 823 Pls
3297 828 Pls
3297 832 Pls
3297 839 Pls
3297 827 Pls
3297 838 Pls
3297 840 Pls
3297 844 Pls
3297 835 Pls
3297 842 Pls
3297 846 Pls
3297 853 Pls
3297 838 Pls
3297 856 Pls
3297 888 Pls
3297 903 Pls
3297 838 Pls
3297 847 Pls
3297 859 Pls
3297 880 Pls
3297 830 Pls
3297 842 Pls
3297 848 Pls
3297 861 Pls
3297 822 Pls
3297 825 Pls
3297 838 Pls
3297 846 Pls
3297 819 Pls
3297 820 Pls
3297 826 Pls
3297 844 Pls
3297 849 Pls
3297 864 Pls
3297 881 Pls
3297 895 Pls
3297 875 Pls
3297 894 Pls
3297 915 Pls
3297 928 Pls
3297 908 Pls
3297 934 Pls
3297 939 Pls
3297 951 Pls
3297 947 Pls
3297 968 Pls
3297 997 Pls
3297 998 Pls
3297 995 Pls
3297 996 Pls
3297 1042 Pls
3297 1050 Pls
3297 969 Pls
3297 982 Pls
3297 1047 Pls
3297 1136 Pls
3297 913 Pls
3297 945 Pls
3297 998 Pls
3297 1100 Pls
3297 873 Pls
3297 905 Pls
3297 975 Pls
3297 991 Pls
3297 867 Pls
3297 891 Pls
3297 908 Pls
3297 938 Pls
3297 848 Pls
3297 869 Pls
3297 872 Pls
3297 905 Pls
3297 982 Pls
3297 1000 Pls
3297 1018 Pls
3297 1047 Pls
3297 1037 Pls
3297 1149 Pls
3297 1228 Pls
3297 1231 Pls
3297 1219 Pls
3297 1262 Pls
3297 1341 Pls
3297 1349 Pls
3297 1395 Pls
3297 1428 Pls
3297 1502 Pls
3297 1508 Pls
3297 1547 Pls
3297 1640 Pls
3297 1628 Pls
3297 1734 Pls
3297 1068 Pls
3297 1167 Pls
3297 1264 Pls
3297 1493 Pls
3297 1005 Pls
3297 1083 Pls
3297 1157 Pls
3297 1401 Pls
3297 960 Pls
3297 1052 Pls
3297 1154 Pls
3297 1267 Pls
3297 951 Pls
3297 1021 Pls
3297 1078 Pls
3297 1177 Pls
3297 931 Pls
3297 926 Pls
3297 997 Pls
3297 1058 Pls
3297 1400 Pls
3297 1578 Pls
3297 1750 Pls
3297 1869 Pls
3297 1791 Pls
3297 2056 Pls
3297 2321 Pls
3297 2337 Pls
3297 2605 Pls
3297 2817 Pls
3297 3080 Pls
3297 2985 Pls
3297 3102 Pls
3297 3287 Pls
3297 3802 Pls
3297 3790 Pls
3297 3860 Pls
3297 4246 Pls
3297 4155 Pls
3297 4553 Pls
3987 801 Pls
3987 802 Pls
3987 803 Pls
3987 805 Pls
3987 801 Pls
3987 802 Pls
3987 803 Pls
3987 804 Pls
3987 801 Pls
3987 801 Pls
3987 802 Pls
3987 804 Pls
3987 801 Pls
3987 801 Pls
3987 802 Pls
3987 803 Pls
3987 801 Pls
3987 801 Pls
3987 801 Pls
3987 802 Pls
3987 801 Pls
3987 801 Pls
3987 802 Pls
3987 802 Pls
3987 801 Pls
3987 802 Pls
3987 802 Pls
3987 802 Pls
3987 802 Pls
3987 802 Pls
3987 802 Pls
3987 803 Pls
3987 802 Pls
3987 802 Pls
3987 803 Pls
3987 803 Pls
3987 802 Pls
3987 803 Pls
3987 803 Pls
3987 804 Pls
3987 812 Pls
3987 813 Pls
3987 818 Pls
3987 825 Pls
3987 807 Pls
3987 811 Pls
3987 816 Pls
3987 823 Pls
3987 810 Pls
3987 811 Pls
3987 818 Pls
3987 819 Pls
3987 806 Pls
3987 808 Pls
3987 811 Pls
3987 819 Pls
3987 805 Pls
3987 807 Pls
3987 809 Pls
3987 814 Pls
3987 812 Pls
3987 818 Pls
3987 818 Pls
3987 824 Pls
3987 816 Pls
3987 822 Pls
3987 827 Pls
3987 830 Pls
3987 823 Pls
3987 831 Pls
3987 833 Pls
3987 838 Pls
3987 829 Pls
3987 835 Pls
3987 842 Pls
3987 843 Pls
3987 839 Pls
3987 845 Pls
3987 848 Pls
3987 852 Pls
3987 852 Pls
3987 869 Pls
3987 885 Pls
3987 901 Pls
3987 839 Pls
3987 841 Pls
3987 855 Pls
3987 888 Pls
3987 829 Pls
3987 838 Pls
3987 843 Pls
3987 873 Pls
3987 819 Pls
3987 831 Pls
3987 839 Pls
3987 858 Pls
3987 818 Pls
3987 822 Pls
3987 833 Pls
3987 843 Pls
3987 847 Pls
3987 865 Pls
3987 878 Pls
3987 888 Pls
3987 879 Pls
3987 899 Pls
3987 902 Pls
3987 922 Pls
3987 907 Pls
3987 934 Pls
3987 951 Pls
3987 965 Pls
3987 957 Pls
3987 976 Pls
3987 986 Pls
3987 1013 Pls
3987 999 Pls
3987 1016 Pls
3987 1033 Pls
3987 1060 Pls
3987 936 Pls
3987 1005 Pls
3987 1053 Pls
3987 1089 Pls
3987 898 Pls
3987 991 Pls
3987 997 Pls
3987 1045 Pls
3987 879 Pls
3987 897 Pls
3987 961 Pls
3987 1015 Pls
3987 862 Pls
3987 875 Pls
3987 918 Pls
3987 938 Pls
3987 850 Pls
3987 868 Pls
3987 871 Pls
3987 911 Pls
3987 951 Pls
3987 986 Pls
3987 1032 Pls
3987 1068 Pls
3987 1068 Pls
3987 1138 Pls
3987 1175 Pls
3987 1196 Pls
3987 1220 Pls
3987 1258 Pls
3987 1326 Pls
3987 1329 Pls
3987 1333 Pls
3987 1424 Pls
3987 1509 Pls
3987 1513 Pls
3987 1509 Pls
3987 1618 Pls
3987 1683 Pls
3987 1713 Pls
3987 1093 Pls
3987 1141 Pls
3987 1388 Pls
3987 1451 Pls
3987 1055 Pls
3987 1094 Pls
3987 1235 Pls
3987 1393 Pls
3987 1078 Pls
3987 1024 Pls
3987 1117 Pls
3987 1281 Pls
3987 963 Pls
3987 1025 Pls
3987 1078 Pls
3987 1162 Pls
3987 899 Pls
3987 975 Pls
3987 1017 Pls
3987 1056 Pls
3987 1389 Pls
3987 1598 Pls
3987 1689 Pls
3987 1862 Pls
3987 1891 Pls
3987 2112 Pls
3987 2285 Pls
3987 2473 Pls
3987 2610 Pls
3987 2834 Pls
3987 3033 Pls
3987 3137 Pls
3987 3022 Pls
3987 3556 Pls
3987 3600 Pls
3987 3755 Pls
3987 3735 Pls
3987 4268 Pls
3987 4452 Pls
3987 4540 Pls
4678 801 Pls
4678 802 Pls
4678 803 Pls
4678 805 Pls
4678 801 Pls
4678 802 Pls
4678 803 Pls
4678 804 Pls
4678 801 Pls
4678 801 Pls
4678 802 Pls
4678 803 Pls
4678 801 Pls
4678 801 Pls
4678 802 Pls
4678 803 Pls
4678 801 Pls
4678 801 Pls
4678 802 Pls
4678 802 Pls
4678 801 Pls
4678 801 Pls
4678 802 Pls
4678 802 Pls
4678 801 Pls
4678 802 Pls
4678 802 Pls
4678 802 Pls
4678 802 Pls
4678 802 Pls
4678 803 Pls
4678 803 Pls
4678 802 Pls
4678 802 Pls
4678 803 Pls
4678 803 Pls
4678 802 Pls
4678 803 Pls
4678 803 Pls
4678 804 Pls
4678 812 Pls
4678 813 Pls
4678 823 Pls
4678 828 Pls
4678 811 Pls
4678 814 Pls
4678 818 Pls
4678 824 Pls
4678 807 Pls
4678 811 Pls
4678 817 Pls
4678 819 Pls
4678 807 Pls
4678 809 Pls
4678 812 Pls
4678 817 Pls
4678 804 Pls
4678 808 Pls
4678 813 Pls
4678 813 Pls
4678 810 Pls
4678 815 Pls
4678 820 Pls
4678 823 Pls
4678 816 Pls
4678 822 Pls
4678 827 Pls
4678 828 Pls
4678 822 Pls
4678 827 Pls
4678 832 Pls
4678 835 Pls
4678 829 Pls
4678 836 Pls
4678 840 Pls
4678 844 Pls
4678 836 Pls
4678 845 Pls
4678 847 Pls
4678 852 Pls
4678 851 Pls
4678 859 Pls
4678 889 Pls
4678 887 Pls
4678 831 Pls
4678 849 Pls
4678 877 Pls
4678 880 Pls
4678 824 Pls
4678 829 Pls
4678 843 Pls
4678 857 Pls
4678 823 Pls
4678 822 Pls
4678 837 Pls
4678 851 Pls
4678 818 Pls
4678 822 Pls
4678 825 Pls
4678 844 Pls
4678 847 Pls
4678 857 Pls
4678 874 Pls
4678 890 Pls
4678 894 Pls
4678 899 Pls
4678 915 Pls
4678 930 Pls
4678 908 Pls
4678 932 Pls
4678 945 Pls
4678 956 Pls
4678 958 Pls
4678 958 Pls
4678 997 Pls
4678 1001 Pls
4678 987 Pls
4678 1013 Pls
4678 1032 Pls
4678 1058 Pls
4678 927 Pls
4678 965 Pls
4678 1072 Pls
4678 1163 Pls
4678 909 Pls
4678 896 Pls
4678 1010 Pls
4678 1060 Pls
4678 893 Pls
4678 931 Pls
4678 971 Pls
4678 1010 Pls
4678 862 Pls
4678 873 Pls
4678 927 Pls
4678 952 Pls
4678 842 Pls
4678 858 Pls
4678 889 Pls
4678 902 Pls
4678 946 Pls
4678 1017 Pls
4678 1034 Pls
4678 1104 Pls
4678 1053 Pls
4678 1132 Pls
4678 1162 Pls
4678 1234 Pls
4678 1211 Pls
4678 1252 Pls
4678 1340 Pls
4678 1383 Pls
4678 1296 Pls
4678 1460 Pls
4678 1509 Pls
4678 1514 Pls
4678 1446 Pls
4678 1629 Pls
4678 1677 Pls
4678 1716 Pls
4678 1008 Pls
4678 1129 Pls
4678 1314 Pls
4678 1482 Pls
4678 1068 Pls
4678 1144 Pls
4678 1193 Pls
4678 1377 Pls
4678 1018 Pls
4678 1067 Pls
4678 1084 Pls
4678 1258 Pls
4678 909 Pls
4678 1013 Pls
4678 1072 Pls
4678 1182 Pls
4678 963 Pls
4678 987 Pls
4678 990 Pls
4678 1053 Pls
4678 1462 Pls
4678 1518 Pls
4678 1645 Pls
4678 1835 Pls
4678 1852 Pls
4678 2103 Pls
4678 2328 Pls
4678 2604 Pls
4678 2370 Pls
4678 2843 Pls
4678 3027 Pls
4678 3210 Pls
4678 3067 Pls
4678 3525 Pls
4678 3687 Pls
4678 3863 Pls
4678 3431 Pls
4678 4041 Pls
4678 4233 Pls
4678 4715 Pls
5368 801 Pls
5368 804 Pls
5368 803 Pls
5368 805 Pls
5368 801 Pls
5368 802 Pls
5368 803 Pls
5368 804 Pls
5368 801 Pls
5368 801 Pls
5368 802 Pls
5368 803 Pls
5368 801 Pls
5368 801 Pls
5368 802 Pls
5368 803 Pls
5368 801 Pls
5368 801 Pls
5368 802 Pls
5368 802 Pls
5368 801 Pls
5368 801 Pls
5368 802 Pls
5368 802 Pls
5368 801 Pls
5368 801 Pls
5368 802 Pls
5368 802 Pls
5368 801 Pls
5368 802 Pls
5368 802 Pls
5368 803 Pls
5368 802 Pls
5368 802 Pls
5368 803 Pls
5368 803 Pls
5368 802 Pls
5368 803 Pls
5368 803 Pls
5368 804 Pls
5368 814 Pls
5368 816 Pls
5368 823 Pls
5368 828 Pls
5368 809 Pls
5368 814 Pls
5368 819 Pls
5368 826 Pls
5368 808 Pls
5368 812 Pls
5368 813 Pls
5368 821 Pls
5368 806 Pls
5368 810 Pls
5368 814 Pls
5368 816 Pls
5368 805 Pls
5368 806 Pls
5368 810 Pls
5368 815 Pls
5368 810 Pls
5368 814 Pls
5368 821 Pls
5368 821 Pls
5368 814 Pls
5368 821 Pls
5368 826 Pls
5368 829 Pls
5368 824 Pls
5368 829 Pls
5368 833 Pls
5368 835 Pls
5368 829 Pls
5368 837 Pls
5368 844 Pls
5368 846 Pls
5368 839 Pls
5368 843 Pls
5368 849 Pls
5368 853 Pls
5368 850 Pls
5368 845 Pls
5368 880 Pls
5368 911 Pls
5368 833 Pls
5368 842 Pls
5368 867 Pls
5368 889 Pls
5368 826 Pls
5368 835 Pls
5368 851 Pls
5368 865 Pls
5368 823 Pls
5368 829 Pls
5368 838 Pls
5368 853 Pls
5368 816 Pls
5368 825 Pls
5368 830 Pls
5368 841 Pls
5368 855 Pls
5368 875 Pls
5368 873 Pls
5368 892 Pls
5368 880 Pls
5368 897 Pls
5368 912 Pls
5368 920 Pls
5368 917 Pls
5368 935 Pls
5368 939 Pls
5368 968 Pls
5368 952 Pls
5368 980 Pls
5368 988 Pls
5368 1007 Pls
5368 979 Pls
5368 1026 Pls
5368 1037 Pls
5368 1059 Pls
5368 960 Pls
5368 989 Pls
5368 1032 Pls
5368 1164 Pls
5368 904 Pls
5368 922 Pls
5368 973 Pls
5368 1083 Pls
5368 863 Pls
5368 883 Pls
5368 956 Pls
5368 1003 Pls
5368 862 Pls
5368 875 Pls
5368 919 Pls
5368 936 Pls
5368 849 Pls
5368 865 Pls
5368 880 Pls
5368 908 Pls
5368 966 Pls
5368 1018 Pls
5368 1051 Pls
5368 1065 Pls
5368 1094 Pls
5368 1155 Pls
5368 1196 Pls
5368 1212 Pls
5368 1210 Pls
5368 1265 Pls
5368 1338 Pls
5368 1366 Pls
5368 1391 Pls
5368 1467 Pls
5368 1476 Pls
5368 1542 Pls
5368 1562 Pls
5368 1596 Pls
5368 1676 Pls
5368 1583 Pls
5368 1101 Pls
5368 1180 Pls
5368 1290 Pls
5368 1408 Pls
5368 982 Pls
5368 1166 Pls
5368 1276 Pls
5368 1336 Pls
5368 972 Pls
5368 1043 Pls
5368 1177 Pls
5368 1263 Pls
5368 1004 Pls
5368 964 Pls
5368 1080 Pls
5368 1185 Pls
5368 926 Pls
5368 913 Pls
5368 1015 Pls
5368 1070 Pls
5368 1362 Pls
5368 1554 Pls
5368 1774 Pls
5368 1821 Pls
5368 1911 Pls
5368 2109 Pls
5368 2348 Pls
5368 2491 Pls
5368 2467 Pls
5368 2875 Pls
5368 3047 Pls
5368 3149 Pls
5368 3039 Pls
5368 3341 Pls
5368 3745 Pls
5368 3813 Pls
5368 3918 Pls
5368 4369 Pls
5368 4182 Pls
5368 4642 Pls
6059 801 Pls
6059 802 Pls
6059 803 Pls
6059 805 Pls
6059 801 Pls
6059 802 Pls
6059 803 Pls
6059 804 Pls
6059 801 Pls
6059 801 Pls
6059 802 Pls
6059 803 Pls
6059 801 Pls
6059 801 Pls
6059 802 Pls
6059 803 Pls
6059 800 Pls
6059 801 Pls
6059 802 Pls
6059 802 Pls
6059 801 Pls
6059 801 Pls
6059 802 Pls
6059 802 Pls
6059 801 Pls
6059 802 Pls
6059 802 Pls
6059 802 Pls
6059 801 Pls
6059 802 Pls
6059 802 Pls
6059 803 Pls
6059 802 Pls
6059 802 Pls
6059 803 Pls
6059 803 Pls
6059 802 Pls
6059 802 Pls
6059 803 Pls
6059 804 Pls
6059 815 Pls
6059 815 Pls
6059 826 Pls
6059 829 Pls
6059 810 Pls
6059 813 Pls
6059 820 Pls
6059 824 Pls
6059 808 Pls
6059 810 Pls
6059 815 Pls
6059 819 Pls
6059 806 Pls
6059 808 Pls
6059 813 Pls
6059 818 Pls
6059 805 Pls
6059 807 Pls
6059 809 Pls
6059 815 Pls
6059 811 Pls
6059 816 Pls
6059 820 Pls
6059 822 Pls
6059 817 Pls
6059 820 Pls
6059 826 Pls
6059 831 Pls
6059 825 Pls
6059 827 Pls
6059 832 Pls
6059 836 Pls
6059 830 Pls
6059 836 Pls
6059 839 Pls
6059 847 Pls
6059 835 Pls
6059 845 Pls
6059 849 Pls
6059 856 Pls
6059 839 Pls
6059 857 Pls
6059 883 Pls
6059 908 Pls
6059 838 Pls
6059 850 Pls
6059 861 Pls
6059 880 Pls
6059 828 Pls
6059 840 Pls
6059 845 Pls
6059 859 Pls
6059 819 Pls
6059 829 Pls
6059 835 Pls
6059 855 Pls
6059 818 Pls
6059 821 Pls
6059 832 Pls
6059 838 Pls
6059 844 Pls
6059 865 Pls
6059 878 Pls
6059 889 Pls
6059 877 Pls
6059 897 Pls
6059 909 Pls
6059 927 Pls
6059 913 Pls
6059 926 Pls
6059 952 Pls
6059 959 Pls
6059 951 Pls
6059 974 Pls
6059 988 Pls
6059 1002 Pls
6059 983 Pls
6059 1021 Pls
6059 1041 Pls
6059 1044 Pls
6059 927 Pls
6059 980 Pls
6059 1060 Pls
6059 1132 Pls
6059 953 Pls
6059 935 Pls
6059 998 Pls
6059 1086 Pls
6059 908 Pls
6059 901 Pls
6059 952 Pls
6059 1029 Pls
6059 850 Pls
6059 873 Pls
6059 914 Pls
6059 935 Pls
6059 852 Pls
6059 839 Pls
6059 869 Pls
6059 897 Pls
6059 968 Pls
6059 1017 Pls
6059 1067 Pls
6059 1086 Pls
6059 1098 Pls
6059 1147 Pls
6059 1210 Pls
6059 1239 Pls
6059 1186 Pls
6059 1244 Pls
6059 1333 Pls
6059 1336 Pls
6059 1347 Pls
6059 1391 Pls
6059 1455 Pls
6059 1557 Pls
6059 1538 Pls
6059 1482 Pls
6059 1680 Pls
6059 1666 Pls
6059 1072 Pls
6059 1168 Pls
6059 1331 Pls
6059 1437 Pls
6059 1051 Pls
6059 1081 Pls
6059 1171 Pls
6059 1333 Pls
6059 979 Pls
6059 1048 Pls
6059 1129 Pls
6059 1277 Pls
6059 960 Pls
6059 985 Pls
6059 1075 Pls
6059 1136 Pls
6059 912 Pls
6059 898 Pls
6059 1037 Pls
6059 1065 Pls
6059 1464 Pls
6059 1556 Pls
6059 1705 Pls
6059 1852 Pls
6059 1827 Pls
6059 2204 Pls
6059 2258 Pls
6059 2497 Pls
6059 2543 Pls
6059 2886 Pls
6059 3071 Pls
6059 2888 Pls
6059 3149 Pls
6059 3401 Pls
6059 3667 Pls
6059 3826 Pls
6059 3561 Pls
6059 4122 Pls
6059 4455 Pls
6059 4354 Pls
6749 801 Pls
6749 802 Pls
6749 803 Pls
6749 805 Pls
6749 801 Pls
6749 802 Pls
6749 803 Pls
6749 805 Pls
6749 801 Pls
6749 802 Pls
6749 802 Pls
6749 804 Pls
6749 801 Pls
6749 801 Pls
6749 802 Pls
6749 803 Pls
6749 801 Pls
6749 801 Pls
6749 801 Pls
6749 802 Pls
6749 801 Pls
6749 801 Pls
6749 802 Pls
6749 802 Pls
6749 801 Pls
6749 802 Pls
6749 802 Pls
6749 802 Pls
6749 801 Pls
6749 802 Pls
6749 803 Pls
6749 803 Pls
6749 802 Pls
6749 802 Pls
6749 803 Pls
6749 803 Pls
6749 802 Pls
6749 803 Pls
6749 803 Pls
6749 804 Pls
6749 816 Pls
6749 817 Pls
6749 822 Pls
6749 827 Pls
6749 809 Pls
6749 815 Pls
6749 820 Pls
6749 825 Pls
6749 807 Pls
6749 812 Pls
6749 814 Pls
6749 820 Pls
6749 805 Pls
6749 809 Pls
6749 812 Pls
6749 816 Pls
6749 805 Pls
6749 807 Pls
6749 811 Pls
6749 814 Pls
6749 810 Pls
6749 814 Pls
6749 822 Pls
6749 824 Pls
6749 817 Pls
6749 824 Pls
6749 824 Pls
6749 829 Pls
6749 824 Pls
6749 828 Pls
6749 833 Pls
6749 837 Pls
6749 829 Pls
6749 836 Pls
6749 841 Pls
6749 845 Pls
6749 840 Pls
6749 847 Pls
6749 849 Pls
6749 852 Pls
6749 842 Pls
6749 866 Pls
6749 878 Pls
6749 907 Pls
6749 838 Pls
6749 845 Pls
6749 855 Pls
6749 871 Pls
6749 829 Pls
6749 832 Pls
6749 852 Pls
6749 863 Pls
6749 814 Pls
6749 830 Pls
6749 832 Pls
6749 850 Pls
6749 814 Pls
6749 829 Pls
6749 829 Pls
6749 841 Pls
6749 845 Pls
6749 863 Pls
6749 876 Pls
6749 890 Pls
6749 871 Pls
6749 891 Pls
6749 907 Pls
6749 922 Pls
6749 899 Pls
6749 940 Pls
6749 951 Pls
6749 967 Pls
6749 953 Pls
6749 974 Pls
6749 995 Pls
6749 1014 Pls
6749 999 Pls
6749 1026 Pls
6749 1029 Pls
6749 1048 Pls
6749 955 Pls
6749 971 Pls
6749 1048 Pls
6749 1160 Pls
6749 901 Pls
6749 938 Pls
6749 1010 Pls
6749 1067 Pls
6749 888 Pls
6749 907 Pls
6749 931 Pls
6749 994 Pls
6749 854 Pls
6749 873 Pls
6749 921 Pls
6749 944 Pls
6749 839 Pls
6749 852 Pls
6749 873 Pls
6749 893 Pls
6749 950 Pls
6749 1028 Pls
6749 1081 Pls
6749 1083 Pls
6749 1059 Pls
6749 1131 Pls
6749 1199 Pls
6749 1277 Pls
6749 1172 Pls
6749 1269 Pls
6749 1314 Pls
6749 1424 Pls
6749 1352 Pls
6749 1406 Pls
6749 1431 Pls
6749 1555 Pls
6749 1481 Pls
6749 1629 Pls
6749 1648 Pls
6749 1721 Pls
6749 1097 Pls
6749 1196 Pls
6749 1292 Pls
6749 1433 Pls
6749 1032 Pls
6749 1088 Pls
6749 1145 Pls
6749 1367 Pls
6749 996 Pls
6749 1021 Pls
6749 1165 Pls
6749 1209 Pls
6749 952 Pls
6749 988 Pls
6749 1047 Pls
6749 1207 Pls
6749 933 Pls
6749 982 Pls
6749 1023 Pls
6749 1051 Pls
6749 1429 Pls
6749 1547 Pls
6749 1847 Pls
6749 1975 Pls
6749 1985 Pls
6749 2135 Pls
6749 2331 Pls
6749 2438 Pls
6749 2190 Pls
6749 2835 Pls
6749 2944 Pls
6749 3143 Pls
6749 3101 Pls
6749 3414 Pls
6749 3698 Pls
6749 3934 Pls
6749 3953 Pls
6749 4217 Pls
6749 4536 Pls
6749 4683 Pls
% End plot #1
% Begin plot #2
8.000 UL
LT1
LCb setrgbcolor
5636 4551 M
[ [(Helvetica) 250.0 0.0 true true 0 (Average)]
] -83.3 MRshow
LT1
5786 4551 M
663 0 V
1225 1131 M
691 -3 V
690 5 V
691 -6 V
690 4 V
691 -4 V
690 4 V
691 -5 V
690 6 V
% End plot #2
% Begin plot #3
stroke
4.000 UL
LT2
LCb setrgbcolor
5636 4301 M
[ [(Helvetica) 250.0 0.0 true true 0 (Min)]
] -83.3 MRshow
LT2
5786 4301 M
663 0 V
1225 801 M
691 0 V
690 -1 V
691 1 V
690 0 V
691 0 V
690 0 V
691 -1 V
690 1 V
% End plot #3
% Begin plot #4
stroke
LT3
LCb setrgbcolor
5636 4051 M
[ [(Helvetica) 250.0 0.0 true true 0 (Max)]
] -83.3 MRshow
LT3
5786 4051 M
663 0 V
1225 4679 M
691 -93 V
690 138 V
691 -171 V
690 -13 V
691 175 V
690 -73 V
691 -187 V
690 228 V
% End plot #4
stroke
1.000 UL
LTb
1225 4739 N
0 -3939 V
5524 0 V
0 3939 V
-5524 0 V
Z stroke
1.000 UP
1.000 UL
LTb
stroke
grestore
end
showpage
%%Trailer
%%DocumentFonts: Helvetica
