%!PS-Adobe-2.0 EPSF-2.0
%%Title: r_alphabet_size_1000-precision.eps
%%Creator: gnuplot 4.4 patchlevel 3
%%CreationDate: Fri Jun 14 19:20:12 2013
%%DocumentFonts: (atend)
%%BoundingBox: 50 50 410 302
%%EndComments
%%BeginProlog
/gnudict 256 dict def
gnudict begin
%
% The following true/false flags may be edited by hand if desired.
% The unit line width and grayscale image gamma correction may also be changed.
%
/Color true def
/Blacktext false def
/Solid false def
/Dashlength 1 def
/Landscape false def
/Level1 false def
/Rounded false def
/ClipToBoundingBox false def
/TransparentPatterns false def
/gnulinewidth 5.000 def
/userlinewidth gnulinewidth def
/Gamma 1.0 def
%
/vshift -83 def
/dl1 {
  10.0 Dashlength mul mul
  Rounded { currentlinewidth 0.75 mul sub dup 0 le { pop 0.01 } if } if
} def
/dl2 {
  10.0 Dashlength mul mul
  Rounded { currentlinewidth 0.75 mul add } if
} def
/hpt_ 31.5 def
/vpt_ 31.5 def
/hpt hpt_ def
/vpt vpt_ def
Level1 {} {
/SDict 10 dict def
systemdict /pdfmark known not {
  userdict /pdfmark systemdict /cleartomark get put
} if
SDict begin [
  /Title (r_alphabet_size_1000-precision.eps)
  /Subject (gnuplot plot)
  /Creator (gnuplot 4.4 patchlevel 3)
  /Author (xjia)
%  /Producer (gnuplot)
%  /Keywords ()
  /CreationDate (Fri Jun 14 19:20:12 2013)
  /DOCINFO pdfmark
end
} ifelse
/doclip {
  ClipToBoundingBox {
    newpath 50 50 moveto 410 50 lineto 410 302 lineto 50 302 lineto closepath
    clip
  } if
} def
%
% Gnuplot Prolog Version 4.4 (August 2010)
%
%/SuppressPDFMark true def
%
/M {moveto} bind def
/L {lineto} bind def
/R {rmoveto} bind def
/V {rlineto} bind def
/N {newpath moveto} bind def
/Z {closepath} bind def
/C {setrgbcolor} bind def
/f {rlineto fill} bind def
/g {setgray} bind def
/Gshow {show} def   % May be redefined later in the file to support UTF-8
/vpt2 vpt 2 mul def
/hpt2 hpt 2 mul def
/Lshow {currentpoint stroke M 0 vshift R 
	Blacktext {gsave 0 setgray show grestore} {show} ifelse} def
/Rshow {currentpoint stroke M dup stringwidth pop neg vshift R
	Blacktext {gsave 0 setgray show grestore} {show} ifelse} def
/Cshow {currentpoint stroke M dup stringwidth pop -2 div vshift R 
	Blacktext {gsave 0 setgray show grestore} {show} ifelse} def
/UP {dup vpt_ mul /vpt exch def hpt_ mul /hpt exch def
  /hpt2 hpt 2 mul def /vpt2 vpt 2 mul def} def
/DL {Color {setrgbcolor Solid {pop []} if 0 setdash}
 {pop pop pop 0 setgray Solid {pop []} if 0 setdash} ifelse} def
/BL {stroke userlinewidth 2 mul setlinewidth
	Rounded {1 setlinejoin 1 setlinecap} if} def
/AL {stroke userlinewidth 2 div setlinewidth
	Rounded {1 setlinejoin 1 setlinecap} if} def
/UL {dup gnulinewidth mul /userlinewidth exch def
	dup 1 lt {pop 1} if 10 mul /udl exch def} def
/PL {stroke userlinewidth setlinewidth
	Rounded {1 setlinejoin 1 setlinecap} if} def
3.8 setmiterlimit
% Default Line colors
/LCw {1 1 1} def
/LCb {0 0 0} def
/LCa {0 0 0} def
/LC0 {1 0 0} def
/LC1 {0 1 0} def
/LC2 {0 0 1} def
/LC3 {1 0 1} def
/LC4 {0 1 1} def
/LC5 {1 1 0} def
/LC6 {0 0 0} def
/LC7 {1 0.3 0} def
/LC8 {0.5 0.5 0.5} def
% Default Line Types
/LTw {PL [] 1 setgray} def
/LTb {BL [] LCb DL} def
/LTa {AL [1 udl mul 2 udl mul] 0 setdash LCa setrgbcolor} def
/LT0 {PL [] LC0 DL} def
/LT1 {PL [4 dl1 2 dl2] LC1 DL} def
/LT2 {PL [2 dl1 3 dl2] LC2 DL} def
/LT3 {PL [1 dl1 1.5 dl2] LC3 DL} def
/LT4 {PL [6 dl1 2 dl2 1 dl1 2 dl2] LC4 DL} def
/LT5 {PL [3 dl1 3 dl2 1 dl1 3 dl2] LC5 DL} def
/LT6 {PL [2 dl1 2 dl2 2 dl1 6 dl2] LC6 DL} def
/LT7 {PL [1 dl1 2 dl2 6 dl1 2 dl2 1 dl1 2 dl2] LC7 DL} def
/LT8 {PL [2 dl1 2 dl2 2 dl1 2 dl2 2 dl1 2 dl2 2 dl1 4 dl2] LC8 DL} def
/Pnt {stroke [] 0 setdash gsave 1 setlinecap M 0 0 V stroke grestore} def
/Dia {stroke [] 0 setdash 2 copy vpt add M
  hpt neg vpt neg V hpt vpt neg V
  hpt vpt V hpt neg vpt V closepath stroke
  Pnt} def
/Pls {stroke [] 0 setdash vpt sub M 0 vpt2 V
  currentpoint stroke M
  hpt neg vpt neg R hpt2 0 V stroke
 } def
/Box {stroke [] 0 setdash 2 copy exch hpt sub exch vpt add M
  0 vpt2 neg V hpt2 0 V 0 vpt2 V
  hpt2 neg 0 V closepath stroke
  Pnt} def
/Crs {stroke [] 0 setdash exch hpt sub exch vpt add M
  hpt2 vpt2 neg V currentpoint stroke M
  hpt2 neg 0 R hpt2 vpt2 V stroke} def
/TriU {stroke [] 0 setdash 2 copy vpt 1.12 mul add M
  hpt neg vpt -1.62 mul V
  hpt 2 mul 0 V
  hpt neg vpt 1.62 mul V closepath stroke
  Pnt} def
/Star {2 copy Pls Crs} def
/BoxF {stroke [] 0 setdash exch hpt sub exch vpt add M
  0 vpt2 neg V hpt2 0 V 0 vpt2 V
  hpt2 neg 0 V closepath fill} def
/TriUF {stroke [] 0 setdash vpt 1.12 mul add M
  hpt neg vpt -1.62 mul V
  hpt 2 mul 0 V
  hpt neg vpt 1.62 mul V closepath fill} def
/TriD {stroke [] 0 setdash 2 copy vpt 1.12 mul sub M
  hpt neg vpt 1.62 mul V
  hpt 2 mul 0 V
  hpt neg vpt -1.62 mul V closepath stroke
  Pnt} def
/TriDF {stroke [] 0 setdash vpt 1.12 mul sub M
  hpt neg vpt 1.62 mul V
  hpt 2 mul 0 V
  hpt neg vpt -1.62 mul V closepath fill} def
/DiaF {stroke [] 0 setdash vpt add M
  hpt neg vpt neg V hpt vpt neg V
  hpt vpt V hpt neg vpt V closepath fill} def
/Pent {stroke [] 0 setdash 2 copy gsave
  translate 0 hpt M 4 {72 rotate 0 hpt L} repeat
  closepath stroke grestore Pnt} def
/PentF {stroke [] 0 setdash gsave
  translate 0 hpt M 4 {72 rotate 0 hpt L} repeat
  closepath fill grestore} def
/Circle {stroke [] 0 setdash 2 copy
  hpt 0 360 arc stroke Pnt} def
/CircleF {stroke [] 0 setdash hpt 0 360 arc fill} def
/C0 {BL [] 0 setdash 2 copy moveto vpt 90 450 arc} bind def
/C1 {BL [] 0 setdash 2 copy moveto
	2 copy vpt 0 90 arc closepath fill
	vpt 0 360 arc closepath} bind def
/C2 {BL [] 0 setdash 2 copy moveto
	2 copy vpt 90 180 arc closepath fill
	vpt 0 360 arc closepath} bind def
/C3 {BL [] 0 setdash 2 copy moveto
	2 copy vpt 0 180 arc closepath fill
	vpt 0 360 arc closepath} bind def
/C4 {BL [] 0 setdash 2 copy moveto
	2 copy vpt 180 270 arc closepath fill
	vpt 0 360 arc closepath} bind def
/C5 {BL [] 0 setdash 2 copy moveto
	2 copy vpt 0 90 arc
	2 copy moveto
	2 copy vpt 180 270 arc closepath fill
	vpt 0 360 arc} bind def
/C6 {BL [] 0 setdash 2 copy moveto
	2 copy vpt 90 270 arc closepath fill
	vpt 0 360 arc closepath} bind def
/C7 {BL [] 0 setdash 2 copy moveto
	2 copy vpt 0 270 arc closepath fill
	vpt 0 360 arc closepath} bind def
/C8 {BL [] 0 setdash 2 copy moveto
	2 copy vpt 270 360 arc closepath fill
	vpt 0 360 arc closepath} bind def
/C9 {BL [] 0 setdash 2 copy moveto
	2 copy vpt 270 450 arc closepath fill
	vpt 0 360 arc closepath} bind def
/C10 {BL [] 0 setdash 2 copy 2 copy moveto vpt 270 360 arc closepath fill
	2 copy moveto
	2 copy vpt 90 180 arc closepath fill
	vpt 0 360 arc closepath} bind def
/C11 {BL [] 0 setdash 2 copy moveto
	2 copy vpt 0 180 arc closepath fill
	2 copy moveto
	2 copy vpt 270 360 arc closepath fill
	vpt 0 360 arc closepath} bind def
/C12 {BL [] 0 setdash 2 copy moveto
	2 copy vpt 180 360 arc closepath fill
	vpt 0 360 arc closepath} bind def
/C13 {BL [] 0 setdash 2 copy moveto
	2 copy vpt 0 90 arc closepath fill
	2 copy moveto
	2 copy vpt 180 360 arc closepath fill
	vpt 0 360 arc closepath} bind def
/C14 {BL [] 0 setdash 2 copy moveto
	2 copy vpt 90 360 arc closepath fill
	vpt 0 360 arc} bind def
/C15 {BL [] 0 setdash 2 copy vpt 0 360 arc closepath fill
	vpt 0 360 arc closepath} bind def
/Rec {newpath 4 2 roll moveto 1 index 0 rlineto 0 exch rlineto
	neg 0 rlineto closepath} bind def
/Square {dup Rec} bind def
/Bsquare {vpt sub exch vpt sub exch vpt2 Square} bind def
/S0 {BL [] 0 setdash 2 copy moveto 0 vpt rlineto BL Bsquare} bind def
/S1 {BL [] 0 setdash 2 copy vpt Square fill Bsquare} bind def
/S2 {BL [] 0 setdash 2 copy exch vpt sub exch vpt Square fill Bsquare} bind def
/S3 {BL [] 0 setdash 2 copy exch vpt sub exch vpt2 vpt Rec fill Bsquare} bind def
/S4 {BL [] 0 setdash 2 copy exch vpt sub exch vpt sub vpt Square fill Bsquare} bind def
/S5 {BL [] 0 setdash 2 copy 2 copy vpt Square fill
	exch vpt sub exch vpt sub vpt Square fill Bsquare} bind def
/S6 {BL [] 0 setdash 2 copy exch vpt sub exch vpt sub vpt vpt2 Rec fill Bsquare} bind def
/S7 {BL [] 0 setdash 2 copy exch vpt sub exch vpt sub vpt vpt2 Rec fill
	2 copy vpt Square fill Bsquare} bind def
/S8 {BL [] 0 setdash 2 copy vpt sub vpt Square fill Bsquare} bind def
/S9 {BL [] 0 setdash 2 copy vpt sub vpt vpt2 Rec fill Bsquare} bind def
/S10 {BL [] 0 setdash 2 copy vpt sub vpt Square fill 2 copy exch vpt sub exch vpt Square fill
	Bsquare} bind def
/S11 {BL [] 0 setdash 2 copy vpt sub vpt Square fill 2 copy exch vpt sub exch vpt2 vpt Rec fill
	Bsquare} bind def
/S12 {BL [] 0 setdash 2 copy exch vpt sub exch vpt sub vpt2 vpt Rec fill Bsquare} bind def
/S13 {BL [] 0 setdash 2 copy exch vpt sub exch vpt sub vpt2 vpt Rec fill
	2 copy vpt Square fill Bsquare} bind def
/S14 {BL [] 0 setdash 2 copy exch vpt sub exch vpt sub vpt2 vpt Rec fill
	2 copy exch vpt sub exch vpt Square fill Bsquare} bind def
/S15 {BL [] 0 setdash 2 copy Bsquare fill Bsquare} bind def
/D0 {gsave translate 45 rotate 0 0 S0 stroke grestore} bind def
/D1 {gsave translate 45 rotate 0 0 S1 stroke grestore} bind def
/D2 {gsave translate 45 rotate 0 0 S2 stroke grestore} bind def
/D3 {gsave translate 45 rotate 0 0 S3 stroke grestore} bind def
/D4 {gsave translate 45 rotate 0 0 S4 stroke grestore} bind def
/D5 {gsave translate 45 rotate 0 0 S5 stroke grestore} bind def
/D6 {gsave translate 45 rotate 0 0 S6 stroke grestore} bind def
/D7 {gsave translate 45 rotate 0 0 S7 stroke grestore} bind def
/D8 {gsave translate 45 rotate 0 0 S8 stroke grestore} bind def
/D9 {gsave translate 45 rotate 0 0 S9 stroke grestore} bind def
/D10 {gsave translate 45 rotate 0 0 S10 stroke grestore} bind def
/D11 {gsave translate 45 rotate 0 0 S11 stroke grestore} bind def
/D12 {gsave translate 45 rotate 0 0 S12 stroke grestore} bind def
/D13 {gsave translate 45 rotate 0 0 S13 stroke grestore} bind def
/D14 {gsave translate 45 rotate 0 0 S14 stroke grestore} bind def
/D15 {gsave translate 45 rotate 0 0 S15 stroke grestore} bind def
/DiaE {stroke [] 0 setdash vpt add M
  hpt neg vpt neg V hpt vpt neg V
  hpt vpt V hpt neg vpt V closepath stroke} def
/BoxE {stroke [] 0 setdash exch hpt sub exch vpt add M
  0 vpt2 neg V hpt2 0 V 0 vpt2 V
  hpt2 neg 0 V closepath stroke} def
/TriUE {stroke [] 0 setdash vpt 1.12 mul add M
  hpt neg vpt -1.62 mul V
  hpt 2 mul 0 V
  hpt neg vpt 1.62 mul V closepath stroke} def
/TriDE {stroke [] 0 setdash vpt 1.12 mul sub M
  hpt neg vpt 1.62 mul V
  hpt 2 mul 0 V
  hpt neg vpt -1.62 mul V closepath stroke} def
/PentE {stroke [] 0 setdash gsave
  translate 0 hpt M 4 {72 rotate 0 hpt L} repeat
  closepath stroke grestore} def
/CircE {stroke [] 0 setdash 
  hpt 0 360 arc stroke} def
/Opaque {gsave closepath 1 setgray fill grestore 0 setgray closepath} def
/DiaW {stroke [] 0 setdash vpt add M
  hpt neg vpt neg V hpt vpt neg V
  hpt vpt V hpt neg vpt V Opaque stroke} def
/BoxW {stroke [] 0 setdash exch hpt sub exch vpt add M
  0 vpt2 neg V hpt2 0 V 0 vpt2 V
  hpt2 neg 0 V Opaque stroke} def
/TriUW {stroke [] 0 setdash vpt 1.12 mul add M
  hpt neg vpt -1.62 mul V
  hpt 2 mul 0 V
  hpt neg vpt 1.62 mul V Opaque stroke} def
/TriDW {stroke [] 0 setdash vpt 1.12 mul sub M
  hpt neg vpt 1.62 mul V
  hpt 2 mul 0 V
  hpt neg vpt -1.62 mul V Opaque stroke} def
/PentW {stroke [] 0 setdash gsave
  translate 0 hpt M 4 {72 rotate 0 hpt L} repeat
  Opaque stroke grestore} def
/CircW {stroke [] 0 setdash 
  hpt 0 360 arc Opaque stroke} def
/BoxFill {gsave Rec 1 setgray fill grestore} def
/Density {
  /Fillden exch def
  currentrgbcolor
  /ColB exch def /ColG exch def /ColR exch def
  /ColR ColR Fillden mul Fillden sub 1 add def
  /ColG ColG Fillden mul Fillden sub 1 add def
  /ColB ColB Fillden mul Fillden sub 1 add def
  ColR ColG ColB setrgbcolor} def
/BoxColFill {gsave Rec PolyFill} def
/PolyFill {gsave Density fill grestore grestore} def
/h {rlineto rlineto rlineto gsave closepath fill grestore} bind def
%
% PostScript Level 1 Pattern Fill routine for rectangles
% Usage: x y w h s a XX PatternFill
%	x,y = lower left corner of box to be filled
%	w,h = width and height of box
%	  a = angle in degrees between lines and x-axis
%	 XX = 0/1 for no/yes cross-hatch
%
/PatternFill {gsave /PFa [ 9 2 roll ] def
  PFa 0 get PFa 2 get 2 div add PFa 1 get PFa 3 get 2 div add translate
  PFa 2 get -2 div PFa 3 get -2 div PFa 2 get PFa 3 get Rec
  gsave 1 setgray fill grestore clip
  currentlinewidth 0.5 mul setlinewidth
  /PFs PFa 2 get dup mul PFa 3 get dup mul add sqrt def
  0 0 M PFa 5 get rotate PFs -2 div dup translate
  0 1 PFs PFa 4 get div 1 add floor cvi
	{PFa 4 get mul 0 M 0 PFs V} for
  0 PFa 6 get ne {
	0 1 PFs PFa 4 get div 1 add floor cvi
	{PFa 4 get mul 0 2 1 roll M PFs 0 V} for
 } if
  stroke grestore} def
%
/languagelevel where
 {pop languagelevel} {1} ifelse
 2 lt
	{/InterpretLevel1 true def}
	{/InterpretLevel1 Level1 def}
 ifelse
%
% PostScript level 2 pattern fill definitions
%
/Level2PatternFill {
/Tile8x8 {/PaintType 2 /PatternType 1 /TilingType 1 /BBox [0 0 8 8] /XStep 8 /YStep 8}
	bind def
/KeepColor {currentrgbcolor [/Pattern /DeviceRGB] setcolorspace} bind def
<< Tile8x8
 /PaintProc {0.5 setlinewidth pop 0 0 M 8 8 L 0 8 M 8 0 L stroke} 
>> matrix makepattern
/Pat1 exch def
<< Tile8x8
 /PaintProc {0.5 setlinewidth pop 0 0 M 8 8 L 0 8 M 8 0 L stroke
	0 4 M 4 8 L 8 4 L 4 0 L 0 4 L stroke}
>> matrix makepattern
/Pat2 exch def
<< Tile8x8
 /PaintProc {0.5 setlinewidth pop 0 0 M 0 8 L
	8 8 L 8 0 L 0 0 L fill}
>> matrix makepattern
/Pat3 exch def
<< Tile8x8
 /PaintProc {0.5 setlinewidth pop -4 8 M 8 -4 L
	0 12 M 12 0 L stroke}
>> matrix makepattern
/Pat4 exch def
<< Tile8x8
 /PaintProc {0.5 setlinewidth pop -4 0 M 8 12 L
	0 -4 M 12 8 L stroke}
>> matrix makepattern
/Pat5 exch def
<< Tile8x8
 /PaintProc {0.5 setlinewidth pop -2 8 M 4 -4 L
	0 12 M 8 -4 L 4 12 M 10 0 L stroke}
>> matrix makepattern
/Pat6 exch def
<< Tile8x8
 /PaintProc {0.5 setlinewidth pop -2 0 M 4 12 L
	0 -4 M 8 12 L 4 -4 M 10 8 L stroke}
>> matrix makepattern
/Pat7 exch def
<< Tile8x8
 /PaintProc {0.5 setlinewidth pop 8 -2 M -4 4 L
	12 0 M -4 8 L 12 4 M 0 10 L stroke}
>> matrix makepattern
/Pat8 exch def
<< Tile8x8
 /PaintProc {0.5 setlinewidth pop 0 -2 M 12 4 L
	-4 0 M 12 8 L -4 4 M 8 10 L stroke}
>> matrix makepattern
/Pat9 exch def
/Pattern1 {PatternBgnd KeepColor Pat1 setpattern} bind def
/Pattern2 {PatternBgnd KeepColor Pat2 setpattern} bind def
/Pattern3 {PatternBgnd KeepColor Pat3 setpattern} bind def
/Pattern4 {PatternBgnd KeepColor Landscape {Pat5} {Pat4} ifelse setpattern} bind def
/Pattern5 {PatternBgnd KeepColor Landscape {Pat4} {Pat5} ifelse setpattern} bind def
/Pattern6 {PatternBgnd KeepColor Landscape {Pat9} {Pat6} ifelse setpattern} bind def
/Pattern7 {PatternBgnd KeepColor Landscape {Pat8} {Pat7} ifelse setpattern} bind def
} def
%
%
%End of PostScript Level 2 code
%
/PatternBgnd {
  TransparentPatterns {} {gsave 1 setgray fill grestore} ifelse
} def
%
% Substitute for Level 2 pattern fill codes with
% grayscale if Level 2 support is not selected.
%
/Level1PatternFill {
/Pattern1 {0.250 Density} bind def
/Pattern2 {0.500 Density} bind def
/Pattern3 {0.750 Density} bind def
/Pattern4 {0.125 Density} bind def
/Pattern5 {0.375 Density} bind def
/Pattern6 {0.625 Density} bind def
/Pattern7 {0.875 Density} bind def
} def
%
% Now test for support of Level 2 code
%
Level1 {Level1PatternFill} {Level2PatternFill} ifelse
%
/Symbol-Oblique /Symbol findfont [1 0 .167 1 0 0] makefont
dup length dict begin {1 index /FID eq {pop pop} {def} ifelse} forall
currentdict end definefont pop
/MFshow {
   { dup 5 get 3 ge
     { 5 get 3 eq {gsave} {grestore} ifelse }
     {dup dup 0 get findfont exch 1 get scalefont setfont
     [ currentpoint ] exch dup 2 get 0 exch R dup 5 get 2 ne {dup dup 6
     get exch 4 get {Gshow} {stringwidth pop 0 R} ifelse }if dup 5 get 0 eq
     {dup 3 get {2 get neg 0 exch R pop} {pop aload pop M} ifelse} {dup 5
     get 1 eq {dup 2 get exch dup 3 get exch 6 get stringwidth pop -2 div
     dup 0 R} {dup 6 get stringwidth pop -2 div 0 R 6 get
     show 2 index {aload pop M neg 3 -1 roll neg R pop pop} {pop pop pop
     pop aload pop M} ifelse }ifelse }ifelse }
     ifelse }
   forall} def
/Gswidth {dup type /stringtype eq {stringwidth} {pop (n) stringwidth} ifelse} def
/MFwidth {0 exch { dup 5 get 3 ge { 5 get 3 eq { 0 } { pop } ifelse }
 {dup 3 get{dup dup 0 get findfont exch 1 get scalefont setfont
     6 get Gswidth pop add} {pop} ifelse} ifelse} forall} def
/MLshow { currentpoint stroke M
  0 exch R
  Blacktext {gsave 0 setgray MFshow grestore} {MFshow} ifelse } bind def
/MRshow { currentpoint stroke M
  exch dup MFwidth neg 3 -1 roll R
  Blacktext {gsave 0 setgray MFshow grestore} {MFshow} ifelse } bind def
/MCshow { currentpoint stroke M
  exch dup MFwidth -2 div 3 -1 roll R
  Blacktext {gsave 0 setgray MFshow grestore} {MFshow} ifelse } bind def
/XYsave    { [( ) 1 2 true false 3 ()] } bind def
/XYrestore { [( ) 1 2 true false 4 ()] } bind def
end
%%EndProlog
gnudict begin
gsave
doclip
50 50 translate
0.050 0.050 scale
0 setgray
newpath
(Helvetica) findfont 250 scalefont setfont
1.000 UL
LTb
1225 800 M
63 0 V
5461 0 R
-63 0 V
stroke
1075 800 M
[ [(Helvetica) 250.0 0.0 true true 0 ( 0.3)]
] -83.3 MRshow
1.000 UL
LTb
1225 1363 M
63 0 V
5461 0 R
-63 0 V
stroke
1075 1363 M
[ [(Helvetica) 250.0 0.0 true true 0 ( 0.4)]
] -83.3 MRshow
1.000 UL
LTb
1225 1925 M
63 0 V
5461 0 R
-63 0 V
stroke
1075 1925 M
[ [(Helvetica) 250.0 0.0 true true 0 ( 0.5)]
] -83.3 MRshow
1.000 UL
LTb
1225 2488 M
63 0 V
5461 0 R
-63 0 V
stroke
1075 2488 M
[ [(Helvetica) 250.0 0.0 true true 0 ( 0.6)]
] -83.3 MRshow
1.000 UL
LTb
1225 3051 M
63 0 V
5461 0 R
-63 0 V
stroke
1075 3051 M
[ [(Helvetica) 250.0 0.0 true true 0 ( 0.7)]
] -83.3 MRshow
1.000 UL
LTb
1225 3614 M
63 0 V
5461 0 R
-63 0 V
stroke
1075 3614 M
[ [(Helvetica) 250.0 0.0 true true 0 ( 0.8)]
] -83.3 MRshow
1.000 UL
LTb
1225 4176 M
63 0 V
5461 0 R
-63 0 V
stroke
1075 4176 M
[ [(Helvetica) 250.0 0.0 true true 0 ( 0.9)]
] -83.3 MRshow
1.000 UL
LTb
1225 4739 M
63 0 V
5461 0 R
-63 0 V
stroke
1075 4739 M
[ [(Helvetica) 250.0 0.0 true true 0 ( 1)]
] -83.3 MRshow
1.000 UL
LTb
1225 800 M
0 63 V
0 3876 R
0 -63 V
stroke
1225 550 M
[ [(Helvetica) 250.0 0.0 true true 0 ( 1000)]
] -83.3 MCshow
1.000 UL
LTb
1916 800 M
0 63 V
0 3876 R
0 -63 V
stroke
1916 550 M
[ [(Helvetica) 250.0 0.0 true true 0 ( 2000)]
] -83.3 MCshow
1.000 UL
LTb
2606 800 M
0 63 V
0 3876 R
0 -63 V
stroke
2606 550 M
[ [(Helvetica) 250.0 0.0 true true 0 ( 3000)]
] -83.3 MCshow
1.000 UL
LTb
3297 800 M
0 63 V
0 3876 R
0 -63 V
stroke
3297 550 M
[ [(Helvetica) 250.0 0.0 true true 0 ( 4000)]
] -83.3 MCshow
1.000 UL
LTb
3987 800 M
0 63 V
0 3876 R
0 -63 V
stroke
3987 550 M
[ [(Helvetica) 250.0 0.0 true true 0 ( 5000)]
] -83.3 MCshow
1.000 UL
LTb
4678 800 M
0 63 V
0 3876 R
0 -63 V
stroke
4678 550 M
[ [(Helvetica) 250.0 0.0 true true 0 ( 6000)]
] -83.3 MCshow
1.000 UL
LTb
5368 800 M
0 63 V
0 3876 R
0 -63 V
stroke
5368 550 M
[ [(Helvetica) 250.0 0.0 true true 0 ( 7000)]
] -83.3 MCshow
1.000 UL
LTb
6059 800 M
0 63 V
0 3876 R
0 -63 V
stroke
6059 550 M
[ [(Helvetica) 250.0 0.0 true true 0 ( 8000)]
] -83.3 MCshow
1.000 UL
LTb
6749 800 M
0 63 V
0 3876 R
0 -63 V
stroke
6749 550 M
[ [(Helvetica) 250.0 0.0 true true 0 ( 9000)]
] -83.3 MCshow
1.000 UL
LTb
1.000 UL
LTb
1225 4739 N
0 -3939 V
5524 0 V
0 3939 V
-5524 0 V
Z stroke
LCb setrgbcolor
200 2769 M
currentpoint gsave translate -270 rotate 0 0 moveto
[ [(Helvetica) 250.0 0.0 true true 0 (Precision)]
] -83.3 MCshow
grestore
LTb
LCb setrgbcolor
3987 175 M
[ [(Helvetica) 250.0 0.0 true true 0 (Alphabet Size)]
] -83.3 MCshow
LTb
1.000 UP
1.000 UL
LTb
% Begin plot #1
1.000 UP
1.000 UL
LT0
1225 4739 Pls
1225 4696 Pls
1225 4673 Pls
1225 4638 Pls
1225 4739 Pls
1225 4598 Pls
1225 4676 Pls
1225 4739 Pls
1225 4739 Pls
1225 4739 Pls
1225 4739 Pls
1225 4661 Pls
1225 4739 Pls
1225 4692 Pls
1225 4673 Pls
1225 4739 Pls
1225 4739 Pls
1225 4645 Pls
1225 4739 Pls
1225 4739 Pls
1225 4739 Pls
1225 4598 Pls
1225 4669 Pls
1225 4739 Pls
1225 4739 Pls
1225 4739 Pls
1225 4669 Pls
1225 4739 Pls
1225 4439 Pls
1225 4739 Pls
1225 4618 Pls
1225 4739 Pls
1225 4514 Pls
1225 4626 Pls
1225 4739 Pls
1225 4739 Pls
1225 4417 Pls
1225 4683 Pls
1225 4739 Pls
1225 4739 Pls
1225 4739 Pls
1225 4297 Pls
1225 4592 Pls
1225 4357 Pls
1225 4739 Pls
1225 4706 Pls
1225 4530 Pls
1225 4414 Pls
1225 4496 Pls
1225 4431 Pls
1225 4477 Pls
1225 4609 Pls
1225 4501 Pls
1225 4511 Pls
1225 4500 Pls
1225 4661 Pls
1225 4739 Pls
1225 4739 Pls
1225 4529 Pls
1225 4534 Pls
1225 4739 Pls
1225 4464 Pls
1225 4628 Pls
1225 4680 Pls
1225 4251 Pls
1225 4534 Pls
1225 4664 Pls
1225 4431 Pls
1225 3782 Pls
1225 3955 Pls
1225 4280 Pls
1225 4386 Pls
1225 3576 Pls
1225 4256 Pls
1225 4353 Pls
1225 4382 Pls
1225 3335 Pls
1225 4309 Pls
1225 4360 Pls
1225 4544 Pls
1225 4739 Pls
1225 4411 Pls
1225 4253 Pls
1225 4315 Pls
1225 4445 Pls
1225 4455 Pls
1225 4183 Pls
1225 4257 Pls
1225 4739 Pls
1225 4457 Pls
1225 4357 Pls
1225 4543 Pls
1225 4578 Pls
1225 4248 Pls
1225 4268 Pls
1225 4479 Pls
1225 4739 Pls
1225 4739 Pls
1225 4466 Pls
1225 4483 Pls
1225 3855 Pls
1225 4142 Pls
1225 4290 Pls
1225 4149 Pls
1225 4139 Pls
1225 4126 Pls
1225 4020 Pls
1225 3969 Pls
1225 3145 Pls
1225 3721 Pls
1225 3977 Pls
1225 4145 Pls
1225 2114 Pls
1225 2533 Pls
1225 3545 Pls
1225 3882 Pls
1225 1761 Pls
1225 3029 Pls
1225 3894 Pls
1225 3896 Pls
1225 4626 Pls
1225 4434 Pls
1225 4288 Pls
1225 4377 Pls
1225 4484 Pls
1225 4546 Pls
1225 4185 Pls
1225 3995 Pls
1225 4524 Pls
1225 4433 Pls
1225 4121 Pls
1225 4243 Pls
1225 4626 Pls
1225 4398 Pls
1225 4478 Pls
1225 4034 Pls
1225 4739 Pls
1225 4649 Pls
1225 4394 Pls
1225 4060 Pls
1225 3330 Pls
1225 3535 Pls
1225 3780 Pls
1225 4084 Pls
1225 2974 Pls
1225 3497 Pls
1225 3939 Pls
1225 3810 Pls
1225 3179 Pls
1225 3107 Pls
1225 3479 Pls
1225 4026 Pls
1225 2353 Pls
1225 3032 Pls
1225 3223 Pls
1225 3480 Pls
1225 2177 Pls
1225 2529 Pls
1225 3002 Pls
1225 3094 Pls
1225 4739 Pls
1225 4392 Pls
1225 4172 Pls
1225 4023 Pls
1225 4614 Pls
1225 4320 Pls
1225 4076 Pls
1225 4120 Pls
1225 4739 Pls
1225 4252 Pls
1225 4392 Pls
1225 4182 Pls
1225 4413 Pls
1225 4345 Pls
1225 4318 Pls
1225 4225 Pls
1225 4739 Pls
1225 4393 Pls
1225 4370 Pls
1225 4097 Pls
1225 3614 Pls
1225 3440 Pls
1225 3941 Pls
1225 4096 Pls
1225 3332 Pls
1225 2709 Pls
1225 3359 Pls
1225 3497 Pls
1225 1434 Pls
1225 2748 Pls
1225 3392 Pls
1225 3030 Pls
1225 1614 Pls
1225 2381 Pls
1225 2690 Pls
1225 2725 Pls
1225 925 Pls
1225 2253 Pls
1225 2703 Pls
1225 2734 Pls
1916 4739 Pls
1916 4609 Pls
1916 4739 Pls
1916 4664 Pls
1916 4739 Pls
1916 4739 Pls
1916 4676 Pls
1916 4690 Pls
1916 4739 Pls
1916 4659 Pls
1916 4739 Pls
1916 4690 Pls
1916 4739 Pls
1916 4637 Pls
1916 4739 Pls
1916 4739 Pls
1916 4739 Pls
1916 4739 Pls
1916 4739 Pls
1916 4739 Pls
1916 4739 Pls
1916 4739 Pls
1916 4739 Pls
1916 4739 Pls
1916 4739 Pls
1916 4739 Pls
1916 4739 Pls
1916 4739 Pls
1916 4739 Pls
1916 4580 Pls
1916 4739 Pls
1916 4739 Pls
1916 4739 Pls
1916 4739 Pls
1916 4664 Pls
1916 4739 Pls
1916 4551 Pls
1916 4637 Pls
1916 4664 Pls
1916 4739 Pls
1916 4578 Pls
1916 4696 Pls
1916 4647 Pls
1916 4670 Pls
1916 4739 Pls
1916 4696 Pls
1916 4542 Pls
1916 4716 Pls
1916 4739 Pls
1916 4586 Pls
1916 4739 Pls
1916 4594 Pls
1916 4626 Pls
1916 4652 Pls
1916 4706 Pls
1916 4573 Pls
1916 4739 Pls
1916 4739 Pls
1916 4565 Pls
1916 4712 Pls
1916 4514 Pls
1916 4580 Pls
1916 4519 Pls
1916 4739 Pls
1916 4739 Pls
1916 4566 Pls
1916 4448 Pls
1916 4626 Pls
1916 4364 Pls
1916 4451 Pls
1916 4509 Pls
1916 4570 Pls
1916 4345 Pls
1916 4449 Pls
1916 4652 Pls
1916 4625 Pls
1916 3520 Pls
1916 4449 Pls
1916 4519 Pls
1916 4576 Pls
1916 4614 Pls
1916 4628 Pls
1916 4443 Pls
1916 4523 Pls
1916 4739 Pls
1916 4563 Pls
1916 4688 Pls
1916 4519 Pls
1916 4739 Pls
1916 4559 Pls
1916 4512 Pls
1916 4602 Pls
1916 4739 Pls
1916 4652 Pls
1916 4582 Pls
1916 4658 Pls
1916 4739 Pls
1916 4607 Pls
1916 4409 Pls
1916 4652 Pls
1916 4514 Pls
1916 4566 Pls
1916 4584 Pls
1916 4557 Pls
1916 4139 Pls
1916 4326 Pls
1916 4273 Pls
1916 4577 Pls
1916 3192 Pls
1916 3927 Pls
1916 4451 Pls
1916 4287 Pls
1916 2814 Pls
1916 4169 Pls
1916 4272 Pls
1916 4410 Pls
1916 2502 Pls
1916 4140 Pls
1916 3910 Pls
1916 4211 Pls
1916 4551 Pls
1916 4436 Pls
1916 4388 Pls
1916 4499 Pls
1916 4637 Pls
1916 4598 Pls
1916 4448 Pls
1916 4523 Pls
1916 4739 Pls
1916 4618 Pls
1916 4492 Pls
1916 4337 Pls
1916 4739 Pls
1916 4584 Pls
1916 4408 Pls
1916 4335 Pls
1916 4614 Pls
1916 4637 Pls
1916 4402 Pls
1916 4618 Pls
1916 4739 Pls
1916 4234 Pls
1916 4495 Pls
1916 4458 Pls
1916 3632 Pls
1916 3888 Pls
1916 4202 Pls
1916 4269 Pls
1916 2716 Pls
1916 3789 Pls
1916 4169 Pls
1916 4225 Pls
1916 3011 Pls
1916 3651 Pls
1916 3697 Pls
1916 3972 Pls
1916 2460 Pls
1916 3436 Pls
1916 3899 Pls
1916 3983 Pls
1916 4739 Pls
1916 4503 Pls
1916 4573 Pls
1916 4493 Pls
1916 4598 Pls
1916 4631 Pls
1916 4512 Pls
1916 4433 Pls
1916 4739 Pls
1916 4699 Pls
1916 4491 Pls
1916 4513 Pls
1916 4637 Pls
1916 4617 Pls
1916 4419 Pls
1916 4531 Pls
1916 4739 Pls
1916 4652 Pls
1916 4376 Pls
1916 4399 Pls
1916 4270 Pls
1916 4264 Pls
1916 4403 Pls
1916 4197 Pls
1916 3520 Pls
1916 4168 Pls
1916 3673 Pls
1916 4245 Pls
1916 3051 Pls
1916 3644 Pls
1916 3665 Pls
1916 4120 Pls
1916 2186 Pls
1916 2771 Pls
1916 3847 Pls
1916 3700 Pls
1916 1846 Pls
1916 2519 Pls
1916 3343 Pls
1916 3418 Pls
2606 4739 Pls
2606 4659 Pls
2606 4739 Pls
2606 4739 Pls
2606 4739 Pls
2606 4739 Pls
2606 4632 Pls
2606 4739 Pls
2606 4739 Pls
2606 4739 Pls
2606 4739 Pls
2606 4739 Pls
2606 4739 Pls
2606 4739 Pls
2606 4704 Pls
2606 4739 Pls
2606 4739 Pls
2606 4739 Pls
2606 4739 Pls
2606 4739 Pls
2606 4364 Pls
2606 4739 Pls
2606 4701 Pls
2606 4739 Pls
2606 4626 Pls
2606 4739 Pls
2606 4739 Pls
2606 4739 Pls
2606 4739 Pls
2606 4676 Pls
2606 4669 Pls
2606 4739 Pls
2606 4739 Pls
2606 4676 Pls
2606 4739 Pls
2606 4739 Pls
2606 4326 Pls
2606 4637 Pls
2606 4739 Pls
2606 4739 Pls
2606 4739 Pls
2606 4739 Pls
2606 4708 Pls
2606 4715 Pls
2606 4739 Pls
2606 4565 Pls
2606 4739 Pls
2606 4643 Pls
2606 4739 Pls
2606 4626 Pls
2606 4739 Pls
2606 4692 Pls
2606 4739 Pls
2606 4692 Pls
2606 4614 Pls
2606 4620 Pls
2606 4739 Pls
2606 4739 Pls
2606 4602 Pls
2606 4739 Pls
2606 4739 Pls
2606 4683 Pls
2606 4739 Pls
2606 4685 Pls
2606 4439 Pls
2606 4739 Pls
2606 4624 Pls
2606 4641 Pls
2606 4458 Pls
2606 4466 Pls
2606 4739 Pls
2606 4685 Pls
2606 4551 Pls
2606 4324 Pls
2606 4594 Pls
2606 4711 Pls
2606 4401 Pls
2606 4739 Pls
2606 4556 Pls
2606 4626 Pls
2606 4578 Pls
2606 4669 Pls
2606 4541 Pls
2606 4694 Pls
2606 4739 Pls
2606 4739 Pls
2606 4673 Pls
2606 4576 Pls
2606 4739 Pls
2606 4546 Pls
2606 4680 Pls
2606 4639 Pls
2606 4739 Pls
2606 4739 Pls
2606 4614 Pls
2606 4688 Pls
2606 4739 Pls
2606 4739 Pls
2606 4676 Pls
2606 4690 Pls
2606 4739 Pls
2606 4637 Pls
2606 4556 Pls
2606 4650 Pls
2606 4270 Pls
2606 4268 Pls
2606 4521 Pls
2606 4685 Pls
2606 4064 Pls
2606 4328 Pls
2606 4631 Pls
2606 4510 Pls
2606 3576 Pls
2606 4081 Pls
2606 4413 Pls
2606 4606 Pls
2606 4073 Pls
2606 4580 Pls
2606 4332 Pls
2606 4424 Pls
2606 4614 Pls
2606 4598 Pls
2606 4634 Pls
2606 4600 Pls
2606 4739 Pls
2606 4659 Pls
2606 4515 Pls
2606 4626 Pls
2606 4739 Pls
2606 4555 Pls
2606 4650 Pls
2606 4548 Pls
2606 4528 Pls
2606 4601 Pls
2606 4554 Pls
2606 4571 Pls
2606 4739 Pls
2606 4572 Pls
2606 4609 Pls
2606 4547 Pls
2606 4411 Pls
2606 4401 Pls
2606 4664 Pls
2606 4443 Pls
2606 3614 Pls
2606 4244 Pls
2606 4411 Pls
2606 4177 Pls
2606 3107 Pls
2606 4074 Pls
2606 4382 Pls
2606 4547 Pls
2606 3851 Pls
2606 3768 Pls
2606 4311 Pls
2606 4192 Pls
2606 2788 Pls
2606 3770 Pls
2606 4297 Pls
2606 4071 Pls
2606 4598 Pls
2606 4494 Pls
2606 4281 Pls
2606 4590 Pls
2606 4739 Pls
2606 4739 Pls
2606 4650 Pls
2606 4517 Pls
2606 4739 Pls
2606 4582 Pls
2606 4632 Pls
2606 4446 Pls
2606 4739 Pls
2606 4659 Pls
2606 4629 Pls
2606 4596 Pls
2606 4739 Pls
2606 4580 Pls
2606 4607 Pls
2606 4566 Pls
2606 3914 Pls
2606 4378 Pls
2606 4469 Pls
2606 4394 Pls
2606 3520 Pls
2606 3646 Pls
2606 3625 Pls
2606 4192 Pls
2606 3470 Pls
2606 3493 Pls
2606 4057 Pls
2606 3873 Pls
2606 2145 Pls
2606 3170 Pls
2606 3673 Pls
2606 3996 Pls
2606 2741 Pls
2606 3468 Pls
2606 3356 Pls
2606 4054 Pls
3297 4739 Pls
3297 4739 Pls
3297 4664 Pls
3297 4739 Pls
3297 4739 Pls
3297 4739 Pls
3297 4739 Pls
3297 4716 Pls
3297 4739 Pls
3297 4696 Pls
3297 4701 Pls
3297 4739 Pls
3297 4739 Pls
3297 4739 Pls
3297 4739 Pls
3297 4739 Pls
3297 4739 Pls
3297 4739 Pls
3297 4739 Pls
3297 4739 Pls
3297 4739 Pls
3297 4739 Pls
3297 4739 Pls
3297 4739 Pls
3297 4514 Pls
3297 4637 Pls
3297 4739 Pls
3297 4739 Pls
3297 4739 Pls
3297 4739 Pls
3297 4739 Pls
3297 4739 Pls
3297 4739 Pls
3297 4676 Pls
3297 4692 Pls
3297 4739 Pls
3297 4739 Pls
3297 4739 Pls
3297 4739 Pls
3297 4739 Pls
3297 4739 Pls
3297 4664 Pls
3297 4676 Pls
3297 4690 Pls
3297 4739 Pls
3297 4669 Pls
3297 4739 Pls
3297 4690 Pls
3297 4739 Pls
3297 4570 Pls
3297 4739 Pls
3297 4739 Pls
3297 4739 Pls
3297 4699 Pls
3297 4614 Pls
3297 4696 Pls
3297 4739 Pls
3297 4739 Pls
3297 4704 Pls
3297 4739 Pls
3297 4551 Pls
3297 4739 Pls
3297 4594 Pls
3297 4709 Pls
3297 4739 Pls
3297 4739 Pls
3297 4739 Pls
3297 4739 Pls
3297 4739 Pls
3297 4433 Pls
3297 4571 Pls
3297 4739 Pls
3297 4326 Pls
3297 4501 Pls
3297 4658 Pls
3297 4680 Pls
3297 4551 Pls
3297 4432 Pls
3297 4577 Pls
3297 4709 Pls
3297 4739 Pls
3297 4739 Pls
3297 4680 Pls
3297 4529 Pls
3297 4578 Pls
3297 4669 Pls
3297 4657 Pls
3297 4637 Pls
3297 4739 Pls
3297 4739 Pls
3297 4704 Pls
3297 4739 Pls
3297 4739 Pls
3297 4739 Pls
3297 4542 Pls
3297 4591 Pls
3297 4598 Pls
3297 4739 Pls
3297 4609 Pls
3297 4684 Pls
3297 4739 Pls
3297 4524 Pls
3297 4664 Pls
3297 4544 Pls
3297 4136 Pls
3297 4637 Pls
3297 4570 Pls
3297 4601 Pls
3297 4498 Pls
3297 4739 Pls
3297 4669 Pls
3297 4573 Pls
3297 4739 Pls
3297 4637 Pls
3297 4739 Pls
3297 4534 Pls
3297 3522 Pls
3297 4564 Pls
3297 4249 Pls
3297 4585 Pls
3297 4739 Pls
3297 4739 Pls
3297 4713 Pls
3297 4569 Pls
3297 4739 Pls
3297 4626 Pls
3297 4688 Pls
3297 4598 Pls
3297 4739 Pls
3297 4628 Pls
3297 4669 Pls
3297 4497 Pls
3297 4739 Pls
3297 4566 Pls
3297 4680 Pls
3297 4641 Pls
3297 4614 Pls
3297 4652 Pls
3297 4739 Pls
3297 4645 Pls
3297 4458 Pls
3297 4412 Pls
3297 4184 Pls
3297 4578 Pls
3297 4064 Pls
3297 4393 Pls
3297 4470 Pls
3297 4570 Pls
3297 3560 Pls
3297 4249 Pls
3297 4302 Pls
3297 4476 Pls
3297 3614 Pls
3297 4455 Pls
3297 4205 Pls
3297 4417 Pls
3297 3480 Pls
3297 4062 Pls
3297 4244 Pls
3297 4263 Pls
3297 4645 Pls
3297 4739 Pls
3297 4658 Pls
3297 4650 Pls
3297 4739 Pls
3297 4589 Pls
3297 4508 Pls
3297 4530 Pls
3297 4739 Pls
3297 4739 Pls
3297 4652 Pls
3297 4580 Pls
3297 4739 Pls
3297 4659 Pls
3297 4596 Pls
3297 4622 Pls
3297 4739 Pls
3297 4739 Pls
3297 4680 Pls
3297 4739 Pls
3297 4101 Pls
3297 4570 Pls
3297 4624 Pls
3297 4481 Pls
3297 3989 Pls
3297 4045 Pls
3297 4019 Pls
3297 4473 Pls
3297 3536 Pls
3297 4010 Pls
3297 4089 Pls
3297 4279 Pls
3297 2966 Pls
3297 3532 Pls
3297 3839 Pls
3297 4178 Pls
3297 2823 Pls
3297 3964 Pls
3297 3767 Pls
3297 4155 Pls
3987 4739 Pls
3987 4739 Pls
3987 4685 Pls
3987 4739 Pls
3987 4739 Pls
3987 4739 Pls
3987 4739 Pls
3987 4739 Pls
3987 4739 Pls
3987 4739 Pls
3987 4706 Pls
3987 4739 Pls
3987 4659 Pls
3987 4739 Pls
3987 4739 Pls
3987 4739 Pls
3987 4739 Pls
3987 4739 Pls
3987 4671 Pls
3987 4739 Pls
3987 4739 Pls
3987 4739 Pls
3987 4739 Pls
3987 4739 Pls
3987 4626 Pls
3987 4739 Pls
3987 4739 Pls
3987 4739 Pls
3987 4739 Pls
3987 4637 Pls
3987 4739 Pls
3987 4739 Pls
3987 4739 Pls
3987 4683 Pls
3987 4739 Pls
3987 4739 Pls
3987 4551 Pls
3987 4739 Pls
3987 4739 Pls
3987 4739 Pls
3987 4739 Pls
3987 4637 Pls
3987 4569 Pls
3987 4645 Pls
3987 4739 Pls
3987 4739 Pls
3987 4739 Pls
3987 4739 Pls
3987 4739 Pls
3987 4659 Pls
3987 4680 Pls
3987 4659 Pls
3987 4739 Pls
3987 4696 Pls
3987 4739 Pls
3987 4739 Pls
3987 4551 Pls
3987 4739 Pls
3987 4739 Pls
3987 4739 Pls
3987 4739 Pls
3987 4637 Pls
3987 4669 Pls
3987 4683 Pls
3987 4551 Pls
3987 4614 Pls
3987 4739 Pls
3987 4632 Pls
3987 4439 Pls
3987 4626 Pls
3987 4669 Pls
3987 4739 Pls
3987 4551 Pls
3987 4676 Pls
3987 4519 Pls
3987 4680 Pls
3987 4364 Pls
3987 4637 Pls
3987 4664 Pls
3987 4523 Pls
3987 4739 Pls
3987 4739 Pls
3987 4680 Pls
3987 4739 Pls
3987 4739 Pls
3987 4739 Pls
3987 4555 Pls
3987 4716 Pls
3987 4739 Pls
3987 4739 Pls
3987 4580 Pls
3987 4661 Pls
3987 4739 Pls
3987 4495 Pls
3987 4655 Pls
3987 4637 Pls
3987 4614 Pls
3987 4739 Pls
3987 4669 Pls
3987 4739 Pls
3987 4739 Pls
3987 4524 Pls
3987 4534 Pls
3987 4573 Pls
3987 4364 Pls
3987 4637 Pls
3987 4739 Pls
3987 4570 Pls
3987 4251 Pls
3987 4496 Pls
3987 4527 Pls
3987 4547 Pls
3987 4739 Pls
3987 4580 Pls
3987 4588 Pls
3987 4626 Pls
3987 4020 Pls
3987 4534 Pls
3987 4466 Pls
3987 4520 Pls
3987 4739 Pls
3987 4739 Pls
3987 4676 Pls
3987 4697 Pls
3987 4739 Pls
3987 4676 Pls
3987 4508 Pls
3987 4639 Pls
3987 4739 Pls
3987 4739 Pls
3987 4673 Pls
3987 4697 Pls
3987 4739 Pls
3987 4664 Pls
3987 4683 Pls
3987 4649 Pls
3987 4739 Pls
3987 4739 Pls
3987 4739 Pls
3987 4643 Pls
3987 4739 Pls
3987 4458 Pls
3987 4539 Pls
3987 4676 Pls
3987 4326 Pls
3987 4422 Pls
3987 4448 Pls
3987 4582 Pls
3987 4514 Pls
3987 4514 Pls
3987 4415 Pls
3987 4571 Pls
3987 4233 Pls
3987 4311 Pls
3987 4031 Pls
3987 4447 Pls
3987 3951 Pls
3987 4058 Pls
3987 4084 Pls
3987 4334 Pls
3987 4739 Pls
3987 4739 Pls
3987 4505 Pls
3987 4647 Pls
3987 4739 Pls
3987 4490 Pls
3987 4559 Pls
3987 4604 Pls
3987 4739 Pls
3987 4614 Pls
3987 4557 Pls
3987 4652 Pls
3987 4739 Pls
3987 4739 Pls
3987 4650 Pls
3987 4524 Pls
3987 4739 Pls
3987 4739 Pls
3987 4673 Pls
3987 4534 Pls
3987 3951 Pls
3987 4534 Pls
3987 4519 Pls
3987 4422 Pls
3987 3398 Pls
3987 4019 Pls
3987 4383 Pls
3987 4409 Pls
3987 3464 Pls
3987 4188 Pls
3987 4480 Pls
3987 4301 Pls
3987 3445 Pls
3987 4280 Pls
3987 4271 Pls
3987 4368 Pls
3987 2988 Pls
3987 3919 Pls
3987 4041 Pls
3987 4293 Pls
4678 4739 Pls
4678 4699 Pls
4678 4676 Pls
4678 4739 Pls
4678 4739 Pls
4678 4739 Pls
4678 4704 Pls
4678 4739 Pls
4678 4645 Pls
4678 4739 Pls
4678 4739 Pls
4678 4739 Pls
4678 4739 Pls
4678 4739 Pls
4678 4739 Pls
4678 4739 Pls
4678 4739 Pls
4678 4739 Pls
4678 4739 Pls
4678 4739 Pls
4678 4739 Pls
4678 4739 Pls
4678 4739 Pls
4678 4739 Pls
4678 4551 Pls
4678 4739 Pls
4678 4739 Pls
4678 4739 Pls
4678 4626 Pls
4678 4739 Pls
4678 4739 Pls
4678 4739 Pls
4678 4739 Pls
4678 4739 Pls
4678 4739 Pls
4678 4739 Pls
4678 4739 Pls
4678 4739 Pls
4678 4739 Pls
4678 4739 Pls
4678 4739 Pls
4678 4739 Pls
4678 4739 Pls
4678 4602 Pls
4678 4739 Pls
4678 4739 Pls
4678 4647 Pls
4678 4696 Pls
4678 4739 Pls
4678 4739 Pls
4678 4739 Pls
4678 4739 Pls
4678 4739 Pls
4678 4739 Pls
4678 4683 Pls
4678 4690 Pls
4678 4739 Pls
4678 4609 Pls
4678 4602 Pls
4678 4739 Pls
4678 4364 Pls
4678 4683 Pls
4678 4739 Pls
4678 4680 Pls
4678 4326 Pls
4678 4739 Pls
4678 4669 Pls
4678 4623 Pls
4678 4364 Pls
4678 4739 Pls
4678 4701 Pls
4678 4680 Pls
4678 4551 Pls
4678 4614 Pls
4678 4556 Pls
4678 4739 Pls
4678 4551 Pls
4678 4408 Pls
4678 4696 Pls
4678 4683 Pls
4678 4739 Pls
4678 4534 Pls
4678 4673 Pls
4678 4654 Pls
4678 4614 Pls
4678 4652 Pls
4678 4739 Pls
4678 4713 Pls
4678 4739 Pls
4678 4739 Pls
4678 4683 Pls
4678 4739 Pls
4678 4739 Pls
4678 4739 Pls
4678 4739 Pls
4678 4689 Pls
4678 4739 Pls
4678 4645 Pls
4678 4739 Pls
4678 4694 Pls
4678 4739 Pls
4678 4422 Pls
4678 4739 Pls
4678 4629 Pls
4678 4270 Pls
4678 4676 Pls
4678 4598 Pls
4678 4567 Pls
4678 4551 Pls
4678 4269 Pls
4678 4598 Pls
4678 4513 Pls
4678 4139 Pls
4678 4422 Pls
4678 4471 Pls
4678 4542 Pls
4678 3826 Pls
4678 4237 Pls
4678 4669 Pls
4678 4620 Pls
4678 4739 Pls
4678 4739 Pls
4678 4739 Pls
4678 4602 Pls
4678 4739 Pls
4678 4594 Pls
4678 4593 Pls
4678 4620 Pls
4678 4739 Pls
4678 4739 Pls
4678 4680 Pls
4678 4700 Pls
4678 4739 Pls
4678 4739 Pls
4678 4640 Pls
4678 4664 Pls
4678 4739 Pls
4678 4652 Pls
4678 4739 Pls
4678 4574 Pls
4678 4176 Pls
4678 4558 Pls
4678 4739 Pls
4678 4583 Pls
4678 4364 Pls
4678 4229 Pls
4678 4614 Pls
4678 4576 Pls
4678 4326 Pls
4678 4325 Pls
4678 4446 Pls
4678 4429 Pls
4678 3614 Pls
4678 4486 Pls
4678 4499 Pls
4678 4463 Pls
4678 3764 Pls
4678 4013 Pls
4678 4363 Pls
4678 4381 Pls
4678 4739 Pls
4678 4645 Pls
4678 4621 Pls
4678 4513 Pls
4678 4739 Pls
4678 4645 Pls
4678 4654 Pls
4678 4670 Pls
4678 4637 Pls
4678 4562 Pls
4678 4583 Pls
4678 4512 Pls
4678 4739 Pls
4678 4669 Pls
4678 4470 Pls
4678 4537 Pls
4678 4739 Pls
4678 4633 Pls
4678 4643 Pls
4678 4674 Pls
4678 4176 Pls
4678 4637 Pls
4678 4664 Pls
4678 4629 Pls
4678 3520 Pls
4678 4412 Pls
4678 4523 Pls
4678 4406 Pls
4678 3951 Pls
4678 4449 Pls
4678 4519 Pls
4678 4381 Pls
4678 3895 Pls
4678 3981 Pls
4678 4121 Pls
4678 4441 Pls
4678 3466 Pls
4678 4024 Pls
4678 4159 Pls
4678 4077 Pls
5368 4739 Pls
5368 4739 Pls
5368 4683 Pls
5368 4739 Pls
5368 4739 Pls
5368 4739 Pls
5368 4739 Pls
5368 4739 Pls
5368 4739 Pls
5368 4692 Pls
5368 4739 Pls
5368 4739 Pls
5368 4739 Pls
5368 4739 Pls
5368 4676 Pls
5368 4739 Pls
5368 4739 Pls
5368 4739 Pls
5368 4739 Pls
5368 4739 Pls
5368 4739 Pls
5368 4739 Pls
5368 4739 Pls
5368 4739 Pls
5368 4739 Pls
5368 4739 Pls
5368 4739 Pls
5368 4739 Pls
5368 4514 Pls
5368 4626 Pls
5368 4739 Pls
5368 4739 Pls
5368 4739 Pls
5368 4739 Pls
5368 4739 Pls
5368 4739 Pls
5368 4514 Pls
5368 4739 Pls
5368 4699 Pls
5368 4739 Pls
5368 4739 Pls
5368 4659 Pls
5368 4704 Pls
5368 4715 Pls
5368 4739 Pls
5368 4739 Pls
5368 4626 Pls
5368 4616 Pls
5368 4739 Pls
5368 4739 Pls
5368 4701 Pls
5368 4739 Pls
5368 4739 Pls
5368 4739 Pls
5368 4620 Pls
5368 4645 Pls
5368 4739 Pls
5368 4605 Pls
5368 4739 Pls
5368 4739 Pls
5368 4739 Pls
5368 4739 Pls
5368 4739 Pls
5368 4632 Pls
5368 4739 Pls
5368 4739 Pls
5368 4664 Pls
5368 4739 Pls
5368 4514 Pls
5368 4676 Pls
5368 4664 Pls
5368 4739 Pls
5368 4739 Pls
5368 4570 Pls
5368 4589 Pls
5368 4676 Pls
5368 4626 Pls
5368 4683 Pls
5368 4664 Pls
5368 4629 Pls
5368 4739 Pls
5368 4739 Pls
5368 4739 Pls
5368 4636 Pls
5368 4739 Pls
5368 4673 Pls
5368 4626 Pls
5368 4739 Pls
5368 4739 Pls
5368 4739 Pls
5368 4709 Pls
5368 4692 Pls
5368 4739 Pls
5368 4659 Pls
5368 4739 Pls
5368 4692 Pls
5368 4739 Pls
5368 4739 Pls
5368 4739 Pls
5368 4643 Pls
5368 4551 Pls
5368 4626 Pls
5368 4669 Pls
5368 4629 Pls
5368 4551 Pls
5368 4333 Pls
5368 4476 Pls
5368 4617 Pls
5368 4401 Pls
5368 4637 Pls
5368 4664 Pls
5368 4573 Pls
5368 3707 Pls
5368 4393 Pls
5368 4626 Pls
5368 4626 Pls
5368 4214 Pls
5368 4626 Pls
5368 4535 Pls
5368 4569 Pls
5368 4739 Pls
5368 4739 Pls
5368 4673 Pls
5368 4643 Pls
5368 4739 Pls
5368 4739 Pls
5368 4620 Pls
5368 4612 Pls
5368 4626 Pls
5368 4739 Pls
5368 4642 Pls
5368 4681 Pls
5368 4626 Pls
5368 4739 Pls
5368 4580 Pls
5368 4692 Pls
5368 4739 Pls
5368 4739 Pls
5368 4708 Pls
5368 4739 Pls
5368 4551 Pls
5368 4486 Pls
5368 4518 Pls
5368 4594 Pls
5368 4176 Pls
5368 3956 Pls
5368 4669 Pls
5368 4626 Pls
5368 4176 Pls
5368 4412 Pls
5368 4412 Pls
5368 4598 Pls
5368 3989 Pls
5368 4422 Pls
5368 4128 Pls
5368 4543 Pls
5368 4270 Pls
5368 4355 Pls
5368 4589 Pls
5368 4680 Pls
5368 4637 Pls
5368 4699 Pls
5368 4456 Pls
5368 4739 Pls
5368 4739 Pls
5368 4669 Pls
5368 4641 Pls
5368 4564 Pls
5368 4739 Pls
5368 4535 Pls
5368 4683 Pls
5368 4696 Pls
5368 4739 Pls
5368 4589 Pls
5368 4513 Pls
5368 4641 Pls
5368 4739 Pls
5368 4739 Pls
5368 4614 Pls
5368 4643 Pls
5368 4551 Pls
5368 4524 Pls
5368 4513 Pls
5368 4583 Pls
5368 4270 Pls
5368 4162 Pls
5368 4240 Pls
5368 4312 Pls
5368 4158 Pls
5368 4355 Pls
5368 4273 Pls
5368 4388 Pls
5368 4176 Pls
5368 4186 Pls
5368 4230 Pls
5368 4429 Pls
5368 2485 Pls
5368 3976 Pls
5368 3993 Pls
5368 4626 Pls
6059 4739 Pls
6059 4739 Pls
6059 4739 Pls
6059 4739 Pls
6059 4739 Pls
6059 4739 Pls
6059 4739 Pls
6059 4739 Pls
6059 4739 Pls
6059 4739 Pls
6059 4739 Pls
6059 4739 Pls
6059 4626 Pls
6059 4739 Pls
6059 4676 Pls
6059 4739 Pls
6059 4739 Pls
6059 4739 Pls
6059 4739 Pls
6059 4739 Pls
6059 4739 Pls
6059 4683 Pls
6059 4739 Pls
6059 4739 Pls
6059 4739 Pls
6059 4683 Pls
6059 4701 Pls
6059 4739 Pls
6059 4739 Pls
6059 4739 Pls
6059 4615 Pls
6059 4739 Pls
6059 4739 Pls
6059 4739 Pls
6059 4739 Pls
6059 4739 Pls
6059 4551 Pls
6059 4626 Pls
6059 4739 Pls
6059 4739 Pls
6059 4739 Pls
6059 4739 Pls
6059 4690 Pls
6059 4739 Pls
6059 4739 Pls
6059 4579 Pls
6059 4618 Pls
6059 4739 Pls
6059 4739 Pls
6059 4739 Pls
6059 4664 Pls
6059 4645 Pls
6059 4739 Pls
6059 4739 Pls
6059 4739 Pls
6059 4739 Pls
6059 4739 Pls
6059 4739 Pls
6059 4641 Pls
6059 4688 Pls
6059 4739 Pls
6059 4739 Pls
6059 4739 Pls
6059 4709 Pls
6059 4739 Pls
6059 4739 Pls
6059 4739 Pls
6059 4709 Pls
6059 4364 Pls
6059 4637 Pls
6059 4626 Pls
6059 4685 Pls
6059 4514 Pls
6059 4534 Pls
6059 4584 Pls
6059 4739 Pls
6059 4739 Pls
6059 4534 Pls
6059 4699 Pls
6059 4685 Pls
6059 4739 Pls
6059 4739 Pls
6059 4632 Pls
6059 4652 Pls
6059 4739 Pls
6059 4739 Pls
6059 4648 Pls
6059 4671 Pls
6059 4614 Pls
6059 4739 Pls
6059 4623 Pls
6059 4713 Pls
6059 4739 Pls
6059 4739 Pls
6059 4683 Pls
6059 4739 Pls
6059 4739 Pls
6059 4739 Pls
6059 4676 Pls
6059 4683 Pls
6059 4739 Pls
6059 4534 Pls
6059 4669 Pls
6059 4739 Pls
6059 4739 Pls
6059 4524 Pls
6059 4589 Pls
6059 4739 Pls
6059 3801 Pls
6059 4626 Pls
6059 4696 Pls
6059 4629 Pls
6059 4739 Pls
6059 4739 Pls
6059 4626 Pls
6059 4632 Pls
6059 4498 Pls
6059 4614 Pls
6059 4591 Pls
6059 4685 Pls
6059 4739 Pls
6059 4685 Pls
6059 4647 Pls
6059 4645 Pls
6059 4637 Pls
6059 4669 Pls
6059 4739 Pls
6059 4739 Pls
6059 4739 Pls
6059 4739 Pls
6059 4680 Pls
6059 4739 Pls
6059 4739 Pls
6059 4692 Pls
6059 4739 Pls
6059 4739 Pls
6059 4739 Pls
6059 4739 Pls
6059 4739 Pls
6059 4667 Pls
6059 4551 Pls
6059 4534 Pls
6059 4739 Pls
6059 4623 Pls
6059 4739 Pls
6059 4739 Pls
6059 4584 Pls
6059 4623 Pls
6059 4139 Pls
6059 4534 Pls
6059 4368 Pls
6059 4493 Pls
6059 4123 Pls
6059 4501 Pls
6059 4434 Pls
6059 4466 Pls
6059 3670 Pls
6059 3922 Pls
6059 4598 Pls
6059 4503 Pls
6059 4739 Pls
6059 4739 Pls
6059 4669 Pls
6059 4715 Pls
6059 4739 Pls
6059 4739 Pls
6059 4739 Pls
6059 4594 Pls
6059 4739 Pls
6059 4631 Pls
6059 4690 Pls
6059 4692 Pls
6059 4739 Pls
6059 4739 Pls
6059 4739 Pls
6059 4653 Pls
6059 4598 Pls
6059 4652 Pls
6059 4617 Pls
6059 4739 Pls
6059 4739 Pls
6059 4534 Pls
6059 4519 Pls
6059 4621 Pls
6059 3989 Pls
6059 4739 Pls
6059 4598 Pls
6059 4597 Pls
6059 4551 Pls
6059 4544 Pls
6059 4669 Pls
6059 4511 Pls
6059 3742 Pls
6059 4468 Pls
6059 4546 Pls
6059 4420 Pls
6059 3895 Pls
6059 4412 Pls
6059 4388 Pls
6059 4109 Pls
6749 4739 Pls
6749 4739 Pls
6749 4739 Pls
6749 4739 Pls
6749 4739 Pls
6749 4739 Pls
6749 4739 Pls
6749 4739 Pls
6749 4739 Pls
6749 4739 Pls
6749 4739 Pls
6749 4739 Pls
6749 4739 Pls
6749 4739 Pls
6749 4739 Pls
6749 4739 Pls
6749 4739 Pls
6749 4645 Pls
6749 4739 Pls
6749 4739 Pls
6749 4739 Pls
6749 4739 Pls
6749 4739 Pls
6749 4739 Pls
6749 4739 Pls
6749 4739 Pls
6749 4739 Pls
6749 4739 Pls
6749 4739 Pls
6749 4637 Pls
6749 4739 Pls
6749 4739 Pls
6749 4739 Pls
6749 4683 Pls
6749 4739 Pls
6749 4739 Pls
6749 4739 Pls
6749 4683 Pls
6749 4739 Pls
6749 4739 Pls
6749 4739 Pls
6749 4613 Pls
6749 4706 Pls
6749 4696 Pls
6749 4739 Pls
6749 4739 Pls
6749 4739 Pls
6749 4663 Pls
6749 4739 Pls
6749 4739 Pls
6749 4739 Pls
6749 4739 Pls
6749 4739 Pls
6749 4739 Pls
6749 4739 Pls
6749 4739 Pls
6749 4739 Pls
6749 4739 Pls
6749 4739 Pls
6749 4739 Pls
6749 4739 Pls
6749 4739 Pls
6749 4739 Pls
6749 4685 Pls
6749 4739 Pls
6749 4739 Pls
6749 4588 Pls
6749 4739 Pls
6749 4739 Pls
6749 4739 Pls
6749 4739 Pls
6749 4659 Pls
6749 4598 Pls
6749 4739 Pls
6749 4659 Pls
6749 4739 Pls
6749 4739 Pls
6749 4580 Pls
6749 4556 Pls
6749 4739 Pls
6749 4739 Pls
6749 4739 Pls
6749 4739 Pls
6749 4739 Pls
6749 4739 Pls
6749 4739 Pls
6749 4739 Pls
6749 4694 Pls
6749 4739 Pls
6749 4739 Pls
6749 4621 Pls
6749 4690 Pls
6749 4739 Pls
6749 4739 Pls
6749 4739 Pls
6749 4664 Pls
6749 4739 Pls
6749 4739 Pls
6749 4607 Pls
6749 4680 Pls
6749 4739 Pls
6749 4626 Pls
6749 4669 Pls
6749 4739 Pls
6749 4739 Pls
6749 4739 Pls
6749 4391 Pls
6749 4739 Pls
6749 4270 Pls
6749 4739 Pls
6749 4669 Pls
6749 4683 Pls
6749 4514 Pls
6749 4422 Pls
6749 4669 Pls
6749 4564 Pls
6749 3989 Pls
6749 4445 Pls
6749 4523 Pls
6749 4685 Pls
6749 4739 Pls
6749 4739 Pls
6749 4709 Pls
6749 4690 Pls
6749 4739 Pls
6749 4601 Pls
6749 4680 Pls
6749 4636 Pls
6749 4739 Pls
6749 4739 Pls
6749 4632 Pls
6749 4697 Pls
6749 4739 Pls
6749 4739 Pls
6749 4739 Pls
6749 4739 Pls
6749 4739 Pls
6749 4739 Pls
6749 4676 Pls
6749 4643 Pls
6749 4739 Pls
6749 4739 Pls
6749 4669 Pls
6749 4561 Pls
6749 4364 Pls
6749 4637 Pls
6749 4555 Pls
6749 4569 Pls
6749 4326 Pls
6749 4534 Pls
6749 4591 Pls
6749 4598 Pls
6749 3951 Pls
6749 4496 Pls
6749 4196 Pls
6749 4528 Pls
6749 4345 Pls
6749 4252 Pls
6749 4453 Pls
6749 4629 Pls
6749 4739 Pls
6749 4739 Pls
6749 4739 Pls
6749 4641 Pls
6749 4739 Pls
6749 4701 Pls
6749 4739 Pls
6749 4688 Pls
6749 4739 Pls
6749 4739 Pls
6749 4688 Pls
6749 4716 Pls
6749 4739 Pls
6749 4739 Pls
6749 4708 Pls
6749 4512 Pls
6749 4739 Pls
6749 4739 Pls
6749 4739 Pls
6749 4694 Pls
6749 4739 Pls
6749 4739 Pls
6749 4669 Pls
6749 4680 Pls
6749 3820 Pls
6749 4524 Pls
6749 4512 Pls
6749 4576 Pls
6749 4176 Pls
6749 4524 Pls
6749 4363 Pls
6749 4380 Pls
6749 4739 Pls
6749 4439 Pls
6749 4569 Pls
6749 4356 Pls
6749 3801 Pls
6749 4036 Pls
6749 4347 Pls
6749 4570 Pls
% End plot #1
% Begin plot #2
8.000 UL
LT1
LCb setrgbcolor
5636 1488 M
[ [(Helvetica) 250.0 0.0 true true 0 (Average)]
] -83.3 MRshow
LT1
5786 1488 M
663 0 V
1225 4114 M
691 261 V
690 100 V
691 74 V
690 29 V
691 4 V
690 17 V
691 40 V
690 12 V
% End plot #2
% Begin plot #3
stroke
4.000 UL
LT2
LCb setrgbcolor
5636 1238 M
[ [(Helvetica) 250.0 0.0 true true 0 (Min)]
] -83.3 MRshow
LT2
5786 1238 M
663 0 V
1225 925 M
691 921 V
690 299 V
691 678 V
690 165 V
691 478 V
690 -981 V
691 1185 V
690 131 V
% End plot #3
% Begin plot #4
stroke
LT3
LCb setrgbcolor
5636 988 M
[ [(Helvetica) 250.0 0.0 true true 0 (Max)]
] -83.3 MRshow
LT3
5786 988 M
663 0 V
1225 4739 M
691 0 V
690 0 V
691 0 V
690 0 V
691 0 V
690 0 V
691 0 V
690 0 V
% End plot #4
stroke
1.000 UL
LTb
1225 4739 N
0 -3939 V
5524 0 V
0 3939 V
-5524 0 V
Z stroke
1.000 UP
1.000 UL
LTb
stroke
grestore
end
showpage
%%Trailer
%%DocumentFonts: Helvetica
